@startuml
    set namespaceSeparator none
    hide empty fields
    hide empty methods

    class "<size:14>DciPersistenceJpaExample\n<size:10>it.tidalwave.thesefoolishthings.examples.dci.persistable.jpa" as it.tidalwave.thesefoolishthings.examples.dci.persistable.jpa.DciPersistenceJpaExample [[DciPersistenceJpaExample.html]] {
        +run(): void
    }

    center footer UMLDoclet 2.0.12, PlantUML 1.2020.16
@enduml
