@startuml
    set namespaceSeparator none
    hide empty fields
    hide empty methods

    class "<size:14>EmbeddedServer.Document\n<size:10>it.tidalwave.northernwind.rca.embeddedserver" as it.tidalwave.northernwind.rca.embeddedserver.EmbeddedServer.Document [[EmbeddedServer.Document.html]] {
        +update(String): void
    }

    interface "<size:14>EmbeddedServer\n<size:10>it.tidalwave.northernwind.rca.embeddedserver" as it.tidalwave.northernwind.rca.embeddedserver.EmbeddedServer [[EmbeddedServer.html]] {
        {abstract} +getPort(): int
        {abstract} +putDocument(String, Document): String
    }
    interface "<size:14>EmbeddedServer.Document.UpdateListener\n<size:10>it.tidalwave.northernwind.rca.embeddedserver" as it.tidalwave.northernwind.rca.embeddedserver.EmbeddedServer.Document.UpdateListener [[EmbeddedServer.Document.UpdateListener.html]]

    it.tidalwave.northernwind.rca.embeddedserver.EmbeddedServer +-- it.tidalwave.northernwind.rca.embeddedserver.EmbeddedServer.Document
    it.tidalwave.northernwind.rca.embeddedserver.EmbeddedServer.Document +-- it.tidalwave.northernwind.rca.embeddedserver.EmbeddedServer.Document.UpdateListener

    center footer UMLDoclet 2.0.12, PlantUML 1.2020.16
@enduml
