<?xml version="1.0" encoding="UTF-8" standalone="no"?><svg xmlns="http://www.w3.org/2000/svg" xmlns:xlink="http://www.w3.org/1999/xlink" contentScriptType="application/ecmascript" contentStyleType="text/css" height="430px" preserveAspectRatio="none" style="width:1241px;height:430px;" version="1.1" viewBox="0 0 1241 430" width="1241px" zoomAndPan="magnify"><defs><filter height="300%" id="f1r0ruhccw3cgg" width="300%" x="-1" y="-1"><feGaussianBlur result="blurOut" stdDeviation="2.0"/><feColorMatrix in="blurOut" result="blurOut2" type="matrix" values="0 0 0 0 0 0 0 0 0 0 0 0 0 0 0 0 0 0 .4 0"/><feOffset dx="4.0" dy="4.0" in="blurOut2" result="blurOut3"/><feBlend in="SourceGraphic" in2="blurOut3" mode="normal"/></filter></defs><g><!--MD5=[001f725cf3fc23245c397069277c3f28]
cluster it.tidalwave.role.ui.spi--><polygon fill="#FFFFFF" filter="url(#f1r0ruhccw3cgg)" points="16,50,176,50,183,72.0986,677,72.0986,677,402,16,402,16,50" style="stroke: #000000; stroke-width: 1.5;"/><line style="stroke: #000000; stroke-width: 1.5;" x1="16" x2="183" y1="72.0986" y2="72.0986"/><text fill="#000000" font-family="sans-serif" font-size="14" font-weight="bold" lengthAdjust="spacingAndGlyphs" textLength="154" x="20" y="65.1318">it.tidalwave.role.ui.spi</text><!--MD5=[ab149ffdaace04607ca43f034ce9b9c0]
cluster it.tidalwave.util--><polygon fill="#FFFFFF" filter="url(#f1r0ruhccw3cgg)" points="701,6,813,6,820,28.0986,979,28.0986,979,231,701,231,701,6" style="stroke: #000000; stroke-width: 1.5;"/><line style="stroke: #000000; stroke-width: 1.5;" x1="701" x2="820" y1="28.0986" y2="28.0986"/><text fill="#000000" font-family="sans-serif" font-size="14" font-weight="bold" lengthAdjust="spacingAndGlyphs" textLength="106" x="705" y="21.1318">it.tidalwave.util</text><!--MD5=[a7ca9ec2a63815c8336b48c8b310b176]
cluster it.tidalwave.role--><polygon fill="#FFFFFF" filter="url(#f1r0ruhccw3cgg)" points="1003,50,1121,50,1128,72.0986,1219,72.0986,1219,187,1003,187,1003,50" style="stroke: #000000; stroke-width: 1.5;"/><line style="stroke: #000000; stroke-width: 1.5;" x1="1003" x2="1128" y1="72.0986" y2="72.0986"/><text fill="#000000" font-family="sans-serif" font-size="14" font-weight="bold" lengthAdjust="spacingAndGlyphs" textLength="112" x="1007" y="65.1318">it.tidalwave.role</text><!--MD5=[672fb7730e0daf777985cddf0156e763]
class it.tidalwave.role.ui.spi.SimpleCompositePresentableTest--><a href="SimpleCompositePresentableTest.html" target="_top" title="SimpleCompositePresentableTest.html" xlink:actuate="onRequest" xlink:href="SimpleCompositePresentableTest.html" xlink:show="new" xlink:title="SimpleCompositePresentableTest.html" xlink:type="simple"><rect codeLine="3" fill="#FEFECE" filter="url(#f1r0ruhccw3cgg)" height="73.2979" id="it.tidalwave.role.ui.spi.SimpleCompositePresentableTest" style="stroke: #A80036; stroke-width: 1.5;" width="384" x="277" y="91.5"/><ellipse cx="369.25" cy="107.5" fill="#ADD1B2" rx="11" ry="11" style="stroke: #A80036; stroke-width: 1.0;"/><path d="M367.1563,107.3438 Q367.1563,109.2188 367.7344,110.2344 Q368.3125,111.2344 369.4688,111.2344 Q370.8125,111.2344 371.4688,109.2188 L373.7344,109.6406 Q372.625,113.1719 369.4531,113.1719 Q367.1094,113.1719 365.8906,111.6875 Q364.6719,110.2031 364.6719,107.3438 Q364.6719,101.625 369.375,101.625 Q370.9219,101.625 371.9531,102.4375 Q373,103.25 373.5,104.8594 L371.2344,105.4063 Q371,104.5313 370.5156,104.0469 Q370.0313,103.5469 369.4063,103.5469 Q367.1563,103.5469 367.1563,107.3438 Z "/><text fill="#000000" font-family="sans-serif" font-size="12" lengthAdjust="spacingAndGlyphs" textLength="191" x="389.75" y="111.8564">SimpleCompositePresentableTest</text><line style="stroke: #A80036; stroke-width: 1.5;" x1="278" x2="660" y1="123.5" y2="123.5"/><line style="stroke: #A80036; stroke-width: 1.5;" x1="278" x2="660" y1="131.5" y2="131.5"/><ellipse cx="288" cy="142.5" fill="#84BE84" rx="3" ry="3" style="stroke: #038048; stroke-width: 1.0;"/><text fill="#000000" font-family="sans-serif" font-size="11" lengthAdjust="spacingAndGlyphs" textLength="61" x="297" y="145.8179">setup(): void</text><ellipse cx="288" cy="155.1489" fill="#84BE84" rx="3" ry="3" style="stroke: #038048; stroke-width: 1.0;"/><text fill="#000000" font-family="sans-serif" font-size="11" lengthAdjust="spacingAndGlyphs" textLength="358" x="297" y="158.4668">must_create_a_PresentationModel_containing_the_proper_children(): void</text></a><!--MD5=[67ab1d27c13ba93a2dedf59a3417c5e2]
class it.tidalwave.role.ui.spi.SimpleCompositePresentableTest.MockDatum--><a href="SimpleCompositePresentableTest.MockDatum.html" target="_top" title="SimpleCompositePresentableTest.MockDatum.html" xlink:actuate="onRequest" xlink:href="SimpleCompositePresentableTest.MockDatum.html" xlink:show="new" xlink:title="SimpleCompositePresentableTest.MockDatum.html" xlink:type="simple"><rect codeLine="8" fill="#FEFECE" filter="url(#f1r0ruhccw3cgg)" height="111.2446" id="it.tidalwave.role.ui.spi.SimpleCompositePresentableTest.MockDatum" style="stroke: #A80036; stroke-width: 1.5;" width="291" x="370.5" y="275"/><ellipse cx="385.5" cy="291" fill="#ADD1B2" rx="11" ry="11" style="stroke: #A80036; stroke-width: 1.0;"/><path d="M383.4063,290.8438 Q383.4063,292.7188 383.9844,293.7344 Q384.5625,294.7344 385.7188,294.7344 Q387.0625,294.7344 387.7188,292.7188 L389.9844,293.1406 Q388.875,296.6719 385.7031,296.6719 Q383.3594,296.6719 382.1406,295.1875 Q380.9219,293.7031 380.9219,290.8438 Q380.9219,285.125 385.625,285.125 Q387.1719,285.125 388.2031,285.9375 Q389.25,286.75 389.75,288.3594 L387.4844,288.9063 Q387.25,288.0313 386.7656,287.5469 Q386.2813,287.0469 385.6563,287.0469 Q383.4063,287.0469 383.4063,290.8438 Z "/><text fill="#000000" font-family="sans-serif" font-size="12" lengthAdjust="spacingAndGlyphs" textLength="259" x="399.5" y="295.3564">SimpleCompositePresentableTest.MockDatum</text><line style="stroke: #A80036; stroke-width: 1.5;" x1="371.5" x2="660.5" y1="307" y2="307"/><line style="stroke: #A80036; stroke-width: 1.5;" x1="371.5" x2="660.5" y1="315" y2="315"/><ellipse cx="381.5" cy="326" fill="#84BE84" rx="3" ry="3" style="stroke: #038048; stroke-width: 1.0;"/><text fill="#000000" font-family="sans-serif" font-size="11" lengthAdjust="spacingAndGlyphs" textLength="91" x="390.5" y="329.3179">MockDatum(String)</text><ellipse cx="381.5" cy="338.6489" fill="#84BE84" rx="3" ry="3" style="stroke: #038048; stroke-width: 1.0;"/><text fill="#000000" font-family="sans-serif" font-size="11" lengthAdjust="spacingAndGlyphs" textLength="193" x="390.5" y="341.9668">withChildren(MockDatum...): MockDatum</text><ellipse cx="381.5" cy="351.2979" fill="#84BE84" rx="3" ry="3" style="stroke: #038048; stroke-width: 1.0;"/><text fill="#000000" font-family="sans-serif" font-size="11" lengthAdjust="spacingAndGlyphs" textLength="213" x="390.5" y="354.6157">withChildren(List&lt;MockDatum&gt;): MockDatum</text><ellipse cx="381.5" cy="363.9468" fill="#84BE84" rx="3" ry="3" style="stroke: #038048; stroke-width: 1.0;"/><text fill="#000000" font-family="sans-serif" font-size="11" lengthAdjust="spacingAndGlyphs" textLength="213" x="390.5" y="367.2646">maybeAs(Class&lt;? extends T&gt;): Optional&lt;T&gt;</text><ellipse cx="381.5" cy="376.5957" fill="#84BE84" rx="3" ry="3" style="stroke: #038048; stroke-width: 1.0;"/><text fill="#000000" font-family="sans-serif" font-size="11" lengthAdjust="spacingAndGlyphs" textLength="212" x="390.5" y="379.9136">asMany(Class&lt;? extends T&gt;): Collection&lt;T&gt;</text></a><!--MD5=[68a5406c2e7779f06627c3cde9d75137]
class it.tidalwave.role.ui.spi.DefaultUserActionProviderTest--><a href="DefaultUserActionProviderTest.html" target="_top" title="DefaultUserActionProviderTest.html" xlink:actuate="onRequest" xlink:href="DefaultUserActionProviderTest.html" xlink:show="new" xlink:title="DefaultUserActionProviderTest.html" xlink:type="simple"><rect codeLine="16" fill="#FEFECE" filter="url(#f1r0ruhccw3cgg)" height="85.9468" id="it.tidalwave.role.ui.spi.DefaultUserActionProviderTest" style="stroke: #A80036; stroke-width: 1.5;" width="210" x="32" y="85"/><ellipse cx="51.5" cy="101" fill="#ADD1B2" rx="11" ry="11" style="stroke: #A80036; stroke-width: 1.0;"/><path d="M49.4063,100.8438 Q49.4063,102.7188 49.9844,103.7344 Q50.5625,104.7344 51.7188,104.7344 Q53.0625,104.7344 53.7188,102.7188 L55.9844,103.1406 Q54.875,106.6719 51.7031,106.6719 Q49.3594,106.6719 48.1406,105.1875 Q46.9219,103.7031 46.9219,100.8438 Q46.9219,95.125 51.625,95.125 Q53.1719,95.125 54.2031,95.9375 Q55.25,96.75 55.75,98.3594 L53.4844,98.9063 Q53.25,98.0313 52.7656,97.5469 Q52.2813,97.0469 51.6563,97.0469 Q49.4063,97.0469 49.4063,100.8438 Z "/><text fill="#000000" font-family="sans-serif" font-size="12" lengthAdjust="spacingAndGlyphs" textLength="168" x="66.5" y="105.3564">DefaultUserActionProviderTest</text><line style="stroke: #A80036; stroke-width: 1.5;" x1="33" x2="241" y1="117" y2="117"/><line style="stroke: #A80036; stroke-width: 1.5;" x1="33" x2="241" y1="125" y2="125"/><ellipse cx="43" cy="136" fill="#84BE84" rx="3" ry="3" style="stroke: #038048; stroke-width: 1.0;"/><text fill="#000000" font-family="sans-serif" font-size="11" lengthAdjust="spacingAndGlyphs" textLength="61" x="52" y="139.3179">setup(): void</text><ellipse cx="43" cy="148.6489" fill="#84BE84" rx="3" ry="3" style="stroke: #038048; stroke-width: 1.0;"/><text fill="#000000" font-family="sans-serif" font-size="11" lengthAdjust="spacingAndGlyphs" textLength="151" x="52" y="151.9668">must_return_no_actions(): void</text><ellipse cx="43" cy="161.2979" fill="#84BE84" rx="3" ry="3" style="stroke: #038048; stroke-width: 1.0;"/><text fill="#000000" font-family="sans-serif" font-size="11" lengthAdjust="spacingAndGlyphs" textLength="184" x="52" y="164.6157">must_return_no_default_action(): void</text></a><!--MD5=[dab04e1bf87902def4158d0914d2f9d5]
class it.tidalwave.util.As--><a href="https://tidalwave.bitbucket.io/thesefoolishthings/modules/it-tidalwave-util/apidocs/it/tidalwave/util/As.html?is-external=true" target="_top" title="https://tidalwave.bitbucket.io/thesefoolishthings/modules/it-tidalwave-util/apidocs/it/tidalwave/util/As.html?is-external=true" xlink:actuate="onRequest" xlink:href="https://tidalwave.bitbucket.io/thesefoolishthings/modules/it-tidalwave-util/apidocs/it/tidalwave/util/As.html?is-external=true" xlink:show="new" xlink:title="https://tidalwave.bitbucket.io/thesefoolishthings/modules/it-tidalwave-util/apidocs/it/tidalwave/util/As.html?is-external=true" xlink:type="simple"><rect codeLine="28" fill="#FEFECE" filter="url(#f1r0ruhccw3cgg)" height="174.4893" id="it.tidalwave.util.As" style="stroke: #A80036; stroke-width: 1.5;" width="246" x="717" y="41"/><ellipse cx="828.75" cy="57" fill="#B4A7E5" rx="11" ry="11" style="stroke: #A80036; stroke-width: 1.0;"/><path d="M825.0469,51.2969 L832.6563,51.2969 L832.6563,53.1875 L830.0781,53.1875 L830.0781,60.6094 L832.6563,60.6094 L832.6563,62.5 L825.0469,62.5 L825.0469,60.6094 L827.6406,60.6094 L827.6406,53.1875 L825.0469,53.1875 L825.0469,51.2969 Z "/><text fill="#000000" font-family="sans-serif" font-size="12" font-style="italic" lengthAdjust="spacingAndGlyphs" textLength="14" x="849.25" y="61.3564">As</text><line style="stroke: #A80036; stroke-width: 1.5;" x1="718" x2="962" y1="73" y2="73"/><line style="stroke: #A80036; stroke-width: 1.5;" x1="718" x2="962" y1="81" y2="81"/><ellipse cx="728" cy="92" fill="#84BE84" rx="3" ry="3" style="stroke: #038048; stroke-width: 1.0;"/><text fill="#000000" font-family="sans-serif" font-size="11" lengthAdjust="spacingAndGlyphs" text-decoration="underline" textLength="104" x="737" y="95.3179">forObject(Object): As</text><ellipse cx="728" cy="104.6489" fill="#84BE84" rx="3" ry="3" style="stroke: #038048; stroke-width: 1.0;"/><text fill="#000000" font-family="sans-serif" font-size="11" lengthAdjust="spacingAndGlyphs" text-decoration="underline" textLength="141" x="737" y="107.9668">forObject(Object, Object): As</text><ellipse cx="728" cy="117.2979" fill="#84BE84" rx="3" ry="3" style="stroke: #038048; stroke-width: 1.0;"/><text fill="#000000" font-family="sans-serif" font-size="11" lengthAdjust="spacingAndGlyphs" text-decoration="underline" textLength="199" x="737" y="120.6157">forObject(Object, Collection&lt;Object&gt;): As</text><ellipse cx="728" cy="129.9468" fill="#84BE84" rx="3" ry="3" style="stroke: #038048; stroke-width: 1.0;"/><text fill="#000000" font-family="sans-serif" font-size="11" lengthAdjust="spacingAndGlyphs" textLength="128" x="737" y="133.2646">as(Class&lt;? extends T&gt;): T</text><ellipse cx="728" cy="142.5957" fill="#84BE84" rx="3" ry="3" style="stroke: #038048; stroke-width: 1.0;"/><text fill="#000000" font-family="sans-serif" font-size="11" font-style="italic" lengthAdjust="spacingAndGlyphs" textLength="220" x="737" y="145.9136">maybeAs(Class&lt;? extends T&gt;): Optional&lt;T&gt;</text><ellipse cx="728" cy="155.2446" fill="#84BE84" rx="3" ry="3" style="stroke: #038048; stroke-width: 1.0;"/><text fill="#000000" font-family="sans-serif" font-size="11" font-style="italic" lengthAdjust="spacingAndGlyphs" textLength="220" x="737" y="158.5625">asMany(Class&lt;? extends T&gt;): Collection&lt;T&gt;</text><ellipse cx="728" cy="167.8936" fill="#84BE84" rx="3" ry="3" style="stroke: #038048; stroke-width: 1.0;"/><text fill="#000000" font-family="sans-serif" font-size="11" lengthAdjust="spacingAndGlyphs" text-decoration="underline" textLength="122" x="737" y="171.2114">type(Class&lt;?&gt;): Type&lt;T&gt;</text><ellipse cx="728" cy="180.5425" fill="#84BE84" rx="3" ry="3" style="stroke: #038048; stroke-width: 1.0;"/><text fill="#000000" font-family="sans-serif" font-size="11" lengthAdjust="spacingAndGlyphs" textLength="125" x="737" y="183.8604">as(Type&lt;? extends T&gt;): T</text><ellipse cx="728" cy="193.1914" fill="#84BE84" rx="3" ry="3" style="stroke: #038048; stroke-width: 1.0;"/><text fill="#000000" font-family="sans-serif" font-size="11" lengthAdjust="spacingAndGlyphs" textLength="210" x="737" y="196.5093">maybeAs(Type&lt;? extends T&gt;): Optional&lt;T&gt;</text><ellipse cx="728" cy="205.8403" fill="#84BE84" rx="3" ry="3" style="stroke: #038048; stroke-width: 1.0;"/><text fill="#000000" font-family="sans-serif" font-size="11" lengthAdjust="spacingAndGlyphs" textLength="209" x="737" y="209.1582">asMany(Type&lt;? extends T&gt;): Collection&lt;T&gt;</text></a><!--MD5=[f40774d2c0efa8b70d7c747ac61cb911]
class it.tidalwave.role.Identifiable--><a href="../../../../../../apidocs/it/tidalwave/role/Identifiable.html" target="_top" title="../../../../../../apidocs/it/tidalwave/role/Identifiable.html" xlink:actuate="onRequest" xlink:href="../../../../../../apidocs/it/tidalwave/role/Identifiable.html" xlink:show="new" xlink:title="../../../../../../apidocs/it/tidalwave/role/Identifiable.html" xlink:type="simple"><rect codeLine="43" fill="#FEFECE" filter="url(#f1r0ruhccw3cgg)" height="85.9468" id="it.tidalwave.role.Identifiable" style="stroke: #A80036; stroke-width: 1.5;" width="185" x="1018.5" y="85"/><ellipse cx="1075.75" cy="101" fill="#B4A7E5" rx="11" ry="11" style="stroke: #A80036; stroke-width: 1.0;"/><path d="M1072.0469,95.2969 L1079.6563,95.2969 L1079.6563,97.1875 L1077.0781,97.1875 L1077.0781,104.6094 L1079.6563,104.6094 L1079.6563,106.5 L1072.0469,106.5 L1072.0469,104.6094 L1074.6406,104.6094 L1074.6406,97.1875 L1072.0469,97.1875 L1072.0469,95.2969 Z "/><text fill="#000000" font-family="sans-serif" font-size="12" font-style="italic" lengthAdjust="spacingAndGlyphs" textLength="62" x="1096.25" y="105.3564">Identifiable</text><line style="stroke: #A80036; stroke-width: 1.5;" x1="1019.5" x2="1202.5" y1="117" y2="117"/><ellipse cx="1029.5" cy="128" fill="none" rx="3" ry="3" style="stroke: #038048; stroke-width: 1.0;"/><text fill="#000000" font-family="sans-serif" font-size="11" lengthAdjust="spacingAndGlyphs" text-decoration="underline" textLength="159" x="1038.5" y="131.3179">_Identifiable_: Class&lt;Identifiable&gt;</text><line style="stroke: #A80036; stroke-width: 1.5;" x1="1019.5" x2="1202.5" y1="137.6489" y2="137.6489"/><ellipse cx="1029.5" cy="148.6489" fill="#84BE84" rx="3" ry="3" style="stroke: #038048; stroke-width: 1.0;"/><text fill="#000000" font-family="sans-serif" font-size="11" font-style="italic" lengthAdjust="spacingAndGlyphs" textLength="47" x="1038.5" y="151.9668">getId(): Id</text><ellipse cx="1029.5" cy="161.2979" fill="#84BE84" rx="3" ry="3" style="stroke: #038048; stroke-width: 1.0;"/><text fill="#000000" font-family="sans-serif" font-size="11" lengthAdjust="spacingAndGlyphs" text-decoration="underline" textLength="83" x="1038.5" y="164.6157">of(Id): Identifiable</text></a><!--MD5=[7fb28350d1aab3fcfbf7716ac2bfe678]
reverse link it.tidalwave.util.As to it.tidalwave.role.ui.spi.SimpleCompositePresentableTest.MockDatum--><path codeLine="22" d="M700.01,224.53 C692.26,229.48 684.56,234.34 677,239 C657.49,251.04 636.32,263.41 615.94,275 " fill="none" id="it.tidalwave.util.As-backto-it.tidalwave.role.ui.spi.SimpleCompositePresentableTest.MockDatum" style="stroke: #A80036; stroke-width: 1.0; stroke-dasharray: 7.0,7.0;"/><polygon fill="none" points="696.39,218.54,716.98,213.56,703.99,230.29,696.39,218.54" style="stroke: #A80036; stroke-width: 1.0;"/><!--MD5=[d75188f7a30386963d25538b7bc76c62]
reverse link it.tidalwave.role.Identifiable to it.tidalwave.role.ui.spi.SimpleCompositePresentableTest.MockDatum--><path codeLine="23" d="M1056.48,185.02 C1034.22,204.9 1007.1,225.64 979,239 C879.15,286.48 755.85,309.05 661.61,319.78 " fill="none" id="it.tidalwave.role.Identifiable-backto-it.tidalwave.role.ui.spi.SimpleCompositePresentableTest.MockDatum" style="stroke: #A80036; stroke-width: 1.0; stroke-dasharray: 7.0,7.0;"/><polygon fill="none" points="1052.01,179.62,1071.43,171.15,1061.53,189.89,1052.01,179.62" style="stroke: #A80036; stroke-width: 1.0;"/><!--MD5=[d7b1687e978af51454c1a2c187641482]
reverse link it.tidalwave.role.ui.spi.SimpleCompositePresentableTest to it.tidalwave.role.ui.spi.SimpleCompositePresentableTest.MockDatum--><path codeLine="24" d="M480.88,179.68 C487.67,208.66 496.2,245.04 503.15,274.69 " fill="none" id="it.tidalwave.role.ui.spi.SimpleCompositePresentableTest-backto-it.tidalwave.role.ui.spi.SimpleCompositePresentableTest.MockDatum" style="stroke: #A80036; stroke-width: 1.0;"/><ellipse cx="479.2272" cy="172.6385" fill="#FFFFFF" rx="8" ry="8" style="stroke: #A80036; stroke-width: 1.0;"/><line style="stroke: #A80036; stroke-width: 1.0;" x1="481.0544" x2="477.4" y1="180.4271" y2="164.85"/><line style="stroke: #A80036; stroke-width: 1.0;" x1="471.4387" x2="487.0158" y1="174.4658" y2="170.8113"/><text fill="#888888" font-family="sans-serif" font-size="10" lengthAdjust="spacingAndGlyphs" textLength="190" x="516.5" y="417.3799">UMLDoclet 2.0.12, PlantUML 1.2020.16</text><!--MD5=[48f36d4571293b5a3c8b2b0bdf9cef7b]
@startuml
    namespace it.tidalwave.role.ui.spi {

        class SimpleCompositePresentableTest [[SimpleCompositePresentableTest.html]] {
            +setup(): void
            +must_create_a_PresentationModel_containing_the_proper_children(): void
        }

        class it.tidalwave.role.ui.spi.SimpleCompositePresentableTest.MockDatum [[SimpleCompositePresentableTest.MockDatum.html]] {
            +MockDatum(String)
            +withChildren(MockDatum...): MockDatum
            +withChildren(List<MockDatum>): MockDatum
            +maybeAs(Class<? extends T>): Optional<T>
            +asMany(Class<? extends T>): Collection<T>
        }

        class DefaultUserActionProviderTest [[DefaultUserActionProviderTest.html]] {
            +setup(): void
            +must_return_no_actions(): void
            +must_return_no_default_action(): void
        }

        it.tidalwave.util.As <|.. it.tidalwave.role.ui.spi.SimpleCompositePresentableTest.MockDatum
        it.tidalwave.role.Identifiable <|.. it.tidalwave.role.ui.spi.SimpleCompositePresentableTest.MockDatum
        SimpleCompositePresentableTest +- - it.tidalwave.role.ui.spi.SimpleCompositePresentableTest.MockDatum
    }

    namespace it.tidalwave.util {
        interface As [[https://tidalwave.bitbucket.io/thesefoolishthings/modules/it-tidalwave-util/apidocs/it/tidalwave/util/As.html?is-external=true]] {
            {static} +forObject(Object): As
            {static} +forObject(Object, Object): As
            {static} +forObject(Object, Collection<Object>): As
            +as(Class<? extends T>): T
            {abstract} +maybeAs(Class<? extends T>): Optional<T>
            {abstract} +asMany(Class<? extends T>): Collection<T>
            {static} +type(Class<?>): Type<T>
            +as(Type<? extends T>): T
            +maybeAs(Type<? extends T>): Optional<T>
            +asMany(Type<? extends T>): Collection<T>
        }
    }

    namespace it.tidalwave.role {
        interface Identifiable [[../../../../../../apidocs/it/tidalwave/role/Identifiable.html]] {
            {static} +_Identifiable_: Class<Identifiable>
            {abstract} +getId(): Id
            {static} +of(Id): Identifiable
        }
    }

    center footer UMLDoclet 2.0.12, PlantUML 1.2020.16
@enduml

PlantUML version 1.2020.16(Sun Aug 23 22:20:43 CEST 2020)
(APACHE source distribution)
Java Runtime: OpenJDK Runtime Environment
JVM: OpenJDK 64-Bit Server VM
Default Encoding: UTF-8
Language: en
Country: US
--></g></svg>