<?xml version="1.0" encoding="UTF-8" standalone="no"?><svg xmlns="http://www.w3.org/2000/svg" xmlns:xlink="http://www.w3.org/1999/xlink" contentScriptType="application/ecmascript" contentStyleType="text/css" height="278px" preserveAspectRatio="none" style="width:321px;height:278px;" version="1.1" viewBox="0 0 321 278" width="321px" zoomAndPan="magnify"><defs><filter height="300%" id="f1ccpdwo9bejen" width="300%" x="-1" y="-1"><feGaussianBlur result="blurOut" stdDeviation="2.0"/><feColorMatrix in="blurOut" result="blurOut2" type="matrix" values="0 0 0 0 0 0 0 0 0 0 0 0 0 0 0 0 0 0 .4 0"/><feOffset dx="4.0" dy="4.0" in="blurOut2" result="blurOut3"/><feBlend in="SourceGraphic" in2="blurOut3" mode="normal"/></filter></defs><g><!--MD5=[75f8e440928e95f7c95defbbb49fa852]
class it.tidalwave.northernwind.frontend.ui.component.blog.BlogViewController--><a href="BlogViewController.html" target="_top" title="BlogViewController.html" xlink:actuate="onRequest" xlink:href="BlogViewController.html" xlink:show="new" xlink:title="BlogViewController.html" xlink:type="simple"><rect codeLine="5" fill="#FEFECE" filter="url(#f1ccpdwo9bejen)" height="136.9512" id="it.tidalwave.northernwind.frontend.ui.component.blog.BlogViewController" style="stroke: #A80036; stroke-width: 1.5;" width="295" x="7" y="105"/><ellipse cx="22" cy="124.1328" fill="#B4A7E5" rx="11" ry="11" style="stroke: #A80036; stroke-width: 1.0;"/><path d="M18.4277,120.3979 L18.4277,118.2397 L25.8071,118.2397 L25.8071,120.3979 L23.3418,120.3979 L23.3418,128.4746 L25.8071,128.4746 L25.8071,130.6328 L18.4277,130.6328 L18.4277,128.4746 L20.8931,128.4746 L20.8931,120.3979 Z "/><text fill="#000000" font-family="sans-serif" font-size="14" font-style="italic" lengthAdjust="spacingAndGlyphs" textLength="132" x="101.5" y="123.5352">BlogViewController</text><text fill="#000000" font-family="sans-serif" font-size="10" font-style="italic" lengthAdjust="spacingAndGlyphs" textLength="263" x="36" y="136.1563">it.tidalwave.northernwind.frontend.ui.component.blog</text><line style="stroke: #A80036; stroke-width: 1.5;" x1="8" x2="301" y1="143.2656" y2="143.2656"/><ellipse cx="18" cy="154.2656" fill="none" rx="3" ry="3" style="stroke: #038048; stroke-width: 1.0;"/><text fill="#000000" font-family="sans-serif" font-size="11" lengthAdjust="spacingAndGlyphs" text-decoration="underline" textLength="186" x="27" y="157.9004">P_MAX_FULL_ITEMS: Key&lt;Integer&gt;</text><ellipse cx="18" cy="167.2207" fill="none" rx="3" ry="3" style="stroke: #038048; stroke-width: 1.0;"/><text fill="#000000" font-family="sans-serif" font-size="11" lengthAdjust="spacingAndGlyphs" text-decoration="underline" textLength="199" x="27" y="170.8555">P_MAX_LEADIN_ITEMS: Key&lt;Integer&gt;</text><ellipse cx="18" cy="180.1758" fill="none" rx="3" ry="3" style="stroke: #038048; stroke-width: 1.0;"/><text fill="#000000" font-family="sans-serif" font-size="11" lengthAdjust="spacingAndGlyphs" text-decoration="underline" textLength="154" x="27" y="183.8105">P_MAX_ITEMS: Key&lt;Integer&gt;</text><ellipse cx="18" cy="193.1309" fill="none" rx="3" ry="3" style="stroke: #038048; stroke-width: 1.0;"/><text fill="#000000" font-family="sans-serif" font-size="11" lengthAdjust="spacingAndGlyphs" text-decoration="underline" textLength="129" x="27" y="196.7656">P_INDEX: Key&lt;Boolean&gt;</text><ellipse cx="18" cy="206.0859" fill="none" rx="3" ry="3" style="stroke: #038048; stroke-width: 1.0;"/><text fill="#000000" font-family="sans-serif" font-size="11" lengthAdjust="spacingAndGlyphs" text-decoration="underline" textLength="165" x="27" y="209.7207">P_TAG_CLOUD: Key&lt;Boolean&gt;</text><ellipse cx="18" cy="219.041" fill="none" rx="3" ry="3" style="stroke: #038048; stroke-width: 1.0;"/><text fill="#000000" font-family="sans-serif" font-size="11" lengthAdjust="spacingAndGlyphs" text-decoration="underline" textLength="147" x="27" y="222.6758">P_CATEGORY: Key&lt;String&gt;</text><ellipse cx="18" cy="231.9961" fill="none" rx="3" ry="3" style="stroke: #038048; stroke-width: 1.0;"/><text fill="#000000" font-family="sans-serif" font-size="11" lengthAdjust="spacingAndGlyphs" text-decoration="underline" textLength="138" x="27" y="235.6309">P_IMAGE_ID: Key&lt;String&gt;</text></a><!--MD5=[fd49f22f3a54ad6da4c032e73965af1a]
class it.tidalwave.northernwind.frontend.ui.ViewController--><a href="http://tidalwave.tidalwave.it/northernwind/it-tidalwave-northernwind-modules/it-tidalwave-northernwind-core/apidocs/it/tidalwave/northernwind/frontend/ui/ViewController.html?is-external=true" target="_top" title="http://tidalwave.tidalwave.it/northernwind/it-tidalwave-northernwind-modules/it-tidalwave-northernwind-core/apidocs/it/tidalwave/northernwind/frontend/ui/ViewController.html?is-external=true" xlink:actuate="onRequest" xlink:href="http://tidalwave.tidalwave.it/northernwind/it-tidalwave-northernwind-modules/it-tidalwave-northernwind-core/apidocs/it/tidalwave/northernwind/frontend/ui/ViewController.html?is-external=true" xlink:show="new" xlink:title="http://tidalwave.tidalwave.it/northernwind/it-tidalwave-northernwind-modules/it-tidalwave-northernwind-core/apidocs/it/tidalwave/northernwind/frontend/ui/ViewController.html?is-external=true" xlink:type="simple"><rect codeLine="15" fill="#FEFECE" filter="url(#f1ccpdwo9bejen)" height="38.2656" id="it.tidalwave.northernwind.frontend.ui.ViewController" style="stroke: #A80036; stroke-width: 1.5;" width="214" x="47.5" y="7"/><ellipse cx="62.5" cy="26.1328" fill="#B4A7E5" rx="11" ry="11" style="stroke: #A80036; stroke-width: 1.0;"/><path d="M58.9277,22.3979 L58.9277,20.2397 L66.3071,20.2397 L66.3071,22.3979 L63.8418,22.3979 L63.8418,30.4746 L66.3071,30.4746 L66.3071,32.6328 L58.9277,32.6328 L58.9277,30.4746 L61.3931,30.4746 L61.3931,22.3979 Z "/><text fill="#000000" font-family="sans-serif" font-size="14" font-style="italic" lengthAdjust="spacingAndGlyphs" textLength="102" x="116.5" y="25.5352">ViewController</text><text fill="#000000" font-family="sans-serif" font-size="10" font-style="italic" lengthAdjust="spacingAndGlyphs" textLength="182" x="76.5" y="38.1563">it.tidalwave.northernwind.frontend.ui</text></a><!--MD5=[1b26779ecc14c002d81cefb80ef60c6f]
reverse link it.tidalwave.northernwind.frontend.ui.ViewController to it.tidalwave.northernwind.frontend.ui.component.blog.BlogViewController--><path codeLine="17" d="M154.5,65.5397 C154.5,77.635 154.5,91.3073 154.5,104.7566 " fill="none" id="it.tidalwave.northernwind.frontend.ui.ViewController-backto-it.tidalwave.northernwind.frontend.ui.component.blog.BlogViewController" style="stroke: #A80036; stroke-width: 1.0;"/><polygon fill="none" points="147.5001,65.2831,154.5,45.283,161.5001,65.283,147.5001,65.2831" style="stroke: #A80036; stroke-width: 1.0;"/><text fill="#888888" font-family="sans-serif" font-size="10" lengthAdjust="spacingAndGlyphs" textLength="188" x="57.5" y="264.6191">UMLDoclet 2.0.12, PlantUML 1.2020.16</text><!--MD5=[4daad543aa05ee377c599d13aba21f88]
@startuml
    set namespaceSeparator none
    hide empty fields
    hide empty methods

    interface "<size:14>BlogViewController\n<size:10>it.tidalwave.northernwind.frontend.ui.component.blog" as it.tidalwave.northernwind.frontend.ui.component.blog.BlogViewController [[BlogViewController.html]] {
        {static} +P_MAX_FULL_ITEMS: Key<Integer>
        {static} +P_MAX_LEADIN_ITEMS: Key<Integer>
        {static} +P_MAX_ITEMS: Key<Integer>
        {static} +P_INDEX: Key<Boolean>
        {static} +P_TAG_CLOUD: Key<Boolean>
        {static} +P_CATEGORY: Key<String>
        {static} +P_IMAGE_ID: Key<String>
    }

    interface "<size:14>ViewController\n<size:10>it.tidalwave.northernwind.frontend.ui" as it.tidalwave.northernwind.frontend.ui.ViewController [[http://tidalwave.tidalwave.it/northernwind/it-tidalwave-northernwind-modules/it-tidalwave-northernwind-core/apidocs/it/tidalwave/northernwind/frontend/ui/ViewController.html?is-external=true]]

    it.tidalwave.northernwind.frontend.ui.ViewController <|- - it.tidalwave.northernwind.frontend.ui.component.blog.BlogViewController

    center footer UMLDoclet 2.0.12, PlantUML 1.2020.16
@enduml

PlantUML version 1.2020.16(Sun Aug 23 22:20:43 CEST 2020)
(APACHE source distribution)
Java Runtime: OpenJDK Runtime Environment
JVM: OpenJDK 64-Bit Server VM
Default Encoding: UTF-8
Language: en
Country: GB
--></g></svg>