<?xml version="1.0" encoding="UTF-8" standalone="no"?><svg xmlns="http://www.w3.org/2000/svg" xmlns:xlink="http://www.w3.org/1999/xlink" contentScriptType="application/ecmascript" contentStyleType="text/css" height="130px" preserveAspectRatio="none" style="width:261px;height:130px;" version="1.1" viewBox="0 0 261 130" width="261px" zoomAndPan="magnify"><defs><filter height="300%" id="ftivgo82xqrok" width="300%" x="-1" y="-1"><feGaussianBlur result="blurOut" stdDeviation="2.0"/><feColorMatrix in="blurOut" result="blurOut2" type="matrix" values="0 0 0 0 0 0 0 0 0 0 0 0 0 0 0 0 0 0 .4 0"/><feOffset dx="4.0" dy="4.0" in="blurOut2" result="blurOut3"/><feBlend in="SourceGraphic" in2="blurOut3" mode="normal"/></filter></defs><g><!--MD5=[0e5e728ae99ecbb96a97ddc8125ef291]
class it.tidalwave.role.io.TextReadable--><a href="TextReadable.html" target="_top" title="TextReadable.html" xlink:actuate="onRequest" xlink:href="TextReadable.html" xlink:show="new" xlink:title="TextReadable.html" xlink:type="simple"><rect codeLine="5" fill="#FEFECE" filter="url(#ftivgo82xqrok)" height="93.1309" id="it.tidalwave.role.io.TextReadable" style="stroke: #A80036; stroke-width: 1.5;" width="235" x="7" y="7"/><ellipse cx="73.25" cy="26.1328" fill="#B4A7E5" rx="11" ry="11" style="stroke: #A80036; stroke-width: 1.0;"/><path d="M69.6777,22.3979 L69.6777,20.2397 L77.0571,20.2397 L77.0571,22.3979 L74.5918,22.3979 L74.5918,30.4746 L77.0571,30.4746 L77.0571,32.6328 L69.6777,32.6328 L69.6777,30.4746 L72.1431,30.4746 L72.1431,22.3979 Z "/><text fill="#000000" font-family="sans-serif" font-size="14" font-style="italic" lengthAdjust="spacingAndGlyphs" textLength="94" x="93.75" y="25.5352">TextReadable</text><text fill="#000000" font-family="sans-serif" font-size="10" font-style="italic" lengthAdjust="spacingAndGlyphs" textLength="91" x="95.25" y="38.1563">it.tidalwave.role.io</text><line style="stroke: #A80036; stroke-width: 1.5;" x1="8" x2="241" y1="45.2656" y2="45.2656"/><ellipse cx="18" cy="56.2656" fill="none" rx="3" ry="3" style="stroke: #038048; stroke-width: 1.0;"/><text fill="#000000" font-family="sans-serif" font-size="11" lengthAdjust="spacingAndGlyphs" text-decoration="underline" textLength="209" x="27" y="59.9004">_TextReadable_: Class&lt;TextReadable&gt;</text><ellipse cx="18" cy="69.2207" fill="none" rx="3" ry="3" style="stroke: #038048; stroke-width: 1.0;"/><text fill="#000000" font-family="sans-serif" font-size="11" lengthAdjust="spacingAndGlyphs" text-decoration="underline" textLength="127" x="27" y="72.8555">DEFAULT: TextReadable</text><line style="stroke: #A80036; stroke-width: 1.5;" x1="8" x2="241" y1="79.1758" y2="79.1758"/><ellipse cx="18" cy="90.1758" fill="#84BE84" rx="3" ry="3" style="stroke: #038048; stroke-width: 1.0;"/><text fill="#000000" font-family="sans-serif" font-size="11" font-style="italic" lengthAdjust="spacingAndGlyphs" textLength="115" x="27" y="93.8105">openReader(): Reader</text></a><text fill="#888888" font-family="sans-serif" font-size="10" lengthAdjust="spacingAndGlyphs" textLength="188" x="30.5" y="116.7988">UMLDoclet 2.0.12, PlantUML 1.2020.16</text><!--MD5=[868280fa219cbf0c9d3135f7544d15d3]
@startuml
    set namespaceSeparator none
    hide empty fields
    hide empty methods

    interface "<size:14>TextReadable\n<size:10>it.tidalwave.role.io" as it.tidalwave.role.io.TextReadable [[TextReadable.html]] {
        {static} +_TextReadable_: Class<TextReadable>
        {static} +DEFAULT: TextReadable
        {abstract} +openReader(): Reader
    }

    center footer UMLDoclet 2.0.12, PlantUML 1.2020.16
@enduml

PlantUML version 1.2020.16(Sun Aug 23 22:20:43 CEST 2020)
(APACHE source distribution)
Java Runtime: OpenJDK Runtime Environment
JVM: OpenJDK 64-Bit Server VM
Default Encoding: UTF-8
Language: en
Country: GB
--></g></svg>