<?xml version="1.0" encoding="UTF-8" standalone="no"?><svg xmlns="http://www.w3.org/2000/svg" xmlns:xlink="http://www.w3.org/1999/xlink" contentScriptType="application/ecmascript" contentStyleType="text/css" height="75px" preserveAspectRatio="none" style="width:200px;height:75px;" version="1.1" viewBox="0 0 200 75" width="200px" zoomAndPan="magnify"><defs><filter height="300%" id="f10z98c3qr4xy8" width="300%" x="-1" y="-1"><feGaussianBlur result="blurOut" stdDeviation="2.0"/><feColorMatrix in="blurOut" result="blurOut2" type="matrix" values="0 0 0 0 0 0 0 0 0 0 0 0 0 0 0 0 0 0 .4 0"/><feOffset dx="4.0" dy="4.0" in="blurOut2" result="blurOut3"/><feBlend in="SourceGraphic" in2="blurOut3" mode="normal"/></filter></defs><g><!--MD5=[4f9f8e827a92b0eb75191523c751e99d]
class it.tidalwave.actor.annotation.Actor--><a href="Actor.html" target="_top" title="Actor.html" xlink:actuate="onRequest" xlink:href="Actor.html" xlink:show="new" xlink:title="Actor.html" xlink:type="simple"><rect codeLine="5" fill="#FEFECE" filter="url(#f10z98c3qr4xy8)" height="38.2656" id="it.tidalwave.actor.annotation.Actor" style="stroke: #A80036; stroke-width: 1.5;" width="173" x="7.5" y="7"/><ellipse cx="22.5" cy="26.1328" fill="#E3664A" rx="11" ry="11" style="stroke: #A80036; stroke-width: 1.0;"/><path d="M25.0767,26.3589 Q25.0767,25.4209 24.6533,24.8896 Q24.23,24.3584 23.4912,24.3584 Q22.7524,24.3584 22.3333,24.8896 Q21.9141,25.4209 21.9141,26.3589 Q21.9141,27.3052 22.3333,27.8364 Q22.7524,28.3677 23.4912,28.3677 Q24.23,28.3677 24.6533,27.8364 Q25.0767,27.3052 25.0767,26.3589 Z M26.6206,29.7622 L24.9937,29.7622 L24.9937,29.0815 Q24.6782,29.5215 24.2507,29.7249 Q23.8232,29.9282 23.2256,29.9282 Q21.8643,29.9282 21.03,28.9487 Q20.1958,27.9692 20.1958,26.3589 Q20.1958,24.7568 21.0259,23.7815 Q21.856,22.8062 23.2256,22.8062 Q23.8149,22.8062 24.2632,23.0095 Q24.7114,23.2129 24.9937,23.603 L24.9937,23.2627 Q24.9937,22.1338 24.3752,21.5195 Q23.7568,20.9053 22.6113,20.9053 Q20.8848,20.9053 19.7932,22.4243 Q18.7017,23.9434 18.7017,26.3755 Q18.7017,28.9238 19.9634,30.4304 Q21.2251,31.937 23.3252,31.937 Q23.9893,31.937 24.6118,31.7419 Q25.2344,31.5469 25.8071,31.1567 L26.5708,32.6177 Q25.8984,33.0742 25.1057,33.3025 Q24.313,33.5308 23.4082,33.5308 Q20.5029,33.5308 18.7764,31.5967 Q17.0498,29.6626 17.0498,26.3755 Q17.0498,23.1631 18.6021,21.2332 Q20.1543,19.3032 22.7109,19.3032 Q24.5205,19.3032 25.5706,20.3948 Q26.6206,21.4863 26.6206,23.3706 Z "/><text fill="#000000" font-family="sans-serif" font-size="14" lengthAdjust="spacingAndGlyphs" textLength="37" x="88.5" y="25.5352">Actor</text><text fill="#000000" font-family="sans-serif" font-size="10" lengthAdjust="spacingAndGlyphs" textLength="141" x="36.5" y="38.1563">it.tidalwave.actor.annotation</text></a><text fill="#888888" font-family="sans-serif" font-size="10" lengthAdjust="spacingAndGlyphs" textLength="188" x="0" y="61.9336">UMLDoclet 2.0.12, PlantUML 1.2020.16</text><!--MD5=[4c6b03d11a04acd2954973f1650f90f3]
@startuml
    set namespaceSeparator none
    hide empty fields
    hide empty methods

    annotation "<size:14>Actor\n<size:10>it.tidalwave.actor.annotation" as it.tidalwave.actor.annotation.Actor [[Actor.html]]

    center footer UMLDoclet 2.0.12, PlantUML 1.2020.16
@enduml

PlantUML version 1.2020.16(Sun Aug 23 22:20:43 CEST 2020)
(APACHE source distribution)
Java Runtime: OpenJDK Runtime Environment
JVM: OpenJDK 64-Bit Server VM
Default Encoding: UTF-8
Language: en
Country: GB
--></g></svg>