@startuml
    namespace it.tidalwave.northernwind.frontend.ui.component.htmlfragment {

        class DefaultHtmlFragmentViewController [[DefaultHtmlFragmentViewController.html]] {
            +renderView(RenderContext): void
        }

        interface HtmlFragmentViewController [[HtmlFragmentViewController.html]]

        interface HtmlFragmentView [[HtmlFragmentView.html]] {
            {abstract} +setContent(String): void
            {abstract} +setClassName(String): void
        }

        HtmlFragmentViewController <|.. DefaultHtmlFragmentViewController
        it.tidalwave.northernwind.frontend.ui.ViewController <|-- HtmlFragmentViewController
        it.tidalwave.role.Identifiable <|-- HtmlFragmentView
    }

    namespace it.tidalwave.northernwind.frontend.ui {
        interface ViewController [[http://tidalwave.it/projects/northernwind/it-tidalwave-northernwind-modules/it-tidalwave-northernwind-core/apidocs/it/tidalwave/northernwind/frontend/ui/ViewController.html?is-external=true]] {
            +initialize(): void
            +prepareRendering(RenderContext): void
            +renderView(RenderContext): void
            +findVirtualSiteNodes(): Finder<SiteNode>
        }
    }

    namespace it.tidalwave.role {
        interface Identifiable {
            {static} +_Identifiable_: Class<Identifiable>
            {abstract} +getId(): Id
            {static} +of(Id): Identifiable
        }
    }

    center footer UMLDoclet 2.0.12, PlantUML 1.2020.16
@enduml
