@startuml
    namespace it.tidalwave.northernwind.frontend.ui.springmvc {

        class SpringMvcSiteView [[SpringMvcSiteView.html]] {
            +renderSiteNode(Request, SiteNode): void
        }

        it.tidalwave.northernwind.frontend.ui.SiteView <|.. SpringMvcSiteView
    }

    namespace it.tidalwave.northernwind.frontend.ui {
        interface SiteView [[../SiteView.html]] {
            {static} +NW: String
            {abstract} +renderSiteNode(Request, SiteNode): void
        }
    }

    center footer UMLDoclet 2.0.12, PlantUML 1.2020.16
@enduml
