@startuml
    set namespaceSeparator none
    hide empty fields
    hide empty methods

    class "<size:14>SpringMvcSiteView\n<size:10>it.tidalwave.northernwind.frontend.ui.springmvc" as it.tidalwave.northernwind.frontend.ui.springmvc.SpringMvcSiteView [[SpringMvcSiteView.html]] {
        +renderSiteNode(Request, SiteNode): void
    }

    interface "<size:14>SiteView\n<size:10>it.tidalwave.northernwind.frontend.ui" as it.tidalwave.northernwind.frontend.ui.SiteView [[../SiteView.html]] {
        {abstract} +renderSiteNode(Request, SiteNode): void
    }

    it.tidalwave.northernwind.frontend.ui.SiteView <|.. it.tidalwave.northernwind.frontend.ui.springmvc.SpringMvcSiteView

    center footer UMLDoclet 2.0.12, PlantUML 1.2020.16
@enduml
