@startuml
    set namespaceSeparator none
    hide circle
    hide empty fields
    hide empty methods

    it.tidalwave.northernwind.core.model --> it.tidalwave.util
    it.tidalwave.northernwind.core.model --> it.tidalwave.northernwind.frontend.ui
    it.tidalwave.northernwind.core.model --> it.tidalwave.role
    it.tidalwave.northernwind.core.model --> it.tidalwave.util.spi
    it.tidalwave.northernwind.core.model --> it.tidalwave.northernwind.core.model.spi
    it.tidalwave.northernwind.core.model.spi --> it.tidalwave.northernwind.core.model
    it.tidalwave.northernwind.core.model.spi --> it.tidalwave.util
    it.tidalwave.northernwind.core.model.spi --> it.tidalwave.util.spi
    it.tidalwave.northernwind.core.model.spi --> org.slf4j
    it.tidalwave.northernwind.core.model.spi --> it.tidalwave.northernwind.frontend.ui
    it.tidalwave.northernwind.core.model.spi --> it.tidalwave.util.test

    ' Package links
    class "it.tidalwave.northernwind.core.model" [[it/tidalwave/northernwind/core/model/package-summary.html]] {
    }
    class "it.tidalwave.northernwind.frontend.ui" [[../apidocs/it/tidalwave/northernwind/frontend/ui/package-summary.html]] {
    }
    class "it.tidalwave.northernwind.core.model.spi" [[it/tidalwave/northernwind/core/model/spi/package-summary.html]] {
    }

    center footer UMLDoclet 2.0.12, PlantUML 1.2020.16
@enduml
