@startuml
    set namespaceSeparator none
    hide circle
    hide empty fields
    hide empty methods

    it.tidalwave.accounting.ui.projectexplorer.impl.javafx --> it.tidalwave.accounting.ui.projectexplorer
    it.tidalwave.accounting.ui.projectexplorer.impl.javafx --> it.tidalwave.role.ui.javafx
    it.tidalwave.accounting.ui.projectexplorer.impl.javafx --> javafx.scene.control
    it.tidalwave.accounting.ui.projectexplorer.impl.javafx --> it.tidalwave.role.ui
    it.tidalwave.accounting.ui.projectexplorer.impl.javafx --> it.tidalwave.ui.javafx
    it.tidalwave.accounting.ui.importer.ibiz.impl.javafx --> it.tidalwave.accounting.ui.importer.ibiz
    it.tidalwave.accounting.ui.importer.ibiz.impl.javafx --> it.tidalwave.ui.javafx
    it.tidalwave.accounting.ui.importer.ibiz.impl.javafx --> it.tidalwave.role.ui.javafx
    it.tidalwave.accounting.ui.importer.ibiz.impl.javafx --> it.tidalwave.role.ui
    it.tidalwave.accounting.ui.importer.ibiz.impl.javafx --> it.tidalwave.util.ui
    it.tidalwave.accounting.ui.hourlyreport.impl.javafx --> it.tidalwave.accounting.ui.hourlyreport
    it.tidalwave.accounting.ui.hourlyreport.impl.javafx --> it.tidalwave.role.ui.javafx
    it.tidalwave.accounting.ui.hourlyreport.impl.javafx --> javafx.scene.layout
    it.tidalwave.accounting.ui.hourlyreport.impl.javafx --> javafx.scene.control
    it.tidalwave.accounting.ui.hourlyreport.impl.javafx --> it.tidalwave.util.ui
    it.tidalwave.accounting.ui.hourlyreport.impl.javafx --> it.tidalwave.role.ui
    it.tidalwave.accounting.ui.hourlyreport.impl.javafx --> it.tidalwave.ui.javafx
    it.tidalwave.accounting.ui.customerexplorer.impl.javafx --> it.tidalwave.accounting.ui.customerexplorer
    it.tidalwave.accounting.ui.customerexplorer.impl.javafx --> it.tidalwave.role.ui.javafx
    it.tidalwave.accounting.ui.customerexplorer.impl.javafx --> javafx.scene.control
    it.tidalwave.accounting.ui.customerexplorer.impl.javafx --> it.tidalwave.role.ui
    it.tidalwave.accounting.ui.customerexplorer.impl.javafx --> it.tidalwave.ui.javafx
    it.tidalwave.accounting.ui.jobeventexplorer.impl.javafx --> it.tidalwave.accounting.ui.jobeventexplorer
    it.tidalwave.accounting.ui.jobeventexplorer.impl.javafx --> it.tidalwave.role.ui.javafx
    it.tidalwave.accounting.ui.jobeventexplorer.impl.javafx --> javafx.scene.control
    it.tidalwave.accounting.ui.jobeventexplorer.impl.javafx --> it.tidalwave.role.ui
    it.tidalwave.accounting.ui.jobeventexplorer.impl.javafx --> it.tidalwave.ui.javafx

    ' Package links
    class "it.tidalwave.accounting.ui.projectexplorer.impl.javafx" [[it/tidalwave/accounting/ui/projectexplorer/impl/javafx/package-summary.html]] {
    }
    class "it.tidalwave.accounting.ui.projectexplorer" [[http://bluehour.tidalwave.it/bluehour-modules/it-tidalwave-accounting-ui-projectexplorer/apidocs/it/tidalwave/accounting/ui/projectexplorer/package-summary.html?is-external=true]] {
    }
    class "it.tidalwave.accounting.ui.importer.ibiz.impl.javafx" [[it/tidalwave/accounting/ui/importer/ibiz/impl/javafx/package-summary.html]] {
    }
    class "it.tidalwave.accounting.ui.importer.ibiz" [[http://bluehour.tidalwave.it/bluehour-modules/it-tidalwave-accounting-ui-importer-ibiz/apidocs/it/tidalwave/accounting/ui/importer/ibiz/package-summary.html?is-external=true]] {
    }
    class "it.tidalwave.accounting.ui.hourlyreport.impl.javafx" [[it/tidalwave/accounting/ui/hourlyreport/impl/javafx/package-summary.html]] {
    }
    class "it.tidalwave.accounting.ui.hourlyreport" [[http://bluehour.tidalwave.it/bluehour-modules/it-tidalwave-accounting-ui-hourlyreport/apidocs/it/tidalwave/accounting/ui/hourlyreport/package-summary.html?is-external=true]] {
    }
    class "it.tidalwave.accounting.ui.customerexplorer.impl.javafx" [[it/tidalwave/accounting/ui/customerexplorer/impl/javafx/package-summary.html]] {
    }
    class "it.tidalwave.accounting.ui.customerexplorer" [[http://bluehour.tidalwave.it/bluehour-modules/it-tidalwave-accounting-ui-customerexplorer/apidocs/it/tidalwave/accounting/ui/customerexplorer/package-summary.html?is-external=true]] {
    }
    class "it.tidalwave.accounting.ui.jobeventexplorer.impl.javafx" [[it/tidalwave/accounting/ui/jobeventexplorer/impl/javafx/package-summary.html]] {
    }
    class "it.tidalwave.accounting.ui.jobeventexplorer" [[http://bluehour.tidalwave.it/bluehour-modules/it-tidalwave-accounting-ui-jobeventexplorer/apidocs/it/tidalwave/accounting/ui/jobeventexplorer/package-summary.html?is-external=true]] {
    }

    center footer UMLDoclet 2.0.12, PlantUML 1.2020.16
@enduml
