@startuml
    namespace it.tidalwave.northernwind.frontend.ui.component.rssfeed.htmltemplate {

        class HtmlTemplateRssFeedView [[HtmlTemplateRssFeedView.html]] {
            +HtmlTemplateRssFeedView(Id)
            +setTitle(String): void
        }

        it.tidalwave.northernwind.frontend.ui.component.htmltemplate.TextHolder <|-- HtmlTemplateRssFeedView
        it.tidalwave.northernwind.frontend.ui.component.rssfeed.RssFeedView <|.. HtmlTemplateRssFeedView
    }

    namespace it.tidalwave.northernwind.frontend.ui.component.htmltemplate {
        class TextHolder [[../../htmltemplate/TextHolder.html]] {
        }
    }

    namespace it.tidalwave.northernwind.frontend.ui.component.rssfeed {
        interface RssFeedView [[../RssFeedView.html]] {
            {abstract} +setContent(String): void
        }
    }

    center footer UMLDoclet 2.0.12, PlantUML 1.2020.16
@enduml
