<?xml version="1.0" encoding="UTF-8" standalone="no"?><svg xmlns="http://www.w3.org/2000/svg" xmlns:xlink="http://www.w3.org/1999/xlink" contentScriptType="application/ecmascript" contentStyleType="text/css" height="746px" preserveAspectRatio="none" style="width:1158px;height:746px;" version="1.1" viewBox="0 0 1158 746" width="1158px" zoomAndPan="magnify"><defs><filter height="300%" id="fgxtthtreikb8" width="300%" x="-1" y="-1"><feGaussianBlur result="blurOut" stdDeviation="2.0"/><feColorMatrix in="blurOut" result="blurOut2" type="matrix" values="0 0 0 0 0 0 0 0 0 0 0 0 0 0 0 0 0 0 .4 0"/><feOffset dx="4.0" dy="4.0" in="blurOut2" result="blurOut3"/><feBlend in="SourceGraphic" in2="blurOut3" mode="normal"/></filter></defs><g><!--MD5=[266caa57151c36cf2d395482009fc80a]
cluster it.tidalwave.northernwind.frontend.ui.component.gallery--><polygon fill="#FFFFFF" filter="url(#fgxtthtreikb8)" points="82,172,488,172,495,194.4883,681,194.4883,681,717,82,717,82,172" style="stroke: #000000; stroke-width: 1.5;"/><line style="stroke: #000000; stroke-width: 1.5;" x1="82" x2="495" y1="194.4883" y2="194.4883"/><text fill="#000000" font-family="sans-serif" font-size="14" font-weight="bold" lengthAdjust="spacingAndGlyphs" textLength="400" x="86" y="187.5352">it.tidalwave.northernwind.frontend.ui.component.gallery</text><!--MD5=[4e8eb53d15ae3a92432814eeefcf7d1e]
cluster it.tidalwave.northernwind.frontend.ui.component.nodecontainer--><polygon fill="#FFFFFF" filter="url(#fgxtthtreikb8)" points="16,19,475,19,482,41.4883,511,41.4883,511,128,16,128,16,19" style="stroke: #000000; stroke-width: 1.5;"/><line style="stroke: #000000; stroke-width: 1.5;" x1="16" x2="482" y1="41.4883" y2="41.4883"/><text fill="#000000" font-family="sans-serif" font-size="14" font-weight="bold" lengthAdjust="spacingAndGlyphs" textLength="453" x="20" y="34.5352">it.tidalwave.northernwind.frontend.ui.component.nodecontainer</text><!--MD5=[f0b43ef0bedf9c3bde2c1317d75e4d3c]
cluster it.tidalwave.northernwind.frontend.ui.component.gallery.spi--><polygon fill="#FFFFFF" filter="url(#fgxtthtreikb8)" points="695,525,1126,525,1133,547.4883,1136,547.4883,1136,608,695,608,695,525" style="stroke: #000000; stroke-width: 1.5;"/><line style="stroke: #000000; stroke-width: 1.5;" x1="695" x2="1133" y1="547.4883" y2="547.4883"/><text fill="#000000" font-family="sans-serif" font-size="14" font-weight="bold" lengthAdjust="spacingAndGlyphs" textLength="425" x="699" y="540.5352">it.tidalwave.northernwind.frontend.ui.component.gallery.spi</text><!--MD5=[90c2144f63705a3044483f7c3d43505d]
cluster it.tidalwave.northernwind.frontend.ui--><polygon fill="#FFFFFF" filter="url(#fgxtthtreikb8)" points="524,6,795,6,802,28.4883,805,28.4883,805,141,524,141,524,6" style="stroke: #000000; stroke-width: 1.5;"/><line style="stroke: #000000; stroke-width: 1.5;" x1="524" x2="802" y1="28.4883" y2="28.4883"/><text fill="#000000" font-family="sans-serif" font-size="14" font-weight="bold" lengthAdjust="spacingAndGlyphs" textLength="265" x="528" y="21.5352">it.tidalwave.northernwind.frontend.ui</text><!--MD5=[41d7a0f20573fd3dcb944da664068423]
class it.tidalwave.northernwind.frontend.ui.component.gallery.GalleryView--><a href="GalleryView.html" target="_top" title="GalleryView.html" xlink:actuate="onRequest" xlink:href="GalleryView.html" xlink:show="new" xlink:title="GalleryView.html" xlink:type="simple"><rect codeLine="3" fill="#FEFECE" filter="url(#fgxtthtreikb8)" height="48" id="it.tidalwave.northernwind.frontend.ui.component.gallery.GalleryView" style="stroke: #A80036; stroke-width: 1.5;" width="99" x="352.5" y="199"/><ellipse cx="367.5" cy="215" fill="#B4A7E5" rx="11" ry="11" style="stroke: #A80036; stroke-width: 1.0;"/><path d="M363.9277,211.2651 L363.9277,209.1069 L371.3071,209.1069 L371.3071,211.2651 L368.8418,211.2651 L368.8418,219.3418 L371.3071,219.3418 L371.3071,221.5 L363.9277,221.5 L363.9277,219.3418 L366.3931,219.3418 L366.3931,211.2651 Z "/><text fill="#000000" font-family="sans-serif" font-size="12" font-style="italic" lengthAdjust="spacingAndGlyphs" textLength="67" x="381.5" y="219.5352">GalleryView</text><line style="stroke: #A80036; stroke-width: 1.5;" x1="353.5" x2="450.5" y1="231" y2="231"/><line style="stroke: #A80036; stroke-width: 1.5;" x1="353.5" x2="450.5" y1="239" y2="239"/></a><!--MD5=[291eb5dbfa00f66a26d38b6a6b1076d5]
class it.tidalwave.northernwind.frontend.ui.component.gallery.DefaultGalleryViewController--><a href="DefaultGalleryViewController.html" target="_top" title="DefaultGalleryViewController.html" xlink:actuate="onRequest" xlink:href="DefaultGalleryViewController.html" xlink:show="new" xlink:title="DefaultGalleryViewController.html" xlink:type="simple"><rect codeLine="5" fill="#FEFECE" filter="url(#fgxtthtreikb8)" height="99.8203" id="it.tidalwave.northernwind.frontend.ui.component.gallery.DefaultGalleryViewController" style="stroke: #A80036; stroke-width: 1.5;" width="546" x="90" y="370"/><ellipse cx="276.75" cy="386" fill="#ADD1B2" rx="11" ry="11" style="stroke: #A80036; stroke-width: 1.0;"/><path d="M279.2231,392.1431 Q278.6421,392.4419 278.0029,392.5913 Q277.3638,392.7407 276.6582,392.7407 Q274.1514,392.7407 272.8315,391.0889 Q271.5117,389.437 271.5117,386.3159 Q271.5117,383.1865 272.8315,381.5347 Q274.1514,379.8828 276.6582,379.8828 Q277.3638,379.8828 278.0112,380.0322 Q278.6587,380.1816 279.2231,380.4805 L279.2231,383.2031 Q278.5923,382.6221 277.9988,382.3523 Q277.4053,382.0825 276.7744,382.0825 Q275.4297,382.0825 274.7449,383.1492 Q274.0601,384.2158 274.0601,386.3159 Q274.0601,388.4077 274.7449,389.4744 Q275.4297,390.541 276.7744,390.541 Q277.4053,390.541 277.9988,390.2712 Q278.5923,390.0015 279.2231,389.4204 Z "/><text fill="#000000" font-family="sans-serif" font-size="12" lengthAdjust="spacingAndGlyphs" textLength="164" x="297.25" y="390.5352">DefaultGalleryViewController</text><line style="stroke: #A80036; stroke-width: 1.5;" x1="91" x2="635" y1="402" y2="402"/><polygon fill="none" points="101,408,105,412,101,416,97,412" style="stroke: #B38D22; stroke-width: 1.0;"/><text fill="#000000" font-family="sans-serif" font-size="11" lengthAdjust="spacingAndGlyphs" textLength="189" x="110" y="416.6348">itemMapById: Map&lt;Id, GalleryItem&gt;</text><line style="stroke: #A80036; stroke-width: 1.5;" x1="91" x2="635" y1="422.9551" y2="422.9551"/><ellipse cx="101" cy="433.9551" fill="#84BE84" rx="3" ry="3" style="stroke: #038048; stroke-width: 1.0;"/><text fill="#000000" font-family="sans-serif" font-size="11" lengthAdjust="spacingAndGlyphs" textLength="520" x="110" y="437.5898">DefaultGalleryViewController(NodeContainerView, SiteNode, RequestLocaleManager, BeanFactory)</text><ellipse cx="101" cy="446.9102" fill="#84BE84" rx="3" ry="3" style="stroke: #038048; stroke-width: 1.0;"/><text fill="#000000" font-family="sans-serif" font-size="11" lengthAdjust="spacingAndGlyphs" textLength="81" x="110" y="450.5449">initialize(): void</text><ellipse cx="101" cy="459.8652" fill="#84BE84" rx="3" ry="3" style="stroke: #038048; stroke-width: 1.0;"/><text fill="#000000" font-family="sans-serif" font-size="11" lengthAdjust="spacingAndGlyphs" textLength="222" x="110" y="463.5">findVirtualSiteNodes(): Finder&lt;SiteNode&gt;</text></a><!--MD5=[005522e053142044d300144561335fb8]
class it.tidalwave.northernwind.frontend.ui.component.gallery.GalleryViewController--><a href="GalleryViewController.html" target="_top" title="GalleryViewController.html" xlink:actuate="onRequest" xlink:href="GalleryViewController.html" xlink:show="new" xlink:title="GalleryViewController.html" xlink:type="simple"><rect codeLine="12" fill="#FEFECE" filter="url(#fgxtthtreikb8)" height="48" id="it.tidalwave.northernwind.frontend.ui.component.gallery.GalleryViewController" style="stroke: #A80036; stroke-width: 1.5;" width="155" x="517.5" y="199"/><ellipse cx="532.5" cy="215" fill="#B4A7E5" rx="11" ry="11" style="stroke: #A80036; stroke-width: 1.0;"/><path d="M528.9277,211.2651 L528.9277,209.1069 L536.3071,209.1069 L536.3071,211.2651 L533.8418,211.2651 L533.8418,219.3418 L536.3071,219.3418 L536.3071,221.5 L528.9277,221.5 L528.9277,219.3418 L531.3931,219.3418 L531.3931,211.2651 Z "/><text fill="#000000" font-family="sans-serif" font-size="12" font-style="italic" lengthAdjust="spacingAndGlyphs" textLength="123" x="546.5" y="219.5352">GalleryViewController</text><line style="stroke: #A80036; stroke-width: 1.5;" x1="518.5" x2="671.5" y1="231" y2="231"/><line style="stroke: #A80036; stroke-width: 1.5;" x1="518.5" x2="671.5" y1="239" y2="239"/></a><!--MD5=[c77a99ff2e1c7c936144095e37ce9a05]
class it.tidalwave.northernwind.frontend.ui.component.gallery.GalleryViewController.GalleryItem--><a href="GalleryViewController.GalleryItem.html" target="_top" title="GalleryViewController.GalleryItem.html" xlink:actuate="onRequest" xlink:href="GalleryViewController.GalleryItem.html" xlink:show="new" xlink:title="GalleryViewController.GalleryItem.html" xlink:type="simple"><rect codeLine="14" fill="#FEFECE" filter="url(#fgxtthtreikb8)" height="48" id="it.tidalwave.northernwind.frontend.ui.component.gallery.GalleryViewController.GalleryItem" style="stroke: #A80036; stroke-width: 1.5;" width="224" x="350" y="661"/><ellipse cx="365" cy="677" fill="#ADD1B2" rx="11" ry="11" style="stroke: #A80036; stroke-width: 1.0;"/><path d="M367.4731,683.1431 Q366.8921,683.4419 366.2529,683.5913 Q365.6138,683.7407 364.9082,683.7407 Q362.4014,683.7407 361.0815,682.0889 Q359.7617,680.437 359.7617,677.3159 Q359.7617,674.1865 361.0815,672.5347 Q362.4014,670.8828 364.9082,670.8828 Q365.6138,670.8828 366.2612,671.0322 Q366.9087,671.1816 367.4731,671.4805 L367.4731,674.2031 Q366.8423,673.6221 366.2488,673.3523 Q365.6553,673.0825 365.0244,673.0825 Q363.6797,673.0825 362.9949,674.1492 Q362.3101,675.2158 362.3101,677.3159 Q362.3101,679.4077 362.9949,680.4744 Q363.6797,681.541 365.0244,681.541 Q365.6553,681.541 366.2488,681.2712 Q366.8423,681.0015 367.4731,680.4204 Z "/><text fill="#000000" font-family="sans-serif" font-size="12" lengthAdjust="spacingAndGlyphs" textLength="192" x="379" y="681.5352">GalleryViewController.GalleryItem</text><line style="stroke: #A80036; stroke-width: 1.5;" x1="351" x2="573" y1="693" y2="693"/><line style="stroke: #A80036; stroke-width: 1.5;" x1="351" x2="573" y1="701" y2="701"/></a><!--MD5=[86615fb2b15091be7a1d5e9e453a6d9d]
class it.tidalwave.northernwind.frontend.ui.component.nodecontainer.NodeContainerView--><a href="../nodecontainer/NodeContainerView.html" target="_top" title="../nodecontainer/NodeContainerView.html" xlink:actuate="onRequest" xlink:href="../nodecontainer/NodeContainerView.html" xlink:show="new" xlink:title="../nodecontainer/NodeContainerView.html" xlink:type="simple"><rect codeLine="27" fill="#FEFECE" filter="url(#fgxtthtreikb8)" height="73.9102" id="it.tidalwave.northernwind.frontend.ui.component.nodecontainer.NodeContainerView" style="stroke: #A80036; stroke-width: 1.5;" width="201" x="301.5" y="46"/><ellipse cx="341.7" cy="62" fill="#B4A7E5" rx="11" ry="11" style="stroke: #A80036; stroke-width: 1.0;"/><path d="M338.1277,58.2651 L338.1277,56.1069 L345.5071,56.1069 L345.5071,58.2651 L343.0418,58.2651 L343.0418,66.3418 L345.5071,66.3418 L345.5071,68.5 L338.1277,68.5 L338.1277,66.3418 L340.5931,66.3418 L340.5931,58.2651 Z "/><text fill="#000000" font-family="sans-serif" font-size="12" font-style="italic" lengthAdjust="spacingAndGlyphs" textLength="113" x="361.3" y="66.5352">NodeContainerView</text><line style="stroke: #A80036; stroke-width: 1.5;" x1="302.5" x2="501.5" y1="78" y2="78"/><line style="stroke: #A80036; stroke-width: 1.5;" x1="302.5" x2="501.5" y1="86" y2="86"/><ellipse cx="312.5" cy="97" fill="#84BE84" rx="3" ry="3" style="stroke: #038048; stroke-width: 1.0;"/><text fill="#000000" font-family="sans-serif" font-size="11" font-style="italic" lengthAdjust="spacingAndGlyphs" textLength="175" x="321.5" y="100.6348">addAttribute(String, String): void</text><ellipse cx="312.5" cy="109.9551" fill="#84BE84" rx="3" ry="3" style="stroke: #038048; stroke-width: 1.0;"/><text fill="#000000" font-family="sans-serif" font-size="11" font-style="italic" lengthAdjust="spacingAndGlyphs" textLength="134" x="321.5" y="113.5898">setTemplate(String): void</text></a><!--MD5=[8c166e9f97128fd070bf32b87debae42]
class it.tidalwave.northernwind.frontend.ui.component.nodecontainer.DefaultNodeContainerViewController--><a href="../nodecontainer/DefaultNodeContainerViewController.html" target="_top" title="../nodecontainer/DefaultNodeContainerViewController.html" xlink:actuate="onRequest" xlink:href="../nodecontainer/DefaultNodeContainerViewController.html" xlink:show="new" xlink:title="../nodecontainer/DefaultNodeContainerViewController.html" xlink:type="simple"><rect codeLine="31" fill="#FEFECE" filter="url(#fgxtthtreikb8)" height="48" id="it.tidalwave.northernwind.frontend.ui.component.nodecontainer.DefaultNodeContainerViewController" style="stroke: #A80036; stroke-width: 1.5;" width="242" x="24" y="59"/><ellipse cx="39" cy="75" fill="#ADD1B2" rx="11" ry="11" style="stroke: #A80036; stroke-width: 1.0;"/><path d="M41.4731,81.1431 Q40.8921,81.4419 40.2529,81.5913 Q39.6138,81.7407 38.9082,81.7407 Q36.4014,81.7407 35.0815,80.0889 Q33.7617,78.437 33.7617,75.3159 Q33.7617,72.1865 35.0815,70.5347 Q36.4014,68.8828 38.9082,68.8828 Q39.6138,68.8828 40.2612,69.0322 Q40.9087,69.1816 41.4731,69.4805 L41.4731,72.2031 Q40.8423,71.6221 40.2488,71.3523 Q39.6553,71.0825 39.0244,71.0825 Q37.6797,71.0825 36.9949,72.1492 Q36.3101,73.2158 36.3101,75.3159 Q36.3101,77.4077 36.9949,78.4744 Q37.6797,79.541 39.0244,79.541 Q39.6553,79.541 40.2488,79.2712 Q40.8423,79.0015 41.4731,78.4204 Z "/><text fill="#000000" font-family="sans-serif" font-size="12" lengthAdjust="spacingAndGlyphs" textLength="210" x="53" y="79.5352">DefaultNodeContainerViewController</text><line style="stroke: #A80036; stroke-width: 1.5;" x1="25" x2="265" y1="91" y2="91"/><line style="stroke: #A80036; stroke-width: 1.5;" x1="25" x2="265" y1="99" y2="99"/></a><!--MD5=[4e5ee5206b105c3ef4646c7e198dca40]
class it.tidalwave.northernwind.frontend.ui.component.gallery.spi.GalleryAdapter--><rect fill="#FEFECE" filter="url(#fgxtthtreikb8)" height="48" id="it.tidalwave.northernwind.frontend.ui.component.gallery.spi.GalleryAdapter" style="stroke: #A80036; stroke-width: 1.5;" width="119" x="708.5" y="552"/><ellipse cx="723.5" cy="568" fill="#ADD1B2" rx="11" ry="11" style="stroke: #A80036; stroke-width: 1.0;"/><path d="M725.9731,574.1431 Q725.3921,574.4419 724.7529,574.5913 Q724.1138,574.7407 723.4082,574.7407 Q720.9014,574.7407 719.5815,573.0889 Q718.2617,571.437 718.2617,568.3159 Q718.2617,565.1865 719.5815,563.5347 Q720.9014,561.8828 723.4082,561.8828 Q724.1138,561.8828 724.7612,562.0322 Q725.4087,562.1816 725.9731,562.4805 L725.9731,565.2031 Q725.3423,564.6221 724.7488,564.3523 Q724.1553,564.0825 723.5244,564.0825 Q722.1797,564.0825 721.4949,565.1492 Q720.8101,566.2158 720.8101,568.3159 Q720.8101,570.4077 721.4949,571.4744 Q722.1797,572.541 723.5244,572.541 Q724.1553,572.541 724.7488,572.2712 Q725.3423,572.0015 725.9731,571.4204 Z "/><text fill="#000000" font-family="sans-serif" font-size="12" lengthAdjust="spacingAndGlyphs" textLength="87" x="737.5" y="572.5352">GalleryAdapter</text><line style="stroke: #A80036; stroke-width: 1.5;" x1="709.5" x2="826.5" y1="584" y2="584"/><line style="stroke: #A80036; stroke-width: 1.5;" x1="709.5" x2="826.5" y1="592" y2="592"/><!--MD5=[fd49f22f3a54ad6da4c032e73965af1a]
class it.tidalwave.northernwind.frontend.ui.ViewController--><a href="http://tidalwave.it/projects/northernwind/it-tidalwave-northernwind-modules/it-tidalwave-northernwind-core/apidocs/it/tidalwave/northernwind/frontend/ui/ViewController.html?is-external=true" target="_top" title="http://tidalwave.it/projects/northernwind/it-tidalwave-northernwind-modules/it-tidalwave-northernwind-core/apidocs/it/tidalwave/northernwind/frontend/ui/ViewController.html?is-external=true" xlink:actuate="onRequest" xlink:href="http://tidalwave.it/projects/northernwind/it-tidalwave-northernwind-modules/it-tidalwave-northernwind-core/apidocs/it/tidalwave/northernwind/frontend/ui/ViewController.html?is-external=true" xlink:show="new" xlink:title="http://tidalwave.it/projects/northernwind/it-tidalwave-northernwind-modules/it-tidalwave-northernwind-core/apidocs/it/tidalwave/northernwind/frontend/ui/ViewController.html?is-external=true" xlink:type="simple"><rect codeLine="36" fill="#FEFECE" filter="url(#fgxtthtreikb8)" height="99.8203" id="it.tidalwave.northernwind.frontend.ui.ViewController" style="stroke: #A80036; stroke-width: 1.5;" width="248" x="538" y="33"/><ellipse cx="616.25" cy="49" fill="#B4A7E5" rx="11" ry="11" style="stroke: #A80036; stroke-width: 1.0;"/><path d="M612.6777,45.2651 L612.6777,43.1069 L620.0571,43.1069 L620.0571,45.2651 L617.5918,45.2651 L617.5918,53.3418 L620.0571,53.3418 L620.0571,55.5 L612.6777,55.5 L612.6777,53.3418 L615.1431,53.3418 L615.1431,45.2651 Z "/><text fill="#000000" font-family="sans-serif" font-size="12" font-style="italic" lengthAdjust="spacingAndGlyphs" textLength="83" x="636.75" y="53.5352">ViewController</text><line style="stroke: #A80036; stroke-width: 1.5;" x1="539" x2="785" y1="65" y2="65"/><line style="stroke: #A80036; stroke-width: 1.5;" x1="539" x2="785" y1="73" y2="73"/><ellipse cx="549" cy="84" fill="#84BE84" rx="3" ry="3" style="stroke: #038048; stroke-width: 1.0;"/><text fill="#000000" font-family="sans-serif" font-size="11" lengthAdjust="spacingAndGlyphs" textLength="81" x="558" y="87.6348">initialize(): void</text><ellipse cx="549" cy="96.9551" fill="#84BE84" rx="3" ry="3" style="stroke: #038048; stroke-width: 1.0;"/><text fill="#000000" font-family="sans-serif" font-size="11" lengthAdjust="spacingAndGlyphs" textLength="215" x="558" y="100.5898">prepareRendering(RenderContext): void</text><ellipse cx="549" cy="109.9102" fill="#84BE84" rx="3" ry="3" style="stroke: #038048; stroke-width: 1.0;"/><text fill="#000000" font-family="sans-serif" font-size="11" lengthAdjust="spacingAndGlyphs" textLength="178" x="558" y="113.5449">renderView(RenderContext): void</text><ellipse cx="549" cy="122.8652" fill="#84BE84" rx="3" ry="3" style="stroke: #038048; stroke-width: 1.0;"/><text fill="#000000" font-family="sans-serif" font-size="11" lengthAdjust="spacingAndGlyphs" textLength="222" x="558" y="126.5">findVirtualSiteNodes(): Finder&lt;SiteNode&gt;</text></a><!--MD5=[ebcdc095a5a2e4d47f45dc5c973a53d4]
reverse link it.tidalwave.northernwind.frontend.ui.component.nodecontainer.NodeContainerView to it.tidalwave.northernwind.frontend.ui.component.gallery.GalleryView--><path codeLine="17" d="M402,140.258 C402,160.7505 402,182.7507 402,198.9107 " fill="none" id="it.tidalwave.northernwind.frontend.ui.component.nodecontainer.NodeContainerView-backto-it.tidalwave.northernwind.frontend.ui.component.gallery.GalleryView" style="stroke: #A80036; stroke-width: 1.0;"/><polygon fill="none" points="395.0001,140.1499,402,120.1499,409.0001,140.1498,395.0001,140.1499" style="stroke: #A80036; stroke-width: 1.0;"/><!--MD5=[9da03d6726fb53cab4d1a0e519605db2]
reverse link it.tidalwave.northernwind.frontend.ui.component.nodecontainer.DefaultNodeContainerViewController to it.tidalwave.northernwind.frontend.ui.component.gallery.DefaultGalleryViewController--><path codeLine="18" d="M171.6679,124.2252 C211.7374,186.1675 287.3702,303.0861 330.5729,369.8718 " fill="none" id="it.tidalwave.northernwind.frontend.ui.component.nodecontainer.DefaultNodeContainerViewController-backto-it.tidalwave.northernwind.frontend.ui.component.gallery.DefaultGalleryViewController" style="stroke: #A80036; stroke-width: 1.0;"/><polygon fill="none" points="165.6636,127.831,160.678,107.2362,177.4185,120.2269,165.6636,127.831" style="stroke: #A80036; stroke-width: 1.0;"/><!--MD5=[67985eb932268e5b24b37932b2c6c6da]
reverse link it.tidalwave.northernwind.frontend.ui.component.gallery.GalleryViewController to it.tidalwave.northernwind.frontend.ui.component.gallery.DefaultGalleryViewController--><path codeLine="19" d="M550.9735,260.3846 C514.4367,291.4093 462.1501,335.8079 421.9934,369.9064 " fill="none" id="it.tidalwave.northernwind.frontend.ui.component.gallery.GalleryViewController-backto-it.tidalwave.northernwind.frontend.ui.component.gallery.DefaultGalleryViewController" style="stroke: #A80036; stroke-width: 1.0; stroke-dasharray: 7.0,7.0;"/><polygon fill="none" points="546.7761,254.7656,566.5522,247.1561,555.8378,265.4373,546.7761,254.7656" style="stroke: #A80036; stroke-width: 1.0;"/><!--MD5=[32d8fdade9d82a07cb659b75e6374a91]
link it.tidalwave.northernwind.frontend.ui.component.gallery.DefaultGalleryViewController to it.tidalwave.northernwind.frontend.ui.component.gallery.spi.GalleryAdapter--><path codeLine="20" d="M547.3114,470.097 C594.4514,485.4052 644.3996,503.8708 689,525 C703.1826,531.719 717.8537,540.5835 730.6464,549.0346 " fill="none" id="it.tidalwave.northernwind.frontend.ui.component.gallery.DefaultGalleryViewController-to-it.tidalwave.northernwind.frontend.ui.component.gallery.spi.GalleryAdapter" style="stroke: #A80036; stroke-width: 1.0;"/><polygon fill="#A80036" points="734.9094,551.8812,729.6459,543.5568,730.7512,549.1046,725.2034,550.2099,734.9094,551.8812" style="stroke: #A80036; stroke-width: 1.0;"/><text fill="#000000" font-family="sans-serif" font-size="13" lengthAdjust="spacingAndGlyphs" textLength="91" x="664" y="513.5684">galleryAdapter</text><!--MD5=[79e5cee042e4ea7d46bad61ab10c907a]
link it.tidalwave.northernwind.frontend.ui.component.gallery.DefaultGalleryViewController to it.tidalwave.northernwind.frontend.ui.component.gallery.GalleryViewController.GalleryItem--><path codeLine="21" d="M381.7375,470.156 C402.2903,525.1709 434.5655,611.5643 451.2352,656.185 " fill="none" id="it.tidalwave.northernwind.frontend.ui.component.gallery.DefaultGalleryViewController-to-it.tidalwave.northernwind.frontend.ui.component.gallery.GalleryViewController.GalleryItem" style="stroke: #A80036; stroke-width: 1.0;"/><polygon fill="#A80036" points="452.9939,660.8927,453.5911,651.062,451.244,656.2089,446.0971,653.8618,452.9939,660.8927" style="stroke: #A80036; stroke-width: 1.0;"/><text fill="#000000" font-family="sans-serif" font-size="13" lengthAdjust="spacingAndGlyphs" textLength="35" x="433" y="581.0684">items</text><text fill="#000000" font-family="sans-serif" font-size="13" lengthAdjust="spacingAndGlyphs" textLength="6" x="443.9173" y="650.4015">*</text><!--MD5=[3307534630658a5482e71f0626b5a1b9]
reverse link it.tidalwave.northernwind.frontend.ui.ViewController to it.tidalwave.northernwind.frontend.ui.component.gallery.GalleryViewController--><path codeLine="22" d="M629.2972,151.3342 C621.1702,168.3161 612.9805,185.4287 606.643,198.6713 " fill="none" id="it.tidalwave.northernwind.frontend.ui.ViewController-backto-it.tidalwave.northernwind.frontend.ui.component.gallery.GalleryViewController" style="stroke: #A80036; stroke-width: 1.0;"/><polygon fill="none" points="623.0528,148.1665,638.0007,133.1478,635.6812,154.2101,623.0528,148.1665" style="stroke: #A80036; stroke-width: 1.0;"/><!--MD5=[81fc830f8df263804e88f47e1f41fa95]
reverse link it.tidalwave.northernwind.frontend.ui.component.gallery.GalleryViewController to it.tidalwave.northernwind.frontend.ui.component.gallery.GalleryViewController.GalleryItem--><path codeLine="23" d="M645.7567,257.1319 C660.1551,270.9665 672,288.4428 672,308.5 C672,308.5 672,308.5 672,576 C672,626.2165 624.1109,653.3291 574.0704,667.9522 " fill="none" id="it.tidalwave.northernwind.frontend.ui.component.gallery.GalleryViewController-backto-it.tidalwave.northernwind.frontend.ui.component.gallery.GalleryViewController.GalleryItem" style="stroke: #A80036; stroke-width: 1.0;"/><ellipse cx="640.4448" cy="252.5229" fill="#FFFFFF" rx="8" ry="8" style="stroke: #A80036; stroke-width: 1.0;"/><line style="stroke: #A80036; stroke-width: 1.0;" x1="646.4873" x2="634.4023" y1="257.7659" y2="247.28"/><line style="stroke: #A80036; stroke-width: 1.0;" x1="635.2018" x2="645.6877" y1="258.5654" y2="246.4805"/><text fill="#888888" font-family="sans-serif" font-size="10" lengthAdjust="spacingAndGlyphs" textLength="188" x="476" y="732.668">UMLDoclet 2.0.12, PlantUML 1.2020.16</text><!--MD5=[205141331d52429ba738a8d71da24282]
@startuml
    namespace it.tidalwave.northernwind.frontend.ui.component.gallery {

        interface GalleryView [[GalleryView.html]]

        class DefaultGalleryViewController [[DefaultGalleryViewController.html]] {
            #itemMapById: Map<Id, GalleryItem>
            +DefaultGalleryViewController(NodeContainerView, SiteNode, RequestLocaleManager, BeanFactory)
            +initialize(): void
            +findVirtualSiteNodes(): Finder<SiteNode>
        }

        interface GalleryViewController [[GalleryViewController.html]]

        class it.tidalwave.northernwind.frontend.ui.component.gallery.GalleryViewController.GalleryItem [[GalleryViewController.GalleryItem.html]] {
        }

        it.tidalwave.northernwind.frontend.ui.component.nodecontainer.NodeContainerView <|- - GalleryView
        it.tidalwave.northernwind.frontend.ui.component.nodecontainer.DefaultNodeContainerViewController <|- - DefaultGalleryViewController
        GalleryViewController <|.. DefaultGalleryViewController
        DefaultGalleryViewController - -> it.tidalwave.northernwind.frontend.ui.component.gallery.spi.GalleryAdapter: galleryAdapter
        DefaultGalleryViewController - -> "*" it.tidalwave.northernwind.frontend.ui.component.gallery.GalleryViewController.GalleryItem: items
        it.tidalwave.northernwind.frontend.ui.ViewController <|- - GalleryViewController
        GalleryViewController +- - it.tidalwave.northernwind.frontend.ui.component.gallery.GalleryViewController.GalleryItem
    }

    namespace it.tidalwave.northernwind.frontend.ui.component.nodecontainer {
        interface NodeContainerView [[../nodecontainer/NodeContainerView.html]] {
            {abstract} +addAttribute(String, String): void
            {abstract} +setTemplate(String): void
        }
        class DefaultNodeContainerViewController [[../nodecontainer/DefaultNodeContainerViewController.html]] {
        }
    }

    namespace it.tidalwave.northernwind.frontend.ui {
        interface ViewController [[http://tidalwave.it/projects/northernwind/it-tidalwave-northernwind-modules/it-tidalwave-northernwind-core/apidocs/it/tidalwave/northernwind/frontend/ui/ViewController.html?is-external=true]] {
            +initialize(): void
            +prepareRendering(RenderContext): void
            +renderView(RenderContext): void
            +findVirtualSiteNodes(): Finder<SiteNode>
        }
    }

    center footer UMLDoclet 2.0.12, PlantUML 1.2020.16
@enduml

PlantUML version 1.2020.16(Sun Aug 23 22:20:43 CEST 2020)
(APACHE source distribution)
Java Runtime: OpenJDK Runtime Environment
JVM: OpenJDK 64-Bit Server VM
Default Encoding: UTF-8
Language: en
Country: GB
--></g></svg>