<?xml version="1.0" encoding="UTF-8" standalone="no"?><svg xmlns="http://www.w3.org/2000/svg" xmlns:xlink="http://www.w3.org/1999/xlink" contentScriptType="application/ecmascript" contentStyleType="text/css" height="247px" preserveAspectRatio="none" style="width:226px;height:247px;" version="1.1" viewBox="0 0 226 247" width="226px" zoomAndPan="magnify"><defs><filter height="300%" id="f1btsuhdqckuv" width="300%" x="-1" y="-1"><feGaussianBlur result="blurOut" stdDeviation="2.0"/><feColorMatrix in="blurOut" result="blurOut2" type="matrix" values="0 0 0 0 0 0 0 0 0 0 0 0 0 0 0 0 0 0 .4 0"/><feOffset dx="4.0" dy="4.0" in="blurOut2" result="blurOut3"/><feBlend in="SourceGraphic" in2="blurOut3" mode="normal"/></filter></defs><g><!--MD5=[7f9ab407da7ae9e1ffbab84f7a9ebaa6]
class it.tidalwave.role.io.spi.PathTextReadable--><a href="PathTextReadable.html" target="_top" title="PathTextReadable.html" xlink:actuate="onRequest" xlink:href="PathTextReadable.html" xlink:show="new" xlink:title="PathTextReadable.html" xlink:type="simple"><rect codeLine="5" fill="#FEFECE" filter="url(#f1btsuhdqckuv)" height="85.1309" id="it.tidalwave.role.io.spi.PathTextReadable" style="stroke: #A80036; stroke-width: 1.5;" width="200" x="7" y="126"/><ellipse cx="41.8" cy="145.1328" fill="#ADD1B2" rx="11" ry="11" style="stroke: #A80036; stroke-width: 1.0;"/><path d="M44.2731,151.2759 Q43.6921,151.5747 43.0529,151.7241 Q42.4138,151.8735 41.7082,151.8735 Q39.2014,151.8735 37.8815,150.2217 Q36.5617,148.5698 36.5617,145.4487 Q36.5617,142.3193 37.8815,140.6675 Q39.2014,139.0156 41.7082,139.0156 Q42.4138,139.0156 43.0612,139.165 Q43.7087,139.3145 44.2731,139.6133 L44.2731,142.3359 Q43.6423,141.7549 43.0488,141.4851 Q42.4553,141.2153 41.8244,141.2153 Q40.4797,141.2153 39.7949,142.282 Q39.1101,143.3486 39.1101,145.4487 Q39.1101,147.5405 39.7949,148.6072 Q40.4797,149.6738 41.8244,149.6738 Q42.4553,149.6738 43.0488,149.4041 Q43.6423,149.1343 44.2731,148.5532 Z "/><text fill="#000000" font-family="sans-serif" font-size="14" lengthAdjust="spacingAndGlyphs" textLength="124" x="60.2" y="144.5352">PathTextReadable</text><text fill="#000000" font-family="sans-serif" font-size="10" lengthAdjust="spacingAndGlyphs" textLength="108" x="68.2" y="157.1563">it.tidalwave.role.io.spi</text><line style="stroke: #A80036; stroke-width: 1.5;" x1="8" x2="206" y1="164.2656" y2="164.2656"/><ellipse cx="18" cy="175.2656" fill="#84BE84" rx="3" ry="3" style="stroke: #038048; stroke-width: 1.0;"/><text fill="#000000" font-family="sans-serif" font-size="11" lengthAdjust="spacingAndGlyphs" textLength="126" x="27" y="178.9004">PathTextReadable(Path)</text><ellipse cx="18" cy="188.2207" fill="#84BE84" rx="3" ry="3" style="stroke: #038048; stroke-width: 1.0;"/><text fill="#000000" font-family="sans-serif" font-size="11" lengthAdjust="spacingAndGlyphs" textLength="174" x="27" y="191.8555">PathTextReadable(Path, Charset)</text><ellipse cx="18" cy="201.1758" fill="#84BE84" rx="3" ry="3" style="stroke: #038048; stroke-width: 1.0;"/><text fill="#000000" font-family="sans-serif" font-size="11" lengthAdjust="spacingAndGlyphs" textLength="115" x="27" y="204.8105">openReader(): Reader</text></a><!--MD5=[0e5e728ae99ecbb96a97ddc8125ef291]
class it.tidalwave.role.io.TextReadable--><a href="../TextReadable.html" target="_top" title="../TextReadable.html" xlink:actuate="onRequest" xlink:href="../TextReadable.html" xlink:show="new" xlink:title="../TextReadable.html" xlink:type="simple"><rect codeLine="11" fill="#FEFECE" filter="url(#f1btsuhdqckuv)" height="59.2207" id="it.tidalwave.role.io.TextReadable" style="stroke: #A80036; stroke-width: 1.5;" width="141" x="36.5" y="7"/><ellipse cx="58.25" cy="26.1328" fill="#B4A7E5" rx="11" ry="11" style="stroke: #A80036; stroke-width: 1.0;"/><path d="M54.6777,22.3979 L54.6777,20.2397 L62.0571,20.2397 L62.0571,22.3979 L59.5918,22.3979 L59.5918,30.4746 L62.0571,30.4746 L62.0571,32.6328 L54.6777,32.6328 L54.6777,30.4746 L57.1431,30.4746 L57.1431,22.3979 Z "/><text fill="#000000" font-family="sans-serif" font-size="14" font-style="italic" lengthAdjust="spacingAndGlyphs" textLength="94" x="73.75" y="25.5352">TextReadable</text><text fill="#000000" font-family="sans-serif" font-size="10" font-style="italic" lengthAdjust="spacingAndGlyphs" textLength="91" x="75.25" y="38.1563">it.tidalwave.role.io</text><line style="stroke: #A80036; stroke-width: 1.5;" x1="37.5" x2="176.5" y1="45.2656" y2="45.2656"/><ellipse cx="47.5" cy="56.2656" fill="#84BE84" rx="3" ry="3" style="stroke: #038048; stroke-width: 1.0;"/><text fill="#000000" font-family="sans-serif" font-size="11" font-style="italic" lengthAdjust="spacingAndGlyphs" textLength="115" x="56.5" y="59.9004">openReader(): Reader</text></a><!--MD5=[e1ae905890a91eeae3fb62a67bddab0c]
reverse link it.tidalwave.role.io.TextReadable to it.tidalwave.role.io.spi.PathTextReadable--><path codeLine="15" d="M107,86.235 C107,99.3112 107,113.2958 107,125.9566 " fill="none" id="it.tidalwave.role.io.TextReadable-backto-it.tidalwave.role.io.spi.PathTextReadable" style="stroke: #A80036; stroke-width: 1.0; stroke-dasharray: 7.0,7.0;"/><polygon fill="none" points="100.0001,86.1234,107,66.1234,114.0001,86.1233,100.0001,86.1234" style="stroke: #A80036; stroke-width: 1.0;"/><text fill="#888888" font-family="sans-serif" font-size="10" lengthAdjust="spacingAndGlyphs" textLength="188" x="10" y="233.7988">UMLDoclet 2.0.12, PlantUML 1.2020.16</text><!--MD5=[da2ff0bf2c611b818082ee5db1b9f464]
@startuml
    set namespaceSeparator none
    hide empty fields
    hide empty methods

    class "<size:14>PathTextReadable\n<size:10>it.tidalwave.role.io.spi" as it.tidalwave.role.io.spi.PathTextReadable [[PathTextReadable.html]] {
        +PathTextReadable(Path)
        +PathTextReadable(Path, Charset)
        +openReader(): Reader
    }

    interface "<size:14>TextReadable\n<size:10>it.tidalwave.role.io" as it.tidalwave.role.io.TextReadable [[../TextReadable.html]] {
        {abstract} +openReader(): Reader
    }

    it.tidalwave.role.io.TextReadable <|.. it.tidalwave.role.io.spi.PathTextReadable

    center footer UMLDoclet 2.0.12, PlantUML 1.2020.16
@enduml

PlantUML version 1.2020.16(Sun Aug 23 22:20:43 CEST 2020)
(APACHE source distribution)
Java Runtime: OpenJDK Runtime Environment
JVM: OpenJDK 64-Bit Server VM
Default Encoding: UTF-8
Language: en
Country: GB
--></g></svg>