@startuml
    set namespaceSeparator none
    hide empty fields
    hide empty methods

    class "<size:14>PathAwareEntityTest\n<size:10>it.tidalwave.bluemarine2.model.spi" as it.tidalwave.bluemarine2.model.spi.PathAwareEntityTest [[PathAwareEntityTest.html]] {
        +relativePath_in_entity_with_parent_must_be_relativised(): void
        +relativePath_in_parentless_entity_must_be_the_same_as_Path(): void
    }

    center footer UMLDoclet 2.0.12, PlantUML 1.2020.16
@enduml
