GROUP,PACKAGE,CLASS,INSTRUCTION_MISSED,INSTRUCTION_COVERED,BRANCH_MISSED,BRANCH_COVERED,LINE_MISSED,LINE_COVERED,COMPLEXITY_MISSED,COMPLEXITY_COVERED,METHOD_MISSED,METHOD_COVERED
blueHour - UI - Project Explorer/it-tidalwave-accounting-model,it.tidalwave.accounting.model.spi.util,DurationFormat,26,0,0,0,4,0,2,0,2,0
blueHour - UI - Project Explorer/it-tidalwave-accounting-model,it.tidalwave.accounting.model.spi.util,Formatters,22,0,0,0,7,0,2,0,2,0
blueHour - UI - Project Explorer/it-tidalwave-accounting-model,it.tidalwave.accounting.model.spi.util,MoneyFormat,40,0,0,0,8,0,3,0,3,0
blueHour - UI - Project Explorer/it-tidalwave-accounting-model,it.tidalwave.accounting.model,Project.Builder,602,0,26,0,24,0,45,0,32,0
blueHour - UI - Project Explorer/it-tidalwave-accounting-model,it.tidalwave.accounting.model,Invoice.Builder.Callback,4,0,0,0,1,0,2,0,2,0
blueHour - UI - Project Explorer/it-tidalwave-accounting-model,it.tidalwave.accounting.model,HourlyReportGenerator,3,0,0,0,1,0,1,0,1,0
blueHour - UI - Project Explorer/it-tidalwave-accounting-model,it.tidalwave.accounting.model,Invoice.Builder,354,0,18,0,19,0,33,0,24,0
blueHour - UI - Project Explorer/it-tidalwave-accounting-model,it.tidalwave.accounting.model,JobEvent.Type,24,0,0,0,1,0,1,0,1,0
blueHour - UI - Project Explorer/it-tidalwave-accounting-model,it.tidalwave.accounting.model,Project.Builder.Callback,4,0,0,0,1,0,2,0,2,0
blueHour - UI - Project Explorer/it-tidalwave-accounting-model,it.tidalwave.accounting.model,HourlyReport,9,0,0,0,2,0,2,0,2,0
blueHour - UI - Project Explorer/it-tidalwave-accounting-model,it.tidalwave.accounting.model,Project.Status,24,0,0,0,1,0,1,0,1,0
blueHour - UI - Project Explorer/it-tidalwave-accounting-model,it.tidalwave.accounting.model,Customer,4,0,0,0,1,0,1,0,1,0
blueHour - UI - Project Explorer/it-tidalwave-accounting-model,it.tidalwave.accounting.model,Customer.Builder,170,0,10,0,15,0,21,0,16,0
blueHour - UI - Project Explorer/it-tidalwave-accounting-model,it.tidalwave.accounting.model,JobEventRegistry,3,0,0,0,1,0,1,0,1,0
blueHour - UI - Project Explorer/it-tidalwave-accounting-model,it.tidalwave.accounting.model,Customer.Builder.Callback,4,0,0,0,1,0,2,0,2,0
blueHour - UI - Project Explorer/it-tidalwave-accounting-model,it.tidalwave.accounting.model,Project,4,0,0,0,1,0,1,0,1,0
blueHour - UI - Project Explorer/it-tidalwave-accounting-model,it.tidalwave.accounting.model,JobEvent.Builder,339,0,18,0,14,0,31,0,22,0
blueHour - UI - Project Explorer/it-tidalwave-accounting-model,it.tidalwave.accounting.model,ProjectRegistry,3,0,0,0,1,0,1,0,1,0
blueHour - UI - Project Explorer/it-tidalwave-accounting-model,it.tidalwave.accounting.model,JobEvent,4,0,0,0,1,0,1,0,1,0
blueHour - UI - Project Explorer/it-tidalwave-accounting-model,it.tidalwave.accounting.model,Accounting,11,0,0,0,3,0,1,0,1,0
blueHour - UI - Project Explorer/it-tidalwave-accounting-model,it.tidalwave.accounting.model.types,Address.Builder,22,123,5,5,1,7,6,12,1,12
blueHour - UI - Project Explorer/it-tidalwave-accounting-model,it.tidalwave.accounting.model.types,Money,166,117,23,7,11,20,21,15,9,12
blueHour - UI - Project Explorer/it-tidalwave-accounting-model,it.tidalwave.accounting.model.types,Address,185,63,46,0,0,15,26,9,3,9
blueHour - UI - Project Explorer/it-tidalwave-accounting-model,it.tidalwave.accounting.model.spi,ObjectFactory,11,0,0,0,3,0,1,0,1,0
blueHour - UI - Project Explorer/it-tidalwave-accounting-model,it.tidalwave.accounting.model.impl,DefaultHourlyReportGenerator,261,0,4,0,34,0,7,0,5,0
blueHour - UI - Project Explorer/it-tidalwave-accounting-ui-commons,it.tidalwave.accounting.commons,Styleables,9,0,0,0,1,0,1,0,1,0
blueHour - UI - Project Explorer/it-tidalwave-accounting-ui-commons,it.tidalwave.accounting.commons,AccountingOpenedEvent,17,0,0,0,2,0,3,0,3,0
blueHour - UI - Project Explorer/it-tidalwave-accounting-ui-commons,it.tidalwave.accounting.commons,ImportRequest,5,0,0,0,2,0,2,0,2,0
blueHour - UI - Project Explorer/it-tidalwave-accounting-ui-commons,it.tidalwave.accounting.commons,CustomerSelectedEvent,17,0,0,0,2,0,3,0,3,0
blueHour - UI - Project Explorer/it-tidalwave-accounting-ui-commons,it.tidalwave.accounting.commons,AccountingOpenRequest,5,0,0,0,1,0,2,0,2,0
blueHour - UI - Project Explorer/it-tidalwave-accounting-ui-commons,it.tidalwave.accounting.commons,ProjectSelectedEvent,17,0,0,0,2,0,3,0,3,0
blueHour - UI - Project Explorer/it-tidalwave-accounting-ui-commons,it.tidalwave.accounting.commons,ProjectHourlyReportRequest,17,0,0,0,2,0,3,0,3,0
blueHour - UI - Project Explorer/it-tidalwave-accounting-ui-commons,it.tidalwave.accounting.role,Loadable,3,0,0,0,1,0,1,0,1,0
blueHour - UI - Project Explorer/it-tidalwave-accounting-ui-commons,it.tidalwave.accounting.role,LoadableSaveableAccounting,70,0,0,0,11,0,5,0,5,0
blueHour - UI - Project Explorer/it-tidalwave-accounting-ui-commons,it.tidalwave.accounting.role,Saveable,3,0,0,0,1,0,1,0,1,0
blueHour - UI - Project Explorer/it-tidalwave-accounting-ui-commons,it.tidalwave.role.ui.spi,MessageSendingUserAction,26,0,0,0,3,0,3,0,3,0
blueHour - UI - Project Explorer/it-tidalwave-accounting-ui-commons,it.tidalwave.role.ui.spi,DefaultUserActionProvider2,11,0,0,0,3,0,3,0,3,0
blueHour - UI - Project Explorer/it-tidalwave-accounting-ui-commons,it.tidalwave.application.spi,ToolBarModelSupport,37,0,0,0,3,0,7,0,7,0
