@startuml
    set namespaceSeparator none
    hide empty fields
    hide empty methods

    class "<size:14>RequestProfilerAspect\n<size:10>it.tidalwave.northernwind.profiling" as it.tidalwave.northernwind.profiling.RequestProfilerAspect [[RequestProfilerAspect.html]] {
        +advice(ProceedingJoinPoint): Object
    }

    center footer UMLDoclet 2.0.12, PlantUML 1.2020.16
@enduml
