<?xml version="1.0" encoding="UTF-8" standalone="no"?><svg xmlns="http://www.w3.org/2000/svg" xmlns:xlink="http://www.w3.org/1999/xlink" contentScriptType="application/ecmascript" contentStyleType="text/css" height="118px" preserveAspectRatio="none" style="width:249px;height:118px;" version="1.1" viewBox="0 0 249 118" width="249px" zoomAndPan="magnify"><defs><filter height="300%" id="f18gh18qfvoknw" width="300%" x="-1" y="-1"><feGaussianBlur result="blurOut" stdDeviation="2.0"/><feColorMatrix in="blurOut" result="blurOut2" type="matrix" values="0 0 0 0 0 0 0 0 0 0 0 0 0 0 0 0 0 0 .4 0"/><feOffset dx="4.0" dy="4.0" in="blurOut2" result="blurOut3"/><feBlend in="SourceGraphic" in2="blurOut3" mode="normal"/></filter></defs><g><!--MD5=[72644750fa6a92cbb3d7ed6a012c6bc0]
cluster it.tidalwave.role.annotation--><polygon fill="#FFFFFF" filter="url(#f18gh18qfvoknw)" points="16,6,217,6,224,28.4883,227,28.4883,227,89,16,89,16,6" style="stroke: #000000; stroke-width: 1.5;"/><line style="stroke: #000000; stroke-width: 1.5;" x1="16" x2="224" y1="28.4883" y2="28.4883"/><text fill="#000000" font-family="sans-serif" font-size="14" font-weight="bold" lengthAdjust="spacingAndGlyphs" textLength="195" x="20" y="21.5352">it.tidalwave.role.annotation</text><!--MD5=[1b4195c90ff591bbce9f85378093ab89]
class it.tidalwave.role.annotation.AsObject--><a href="AsObject.html" target="_top" title="AsObject.html" xlink:actuate="onRequest" xlink:href="AsObject.html" xlink:show="new" xlink:title="AsObject.html" xlink:type="simple"><rect codeLine="3" fill="#FEFECE" filter="url(#f18gh18qfvoknw)" height="48" id="it.tidalwave.role.annotation.AsObject" style="stroke: #A80036; stroke-width: 1.5;" width="84" x="79" y="33"/><ellipse cx="94" cy="49" fill="#E3664A" rx="11" ry="11" style="stroke: #A80036; stroke-width: 1.0;"/><path d="M96.5767,49.2261 Q96.5767,48.2881 96.1533,47.7568 Q95.73,47.2256 94.9912,47.2256 Q94.2524,47.2256 93.8333,47.7568 Q93.4141,48.2881 93.4141,49.2261 Q93.4141,50.1724 93.8333,50.7036 Q94.2524,51.2349 94.9912,51.2349 Q95.73,51.2349 96.1533,50.7036 Q96.5767,50.1724 96.5767,49.2261 Z M98.1206,52.6294 L96.4937,52.6294 L96.4937,51.9487 Q96.1782,52.3887 95.7507,52.592 Q95.3232,52.7954 94.7256,52.7954 Q93.3643,52.7954 92.53,51.8159 Q91.6958,50.8364 91.6958,49.2261 Q91.6958,47.624 92.5259,46.6487 Q93.356,45.6733 94.7256,45.6733 Q95.3149,45.6733 95.7632,45.8767 Q96.2114,46.0801 96.4937,46.4702 L96.4937,46.1299 Q96.4937,45.001 95.8752,44.3867 Q95.2568,43.7725 94.1113,43.7725 Q92.3848,43.7725 91.2932,45.2915 Q90.2017,46.8105 90.2017,49.2427 Q90.2017,51.791 91.4634,53.2976 Q92.7251,54.8042 94.8252,54.8042 Q95.4893,54.8042 96.1118,54.6091 Q96.7344,54.4141 97.3071,54.0239 L98.0708,55.4849 Q97.3984,55.9414 96.6057,56.1697 Q95.813,56.3979 94.9082,56.3979 Q92.0029,56.3979 90.2764,54.4639 Q88.5498,52.5298 88.5498,49.2427 Q88.5498,46.0303 90.1021,44.1003 Q91.6543,42.1704 94.2109,42.1704 Q96.0205,42.1704 97.0706,43.262 Q98.1206,44.3535 98.1206,46.2378 Z "/><text fill="#000000" font-family="sans-serif" font-size="12" lengthAdjust="spacingAndGlyphs" textLength="52" x="108" y="53.5352">AsObject</text><line style="stroke: #A80036; stroke-width: 1.5;" x1="80" x2="162" y1="65" y2="65"/><line style="stroke: #A80036; stroke-width: 1.5;" x1="80" x2="162" y1="73" y2="73"/></a><text fill="#888888" font-family="sans-serif" font-size="10" lengthAdjust="spacingAndGlyphs" textLength="188" x="21.5" y="104.668">UMLDoclet 2.0.12, PlantUML 1.2020.16</text><!--MD5=[c9769abbb5c7bb6804b289b61e318dad]
@startuml
    namespace it.tidalwave.role.annotation {

        annotation AsObject [[AsObject.html]]

    }

    center footer UMLDoclet 2.0.12, PlantUML 1.2020.16
@enduml

PlantUML version 1.2020.16(Sun Aug 23 22:20:43 CEST 2020)
(APACHE source distribution)
Java Runtime: OpenJDK Runtime Environment
JVM: OpenJDK 64-Bit Server VM
Default Encoding: UTF-8
Language: en
Country: GB
--></g></svg>