<?xml version="1.0" encoding="UTF-8" standalone="no"?><svg xmlns="http://www.w3.org/2000/svg" xmlns:xlink="http://www.w3.org/1999/xlink" contentScriptType="application/ecmascript" contentStyleType="text/css" height="265px" preserveAspectRatio="none" style="width:853px;height:265px;" version="1.1" viewBox="0 0 853 265" width="853px" zoomAndPan="magnify"><defs><filter height="300%" id="f14c5p2vnwaq9g" width="300%" x="-1" y="-1"><feGaussianBlur result="blurOut" stdDeviation="2.0"/><feColorMatrix in="blurOut" result="blurOut2" type="matrix" values="0 0 0 0 0 0 0 0 0 0 0 0 0 0 0 0 0 0 .4 0"/><feOffset dx="4.0" dy="4.0" in="blurOut2" result="blurOut3"/><feBlend in="SourceGraphic" in2="blurOut3" mode="normal"/></filter></defs><g><!--MD5=[75a384138e3ba2fc82e451bc5acff231]
cluster it.tidalwave.mistral.customoperation--><polygon fill="#FFFFFF" filter="url(#f14c5p2vnwaq9g)" points="16,127,285,127,292,149.4883,831,149.4883,831,236,16,236,16,127" style="stroke: #000000; stroke-width: 1.5;"/><line style="stroke: #000000; stroke-width: 1.5;" x1="16" x2="292" y1="149.4883" y2="149.4883"/><text fill="#000000" font-family="sans-serif" font-size="14" font-weight="bold" lengthAdjust="spacingAndGlyphs" textLength="263" x="20" y="142.5352">it.tidalwave.mistral.customoperation</text><!--MD5=[1af4d6da954209d250eb90830d30591f]
cluster it.tidalwave.image.op--><polygon fill="#FFFFFF" filter="url(#f14c5p2vnwaq9g)" points="178,6,335,6,342,28.4883,671,28.4883,671,102,178,102,178,6" style="stroke: #000000; stroke-width: 1.5;"/><line style="stroke: #000000; stroke-width: 1.5;" x1="178" x2="342" y1="28.4883" y2="28.4883"/><text fill="#000000" font-family="sans-serif" font-size="14" font-weight="bold" lengthAdjust="spacingAndGlyphs" textLength="151" x="182" y="21.5352">it.tidalwave.image.op</text><!--MD5=[0d996ec6feffdef0d9bc37c284f90c01]
class it.tidalwave.mistral.customoperation.ChangeBufferTypeOp--><a href="ChangeBufferTypeOp.html" target="_top" title="ChangeBufferTypeOp.html" xlink:actuate="onRequest" xlink:href="ChangeBufferTypeOp.html" xlink:show="new" xlink:title="ChangeBufferTypeOp.html" xlink:type="simple"><rect codeLine="3" fill="#FEFECE" filter="url(#f14c5p2vnwaq9g)" height="73.9102" id="it.tidalwave.mistral.customoperation.ChangeBufferTypeOp" style="stroke: #A80036; stroke-width: 1.5;" width="163" x="659.5" y="154"/><ellipse cx="678.1" cy="170" fill="#ADD1B2" rx="11" ry="11" style="stroke: #A80036; stroke-width: 1.0;"/><path d="M680.5731,176.1431 Q679.9921,176.4419 679.3529,176.5913 Q678.7138,176.7407 678.0082,176.7407 Q675.5014,176.7407 674.1815,175.0889 Q672.8617,173.437 672.8617,170.3159 Q672.8617,167.1865 674.1815,165.5347 Q675.5014,163.8828 678.0082,163.8828 Q678.7138,163.8828 679.3612,164.0322 Q680.0087,164.1816 680.5731,164.4805 L680.5731,167.2031 Q679.9423,166.6221 679.3488,166.3523 Q678.7553,166.0825 678.1244,166.0825 Q676.7797,166.0825 676.0949,167.1492 Q675.4101,168.2158 675.4101,170.3159 Q675.4101,172.4077 676.0949,173.4744 Q676.7797,174.541 678.1244,174.541 Q678.7553,174.541 679.3488,174.2712 Q679.9423,174.0015 680.5731,173.4204 Z "/><text fill="#000000" font-family="sans-serif" font-size="12" lengthAdjust="spacingAndGlyphs" textLength="123" x="692.9" y="174.5352">ChangeBufferTypeOp</text><line style="stroke: #A80036; stroke-width: 1.5;" x1="660.5" x2="821.5" y1="186" y2="186"/><line style="stroke: #A80036; stroke-width: 1.5;" x1="660.5" x2="821.5" y1="194" y2="194"/><ellipse cx="670.5" cy="205" fill="#84BE84" rx="3" ry="3" style="stroke: #038048; stroke-width: 1.0;"/><text fill="#000000" font-family="sans-serif" font-size="11" lengthAdjust="spacingAndGlyphs" textLength="137" x="679.5" y="208.6348">ChangeBufferTypeOp(int)</text><ellipse cx="670.5" cy="217.9551" fill="#84BE84" rx="3" ry="3" style="stroke: #038048; stroke-width: 1.0;"/><text fill="#000000" font-family="sans-serif" font-size="11" lengthAdjust="spacingAndGlyphs" textLength="103" x="679.5" y="221.5898">getBufferType(): int</text></a><!--MD5=[7e8bc3f587086f63c345cf62f8d57753]
class it.tidalwave.mistral.customoperation.Main--><a href="Main.html" target="_top" title="Main.html" xlink:actuate="onRequest" xlink:href="Main.html" xlink:show="new" xlink:title="Main.html" xlink:type="simple"><rect codeLine="8" fill="#FEFECE" filter="url(#f14c5p2vnwaq9g)" height="60.9551" id="it.tidalwave.mistral.customoperation.Main" style="stroke: #A80036; stroke-width: 1.5;" width="129" x="495.5" y="160.5"/><ellipse cx="542.25" cy="176.5" fill="#ADD1B2" rx="11" ry="11" style="stroke: #A80036; stroke-width: 1.0;"/><path d="M544.7231,182.6431 Q544.1421,182.9419 543.5029,183.0913 Q542.8638,183.2407 542.1582,183.2407 Q539.6514,183.2407 538.3315,181.5889 Q537.0117,179.937 537.0117,176.8159 Q537.0117,173.6865 538.3315,172.0347 Q539.6514,170.3828 542.1582,170.3828 Q542.8638,170.3828 543.5112,170.5322 Q544.1587,170.6816 544.7231,170.9805 L544.7231,173.7031 Q544.0923,173.1221 543.4988,172.8523 Q542.9053,172.5825 542.2744,172.5825 Q540.9297,172.5825 540.2449,173.6492 Q539.5601,174.7158 539.5601,176.8159 Q539.5601,178.9077 540.2449,179.9744 Q540.9297,181.041 542.2744,181.041 Q542.9053,181.041 543.4988,180.7712 Q544.0923,180.5015 544.7231,179.9204 Z "/><text fill="#000000" font-family="sans-serif" font-size="12" lengthAdjust="spacingAndGlyphs" textLength="27" x="562.75" y="181.0352">Main</text><line style="stroke: #A80036; stroke-width: 1.5;" x1="496.5" x2="623.5" y1="192.5" y2="192.5"/><line style="stroke: #A80036; stroke-width: 1.5;" x1="496.5" x2="623.5" y1="200.5" y2="200.5"/><ellipse cx="506.5" cy="211.5" fill="#84BE84" rx="3" ry="3" style="stroke: #038048; stroke-width: 1.0;"/><text fill="#000000" font-family="sans-serif" font-size="11" lengthAdjust="spacingAndGlyphs" text-decoration="underline" textLength="103" x="515.5" y="215.1348">main(String[]): void</text></a><!--MD5=[c5681888b8a629db70e832df7bb63b05]
class it.tidalwave.mistral.customoperation.ChangeBufferTypeJ2DOp--><a href="ChangeBufferTypeJ2DOp.html" target="_top" title="ChangeBufferTypeJ2DOp.html" xlink:actuate="onRequest" xlink:href="ChangeBufferTypeJ2DOp.html" xlink:show="new" xlink:title="ChangeBufferTypeJ2DOp.html" xlink:type="simple"><rect codeLine="12" fill="#FEFECE" filter="url(#f14c5p2vnwaq9g)" height="60.9551" id="it.tidalwave.mistral.customoperation.ChangeBufferTypeJ2DOp" style="stroke: #A80036; stroke-width: 1.5;" width="437" x="23.5" y="160.5"/><ellipse cx="165.75" cy="176.5" fill="#ADD1B2" rx="11" ry="11" style="stroke: #A80036; stroke-width: 1.0;"/><path d="M168.2231,182.6431 Q167.6421,182.9419 167.0029,183.0913 Q166.3638,183.2407 165.6582,183.2407 Q163.1514,183.2407 161.8315,181.5889 Q160.5117,179.937 160.5117,176.8159 Q160.5117,173.6865 161.8315,172.0347 Q163.1514,170.3828 165.6582,170.3828 Q166.3638,170.3828 167.0112,170.5322 Q167.6587,170.6816 168.2231,170.9805 L168.2231,173.7031 Q167.5923,173.1221 166.9988,172.8523 Q166.4053,172.5825 165.7744,172.5825 Q164.4297,172.5825 163.7449,173.6492 Q163.0601,174.7158 163.0601,176.8159 Q163.0601,178.9077 163.7449,179.9744 Q164.4297,181.041 165.7744,181.041 Q166.4053,181.041 166.9988,180.7712 Q167.5923,180.5015 168.2231,179.9204 Z "/><text fill="#000000" font-family="sans-serif" font-size="12" lengthAdjust="spacingAndGlyphs" textLength="144" x="186.25" y="181.0352">ChangeBufferTypeJ2DOp</text><line style="stroke: #A80036; stroke-width: 1.5;" x1="24.5" x2="459.5" y1="192.5" y2="192.5"/><line style="stroke: #A80036; stroke-width: 1.5;" x1="24.5" x2="459.5" y1="200.5" y2="200.5"/><polygon fill="#FFFF44" points="34.5,206.5,38.5,210.5,34.5,214.5,30.5,210.5" style="stroke: #B38D22; stroke-width: 1.0;"/><text fill="#000000" font-family="sans-serif" font-size="11" lengthAdjust="spacingAndGlyphs" textLength="411" x="43.5" y="215.1348">execute(ChangeBufferTypeOp, EditableImage, BufferedImage): BufferedImage</text></a><!--MD5=[38d98585b86eb6b7711a62ae1ef153dd]
class it.tidalwave.image.op.Operation--><a href="../../image/op/Operation.html" target="_top" title="../../image/op/Operation.html" xlink:actuate="onRequest" xlink:href="../../image/op/Operation.html" xlink:show="new" xlink:title="../../image/op/Operation.html" xlink:type="simple"><rect codeLine="21" fill="#FEFECE" filter="url(#f14c5p2vnwaq9g)" height="48" id="it.tidalwave.image.op.Operation" style="stroke: #A80036; stroke-width: 1.5;" width="89" x="574.5" y="39.5"/><ellipse cx="589.5" cy="55.5" fill="#A9DCDF" rx="11" ry="11" style="stroke: #A80036; stroke-width: 1.0;"/><path d="M589.3633,50.8481 L588.2095,55.9199 L590.5254,55.9199 Z M587.8691,48.6069 L590.8657,48.6069 L594.2109,61 L591.7622,61 L590.9985,57.937 L587.7197,57.937 L586.9727,61 L584.5239,61 Z "/><text fill="#000000" font-family="sans-serif" font-size="12" font-style="italic" lengthAdjust="spacingAndGlyphs" textLength="57" x="603.5" y="60.0352">Operation</text><line style="stroke: #A80036; stroke-width: 1.5;" x1="575.5" x2="662.5" y1="71.5" y2="71.5"/><line style="stroke: #A80036; stroke-width: 1.5;" x1="575.5" x2="662.5" y1="79.5" y2="79.5"/></a><!--MD5=[7ef274ac46e40a615c70e926a9eff743]
class it.tidalwave.image.op.OperationImplementation--><a href="../../image/op/OperationImplementation.html" target="_top" title="../../image/op/OperationImplementation.html" xlink:actuate="onRequest" xlink:href="../../image/op/OperationImplementation.html" xlink:show="new" xlink:title="../../image/op/OperationImplementation.html" xlink:type="simple"><rect codeLine="22" fill="#FEFECE" filter="url(#f14c5p2vnwaq9g)" height="60.9551" id="it.tidalwave.image.op.OperationImplementation" style="stroke: #A80036; stroke-width: 1.5;" width="353" x="186.5" y="33"/><ellipse cx="201.5" cy="49" fill="#A9DCDF" rx="11" ry="11" style="stroke: #A80036; stroke-width: 1.0;"/><path d="M201.3633,44.3481 L200.2095,49.4199 L202.5254,49.4199 Z M199.8691,42.1069 L202.8657,42.1069 L206.2109,54.5 L203.7622,54.5 L202.9985,51.437 L199.7197,51.437 L198.9727,54.5 L196.5239,54.5 Z "/><text fill="#000000" font-family="sans-serif" font-size="12" font-style="italic" lengthAdjust="spacingAndGlyphs" textLength="146" x="215.5" y="53.5352">OperationImplementation</text><rect fill="#FFFFFF" height="16.1328" style="stroke: #000000; stroke-width: 1.0; stroke-dasharray: 2.0,2.0;" width="173" x="369.5" y="30"/><text fill="#000000" font-family="sans-serif" font-size="12" font-style="italic" lengthAdjust="spacingAndGlyphs" textLength="171" x="370.5" y="42.6016">Op extends Operation, Model</text><line style="stroke: #A80036; stroke-width: 1.5;" x1="187.5" x2="538.5" y1="65" y2="65"/><line style="stroke: #A80036; stroke-width: 1.5;" x1="187.5" x2="538.5" y1="73" y2="73"/><polygon fill="#FFFF44" points="197.5,79,201.5,83,197.5,87,193.5,83" style="stroke: #B38D22; stroke-width: 1.0;"/><text fill="#000000" font-family="sans-serif" font-size="11" font-style="italic" lengthAdjust="spacingAndGlyphs" textLength="325" x="206.5" y="87.6348">execute(Op extends Operation, EditableImage, Model): Model</text></a><!--MD5=[6af2752870f1810bab5f09d95bd91357]
reverse link it.tidalwave.image.op.Operation to it.tidalwave.mistral.customoperation.ChangeBufferTypeOp--><path codeLine="16" d="M656.2778,102.4583 C671.8824,118.7664 689.9403,137.6384 705.3653,153.7589 " fill="none" id="it.tidalwave.image.op.Operation-backto-it.tidalwave.mistral.customoperation.ChangeBufferTypeOp" style="stroke: #A80036; stroke-width: 1.0;"/><polygon fill="none" points="651.0038,107.0718,642.2344,87.7819,661.1191,97.3928,651.0038,107.0718" style="stroke: #A80036; stroke-width: 1.0;"/><!--MD5=[712ee5a06f2331d7258dda643f3aa9b9]
reverse link it.tidalwave.image.op.OperationImplementation to it.tidalwave.mistral.customoperation.ChangeBufferTypeJ2DOp--><path codeLine="17" d="M320.0912,108.7139 C303.8821,125.7937 285.8279,144.8177 271.1654,160.2679 " fill="none" id="it.tidalwave.image.op.OperationImplementation-backto-it.tidalwave.mistral.customoperation.ChangeBufferTypeJ2DOp" style="stroke: #A80036; stroke-width: 1.0;"/><polygon fill="none" points="315.1725,103.7279,334.0175,94.0394,325.3274,113.3652,315.1725,103.7279" style="stroke: #A80036; stroke-width: 1.0;"/><text fill="#888888" font-family="sans-serif" font-size="10" lengthAdjust="spacingAndGlyphs" textLength="188" x="323.5" y="251.668">UMLDoclet 2.0.12, PlantUML 1.2020.16</text><!--MD5=[28abf71dd4850026df84146451b1ab64]
@startuml
    namespace it.tidalwave.mistral.customoperation {

        class ChangeBufferTypeOp [[ChangeBufferTypeOp.html]] {
            +ChangeBufferTypeOp(int)
            +getBufferType(): int
        }

        class Main [[Main.html]] {
            {static} +main(String[]): void
        }

        class ChangeBufferTypeJ2DOp [[ChangeBufferTypeJ2DOp.html]] {
            #execute(ChangeBufferTypeOp, EditableImage, BufferedImage): BufferedImage
        }

        it.tidalwave.image.op.Operation <|- - ChangeBufferTypeOp
        it.tidalwave.image.op.OperationImplementation <|- - ChangeBufferTypeJ2DOp
    }

    namespace it.tidalwave.image.op {
        abstract class Operation [[../../image/op/Operation.html]]
        abstract class OperationImplementation<Op extends Operation, Model> [[../../image/op/OperationImplementation.html]] {
            {abstract} #execute(Op extends Operation, EditableImage, Model): Model
        }
    }

    center footer UMLDoclet 2.0.12, PlantUML 1.2020.16
@enduml

PlantUML version 1.2020.16(Sun Aug 23 22:20:43 CEST 2020)
(APACHE source distribution)
Java Runtime: OpenJDK Runtime Environment
JVM: OpenJDK 64-Bit Server VM
Default Encoding: UTF-8
Language: en
Country: GB
--></g></svg>