@startuml
    set namespaceSeparator none
    hide empty fields
    hide empty methods

    class "<size:14>Message2\n<size:10>it.tidalwave.messagebus" as it.tidalwave.messagebus.Message2 [[Message2.html]]

    center footer UMLDoclet 2.0.12, PlantUML 1.2020.16
@enduml
