<?xml version="1.0" encoding="UTF-8" standalone="no"?><svg xmlns="http://www.w3.org/2000/svg" xmlns:xlink="http://www.w3.org/1999/xlink" contentScriptType="application/ecmascript" contentStyleType="text/css" height="278px" preserveAspectRatio="none" style="width:1116px;height:278px;" version="1.1" viewBox="0 0 1116 278" width="1116px" zoomAndPan="magnify"><defs><filter height="300%" id="f1ngrobs04jkk9" width="300%" x="-1" y="-1"><feGaussianBlur result="blurOut" stdDeviation="2.0"/><feColorMatrix in="blurOut" result="blurOut2" type="matrix" values="0 0 0 0 0 0 0 0 0 0 0 0 0 0 0 0 0 0 .4 0"/><feOffset dx="4.0" dy="4.0" in="blurOut2" result="blurOut3"/><feBlend in="SourceGraphic" in2="blurOut3" mode="normal"/></filter></defs><g><!--MD5=[0a9c56bb243fd106a89f6d54cf92d5a0]
cluster it.tidalwave.role.io.spi--><polygon fill="#FFFFFF" filter="url(#f1ngrobs04jkk9)" points="195,153,357,153,364,175.4883,936,175.4883,936,249,195,249,195,153" style="stroke: #000000; stroke-width: 1.5;"/><line style="stroke: #000000; stroke-width: 1.5;" x1="195" x2="364" y1="175.4883" y2="175.4883"/><text fill="#000000" font-family="sans-serif" font-size="14" font-weight="bold" lengthAdjust="spacingAndGlyphs" textLength="156" x="199" y="168.5352">it.tidalwave.role.io.spi</text><!--MD5=[f624c859ad0e1eb814b90c4c4550318d]
cluster it.tidalwave.role.io--><polygon fill="#FFFFFF" filter="url(#f1ngrobs04jkk9)" points="16,6,153,6,160,28.4883,1094,28.4883,1094,128,16,128,16,6" style="stroke: #000000; stroke-width: 1.5;"/><line style="stroke: #000000; stroke-width: 1.5;" x1="16" x2="160" y1="28.4883" y2="28.4883"/><text fill="#000000" font-family="sans-serif" font-size="14" font-weight="bold" lengthAdjust="spacingAndGlyphs" textLength="131" x="20" y="21.5352">it.tidalwave.role.io</text><!--MD5=[c9ea6d4d23cc3075981e280ca2be5151]
class it.tidalwave.role.io.spi.FileBinaryWritable--><a href="FileBinaryWritable.html" target="_top" title="FileBinaryWritable.html" xlink:actuate="onRequest" xlink:href="FileBinaryWritable.html" xlink:show="new" xlink:title="FileBinaryWritable.html" xlink:type="simple"><rect codeLine="3" fill="#FEFECE" filter="url(#f1ngrobs04jkk9)" height="60.9551" id="it.tidalwave.role.io.spi.FileBinaryWritable" style="stroke: #A80036; stroke-width: 1.5;" width="179" x="748.5" y="180"/><ellipse cx="784.2" cy="196" fill="#ADD1B2" rx="11" ry="11" style="stroke: #A80036; stroke-width: 1.0;"/><path d="M786.6731,202.1431 Q786.0921,202.4419 785.4529,202.5913 Q784.8138,202.7407 784.1082,202.7407 Q781.6014,202.7407 780.2815,201.0889 Q778.9617,199.437 778.9617,196.3159 Q778.9617,193.1865 780.2815,191.5347 Q781.6014,189.8828 784.1082,189.8828 Q784.8138,189.8828 785.4612,190.0322 Q786.1087,190.1816 786.6731,190.4805 L786.6731,193.2031 Q786.0423,192.6221 785.4488,192.3523 Q784.8553,192.0825 784.2244,192.0825 Q782.8797,192.0825 782.1949,193.1492 Q781.5101,194.2158 781.5101,196.3159 Q781.5101,198.4077 782.1949,199.4744 Q782.8797,200.541 784.2244,200.541 Q784.8553,200.541 785.4488,200.2712 Q786.0423,200.0015 786.6731,199.4204 Z "/><text fill="#000000" font-family="sans-serif" font-size="12" lengthAdjust="spacingAndGlyphs" textLength="101" x="802.8" y="200.5352">FileBinaryWritable</text><line style="stroke: #A80036; stroke-width: 1.5;" x1="749.5" x2="926.5" y1="212" y2="212"/><line style="stroke: #A80036; stroke-width: 1.5;" x1="749.5" x2="926.5" y1="220" y2="220"/><ellipse cx="759.5" cy="231" fill="#84BE84" rx="3" ry="3" style="stroke: #038048; stroke-width: 1.0;"/><text fill="#000000" font-family="sans-serif" font-size="11" lengthAdjust="spacingAndGlyphs" textLength="153" x="768.5" y="234.6348">openStream(): OutputStream</text></a><!--MD5=[b9d3d7c8fe7996f680debaeea4019346]
class it.tidalwave.role.io.spi.FileTextWritable--><a href="FileTextWritable.html" target="_top" title="FileTextWritable.html" xlink:actuate="onRequest" xlink:href="FileTextWritable.html" xlink:show="new" xlink:title="FileTextWritable.html" xlink:type="simple"><rect codeLine="7" fill="#FEFECE" filter="url(#f1ngrobs04jkk9)" height="60.9551" id="it.tidalwave.role.io.spi.FileTextWritable" style="stroke: #A80036; stroke-width: 1.5;" width="131" x="582.5" y="180"/><ellipse cx="600.65" cy="196" fill="#ADD1B2" rx="11" ry="11" style="stroke: #A80036; stroke-width: 1.0;"/><path d="M603.1231,202.1431 Q602.5421,202.4419 601.9029,202.5913 Q601.2638,202.7407 600.5582,202.7407 Q598.0514,202.7407 596.7315,201.0889 Q595.4117,199.437 595.4117,196.3159 Q595.4117,193.1865 596.7315,191.5347 Q598.0514,189.8828 600.5582,189.8828 Q601.2638,189.8828 601.9112,190.0322 Q602.5587,190.1816 603.1231,190.4805 L603.1231,193.2031 Q602.4923,192.6221 601.8988,192.3523 Q601.3053,192.0825 600.6744,192.0825 Q599.3297,192.0825 598.6449,193.1492 Q597.9601,194.2158 597.9601,196.3159 Q597.9601,198.4077 598.6449,199.4744 Q599.3297,200.541 600.6744,200.541 Q601.3053,200.541 601.8988,200.2712 Q602.4923,200.0015 603.1231,199.4204 Z "/><text fill="#000000" font-family="sans-serif" font-size="12" lengthAdjust="spacingAndGlyphs" textLength="92" x="615.35" y="200.5352">FileTextWritable</text><line style="stroke: #A80036; stroke-width: 1.5;" x1="583.5" x2="712.5" y1="212" y2="212"/><line style="stroke: #A80036; stroke-width: 1.5;" x1="583.5" x2="712.5" y1="220" y2="220"/><ellipse cx="593.5" cy="231" fill="#84BE84" rx="3" ry="3" style="stroke: #038048; stroke-width: 1.0;"/><text fill="#000000" font-family="sans-serif" font-size="11" lengthAdjust="spacingAndGlyphs" textLength="105" x="602.5" y="234.6348">openWriter(): Writer</text></a><!--MD5=[f50c7468d08cc602d103ed6d45e93ee0]
class it.tidalwave.role.io.spi.FileTextReadable--><a href="FileTextReadable.html" target="_top" title="FileTextReadable.html" xlink:actuate="onRequest" xlink:href="FileTextReadable.html" xlink:show="new" xlink:title="FileTextReadable.html" xlink:type="simple"><rect codeLine="11" fill="#FEFECE" filter="url(#f1ngrobs04jkk9)" height="60.9551" id="it.tidalwave.role.io.spi.FileTextReadable" style="stroke: #A80036; stroke-width: 1.5;" width="141" x="406.5" y="180"/><ellipse cx="425.55" cy="196" fill="#ADD1B2" rx="11" ry="11" style="stroke: #A80036; stroke-width: 1.0;"/><path d="M428.0231,202.1431 Q427.4421,202.4419 426.8029,202.5913 Q426.1638,202.7407 425.4582,202.7407 Q422.9514,202.7407 421.6315,201.0889 Q420.3117,199.437 420.3117,196.3159 Q420.3117,193.1865 421.6315,191.5347 Q422.9514,189.8828 425.4582,189.8828 Q426.1638,189.8828 426.8112,190.0322 Q427.4587,190.1816 428.0231,190.4805 L428.0231,193.2031 Q427.3923,192.6221 426.7988,192.3523 Q426.2053,192.0825 425.5744,192.0825 Q424.2297,192.0825 423.5449,193.1492 Q422.8601,194.2158 422.8601,196.3159 Q422.8601,198.4077 423.5449,199.4744 Q424.2297,200.541 425.5744,200.541 Q426.2053,200.541 426.7988,200.2712 Q427.3923,200.0015 428.0231,199.4204 Z "/><text fill="#000000" font-family="sans-serif" font-size="12" lengthAdjust="spacingAndGlyphs" textLength="100" x="440.45" y="200.5352">FileTextReadable</text><line style="stroke: #A80036; stroke-width: 1.5;" x1="407.5" x2="546.5" y1="212" y2="212"/><line style="stroke: #A80036; stroke-width: 1.5;" x1="407.5" x2="546.5" y1="220" y2="220"/><ellipse cx="417.5" cy="231" fill="#84BE84" rx="3" ry="3" style="stroke: #038048; stroke-width: 1.0;"/><text fill="#000000" font-family="sans-serif" font-size="11" lengthAdjust="spacingAndGlyphs" textLength="115" x="426.5" y="234.6348">openReader(): Reader</text></a><!--MD5=[cd5777d2c9d7d64d03772b2f12773974]
class it.tidalwave.role.io.spi.FileBinaryReadable--><a href="FileBinaryReadable.html" target="_top" title="FileBinaryReadable.html" xlink:actuate="onRequest" xlink:href="FileBinaryReadable.html" xlink:show="new" xlink:title="FileBinaryReadable.html" xlink:type="simple"><rect codeLine="15" fill="#FEFECE" filter="url(#f1ngrobs04jkk9)" height="60.9551" id="it.tidalwave.role.io.spi.FileBinaryReadable" style="stroke: #A80036; stroke-width: 1.5;" width="169" x="202.5" y="180"/><ellipse cx="230.1" cy="196" fill="#ADD1B2" rx="11" ry="11" style="stroke: #A80036; stroke-width: 1.0;"/><path d="M232.5731,202.1431 Q231.9921,202.4419 231.3529,202.5913 Q230.7138,202.7407 230.0082,202.7407 Q227.5014,202.7407 226.1815,201.0889 Q224.8617,199.437 224.8617,196.3159 Q224.8617,193.1865 226.1815,191.5347 Q227.5014,189.8828 230.0082,189.8828 Q230.7138,189.8828 231.3612,190.0322 Q232.0087,190.1816 232.5731,190.4805 L232.5731,193.2031 Q231.9423,192.6221 231.3488,192.3523 Q230.7553,192.0825 230.1244,192.0825 Q228.7797,192.0825 228.0949,193.1492 Q227.4101,194.2158 227.4101,196.3159 Q227.4101,198.4077 228.0949,199.4744 Q228.7797,200.541 230.1244,200.541 Q230.7553,200.541 231.3488,200.2712 Q231.9423,200.0015 232.5731,199.4204 Z "/><text fill="#000000" font-family="sans-serif" font-size="12" lengthAdjust="spacingAndGlyphs" textLength="109" x="246.9" y="200.5352">FileBinaryReadable</text><line style="stroke: #A80036; stroke-width: 1.5;" x1="203.5" x2="370.5" y1="212" y2="212"/><line style="stroke: #A80036; stroke-width: 1.5;" x1="203.5" x2="370.5" y1="220" y2="220"/><ellipse cx="213.5" cy="231" fill="#84BE84" rx="3" ry="3" style="stroke: #038048; stroke-width: 1.0;"/><text fill="#000000" font-family="sans-serif" font-size="11" lengthAdjust="spacingAndGlyphs" textLength="143" x="222.5" y="234.6348">openStream(): InputStream</text></a><!--MD5=[020cd9ae4c403ec9331e5e76009ca2a8]
class it.tidalwave.role.io.BinaryWritable--><a href="../BinaryWritable.html" target="_top" title="../BinaryWritable.html" xlink:actuate="onRequest" xlink:href="../BinaryWritable.html" xlink:show="new" xlink:title="../BinaryWritable.html" xlink:type="simple"><rect codeLine="26" fill="#FEFECE" filter="url(#f1ngrobs04jkk9)" height="86.8652" id="it.tidalwave.role.io.BinaryWritable" style="stroke: #A80036; stroke-width: 1.5;" width="243" x="842.5" y="33"/><ellipse cx="918.75" cy="49" fill="#B4A7E5" rx="11" ry="11" style="stroke: #A80036; stroke-width: 1.0;"/><path d="M915.1777,45.2651 L915.1777,43.1069 L922.5571,43.1069 L922.5571,45.2651 L920.0918,45.2651 L920.0918,53.3418 L922.5571,53.3418 L922.5571,55.5 L915.1777,55.5 L915.1777,53.3418 L917.6431,53.3418 L917.6431,45.2651 Z "/><text fill="#000000" font-family="sans-serif" font-size="12" font-style="italic" lengthAdjust="spacingAndGlyphs" textLength="82" x="939.25" y="53.5352">BinaryWritable</text><line style="stroke: #A80036; stroke-width: 1.5;" x1="843.5" x2="1084.5" y1="65" y2="65"/><ellipse cx="853.5" cy="76" fill="none" rx="3" ry="3" style="stroke: #038048; stroke-width: 1.0;"/><text fill="#000000" font-family="sans-serif" font-size="11" lengthAdjust="spacingAndGlyphs" text-decoration="underline" textLength="217" x="862.5" y="79.6348">_BinaryWritable_: Class&lt;BinaryWritable&gt;</text><ellipse cx="853.5" cy="88.9551" fill="none" rx="3" ry="3" style="stroke: #038048; stroke-width: 1.0;"/><text fill="#000000" font-family="sans-serif" font-size="11" lengthAdjust="spacingAndGlyphs" text-decoration="underline" textLength="131" x="862.5" y="92.5898">DEFAULT: BinaryWritable</text><line style="stroke: #A80036; stroke-width: 1.5;" x1="843.5" x2="1084.5" y1="98.9102" y2="98.9102"/><ellipse cx="853.5" cy="109.9102" fill="#84BE84" rx="3" ry="3" style="stroke: #038048; stroke-width: 1.0;"/><text fill="#000000" font-family="sans-serif" font-size="11" font-style="italic" lengthAdjust="spacingAndGlyphs" textLength="153" x="862.5" y="113.5449">openStream(): OutputStream</text></a><!--MD5=[655d2c25539f643bdbdf98b39fed2e00]
class it.tidalwave.role.io.TextWritable--><a href="../TextWritable.html" target="_top" title="../TextWritable.html" xlink:actuate="onRequest" xlink:href="../TextWritable.html" xlink:show="new" xlink:title="../TextWritable.html" xlink:type="simple"><rect codeLine="31" fill="#FEFECE" filter="url(#f1ngrobs04jkk9)" height="86.8652" id="it.tidalwave.role.io.TextWritable" style="stroke: #A80036; stroke-width: 1.5;" width="225" x="582.5" y="33"/><ellipse cx="654.25" cy="49" fill="#B4A7E5" rx="11" ry="11" style="stroke: #A80036; stroke-width: 1.0;"/><path d="M650.6777,45.2651 L650.6777,43.1069 L658.0571,43.1069 L658.0571,45.2651 L655.5918,45.2651 L655.5918,53.3418 L658.0571,53.3418 L658.0571,55.5 L650.6777,55.5 L650.6777,53.3418 L653.1431,53.3418 L653.1431,45.2651 Z "/><text fill="#000000" font-family="sans-serif" font-size="12" font-style="italic" lengthAdjust="spacingAndGlyphs" textLength="73" x="674.75" y="53.5352">TextWritable</text><line style="stroke: #A80036; stroke-width: 1.5;" x1="583.5" x2="806.5" y1="65" y2="65"/><ellipse cx="593.5" cy="76" fill="none" rx="3" ry="3" style="stroke: #038048; stroke-width: 1.0;"/><text fill="#000000" font-family="sans-serif" font-size="11" lengthAdjust="spacingAndGlyphs" text-decoration="underline" textLength="199" x="602.5" y="79.6348">_TextWritable_: Class&lt;TextWritable&gt;</text><ellipse cx="593.5" cy="88.9551" fill="none" rx="3" ry="3" style="stroke: #038048; stroke-width: 1.0;"/><text fill="#000000" font-family="sans-serif" font-size="11" lengthAdjust="spacingAndGlyphs" text-decoration="underline" textLength="122" x="602.5" y="92.5898">DEFAULT: TextWritable</text><line style="stroke: #A80036; stroke-width: 1.5;" x1="583.5" x2="806.5" y1="98.9102" y2="98.9102"/><ellipse cx="593.5" cy="109.9102" fill="#84BE84" rx="3" ry="3" style="stroke: #038048; stroke-width: 1.0;"/><text fill="#000000" font-family="sans-serif" font-size="11" font-style="italic" lengthAdjust="spacingAndGlyphs" textLength="105" x="602.5" y="113.5449">openWriter(): Writer</text></a><!--MD5=[0e5e728ae99ecbb96a97ddc8125ef291]
class it.tidalwave.role.io.TextReadable--><a href="../TextReadable.html" target="_top" title="../TextReadable.html" xlink:actuate="onRequest" xlink:href="../TextReadable.html" xlink:show="new" xlink:title="../TextReadable.html" xlink:type="simple"><rect codeLine="36" fill="#FEFECE" filter="url(#f1ngrobs04jkk9)" height="86.8652" id="it.tidalwave.role.io.TextReadable" style="stroke: #A80036; stroke-width: 1.5;" width="235" x="312.5" y="33"/><ellipse cx="385.25" cy="49" fill="#B4A7E5" rx="11" ry="11" style="stroke: #A80036; stroke-width: 1.0;"/><path d="M381.6777,45.2651 L381.6777,43.1069 L389.0571,43.1069 L389.0571,45.2651 L386.5918,45.2651 L386.5918,53.3418 L389.0571,53.3418 L389.0571,55.5 L381.6777,55.5 L381.6777,53.3418 L384.1431,53.3418 L384.1431,45.2651 Z "/><text fill="#000000" font-family="sans-serif" font-size="12" font-style="italic" lengthAdjust="spacingAndGlyphs" textLength="81" x="405.75" y="53.5352">TextReadable</text><line style="stroke: #A80036; stroke-width: 1.5;" x1="313.5" x2="546.5" y1="65" y2="65"/><ellipse cx="323.5" cy="76" fill="none" rx="3" ry="3" style="stroke: #038048; stroke-width: 1.0;"/><text fill="#000000" font-family="sans-serif" font-size="11" lengthAdjust="spacingAndGlyphs" text-decoration="underline" textLength="209" x="332.5" y="79.6348">_TextReadable_: Class&lt;TextReadable&gt;</text><ellipse cx="323.5" cy="88.9551" fill="none" rx="3" ry="3" style="stroke: #038048; stroke-width: 1.0;"/><text fill="#000000" font-family="sans-serif" font-size="11" lengthAdjust="spacingAndGlyphs" text-decoration="underline" textLength="127" x="332.5" y="92.5898">DEFAULT: TextReadable</text><line style="stroke: #A80036; stroke-width: 1.5;" x1="313.5" x2="546.5" y1="98.9102" y2="98.9102"/><ellipse cx="323.5" cy="109.9102" fill="#84BE84" rx="3" ry="3" style="stroke: #038048; stroke-width: 1.0;"/><text fill="#000000" font-family="sans-serif" font-size="11" font-style="italic" lengthAdjust="spacingAndGlyphs" textLength="115" x="332.5" y="113.5449">openReader(): Reader</text></a><!--MD5=[01447793620d16fc257dd6b841f56ccc]
class it.tidalwave.role.io.BinaryReadable--><a href="../BinaryReadable.html" target="_top" title="../BinaryReadable.html" xlink:actuate="onRequest" xlink:href="../BinaryReadable.html" xlink:show="new" xlink:title="../BinaryReadable.html" xlink:type="simple"><rect codeLine="41" fill="#FEFECE" filter="url(#f1ngrobs04jkk9)" height="86.8652" id="it.tidalwave.role.io.BinaryReadable" style="stroke: #A80036; stroke-width: 1.5;" width="253" x="24.5" y="33"/><ellipse cx="101.75" cy="49" fill="#B4A7E5" rx="11" ry="11" style="stroke: #A80036; stroke-width: 1.0;"/><path d="M98.1777,45.2651 L98.1777,43.1069 L105.5571,43.1069 L105.5571,45.2651 L103.0918,45.2651 L103.0918,53.3418 L105.5571,53.3418 L105.5571,55.5 L98.1777,55.5 L98.1777,53.3418 L100.6431,53.3418 L100.6431,45.2651 Z "/><text fill="#000000" font-family="sans-serif" font-size="12" font-style="italic" lengthAdjust="spacingAndGlyphs" textLength="90" x="122.25" y="53.5352">BinaryReadable</text><line style="stroke: #A80036; stroke-width: 1.5;" x1="25.5" x2="276.5" y1="65" y2="65"/><ellipse cx="35.5" cy="76" fill="none" rx="3" ry="3" style="stroke: #038048; stroke-width: 1.0;"/><text fill="#000000" font-family="sans-serif" font-size="11" lengthAdjust="spacingAndGlyphs" text-decoration="underline" textLength="227" x="44.5" y="79.6348">_BinaryReadable_: Class&lt;BinaryReadable&gt;</text><ellipse cx="35.5" cy="88.9551" fill="none" rx="3" ry="3" style="stroke: #038048; stroke-width: 1.0;"/><text fill="#000000" font-family="sans-serif" font-size="11" lengthAdjust="spacingAndGlyphs" text-decoration="underline" textLength="136" x="44.5" y="92.5898">DEFAULT: BinaryReadable</text><line style="stroke: #A80036; stroke-width: 1.5;" x1="25.5" x2="276.5" y1="98.9102" y2="98.9102"/><ellipse cx="35.5" cy="109.9102" fill="#84BE84" rx="3" ry="3" style="stroke: #038048; stroke-width: 1.0;"/><text fill="#000000" font-family="sans-serif" font-size="11" font-style="italic" lengthAdjust="spacingAndGlyphs" textLength="143" x="44.5" y="113.5449">openStream(): InputStream</text></a><!--MD5=[c7f4cc508f732d70a8c14927649ccbc7]
reverse link it.tidalwave.role.io.BinaryWritable to it.tidalwave.role.io.spi.FileBinaryWritable--><path codeLine="19" d="M909.3258,134.6456 C894.6615,150.2409 879.3847,166.4877 866.749,179.9257 " fill="none" id="it.tidalwave.role.io.BinaryWritable-backto-it.tidalwave.role.io.spi.FileBinaryWritable" style="stroke: #A80036; stroke-width: 1.0; stroke-dasharray: 7.0,7.0;"/><polygon fill="none" points="904.2912,129.7812,923.0914,120.006,914.4905,139.3716,904.2912,129.7812" style="stroke: #A80036; stroke-width: 1.0;"/><!--MD5=[f8a0404fff9c83fae3f6feccebb1f7ed]
reverse link it.tidalwave.role.io.TextWritable to it.tidalwave.role.io.spi.FileTextWritable--><path codeLine="20" d="M673.0781,139.0006 C668.0867,153.2316 662.9998,167.7345 658.7238,179.9257 " fill="none" id="it.tidalwave.role.io.TextWritable-backto-it.tidalwave.role.io.spi.FileTextWritable" style="stroke: #A80036; stroke-width: 1.0; stroke-dasharray: 7.0,7.0;"/><polygon fill="none" points="666.5154,136.5619,679.7404,120.006,679.7263,141.1956,666.5154,136.5619" style="stroke: #A80036; stroke-width: 1.0;"/><!--MD5=[878747c732d7a1a905e7e005613b092d]
reverse link it.tidalwave.role.io.TextReadable to it.tidalwave.role.io.spi.FileTextReadable--><path codeLine="21" d="M451.9219,139.0006 C456.9133,153.2316 462.0002,167.7345 466.2762,179.9257 " fill="none" id="it.tidalwave.role.io.TextReadable-backto-it.tidalwave.role.io.spi.FileTextReadable" style="stroke: #A80036; stroke-width: 1.0; stroke-dasharray: 7.0,7.0;"/><polygon fill="none" points="445.2737,141.1956,445.2596,120.006,458.4846,136.5619,445.2737,141.1956" style="stroke: #A80036; stroke-width: 1.0;"/><!--MD5=[495cb2a57b00a6b1a17df9461f162cdf]
reverse link it.tidalwave.role.io.BinaryReadable to it.tidalwave.role.io.spi.FileBinaryReadable--><path codeLine="22" d="M209.5241,134.1635 C225.5012,149.9056 242.1902,166.3491 255.9693,179.9257 " fill="none" id="it.tidalwave.role.io.BinaryReadable-backto-it.tidalwave.role.io.spi.FileBinaryReadable" style="stroke: #A80036; stroke-width: 1.0; stroke-dasharray: 7.0,7.0;"/><polygon fill="none" points="204.4889,139.0293,195.1553,120.006,214.3148,129.0567,204.4889,139.0293" style="stroke: #A80036; stroke-width: 1.0;"/><text fill="#888888" font-family="sans-serif" font-size="10" lengthAdjust="spacingAndGlyphs" textLength="188" x="455" y="264.668">UMLDoclet 2.0.12, PlantUML 1.2020.16</text><!--MD5=[1cfb2b963c214323ebe9928904bbeaea]
@startuml
    namespace it.tidalwave.role.io.spi {

        class FileBinaryWritable [[FileBinaryWritable.html]] {
            +openStream(): OutputStream
        }

        class FileTextWritable [[FileTextWritable.html]] {
            +openWriter(): Writer
        }

        class FileTextReadable [[FileTextReadable.html]] {
            +openReader(): Reader
        }

        class FileBinaryReadable [[FileBinaryReadable.html]] {
            +openStream(): InputStream
        }

        it.tidalwave.role.io.BinaryWritable <|.. FileBinaryWritable
        it.tidalwave.role.io.TextWritable <|.. FileTextWritable
        it.tidalwave.role.io.TextReadable <|.. FileTextReadable
        it.tidalwave.role.io.BinaryReadable <|.. FileBinaryReadable
    }

    namespace it.tidalwave.role.io {
        interface BinaryWritable [[../BinaryWritable.html]] {
            {static} +_BinaryWritable_: Class<BinaryWritable>
            {static} +DEFAULT: BinaryWritable
            {abstract} +openStream(): OutputStream
        }
        interface TextWritable [[../TextWritable.html]] {
            {static} +_TextWritable_: Class<TextWritable>
            {static} +DEFAULT: TextWritable
            {abstract} +openWriter(): Writer
        }
        interface TextReadable [[../TextReadable.html]] {
            {static} +_TextReadable_: Class<TextReadable>
            {static} +DEFAULT: TextReadable
            {abstract} +openReader(): Reader
        }
        interface BinaryReadable [[../BinaryReadable.html]] {
            {static} +_BinaryReadable_: Class<BinaryReadable>
            {static} +DEFAULT: BinaryReadable
            {abstract} +openStream(): InputStream
        }
    }

    center footer UMLDoclet 2.0.12, PlantUML 1.2020.16
@enduml

PlantUML version 1.2020.16(Sun Aug 23 22:20:43 CEST 2020)
(APACHE source distribution)
Java Runtime: OpenJDK Runtime Environment
JVM: OpenJDK 64-Bit Server VM
Default Encoding: UTF-8
Language: en
Country: GB
--></g></svg>