@startuml
    namespace it.tidalwave.thesefoolishthings.examples.inmemoryfinderexample {

        class PersonFinderTest [[PersonFinderTest.html]] {
            +setup(): void
            +testAllPersons(): void
            +testAllPersonsSortedByFirstName(): void
            +testAllPersonsSortedByLastNameDescending(): void
            +testPersonRange(): void
        }

        class MainTest [[MainTest.html]] {
            +must_not_crash(): void
        }

    }

    center footer UMLDoclet 2.0.12, PlantUML 1.2020.16
@enduml
