<?xml version="1.0" encoding="UTF-8" standalone="no"?><svg xmlns="http://www.w3.org/2000/svg" xmlns:xlink="http://www.w3.org/1999/xlink" contentScriptType="application/ecmascript" contentStyleType="text/css" height="403px" preserveAspectRatio="none" style="width:879px;height:403px;" version="1.1" viewBox="0 0 879 403" width="879px" zoomAndPan="magnify"><defs><filter height="300%" id="f12pjye4goolt7" width="300%" x="-1" y="-1"><feGaussianBlur result="blurOut" stdDeviation="2.0"/><feColorMatrix in="blurOut" result="blurOut2" type="matrix" values="0 0 0 0 0 0 0 0 0 0 0 0 0 0 0 0 0 0 .4 0"/><feOffset dx="4.0" dy="4.0" in="blurOut2" result="blurOut3"/><feBlend in="SourceGraphic" in2="blurOut3" mode="normal"/></filter></defs><g><!--MD5=[dc7be10117d2537fe6392dc262c9c8bd]
class it.tidalwave.thesefoolishthings.examples.person--><a href="it/tidalwave/thesefoolishthings/examples/person/package-summary.html" target="_top" title="it/tidalwave/thesefoolishthings/examples/person/package-summary.html" xlink:actuate="onRequest" xlink:href="it/tidalwave/thesefoolishthings/examples/person/package-summary.html" xlink:show="new" xlink:title="it/tidalwave/thesefoolishthings/examples/person/package-summary.html" xlink:type="simple"><rect codeLine="17" fill="#FEFECE" filter="url(#f12pjye4goolt7)" height="24.1328" id="it.tidalwave.thesefoolishthings.examples.person" style="stroke: #A80036; stroke-width: 1.5;" width="281" x="275.5" y="175"/><text fill="#000000" font-family="sans-serif" font-size="12" lengthAdjust="spacingAndGlyphs" textLength="275" x="278.5" y="191.6016">it.tidalwave.thesefoolishthings.examples.person</text></a><!--MD5=[e2825e41240dc3ac7b156e1d527e9be0]
class it.tidalwave.util--><a href="http://tidalwave.it/projects/thesefoolishthings/modules/it-tidalwave-util/apidocs/it/tidalwave/util/package-summary.html?is-external=true" target="_top" title="http://tidalwave.it/projects/thesefoolishthings/modules/it-tidalwave-util/apidocs/it/tidalwave/util/package-summary.html?is-external=true" xlink:actuate="onRequest" xlink:href="http://tidalwave.it/projects/thesefoolishthings/modules/it-tidalwave-util/apidocs/it/tidalwave/util/package-summary.html?is-external=true" xlink:show="new" xlink:title="http://tidalwave.it/projects/thesefoolishthings/modules/it-tidalwave-util/apidocs/it/tidalwave/util/package-summary.html?is-external=true" xlink:type="simple"><rect codeLine="19" fill="#FEFECE" filter="url(#f12pjye4goolt7)" height="24.1328" id="it.tidalwave.util" style="stroke: #A80036; stroke-width: 1.5;" width="92" x="7" y="259"/><text fill="#000000" font-family="sans-serif" font-size="12" lengthAdjust="spacingAndGlyphs" textLength="86" x="10" y="275.6016">it.tidalwave.util</text></a><!--MD5=[e6ce6670e8c393bb0cbcbe137df050e1]
class it.tidalwave.thesefoolishthings.examples.dci.swing.role--><a href="it/tidalwave/thesefoolishthings/examples/dci/swing/role/package-summary.html" target="_top" title="it/tidalwave/thesefoolishthings/examples/dci/swing/role/package-summary.html" xlink:actuate="onRequest" xlink:href="it/tidalwave/thesefoolishthings/examples/dci/swing/role/package-summary.html" xlink:show="new" xlink:title="it/tidalwave/thesefoolishthings/examples/dci/swing/role/package-summary.html" xlink:type="simple"><rect codeLine="21" fill="#FEFECE" filter="url(#f12pjye4goolt7)" height="24.1328" id="it.tidalwave.thesefoolishthings.examples.dci.swing.role" style="stroke: #A80036; stroke-width: 1.5;" width="320" x="134" y="259"/><text fill="#000000" font-family="sans-serif" font-size="12" lengthAdjust="spacingAndGlyphs" textLength="314" x="137" y="275.6016">it.tidalwave.thesefoolishthings.examples.dci.swing.role</text></a><!--MD5=[d3b44b914aa2370fe6d684de0096bcf1]
class it.tidalwave.role--><a href="http://tidalwave.it/projects/thesefoolishthings/modules/it-tidalwave-role/apidocs/it/tidalwave/role/package-summary.html?is-external=true" target="_top" title="http://tidalwave.it/projects/thesefoolishthings/modules/it-tidalwave-role/apidocs/it/tidalwave/role/package-summary.html?is-external=true" xlink:actuate="onRequest" xlink:href="http://tidalwave.it/projects/thesefoolishthings/modules/it-tidalwave-role/apidocs/it/tidalwave/role/package-summary.html?is-external=true" xlink:show="new" xlink:title="http://tidalwave.it/projects/thesefoolishthings/modules/it-tidalwave-role/apidocs/it/tidalwave/role/package-summary.html?is-external=true" xlink:type="simple"><rect codeLine="23" fill="#FEFECE" filter="url(#f12pjye4goolt7)" height="24.1328" id="it.tidalwave.role" style="stroke: #A80036; stroke-width: 1.5;" width="97" x="489.5" y="259"/><text fill="#000000" font-family="sans-serif" font-size="12" lengthAdjust="spacingAndGlyphs" textLength="91" x="492.5" y="275.6016">it.tidalwave.role</text></a><!--MD5=[804e854e27f140191bd7503628e15cd4]
class org.jdesktop.observablecollections--><rect fill="#FEFECE" filter="url(#f12pjye4goolt7)" height="24.1328" id="org.jdesktop.observablecollections" style="stroke: #A80036; stroke-width: 1.5;" width="207" x="363.5" y="343"/><text fill="#000000" font-family="sans-serif" font-size="12" lengthAdjust="spacingAndGlyphs" textLength="201" x="366.5" y="359.6016">org.jdesktop.observablecollections</text><!--MD5=[76f8af77e0740acd956a919276341700]
class it.tidalwave.thesefoolishthings.examples.dci.swing--><a href="it/tidalwave/thesefoolishthings/examples/dci/swing/package-summary.html" target="_top" title="it/tidalwave/thesefoolishthings/examples/dci/swing/package-summary.html" xlink:actuate="onRequest" xlink:href="it/tidalwave/thesefoolishthings/examples/dci/swing/package-summary.html" xlink:show="new" xlink:title="it/tidalwave/thesefoolishthings/examples/dci/swing/package-summary.html" xlink:type="simple"><rect codeLine="25" fill="#FEFECE" filter="url(#f12pjye4goolt7)" height="24.1328" id="it.tidalwave.thesefoolishthings.examples.dci.swing" style="stroke: #A80036; stroke-width: 1.5;" width="294" x="369" y="91"/><text fill="#000000" font-family="sans-serif" font-size="12" lengthAdjust="spacingAndGlyphs" textLength="288" x="372" y="107.6016">it.tidalwave.thesefoolishthings.examples.dci.swing</text></a><!--MD5=[93c58fd4fc7af97b88de8a4e8134e7ff]
class it.tidalwave.thesefoolishthings.examples.dci.swing.swing--><a href="it/tidalwave/thesefoolishthings/examples/dci/swing/swing/package-summary.html" target="_top" title="it/tidalwave/thesefoolishthings/examples/dci/swing/swing/package-summary.html" xlink:actuate="onRequest" xlink:href="it/tidalwave/thesefoolishthings/examples/dci/swing/swing/package-summary.html" xlink:show="new" xlink:title="it/tidalwave/thesefoolishthings/examples/dci/swing/swing/package-summary.html" xlink:type="simple"><rect codeLine="27" fill="#FEFECE" filter="url(#f12pjye4goolt7)" height="24.1328" id="it.tidalwave.thesefoolishthings.examples.dci.swing.swing" style="stroke: #A80036; stroke-width: 1.5;" width="330" x="351" y="7"/><text fill="#000000" font-family="sans-serif" font-size="12" lengthAdjust="spacingAndGlyphs" textLength="324" x="354" y="23.6016">it.tidalwave.thesefoolishthings.examples.dci.swing.swing</text></a><!--MD5=[cd253d21396c55bc4bf71c50112f1e9a]
class org.jdesktop.beansbinding--><rect fill="#FEFECE" filter="url(#f12pjye4goolt7)" height="24.1328" id="org.jdesktop.beansbinding" style="stroke: #A80036; stroke-width: 1.5;" width="162" x="698" y="91"/><text fill="#000000" font-family="sans-serif" font-size="12" lengthAdjust="spacingAndGlyphs" textLength="156" x="701" y="107.6016">org.jdesktop.beansbinding</text><!--MD5=[58fe540f21f559d88fb6a7275dca6f23]
link it.tidalwave.thesefoolishthings.examples.person to it.tidalwave.util--><path codeLine="6" d="M363.991,199.0352 C294.8262,215.0402 173.3135,243.1589 104.4382,259.0969 " fill="none" id="it.tidalwave.thesefoolishthings.examples.person-to-it.tidalwave.util" style="stroke: #A80036; stroke-width: 1.0;"/><polygon fill="#A80036" points="99.1642,260.3174,108.8343,262.1853,104.0355,259.1901,107.0307,254.3913,99.1642,260.3174" style="stroke: #A80036; stroke-width: 1.0;"/><!--MD5=[2bd059616eb353cd7b2a507823cb57ee]
link it.tidalwave.thesefoolishthings.examples.person to it.tidalwave.thesefoolishthings.examples.dci.swing.role--><path codeLine="7" d="M398.5204,199.0352 C376.6871,214.0679 339.3331,239.7871 315.6946,256.0628 " fill="none" id="it.tidalwave.thesefoolishthings.examples.person-to-it.tidalwave.thesefoolishthings.examples.dci.swing.role" style="stroke: #A80036; stroke-width: 1.0;"/><polygon fill="#A80036" points="311.4472,258.9872,321.1284,257.1778,315.5654,256.1517,316.5916,250.5887,311.4472,258.9872" style="stroke: #A80036; stroke-width: 1.0;"/><!--MD5=[367b953fa5f1ea33a853ad1daa57fd76]
link it.tidalwave.thesefoolishthings.examples.person to it.tidalwave.role--><path codeLine="8" d="M433.4796,199.0352 C455.3129,214.0679 492.6669,239.7871 516.3054,256.0628 " fill="none" id="it.tidalwave.thesefoolishthings.examples.person-to-it.tidalwave.role" style="stroke: #A80036; stroke-width: 1.0;"/><polygon fill="#A80036" points="520.5528,258.9872,515.4084,250.5887,516.4346,256.1517,510.8716,257.1778,520.5528,258.9872" style="stroke: #A80036; stroke-width: 1.0;"/><!--MD5=[f87de03d716ff801855c9487c50fc895]
link it.tidalwave.thesefoolishthings.examples.person to org.jdesktop.observablecollections--><path codeLine="9" d="M465.0964,199.0641 C515.1708,212.4795 587.758,235.3872 604,259 C630.654,297.7497 568.7666,325.8896 519.69,341.337 " fill="none" id="it.tidalwave.thesefoolishthings.examples.person-to-org.jdesktop.observablecollections" style="stroke: #A80036; stroke-width: 1.0;"/><polygon fill="#A80036" points="514.683,342.8836,524.4626,344.0491,519.4603,341.4079,522.1015,336.4055,514.683,342.8836" style="stroke: #A80036; stroke-width: 1.0;"/><!--MD5=[4f8c7f451fc0c525bcd4c2f2bb184290]
link it.tidalwave.thesefoolishthings.examples.dci.swing to it.tidalwave.thesefoolishthings.examples.person--><path codeLine="10" d="M501.6724,115.0352 C483.9991,129.8808 453.9185,155.1484 434.5112,171.4506 " fill="none" id="it.tidalwave.thesefoolishthings.examples.dci.swing-to-it.tidalwave.thesefoolishthings.examples.person" style="stroke: #A80036; stroke-width: 1.0;"/><polygon fill="#A80036" points="430.301,174.9872,439.7651,172.2613,434.1295,171.7712,434.6196,166.1357,430.301,174.9872" style="stroke: #A80036; stroke-width: 1.0;"/><!--MD5=[faf1c4970659a7b8eee6de728ab8eb79]
link it.tidalwave.thesefoolishthings.examples.dci.swing.role to org.jdesktop.observablecollections--><path codeLine="11" d="M318.7867,283.0352 C350.1324,298.255 404.0384,324.429 437.479,340.6661 " fill="none" id="it.tidalwave.thesefoolishthings.examples.dci.swing.role-to-org.jdesktop.observablecollections" style="stroke: #A80036; stroke-width: 1.0;"/><polygon fill="#A80036" points="442.2593,342.9872,435.9103,335.4579,437.7615,340.8033,432.4161,342.6544,442.2593,342.9872" style="stroke: #A80036; stroke-width: 1.0;"/><!--MD5=[b1f996f7102158cef718b523297b0e8b]
link it.tidalwave.thesefoolishthings.examples.dci.swing.swing to it.tidalwave.thesefoolishthings.examples.dci.swing--><path codeLine="12" d="M516,31.0352 C516,45.3818 516,69.4615 516,85.777 " fill="none" id="it.tidalwave.thesefoolishthings.examples.dci.swing.swing-to-it.tidalwave.thesefoolishthings.examples.dci.swing" style="stroke: #A80036; stroke-width: 1.0;"/><polygon fill="#A80036" points="516,90.9872,520,81.9872,516,85.9872,512,81.9872,516,90.9872" style="stroke: #A80036; stroke-width: 1.0;"/><!--MD5=[df7e805f5b31808a73f80664ce36487c]
link it.tidalwave.thesefoolishthings.examples.dci.swing.swing to org.jdesktop.beansbinding--><path codeLine="13" d="M553.6815,31.0352 C602.1154,46.5045 685.9799,73.2902 736.5962,89.4566 " fill="none" id="it.tidalwave.thesefoolishthings.examples.dci.swing.swing-to-org.jdesktop.beansbinding" style="stroke: #A80036; stroke-width: 1.0;"/><polygon fill="#A80036" points="741.3884,90.9872,734.0321,84.4385,736.6254,89.4659,731.5981,92.0593,741.3884,90.9872" style="stroke: #A80036; stroke-width: 1.0;"/><!--MD5=[bc905e99430ee78c19f4ab6ec2138b85]
link it.tidalwave.thesefoolishthings.examples.dci.swing.swing to it.tidalwave.thesefoolishthings.examples.person--><path codeLine="14" d="M445.7191,31.0647 C410.9698,40.9595 372.057,58.8371 351,91 C332.1363,119.8129 367.5246,152.9951 393.0712,171.835 " fill="none" id="it.tidalwave.thesefoolishthings.examples.dci.swing.swing-to-it.tidalwave.thesefoolishthings.examples.person" style="stroke: #A80036; stroke-width: 1.0;"/><polygon fill="#A80036" points="397.3937,174.957,392.44,166.4446,393.3405,172.0293,387.7557,172.9298,397.3937,174.957" style="stroke: #A80036; stroke-width: 1.0;"/><text fill="#888888" font-family="sans-serif" font-size="10" lengthAdjust="spacingAndGlyphs" textLength="188" x="336.5" y="389.8008">UMLDoclet 2.0.12, PlantUML 1.2020.16</text><!--MD5=[2745b0a86b85e54ce35681115494e1e3]
@startuml
    set namespaceSeparator none
    hide circle
    hide empty fields
    hide empty methods

    it.tidalwave.thesefoolishthings.examples.person - -> it.tidalwave.util
    it.tidalwave.thesefoolishthings.examples.person - -> it.tidalwave.thesefoolishthings.examples.dci.swing.role
    it.tidalwave.thesefoolishthings.examples.person - -> it.tidalwave.role
    it.tidalwave.thesefoolishthings.examples.person - -> org.jdesktop.observablecollections
    it.tidalwave.thesefoolishthings.examples.dci.swing - -> it.tidalwave.thesefoolishthings.examples.person
    it.tidalwave.thesefoolishthings.examples.dci.swing.role - -> org.jdesktop.observablecollections
    it.tidalwave.thesefoolishthings.examples.dci.swing.swing - -> it.tidalwave.thesefoolishthings.examples.dci.swing
    it.tidalwave.thesefoolishthings.examples.dci.swing.swing - -> org.jdesktop.beansbinding
    it.tidalwave.thesefoolishthings.examples.dci.swing.swing - -> it.tidalwave.thesefoolishthings.examples.person

    ' Package links
    class "it.tidalwave.thesefoolishthings.examples.person" [[it/tidalwave/thesefoolishthings/examples/person/package-summary.html]] {
    }
    class "it.tidalwave.util" [[http://tidalwave.it/projects/thesefoolishthings/modules/it-tidalwave-util/apidocs/it/tidalwave/util/package-summary.html?is-external=true]] {
    }
    class "it.tidalwave.thesefoolishthings.examples.dci.swing.role" [[it/tidalwave/thesefoolishthings/examples/dci/swing/role/package-summary.html]] {
    }
    class "it.tidalwave.role" [[http://tidalwave.it/projects/thesefoolishthings/modules/it-tidalwave-role/apidocs/it/tidalwave/role/package-summary.html?is-external=true]] {
    }
    class "it.tidalwave.thesefoolishthings.examples.dci.swing" [[it/tidalwave/thesefoolishthings/examples/dci/swing/package-summary.html]] {
    }
    class "it.tidalwave.thesefoolishthings.examples.dci.swing.swing" [[it/tidalwave/thesefoolishthings/examples/dci/swing/swing/package-summary.html]] {
    }

    center footer UMLDoclet 2.0.12, PlantUML 1.2020.16
@enduml

@startuml
    set namespaceSeparator none
    hide circle
    hide empty fields
    hide empty methods

    it.tidalwave.thesefoolishthings.examples.person - -> it.tidalwave.util
    it.tidalwave.thesefoolishthings.examples.person - -> it.tidalwave.thesefoolishthings.examples.dci.swing.role
    it.tidalwave.thesefoolishthings.examples.person - -> it.tidalwave.role
    it.tidalwave.thesefoolishthings.examples.person - -> org.jdesktop.observablecollections
    it.tidalwave.thesefoolishthings.examples.dci.swing - -> it.tidalwave.thesefoolishthings.examples.person
    it.tidalwave.thesefoolishthings.examples.dci.swing.role - -> org.jdesktop.observablecollections
    it.tidalwave.thesefoolishthings.examples.dci.swing.swing - -> it.tidalwave.thesefoolishthings.examples.dci.swing
    it.tidalwave.thesefoolishthings.examples.dci.swing.swing - -> org.jdesktop.beansbinding
    it.tidalwave.thesefoolishthings.examples.dci.swing.swing - -> it.tidalwave.thesefoolishthings.examples.person

    class "it.tidalwave.thesefoolishthings.examples.person" [[it/tidalwave/thesefoolishthings/examples/person/package-summary.html]] {
    }
    class "it.tidalwave.util" [[http://tidalwave.it/projects/thesefoolishthings/modules/it-tidalwave-util/apidocs/it/tidalwave/util/package-summary.html?is-external=true]] {
    }
    class "it.tidalwave.thesefoolishthings.examples.dci.swing.role" [[it/tidalwave/thesefoolishthings/examples/dci/swing/role/package-summary.html]] {
    }
    class "it.tidalwave.role" [[http://tidalwave.it/projects/thesefoolishthings/modules/it-tidalwave-role/apidocs/it/tidalwave/role/package-summary.html?is-external=true]] {
    }
    class "it.tidalwave.thesefoolishthings.examples.dci.swing" [[it/tidalwave/thesefoolishthings/examples/dci/swing/package-summary.html]] {
    }
    class "it.tidalwave.thesefoolishthings.examples.dci.swing.swing" [[it/tidalwave/thesefoolishthings/examples/dci/swing/swing/package-summary.html]] {
    }

    center footer UMLDoclet 2.0.12, PlantUML 1.2020.16
@enduml

PlantUML version 1.2020.16(Sun Aug 23 22:20:43 CEST 2020)
(APACHE source distribution)
Java Runtime: OpenJDK Runtime Environment
JVM: OpenJDK 64-Bit Server VM
Default Encoding: UTF-8
Language: en
Country: GB
--></g></svg>