@startuml
    ' Copyright to this UML and generated images belongs to the author of the corresponding Java sources.

    ' This UML was generated by UMLDoclet (C) Copyright 2016-2024 Talsma ICT.
    ' UMLDoclet 2.2.1 is licensed under the Apache License, version 2.0
    ' and contains parts of PlantUML 1.2024.7 (ASL) Copyright 2009-2024, Arnaud Roques.

    !pragma layout smetana
    set separator ::

    package it.tidalwave.util.ui {

        class UserNotificationMatcher [[UserNotificationMatcher.html]] {
            +matches(UserNotification): boolean
        }

        class UserNotificationWithFeedbackMatcher [[UserNotificationWithFeedbackMatcher.html]] {
            +matches(UserNotificationWithFeedback): boolean
        }

        class UserNotificationWithFeedbackTestHelper [[UserNotificationWithFeedbackTestHelper.html]] {
            {static} +notification(String, String): UserNotificationMatcher
            {static} +notificationWithFeedback(String, String): UserNotificationWithFeedbackMatcher
            {static} +confirm(): Answer<Void>
            {static} +doAndConfirm(Consumer<? super InvocationOnMock>): Answer<Void>
            {static} +cancel(): Answer<Void>
        }

    }

    package org.mockito {
        interface ArgumentMatcher<T> {
            {abstract} +matches(T): boolean
            +type(): Class<?>
        }
    }

    org.mockito::ArgumentMatcher <|.. it.tidalwave.util.ui::UserNotificationMatcher
    org.mockito::ArgumentMatcher <|.. it.tidalwave.util.ui::UserNotificationWithFeedbackMatcher

    <style>
        footer {
            HyperLinkColor #8
            HyperLinkUnderlineThickness 0
        }
    </style>
    footer \n[[https://github.com/talsma-ict/umldoclet UMLDoclet 2.2.1]]
    ' Generated 2024-12-19T00:13:43.321680+01:00[Europe/Rome]
@enduml
