<?xml version="1.0" encoding="UTF-8" standalone="no"?><svg xmlns="http://www.w3.org/2000/svg" xmlns:xlink="http://www.w3.org/1999/xlink" contentScriptType="application/ecmascript" contentStyleType="text/css" height="216px" preserveAspectRatio="none" style="width:525px;height:216px;" version="1.1" viewBox="0 0 525 216" width="525px" zoomAndPan="magnify"><defs><filter height="300%" id="f896af6koqxie" width="300%" x="-1" y="-1"><feGaussianBlur result="blurOut" stdDeviation="2.0"/><feColorMatrix in="blurOut" result="blurOut2" type="matrix" values="0 0 0 0 0 0 0 0 0 0 0 0 0 0 0 0 0 0 .4 0"/><feOffset dx="4.0" dy="4.0" in="blurOut2" result="blurOut3"/><feBlend in="SourceGraphic" in2="blurOut3" mode="normal"/></filter></defs><g><!--MD5=[0c860fd1a86c866a96a131f2794bd192]
class it.tidalwave.util.spi.FinderSupportTest.UnderTest--><a href="FinderSupportTest.UnderTest.html" target="_top" title="FinderSupportTest.UnderTest.html" xlink:actuate="onRequest" xlink:href="FinderSupportTest.UnderTest.html" xlink:show="new" xlink:title="FinderSupportTest.UnderTest.html" xlink:type="simple"><rect codeLine="5" fill="#FEFECE" filter="url(#f896af6koqxie)" height="72.1758" id="it.tidalwave.util.spi.FinderSupportTest.UnderTest" style="stroke: #A80036; stroke-width: 1.5;" width="235" x="174.5" y="108"/><ellipse cx="189.5" cy="127.1328" fill="#ADD1B2" rx="11" ry="11" style="stroke: #A80036; stroke-width: 1.0;"/><path d="M191.9731,133.2759 Q191.3921,133.5747 190.7529,133.7241 Q190.1138,133.8735 189.4082,133.8735 Q186.9014,133.8735 185.5815,132.2217 Q184.2617,130.5698 184.2617,127.4487 Q184.2617,124.3193 185.5815,122.6675 Q186.9014,121.0156 189.4082,121.0156 Q190.1138,121.0156 190.7612,121.165 Q191.4087,121.3145 191.9731,121.6133 L191.9731,124.3359 Q191.3423,123.7549 190.7488,123.4851 Q190.1553,123.2153 189.5244,123.2153 Q188.1797,123.2153 187.4949,124.282 Q186.8101,125.3486 186.8101,127.4487 Q186.8101,129.5405 187.4949,130.6072 Q188.1797,131.6738 189.5244,131.6738 Q190.1553,131.6738 190.7488,131.4041 Q191.3423,131.1343 191.9731,130.5532 Z "/><text fill="#000000" font-family="sans-serif" font-size="14" lengthAdjust="spacingAndGlyphs" textLength="203" x="203.5" y="126.5352">FinderSupportTest.UnderTest</text><text fill="#000000" font-family="sans-serif" font-size="10" lengthAdjust="spacingAndGlyphs" textLength="93" x="258.5" y="139.1563">it.tidalwave.util.spi</text><line style="stroke: #A80036; stroke-width: 1.5;" x1="175.5" x2="408.5" y1="146.2656" y2="146.2656"/><ellipse cx="185.5" cy="157.2656" fill="#84BE84" rx="3" ry="3" style="stroke: #038048; stroke-width: 1.0;"/><text fill="#000000" font-family="sans-serif" font-size="11" lengthAdjust="spacingAndGlyphs" textLength="161" x="194.5" y="160.9004">UnderTest(UnderTest, Object)</text><polygon fill="#FFFF44" points="185.5,165.2207,189.5,169.2207,185.5,173.2207,181.5,169.2207" style="stroke: #B38D22; stroke-width: 1.0;"/><text fill="#000000" font-family="sans-serif" font-size="11" lengthAdjust="spacingAndGlyphs" textLength="169" x="194.5" y="173.8555">computeResults(): List&lt;String&gt;</text></a><!--MD5=[d63e98a45e8384519e3fc4fd1371e7a4]
class it.tidalwave.util.spi.HierarchicFinderSupport--><a href="../../../../../apidocs/it/tidalwave/util/spi/HierarchicFinderSupport.html" target="_top" title="../../../../../apidocs/it/tidalwave/util/spi/HierarchicFinderSupport.html" xlink:actuate="onRequest" xlink:href="../../../../../apidocs/it/tidalwave/util/spi/HierarchicFinderSupport.html" xlink:show="new" xlink:title="../../../../../apidocs/it/tidalwave/util/spi/HierarchicFinderSupport.html" xlink:type="simple"><rect codeLine="10" fill="#FEFECE" filter="url(#f896af6koqxie)" height="38.2656" id="it.tidalwave.util.spi.HierarchicFinderSupport" style="stroke: #A80036; stroke-width: 1.5;" width="304" x="7" y="10"/><ellipse cx="22" cy="29.1328" fill="#ADD1B2" rx="11" ry="11" style="stroke: #A80036; stroke-width: 1.0;"/><path d="M24.4731,35.2759 Q23.8921,35.5747 23.2529,35.7241 Q22.6138,35.8735 21.9082,35.8735 Q19.4014,35.8735 18.0815,34.2217 Q16.7617,32.5698 16.7617,29.4487 Q16.7617,26.3193 18.0815,24.6675 Q19.4014,23.0156 21.9082,23.0156 Q22.6138,23.0156 23.2612,23.165 Q23.9087,23.3145 24.4731,23.6133 L24.4731,26.3359 Q23.8423,25.7549 23.2488,25.4851 Q22.6553,25.2153 22.0244,25.2153 Q20.6797,25.2153 19.9949,26.282 Q19.3101,27.3486 19.3101,29.4487 Q19.3101,31.5405 19.9949,32.6072 Q20.6797,33.6738 22.0244,33.6738 Q22.6553,33.6738 23.2488,33.4041 Q23.8423,33.1343 24.4731,32.5532 Z "/><text fill="#000000" font-family="sans-serif" font-size="14" lengthAdjust="spacingAndGlyphs" textLength="168" x="36" y="28.5352">HierarchicFinderSupport</text><text fill="#000000" font-family="sans-serif" font-size="10" lengthAdjust="spacingAndGlyphs" textLength="93" x="73.5" y="41.1563">it.tidalwave.util.spi</text><rect fill="#FFFFFF" height="16.1328" style="stroke: #000000; stroke-width: 1.0; stroke-dasharray: 2.0,2.0;" width="102" x="212" y="7"/><text fill="#000000" font-family="sans-serif" font-size="12" font-style="italic" lengthAdjust="spacingAndGlyphs" textLength="100" x="213" y="19.6016">String, UnderTest</text></a><!--MD5=[78c75a147f8538faea7ebba15368981f]
class it.tidalwave.util.spi.FinderSupportTest--><a href="FinderSupportTest.html" target="_top" title="FinderSupportTest.html" xlink:actuate="onRequest" xlink:href="FinderSupportTest.html" xlink:show="new" xlink:title="FinderSupportTest.html" xlink:type="simple"><rect codeLine="11" fill="#FEFECE" filter="url(#f896af6koqxie)" height="38.2656" id="it.tidalwave.util.spi.FinderSupportTest" style="stroke: #A80036; stroke-width: 1.5;" width="160" x="346" y="10"/><ellipse cx="361" cy="29.1328" fill="#ADD1B2" rx="11" ry="11" style="stroke: #A80036; stroke-width: 1.0;"/><path d="M363.4731,35.2759 Q362.8921,35.5747 362.2529,35.7241 Q361.6138,35.8735 360.9082,35.8735 Q358.4014,35.8735 357.0815,34.2217 Q355.7617,32.5698 355.7617,29.4487 Q355.7617,26.3193 357.0815,24.6675 Q358.4014,23.0156 360.9082,23.0156 Q361.6138,23.0156 362.2612,23.165 Q362.9087,23.3145 363.4731,23.6133 L363.4731,26.3359 Q362.8423,25.7549 362.2488,25.4851 Q361.6553,25.2153 361.0244,25.2153 Q359.6797,25.2153 358.9949,26.282 Q358.3101,27.3486 358.3101,29.4487 Q358.3101,31.5405 358.9949,32.6072 Q359.6797,33.6738 361.0244,33.6738 Q361.6553,33.6738 362.2488,33.4041 Q362.8423,33.1343 363.4731,32.5532 Z "/><text fill="#000000" font-family="sans-serif" font-size="14" lengthAdjust="spacingAndGlyphs" textLength="128" x="375" y="28.5352">FinderSupportTest</text><text fill="#000000" font-family="sans-serif" font-size="10" lengthAdjust="spacingAndGlyphs" textLength="93" x="392.5" y="41.1563">it.tidalwave.util.spi</text></a><!--MD5=[268d455e9313626a76db65dff9ce3385]
reverse link it.tidalwave.util.spi.HierarchicFinderSupport to it.tidalwave.util.spi.FinderSupportTest.UnderTest--><path codeLine="13" d="M196.4977,61.4228 C213.2546,75.9118 233.0669,93.0428 250.29,107.935 " fill="none" id="it.tidalwave.util.spi.HierarchicFinderSupport-backto-it.tidalwave.util.spi.FinderSupportTest.UnderTest" style="stroke: #A80036; stroke-width: 1.0;"/><polygon fill="none" points="191.8116,66.6248,181.2612,48.2484,200.9685,56.0346,191.8116,66.6248" style="stroke: #A80036; stroke-width: 1.0;"/><!--MD5=[53d634173a04be8cb3f92b2f5d150d4c]
reverse link it.tidalwave.util.spi.FinderSupportTest to it.tidalwave.util.spi.FinderSupportTest.UnderTest--><path codeLine="14" d="M392.0983,58.0947 C374.456,73.2355 352.7249,91.8853 334.0236,107.935 " fill="none" id="it.tidalwave.util.spi.FinderSupportTest-backto-it.tidalwave.util.spi.FinderSupportTest.UnderTest" style="stroke: #A80036; stroke-width: 1.0;"/><ellipse cx="397.5006" cy="53.4585" fill="#FFFFFF" rx="8" ry="8" style="stroke: #A80036; stroke-width: 1.0;"/><line style="stroke: #A80036; stroke-width: 1.0;" x1="391.4298" x2="403.5714" y1="58.6686" y2="48.2484"/><line style="stroke: #A80036; stroke-width: 1.0;" x1="392.2905" x2="402.7107" y1="47.3877" y2="59.5293"/><text fill="#888888" font-family="sans-serif" font-size="10" lengthAdjust="spacingAndGlyphs" textLength="188" x="159.5" y="202.8438">UMLDoclet 2.0.12, PlantUML 1.2020.16</text><!--MD5=[21a496a7a846d77402d44050dc4b47ca]
@startuml
    set namespaceSeparator none
    hide empty fields
    hide empty methods

    class "<size:14>FinderSupportTest.UnderTest\n<size:10>it.tidalwave.util.spi" as it.tidalwave.util.spi.FinderSupportTest.UnderTest [[FinderSupportTest.UnderTest.html]] {
        +UnderTest(UnderTest, Object)
        #computeResults(): List<String>
    }

    class "<size:14>HierarchicFinderSupport\n<size:10>it.tidalwave.util.spi" as it.tidalwave.util.spi.HierarchicFinderSupport<String, UnderTest> [[../../../../../apidocs/it/tidalwave/util/spi/HierarchicFinderSupport.html]]
    class "<size:14>FinderSupportTest\n<size:10>it.tidalwave.util.spi" as it.tidalwave.util.spi.FinderSupportTest [[FinderSupportTest.html]]

    it.tidalwave.util.spi.HierarchicFinderSupport <|- - it.tidalwave.util.spi.FinderSupportTest.UnderTest
    it.tidalwave.util.spi.FinderSupportTest +- - it.tidalwave.util.spi.FinderSupportTest.UnderTest

    center footer UMLDoclet 2.0.12, PlantUML 1.2020.16
@enduml

PlantUML version 1.2020.16(Sun Aug 23 22:20:43 CEST 2020)
(APACHE source distribution)
Java Runtime: OpenJDK Runtime Environment
JVM: OpenJDK 64-Bit Server VM
Default Encoding: UTF-8
Language: en
Country: GB
--></g></svg>