@startuml
    set namespaceSeparator none
    hide empty fields
    hide empty methods

    class "<size:14>Mocks.RI2C\n<size:10>it.tidalwave.util.spi" as it.tidalwave.util.spi.Mocks.RI2C [[Mocks.RI2C.html]] {
    }

    interface "<size:14>Mocks.R2\n<size:10>it.tidalwave.util.spi" as it.tidalwave.util.spi.Mocks.R2 [[Mocks.R2.html]]
    class "<size:14>Mocks\n<size:10>it.tidalwave.util.spi" as it.tidalwave.util.spi.Mocks [[Mocks.html]]

    it.tidalwave.util.spi.Mocks.R2 <|.. it.tidalwave.util.spi.Mocks.RI2C
    it.tidalwave.util.spi.Mocks +-- it.tidalwave.util.spi.Mocks.RI2C

    center footer UMLDoclet 2.0.12, PlantUML 1.2020.16
@enduml
