<?xml version="1.0" encoding="UTF-8" standalone="no"?><svg xmlns="http://www.w3.org/2000/svg" xmlns:xlink="http://www.w3.org/1999/xlink" contentScriptType="application/ecmascript" contentStyleType="text/css" height="213px" preserveAspectRatio="none" style="width:257px;height:213px;" version="1.1" viewBox="0 0 257 213" width="257px" zoomAndPan="magnify"><defs><filter height="300%" id="f10vir94ezt50n" width="300%" x="-1" y="-1"><feGaussianBlur result="blurOut" stdDeviation="2.0"/><feColorMatrix in="blurOut" result="blurOut2" type="matrix" values="0 0 0 0 0 0 0 0 0 0 0 0 0 0 0 0 0 0 .4 0"/><feOffset dx="4.0" dy="4.0" in="blurOut2" result="blurOut3"/><feBlend in="SourceGraphic" in2="blurOut3" mode="normal"/></filter></defs><g><!--MD5=[f0030b94b93e428b59aaff5f631ac5a3]
class it.tidalwave.northernwind.frontend.ui.spi.DefaultRenderContext--><a href="DefaultRenderContext.html" target="_top" title="DefaultRenderContext.html" xlink:actuate="onRequest" xlink:href="DefaultRenderContext.html" xlink:show="new" xlink:title="DefaultRenderContext.html" xlink:type="simple"><rect codeLine="5" fill="#FEFECE" filter="url(#f10vir94ezt50n)" height="38.2656" id="it.tidalwave.northernwind.frontend.ui.spi.DefaultRenderContext" style="stroke: #A80036; stroke-width: 1.5;" width="231" x="7" y="139"/><ellipse cx="22" cy="158.1328" fill="#ADD1B2" rx="11" ry="11" style="stroke: #A80036; stroke-width: 1.0;"/><path d="M24.4731,164.2759 Q23.8921,164.5747 23.2529,164.7241 Q22.6138,164.8735 21.9082,164.8735 Q19.4014,164.8735 18.0815,163.2217 Q16.7617,161.5698 16.7617,158.4487 Q16.7617,155.3193 18.0815,153.6675 Q19.4014,152.0156 21.9082,152.0156 Q22.6138,152.0156 23.2612,152.165 Q23.9087,152.3145 24.4731,152.6133 L24.4731,155.3359 Q23.8423,154.7549 23.2488,154.4851 Q22.6553,154.2153 22.0244,154.2153 Q20.6797,154.2153 19.9949,155.282 Q19.3101,156.3486 19.3101,158.4487 Q19.3101,160.5405 19.9949,161.6072 Q20.6797,162.6738 22.0244,162.6738 Q22.6553,162.6738 23.2488,162.4041 Q23.8423,162.1343 24.4731,161.5532 Z "/><text fill="#000000" font-family="sans-serif" font-size="14" lengthAdjust="spacingAndGlyphs" textLength="153" x="59" y="157.5352">DefaultRenderContext</text><text fill="#000000" font-family="sans-serif" font-size="10" lengthAdjust="spacingAndGlyphs" textLength="199" x="36" y="170.1563">it.tidalwave.northernwind.frontend.ui.spi</text></a><!--MD5=[daa72ce8d1c746de5fc9e51335728674]
class it.tidalwave.northernwind.frontend.ui.RenderContext--><a href="../RenderContext.html" target="_top" title="../RenderContext.html" xlink:actuate="onRequest" xlink:href="../RenderContext.html" xlink:show="new" xlink:title="../RenderContext.html" xlink:type="simple"><rect codeLine="8" fill="#FEFECE" filter="url(#f10vir94ezt50n)" height="72.1758" id="it.tidalwave.northernwind.frontend.ui.RenderContext" style="stroke: #A80036; stroke-width: 1.5;" width="229" x="8" y="7"/><ellipse cx="29.75" cy="26.1328" fill="#B4A7E5" rx="11" ry="11" style="stroke: #A80036; stroke-width: 1.0;"/><path d="M26.1777,22.3979 L26.1777,20.2397 L33.5571,20.2397 L33.5571,22.3979 L31.0918,22.3979 L31.0918,30.4746 L33.5571,30.4746 L33.5571,32.6328 L26.1777,32.6328 L26.1777,30.4746 L28.6431,30.4746 L28.6431,22.3979 Z "/><text fill="#000000" font-family="sans-serif" font-size="14" font-style="italic" lengthAdjust="spacingAndGlyphs" textLength="104" x="84.25" y="25.5352">RenderContext</text><text fill="#000000" font-family="sans-serif" font-size="10" font-style="italic" lengthAdjust="spacingAndGlyphs" textLength="182" x="45.25" y="38.1563">it.tidalwave.northernwind.frontend.ui</text><line style="stroke: #A80036; stroke-width: 1.5;" x1="9" x2="236" y1="45.2656" y2="45.2656"/><ellipse cx="19" cy="56.2656" fill="#84BE84" rx="3" ry="3" style="stroke: #038048; stroke-width: 1.0;"/><text fill="#000000" font-family="sans-serif" font-size="11" font-style="italic" lengthAdjust="spacingAndGlyphs" textLength="117" x="28" y="59.9004">getRequest(): Request</text><ellipse cx="19" cy="69.2207" fill="#84BE84" rx="3" ry="3" style="stroke: #038048; stroke-width: 1.0;"/><text fill="#000000" font-family="sans-serif" font-size="11" font-style="italic" lengthAdjust="spacingAndGlyphs" textLength="203" x="28" y="72.8555">getRequestContext(): RequestContext</text></a><!--MD5=[7d689a064c0b1d195d4b6b2c99da3adc]
reverse link it.tidalwave.northernwind.frontend.ui.RenderContext to it.tidalwave.northernwind.frontend.ui.spi.DefaultRenderContext--><path codeLine="13" d="M122.5,99.3935 C122.5,113.5832 122.5,127.8627 122.5,138.7739 " fill="none" id="it.tidalwave.northernwind.frontend.ui.RenderContext-backto-it.tidalwave.northernwind.frontend.ui.spi.DefaultRenderContext" style="stroke: #A80036; stroke-width: 1.0; stroke-dasharray: 7.0,7.0;"/><polygon fill="none" points="115.5001,99.0712,122.5,79.0712,129.5001,99.0712,115.5001,99.0712" style="stroke: #A80036; stroke-width: 1.0;"/><text fill="#888888" font-family="sans-serif" font-size="10" lengthAdjust="spacingAndGlyphs" textLength="188" x="25.5" y="199.9336">UMLDoclet 2.0.12, PlantUML 1.2020.16</text><!--MD5=[5a48775dc1cdb54db428b4a1fa45adf8]
@startuml
    set namespaceSeparator none
    hide empty fields
    hide empty methods

    class "<size:14>DefaultRenderContext\n<size:10>it.tidalwave.northernwind.frontend.ui.spi" as it.tidalwave.northernwind.frontend.ui.spi.DefaultRenderContext [[DefaultRenderContext.html]] {
    }

    interface "<size:14>RenderContext\n<size:10>it.tidalwave.northernwind.frontend.ui" as it.tidalwave.northernwind.frontend.ui.RenderContext [[../RenderContext.html]] {
        {abstract} +getRequest(): Request
        {abstract} +getRequestContext(): RequestContext
    }

    it.tidalwave.northernwind.frontend.ui.RenderContext <|.. it.tidalwave.northernwind.frontend.ui.spi.DefaultRenderContext

    center footer UMLDoclet 2.0.12, PlantUML 1.2020.16
@enduml

PlantUML version 1.2020.16(Sun Aug 23 22:20:43 CEST 2020)
(APACHE source distribution)
Java Runtime: OpenJDK Runtime Environment
JVM: OpenJDK 64-Bit Server VM
Default Encoding: UTF-8
Language: en
Country: GB
--></g></svg>