@startuml
    set namespaceSeparator none
    hide empty fields
    hide empty methods

    class "<size:14>AndFunction\n<size:10>it.tidalwave.role.ui.function" as it.tidalwave.role.ui.function.AndFunction [[AndFunction.html]] {
        +AndFunction(ChangingSource<Boolean>...)
        {static} +and(ChangingSource<Boolean>...): AndFunction
        #function(): boolean
    }

    abstract class "<size:14>BooleanBoundFunctionSupport\n<size:10>it.tidalwave.role.ui.function" as it.tidalwave.role.ui.function.BooleanBoundFunctionSupport [[BooleanBoundFunctionSupport.html]] {
        {abstract} #function(): boolean
    }

    it.tidalwave.role.ui.function.BooleanBoundFunctionSupport <|-- it.tidalwave.role.ui.function.AndFunction

    center footer UMLDoclet 2.0.12, PlantUML 1.2020.16
@enduml
