@startuml
    set namespaceSeparator none
    hide empty fields
    hide empty methods

    interface "<size:14>AudioFileSupplier\n<size:10>it.tidalwave.bluemarine2.model.role" as it.tidalwave.bluemarine2.model.role.AudioFileSupplier [[AudioFileSupplier.html]] {
        {static} +_AudioFileSupplier_: Class<AudioFileSupplier>
        {abstract} +getAudioFile(): AudioFile
    }

    center footer UMLDoclet 2.0.12, PlantUML 1.2020.16
@enduml
