@startuml
    set namespaceSeparator none
    hide empty fields
    hide empty methods

    interface "<size:14>Mocks.R1\n<size:10>it.tidalwave.util.spi" as it.tidalwave.util.spi.Mocks.R1 [[Mocks.R1.html]]

    class "<size:14>Mocks\n<size:10>it.tidalwave.util.spi" as it.tidalwave.util.spi.Mocks [[Mocks.html]]

    it.tidalwave.util.spi.Mocks +-- it.tidalwave.util.spi.Mocks.R1

    center footer UMLDoclet 2.0.12, PlantUML 1.2020.16
@enduml
