<?xml version="1.0" encoding="UTF-8" standalone="no"?><svg xmlns="http://www.w3.org/2000/svg" xmlns:xlink="http://www.w3.org/1999/xlink" contentScriptType="application/ecmascript" contentStyleType="text/css" height="179px" preserveAspectRatio="none" style="width:311px;height:179px;" version="1.1" viewBox="0 0 311 179" width="311px" zoomAndPan="magnify"><defs><filter height="300%" id="f19otmy0r1n28f" width="300%" x="-1" y="-1"><feGaussianBlur result="blurOut" stdDeviation="2.0"/><feColorMatrix in="blurOut" result="blurOut2" type="matrix" values="0 0 0 0 0 0 0 0 0 0 0 0 0 0 0 0 0 0 .4 0"/><feOffset dx="4.0" dy="4.0" in="blurOut2" result="blurOut3"/><feBlend in="SourceGraphic" in2="blurOut3" mode="normal"/></filter></defs><g><!--MD5=[cc84810626a072d8f8a9ebb478d058f6]
class it.tidalwave.util.spi.Mocks.RI2A--><a href="Mocks.RI2A.html" target="_top" title="Mocks.RI2A.html" xlink:actuate="onRequest" xlink:href="Mocks.RI2A.html" xlink:show="new" xlink:title="Mocks.RI2A.html" xlink:type="simple"><rect codeLine="5" fill="#FEFECE" filter="url(#f19otmy0r1n28f)" height="38.2656" id="it.tidalwave.util.spi.Mocks.RI2A" style="stroke: #A80036; stroke-width: 1.5;" width="125" x="87" y="105"/><ellipse cx="102" cy="124.1328" fill="#ADD1B2" rx="11" ry="11" style="stroke: #A80036; stroke-width: 1.0;"/><path d="M104.4731,130.2759 Q103.8921,130.5747 103.2529,130.7241 Q102.6138,130.8735 101.9082,130.8735 Q99.4014,130.8735 98.0815,129.2217 Q96.7617,127.5698 96.7617,124.4487 Q96.7617,121.3193 98.0815,119.6675 Q99.4014,118.0156 101.9082,118.0156 Q102.6138,118.0156 103.2612,118.165 Q103.9087,118.3145 104.4731,118.6133 L104.4731,121.3359 Q103.8423,120.7549 103.2488,120.4851 Q102.6553,120.2153 102.0244,120.2153 Q100.6797,120.2153 99.9949,121.282 Q99.3101,122.3486 99.3101,124.4487 Q99.3101,126.5405 99.9949,127.6072 Q100.6797,128.6738 102.0244,128.6738 Q102.6553,128.6738 103.2488,128.4041 Q103.8423,128.1343 104.4731,127.5532 Z "/><text fill="#000000" font-family="sans-serif" font-size="14" lengthAdjust="spacingAndGlyphs" textLength="79" x="123" y="123.5352">Mocks.RI2A</text><text fill="#000000" font-family="sans-serif" font-size="10" lengthAdjust="spacingAndGlyphs" textLength="93" x="116" y="136.1563">it.tidalwave.util.spi</text></a><!--MD5=[ed6370031c3815a0c47209808db83368]
class it.tidalwave.util.spi.Mocks.R2--><a href="Mocks.R2.html" target="_top" title="Mocks.R2.html" xlink:actuate="onRequest" xlink:href="Mocks.R2.html" xlink:show="new" xlink:title="Mocks.R2.html" xlink:type="simple"><rect codeLine="7" fill="#FEFECE" filter="url(#f19otmy0r1n28f)" height="38.2656" id="it.tidalwave.util.spi.Mocks.R2" style="stroke: #A80036; stroke-width: 1.5;" width="125" x="7" y="7"/><ellipse cx="22" cy="26.1328" fill="#B4A7E5" rx="11" ry="11" style="stroke: #A80036; stroke-width: 1.0;"/><path d="M18.4277,22.3979 L18.4277,20.2397 L25.8071,20.2397 L25.8071,22.3979 L23.3418,22.3979 L23.3418,30.4746 L25.8071,30.4746 L25.8071,32.6328 L18.4277,32.6328 L18.4277,30.4746 L20.8931,30.4746 L20.8931,22.3979 Z "/><text fill="#000000" font-family="sans-serif" font-size="14" font-style="italic" lengthAdjust="spacingAndGlyphs" textLength="65" x="50" y="25.5352">Mocks.R2</text><text fill="#000000" font-family="sans-serif" font-size="10" font-style="italic" lengthAdjust="spacingAndGlyphs" textLength="93" x="36" y="38.1563">it.tidalwave.util.spi</text></a><!--MD5=[6f87894b9ddb65fb896d958cc15de95d]
class it.tidalwave.util.spi.Mocks--><a href="Mocks.html" target="_top" title="Mocks.html" xlink:actuate="onRequest" xlink:href="Mocks.html" xlink:show="new" xlink:title="Mocks.html" xlink:type="simple"><rect codeLine="8" fill="#FEFECE" filter="url(#f19otmy0r1n28f)" height="38.2656" id="it.tidalwave.util.spi.Mocks" style="stroke: #A80036; stroke-width: 1.5;" width="125" x="167" y="7"/><ellipse cx="182" cy="26.1328" fill="#ADD1B2" rx="11" ry="11" style="stroke: #A80036; stroke-width: 1.0;"/><path d="M184.4731,32.2759 Q183.8921,32.5747 183.2529,32.7241 Q182.6138,32.8735 181.9082,32.8735 Q179.4014,32.8735 178.0815,31.2217 Q176.7617,29.5698 176.7617,26.4487 Q176.7617,23.3193 178.0815,21.6675 Q179.4014,20.0156 181.9082,20.0156 Q182.6138,20.0156 183.2612,20.165 Q183.9087,20.3145 184.4731,20.6133 L184.4731,23.3359 Q183.8423,22.7549 183.2488,22.4851 Q182.6553,22.2153 182.0244,22.2153 Q180.6797,22.2153 179.9949,23.282 Q179.3101,24.3486 179.3101,26.4487 Q179.3101,28.5405 179.9949,29.6072 Q180.6797,30.6738 182.0244,30.6738 Q182.6553,30.6738 183.2488,30.4041 Q183.8423,30.1343 184.4731,29.5532 Z "/><text fill="#000000" font-family="sans-serif" font-size="14" lengthAdjust="spacingAndGlyphs" textLength="43" x="221" y="25.5352">Mocks</text><text fill="#000000" font-family="sans-serif" font-size="10" lengthAdjust="spacingAndGlyphs" textLength="93" x="196" y="38.1563">it.tidalwave.util.spi</text></a><!--MD5=[8cdf7506a00677efdeb1fe461c340143]
reverse link it.tidalwave.util.spi.Mocks.R2 to it.tidalwave.util.spi.Mocks.RI2A--><path codeLine="10" d="M97.9761,60.8832 C110.0008,75.6134 123.5445,92.2045 133.7274,104.6786 " fill="none" id="it.tidalwave.util.spi.Mocks.R2-backto-it.tidalwave.util.spi.Mocks.RI2A" style="stroke: #A80036; stroke-width: 1.0; stroke-dasharray: 7.0,7.0;"/><polygon fill="none" points="92.5304,65.2815,85.3054,45.3616,103.3756,56.4282,92.5304,65.2815" style="stroke: #A80036; stroke-width: 1.0;"/><!--MD5=[a934bb0a9196836f6c5485aa127dcecc]
reverse link it.tidalwave.util.spi.Mocks to it.tidalwave.util.spi.Mocks.RI2A--><path codeLine="11" d="M204.0902,57.127 C191.3542,72.7286 176.3314,91.1315 165.2726,104.6786 " fill="none" id="it.tidalwave.util.spi.Mocks-backto-it.tidalwave.util.spi.Mocks.RI2A" style="stroke: #A80036; stroke-width: 1.0;"/><ellipse cx="208.6356" cy="51.5589" fill="#FFFFFF" rx="8" ry="8" style="stroke: #A80036; stroke-width: 1.0;"/><line style="stroke: #A80036; stroke-width: 1.0;" x1="203.5766" x2="213.6946" y1="57.7562" y2="45.3616"/><line style="stroke: #A80036; stroke-width: 1.0;" x1="202.4383" x2="214.8329" y1="46.4999" y2="56.6179"/><text fill="#888888" font-family="sans-serif" font-size="10" lengthAdjust="spacingAndGlyphs" textLength="188" x="52.5" y="165.9336">UMLDoclet 2.0.12, PlantUML 1.2020.16</text><!--MD5=[b40f1fc73c797c89f504bca97752a269]
@startuml
    set namespaceSeparator none
    hide empty fields
    hide empty methods

    class "<size:14>Mocks.RI2A\n<size:10>it.tidalwave.util.spi" as it.tidalwave.util.spi.Mocks.RI2A [[Mocks.RI2A.html]]

    interface "<size:14>Mocks.R2\n<size:10>it.tidalwave.util.spi" as it.tidalwave.util.spi.Mocks.R2 [[Mocks.R2.html]]
    class "<size:14>Mocks\n<size:10>it.tidalwave.util.spi" as it.tidalwave.util.spi.Mocks [[Mocks.html]]

    it.tidalwave.util.spi.Mocks.R2 <|.. it.tidalwave.util.spi.Mocks.RI2A
    it.tidalwave.util.spi.Mocks +- - it.tidalwave.util.spi.Mocks.RI2A

    center footer UMLDoclet 2.0.12, PlantUML 1.2020.16
@enduml

PlantUML version 1.2020.16(Sun Aug 23 22:20:43 CEST 2020)
(APACHE source distribution)
Java Runtime: OpenJDK Runtime Environment
JVM: OpenJDK 64-Bit Server VM
Default Encoding: UTF-8
Language: en
Country: GB
--></g></svg>