<?xml version="1.0" encoding="UTF-8" standalone="no"?><svg xmlns="http://www.w3.org/2000/svg" xmlns:xlink="http://www.w3.org/1999/xlink" contentScriptType="application/ecmascript" contentStyleType="text/css" height="95px" preserveAspectRatio="none" style="width:322px;height:95px;" version="1.1" viewBox="0 0 322 95" width="322px" zoomAndPan="magnify"><defs><filter height="300%" id="fh6koldxo5uvn" width="300%" x="-1" y="-1"><feGaussianBlur result="blurOut" stdDeviation="2.0"/><feColorMatrix in="blurOut" result="blurOut2" type="matrix" values="0 0 0 0 0 0 0 0 0 0 0 0 0 0 0 0 0 0 .4 0"/><feOffset dx="4.0" dy="4.0" in="blurOut2" result="blurOut3"/><feBlend in="SourceGraphic" in2="blurOut3" mode="normal"/></filter></defs><g><!--MD5=[b53c5c88361a7919b7b364252445cfed]
class it.tidalwave.thesefoolishthings.examples.dci.displayable.DisplayableExample--><a href="DisplayableExample.html" target="_top" title="DisplayableExample.html" xlink:actuate="onRequest" xlink:href="DisplayableExample.html" xlink:show="new" xlink:title="DisplayableExample.html" xlink:type="simple"><rect codeLine="5" fill="#FEFECE" filter="url(#fh6koldxo5uvn)" height="58.2466" id="it.tidalwave.thesefoolishthings.examples.dci.displayable.DisplayableExample" style="stroke: #A80036; stroke-width: 1.5;" width="296" x="7" y="7"/><ellipse cx="22" cy="25.7988" fill="#ADD1B2" rx="11" ry="11" style="stroke: #A80036; stroke-width: 1.0;"/><path d="M19.9063,25.6426 Q19.9063,27.5176 20.4844,28.5332 Q21.0625,29.5332 22.2188,29.5332 Q23.5625,29.5332 24.2188,27.5176 L26.4844,27.9395 Q25.375,31.4707 22.2031,31.4707 Q19.8594,31.4707 18.6406,29.9863 Q17.4219,28.502 17.4219,25.6426 Q17.4219,19.9238 22.125,19.9238 Q23.6719,19.9238 24.7031,20.7363 Q25.75,21.5488 26.25,23.1582 L23.9844,23.7051 Q23.75,22.8301 23.2656,22.3457 Q22.7813,21.8457 22.1563,21.8457 Q19.9063,21.8457 19.9063,25.6426 Z "/><text fill="#000000" font-family="sans-serif" font-size="14" lengthAdjust="spacingAndGlyphs" textLength="126" x="105" y="25.1318">DisplayableExample</text><text fill="#000000" font-family="sans-serif" font-size="10" lengthAdjust="spacingAndGlyphs" textLength="264" x="36" y="37.4785">it.tidalwave.thesefoolishthings.examples.dci.displayable</text><line style="stroke: #A80036; stroke-width: 1.5;" x1="8" x2="302" y1="44.5977" y2="44.5977"/><ellipse cx="18" cy="55.5977" fill="#84BE84" rx="3" ry="3" style="stroke: #038048; stroke-width: 1.0;"/><text fill="#000000" font-family="sans-serif" font-size="11" lengthAdjust="spacingAndGlyphs" textLength="50" x="27" y="58.9155">run(): void</text></a><text fill="#888888" font-family="sans-serif" font-size="10" lengthAdjust="spacingAndGlyphs" textLength="190" x="60" y="81.6265">UMLDoclet 2.0.12, PlantUML 1.2020.16</text><!--MD5=[8f9b71b4b3dbb0feaa5fa721257fcb5b]
@startuml
    set namespaceSeparator none
    hide empty fields
    hide empty methods

    class "<size:14>DisplayableExample\n<size:10>it.tidalwave.thesefoolishthings.examples.dci.displayable" as it.tidalwave.thesefoolishthings.examples.dci.displayable.DisplayableExample [[DisplayableExample.html]] {
        +run(): void
    }

    center footer UMLDoclet 2.0.12, PlantUML 1.2020.16
@enduml

PlantUML version 1.2020.16(Sun Aug 23 22:20:43 CEST 2020)
(APACHE source distribution)
Java Runtime: OpenJDK Runtime Environment
JVM: OpenJDK 64-Bit Server VM
Default Encoding: UTF-8
Language: en
Country: US
--></g></svg>