<?xml version="1.0" encoding="UTF-8" standalone="no"?><svg xmlns="http://www.w3.org/2000/svg" xmlns:xlink="http://www.w3.org/1999/xlink" contentScriptType="application/ecmascript" contentStyleType="text/css" height="220px" preserveAspectRatio="none" style="width:528px;height:220px;" version="1.1" viewBox="0 0 528 220" width="528px" zoomAndPan="magnify"><defs><filter height="300%" id="fmq0aef1xqz4f" width="300%" x="-1" y="-1"><feGaussianBlur result="blurOut" stdDeviation="2.0"/><feColorMatrix in="blurOut" result="blurOut2" type="matrix" values="0 0 0 0 0 0 0 0 0 0 0 0 0 0 0 0 0 0 .4 0"/><feOffset dx="4.0" dy="4.0" in="blurOut2" result="blurOut3"/><feBlend in="SourceGraphic" in2="blurOut3" mode="normal"/></filter></defs><g><!--MD5=[7b706f4ba94f5cc5bfdb77f3c8f71a75]
class it.tidalwave.util.TypeSafeMultiMapTest--><a href="TypeSafeMultiMapTest.html" target="_top" title="TypeSafeMultiMapTest.html" xlink:actuate="onRequest" xlink:href="TypeSafeMultiMapTest.html" xlink:show="new" xlink:title="TypeSafeMultiMapTest.html" xlink:type="simple"><rect codeLine="5" fill="#FEFECE" filter="url(#fmq0aef1xqz4f)" height="183.8164" id="it.tidalwave.util.TypeSafeMultiMapTest" style="stroke: #A80036; stroke-width: 1.5;" width="502" x="7" y="7"/><ellipse cx="176.75" cy="26.1328" fill="#ADD1B2" rx="11" ry="11" style="stroke: #A80036; stroke-width: 1.0;"/><path d="M179.2231,32.2759 Q178.6421,32.5747 178.0029,32.7241 Q177.3638,32.8735 176.6582,32.8735 Q174.1514,32.8735 172.8315,31.2217 Q171.5117,29.5698 171.5117,26.4487 Q171.5117,23.3193 172.8315,21.6675 Q174.1514,20.0156 176.6582,20.0156 Q177.3638,20.0156 178.0112,20.165 Q178.6587,20.3145 179.2231,20.6133 L179.2231,23.3359 Q178.5923,22.7549 177.9988,22.4851 Q177.4053,22.2153 176.7744,22.2153 Q175.4297,22.2153 174.7449,23.282 Q174.0601,24.3486 174.0601,26.4487 Q174.0601,28.5405 174.7449,29.6072 Q175.4297,30.6738 176.7744,30.6738 Q177.4053,30.6738 177.9988,30.4041 Q178.5923,30.1343 179.2231,29.5532 Z "/><text fill="#000000" font-family="sans-serif" font-size="14" lengthAdjust="spacingAndGlyphs" textLength="154" x="197.25" y="25.5352">TypeSafeMultiMapTest</text><text fill="#000000" font-family="sans-serif" font-size="10" lengthAdjust="spacingAndGlyphs" textLength="76" x="236.25" y="38.1563">it.tidalwave.util</text><line style="stroke: #A80036; stroke-width: 1.5;" x1="8" x2="508" y1="45.2656" y2="45.2656"/><ellipse cx="18" cy="56.2656" fill="none" rx="3" ry="3" style="stroke: #038048; stroke-width: 1.0;"/><text fill="#000000" font-family="sans-serif" font-size="11" lengthAdjust="spacingAndGlyphs" text-decoration="underline" textLength="156" x="27" y="59.9004">LOCAL_DATE: LocalDateTime</text><line style="stroke: #A80036; stroke-width: 1.5;" x1="8" x2="508" y1="66.2207" y2="66.2207"/><ellipse cx="18" cy="77.2207" fill="#84BE84" rx="3" ry="3" style="stroke: #038048; stroke-width: 1.0;"/><text fill="#000000" font-family="sans-serif" font-size="11" lengthAdjust="spacingAndGlyphs" textLength="129" x="27" y="80.8555">test_newInstance(): void</text><ellipse cx="18" cy="90.1758" fill="#84BE84" rx="3" ry="3" style="stroke: #038048; stroke-width: 1.0;"/><text fill="#000000" font-family="sans-serif" font-size="11" lengthAdjust="spacingAndGlyphs" textLength="112" x="27" y="93.8105">test_ofCloned(): void</text><ellipse cx="18" cy="103.1309" fill="#84BE84" rx="3" ry="3" style="stroke: #038048; stroke-width: 1.0;"/><text fill="#000000" font-family="sans-serif" font-size="11" lengthAdjust="spacingAndGlyphs" textLength="185" x="27" y="106.7656">test_with_from_empty_map(): void</text><ellipse cx="18" cy="116.0859" fill="#84BE84" rx="3" ry="3" style="stroke: #038048; stroke-width: 1.0;"/><text fill="#000000" font-family="sans-serif" font-size="11" lengthAdjust="spacingAndGlyphs" textLength="85" x="27" y="119.7207">test_with(): void</text><ellipse cx="18" cy="129.041" fill="#84BE84" rx="3" ry="3" style="stroke: #038048; stroke-width: 1.0;"/><text fill="#000000" font-family="sans-serif" font-size="11" lengthAdjust="spacingAndGlyphs" textLength="184" x="27" y="132.6758">test_with_and_existing_key(): void</text><ellipse cx="18" cy="141.9961" fill="#84BE84" rx="3" ry="3" style="stroke: #038048; stroke-width: 1.0;"/><text fill="#000000" font-family="sans-serif" font-size="11" lengthAdjust="spacingAndGlyphs" textLength="468" x="27" y="145.6309">asMap_must_return_different_mutable_instances_detached_from_internal_state(): void</text><ellipse cx="18" cy="154.9512" fill="#84BE84" rx="3" ry="3" style="stroke: #038048; stroke-width: 1.0;"/><text fill="#000000" font-family="sans-serif" font-size="11" lengthAdjust="spacingAndGlyphs" textLength="476" x="27" y="158.5859">getKeys_must_return_different_mutable_instances_detached_from_internal_state(): void</text><ellipse cx="18" cy="167.9063" fill="#84BE84" rx="3" ry="3" style="stroke: #038048; stroke-width: 1.0;"/><text fill="#000000" font-family="sans-serif" font-size="11" lengthAdjust="spacingAndGlyphs" textLength="104" x="27" y="171.541">test_forEach(): void</text><ellipse cx="18" cy="180.8613" fill="#84BE84" rx="3" ry="3" style="stroke: #038048; stroke-width: 1.0;"/><text fill="#000000" font-family="sans-serif" font-size="11" lengthAdjust="spacingAndGlyphs" textLength="107" x="27" y="184.4961">codeSamples(): void</text></a><text fill="#888888" font-family="sans-serif" font-size="10" lengthAdjust="spacingAndGlyphs" textLength="188" x="164" y="207.4844">UMLDoclet 2.0.12, PlantUML 1.2020.16</text><!--MD5=[d3fd21e42ca912c5b1f8b4373e7ee29f]
@startuml
    set namespaceSeparator none
    hide empty fields
    hide empty methods

    class "<size:14>TypeSafeMultiMapTest\n<size:10>it.tidalwave.util" as it.tidalwave.util.TypeSafeMultiMapTest [[TypeSafeMultiMapTest.html]] {
        {static} +LOCAL_DATE: LocalDateTime
        +test_newInstance(): void
        +test_ofCloned(): void
        +test_with_from_empty_map(): void
        +test_with(): void
        +test_with_and_existing_key(): void
        +asMap_must_return_different_mutable_instances_detached_from_internal_state(): void
        +getKeys_must_return_different_mutable_instances_detached_from_internal_state(): void
        +test_forEach(): void
        +codeSamples(): void
    }

    center footer UMLDoclet 2.0.12, PlantUML 1.2020.16
@enduml

PlantUML version 1.2020.16(Sun Aug 23 22:20:43 CEST 2020)
(APACHE source distribution)
Java Runtime: OpenJDK Runtime Environment
JVM: OpenJDK 64-Bit Server VM
Default Encoding: UTF-8
Language: en
Country: GB
--></g></svg>