<?xml version="1.0" encoding="UTF-8" standalone="no"?><svg xmlns="http://www.w3.org/2000/svg" xmlns:xlink="http://www.w3.org/1999/xlink" contentScriptType="application/ecmascript" contentStyleType="text/css" height="131px" preserveAspectRatio="none" style="width:421px;height:131px;" version="1.1" viewBox="0 0 421 131" width="421px" zoomAndPan="magnify"><defs><filter height="300%" id="f1q6t6i539i8qh" width="300%" x="-1" y="-1"><feGaussianBlur result="blurOut" stdDeviation="2.0"/><feColorMatrix in="blurOut" result="blurOut2" type="matrix" values="0 0 0 0 0 0 0 0 0 0 0 0 0 0 0 0 0 0 .4 0"/><feOffset dx="4.0" dy="4.0" in="blurOut2" result="blurOut3"/><feBlend in="SourceGraphic" in2="blurOut3" mode="normal"/></filter></defs><g><!--MD5=[ab4dab1eb6b71e7e62fe403badda47b4]
cluster it.tidalwave.northernwind.aspect--><polygon fill="#FFFFFF" filter="url(#f1q6t6i539i8qh)" points="16,6,254,6,261,28.4883,399,28.4883,399,102,16,102,16,6" style="stroke: #000000; stroke-width: 1.5;"/><line style="stroke: #000000; stroke-width: 1.5;" x1="16" x2="261" y1="28.4883" y2="28.4883"/><text fill="#000000" font-family="sans-serif" font-size="14" font-weight="bold" lengthAdjust="spacingAndGlyphs" textLength="232" x="20" y="21.5352">it.tidalwave.northernwind.aspect</text><!--MD5=[df5673d13e1b5c7639f63f6e1937f5b6]
class it.tidalwave.northernwind.aspect.DebugProfilingAspect--><a href="DebugProfilingAspect.html" target="_top" title="DebugProfilingAspect.html" xlink:actuate="onRequest" xlink:href="DebugProfilingAspect.html" xlink:show="new" xlink:title="DebugProfilingAspect.html" xlink:type="simple"><rect codeLine="3" fill="#FEFECE" filter="url(#f1q6t6i539i8qh)" height="60.9551" id="it.tidalwave.northernwind.aspect.DebugProfilingAspect" style="stroke: #A80036; stroke-width: 1.5;" width="216" x="175" y="33"/><ellipse cx="217.45" cy="49" fill="#ADD1B2" rx="11" ry="11" style="stroke: #A80036; stroke-width: 1.0;"/><path d="M219.9231,55.1431 Q219.3421,55.4419 218.7029,55.5913 Q218.0638,55.7407 217.3582,55.7407 Q214.8514,55.7407 213.5315,54.0889 Q212.2117,52.437 212.2117,49.3159 Q212.2117,46.1865 213.5315,44.5347 Q214.8514,42.8828 217.3582,42.8828 Q218.0638,42.8828 218.7112,43.0322 Q219.3587,43.1816 219.9231,43.4805 L219.9231,46.2031 Q219.2923,45.6221 218.6988,45.3523 Q218.1053,45.0825 217.4744,45.0825 Q216.1297,45.0825 215.4449,46.1492 Q214.7601,47.2158 214.7601,49.3159 Q214.7601,51.4077 215.4449,52.4744 Q216.1297,53.541 217.4744,53.541 Q218.1053,53.541 218.6988,53.2712 Q219.2923,53.0015 219.9231,52.4204 Z "/><text fill="#000000" font-family="sans-serif" font-size="12" lengthAdjust="spacingAndGlyphs" textLength="123" x="237.55" y="53.5352">DebugProfilingAspect</text><line style="stroke: #A80036; stroke-width: 1.5;" x1="176" x2="390" y1="65" y2="65"/><line style="stroke: #A80036; stroke-width: 1.5;" x1="176" x2="390" y1="73" y2="73"/><ellipse cx="186" cy="84" fill="#84BE84" rx="3" ry="3" style="stroke: #038048; stroke-width: 1.0;"/><text fill="#000000" font-family="sans-serif" font-size="11" lengthAdjust="spacingAndGlyphs" textLength="190" x="195" y="87.6348">advice(ProceedingJoinPoint): Object</text></a><!--MD5=[f5f42ef9ad94b7e00fd23698a6c433f1]
class it.tidalwave.northernwind.aspect.DebugProfiling--><a href="DebugProfiling.html" target="_top" title="DebugProfiling.html" xlink:actuate="onRequest" xlink:href="DebugProfiling.html" xlink:show="new" xlink:title="DebugProfiling.html" xlink:type="simple"><rect codeLine="7" fill="#FEFECE" filter="url(#f1q6t6i539i8qh)" height="48" id="it.tidalwave.northernwind.aspect.DebugProfiling" style="stroke: #A80036; stroke-width: 1.5;" width="116" x="24" y="39.5"/><ellipse cx="39" cy="55.5" fill="#E3664A" rx="11" ry="11" style="stroke: #A80036; stroke-width: 1.0;"/><path d="M41.5767,55.7261 Q41.5767,54.7881 41.1533,54.2568 Q40.73,53.7256 39.9912,53.7256 Q39.2524,53.7256 38.8333,54.2568 Q38.4141,54.7881 38.4141,55.7261 Q38.4141,56.6724 38.8333,57.2036 Q39.2524,57.7349 39.9912,57.7349 Q40.73,57.7349 41.1533,57.2036 Q41.5767,56.6724 41.5767,55.7261 Z M43.1206,59.1294 L41.4937,59.1294 L41.4937,58.4487 Q41.1782,58.8887 40.7507,59.092 Q40.3232,59.2954 39.7256,59.2954 Q38.3643,59.2954 37.53,58.3159 Q36.6958,57.3364 36.6958,55.7261 Q36.6958,54.124 37.5259,53.1487 Q38.356,52.1733 39.7256,52.1733 Q40.3149,52.1733 40.7632,52.3767 Q41.2114,52.5801 41.4937,52.9702 L41.4937,52.6299 Q41.4937,51.501 40.8752,50.8867 Q40.2568,50.2725 39.1113,50.2725 Q37.3848,50.2725 36.2932,51.7915 Q35.2017,53.3105 35.2017,55.7427 Q35.2017,58.291 36.4634,59.7976 Q37.7251,61.3042 39.8252,61.3042 Q40.4893,61.3042 41.1118,61.1091 Q41.7344,60.9141 42.3071,60.5239 L43.0708,61.9849 Q42.3984,62.4414 41.6057,62.6697 Q40.813,62.8979 39.9082,62.8979 Q37.0029,62.8979 35.2764,60.9639 Q33.5498,59.0298 33.5498,55.7427 Q33.5498,52.5303 35.1021,50.6003 Q36.6543,48.6704 39.2109,48.6704 Q41.0205,48.6704 42.0706,49.762 Q43.1206,50.8535 43.1206,52.7378 Z "/><text fill="#000000" font-family="sans-serif" font-size="12" lengthAdjust="spacingAndGlyphs" textLength="84" x="53" y="60.0352">DebugProfiling</text><line style="stroke: #A80036; stroke-width: 1.5;" x1="25" x2="139" y1="71.5" y2="71.5"/><line style="stroke: #A80036; stroke-width: 1.5;" x1="25" x2="139" y1="79.5" y2="79.5"/></a><text fill="#888888" font-family="sans-serif" font-size="10" lengthAdjust="spacingAndGlyphs" textLength="188" x="107.5" y="117.668">UMLDoclet 2.0.12, PlantUML 1.2020.16</text><!--MD5=[550b317293f6eda8f943d9ac11a3d9c2]
@startuml
    namespace it.tidalwave.northernwind.aspect {

        class DebugProfilingAspect [[DebugProfilingAspect.html]] {
            +advice(ProceedingJoinPoint): Object
        }

        annotation DebugProfiling [[DebugProfiling.html]]

    }

    center footer UMLDoclet 2.0.12, PlantUML 1.2020.16
@enduml

PlantUML version 1.2020.16(Sun Aug 23 22:20:43 CEST 2020)
(APACHE source distribution)
Java Runtime: OpenJDK Runtime Environment
JVM: OpenJDK 64-Bit Server VM
Default Encoding: UTF-8
Language: en
Country: GB
--></g></svg>