@startuml
    namespace it.tidalwave.image.util {

        class Platform [[Platform.html]] {
            {static} +isMacOSX(): boolean
            {static} +isLinux(): boolean
        }

    }

    center footer UMLDoclet 2.0.12, PlantUML 1.2020.16
@enduml
