@startuml
    set namespaceSeparator none
    hide empty fields
    hide empty methods

    interface "<size:14>GalleryLoader\n<size:10>it.tidalwave.northernwind.frontend.ui.component.gallery.spi" as it.tidalwave.northernwind.frontend.ui.component.gallery.spi.GalleryLoader [[GalleryLoader.html]] {
        {abstract} +loadGallery(SiteNode): List<GalleryItem>
    }

    center footer UMLDoclet 2.0.12, PlantUML 1.2020.16
@enduml
