@startuml
    set namespaceSeparator none
    hide empty fields
    hide empty methods

    interface "<size:14>ContentExplorerPresentationControl\n<size:10>it.tidalwave.northernwind.rca.ui.contentexplorer" as it.tidalwave.northernwind.rca.ui.contentexplorer.ContentExplorerPresentationControl [[ContentExplorerPresentationControl.html]]

    center footer UMLDoclet 2.0.12, PlantUML 1.2020.16
@enduml
