<?xml version="1.0" encoding="UTF-8" standalone="no"?><svg xmlns="http://www.w3.org/2000/svg" xmlns:xlink="http://www.w3.org/1999/xlink" contentScriptType="application/ecmascript" contentStyleType="text/css" height="75px" preserveAspectRatio="none" style="width:310px;height:75px;" version="1.1" viewBox="0 0 310 75" width="310px" zoomAndPan="magnify"><defs><filter height="300%" id="fdledtgdfhwi8" width="300%" x="-1" y="-1"><feGaussianBlur result="blurOut" stdDeviation="2.0"/><feColorMatrix in="blurOut" result="blurOut2" type="matrix" values="0 0 0 0 0 0 0 0 0 0 0 0 0 0 0 0 0 0 .4 0"/><feOffset dx="4.0" dy="4.0" in="blurOut2" result="blurOut3"/><feBlend in="SourceGraphic" in2="blurOut3" mode="normal"/></filter></defs><g><!--MD5=[0a470ae80a57f1fd72f1bd6ac3ed72f5]
class it.tidalwave.northernwind.rca.ui.contentexplorer.ContentExplorerPresentationControl--><a href="ContentExplorerPresentationControl.html" target="_top" title="ContentExplorerPresentationControl.html" xlink:actuate="onRequest" xlink:href="ContentExplorerPresentationControl.html" xlink:show="new" xlink:title="ContentExplorerPresentationControl.html" xlink:type="simple"><rect codeLine="5" fill="#FEFECE" filter="url(#fdledtgdfhwi8)" height="38.2656" id="it.tidalwave.northernwind.rca.ui.contentexplorer.ContentExplorerPresentationControl" style="stroke: #A80036; stroke-width: 1.5;" width="284" x="7" y="7"/><ellipse cx="22" cy="26.1328" fill="#B4A7E5" rx="11" ry="11" style="stroke: #A80036; stroke-width: 1.0;"/><path d="M18.4277,22.3979 L18.4277,20.2397 L25.8071,20.2397 L25.8071,22.3979 L23.3418,22.3979 L23.3418,30.4746 L25.8071,30.4746 L25.8071,32.6328 L18.4277,32.6328 L18.4277,30.4746 L20.8931,30.4746 L20.8931,22.3979 Z "/><text fill="#000000" font-family="sans-serif" font-size="14" font-style="italic" lengthAdjust="spacingAndGlyphs" textLength="252" x="36" y="25.5352">ContentExplorerPresentationControl</text><text fill="#000000" font-family="sans-serif" font-size="10" font-style="italic" lengthAdjust="spacingAndGlyphs" textLength="236" x="44" y="38.1563">it.tidalwave.northernwind.rca.ui.contentexplorer</text></a><text fill="#888888" font-family="sans-serif" font-size="10" lengthAdjust="spacingAndGlyphs" textLength="188" x="55" y="61.9336">UMLDoclet 2.0.12, PlantUML 1.2020.16</text><!--MD5=[6378c9a879e6c8c8421c5d4d9965e763]
@startuml
    set namespaceSeparator none
    hide empty fields
    hide empty methods

    interface "<size:14>ContentExplorerPresentationControl\n<size:10>it.tidalwave.northernwind.rca.ui.contentexplorer" as it.tidalwave.northernwind.rca.ui.contentexplorer.ContentExplorerPresentationControl [[ContentExplorerPresentationControl.html]]

    center footer UMLDoclet 2.0.12, PlantUML 1.2020.16
@enduml

PlantUML version 1.2020.16(Sun Aug 23 22:20:43 CEST 2020)
(APACHE source distribution)
Java Runtime: OpenJDK Runtime Environment
JVM: OpenJDK 64-Bit Server VM
Default Encoding: UTF-8
Language: en
Country: GB
--></g></svg>