@startuml
    namespace it.tidalwave.thesefoolishthings.examples.dci.marshal.xstream.converter {

        class IdXStreamConverter [[IdXStreamConverter.html]] {
            +toString(Object): String
            +fromString(String): Object
            +canConvert(Class): boolean
        }

        class PersonConverter [[PersonConverter.html]] {
            +marshal(Object, HierarchicalStreamWriter, MarshallingContext): void
            +unmarshal(HierarchicalStreamReader, UnmarshallingContext): Object
            +canConvert(Class): boolean
        }

        class it.tidalwave.thesefoolishthings.examples.dci.marshal.xstream.converter.PersonConverter.MutablePerson [[PersonConverter.MutablePerson.html]] {
            {static} +fromPerson(Person): MutablePerson
            +toPerson(): Person
        }

        com.thoughtworks.xstream.converters.SingleValueConverter <|.. IdXStreamConverter
        com.thoughtworks.xstream.converters.Converter <|.. PersonConverter
        PersonConverter +-- it.tidalwave.thesefoolishthings.examples.dci.marshal.xstream.converter.PersonConverter.MutablePerson
    }

    namespace com.thoughtworks.xstream.converters {
        interface SingleValueConverter {
            {abstract} +toString(Object): String
            {abstract} +fromString(String): Object
        }
        interface Converter {
            {abstract} +marshal(Object, HierarchicalStreamWriter, MarshallingContext): void
            {abstract} +unmarshal(HierarchicalStreamReader, UnmarshallingContext): Object
        }
    }

    center footer UMLDoclet 2.0.12, PlantUML 1.2020.16
@enduml
