<?xml version="1.0" encoding="UTF-8" standalone="no"?><svg xmlns="http://www.w3.org/2000/svg" xmlns:xlink="http://www.w3.org/1999/xlink" contentScriptType="application/ecmascript" contentStyleType="text/css" height="451px" preserveAspectRatio="none" style="width:865px;height:451px;" version="1.1" viewBox="0 0 865 451" width="865px" zoomAndPan="magnify"><defs><filter height="300%" id="f14dwdps61oqei" width="300%" x="-1" y="-1"><feGaussianBlur result="blurOut" stdDeviation="2.0"/><feColorMatrix in="blurOut" result="blurOut2" type="matrix" values="0 0 0 0 0 0 0 0 0 0 0 0 0 0 0 0 0 0 .4 0"/><feOffset dx="4.0" dy="4.0" in="blurOut2" result="blurOut3"/><feBlend in="SourceGraphic" in2="blurOut3" mode="normal"/></filter></defs><g><!--MD5=[2ddc462e59b3c2b0412d5db7ceb0c35a]
cluster it.tidalwave.image.processor.event--><polygon fill="#FFFFFF" filter="url(#f14dwdps61oqei)" points="16,127,267,127,274,149.4883,843,149.4883,843,422,16,422,16,127" style="stroke: #000000; stroke-width: 1.5;"/><line style="stroke: #000000; stroke-width: 1.5;" x1="16" x2="274" y1="149.4883" y2="149.4883"/><text fill="#000000" font-family="sans-serif" font-size="14" font-weight="bold" lengthAdjust="spacingAndGlyphs" textLength="245" x="20" y="142.5352">it.tidalwave.image.processor.event</text><!--MD5=[7db3c59d38ae5b37b484eb2df9368145]
cluster java.util--><polygon fill="#FFFFFF" filter="url(#f14dwdps61oqei)" points="188,6,251,6,258,28.4883,308,28.4883,308,102,188,102,188,6" style="stroke: #000000; stroke-width: 1.5;"/><line style="stroke: #000000; stroke-width: 1.5;" x1="188" x2="258" y1="28.4883" y2="28.4883"/><text fill="#000000" font-family="sans-serif" font-size="14" font-weight="bold" lengthAdjust="spacingAndGlyphs" textLength="57" x="192" y="21.5352">java.util</text><!--MD5=[631a2d6d646b4683e1756de51042a60b]
class it.tidalwave.image.processor.event.ImagingTaskProcessorAdapter--><a href="ImagingTaskProcessorAdapter.html" target="_top" title="ImagingTaskProcessorAdapter.html" xlink:actuate="onRequest" xlink:href="ImagingTaskProcessorAdapter.html" xlink:show="new" xlink:title="ImagingTaskProcessorAdapter.html" xlink:type="simple"><rect codeLine="3" fill="#FEFECE" filter="url(#f14dwdps61oqei)" height="99.8203" id="it.tidalwave.image.processor.event.ImagingTaskProcessorAdapter" style="stroke: #A80036; stroke-width: 1.5;" width="328" x="507" y="314"/><ellipse cx="578.75" cy="330" fill="#ADD1B2" rx="11" ry="11" style="stroke: #A80036; stroke-width: 1.0;"/><path d="M581.2231,336.1431 Q580.6421,336.4419 580.0029,336.5913 Q579.3638,336.7407 578.6582,336.7407 Q576.1514,336.7407 574.8315,335.0889 Q573.5117,333.437 573.5117,330.3159 Q573.5117,327.1865 574.8315,325.5347 Q576.1514,323.8828 578.6582,323.8828 Q579.3638,323.8828 580.0112,324.0322 Q580.6587,324.1816 581.2231,324.4805 L581.2231,327.2031 Q580.5923,326.6221 579.9988,326.3523 Q579.4053,326.0825 578.7744,326.0825 Q577.4297,326.0825 576.7449,327.1492 Q576.0601,328.2158 576.0601,330.3159 Q576.0601,332.4077 576.7449,333.4744 Q577.4297,334.541 578.7744,334.541 Q579.4053,334.541 579.9988,334.2712 Q580.5923,334.0015 581.2231,333.4204 Z "/><text fill="#000000" font-family="sans-serif" font-size="12" lengthAdjust="spacingAndGlyphs" textLength="176" x="599.25" y="334.5352">ImagingTaskProcessorAdapter</text><line style="stroke: #A80036; stroke-width: 1.5;" x1="508" x2="834" y1="346" y2="346"/><line style="stroke: #A80036; stroke-width: 1.5;" x1="508" x2="834" y1="354" y2="354"/><ellipse cx="518" cy="365" fill="#84BE84" rx="3" ry="3" style="stroke: #038048; stroke-width: 1.0;"/><text fill="#000000" font-family="sans-serif" font-size="11" lengthAdjust="spacingAndGlyphs" textLength="280" x="527" y="368.6348">notifyTaskPosted(ImagingTaskProcessorEvent): void</text><ellipse cx="518" cy="377.9551" fill="#84BE84" rx="3" ry="3" style="stroke: #038048; stroke-width: 1.0;"/><text fill="#000000" font-family="sans-serif" font-size="11" lengthAdjust="spacingAndGlyphs" textLength="282" x="527" y="381.5898">notifyTaskStarted(ImagingTaskProcessorEvent): void</text><ellipse cx="518" cy="390.9102" fill="#84BE84" rx="3" ry="3" style="stroke: #038048; stroke-width: 1.0;"/><text fill="#000000" font-family="sans-serif" font-size="11" lengthAdjust="spacingAndGlyphs" textLength="302" x="527" y="394.5449">notifyTaskCompleted(ImagingTaskProcessorEvent): void</text><ellipse cx="518" cy="403.8652" fill="#84BE84" rx="3" ry="3" style="stroke: #038048; stroke-width: 1.0;"/><text fill="#000000" font-family="sans-serif" font-size="11" lengthAdjust="spacingAndGlyphs" textLength="284" x="527" y="407.5">notifyTaskPopped(ImagingTaskProcessorEvent): void</text></a><!--MD5=[d0472a055584f0bbbbc0b5196a254539]
class it.tidalwave.image.processor.event.ImagingTaskProcessorListener--><a href="ImagingTaskProcessorListener.html" target="_top" title="ImagingTaskProcessorListener.html" xlink:actuate="onRequest" xlink:href="ImagingTaskProcessorListener.html" xlink:show="new" xlink:title="ImagingTaskProcessorListener.html" xlink:type="simple"><rect codeLine="10" fill="#FEFECE" filter="url(#f14dwdps61oqei)" height="99.8203" id="it.tidalwave.image.processor.event.ImagingTaskProcessorListener" style="stroke: #A80036; stroke-width: 1.5;" width="328" x="507" y="154"/><ellipse cx="579.75" cy="170" fill="#B4A7E5" rx="11" ry="11" style="stroke: #A80036; stroke-width: 1.0;"/><path d="M576.1777,166.2651 L576.1777,164.1069 L583.5571,164.1069 L583.5571,166.2651 L581.0918,166.2651 L581.0918,174.3418 L583.5571,174.3418 L583.5571,176.5 L576.1777,176.5 L576.1777,174.3418 L578.6431,174.3418 L578.6431,166.2651 Z "/><text fill="#000000" font-family="sans-serif" font-size="12" font-style="italic" lengthAdjust="spacingAndGlyphs" textLength="174" x="600.25" y="174.5352">ImagingTaskProcessorListener</text><line style="stroke: #A80036; stroke-width: 1.5;" x1="508" x2="834" y1="186" y2="186"/><line style="stroke: #A80036; stroke-width: 1.5;" x1="508" x2="834" y1="194" y2="194"/><ellipse cx="518" cy="205" fill="#84BE84" rx="3" ry="3" style="stroke: #038048; stroke-width: 1.0;"/><text fill="#000000" font-family="sans-serif" font-size="11" font-style="italic" lengthAdjust="spacingAndGlyphs" textLength="280" x="527" y="208.6348">notifyTaskPosted(ImagingTaskProcessorEvent): void</text><ellipse cx="518" cy="217.9551" fill="#84BE84" rx="3" ry="3" style="stroke: #038048; stroke-width: 1.0;"/><text fill="#000000" font-family="sans-serif" font-size="11" font-style="italic" lengthAdjust="spacingAndGlyphs" textLength="282" x="527" y="221.5898">notifyTaskStarted(ImagingTaskProcessorEvent): void</text><ellipse cx="518" cy="230.9102" fill="#84BE84" rx="3" ry="3" style="stroke: #038048; stroke-width: 1.0;"/><text fill="#000000" font-family="sans-serif" font-size="11" font-style="italic" lengthAdjust="spacingAndGlyphs" textLength="302" x="527" y="234.5449">notifyTaskCompleted(ImagingTaskProcessorEvent): void</text><ellipse cx="518" cy="243.8652" fill="#84BE84" rx="3" ry="3" style="stroke: #038048; stroke-width: 1.0;"/><text fill="#000000" font-family="sans-serif" font-size="11" font-style="italic" lengthAdjust="spacingAndGlyphs" textLength="284" x="527" y="247.5">notifyTaskPopped(ImagingTaskProcessorEvent): void</text></a><!--MD5=[126432c51ae6a0f5af23f98287332330]
class it.tidalwave.image.processor.event.ImagingTaskProcessorEvent--><a href="ImagingTaskProcessorEvent.html" target="_top" title="ImagingTaskProcessorEvent.html" xlink:actuate="onRequest" xlink:href="ImagingTaskProcessorEvent.html" xlink:show="new" xlink:title="ImagingTaskProcessorEvent.html" xlink:type="simple"><rect codeLine="17" fill="#FEFECE" filter="url(#f14dwdps61oqei)" height="86.8652" id="it.tidalwave.image.processor.event.ImagingTaskProcessorEvent" style="stroke: #A80036; stroke-width: 1.5;" width="447" x="24.5" y="160.5"/><ellipse cx="163.75" cy="176.5" fill="#ADD1B2" rx="11" ry="11" style="stroke: #A80036; stroke-width: 1.0;"/><path d="M166.2231,182.6431 Q165.6421,182.9419 165.0029,183.0913 Q164.3638,183.2407 163.6582,183.2407 Q161.1514,183.2407 159.8315,181.5889 Q158.5117,179.937 158.5117,176.8159 Q158.5117,173.6865 159.8315,172.0347 Q161.1514,170.3828 163.6582,170.3828 Q164.3638,170.3828 165.0112,170.5322 Q165.6587,170.6816 166.2231,170.9805 L166.2231,173.7031 Q165.5923,173.1221 164.9988,172.8523 Q164.4053,172.5825 163.7744,172.5825 Q162.4297,172.5825 161.7449,173.6492 Q161.0601,174.7158 161.0601,176.8159 Q161.0601,178.9077 161.7449,179.9744 Q162.4297,181.041 163.7744,181.041 Q164.4053,181.041 164.9988,180.7712 Q165.5923,180.5015 166.2231,179.9204 Z "/><text fill="#000000" font-family="sans-serif" font-size="12" lengthAdjust="spacingAndGlyphs" textLength="160" x="184.25" y="181.0352">ImagingTaskProcessorEvent</text><line style="stroke: #A80036; stroke-width: 1.5;" x1="25.5" x2="470.5" y1="192.5" y2="192.5"/><line style="stroke: #A80036; stroke-width: 1.5;" x1="25.5" x2="470.5" y1="200.5" y2="200.5"/><ellipse cx="35.5" cy="211.5" fill="#84BE84" rx="3" ry="3" style="stroke: #038048; stroke-width: 1.0;"/><text fill="#000000" font-family="sans-serif" font-size="11" lengthAdjust="spacingAndGlyphs" textLength="421" x="44.5" y="215.1348">ImagingTaskProcessorEvent(ImagingTaskProcessor, Serializable, ImagingTask)</text><ellipse cx="35.5" cy="224.4551" fill="#84BE84" rx="3" ry="3" style="stroke: #038048; stroke-width: 1.0;"/><text fill="#000000" font-family="sans-serif" font-size="11" lengthAdjust="spacingAndGlyphs" textLength="124" x="44.5" y="228.0898">getTask(): ImagingTask</text><ellipse cx="35.5" cy="237.4102" fill="#84BE84" rx="3" ry="3" style="stroke: #038048; stroke-width: 1.0;"/><text fill="#000000" font-family="sans-serif" font-size="11" lengthAdjust="spacingAndGlyphs" textLength="139" x="44.5" y="241.0449">getWorkerId(): Serializable</text></a><!--MD5=[5a02c5de5f56056ad7d655707db039e6]
class java.util.EventObject--><rect codeLine="28" fill="#FEFECE" filter="url(#f14dwdps61oqei)" height="60.9551" id="java.util.EventObject" style="stroke: #A80036; stroke-width: 1.5;" width="104" x="196" y="33"/><ellipse cx="212.35" cy="49" fill="#ADD1B2" rx="11" ry="11" style="stroke: #A80036; stroke-width: 1.0;"/><path d="M214.8231,55.1431 Q214.2421,55.4419 213.6029,55.5913 Q212.9638,55.7407 212.2582,55.7407 Q209.7514,55.7407 208.4315,54.0889 Q207.1117,52.437 207.1117,49.3159 Q207.1117,46.1865 208.4315,44.5347 Q209.7514,42.8828 212.2582,42.8828 Q212.9638,42.8828 213.6112,43.0322 Q214.2587,43.1816 214.8231,43.4805 L214.8231,46.2031 Q214.1923,45.6221 213.5988,45.3523 Q213.0053,45.0825 212.3744,45.0825 Q211.0297,45.0825 210.3449,46.1492 Q209.6601,47.2158 209.6601,49.3159 Q209.6601,51.4077 210.3449,52.4744 Q211.0297,53.541 212.3744,53.541 Q213.0053,53.541 213.5988,53.2712 Q214.1923,53.0015 214.8231,52.4204 Z "/><text fill="#000000" font-family="sans-serif" font-size="12" lengthAdjust="spacingAndGlyphs" textLength="69" x="226.65" y="53.5352">EventObject</text><line style="stroke: #A80036; stroke-width: 1.5;" x1="197" x2="299" y1="65" y2="65"/><polygon fill="none" points="207,71,211,75,207,79,203,75" style="stroke: #B38D22; stroke-width: 1.0;"/><text fill="#000000" font-family="sans-serif" font-size="11" lengthAdjust="spacingAndGlyphs" textLength="78" x="216" y="79.6348">source: Object</text><line style="stroke: #A80036; stroke-width: 1.5;" x1="197" x2="299" y1="85.9551" y2="85.9551"/><!--MD5=[09c6b2ffc0b48b73b6fffaa88fc2ecc6]
reverse link it.tidalwave.image.processor.event.ImagingTaskProcessorListener to it.tidalwave.image.processor.event.ImagingTaskProcessorAdapter--><path codeLine="23" d="M671,274.5635 C671,287.8523 671,301.4932 671,313.9921 " fill="none" id="it.tidalwave.image.processor.event.ImagingTaskProcessorListener-backto-it.tidalwave.image.processor.event.ImagingTaskProcessorAdapter" style="stroke: #A80036; stroke-width: 1.0; stroke-dasharray: 7.0,7.0;"/><polygon fill="none" points="664.0001,274.186,671,254.186,678.0001,274.186,664.0001,274.186" style="stroke: #A80036; stroke-width: 1.0;"/><!--MD5=[c7778407215a04976b3a73d0e2dde5bd]
reverse link java.util.EventObject to it.tidalwave.image.processor.event.ImagingTaskProcessorEvent--><path codeLine="24" d="M248,114.463 C248,129.5342 248,145.8891 248,160.4471 " fill="none" id="java.util.EventObject-backto-it.tidalwave.image.processor.event.ImagingTaskProcessorEvent" style="stroke: #A80036; stroke-width: 1.0;"/><polygon fill="none" points="241.0001,114.3334,248,94.3333,255.0001,114.3333,241.0001,114.3334" style="stroke: #A80036; stroke-width: 1.0;"/><text fill="#888888" font-family="sans-serif" font-size="10" lengthAdjust="spacingAndGlyphs" textLength="188" x="329.5" y="437.668">UMLDoclet 2.0.12, PlantUML 1.2020.16</text><!--MD5=[7a03d1aabfdd4feabe4d15aeeba22051]
@startuml
    namespace it.tidalwave.image.processor.event {

        class ImagingTaskProcessorAdapter [[ImagingTaskProcessorAdapter.html]] {
            +notifyTaskPosted(ImagingTaskProcessorEvent): void
            +notifyTaskStarted(ImagingTaskProcessorEvent): void
            +notifyTaskCompleted(ImagingTaskProcessorEvent): void
            +notifyTaskPopped(ImagingTaskProcessorEvent): void
        }

        interface ImagingTaskProcessorListener [[ImagingTaskProcessorListener.html]] {
            {abstract} +notifyTaskPosted(ImagingTaskProcessorEvent): void
            {abstract} +notifyTaskStarted(ImagingTaskProcessorEvent): void
            {abstract} +notifyTaskCompleted(ImagingTaskProcessorEvent): void
            {abstract} +notifyTaskPopped(ImagingTaskProcessorEvent): void
        }

        class ImagingTaskProcessorEvent [[ImagingTaskProcessorEvent.html]] {
            +ImagingTaskProcessorEvent(ImagingTaskProcessor, Serializable, ImagingTask)
            +getTask(): ImagingTask
            +getWorkerId(): Serializable
        }

        ImagingTaskProcessorListener <|.. ImagingTaskProcessorAdapter
        java.util.EventObject <|- - ImagingTaskProcessorEvent
    }

    namespace java.util {
        class EventObject {
            #source: Object
        }
    }

    center footer UMLDoclet 2.0.12, PlantUML 1.2020.16
@enduml

PlantUML version 1.2020.16(Sun Aug 23 22:20:43 CEST 2020)
(APACHE source distribution)
Java Runtime: OpenJDK Runtime Environment
JVM: OpenJDK 64-Bit Server VM
Default Encoding: UTF-8
Language: en
Country: GB
--></g></svg>