@startuml
    namespace it.tidalwave.image.processor.event {

        class ImagingTaskProcessorAdapter [[ImagingTaskProcessorAdapter.html]] {
            +notifyTaskPosted(ImagingTaskProcessorEvent): void
            +notifyTaskStarted(ImagingTaskProcessorEvent): void
            +notifyTaskCompleted(ImagingTaskProcessorEvent): void
            +notifyTaskPopped(ImagingTaskProcessorEvent): void
        }

        interface ImagingTaskProcessorListener [[ImagingTaskProcessorListener.html]] {
            {abstract} +notifyTaskPosted(ImagingTaskProcessorEvent): void
            {abstract} +notifyTaskStarted(ImagingTaskProcessorEvent): void
            {abstract} +notifyTaskCompleted(ImagingTaskProcessorEvent): void
            {abstract} +notifyTaskPopped(ImagingTaskProcessorEvent): void
        }

        class ImagingTaskProcessorEvent [[ImagingTaskProcessorEvent.html]] {
            +ImagingTaskProcessorEvent(ImagingTaskProcessor, Serializable, ImagingTask)
            +getTask(): ImagingTask
            +getWorkerId(): Serializable
        }

        ImagingTaskProcessorListener <|.. ImagingTaskProcessorAdapter
        java.util.EventObject <|-- ImagingTaskProcessorEvent
    }

    namespace java.util {
        class EventObject {
            #source: Object
        }
    }

    center footer UMLDoclet 2.0.12, PlantUML 1.2020.16
@enduml
