@startuml
    set namespaceSeparator none
    hide empty fields
    hide empty methods

    interface "<size:14>MockRole1\n<size:10>it.tidalwave.role.spring.mock" as it.tidalwave.role.spring.mock.MockRole1 [[MockRole1.html]]

    center footer UMLDoclet 2.0.12, PlantUML 1.2020.16
@enduml
