@startuml
    namespace it.tidalwave.actor.spi {

        class ActorActivator [[ActorActivator.html]] {
            {static} +activatorFor(Class<?>): ActorActivator
            +withPoolSize(int): ActorActivator
            +initialize(): void
            +dispose(): void
        }

        class ActorGroupActivator [[ActorGroupActivator.html]] {
            +add(ActorActivator): void
            +activate(): void
            +deactivate(): void
        }

        interface CollaborationAwareMessageBus [[CollaborationAwareMessageBus.html]]

        interface ActorActivatorStatsMBean [[ActorActivatorStatsMBean.html]] {
            {abstract} +getPoolSize(): int
            {abstract} +getPendingMessageCount(): int
            {abstract} +getInvocationCount(): int
            {abstract} +getSuccesfulInvocationCount(): int
            {abstract} +getInvocationErrorCount(): int
        }

        class ActorActivatorStats [[ActorActivatorStats.html]] {
            +changePendingMessageCount(int): void
            +incrementInvocationCount(): void
            +incrementInvocationErrorCount(): void
            +incrementSuccessfulInvocationCount(): void
        }

        it.tidalwave.messagebus.MessageBus <|-- CollaborationAwareMessageBus
        ActorActivatorStatsMBean <|.. ActorActivatorStats
    }

    namespace it.tidalwave.messagebus {
        interface MessageBus [[../../messagebus/MessageBus.html]] {
            {abstract} +publish(T): void
            {abstract} +publish(Class<T>, T): void
            {abstract} +subscribe(Class<T>, Listener<T>): void
            {abstract} +unsubscribe(Listener<?>): void
        }
    }

    center footer UMLDoclet 2.0.12, PlantUML 1.2020.16
@enduml
