@startuml
    set namespaceSeparator none
    hide empty fields
    hide empty methods

    interface "<size:14>PersonRegistry2\n<size:10>it.tidalwave.thesefoolishthings.examples.extendedfinderexample" as it.tidalwave.thesefoolishthings.examples.extendedfinderexample.PersonRegistry2 [[PersonRegistry2.html]] {
        {abstract} +findPerson(): PersonFinder
    }

    interface "<size:14>PersonRegistry\n<size:10>it.tidalwave.thesefoolishthings.examples.person" as it.tidalwave.thesefoolishthings.examples.person.PersonRegistry [[../person/PersonRegistry.html]] {
        {abstract} +findPerson(): Finder<Person>
        {abstract} +add(Person): void
    }

    it.tidalwave.thesefoolishthings.examples.person.PersonRegistry <|-- it.tidalwave.thesefoolishthings.examples.extendedfinderexample.PersonRegistry2

    center footer UMLDoclet 2.0.12, PlantUML 1.2020.16
@enduml
