@startuml
    set namespaceSeparator none
    hide empty fields
    hide empty methods

    interface "<size:14>PersonFinder\n<size:10>it.tidalwave.thesefoolishthings.examples.extendedfinderexample" as it.tidalwave.thesefoolishthings.examples.extendedfinderexample.PersonFinder [[PersonFinder.html]] {
        {abstract} +withFirstName(String): PersonFinder
        {abstract} +withLastName(String): PersonFinder
    }

    interface "<size:14>ExtendedFinderSupport\n<size:10>it.tidalwave.util.spi" as it.tidalwave.util.spi.ExtendedFinderSupport<Person, PersonFinder> [[../../../util/spi/ExtendedFinderSupport.html]] {
        {abstract} +from(int): PersonFinder
        {abstract} +max(int): PersonFinder
        {abstract} +sort(SortCriterion): PersonFinder
        {abstract} +sort(SortCriterion, SortDirection): PersonFinder
        {abstract} +withContext(Object): PersonFinder
    }

    it.tidalwave.util.spi.ExtendedFinderSupport <|-- it.tidalwave.thesefoolishthings.examples.extendedfinderexample.PersonFinder

    center footer UMLDoclet 2.0.12, PlantUML 1.2020.16
@enduml
