@startuml
    set namespaceSeparator none
    hide empty fields
    hide empty methods

    interface "<size:14>Composite\n<size:10>it.tidalwave.role" as it.tidalwave.role.Composite<T, F extends Finder<? extends T>> [[Composite.html]] {
        {static} +_Composite_: Class<Composite>
        {static} +DEFAULT: Composite<Object, Finder<Object>>
        {abstract} +findChildren(): F extends Finder<? extends T>
    }
    interface "<size:14>Composite.Visitor\n<size:10>it.tidalwave.role" as it.tidalwave.role.Composite.Visitor<T, R> [[Composite.Visitor.html]]

    it.tidalwave.role.Composite +-- it.tidalwave.role.Composite.Visitor

    center footer UMLDoclet 2.0.12, PlantUML 1.2020.16
@enduml
