GROUP,PACKAGE,CLASS,INSTRUCTION_MISSED,INSTRUCTION_COVERED,BRANCH_MISSED,BRANCH_COVERED,LINE_MISSED,LINE_COVERED,COMPLEXITY_MISSED,COMPLEXITY_COVERED,METHOD_MISSED,METHOD_COVERED
SteelBlue :: Examples :: JavaFX presentation/it-tidalwave-ui-example-presentation,it.tidalwave.ui.example.presentation.impl,DefaultMainPanelPresentationControl,8,419,0,0,3,65,1,30,1,30
SteelBlue :: Examples :: JavaFX presentation/it-tidalwave-ui-example-presentation,it.tidalwave.ui.example.presentation.impl,FileEntityPresentable,0,124,0,0,0,18,0,6,0,6
SteelBlue :: Examples :: JavaFX presentation/it-tidalwave-ui-example-presentation,it.tidalwave.ui.example.presentation.impl,MainPanelUserActionProvider,17,0,0,0,1,0,1,0,1,0
SteelBlue :: Examples :: JavaFX presentation/it-tidalwave-ui-example-model,it.tidalwave.ui.example.model,SimpleEntity,0,10,0,0,0,1,0,1,0,1
SteelBlue :: Examples :: JavaFX presentation/it-tidalwave-ui-example-model,it.tidalwave.ui.example.model,FileEntity,36,39,1,1,5,8,6,5,5,5
SteelBlue :: Examples :: JavaFX presentation/it-tidalwave-ui-example-model,it.tidalwave.ui.example.model,FileEntity.FileEntityFinder,44,0,0,0,9,0,2,0,2,0
SteelBlue :: Examples :: JavaFX presentation/it-tidalwave-ui-example-model,it.tidalwave.ui.example.model,SimpleDciEntity,0,19,0,0,0,6,0,1,0,1
SteelBlue :: Examples :: JavaFX presentation/it-tidalwave-ui-example-model,it.tidalwave.ui.example.model.impl,DefaultDao,62,0,0,0,10,0,5,0,5,0
SteelBlue :: Examples :: JavaFX presentation/it-tidalwave-ui-javafx,it.tidalwave.ui.javafx.impl.tree,TreeViewBindings,0,58,0,0,0,12,0,4,0,4
SteelBlue :: Examples :: JavaFX presentation/it-tidalwave-ui-javafx,it.tidalwave.ui.javafx.impl.tree,ObsoletePresentationModelDisposer,0,36,0,4,0,11,0,6,0,4
SteelBlue :: Examples :: JavaFX presentation/it-tidalwave-ui-javafx,it.tidalwave.ui.javafx.impl.tree,AsObjectTreeCell,0,18,0,0,0,6,0,2,0,2
SteelBlue :: Examples :: JavaFX presentation/it-tidalwave-ui-javafx,it.tidalwave.ui.javafx.impl.combobox,ComboBoxBindings,10,131,3,1,3,30,3,8,1,8
SteelBlue :: Examples :: JavaFX presentation/it-tidalwave-ui-javafx,it.tidalwave.ui.javafx.impl.common,PresentationModelTreeItem,0,11,0,0,0,3,0,2,0,2
SteelBlue :: Examples :: JavaFX presentation/it-tidalwave-ui-javafx,it.tidalwave.ui.javafx.impl.common,AsObjectStringConverter,4,16,0,0,1,3,1,3,1,3
SteelBlue :: Examples :: JavaFX presentation/it-tidalwave-ui-javafx,it.tidalwave.ui.javafx.impl.common,RoleCollector,9,116,2,2,1,22,3,11,1,11
SteelBlue :: Examples :: JavaFX presentation/it-tidalwave-ui-javafx,it.tidalwave.ui.javafx.impl.common,PropertyAdapter,198,0,4,0,49,0,22,0,20,0
SteelBlue :: Examples :: JavaFX presentation/it-tidalwave-ui-javafx,it.tidalwave.ui.javafx.impl.common,TreeItemDelegateSupport,19,132,1,1,4,28,3,12,2,12
SteelBlue :: Examples :: JavaFX presentation/it-tidalwave-ui-javafx,it.tidalwave.ui.javafx.impl.common,AsObjectListCell,0,18,0,0,0,6,0,2,0,2
SteelBlue :: Examples :: JavaFX presentation/it-tidalwave-ui-javafx,it.tidalwave.ui.javafx.impl.common,PresentationModelAsDelegateDecorator,53,0,2,0,8,0,6,0,5,0
SteelBlue :: Examples :: JavaFX presentation/it-tidalwave-ui-javafx,it.tidalwave.ui.javafx.impl.common,EventHandlerUserActionAdapter,0,10,0,0,0,2,0,1,0,1
SteelBlue :: Examples :: JavaFX presentation/it-tidalwave-ui-javafx,it.tidalwave.ui.javafx.impl.common,JavaFXWorker,25,91,1,1,6,21,2,9,1,9
SteelBlue :: Examples :: JavaFX presentation/it-tidalwave-ui-javafx,it.tidalwave.ui.javafx.impl.common,DefaultCellBinder,60,228,7,5,10,47,11,14,6,13
SteelBlue :: Examples :: JavaFX presentation/it-tidalwave-ui-javafx,it.tidalwave.ui.javafx.impl.common,ChangeListenerSelectableAdapter,0,54,1,3,0,9,1,7,0,6
SteelBlue :: Examples :: JavaFX presentation/it-tidalwave-ui-javafx,it.tidalwave.ui.javafx.impl.common,PresentationModelObservable,67,0,0,0,8,0,9,0,9,0
SteelBlue :: Examples :: JavaFX presentation/it-tidalwave-ui-javafx,it.tidalwave.ui.javafx.impl.common,DelegateSupport,54,0,0,0,16,0,3,0,3,0
SteelBlue :: Examples :: JavaFX presentation/it-tidalwave-ui-javafx,it.tidalwave.ui.javafx.impl.dialog,DialogBindings,223,8,12,0,51,3,9,2,3,2
SteelBlue :: Examples :: JavaFX presentation/it-tidalwave-ui-javafx,it.tidalwave.ui.javafx.impl.dialog,DialogBindings.UrlOpener,32,0,4,0,10,0,4,0,2,0
SteelBlue :: Examples :: JavaFX presentation/it-tidalwave-ui-javafx,it.tidalwave.ui.javafx.impl.tableview,AsObjectTableCell,18,0,0,0,6,0,2,0,2,0
SteelBlue :: Examples :: JavaFX presentation/it-tidalwave-ui-javafx,it.tidalwave.ui.javafx.impl.tableview,TableViewBindings,81,19,0,0,19,5,7,2,7,2
SteelBlue :: Examples :: JavaFX presentation/it-tidalwave-ui-javafx,it.tidalwave.ui.javafx.impl.list,ListViewBindings,34,77,2,0,8,19,3,7,2,7
SteelBlue :: Examples :: JavaFX presentation/it-tidalwave-ui-javafx,it.tidalwave.ui.javafx,JavaFXSpringAnnotationApplication.MessageBusBeans,0,29,0,0,0,9,0,2,0,2
SteelBlue :: Examples :: JavaFX presentation/it-tidalwave-ui-javafx,it.tidalwave.ui.javafx,JavaFXSpringApplication,59,0,6,0,13,0,5,0,2,0
SteelBlue :: Examples :: JavaFX presentation/it-tidalwave-ui-javafx,it.tidalwave.ui.javafx,JavaFXSpringAnnotationApplication.Beans,0,16,0,0,0,6,0,6,0,6
SteelBlue :: Examples :: JavaFX presentation/it-tidalwave-ui-javafx,it.tidalwave.ui.javafx,JavaFXBinder,143,0,0,0,42,0,25,0,25,0
SteelBlue :: Examples :: JavaFX presentation/it-tidalwave-ui-javafx,it.tidalwave.ui.javafx,Splash,104,0,0,0,18,0,5,0,5,0
SteelBlue :: Examples :: JavaFX presentation/it-tidalwave-ui-javafx,it.tidalwave.ui.javafx,NodeAndDelegate,11,0,0,0,3,0,3,0,3,0
SteelBlue :: Examples :: JavaFX presentation/it-tidalwave-ui-javafx,it.tidalwave.ui.javafx,JavaFXSpringAnnotationApplication,0,46,0,2,0,9,0,3,0,2
SteelBlue :: Examples :: JavaFX presentation/it-tidalwave-ui-javafx,it.tidalwave.ui.javafx,JavaFXApplicationWithSplash,246,41,8,0,53,11,15,2,11,2
SteelBlue :: Examples :: JavaFX presentation/it-tidalwave-ui-javafx,it.tidalwave.ui.javafx.impl.filechooser,FileChooserBindings,104,8,2,0,26,3,7,2,6,2
SteelBlue :: Examples :: JavaFX presentation/it-tidalwave-ui-javafx,it.tidalwave.ui.javafx.spi,AbstractJavaFXSpringApplication,103,239,4,10,24,51,7,22,4,18
SteelBlue :: Examples :: JavaFX presentation/it-tidalwave-ui-javafx,it.tidalwave.ui.javafx.spi,AbstractJavaFXSpringApplication.InitParameters,39,0,4,0,7,0,5,0,3,0
SteelBlue :: Examples :: JavaFX presentation/it-tidalwave-ui-javafx,it.tidalwave.ui.javafx.role,CustomGraphicProvider,0,3,0,0,0,1,0,1,0,1
SteelBlue :: Examples :: JavaFX presentation/it-tidalwave-ui-javafx,it.tidalwave.ui.javafx.impl,DefaultJavaFXToolBarControl,16,4,0,0,5,1,2,1,2,1
SteelBlue :: Examples :: JavaFX presentation/it-tidalwave-ui-javafx,it.tidalwave.ui.javafx.impl,DefaultJavaFXBinder,119,76,2,2,20,16,12,4,11,3
SteelBlue :: Examples :: JavaFX presentation/it-tidalwave-ui-javafx,it.tidalwave.ui.javafx.impl,DefaultNodeAndDelegate,256,0,12,0,58,0,12,0,6,0
SteelBlue :: Examples :: JavaFX presentation/it-tidalwave-ui-javafx,it.tidalwave.ui.javafx.impl,DefaultJavaFXPanelGroupControl,43,480,4,16,8,78,7,29,3,23
SteelBlue :: Examples :: JavaFX presentation/it-tidalwave-ui-javafx,it.tidalwave.ui.javafx.impl,DefaultJavaFXMenuBarControl,34,4,0,0,10,1,4,1,4,1
SteelBlue :: Examples :: JavaFX presentation/it-tidalwave-ui-javafx,it.tidalwave.ui.javafx.impl.button,ButtonBindings,212,98,2,6,46,12,10,13,9,10
SteelBlue :: Examples :: JavaFX presentation/it-tidalwave-ui-javafx,it.tidalwave.ui.javafx.impl.util,Logging,64,103,10,12,13,24,10,7,2,4
SteelBlue :: Examples :: JavaFX presentation/it-tidalwave-ui-javafx,it.tidalwave.ui.javafx.impl.util,JavaFXSafeComponentBuilder,255,65,14,0,56,17,15,1,8,1
SteelBlue :: Examples :: JavaFX presentation/it-tidalwave-ui-javafx,it.tidalwave.ui.javafx.impl.util,JavaFXSafeRunner,26,0,2,0,12,0,4,0,3,0
SteelBlue :: Examples :: JavaFX presentation/it-tidalwave-ui-javafx,it.tidalwave.ui.javafx.impl.util,JavaFXPresentationBuilder,24,0,0,0,5,0,2,0,2,0
SteelBlue :: Examples :: JavaFX presentation/it-tidalwave-ui-javafx,it.tidalwave.ui.javafx.impl.util,JavaFXSafeProxy,167,0,14,0,37,0,13,0,6,0
SteelBlue :: Examples :: JavaFX presentation/it-tidalwave-ui-javafx,it.tidalwave.ui.javafx.impl.treetable,AsObjectTreeTableCell,17,0,0,0,6,0,2,0,2,0
SteelBlue :: Examples :: JavaFX presentation/it-tidalwave-ui-javafx,it.tidalwave.ui.javafx.impl.treetable,TreeTableViewBindings,69,12,2,0,15,4,4,2,3,2
