<?xml version="1.0" encoding="UTF-8" standalone="no"?><svg xmlns="http://www.w3.org/2000/svg" xmlns:xlink="http://www.w3.org/1999/xlink" contentScriptType="application/ecmascript" contentStyleType="text/css" height="302px" preserveAspectRatio="none" style="width:313px;height:302px;" version="1.1" viewBox="0 0 313 302" width="313px" zoomAndPan="magnify"><defs><filter height="300%" id="f1xmbxizs9w4ae" width="300%" x="-1" y="-1"><feGaussianBlur result="blurOut" stdDeviation="2.0"/><feColorMatrix in="blurOut" result="blurOut2" type="matrix" values="0 0 0 0 0 0 0 0 0 0 0 0 0 0 0 0 0 0 .4 0"/><feOffset dx="4.0" dy="4.0" in="blurOut2" result="blurOut3"/><feBlend in="SourceGraphic" in2="blurOut3" mode="normal"/></filter></defs><g><!--MD5=[614c8fa1b6f220e2e1ba18fcd0b6d5e6]
class it.tidalwave.util.Finder.SortCriterion--><a href="Finder.SortCriterion.html" target="_top" title="Finder.SortCriterion.html" xlink:actuate="onRequest" xlink:href="Finder.SortCriterion.html" xlink:show="new" xlink:title="Finder.SortCriterion.html" xlink:type="simple"><rect codeLine="5" fill="#FEFECE" filter="url(#f1xmbxizs9w4ae)" height="85.1309" id="it.tidalwave.util.Finder.SortCriterion" style="stroke: #A80036; stroke-width: 1.5;" width="231" x="35" y="181"/><ellipse cx="77.9" cy="200.1328" fill="#B4A7E5" rx="11" ry="11" style="stroke: #A80036; stroke-width: 1.0;"/><path d="M74.3277,196.3979 L74.3277,194.2397 L81.7071,194.2397 L81.7071,196.3979 L79.2418,196.3979 L79.2418,204.4746 L81.7071,204.4746 L81.7071,206.6328 L74.3277,206.6328 L74.3277,204.4746 L76.7931,204.4746 L76.7931,196.3979 Z "/><text fill="#000000" font-family="sans-serif" font-size="14" font-style="italic" lengthAdjust="spacingAndGlyphs" textLength="137" x="98.1" y="199.5352">Finder.SortCriterion</text><text fill="#000000" font-family="sans-serif" font-size="10" font-style="italic" lengthAdjust="spacingAndGlyphs" textLength="76" x="128.6" y="212.1563">it.tidalwave.util</text><line style="stroke: #A80036; stroke-width: 1.5;" x1="36" x2="265" y1="219.2656" y2="219.2656"/><ellipse cx="46" cy="230.2656" fill="none" rx="3" ry="3" style="stroke: #038048; stroke-width: 1.0;"/><text fill="#000000" font-family="sans-serif" font-size="11" lengthAdjust="spacingAndGlyphs" text-decoration="underline" textLength="205" x="55" y="233.9004">_SortCriterion_: Class&lt;SortCriterion&gt;</text><ellipse cx="46" cy="243.2207" fill="none" rx="3" ry="3" style="stroke: #038048; stroke-width: 1.0;"/><text fill="#000000" font-family="sans-serif" font-size="11" lengthAdjust="spacingAndGlyphs" text-decoration="underline" textLength="135" x="55" y="246.8555">UNSORTED: SortCriterion</text><ellipse cx="46" cy="256.1758" fill="none" rx="3" ry="3" style="stroke: #038048; stroke-width: 1.0;"/><text fill="#000000" font-family="sans-serif" font-size="11" lengthAdjust="spacingAndGlyphs" text-decoration="underline" textLength="125" x="55" y="259.8105">DEFAULT: SortCriterion</text></a><!--MD5=[11c1b1d4d2028ec08c437ce6f62858f3]
class it.tidalwave.util.Finder--><a href="Finder.html" target="_top" title="Finder.html" xlink:actuate="onRequest" xlink:href="Finder.html" xlink:show="new" xlink:title="Finder.html" xlink:type="simple"><rect codeLine="11" fill="#FEFECE" filter="url(#f1xmbxizs9w4ae)" height="111.041" id="it.tidalwave.util.Finder" style="stroke: #A80036; stroke-width: 1.5;" width="287" x="7" y="10"/><ellipse cx="91.75" cy="29.1328" fill="#B4A7E5" rx="11" ry="11" style="stroke: #A80036; stroke-width: 1.0;"/><path d="M88.1777,25.3979 L88.1777,23.2397 L95.5571,23.2397 L95.5571,25.3979 L93.0918,25.3979 L93.0918,33.4746 L95.5571,33.4746 L95.5571,35.6328 L88.1777,35.6328 L88.1777,33.4746 L90.6431,33.4746 L90.6431,25.3979 Z "/><text fill="#000000" font-family="sans-serif" font-size="14" font-style="italic" lengthAdjust="spacingAndGlyphs" textLength="44" x="128.25" y="28.5352">Finder</text><text fill="#000000" font-family="sans-serif" font-size="10" font-style="italic" lengthAdjust="spacingAndGlyphs" textLength="76" x="112.25" y="41.1563">it.tidalwave.util</text><rect fill="#FFFFFF" height="16.1328" style="stroke: #000000; stroke-width: 1.0; stroke-dasharray: 2.0,2.0;" width="31" x="266" y="7"/><text fill="#000000" font-family="sans-serif" font-size="12" font-style="italic" lengthAdjust="spacingAndGlyphs" textLength="29" x="267" y="19.6016">TYPE</text><line style="stroke: #A80036; stroke-width: 1.5;" x1="8" x2="293" y1="48.2656" y2="48.2656"/><ellipse cx="18" cy="59.2656" fill="#84BE84" rx="3" ry="3" style="stroke: #038048; stroke-width: 1.0;"/><text fill="#000000" font-family="sans-serif" font-size="11" font-style="italic" lengthAdjust="spacingAndGlyphs" textLength="132" x="27" y="62.9004">from(int): Finder&lt;TYPE&gt;</text><ellipse cx="18" cy="72.2207" fill="#84BE84" rx="3" ry="3" style="stroke: #038048; stroke-width: 1.0;"/><text fill="#000000" font-family="sans-serif" font-size="11" font-style="italic" lengthAdjust="spacingAndGlyphs" textLength="129" x="27" y="75.8555">max(int): Finder&lt;TYPE&gt;</text><ellipse cx="18" cy="85.1758" fill="#84BE84" rx="3" ry="3" style="stroke: #038048; stroke-width: 1.0;"/><text fill="#000000" font-family="sans-serif" font-size="11" font-style="italic" lengthAdjust="spacingAndGlyphs" textLength="261" x="27" y="88.8105">sort(SortCriterion, SortDirection): Finder&lt;TYPE&gt;</text><ellipse cx="18" cy="98.1309" fill="#84BE84" rx="3" ry="3" style="stroke: #038048; stroke-width: 1.0;"/><text fill="#000000" font-family="sans-serif" font-size="11" font-style="italic" lengthAdjust="spacingAndGlyphs" textLength="168" x="27" y="101.7656">results(): List&lt;? extends TYPE&gt;</text><ellipse cx="18" cy="111.0859" fill="#84BE84" rx="3" ry="3" style="stroke: #038048; stroke-width: 1.0;"/><text fill="#000000" font-family="sans-serif" font-size="11" font-style="italic" lengthAdjust="spacingAndGlyphs" textLength="59" x="27" y="114.7207">count(): int</text></a><!--MD5=[a7edf19a8efea8ff856fb002b2b7ae0c]
reverse link it.tidalwave.util.Finder to it.tidalwave.util.Finder.SortCriterion--><path codeLine="19" d="M150.5,136.6466 C150.5,151.6865 150.5,167.1098 150.5,180.7071 " fill="none" id="it.tidalwave.util.Finder-backto-it.tidalwave.util.Finder.SortCriterion" style="stroke: #A80036; stroke-width: 1.0;"/><ellipse cx="150.5" cy="129.2049" fill="#FFFFFF" rx="8" ry="8" style="stroke: #A80036; stroke-width: 1.0;"/><line style="stroke: #A80036; stroke-width: 1.0;" x1="150.5" x2="150.5" y1="137.2049" y2="121.2049"/><line style="stroke: #A80036; stroke-width: 1.0;" x1="142.5" x2="158.5" y1="129.2049" y2="129.2049"/><text fill="#888888" font-family="sans-serif" font-size="10" lengthAdjust="spacingAndGlyphs" textLength="188" x="53.5" y="288.7988">UMLDoclet 2.0.12, PlantUML 1.2020.16</text><!--MD5=[7d0cd410c9eefe31b55471a46808335c]
@startuml
    set namespaceSeparator none
    hide empty fields
    hide empty methods

    interface "<size:14>Finder.SortCriterion\n<size:10>it.tidalwave.util" as it.tidalwave.util.Finder.SortCriterion [[Finder.SortCriterion.html]] {
        {static} +_SortCriterion_: Class<SortCriterion>
        {static} +UNSORTED: SortCriterion
        {static} +DEFAULT: SortCriterion
    }

    interface "<size:14>Finder\n<size:10>it.tidalwave.util" as it.tidalwave.util.Finder<TYPE> [[Finder.html]] {
        {abstract} +from(int): Finder<TYPE>
        {abstract} +max(int): Finder<TYPE>
        {abstract} +sort(SortCriterion, SortDirection): Finder<TYPE>
        {abstract} +results(): List<? extends TYPE>
        {abstract} +count(): int
    }

    it.tidalwave.util.Finder +- - it.tidalwave.util.Finder.SortCriterion

    center footer UMLDoclet 2.0.12, PlantUML 1.2020.16
@enduml

PlantUML version 1.2020.16(Sun Aug 23 22:20:43 CEST 2020)
(APACHE source distribution)
Java Runtime: OpenJDK Runtime Environment
JVM: OpenJDK 64-Bit Server VM
Default Encoding: UTF-8
Language: en
Country: GB
--></g></svg>