<?xml version="1.0" encoding="UTF-8" standalone="no"?><svg xmlns="http://www.w3.org/2000/svg" xmlns:xlink="http://www.w3.org/1999/xlink" contentScriptType="application/ecmascript" contentStyleType="text/css" height="263px" preserveAspectRatio="none" style="width:471px;height:263px;" version="1.1" viewBox="0 0 471 263" width="471px" zoomAndPan="magnify"><defs><filter height="300%" id="f1hcrurcm7udoz" width="300%" x="-1" y="-1"><feGaussianBlur result="blurOut" stdDeviation="2.0"/><feColorMatrix in="blurOut" result="blurOut2" type="matrix" values="0 0 0 0 0 0 0 0 0 0 0 0 0 0 0 0 0 0 .4 0"/><feOffset dx="4.0" dy="4.0" in="blurOut2" result="blurOut3"/><feBlend in="SourceGraphic" in2="blurOut3" mode="normal"/></filter></defs><g><!--MD5=[8a50ed03e5328f7778d8c58f7447ad29]
class it.tidalwave.util.Id--><a href="Id.html" target="_top" title="Id.html" xlink:actuate="onRequest" xlink:href="Id.html" xlink:show="new" xlink:title="Id.html" xlink:type="simple"><rect codeLine="5" fill="#FEFECE" filter="url(#f1hcrurcm7udoz)" height="98.0859" id="it.tidalwave.util.Id" style="stroke: #A80036; stroke-width: 1.5;" width="133" x="152" y="129"/><ellipse cx="178.25" cy="148.1328" fill="#ADD1B2" rx="11" ry="11" style="stroke: #A80036; stroke-width: 1.0;"/><path d="M180.7231,154.2759 Q180.1421,154.5747 179.5029,154.7241 Q178.8638,154.8735 178.1582,154.8735 Q175.6514,154.8735 174.3315,153.2217 Q173.0117,151.5698 173.0117,148.4487 Q173.0117,145.3193 174.3315,143.6675 Q175.6514,142.0156 178.1582,142.0156 Q178.8638,142.0156 179.5112,142.165 Q180.1587,142.3145 180.7231,142.6133 L180.7231,145.3359 Q180.0923,144.7549 179.4988,144.4851 Q178.9053,144.2153 178.2744,144.2153 Q176.9297,144.2153 176.2449,145.282 Q175.5601,146.3486 175.5601,148.4487 Q175.5601,150.5405 176.2449,151.6072 Q176.9297,152.6738 178.2744,152.6738 Q178.9053,152.6738 179.4988,152.4041 Q180.0923,152.1343 180.7231,151.5532 Z "/><text fill="#000000" font-family="sans-serif" font-size="14" lengthAdjust="spacingAndGlyphs" textLength="13" x="226.25" y="147.5352">Id</text><text fill="#000000" font-family="sans-serif" font-size="10" lengthAdjust="spacingAndGlyphs" textLength="76" x="194.75" y="160.1563">it.tidalwave.util</text><line style="stroke: #A80036; stroke-width: 1.5;" x1="153" x2="284" y1="167.2656" y2="167.2656"/><ellipse cx="163" cy="178.2656" fill="#84BE84" rx="3" ry="3" style="stroke: #038048; stroke-width: 1.0;"/><text fill="#000000" font-family="sans-serif" font-size="11" lengthAdjust="spacingAndGlyphs" text-decoration="underline" textLength="70" x="172" y="181.9004">of(Object): Id</text><ellipse cx="163" cy="191.2207" fill="#84BE84" rx="3" ry="3" style="stroke: #038048; stroke-width: 1.0;"/><text fill="#000000" font-family="sans-serif" font-size="11" lengthAdjust="spacingAndGlyphs" text-decoration="underline" textLength="60" x="172" y="194.8555">ofUuid(): Id</text><ellipse cx="163" cy="204.1758" fill="#84BE84" rx="3" ry="3" style="stroke: #038048; stroke-width: 1.0;"/><text fill="#000000" font-family="sans-serif" font-size="11" lengthAdjust="spacingAndGlyphs" textLength="107" x="172" y="207.8105">stringValue(): String</text><ellipse cx="163" cy="217.1309" fill="#84BE84" rx="3" ry="3" style="stroke: #038048; stroke-width: 1.0;"/><text fill="#000000" font-family="sans-serif" font-size="11" lengthAdjust="spacingAndGlyphs" textLength="99" x="172" y="220.7656">compareTo(Id): int</text></a><!--MD5=[5a5af9b0547913863cbe0ddf55a9ab5e]
class java.io.Serializable--><rect codeLine="12" fill="#FEFECE" filter="url(#f1hcrurcm7udoz)" height="38.2656" id="java.io.Serializable" style="stroke: #A80036; stroke-width: 1.5;" width="111" x="7" y="20.5"/><ellipse cx="22" cy="39.6328" fill="#B4A7E5" rx="11" ry="11" style="stroke: #A80036; stroke-width: 1.0;"/><path d="M18.4277,35.8979 L18.4277,33.7397 L25.8071,33.7397 L25.8071,35.8979 L23.3418,35.8979 L23.3418,43.9746 L25.8071,43.9746 L25.8071,46.1328 L18.4277,46.1328 L18.4277,43.9746 L20.8931,43.9746 L20.8931,35.8979 Z "/><text fill="#000000" font-family="sans-serif" font-size="14" font-style="italic" lengthAdjust="spacingAndGlyphs" textLength="79" x="36" y="39.0352">Serializable</text><text fill="#000000" font-family="sans-serif" font-size="10" font-style="italic" lengthAdjust="spacingAndGlyphs" textLength="32" x="59.5" y="51.6563">java.io</text><!--MD5=[008d82c49f85b4d489e041917c99c847]
class java.lang.Comparable--><rect codeLine="13" fill="#FEFECE" filter="url(#f1hcrurcm7udoz)" height="59.2207" id="java.lang.Comparable" style="stroke: #A80036; stroke-width: 1.5;" width="131" x="153" y="10"/><ellipse cx="168" cy="29.1328" fill="#B4A7E5" rx="11" ry="11" style="stroke: #A80036; stroke-width: 1.0;"/><path d="M164.4277,25.3979 L164.4277,23.2397 L171.8071,23.2397 L171.8071,25.3979 L169.3418,25.3979 L169.3418,33.4746 L171.8071,33.4746 L171.8071,35.6328 L164.4277,35.6328 L164.4277,33.4746 L166.8931,33.4746 L166.8931,25.3979 Z "/><text fill="#000000" font-family="sans-serif" font-size="14" font-style="italic" lengthAdjust="spacingAndGlyphs" textLength="84" x="182" y="28.5352">Comparable</text><text fill="#000000" font-family="sans-serif" font-size="10" font-style="italic" lengthAdjust="spacingAndGlyphs" textLength="44" x="202" y="41.1563">java.lang</text><rect fill="#FFFFFF" height="16.1328" style="stroke: #000000; stroke-width: 1.0; stroke-dasharray: 2.0,2.0;" width="13" x="274" y="7"/><text fill="#000000" font-family="sans-serif" font-size="12" font-style="italic" lengthAdjust="spacingAndGlyphs" textLength="11" x="275" y="19.6016">Id</text><line style="stroke: #A80036; stroke-width: 1.5;" x1="154" x2="283" y1="48.2656" y2="48.2656"/><ellipse cx="164" cy="59.2656" fill="#84BE84" rx="3" ry="3" style="stroke: #038048; stroke-width: 1.0;"/><text fill="#000000" font-family="sans-serif" font-size="11" font-style="italic" lengthAdjust="spacingAndGlyphs" textLength="99" x="173" y="62.9004">compareTo(Id): int</text><!--MD5=[4518c15e9d85f51a4fb8ef776008ab41]
class it.tidalwave.util.StringValue--><a href="StringValue.html" target="_top" title="StringValue.html" xlink:actuate="onRequest" xlink:href="StringValue.html" xlink:show="new" xlink:title="StringValue.html" xlink:type="simple"><rect codeLine="16" fill="#FEFECE" filter="url(#f1hcrurcm7udoz)" height="59.2207" id="it.tidalwave.util.StringValue" style="stroke: #A80036; stroke-width: 1.5;" width="133" x="319" y="10"/><ellipse cx="343.9" cy="29.1328" fill="#B4A7E5" rx="11" ry="11" style="stroke: #A80036; stroke-width: 1.0;"/><path d="M340.3277,25.3979 L340.3277,23.2397 L347.7071,23.2397 L347.7071,25.3979 L345.2418,25.3979 L345.2418,33.4746 L347.7071,33.4746 L347.7071,35.6328 L340.3277,35.6328 L340.3277,33.4746 L342.7931,33.4746 L342.7931,25.3979 Z "/><text fill="#000000" font-family="sans-serif" font-size="14" font-style="italic" lengthAdjust="spacingAndGlyphs" textLength="79" x="360.1" y="28.5352">StringValue</text><text fill="#000000" font-family="sans-serif" font-size="10" font-style="italic" lengthAdjust="spacingAndGlyphs" textLength="76" x="361.6" y="41.1563">it.tidalwave.util</text><line style="stroke: #A80036; stroke-width: 1.5;" x1="320" x2="451" y1="48.2656" y2="48.2656"/><ellipse cx="330" cy="59.2656" fill="#84BE84" rx="3" ry="3" style="stroke: #038048; stroke-width: 1.0;"/><text fill="#000000" font-family="sans-serif" font-size="11" font-style="italic" lengthAdjust="spacingAndGlyphs" textLength="107" x="339" y="62.9004">stringValue(): String</text></a><!--MD5=[b0f2e42e12d28fe69882ec6d18370701]
reverse link java.io.Serializable to it.tidalwave.util.Id--><path codeLine="20" d="M99.2425,72.1207 C118.2678,89.0118 141.8913,109.9852 163.0816,128.7984 " fill="none" id="java.io.Serializable-backto-it.tidalwave.util.Id" style="stroke: #A80036; stroke-width: 1.0; stroke-dasharray: 7.0,7.0;"/><polygon fill="none" points="94.4998,77.2709,84.1911,58.7578,103.7947,66.8016,94.4998,77.2709" style="stroke: #A80036; stroke-width: 1.0;"/><!--MD5=[2c7688b25d3db7fc765ad68be3b963b6]
reverse link java.lang.Comparable to it.tidalwave.util.Id--><path codeLine="21" d="M218.5,89.5739 C218.5,102.4149 218.5,116.211 218.5,128.9973 " fill="none" id="java.lang.Comparable-backto-it.tidalwave.util.Id" style="stroke: #A80036; stroke-width: 1.0; stroke-dasharray: 7.0,7.0;"/><polygon fill="none" points="211.5001,89.2118,218.5,69.2117,225.5001,89.2117,211.5001,89.2118" style="stroke: #A80036; stroke-width: 1.0;"/><!--MD5=[746d88cd5497806737a44eb6b58b5f46]
reverse link it.tidalwave.util.StringValue to it.tidalwave.util.Id--><path codeLine="22" d="M334.0365,82.1808 C316.1767,96.9927 296.012,113.7161 277.5863,128.9973 " fill="none" id="it.tidalwave.util.StringValue-backto-it.tidalwave.util.Id" style="stroke: #A80036; stroke-width: 1.0; stroke-dasharray: 7.0,7.0;"/><polygon fill="none" points="329.8111,76.591,349.6743,69.2117,338.7483,87.3673,329.8111,76.591" style="stroke: #A80036; stroke-width: 1.0;"/><text fill="#888888" font-family="sans-serif" font-size="10" lengthAdjust="spacingAndGlyphs" textLength="188" x="132.5" y="249.7539">UMLDoclet 2.0.12, PlantUML 1.2020.16</text><!--MD5=[8aa964d1c0258cb145f02c54bd676c79]
@startuml
    set namespaceSeparator none
    hide empty fields
    hide empty methods

    class "<size:14>Id\n<size:10>it.tidalwave.util" as it.tidalwave.util.Id [[Id.html]] {
        {static} +of(Object): Id
        {static} +ofUuid(): Id
        +stringValue(): String
        +compareTo(Id): int
    }

    interface "<size:14>Serializable\n<size:10>java.io" as java.io.Serializable
    interface "<size:14>Comparable\n<size:10>java.lang" as java.lang.Comparable<Id> {
        {abstract} +compareTo(Id): int
    }
    interface "<size:14>StringValue\n<size:10>it.tidalwave.util" as it.tidalwave.util.StringValue [[StringValue.html]] {
        {abstract} +stringValue(): String
    }

    java.io.Serializable <|.. it.tidalwave.util.Id
    java.lang.Comparable <|.. it.tidalwave.util.Id
    it.tidalwave.util.StringValue <|.. it.tidalwave.util.Id

    center footer UMLDoclet 2.0.12, PlantUML 1.2020.16
@enduml

PlantUML version 1.2020.16(Sun Aug 23 22:20:43 CEST 2020)
(APACHE source distribution)
Java Runtime: OpenJDK Runtime Environment
JVM: OpenJDK 64-Bit Server VM
Default Encoding: UTF-8
Language: en
Country: GB
--></g></svg>