<?xml version="1.0" encoding="UTF-8" standalone="no"?><svg xmlns="http://www.w3.org/2000/svg" xmlns:xlink="http://www.w3.org/1999/xlink" contentScriptType="application/ecmascript" contentStyleType="text/css" height="291px" preserveAspectRatio="none" style="width:513px;height:291px;" version="1.1" viewBox="0 0 513 291" width="513px" zoomAndPan="magnify"><defs><filter height="300%" id="f14vk8dx0kmom6" width="300%" x="-1" y="-1"><feGaussianBlur result="blurOut" stdDeviation="2.0"/><feColorMatrix in="blurOut" result="blurOut2" type="matrix" values="0 0 0 0 0 0 0 0 0 0 0 0 0 0 0 0 0 0 .4 0"/><feOffset dx="4.0" dy="4.0" in="blurOut2" result="blurOut3"/><feBlend in="SourceGraphic" in2="blurOut3" mode="normal"/></filter></defs><g><!--MD5=[5cc06edb1a700366e6f59c1736e380e6]
class it.tidalwave.util.NotFoundException--><a href="NotFoundException.html" target="_top" title="NotFoundException.html" xlink:actuate="onRequest" xlink:href="NotFoundException.html" xlink:show="new" xlink:title="NotFoundException.html" xlink:type="simple"><rect codeLine="5" fill="#FEFECE" filter="url(#f14vk8dx0kmom6)" height="149.9063" id="it.tidalwave.util.NotFoundException" style="stroke: #A80036; stroke-width: 1.5;" width="487" x="7" y="105"/><ellipse cx="178.25" cy="124.1328" fill="#ADD1B2" rx="11" ry="11" style="stroke: #A80036; stroke-width: 1.0;"/><path d="M180.7231,130.2759 Q180.1421,130.5747 179.5029,130.7241 Q178.8638,130.8735 178.1582,130.8735 Q175.6514,130.8735 174.3315,129.2217 Q173.0117,127.5698 173.0117,124.4487 Q173.0117,121.3193 174.3315,119.6675 Q175.6514,118.0156 178.1582,118.0156 Q178.8638,118.0156 179.5112,118.165 Q180.1587,118.3145 180.7231,118.6133 L180.7231,121.3359 Q180.0923,120.7549 179.4988,120.4851 Q178.9053,120.2153 178.2744,120.2153 Q176.9297,120.2153 176.2449,121.282 Q175.5601,122.3486 175.5601,124.4487 Q175.5601,126.5405 176.2449,127.6072 Q176.9297,128.6738 178.2744,128.6738 Q178.9053,128.6738 179.4988,128.4041 Q180.0923,128.1343 180.7231,127.5532 Z "/><text fill="#000000" font-family="sans-serif" font-size="14" lengthAdjust="spacingAndGlyphs" textLength="136" x="198.75" y="123.5352">NotFoundException</text><text fill="#000000" font-family="sans-serif" font-size="10" lengthAdjust="spacingAndGlyphs" textLength="76" x="228.75" y="136.1563">it.tidalwave.util</text><line style="stroke: #A80036; stroke-width: 1.5;" x1="8" x2="493" y1="143.2656" y2="143.2656"/><ellipse cx="18" cy="154.2656" fill="#84BE84" rx="3" ry="3" style="stroke: #038048; stroke-width: 1.0;"/><text fill="#000000" font-family="sans-serif" font-size="11" lengthAdjust="spacingAndGlyphs" textLength="114" x="27" y="157.9004">NotFoundException()</text><ellipse cx="18" cy="167.2207" fill="#84BE84" rx="3" ry="3" style="stroke: #038048; stroke-width: 1.0;"/><text fill="#000000" font-family="sans-serif" font-size="11" lengthAdjust="spacingAndGlyphs" textLength="146" x="27" y="170.8555">NotFoundException(String)</text><ellipse cx="18" cy="180.1758" fill="#84BE84" rx="3" ry="3" style="stroke: #038048; stroke-width: 1.0;"/><text fill="#000000" font-family="sans-serif" font-size="11" lengthAdjust="spacingAndGlyphs" textLength="170" x="27" y="183.8105">NotFoundException(Throwable)</text><ellipse cx="18" cy="193.1309" fill="#84BE84" rx="3" ry="3" style="stroke: #038048; stroke-width: 1.0;"/><text fill="#000000" font-family="sans-serif" font-size="11" lengthAdjust="spacingAndGlyphs" textLength="208" x="27" y="196.7656">NotFoundException(String, Throwable)</text><ellipse cx="18" cy="206.0859" fill="#84BE84" rx="3" ry="3" style="stroke: #038048; stroke-width: 1.0;"/><text fill="#000000" font-family="sans-serif" font-size="11" lengthAdjust="spacingAndGlyphs" text-decoration="underline" textLength="147" x="27" y="209.7207">throwWhenNull(T, String): T</text><ellipse cx="18" cy="219.041" fill="#84BE84" rx="3" ry="3" style="stroke: #038048; stroke-width: 1.0;"/><text fill="#000000" font-family="sans-serif" font-size="11" lengthAdjust="spacingAndGlyphs" text-decoration="underline" textLength="197" x="27" y="222.6758">throwWhenNull(T, String, Object...): T</text><ellipse cx="18" cy="231.9961" fill="#84BE84" rx="3" ry="3" style="stroke: #038048; stroke-width: 1.0;"/><text fill="#000000" font-family="sans-serif" font-size="11" lengthAdjust="spacingAndGlyphs" text-decoration="underline" textLength="411" x="27" y="235.6309">throwWhenEmpty(T extends Collection&lt;?&gt;, String): T extends Collection&lt;?&gt;</text><ellipse cx="18" cy="244.9512" fill="#84BE84" rx="3" ry="3" style="stroke: #038048; stroke-width: 1.0;"/><text fill="#000000" font-family="sans-serif" font-size="11" lengthAdjust="spacingAndGlyphs" text-decoration="underline" textLength="461" x="27" y="248.5859">throwWhenEmpty(T extends Collection&lt;?&gt;, String, Object...): T extends Collection&lt;?&gt;</text></a><!--MD5=[46c05dfe24a0851e179497c4631d3ff2]
class java.lang.Exception--><rect codeLine="16" fill="#FEFECE" filter="url(#f14vk8dx0kmom6)" height="38.2656" id="java.lang.Exception" style="stroke: #A80036; stroke-width: 1.5;" width="100" x="200.5" y="7"/><ellipse cx="215.5" cy="26.1328" fill="#ADD1B2" rx="11" ry="11" style="stroke: #A80036; stroke-width: 1.0;"/><path d="M217.9731,32.2759 Q217.3921,32.5747 216.7529,32.7241 Q216.1138,32.8735 215.4082,32.8735 Q212.9014,32.8735 211.5815,31.2217 Q210.2617,29.5698 210.2617,26.4487 Q210.2617,23.3193 211.5815,21.6675 Q212.9014,20.0156 215.4082,20.0156 Q216.1138,20.0156 216.7612,20.165 Q217.4087,20.3145 217.9731,20.6133 L217.9731,23.3359 Q217.3423,22.7549 216.7488,22.4851 Q216.1553,22.2153 215.5244,22.2153 Q214.1797,22.2153 213.4949,23.282 Q212.8101,24.3486 212.8101,26.4487 Q212.8101,28.5405 213.4949,29.6072 Q214.1797,30.6738 215.5244,30.6738 Q216.1553,30.6738 216.7488,30.4041 Q217.3423,30.1343 217.9731,29.5532 Z "/><text fill="#000000" font-family="sans-serif" font-size="14" lengthAdjust="spacingAndGlyphs" textLength="68" x="229.5" y="25.5352">Exception</text><text fill="#000000" font-family="sans-serif" font-size="10" lengthAdjust="spacingAndGlyphs" textLength="44" x="241.5" y="38.1563">java.lang</text><!--MD5=[a871297de4c939cd895b5186b73ca2a5]
reverse link java.lang.Exception to it.tidalwave.util.NotFoundException--><path codeLine="18" d="M250.5,65.4122 C250.5,77.5183 250.5,91.2668 250.5,104.934 " fill="none" id="java.lang.Exception-backto-it.tidalwave.util.NotFoundException" style="stroke: #A80036; stroke-width: 1.0;"/><polygon fill="none" points="243.5001,65.1929,250.5,45.1928,257.5001,65.1928,243.5001,65.1929" style="stroke: #A80036; stroke-width: 1.0;"/><text fill="#888888" font-family="sans-serif" font-size="10" lengthAdjust="spacingAndGlyphs" textLength="188" x="153.5" y="277.5742">UMLDoclet 2.0.12, PlantUML 1.2020.16</text><!--MD5=[81add908b3e99d34b7e029d9dbf84647]
@startuml
    set namespaceSeparator none
    hide empty fields
    hide empty methods

    class "<size:14>NotFoundException\n<size:10>it.tidalwave.util" as it.tidalwave.util.NotFoundException [[NotFoundException.html]] {
        +NotFoundException()
        +NotFoundException(String)
        +NotFoundException(Throwable)
        +NotFoundException(String, Throwable)
        {static} +throwWhenNull(T, String): T
        {static} +throwWhenNull(T, String, Object...): T
        {static} +throwWhenEmpty(T extends Collection<?>, String): T extends Collection<?>
        {static} +throwWhenEmpty(T extends Collection<?>, String, Object...): T extends Collection<?>
    }

    class "<size:14>Exception\n<size:10>java.lang" as java.lang.Exception

    java.lang.Exception <|- - it.tidalwave.util.NotFoundException

    center footer UMLDoclet 2.0.12, PlantUML 1.2020.16
@enduml

PlantUML version 1.2020.16(Sun Aug 23 22:20:43 CEST 2020)
(APACHE source distribution)
Java Runtime: OpenJDK Runtime Environment
JVM: OpenJDK 64-Bit Server VM
Default Encoding: UTF-8
Language: en
Country: GB
--></g></svg>