<?xml version="1.0" encoding="UTF-8" standalone="no"?><svg xmlns="http://www.w3.org/2000/svg" xmlns:xlink="http://www.w3.org/1999/xlink" contentScriptType="application/ecmascript" contentStyleType="text/css" height="96px" preserveAspectRatio="none" style="width:200px;height:96px;" version="1.1" viewBox="0 0 200 96" width="200px" zoomAndPan="magnify"><defs><filter height="300%" id="f1q3vpiq5ghhzq" width="300%" x="-1" y="-1"><feGaussianBlur result="blurOut" stdDeviation="2.0"/><feColorMatrix in="blurOut" result="blurOut2" type="matrix" values="0 0 0 0 0 0 0 0 0 0 0 0 0 0 0 0 0 0 .4 0"/><feOffset dx="4.0" dy="4.0" in="blurOut2" result="blurOut3"/><feBlend in="SourceGraphic" in2="blurOut3" mode="normal"/></filter></defs><g><!--MD5=[4518c15e9d85f51a4fb8ef776008ab41]
class it.tidalwave.util.StringValue--><a href="StringValue.html" target="_top" title="StringValue.html" xlink:actuate="onRequest" xlink:href="StringValue.html" xlink:show="new" xlink:title="StringValue.html" xlink:type="simple"><rect codeLine="5" fill="#FEFECE" filter="url(#f1q3vpiq5ghhzq)" height="59.2207" id="it.tidalwave.util.StringValue" style="stroke: #A80036; stroke-width: 1.5;" width="133" x="27.5" y="7"/><ellipse cx="52.4" cy="26.1328" fill="#B4A7E5" rx="11" ry="11" style="stroke: #A80036; stroke-width: 1.0;"/><path d="M48.8277,22.3979 L48.8277,20.2397 L56.2071,20.2397 L56.2071,22.3979 L53.7418,22.3979 L53.7418,30.4746 L56.2071,30.4746 L56.2071,32.6328 L48.8277,32.6328 L48.8277,30.4746 L51.2931,30.4746 L51.2931,22.3979 Z "/><text fill="#000000" font-family="sans-serif" font-size="14" font-style="italic" lengthAdjust="spacingAndGlyphs" textLength="79" x="68.6" y="25.5352">StringValue</text><text fill="#000000" font-family="sans-serif" font-size="10" font-style="italic" lengthAdjust="spacingAndGlyphs" textLength="76" x="70.1" y="38.1563">it.tidalwave.util</text><line style="stroke: #A80036; stroke-width: 1.5;" x1="28.5" x2="159.5" y1="45.2656" y2="45.2656"/><ellipse cx="38.5" cy="56.2656" fill="#84BE84" rx="3" ry="3" style="stroke: #038048; stroke-width: 1.0;"/><text fill="#000000" font-family="sans-serif" font-size="11" font-style="italic" lengthAdjust="spacingAndGlyphs" textLength="107" x="47.5" y="59.9004">stringValue(): String</text></a><text fill="#888888" font-family="sans-serif" font-size="10" lengthAdjust="spacingAndGlyphs" textLength="188" x="0" y="82.8887">UMLDoclet 2.0.12, PlantUML 1.2020.16</text><!--MD5=[72e31c7953f04419fee010df355c7ca0]
@startuml
    set namespaceSeparator none
    hide empty fields
    hide empty methods

    interface "<size:14>StringValue\n<size:10>it.tidalwave.util" as it.tidalwave.util.StringValue [[StringValue.html]] {
        {abstract} +stringValue(): String
    }

    center footer UMLDoclet 2.0.12, PlantUML 1.2020.16
@enduml

PlantUML version 1.2020.16(Sun Aug 23 22:20:43 CEST 2020)
(APACHE source distribution)
Java Runtime: OpenJDK Runtime Environment
JVM: OpenJDK 64-Bit Server VM
Default Encoding: UTF-8
Language: en
Country: GB
--></g></svg>