<?xml version="1.0" encoding="UTF-8" standalone="no"?><svg xmlns="http://www.w3.org/2000/svg" xmlns:xlink="http://www.w3.org/1999/xlink" contentScriptType="application/ecmascript" contentStyleType="text/css" height="408px" preserveAspectRatio="none" style="width:721px;height:408px;" version="1.1" viewBox="0 0 721 408" width="721px" zoomAndPan="magnify"><defs><filter height="300%" id="fpr1tqxpakzg2" width="300%" x="-1" y="-1"><feGaussianBlur result="blurOut" stdDeviation="2.0"/><feColorMatrix in="blurOut" result="blurOut2" type="matrix" values="0 0 0 0 0 0 0 0 0 0 0 0 0 0 0 0 0 0 .4 0"/><feOffset dx="4.0" dy="4.0" in="blurOut2" result="blurOut3"/><feBlend in="SourceGraphic" in2="blurOut3" mode="normal"/></filter></defs><g><!--MD5=[1f4f5be6e360c0b755fa8686c7b644b1]
cluster it.tidalwave.role.ui.javafx.example.large.mainscreen--><polygon fill="#FFFFFF" filter="url(#fpr1tqxpakzg2)" points="16,6,386,6,393,28.4883,699,28.4883,699,379,16,379,16,6" style="stroke: #000000; stroke-width: 1.5;"/><line style="stroke: #000000; stroke-width: 1.5;" x1="16" x2="393" y1="28.4883" y2="28.4883"/><text fill="#000000" font-family="sans-serif" font-size="14" font-weight="bold" lengthAdjust="spacingAndGlyphs" textLength="364" x="20" y="21.5352">it.tidalwave.role.ui.javafx.example.large.mainscreen</text><!--MD5=[2dd7f7d4674bc29ad2fb5c1230dd3a9e]
class it.tidalwave.role.ui.javafx.example.large.mainscreen.MainScreenPresentation--><a href="MainScreenPresentation.html" target="_top" title="MainScreenPresentation.html" xlink:actuate="onRequest" xlink:href="MainScreenPresentation.html" xlink:show="new" xlink:title="MainScreenPresentation.html" xlink:type="simple"><rect codeLine="3" fill="#FEFECE" filter="url(#fpr1tqxpakzg2)" height="138.6855" id="it.tidalwave.role.ui.javafx.example.large.mainscreen.MainScreenPresentation" style="stroke: #A80036; stroke-width: 1.5;" width="422" x="269" y="33"/><ellipse cx="407.75" cy="49" fill="#B4A7E5" rx="11" ry="11" style="stroke: #A80036; stroke-width: 1.0;"/><path d="M404.1777,45.2651 L404.1777,43.1069 L411.5571,43.1069 L411.5571,45.2651 L409.0918,45.2651 L409.0918,53.3418 L411.5571,53.3418 L411.5571,55.5 L404.1777,55.5 L404.1777,53.3418 L406.6431,53.3418 L406.6431,45.2651 Z "/><text fill="#000000" font-family="sans-serif" font-size="12" font-style="italic" lengthAdjust="spacingAndGlyphs" textLength="136" x="428.25" y="53.5352">MainScreenPresentation</text><line style="stroke: #A80036; stroke-width: 1.5;" x1="270" x2="690" y1="65" y2="65"/><line style="stroke: #A80036; stroke-width: 1.5;" x1="270" x2="690" y1="73" y2="73"/><ellipse cx="280" cy="84" fill="#84BE84" rx="3" ry="3" style="stroke: #038048; stroke-width: 1.0;"/><text fill="#000000" font-family="sans-serif" font-size="11" font-style="italic" lengthAdjust="spacingAndGlyphs" textLength="107" x="289" y="87.6348">bind(Bindings): void</text><ellipse cx="280" cy="96.9551" fill="#84BE84" rx="3" ry="3" style="stroke: #038048; stroke-width: 1.0;"/><text fill="#000000" font-family="sans-serif" font-size="11" font-style="italic" lengthAdjust="spacingAndGlyphs" textLength="80" x="289" y="100.5898">showUp(): void</text><ellipse cx="280" cy="109.9102" fill="#84BE84" rx="3" ry="3" style="stroke: #038048; stroke-width: 1.0;"/><text fill="#000000" font-family="sans-serif" font-size="11" font-style="italic" lengthAdjust="spacingAndGlyphs" textLength="393" x="289" y="113.5449">populate(PresentationModel, PresentationModel, PresentationModel): void</text><ellipse cx="280" cy="122.8652" fill="#84BE84" rx="3" ry="3" style="stroke: #038048; stroke-width: 1.0;"/><text fill="#000000" font-family="sans-serif" font-size="11" font-style="italic" lengthAdjust="spacingAndGlyphs" textLength="228" x="289" y="126.5">notify(UserNotificationWithFeedback): void</text><ellipse cx="280" cy="135.8203" fill="#84BE84" rx="3" ry="3" style="stroke: #038048; stroke-width: 1.0;"/><text fill="#000000" font-family="sans-serif" font-size="11" font-style="italic" lengthAdjust="spacingAndGlyphs" textLength="100" x="289" y="139.4551">notify(String): void</text><ellipse cx="280" cy="148.7754" fill="#84BE84" rx="3" ry="3" style="stroke: #038048; stroke-width: 1.0;"/><text fill="#000000" font-family="sans-serif" font-size="11" font-style="italic" lengthAdjust="spacingAndGlyphs" textLength="364" x="289" y="152.4102">pickFile(BoundProperty&lt;Path&gt;, UserNotificationWithFeedback): void</text><ellipse cx="280" cy="161.7305" fill="#84BE84" rx="3" ry="3" style="stroke: #038048; stroke-width: 1.0;"/><text fill="#000000" font-family="sans-serif" font-size="11" font-style="italic" lengthAdjust="spacingAndGlyphs" textLength="396" x="289" y="165.3652">pickDirectory(BoundProperty&lt;Path&gt;, UserNotificationWithFeedback): void</text></a><!--MD5=[b2e2f1b8e236666204488a9ed775c3b9]
class it.tidalwave.role.ui.javafx.example.large.mainscreen.MainScreenPresentation.Bindings--><a href="MainScreenPresentation.Bindings.html" target="_top" title="MainScreenPresentation.Bindings.html" xlink:actuate="onRequest" xlink:href="MainScreenPresentation.Bindings.html" xlink:show="new" xlink:title="MainScreenPresentation.Bindings.html" xlink:type="simple"><rect codeLine="13" fill="#FEFECE" filter="url(#fpr1tqxpakzg2)" height="138.6855" id="it.tidalwave.role.ui.javafx.example.large.mainscreen.MainScreenPresentation.Bindings" style="stroke: #A80036; stroke-width: 1.5;" width="261" x="349.5" y="232"/><ellipse cx="382.95" cy="248" fill="#ADD1B2" rx="11" ry="11" style="stroke: #A80036; stroke-width: 1.0;"/><path d="M385.4231,254.1431 Q384.8421,254.4419 384.2029,254.5913 Q383.5638,254.7407 382.8582,254.7407 Q380.3514,254.7407 379.0315,253.0889 Q377.7117,251.437 377.7117,248.3159 Q377.7117,245.1865 379.0315,243.5347 Q380.3514,241.8828 382.8582,241.8828 Q383.5638,241.8828 384.2112,242.0322 Q384.8587,242.1816 385.4231,242.4805 L385.4231,245.2031 Q384.7923,244.6221 384.1988,244.3523 Q383.6053,244.0825 382.9744,244.0825 Q381.6297,244.0825 380.9449,245.1492 Q380.2601,246.2158 380.2601,248.3159 Q380.2601,250.4077 380.9449,251.4744 Q381.6297,252.541 382.9744,252.541 Q383.6053,252.541 384.1988,252.2712 Q384.7923,252.0015 385.4231,251.4204 Z "/><text fill="#000000" font-family="sans-serif" font-size="12" lengthAdjust="spacingAndGlyphs" textLength="188" x="401.05" y="252.5352">MainScreenPresentation.Bindings</text><line style="stroke: #A80036; stroke-width: 1.5;" x1="350.5" x2="609.5" y1="264" y2="264"/><ellipse cx="360.5" cy="275" fill="none" rx="3" ry="3" style="stroke: #038048; stroke-width: 1.0;"/><text fill="#000000" font-family="sans-serif" font-size="11" lengthAdjust="spacingAndGlyphs" textLength="137" x="369.5" y="278.6348">buttonAction: UserAction</text><ellipse cx="360.5" cy="287.9551" fill="none" rx="3" ry="3" style="stroke: #038048; stroke-width: 1.0;"/><text fill="#000000" font-family="sans-serif" font-size="11" lengthAdjust="spacingAndGlyphs" textLength="148" x="369.5" y="291.5898">actionDialogOk: UserAction</text><ellipse cx="360.5" cy="300.9102" fill="none" rx="3" ry="3" style="stroke: #038048; stroke-width: 1.0;"/><text fill="#000000" font-family="sans-serif" font-size="11" lengthAdjust="spacingAndGlyphs" textLength="184" x="369.5" y="304.5449">actionDialogCancelOk: UserAction</text><ellipse cx="360.5" cy="313.8652" fill="none" rx="3" ry="3" style="stroke: #038048; stroke-width: 1.0;"/><text fill="#000000" font-family="sans-serif" font-size="11" lengthAdjust="spacingAndGlyphs" textLength="138" x="369.5" y="317.5">actionPickFile: UserAction</text><ellipse cx="360.5" cy="326.8203" fill="none" rx="3" ry="3" style="stroke: #038048; stroke-width: 1.0;"/><text fill="#000000" font-family="sans-serif" font-size="11" lengthAdjust="spacingAndGlyphs" textLength="170" x="369.5" y="330.4551">actionPickDirectory: UserAction</text><ellipse cx="360.5" cy="339.7754" fill="none" rx="3" ry="3" style="stroke: #038048; stroke-width: 1.0;"/><text fill="#000000" font-family="sans-serif" font-size="11" lengthAdjust="spacingAndGlyphs" textLength="203" x="369.5" y="343.4102">textProperty: BoundProperty&lt;String&gt;</text><ellipse cx="360.5" cy="352.7305" fill="none" rx="3" ry="3" style="stroke: #038048; stroke-width: 1.0;"/><text fill="#000000" font-family="sans-serif" font-size="11" lengthAdjust="spacingAndGlyphs" textLength="235" x="369.5" y="356.3652">booleanProperty: BoundProperty&lt;Boolean&gt;</text><line style="stroke: #A80036; stroke-width: 1.5;" x1="350.5" x2="609.5" y1="362.6855" y2="362.6855"/></a><!--MD5=[ec975690564b8aeefee9d3f1bc130b22]
class it.tidalwave.role.ui.javafx.example.large.mainscreen.MainScreenPresentationControl--><a href="MainScreenPresentationControl.html" target="_top" title="MainScreenPresentationControl.html" xlink:actuate="onRequest" xlink:href="MainScreenPresentationControl.html" xlink:show="new" xlink:title="MainScreenPresentationControl.html" xlink:type="simple"><rect codeLine="23" fill="#FEFECE" filter="url(#fpr1tqxpakzg2)" height="60.9551" id="it.tidalwave.role.ui.javafx.example.large.mainscreen.MainScreenPresentationControl" style="stroke: #A80036; stroke-width: 1.5;" width="209" x="24.5" y="72"/><ellipse cx="39.5" cy="88" fill="#B4A7E5" rx="11" ry="11" style="stroke: #A80036; stroke-width: 1.0;"/><path d="M35.9277,84.2651 L35.9277,82.1069 L43.3071,82.1069 L43.3071,84.2651 L40.8418,84.2651 L40.8418,92.3418 L43.3071,92.3418 L43.3071,94.5 L35.9277,94.5 L35.9277,92.3418 L38.3931,92.3418 L38.3931,84.2651 Z "/><text fill="#000000" font-family="sans-serif" font-size="12" font-style="italic" lengthAdjust="spacingAndGlyphs" textLength="177" x="53.5" y="92.5352">MainScreenPresentationControl</text><line style="stroke: #A80036; stroke-width: 1.5;" x1="25.5" x2="232.5" y1="104" y2="104"/><line style="stroke: #A80036; stroke-width: 1.5;" x1="25.5" x2="232.5" y1="112" y2="112"/><ellipse cx="35.5" cy="123" fill="#84BE84" rx="3" ry="3" style="stroke: #038048; stroke-width: 1.0;"/><text fill="#000000" font-family="sans-serif" font-size="11" font-style="italic" lengthAdjust="spacingAndGlyphs" textLength="62" x="44.5" y="126.6348">start(): void</text></a><!--MD5=[0254cf9a10f208c5114e43eeb6640ff7]
reverse link it.tidalwave.role.ui.javafx.example.large.mainscreen.MainScreenPresentation to it.tidalwave.role.ui.javafx.example.large.mainscreen.MainScreenPresentation.Bindings--><path codeLine="27" d="M480,187.3733 C480,202.2387 480,217.5493 480,231.9388 " fill="none" id="it.tidalwave.role.ui.javafx.example.large.mainscreen.MainScreenPresentation-backto-it.tidalwave.role.ui.javafx.example.large.mainscreen.MainScreenPresentation.Bindings" style="stroke: #A80036; stroke-width: 1.0;"/><ellipse cx="480.0001" cy="180.1005" fill="#FFFFFF" rx="8" ry="8" style="stroke: #A80036; stroke-width: 1.0;"/><line style="stroke: #A80036; stroke-width: 1.0;" x1="480.0002" x2="480" y1="188.1005" y2="172.1005"/><line style="stroke: #A80036; stroke-width: 1.0;" x1="472.0001" x2="488.0001" y1="180.1006" y2="180.1004"/><text fill="#888888" font-family="sans-serif" font-size="10" lengthAdjust="spacingAndGlyphs" textLength="188" x="257.5" y="394.668">UMLDoclet 2.0.12, PlantUML 1.2020.16</text><!--MD5=[b761ad1a3dd7fbad3d0036c7361985a9]
@startuml
    namespace it.tidalwave.role.ui.javafx.example.large.mainscreen {

        interface MainScreenPresentation [[MainScreenPresentation.html]] {
            {abstract} +bind(Bindings): void
            {abstract} +showUp(): void
            {abstract} +populate(PresentationModel, PresentationModel, PresentationModel): void
            {abstract} +notify(UserNotificationWithFeedback): void
            {abstract} +notify(String): void
            {abstract} +pickFile(BoundProperty<Path>, UserNotificationWithFeedback): void
            {abstract} +pickDirectory(BoundProperty<Path>, UserNotificationWithFeedback): void
        }

        class it.tidalwave.role.ui.javafx.example.large.mainscreen.MainScreenPresentation.Bindings [[MainScreenPresentation.Bindings.html]] {
            +buttonAction: UserAction
            +actionDialogOk: UserAction
            +actionDialogCancelOk: UserAction
            +actionPickFile: UserAction
            +actionPickDirectory: UserAction
            +textProperty: BoundProperty<String>
            +booleanProperty: BoundProperty<Boolean>
        }

        interface MainScreenPresentationControl [[MainScreenPresentationControl.html]] {
            {abstract} +start(): void
        }

        MainScreenPresentation +- - it.tidalwave.role.ui.javafx.example.large.mainscreen.MainScreenPresentation.Bindings
    }

    center footer UMLDoclet 2.0.12, PlantUML 1.2020.16
@enduml

PlantUML version 1.2020.16(Sun Aug 23 22:20:43 CEST 2020)
(APACHE source distribution)
Java Runtime: OpenJDK Runtime Environment
JVM: OpenJDK 64-Bit Server VM
Default Encoding: UTF-8
Language: en
Country: GB
--></g></svg>