@startuml
    set namespaceSeparator none
    hide empty fields
    hide empty methods

    interface "<size:14>Accounting\n<size:10>it.tidalwave.accounting.model" as it.tidalwave.accounting.model.Accounting [[Accounting.html]] {
        {static} +createNew(): Accounting
        {abstract} +getCustomerRegistry(): CustomerRegistry
        {abstract} +getProjectRegistry(): ProjectRegistry
        {abstract} +getInvoiceRegistry(): InvoiceRegistry
    }

    interface "<size:14>As\n<size:10>it.tidalwave.util" as it.tidalwave.util.As {
        {abstract} +maybeAs(Class<? extends T>): Optional<T>
        {abstract} +asMany(Class<? extends T>): Collection<T>
    }

    it.tidalwave.util.As <|-- it.tidalwave.accounting.model.Accounting

    center footer UMLDoclet 2.0.12, PlantUML 1.2020.16
@enduml
