@startuml
    set namespaceSeparator none
    hide empty fields
    hide empty methods

    interface "<size:14>CustomerRegistry.Finder\n<size:10>it.tidalwave.accounting.model" as it.tidalwave.accounting.model.CustomerRegistry.Finder [[CustomerRegistry.Finder.html]] {
        {abstract} +withId(Id): Finder
    }

    interface "<size:14>Finder\n<size:10>it.tidalwave.util" as it.tidalwave.util.Finder<Customer> {
        {abstract} +from(int): Finder<T>
        {abstract} +max(int): Finder<T>
        {abstract} +sort(SortCriterion, SortDirection): Finder<T>
        {abstract} +results(): List<T>
        {abstract} +count(): int
    }
    interface "<size:14>ExtendedFinderSupport\n<size:10>it.tidalwave.util.spi" as it.tidalwave.util.spi.ExtendedFinderSupport<Customer, Finder> {
        {abstract} +from(int): Finder
        {abstract} +max(int): Finder
        {abstract} +sort(SortCriterion): Finder
        {abstract} +sort(SortCriterion, SortDirection): Finder
        {abstract} +withContext(Object): Finder
    }
    interface "<size:14>CustomerRegistry\n<size:10>it.tidalwave.accounting.model" as it.tidalwave.accounting.model.CustomerRegistry [[CustomerRegistry.html]] {
        {abstract} +findCustomers(): Finder
        {abstract} +addCustomer(): Builder
    }

    it.tidalwave.util.Finder <|-- it.tidalwave.accounting.model.CustomerRegistry.Finder
    it.tidalwave.util.spi.ExtendedFinderSupport <|-- it.tidalwave.accounting.model.CustomerRegistry.Finder
    it.tidalwave.accounting.model.CustomerRegistry +-- it.tidalwave.accounting.model.CustomerRegistry.Finder

    center footer UMLDoclet 2.0.12, PlantUML 1.2020.16
@enduml
