<?xml version="1.0" encoding="UTF-8" standalone="no"?><svg xmlns="http://www.w3.org/2000/svg" xmlns:xlink="http://www.w3.org/1999/xlink" contentScriptType="application/ecmascript" contentStyleType="text/css" height="75px" preserveAspectRatio="none" style="width:200px;height:75px;" version="1.1" viewBox="0 0 200 75" width="200px" zoomAndPan="magnify"><defs><filter height="300%" id="f15tmzmgbzttva" width="300%" x="-1" y="-1"><feGaussianBlur result="blurOut" stdDeviation="2.0"/><feColorMatrix in="blurOut" result="blurOut2" type="matrix" values="0 0 0 0 0 0 0 0 0 0 0 0 0 0 0 0 0 0 .4 0"/><feOffset dx="4.0" dy="4.0" in="blurOut2" result="blurOut3"/><feBlend in="SourceGraphic" in2="blurOut3" mode="normal"/></filter></defs><g><!--MD5=[3caad41f6af74ae0aa918d278991ae56]
class it.tidalwave.role.spring.mock.MockRole1--><a href="MockRole1.html" target="_top" title="MockRole1.html" xlink:actuate="onRequest" xlink:href="MockRole1.html" xlink:show="new" xlink:title="MockRole1.html" xlink:type="simple"><rect codeLine="5" fill="#FEFECE" filter="url(#f15tmzmgbzttva)" height="38.2656" id="it.tidalwave.role.spring.mock.MockRole1" style="stroke: #A80036; stroke-width: 1.5;" width="173" x="7.5" y="7"/><ellipse cx="22.5" cy="26.1328" fill="#B4A7E5" rx="11" ry="11" style="stroke: #A80036; stroke-width: 1.0;"/><path d="M18.9277,22.3979 L18.9277,20.2397 L26.3071,20.2397 L26.3071,22.3979 L23.8418,22.3979 L23.8418,30.4746 L26.3071,30.4746 L26.3071,32.6328 L18.9277,32.6328 L18.9277,30.4746 L21.3931,30.4746 L21.3931,22.3979 Z "/><text fill="#000000" font-family="sans-serif" font-size="14" font-style="italic" lengthAdjust="spacingAndGlyphs" textLength="75" x="69.5" y="25.5352">MockRole1</text><text fill="#000000" font-family="sans-serif" font-size="10" font-style="italic" lengthAdjust="spacingAndGlyphs" textLength="141" x="36.5" y="38.1563">it.tidalwave.role.spring.mock</text></a><text fill="#888888" font-family="sans-serif" font-size="10" lengthAdjust="spacingAndGlyphs" textLength="188" x="0" y="61.9336">UMLDoclet 2.0.12, PlantUML 1.2020.16</text><!--MD5=[df5b83f58089ff40cc2c548f06712831]
@startuml
    set namespaceSeparator none
    hide empty fields
    hide empty methods

    interface "<size:14>MockRole1\n<size:10>it.tidalwave.role.spring.mock" as it.tidalwave.role.spring.mock.MockRole1 [[MockRole1.html]]

    center footer UMLDoclet 2.0.12, PlantUML 1.2020.16
@enduml

PlantUML version 1.2020.16(Sun Aug 23 22:20:43 CEST 2020)
(APACHE source distribution)
Java Runtime: OpenJDK Runtime Environment
JVM: OpenJDK 64-Bit Server VM
Default Encoding: UTF-8
Language: en
Country: GB
--></g></svg>