@startuml
    ' Copyright to this UML and generated images belongs to the author of the corresponding Java sources.

    ' This UML was generated by UMLDoclet (C) Copyright 2016-2024 Talsma ICT.
    ' UMLDoclet 2.2.1 is licensed under the Apache License, version 2.0
    ' and contains parts of PlantUML 1.2024.7 (ASL) Copyright 2009-2024, Arnaud Roques.

    !pragma layout smetana

    set namespaceSeparator none
    hide empty fields
    hide empty methods

    interface "<size:14>TxManager\n<size:10>it.tidalwave.thesefoolishthings.examples.jpafinderexample" as it.tidalwave.thesefoolishthings.examples.jpafinderexample.TxManager [[TxManager.html]] {
        {static} +getInstance(): TxManager
        {abstract} +computeInTx(Function<? super EntityManager, T>): T
        +runInTx(Consumer<? super EntityManager>): void
        +close(): void
    }

    interface "<size:14>AutoCloseable\n<size:10>java.lang" as java.lang.AutoCloseable {
        {abstract} +close(): void
    }
    class "<size:14>TxManager.__\n<size:10>it.tidalwave.thesefoolishthings.examples.jpafinderexample" as it.tidalwave.thesefoolishthings.examples.jpafinderexample.TxManager.__ [[TxManager.__.html]]

    java.lang.AutoCloseable <|-- it.tidalwave.thesefoolishthings.examples.jpafinderexample.TxManager
    it.tidalwave.thesefoolishthings.examples.jpafinderexample.TxManager +-- it.tidalwave.thesefoolishthings.examples.jpafinderexample.TxManager.__

    <style>
        footer {
            HyperLinkColor #8
            HyperLinkUnderlineThickness 0
        }
    </style>
    footer \n[[https://github.com/talsma-ict/umldoclet UMLDoclet 2.2.1]]
    ' Generated 2024-12-19T00:22:25.168688+01:00[Europe/Rome]
@enduml
