@startuml
    set namespaceSeparator none
    hide empty fields
    hide empty methods

    class "<size:14>JavaFxJobEventExplorerPresentation\n<size:10>it.tidalwave.accounting.ui.jobeventexplorer.impl.javafx" as it.tidalwave.accounting.ui.jobeventexplorer.impl.javafx.JavaFxJobEventExplorerPresentation [[JavaFxJobEventExplorerPresentation.html]] {
    }

    interface "<size:14>JobEventExplorerPresentation\n<size:10>it.tidalwave.accounting.ui.jobeventexplorer" as it.tidalwave.accounting.ui.jobeventexplorer.JobEventExplorerPresentation [[http://bluehour.tidalwave.it/bluehour-modules/it-tidalwave-accounting-ui-jobeventexplorer/apidocs/it/tidalwave/accounting/ui/jobeventexplorer/JobEventExplorerPresentation.html?is-external=true]] {
        {abstract} +populate(PresentationModel): void
    }

    it.tidalwave.accounting.ui.jobeventexplorer.JobEventExplorerPresentation <|.. it.tidalwave.accounting.ui.jobeventexplorer.impl.javafx.JavaFxJobEventExplorerPresentation

    center footer UMLDoclet 2.0.12, PlantUML 1.2020.16
@enduml
