<?xml version="1.0" encoding="UTF-8" standalone="no"?><svg xmlns="http://www.w3.org/2000/svg" xmlns:xlink="http://www.w3.org/1999/xlink" contentScriptType="application/ecmascript" contentStyleType="text/css" height="161px" preserveAspectRatio="none" style="width:548px;height:161px;" version="1.1" viewBox="0 0 548 161" width="548px" zoomAndPan="magnify"><defs><filter height="300%" id="f1kcxx9t8vhgee" width="300%" x="-1" y="-1"><feGaussianBlur result="blurOut" stdDeviation="2.0"/><feColorMatrix in="blurOut" result="blurOut2" type="matrix" values="0 0 0 0 0 0 0 0 0 0 0 0 0 0 0 0 0 0 .4 0"/><feOffset dx="4.0" dy="4.0" in="blurOut2" result="blurOut3"/><feBlend in="SourceGraphic" in2="blurOut3" mode="normal"/></filter></defs><g><!--MD5=[b0418254fc79ad1b4f779ae46fe38922]
class it.tidalwave.role.spring.SpringAsSupportTest--><a href="SpringAsSupportTest.html" target="_top" title="SpringAsSupportTest.html" xlink:actuate="onRequest" xlink:href="SpringAsSupportTest.html" xlink:show="new" xlink:title="SpringAsSupportTest.html" xlink:type="simple"><rect codeLine="5" fill="#FEFECE" filter="url(#f1kcxx9t8vhgee)" height="123.9961" id="it.tidalwave.role.spring.SpringAsSupportTest" style="stroke: #A80036; stroke-width: 1.5;" width="522" x="7" y="7"/><ellipse cx="190.75" cy="26.1328" fill="#ADD1B2" rx="11" ry="11" style="stroke: #A80036; stroke-width: 1.0;"/><path d="M193.2231,32.2759 Q192.6421,32.5747 192.0029,32.7241 Q191.3638,32.8735 190.6582,32.8735 Q188.1514,32.8735 186.8315,31.2217 Q185.5117,29.5698 185.5117,26.4487 Q185.5117,23.3193 186.8315,21.6675 Q188.1514,20.0156 190.6582,20.0156 Q191.3638,20.0156 192.0112,20.165 Q192.6587,20.3145 193.2231,20.6133 L193.2231,23.3359 Q192.5923,22.7549 191.9988,22.4851 Q191.4053,22.2153 190.7744,22.2153 Q189.4297,22.2153 188.7449,23.282 Q188.0601,24.3486 188.0601,26.4487 Q188.0601,28.5405 188.7449,29.6072 Q189.4297,30.6738 190.7744,30.6738 Q191.4053,30.6738 191.9988,30.4041 Q192.5923,30.1343 193.2231,29.5532 Z "/><text fill="#000000" font-family="sans-serif" font-size="14" lengthAdjust="spacingAndGlyphs" textLength="146" x="211.25" y="25.5352">SpringAsSupportTest</text><text fill="#000000" font-family="sans-serif" font-size="10" lengthAdjust="spacingAndGlyphs" textLength="112" x="228.25" y="38.1563">it.tidalwave.role.spring</text><line style="stroke: #A80036; stroke-width: 1.5;" x1="8" x2="528" y1="45.2656" y2="45.2656"/><ellipse cx="18" cy="56.2656" fill="#84BE84" rx="3" ry="3" style="stroke: #038048; stroke-width: 1.0;"/><text fill="#000000" font-family="sans-serif" font-size="11" lengthAdjust="spacingAndGlyphs" textLength="67" x="27" y="59.9004">setup(): void</text><ellipse cx="18" cy="69.2207" fill="#84BE84" rx="3" ry="3" style="stroke: #038048; stroke-width: 1.0;"/><text fill="#000000" font-family="sans-serif" font-size="11" lengthAdjust="spacingAndGlyphs" textLength="319" x="27" y="72.8555">must_inject_a_role_properly_assigning_its_owner_1(): void</text><ellipse cx="18" cy="82.1758" fill="#84BE84" rx="3" ry="3" style="stroke: #038048; stroke-width: 1.0;"/><text fill="#000000" font-family="sans-serif" font-size="11" lengthAdjust="spacingAndGlyphs" textLength="496" x="27" y="85.8105">must_inject_a_role_supporting_multiple_datum_types_properly_assigning_its_owner(): void</text><ellipse cx="18" cy="95.1309" fill="#84BE84" rx="3" ry="3" style="stroke: #038048; stroke-width: 1.0;"/><text fill="#000000" font-family="sans-serif" font-size="11" lengthAdjust="spacingAndGlyphs" textLength="396" x="27" y="98.7656">must_throw_AsException_when_asking_for_an_unavailable_role_1(): void</text><ellipse cx="18" cy="108.0859" fill="#84BE84" rx="3" ry="3" style="stroke: #038048; stroke-width: 1.0;"/><text fill="#000000" font-family="sans-serif" font-size="11" lengthAdjust="spacingAndGlyphs" textLength="396" x="27" y="111.7207">must_throw_AsException_when_asking_for_an_unavailable_role_2(): void</text><ellipse cx="18" cy="121.041" fill="#84BE84" rx="3" ry="3" style="stroke: #038048; stroke-width: 1.0;"/><text fill="#000000" font-family="sans-serif" font-size="11" lengthAdjust="spacingAndGlyphs" textLength="406" x="27" y="124.6758">must_return_the_datum_object_when_it_directly_implements_a_role(): void</text></a><text fill="#888888" font-family="sans-serif" font-size="10" lengthAdjust="spacingAndGlyphs" textLength="188" x="174" y="147.6641">UMLDoclet 2.0.12, PlantUML 1.2020.16</text><!--MD5=[ab6f6085c9cc2396d7d9763019253115]
@startuml
    set namespaceSeparator none
    hide empty fields
    hide empty methods

    class "<size:14>SpringAsSupportTest\n<size:10>it.tidalwave.role.spring" as it.tidalwave.role.spring.SpringAsSupportTest [[SpringAsSupportTest.html]] {
        +setup(): void
        +must_inject_a_role_properly_assigning_its_owner_1(): void
        +must_inject_a_role_supporting_multiple_datum_types_properly_assigning_its_owner(): void
        +must_throw_AsException_when_asking_for_an_unavailable_role_1(): void
        +must_throw_AsException_when_asking_for_an_unavailable_role_2(): void
        +must_return_the_datum_object_when_it_directly_implements_a_role(): void
    }

    center footer UMLDoclet 2.0.12, PlantUML 1.2020.16
@enduml

PlantUML version 1.2020.16(Sun Aug 23 22:20:43 CEST 2020)
(APACHE source distribution)
Java Runtime: OpenJDK Runtime Environment
JVM: OpenJDK 64-Bit Server VM
Default Encoding: UTF-8
Language: en
Country: GB
--></g></svg>