<?xml version="1.0" encoding="UTF-8" standalone="no"?><svg xmlns="http://www.w3.org/2000/svg" xmlns:xlink="http://www.w3.org/1999/xlink" contentScriptType="application/ecmascript" contentStyleType="text/css" height="272px" preserveAspectRatio="none" style="width:395px;height:272px;" version="1.1" viewBox="0 0 395 272" width="395px" zoomAndPan="magnify"><defs><filter height="300%" id="f1esnxw09tf56u" width="300%" x="-1" y="-1"><feGaussianBlur result="blurOut" stdDeviation="2.0"/><feColorMatrix in="blurOut" result="blurOut2" type="matrix" values="0 0 0 0 0 0 0 0 0 0 0 0 0 0 0 0 0 0 .4 0"/><feOffset dx="4.0" dy="4.0" in="blurOut2" result="blurOut3"/><feBlend in="SourceGraphic" in2="blurOut3" mode="normal"/></filter></defs><g><!--MD5=[a75979cfab27c116a8f8089a48ea1c1e]
class it.tidalwave.role.spi.DefaultContextManagerTest--><a href="DefaultContextManagerTest.html" target="_top" title="DefaultContextManagerTest.html" xlink:actuate="onRequest" xlink:href="DefaultContextManagerTest.html" xlink:show="new" xlink:title="DefaultContextManagerTest.html" xlink:type="simple"><rect codeLine="5" fill="#FEFECE" filter="url(#f1esnxw09tf56u)" height="235.3315" id="it.tidalwave.role.spi.DefaultContextManagerTest" style="stroke: #A80036; stroke-width: 1.5;" width="369" x="7" y="7"/><ellipse cx="98.75" cy="25.7988" fill="#ADD1B2" rx="11" ry="11" style="stroke: #A80036; stroke-width: 1.0;"/><path d="M96.6563,25.6426 Q96.6563,27.5176 97.2344,28.5332 Q97.8125,29.5332 98.9688,29.5332 Q100.3125,29.5332 100.9688,27.5176 L103.2344,27.9395 Q102.125,31.4707 98.9531,31.4707 Q96.6094,31.4707 95.3906,29.9863 Q94.1719,28.502 94.1719,25.6426 Q94.1719,19.9238 98.875,19.9238 Q100.4219,19.9238 101.4531,20.7363 Q102.5,21.5488 103,23.1582 L100.7344,23.7051 Q100.5,22.8301 100.0156,22.3457 Q99.5313,21.8457 98.9063,21.8457 Q96.6563,21.8457 96.6563,25.6426 Z "/><text fill="#000000" font-family="sans-serif" font-size="14" lengthAdjust="spacingAndGlyphs" textLength="177" x="119.25" y="25.1318">DefaultContextManagerTest</text><text fill="#000000" font-family="sans-serif" font-size="10" lengthAdjust="spacingAndGlyphs" textLength="91" x="162.25" y="37.4785">it.tidalwave.role.spi</text><line style="stroke: #A80036; stroke-width: 1.5;" x1="8" x2="375" y1="44.5977" y2="44.5977"/><ellipse cx="18" cy="55.5977" fill="#84BE84" rx="3" ry="3" style="stroke: #038048; stroke-width: 1.0;"/><text fill="#000000" font-family="sans-serif" font-size="11" lengthAdjust="spacingAndGlyphs" textLength="61" x="27" y="58.9155">setup(): void</text><ellipse cx="18" cy="68.2466" fill="#84BE84" rx="3" ry="3" style="stroke: #038048; stroke-width: 1.0;"/><text fill="#000000" font-family="sans-serif" font-size="11" lengthAdjust="spacingAndGlyphs" textLength="178" x="27" y="71.5645">must_start_with_no_contexts(): void</text><ellipse cx="18" cy="80.8955" fill="#84BE84" rx="3" ry="3" style="stroke: #038048; stroke-width: 1.0;"/><text fill="#000000" font-family="sans-serif" font-size="11" lengthAdjust="spacingAndGlyphs" textLength="276" x="27" y="84.2134">must_properly_add_and_retrieve_global_contexts(): void</text><ellipse cx="18" cy="93.5444" fill="#84BE84" rx="3" ry="3" style="stroke: #038048; stroke-width: 1.0;"/><text fill="#000000" font-family="sans-serif" font-size="11" lengthAdjust="spacingAndGlyphs" textLength="322" x="27" y="96.8623">must_properly_add_and_retrieve_global_contexts_in_order(): void</text><ellipse cx="18" cy="106.1934" fill="#84BE84" rx="3" ry="3" style="stroke: #038048; stroke-width: 1.0;"/><text fill="#000000" font-family="sans-serif" font-size="11" lengthAdjust="spacingAndGlyphs" textLength="294" x="27" y="109.5112">must_properly_remove_and_retrieve_global_contexts(): void</text><ellipse cx="18" cy="118.8423" fill="#84BE84" rx="3" ry="3" style="stroke: #038048; stroke-width: 1.0;"/><text fill="#000000" font-family="sans-serif" font-size="11" lengthAdjust="spacingAndGlyphs" textLength="270" x="27" y="122.1602">must_properly_add_and_retrieve_local_contexts(): void</text><ellipse cx="18" cy="131.4912" fill="#84BE84" rx="3" ry="3" style="stroke: #038048; stroke-width: 1.0;"/><text fill="#000000" font-family="sans-serif" font-size="11" lengthAdjust="spacingAndGlyphs" textLength="316" x="27" y="134.8091">must_properly_add_and_retrieve_local_contexts_in_order(): void</text><ellipse cx="18" cy="144.1401" fill="#84BE84" rx="3" ry="3" style="stroke: #038048; stroke-width: 1.0;"/><text fill="#000000" font-family="sans-serif" font-size="11" lengthAdjust="spacingAndGlyphs" textLength="288" x="27" y="147.458">must_properly_remove_and_retrieve_local_contexts(): void</text><ellipse cx="18" cy="156.7891" fill="#84BE84" rx="3" ry="3" style="stroke: #038048; stroke-width: 1.0;"/><text fill="#000000" font-family="sans-serif" font-size="11" lengthAdjust="spacingAndGlyphs" textLength="186" x="27" y="160.1069">must_prioritize_global_contexts(): void</text><ellipse cx="18" cy="169.438" fill="#84BE84" rx="3" ry="3" style="stroke: #038048; stroke-width: 1.0;"/><text fill="#000000" font-family="sans-serif" font-size="11" lengthAdjust="spacingAndGlyphs" textLength="253" x="27" y="172.7559">must_confine_local_contexts_in_their_thread(): void</text><ellipse cx="18" cy="182.0869" fill="#84BE84" rx="3" ry="3" style="stroke: #038048; stroke-width: 1.0;"/><text fill="#000000" font-family="sans-serif" font-size="11" lengthAdjust="spacingAndGlyphs" textLength="331" x="27" y="185.4048">runWithContexts_must_temporarily_associate_local_contexts(): void</text><ellipse cx="18" cy="194.7358" fill="#84BE84" rx="3" ry="3" style="stroke: #038048; stroke-width: 1.0;"/><text fill="#000000" font-family="sans-serif" font-size="11" lengthAdjust="spacingAndGlyphs" textLength="221" x="27" y="198.0537">must_properly_remove_local_contexts(): void</text><ellipse cx="18" cy="207.3848" fill="#84BE84" rx="3" ry="3" style="stroke: #038048; stroke-width: 1.0;"/><text fill="#000000" font-family="sans-serif" font-size="11" lengthAdjust="spacingAndGlyphs" textLength="343" x="27" y="210.7026">must_properly_remove_local_contexts_when_exception_throw(): void</text><ellipse cx="18" cy="220.0337" fill="#84BE84" rx="3" ry="3" style="stroke: #038048; stroke-width: 1.0;"/><text fill="#000000" font-family="sans-serif" font-size="11" lengthAdjust="spacingAndGlyphs" textLength="296" x="27" y="223.3516">must_properly_remove_local_contexts_with_runnable(): void</text><ellipse cx="18" cy="232.6826" fill="#84BE84" rx="3" ry="3" style="stroke: #038048; stroke-width: 1.0;"/><text fill="#000000" font-family="sans-serif" font-size="11" lengthAdjust="spacingAndGlyphs" textLength="292" x="27" y="236.0005">must_properly_remove_local_contexts_with_supplier(): void</text></a><text fill="#888888" font-family="sans-serif" font-size="10" lengthAdjust="spacingAndGlyphs" textLength="190" x="96.5" y="258.7114">UMLDoclet 2.0.12, PlantUML 1.2020.16</text><!--MD5=[c622862ca438383043fea3c1bde675e1]
@startuml
    set namespaceSeparator none
    hide empty fields
    hide empty methods

    class "<size:14>DefaultContextManagerTest\n<size:10>it.tidalwave.role.spi" as it.tidalwave.role.spi.DefaultContextManagerTest [[DefaultContextManagerTest.html]] {
        +setup(): void
        +must_start_with_no_contexts(): void
        +must_properly_add_and_retrieve_global_contexts(): void
        +must_properly_add_and_retrieve_global_contexts_in_order(): void
        +must_properly_remove_and_retrieve_global_contexts(): void
        +must_properly_add_and_retrieve_local_contexts(): void
        +must_properly_add_and_retrieve_local_contexts_in_order(): void
        +must_properly_remove_and_retrieve_local_contexts(): void
        +must_prioritize_global_contexts(): void
        +must_confine_local_contexts_in_their_thread(): void
        +runWithContexts_must_temporarily_associate_local_contexts(): void
        +must_properly_remove_local_contexts(): void
        +must_properly_remove_local_contexts_when_exception_throw(): void
        +must_properly_remove_local_contexts_with_runnable(): void
        +must_properly_remove_local_contexts_with_supplier(): void
    }

    center footer UMLDoclet 2.0.12, PlantUML 1.2020.16
@enduml

PlantUML version 1.2020.16(Sun Aug 23 22:20:43 CEST 2020)
(APACHE source distribution)
Java Runtime: OpenJDK Runtime Environment
JVM: OpenJDK 64-Bit Server VM
Default Encoding: UTF-8
Language: en
Country: US
--></g></svg>