<?xml version="1.0" encoding="UTF-8" standalone="no"?><svg xmlns="http://www.w3.org/2000/svg" xmlns:xlink="http://www.w3.org/1999/xlink" contentScriptType="application/ecmascript" contentStyleType="text/css" height="145px" preserveAspectRatio="none" style="width:426px;height:145px;" version="1.1" viewBox="0 0 426 145" width="426px" zoomAndPan="magnify"><defs><filter height="300%" id="fo71bd05v1xyz" width="300%" x="-1" y="-1"><feGaussianBlur result="blurOut" stdDeviation="2.0"/><feColorMatrix in="blurOut" result="blurOut2" type="matrix" values="0 0 0 0 0 0 0 0 0 0 0 0 0 0 0 0 0 0 .4 0"/><feOffset dx="4.0" dy="4.0" in="blurOut2" result="blurOut3"/><feBlend in="SourceGraphic" in2="blurOut3" mode="normal"/></filter></defs><g><!--MD5=[bc8dcec57bbcad29b329335bbc172740]
class it.tidalwave.role.spi.RoleManagerSupportTest--><a href="RoleManagerSupportTest.html" target="_top" title="RoleManagerSupportTest.html" xlink:actuate="onRequest" xlink:href="RoleManagerSupportTest.html" xlink:show="new" xlink:title="RoleManagerSupportTest.html" xlink:type="simple"><rect codeLine="5" fill="#FEFECE" filter="url(#fo71bd05v1xyz)" height="108.8423" id="it.tidalwave.role.spi.RoleManagerSupportTest" style="stroke: #A80036; stroke-width: 1.5;" width="400" x="7" y="7"/><ellipse cx="121.25" cy="25.7988" fill="#ADD1B2" rx="11" ry="11" style="stroke: #A80036; stroke-width: 1.0;"/><path d="M119.1563,25.6426 Q119.1563,27.5176 119.7344,28.5332 Q120.3125,29.5332 121.4688,29.5332 Q122.8125,29.5332 123.4688,27.5176 L125.7344,27.9395 Q124.625,31.4707 121.4531,31.4707 Q119.1094,31.4707 117.8906,29.9863 Q116.6719,28.502 116.6719,25.6426 Q116.6719,19.9238 121.375,19.9238 Q122.9219,19.9238 123.9531,20.7363 Q125,21.5488 125.5,23.1582 L123.2344,23.7051 Q123,22.8301 122.5156,22.3457 Q122.0313,21.8457 121.4063,21.8457 Q119.1563,21.8457 119.1563,25.6426 Z "/><text fill="#000000" font-family="sans-serif" font-size="14" lengthAdjust="spacingAndGlyphs" textLength="163" x="141.75" y="25.1318">RoleManagerSupportTest</text><text fill="#000000" font-family="sans-serif" font-size="10" lengthAdjust="spacingAndGlyphs" textLength="91" x="177.75" y="37.4785">it.tidalwave.role.spi</text><line style="stroke: #A80036; stroke-width: 1.5;" x1="8" x2="406" y1="44.5977" y2="44.5977"/><ellipse cx="18" cy="55.5977" fill="#84BE84" rx="3" ry="3" style="stroke: #038048; stroke-width: 1.0;"/><text fill="#000000" font-family="sans-serif" font-size="11" lengthAdjust="spacingAndGlyphs" textLength="61" x="27" y="58.9155">setup(): void</text><ellipse cx="18" cy="68.2466" fill="#84BE84" rx="3" ry="3" style="stroke: #038048; stroke-width: 1.0;"/><text fill="#000000" font-family="sans-serif" font-size="11" lengthAdjust="spacingAndGlyphs" textLength="374" x="27" y="71.5645">must_correctly_find_implemented_interfaces(Class&lt;?&gt;, Set&lt;Class&lt;?&gt;&gt;): void</text><ellipse cx="18" cy="80.8955" fill="#84BE84" rx="3" ry="3" style="stroke: #038048; stroke-width: 1.0;"/><text fill="#000000" font-family="sans-serif" font-size="11" lengthAdjust="spacingAndGlyphs" textLength="177" x="27" y="84.2134">must_properly_scan_classes(): void</text><ellipse cx="18" cy="93.5444" fill="#84BE84" rx="3" ry="3" style="stroke: #038048; stroke-width: 1.0;"/><text fill="#000000" font-family="sans-serif" font-size="11" lengthAdjust="spacingAndGlyphs" textLength="283" x="27" y="96.8623">must_correctly_find_roles(Object, Class&lt;?&gt;, List&lt;?&gt;): void</text><ellipse cx="18" cy="106.1934" fill="#84BE84" rx="3" ry="3" style="stroke: #038048; stroke-width: 1.0;"/><text fill="#000000" font-family="sans-serif" font-size="11" lengthAdjust="spacingAndGlyphs" textLength="323" x="27" y="109.5112">findTypeOf_must_return_original_class_for_Mockito_mocks(): void</text></a><text fill="#888888" font-family="sans-serif" font-size="10" lengthAdjust="spacingAndGlyphs" textLength="190" x="112" y="132.2222">UMLDoclet 2.0.12, PlantUML 1.2020.16</text><!--MD5=[99a5efe79c4673bace2a1bf0af9bad6a]
@startuml
    set namespaceSeparator none
    hide empty fields
    hide empty methods

    class "<size:14>RoleManagerSupportTest\n<size:10>it.tidalwave.role.spi" as it.tidalwave.role.spi.RoleManagerSupportTest [[RoleManagerSupportTest.html]] {
        +setup(): void
        +must_correctly_find_implemented_interfaces(Class<?>, Set<Class<?>>): void
        +must_properly_scan_classes(): void
        +must_correctly_find_roles(Object, Class<?>, List<?>): void
        +findTypeOf_must_return_original_class_for_Mockito_mocks(): void
    }

    center footer UMLDoclet 2.0.12, PlantUML 1.2020.16
@enduml

PlantUML version 1.2020.16(Sun Aug 23 22:20:43 CEST 2020)
(APACHE source distribution)
Java Runtime: OpenJDK Runtime Environment
JVM: OpenJDK 64-Bit Server VM
Default Encoding: UTF-8
Language: en
Country: US
--></g></svg>