@startuml
    set namespaceSeparator none
    hide empty fields
    hide empty methods

    interface "<size:14>SitemapViewController\n<size:10>it.tidalwave.northernwind.frontend.ui.component.sitemap" as it.tidalwave.northernwind.frontend.ui.component.sitemap.SitemapViewController [[SitemapViewController.html]] {
        {static} +P_SITEMAP_PRIORITY: Key<Float>
        {static} +P_SITEMAP_CHILDREN_PRIORITY: Key<Float>
        {static} +P_SITEMAP_CHANGE_FREQUENCY: Key<String>
        {static} +P_SITEMAP_TEMPLATE_PATH: Key<ResourcePath>
    }

    interface "<size:14>ViewController\n<size:10>it.tidalwave.northernwind.frontend.ui" as it.tidalwave.northernwind.frontend.ui.ViewController [[../../ViewController.html]]

    it.tidalwave.northernwind.frontend.ui.ViewController <|-- it.tidalwave.northernwind.frontend.ui.component.sitemap.SitemapViewController

    center footer UMLDoclet 2.0.12, PlantUML 1.2020.16
@enduml
