@startuml
    set namespaceSeparator none
    hide empty fields
    hide empty methods

    class "<size:14>UserNotificationWithFeedbackMatcher\n<size:10>it.tidalwave.util.ui" as it.tidalwave.util.ui.UserNotificationWithFeedbackMatcher [[UserNotificationWithFeedbackMatcher.html]] {
        +matches(UserNotificationWithFeedback): boolean
    }

    interface "<size:14>ArgumentMatcher\n<size:10>org.mockito" as org.mockito.ArgumentMatcher<UserNotificationWithFeedback> {
        {abstract} +matches(UserNotificationWithFeedback): boolean
    }

    org.mockito.ArgumentMatcher <|.. it.tidalwave.util.ui.UserNotificationWithFeedbackMatcher

    center footer UMLDoclet 2.0.12, PlantUML 1.2020.16
@enduml
