<?xml version="1.0" encoding="UTF-8" standalone="no"?><svg xmlns="http://www.w3.org/2000/svg" xmlns:xlink="http://www.w3.org/1999/xlink" contentScriptType="application/ecmascript" contentStyleType="text/css" height="200px" preserveAspectRatio="none" style="width:489px;height:200px;" version="1.1" viewBox="0 0 489 200" width="489px" zoomAndPan="magnify"><defs><filter height="300%" id="fdebbukr8me86" width="300%" x="-1" y="-1"><feGaussianBlur result="blurOut" stdDeviation="2.0"/><feColorMatrix in="blurOut" result="blurOut2" type="matrix" values="0 0 0 0 0 0 0 0 0 0 0 0 0 0 0 0 0 0 .4 0"/><feOffset dx="4.0" dy="4.0" in="blurOut2" result="blurOut3"/><feBlend in="SourceGraphic" in2="blurOut3" mode="normal"/></filter></defs><g><!--MD5=[1fa27261f0d5b94ec101ba510df80032]
class it.tidalwave.util.FunctionalCheckedExceptionWrappers.RunnableWithException--><rect codeLine="5" fill="#FEFECE" filter="url(#fdebbukr8me86)" height="59.2207" id="it.tidalwave.util.FunctionalCheckedExceptionWrappers.RunnableWithException" style="stroke: #A80036; stroke-width: 1.5;" width="463" x="7" y="105"/><ellipse cx="22" cy="124.1328" fill="#B4A7E5" rx="11" ry="11" style="stroke: #A80036; stroke-width: 1.0;"/><path d="M18.4277,120.3979 L18.4277,118.2397 L25.8071,118.2397 L25.8071,120.3979 L23.3418,120.3979 L23.3418,128.4746 L25.8071,128.4746 L25.8071,130.6328 L18.4277,130.6328 L18.4277,128.4746 L20.8931,128.4746 L20.8931,120.3979 Z "/><text fill="#000000" font-family="sans-serif" font-size="14" font-style="italic" lengthAdjust="spacingAndGlyphs" textLength="431" x="36" y="123.5352">FunctionalCheckedExceptionWrappers.RunnableWithException</text><text fill="#000000" font-family="sans-serif" font-size="10" font-style="italic" lengthAdjust="spacingAndGlyphs" textLength="76" x="213.5" y="136.1563">it.tidalwave.util</text><line style="stroke: #A80036; stroke-width: 1.5;" x1="8" x2="469" y1="143.2656" y2="143.2656"/><ellipse cx="18" cy="154.2656" fill="#84BE84" rx="3" ry="3" style="stroke: #038048; stroke-width: 1.0;"/><text fill="#000000" font-family="sans-serif" font-size="11" font-style="italic" lengthAdjust="spacingAndGlyphs" textLength="56" x="27" y="157.9004">run(): void</text><!--MD5=[4b2cdba6699f4d383d5c0d4d19a0a7fc]
class it.tidalwave.util.FunctionalCheckedExceptionWrappers--><a href="FunctionalCheckedExceptionWrappers.html" target="_top" title="FunctionalCheckedExceptionWrappers.html" xlink:actuate="onRequest" xlink:href="FunctionalCheckedExceptionWrappers.html" xlink:show="new" xlink:title="FunctionalCheckedExceptionWrappers.html" xlink:type="simple"><rect codeLine="9" fill="#FEFECE" filter="url(#fdebbukr8me86)" height="38.2656" id="it.tidalwave.util.FunctionalCheckedExceptionWrappers" style="stroke: #A80036; stroke-width: 1.5;" width="296" x="90.5" y="7"/><ellipse cx="105.5" cy="26.1328" fill="#ADD1B2" rx="11" ry="11" style="stroke: #A80036; stroke-width: 1.0;"/><path d="M107.9731,32.2759 Q107.3921,32.5747 106.7529,32.7241 Q106.1138,32.8735 105.4082,32.8735 Q102.9014,32.8735 101.5815,31.2217 Q100.2617,29.5698 100.2617,26.4487 Q100.2617,23.3193 101.5815,21.6675 Q102.9014,20.0156 105.4082,20.0156 Q106.1138,20.0156 106.7612,20.165 Q107.4087,20.3145 107.9731,20.6133 L107.9731,23.3359 Q107.3423,22.7549 106.7488,22.4851 Q106.1553,22.2153 105.5244,22.2153 Q104.1797,22.2153 103.4949,23.282 Q102.8101,24.3486 102.8101,26.4487 Q102.8101,28.5405 103.4949,29.6072 Q104.1797,30.6738 105.5244,30.6738 Q106.1553,30.6738 106.7488,30.4041 Q107.3423,30.1343 107.9731,29.5532 Z "/><text fill="#000000" font-family="sans-serif" font-size="14" lengthAdjust="spacingAndGlyphs" textLength="264" x="119.5" y="25.5352">FunctionalCheckedExceptionWrappers</text><text fill="#000000" font-family="sans-serif" font-size="10" lengthAdjust="spacingAndGlyphs" textLength="76" x="213.5" y="38.1563">it.tidalwave.util</text></a><!--MD5=[a6b9ccb01abe28284abe28aaf8dfe682]
reverse link it.tidalwave.util.FunctionalCheckedExceptionWrappers to it.tidalwave.util.FunctionalCheckedExceptionWrappers.RunnableWithException--><path codeLine="11" d="M238.5,60.1734 C238.5,74.5357 238.5,91.0838 238.5,104.9146 " fill="none" id="it.tidalwave.util.FunctionalCheckedExceptionWrappers-backto-it.tidalwave.util.FunctionalCheckedExceptionWrappers.RunnableWithException" style="stroke: #A80036; stroke-width: 1.0;"/><ellipse cx="238.5001" cy="53.1479" fill="#FFFFFF" rx="8" ry="8" style="stroke: #A80036; stroke-width: 1.0;"/><line style="stroke: #A80036; stroke-width: 1.0;" x1="238.5002" x2="238.5" y1="61.1479" y2="45.1479"/><line style="stroke: #A80036; stroke-width: 1.0;" x1="230.5001" x2="246.5001" y1="53.148" y2="53.1478"/><text fill="#888888" font-family="sans-serif" font-size="10" lengthAdjust="spacingAndGlyphs" textLength="188" x="141.5" y="186.8887">UMLDoclet 2.0.12, PlantUML 1.2020.16</text><!--MD5=[3df9cc3e3fcdc74b42854aaa2cd2d782]
@startuml
    set namespaceSeparator none
    hide empty fields
    hide empty methods

    interface "<size:14>FunctionalCheckedExceptionWrappers.RunnableWithException\n<size:10>it.tidalwave.util" as it.tidalwave.util.FunctionalCheckedExceptionWrappers.RunnableWithException {
        {abstract} +run(): void
    }

    class "<size:14>FunctionalCheckedExceptionWrappers\n<size:10>it.tidalwave.util" as it.tidalwave.util.FunctionalCheckedExceptionWrappers [[FunctionalCheckedExceptionWrappers.html]]

    it.tidalwave.util.FunctionalCheckedExceptionWrappers +- - it.tidalwave.util.FunctionalCheckedExceptionWrappers.RunnableWithException

    center footer UMLDoclet 2.0.12, PlantUML 1.2020.16
@enduml

PlantUML version 1.2020.16(Sun Aug 23 22:20:43 CEST 2020)
(APACHE source distribution)
Java Runtime: OpenJDK Runtime Environment
JVM: OpenJDK 64-Bit Server VM
Default Encoding: UTF-8
Language: en
Country: GB
--></g></svg>