<?xml version="1.0" encoding="UTF-8" standalone="no"?><svg xmlns="http://www.w3.org/2000/svg" xmlns:xlink="http://www.w3.org/1999/xlink" contentScriptType="application/ecmascript" contentStyleType="text/css" height="237px" preserveAspectRatio="none" style="width:341px;height:237px;" version="1.1" viewBox="0 0 341 237" width="341px" zoomAndPan="magnify"><defs><filter height="300%" id="faa3tueockrts" width="300%" x="-1" y="-1"><feGaussianBlur result="blurOut" stdDeviation="2.0"/><feColorMatrix in="blurOut" result="blurOut2" type="matrix" values="0 0 0 0 0 0 0 0 0 0 0 0 0 0 0 0 0 0 .4 0"/><feOffset dx="4.0" dy="4.0" in="blurOut2" result="blurOut3"/><feBlend in="SourceGraphic" in2="blurOut3" mode="normal"/></filter></defs><g><!--MD5=[02a8c6f69b85d8fc4b0c0ab7b5ffe3ab]
class it.tidalwave.util.Initializer.EmptyInitializer--><a href="Initializer.EmptyInitializer.html" target="_top" title="Initializer.EmptyInitializer.html" xlink:actuate="onRequest" xlink:href="Initializer.EmptyInitializer.html" xlink:show="new" xlink:title="Initializer.EmptyInitializer.html" xlink:type="simple"><rect codeLine="5" fill="#FEFECE" filter="url(#faa3tueockrts)" height="59.2207" id="it.tidalwave.util.Initializer.EmptyInitializer" style="stroke: #A80036; stroke-width: 1.5;" width="218" x="7" y="142"/><ellipse cx="22" cy="161.1328" fill="#ADD1B2" rx="11" ry="11" style="stroke: #A80036; stroke-width: 1.0;"/><path d="M24.4731,167.2759 Q23.8921,167.5747 23.2529,167.7241 Q22.6138,167.8735 21.9082,167.8735 Q19.4014,167.8735 18.0815,166.2217 Q16.7617,164.5698 16.7617,161.4487 Q16.7617,158.3193 18.0815,156.6675 Q19.4014,155.0156 21.9082,155.0156 Q22.6138,155.0156 23.2612,155.165 Q23.9087,155.3145 24.4731,155.6133 L24.4731,158.3359 Q23.8423,157.7549 23.2488,157.4851 Q22.6553,157.2153 22.0244,157.2153 Q20.6797,157.2153 19.9949,158.282 Q19.3101,159.3486 19.3101,161.4487 Q19.3101,163.5405 19.9949,164.6072 Q20.6797,165.6738 22.0244,165.6738 Q22.6553,165.6738 23.2488,165.4041 Q23.8423,165.1343 24.4731,164.5532 Z "/><text fill="#000000" font-family="sans-serif" font-size="14" lengthAdjust="spacingAndGlyphs" textLength="174" x="36" y="160.5352">Initializer.EmptyInitializer</text><text fill="#000000" font-family="sans-serif" font-size="10" lengthAdjust="spacingAndGlyphs" textLength="76" x="85" y="173.1563">it.tidalwave.util</text><rect fill="#FFFFFF" height="16.1328" style="stroke: #000000; stroke-width: 1.0; stroke-dasharray: 2.0,2.0;" width="10" x="218" y="139"/><text fill="#000000" font-family="sans-serif" font-size="12" font-style="italic" lengthAdjust="spacingAndGlyphs" textLength="8" x="219" y="151.6016">K</text><line style="stroke: #A80036; stroke-width: 1.5;" x1="8" x2="224" y1="180.2656" y2="180.2656"/><ellipse cx="18" cy="191.2656" fill="#84BE84" rx="3" ry="3" style="stroke: #038048; stroke-width: 1.0;"/><text fill="#000000" font-family="sans-serif" font-size="11" lengthAdjust="spacingAndGlyphs" textLength="72" x="27" y="194.9004">initialize(K): K</text></a><!--MD5=[4f73559353bdb1b18300d07e97681c0a]
class it.tidalwave.util.Initializer--><a href="Initializer.html" target="_top" title="Initializer.html" xlink:actuate="onRequest" xlink:href="Initializer.html" xlink:show="new" xlink:title="Initializer.html" xlink:type="simple"><rect codeLine="13" fill="#FEFECE" filter="url(#faa3tueockrts)" height="72.1758" id="it.tidalwave.util.Initializer" style="stroke: #A80036; stroke-width: 1.5;" width="120" x="56" y="10"/><ellipse cx="71" cy="29.1328" fill="#B4A7E5" rx="11" ry="11" style="stroke: #A80036; stroke-width: 1.0;"/><path d="M67.4277,25.3979 L67.4277,23.2397 L74.8071,23.2397 L74.8071,25.3979 L72.3418,25.3979 L72.3418,33.4746 L74.8071,33.4746 L74.8071,35.6328 L67.4277,35.6328 L67.4277,33.4746 L69.8931,33.4746 L69.8931,25.3979 Z "/><text fill="#000000" font-family="sans-serif" font-size="14" font-style="italic" lengthAdjust="spacingAndGlyphs" textLength="64" x="91" y="28.5352">Initializer</text><text fill="#000000" font-family="sans-serif" font-size="10" font-style="italic" lengthAdjust="spacingAndGlyphs" textLength="76" x="85" y="41.1563">it.tidalwave.util</text><rect fill="#FFFFFF" height="16.1328" style="stroke: #000000; stroke-width: 1.0; stroke-dasharray: 2.0,2.0;" width="10" x="169" y="7"/><text fill="#000000" font-family="sans-serif" font-size="12" font-style="italic" lengthAdjust="spacingAndGlyphs" textLength="8" x="170" y="19.6016">T</text><line style="stroke: #A80036; stroke-width: 1.5;" x1="57" x2="175" y1="48.2656" y2="48.2656"/><ellipse cx="67" cy="59.2656" fill="#84BE84" rx="3" ry="3" style="stroke: #038048; stroke-width: 1.0;"/><text fill="#000000" font-family="sans-serif" font-size="11" font-style="italic" lengthAdjust="spacingAndGlyphs" textLength="72" x="76" y="62.9004">initialize(T): T</text><ellipse cx="67" cy="72.2207" fill="#84BE84" rx="3" ry="3" style="stroke: #038048; stroke-width: 1.0;"/><text fill="#000000" font-family="sans-serif" font-size="11" font-style="italic" lengthAdjust="spacingAndGlyphs" textLength="72" x="76" y="75.8555">initialize(T): T</text></a><!--MD5=[5a5af9b0547913863cbe0ddf55a9ab5e]
class java.io.Serializable--><rect codeLine="12" fill="#FEFECE" filter="url(#faa3tueockrts)" height="38.2656" id="java.io.Serializable" style="stroke: #A80036; stroke-width: 1.5;" width="111" x="211.5" y="27"/><ellipse cx="226.5" cy="46.1328" fill="#B4A7E5" rx="11" ry="11" style="stroke: #A80036; stroke-width: 1.0;"/><path d="M222.9277,42.3979 L222.9277,40.2397 L230.3071,40.2397 L230.3071,42.3979 L227.8418,42.3979 L227.8418,50.4746 L230.3071,50.4746 L230.3071,52.6328 L222.9277,52.6328 L222.9277,50.4746 L225.3931,50.4746 L225.3931,42.3979 Z "/><text fill="#000000" font-family="sans-serif" font-size="14" font-style="italic" lengthAdjust="spacingAndGlyphs" textLength="79" x="240.5" y="45.5352">Serializable</text><text fill="#000000" font-family="sans-serif" font-size="10" font-style="italic" lengthAdjust="spacingAndGlyphs" textLength="32" x="264" y="58.1563">java.io</text><!--MD5=[59011d7614a0aa5d873f0609e5e15309]
reverse link it.tidalwave.util.Initializer to it.tidalwave.util.Initializer.EmptyInitializer--><path codeLine="17" d="M103.3023,102.7302 C103.0684,116.1531 103.6189,129.9467 104.9536,141.624 " fill="none" id="it.tidalwave.util.Initializer-backto-it.tidalwave.util.Initializer.EmptyInitializer" style="stroke: #A80036; stroke-width: 1.0; stroke-dasharray: 7.0,7.0;"/><polygon fill="none" points="96.3333,101.9285,104.3154,82.2998,110.3162,102.622,96.3333,101.9285" style="stroke: #A80036; stroke-width: 1.0;"/><!--MD5=[59011d7614a0aa5d873f0609e5e15309]
reverse link it.tidalwave.util.Initializer to it.tidalwave.util.Initializer.EmptyInitializer--><path codeLine="19" d="M129.3046,97.4816 C129.8306,112.5041 129.2945,128.4176 127.6961,141.624 " fill="none" id="it.tidalwave.util.Initializer-backto-it.tidalwave.util.Initializer.EmptyInitializer-1" style="stroke: #A80036; stroke-width: 1.0;"/><ellipse cx="128.8626" cy="90.2847" fill="#FFFFFF" rx="8" ry="8" style="stroke: #A80036; stroke-width: 1.0;"/><line style="stroke: #A80036; stroke-width: 1.0;" x1="129.3532" x2="128.372" y1="98.2697" y2="82.2998"/><line style="stroke: #A80036; stroke-width: 1.0;" x1="120.8776" x2="136.8475" y1="90.7753" y2="89.7942"/><!--MD5=[dc64c9b8404528fa4b5e47716277c726]
reverse link java.io.Serializable to it.tidalwave.util.Initializer.EmptyInitializer--><path codeLine="18" d="M228.5048,77.9944 C204.8105,97.6873 174.6561,122.7494 151.531,141.9693 " fill="none" id="java.io.Serializable-backto-it.tidalwave.util.Initializer.EmptyInitializer" style="stroke: #A80036; stroke-width: 1.0; stroke-dasharray: 7.0,7.0;"/><polygon fill="none" points="224.2109,72.461,244.0664,65.0607,233.1595,83.2278,224.2109,72.461" style="stroke: #A80036; stroke-width: 1.0;"/><text fill="#888888" font-family="sans-serif" font-size="10" lengthAdjust="spacingAndGlyphs" textLength="188" x="67.75" y="223.8887">UMLDoclet 2.0.12, PlantUML 1.2020.16</text><!--MD5=[379914993d24a845bc6060ecaa5528a3]
@startuml
    set namespaceSeparator none
    hide empty fields
    hide empty methods

    class "<size:14>Initializer.EmptyInitializer\n<size:10>it.tidalwave.util" as it.tidalwave.util.Initializer.EmptyInitializer<K> [[Initializer.EmptyInitializer.html]] {
        +initialize(K): K
    }

    interface "<size:14>Initializer\n<size:10>it.tidalwave.util" as it.tidalwave.util.Initializer<T> [[Initializer.html]] {
        {abstract} +initialize(T): T
    }
    interface "<size:14>Serializable\n<size:10>java.io" as java.io.Serializable
    interface "<size:14>Initializer\n<size:10>it.tidalwave.util" as it.tidalwave.util.Initializer<T> [[Initializer.html]] {
        {abstract} +initialize(T): T
    }

    it.tidalwave.util.Initializer <|.. it.tidalwave.util.Initializer.EmptyInitializer
    java.io.Serializable <|.. it.tidalwave.util.Initializer.EmptyInitializer
    it.tidalwave.util.Initializer +- - it.tidalwave.util.Initializer.EmptyInitializer

    center footer UMLDoclet 2.0.12, PlantUML 1.2020.16
@enduml

PlantUML version 1.2020.16(Sun Aug 23 22:20:43 CEST 2020)
(APACHE source distribution)
Java Runtime: OpenJDK Runtime Environment
JVM: OpenJDK 64-Bit Server VM
Default Encoding: UTF-8
Language: en
Country: GB
--></g></svg>