<?xml version="1.0" encoding="UTF-8" standalone="no"?><svg xmlns="http://www.w3.org/2000/svg" xmlns:xlink="http://www.w3.org/1999/xlink" contentScriptType="application/ecmascript" contentStyleType="text/css" height="203px" preserveAspectRatio="none" style="width:275px;height:203px;" version="1.1" viewBox="0 0 275 203" width="275px" zoomAndPan="magnify"><defs><filter height="300%" id="frinkjz8edfo1" width="300%" x="-1" y="-1"><feGaussianBlur result="blurOut" stdDeviation="2.0"/><feColorMatrix in="blurOut" result="blurOut2" type="matrix" values="0 0 0 0 0 0 0 0 0 0 0 0 0 0 0 0 0 0 .4 0"/><feOffset dx="4.0" dy="4.0" in="blurOut2" result="blurOut3"/><feBlend in="SourceGraphic" in2="blurOut3" mode="normal"/></filter></defs><g><!--MD5=[2e4bda3d056c74a9f64013eb8c7847b3]
class it.tidalwave.util.SimpleTask--><a href="SimpleTask.html" target="_top" title="SimpleTask.html" xlink:actuate="onRequest" xlink:href="SimpleTask.html" xlink:show="new" xlink:title="SimpleTask.html" xlink:type="simple"><rect codeLine="5" fill="#FEFECE" filter="url(#frinkjz8edfo1)" height="38.2656" id="it.tidalwave.util.SimpleTask" style="stroke: #A80036; stroke-width: 1.5;" width="110" x="76.5" y="129"/><ellipse cx="91.5" cy="148.1328" fill="#A9DCDF" rx="11" ry="11" style="stroke: #A80036; stroke-width: 1.0;"/><path d="M91.3633,143.481 L90.2095,148.5527 L92.5254,148.5527 Z M89.8691,141.2397 L92.8657,141.2397 L96.2109,153.6328 L93.7622,153.6328 L92.9985,150.5698 L89.7197,150.5698 L88.9727,153.6328 L86.5239,153.6328 Z "/><text fill="#000000" font-family="sans-serif" font-size="14" font-style="italic" lengthAdjust="spacingAndGlyphs" textLength="78" x="105.5" y="147.5352">SimpleTask</text><text fill="#000000" font-family="sans-serif" font-size="10" font-style="italic" lengthAdjust="spacingAndGlyphs" textLength="76" x="106.5" y="160.1563">it.tidalwave.util</text></a><!--MD5=[747f720669f8266743c3f6ceab7ce041]
class it.tidalwave.util.Task--><a href="Task.html" target="_top" title="Task.html" xlink:actuate="onRequest" xlink:href="Task.html" xlink:show="new" xlink:title="Task.html" xlink:type="simple"><rect codeLine="7" fill="#FEFECE" filter="url(#frinkjz8edfo1)" height="59.2207" id="it.tidalwave.util.Task" style="stroke: #A80036; stroke-width: 1.5;" width="249" x="7" y="10"/><ellipse cx="22" cy="29.1328" fill="#A9DCDF" rx="11" ry="11" style="stroke: #A80036; stroke-width: 1.0;"/><path d="M21.8633,24.481 L20.7095,29.5527 L23.0254,29.5527 Z M20.3691,22.2397 L23.3657,22.2397 L26.7109,34.6328 L24.2622,34.6328 L23.4985,31.5698 L20.2197,31.5698 L19.4727,34.6328 L17.0239,34.6328 Z "/><text fill="#000000" font-family="sans-serif" font-size="14" font-style="italic" lengthAdjust="spacingAndGlyphs" textLength="32" x="58" y="28.5352">Task</text><text fill="#000000" font-family="sans-serif" font-size="10" font-style="italic" lengthAdjust="spacingAndGlyphs" textLength="76" x="36" y="41.1563">it.tidalwave.util</text><rect fill="#FFFFFF" height="16.1328" style="stroke: #000000; stroke-width: 1.0; stroke-dasharray: 2.0,2.0;" width="139" x="120" y="7"/><text fill="#000000" font-family="sans-serif" font-size="12" font-style="italic" lengthAdjust="spacingAndGlyphs" textLength="137" x="121" y="19.6016">Void, RuntimeException</text><line style="stroke: #A80036; stroke-width: 1.5;" x1="8" x2="255" y1="48.2656" y2="48.2656"/><ellipse cx="18" cy="59.2656" fill="#84BE84" rx="3" ry="3" style="stroke: #038048; stroke-width: 1.0;"/><text fill="#000000" font-family="sans-serif" font-size="11" font-style="italic" lengthAdjust="spacingAndGlyphs" textLength="57" x="27" y="62.9004">run(): Void</text></a><!--MD5=[1695a00449d9ae75e4ae5ff81caea739]
reverse link it.tidalwave.util.Task to it.tidalwave.util.SimpleTask--><path codeLine="11" d="M131.5,89.6274 C131.5,103.6286 131.5,117.9981 131.5,128.9766 " fill="none" id="it.tidalwave.util.Task-backto-it.tidalwave.util.SimpleTask" style="stroke: #A80036; stroke-width: 1.0;"/><polygon fill="none" points="124.5001,89.1481,131.5,69.1481,138.5001,89.1481,124.5001,89.1481" style="stroke: #A80036; stroke-width: 1.0;"/><text fill="#888888" font-family="sans-serif" font-size="10" lengthAdjust="spacingAndGlyphs" textLength="188" x="34.5" y="189.9336">UMLDoclet 2.0.12, PlantUML 1.2020.16</text><!--MD5=[8adb980a82c54bea450822a47f31a82d]
@startuml
    set namespaceSeparator none
    hide empty fields
    hide empty methods

    abstract class "<size:14>SimpleTask\n<size:10>it.tidalwave.util" as it.tidalwave.util.SimpleTask [[SimpleTask.html]]

    abstract class "<size:14>Task\n<size:10>it.tidalwave.util" as it.tidalwave.util.Task<Void, RuntimeException> [[Task.html]] {
        {abstract} +run(): Void
    }

    it.tidalwave.util.Task <|- - it.tidalwave.util.SimpleTask

    center footer UMLDoclet 2.0.12, PlantUML 1.2020.16
@enduml

PlantUML version 1.2020.16(Sun Aug 23 22:20:43 CEST 2020)
(APACHE source distribution)
Java Runtime: OpenJDK Runtime Environment
JVM: OpenJDK 64-Bit Server VM
Default Encoding: UTF-8
Language: en
Country: GB
--></g></svg>