<?xml version="1.0" encoding="UTF-8" standalone="no"?><svg xmlns="http://www.w3.org/2000/svg" xmlns:xlink="http://www.w3.org/1999/xlink" contentScriptType="application/ecmascript" contentStyleType="text/css" height="234px" preserveAspectRatio="none" style="width:370px;height:234px;" version="1.1" viewBox="0 0 370 234" width="370px" zoomAndPan="magnify"><defs><filter height="300%" id="f137doq6el4pbt" width="300%" x="-1" y="-1"><feGaussianBlur result="blurOut" stdDeviation="2.0"/><feColorMatrix in="blurOut" result="blurOut2" type="matrix" values="0 0 0 0 0 0 0 0 0 0 0 0 0 0 0 0 0 0 .4 0"/><feOffset dx="4.0" dy="4.0" in="blurOut2" result="blurOut3"/><feBlend in="SourceGraphic" in2="blurOut3" mode="normal"/></filter></defs><g><!--MD5=[86615fb2b15091be7a1d5e9e453a6d9d]
class it.tidalwave.northernwind.frontend.ui.component.nodecontainer.NodeContainerView--><a href="NodeContainerView.html" target="_top" title="NodeContainerView.html" xlink:actuate="onRequest" xlink:href="NodeContainerView.html" xlink:show="new" xlink:title="NodeContainerView.html" xlink:type="simple"><rect codeLine="5" fill="#FEFECE" filter="url(#f137doq6el4pbt)" height="72.1758" id="it.tidalwave.northernwind.frontend.ui.component.nodecontainer.NodeContainerView" style="stroke: #A80036; stroke-width: 1.5;" width="344" x="7" y="126"/><ellipse cx="22" cy="145.1328" fill="#B4A7E5" rx="11" ry="11" style="stroke: #A80036; stroke-width: 1.0;"/><path d="M18.4277,141.3979 L18.4277,139.2397 L25.8071,139.2397 L25.8071,141.3979 L23.3418,141.3979 L23.3418,149.4746 L25.8071,149.4746 L25.8071,151.6328 L18.4277,151.6328 L18.4277,149.4746 L20.8931,149.4746 L20.8931,141.3979 Z "/><text fill="#000000" font-family="sans-serif" font-size="14" font-style="italic" lengthAdjust="spacingAndGlyphs" textLength="136" x="124" y="144.5352">NodeContainerView</text><text fill="#000000" font-family="sans-serif" font-size="10" font-style="italic" lengthAdjust="spacingAndGlyphs" textLength="312" x="36" y="157.1563">it.tidalwave.northernwind.frontend.ui.component.nodecontainer</text><line style="stroke: #A80036; stroke-width: 1.5;" x1="8" x2="350" y1="164.2656" y2="164.2656"/><ellipse cx="18" cy="175.2656" fill="#84BE84" rx="3" ry="3" style="stroke: #038048; stroke-width: 1.0;"/><text fill="#000000" font-family="sans-serif" font-size="11" font-style="italic" lengthAdjust="spacingAndGlyphs" textLength="175" x="27" y="178.9004">addAttribute(String, String): void</text><ellipse cx="18" cy="188.2207" fill="#84BE84" rx="3" ry="3" style="stroke: #038048; stroke-width: 1.0;"/><text fill="#000000" font-family="sans-serif" font-size="11" font-style="italic" lengthAdjust="spacingAndGlyphs" textLength="134" x="27" y="191.8555">setTemplate(String): void</text></a><!--MD5=[f40774d2c0efa8b70d7c747ac61cb911]
class it.tidalwave.role.Identifiable--><rect codeLine="10" fill="#FEFECE" filter="url(#f137doq6el4pbt)" height="59.2207" id="it.tidalwave.role.Identifiable" style="stroke: #A80036; stroke-width: 1.5;" width="111" x="123.5" y="7"/><ellipse cx="138.5" cy="26.1328" fill="#B4A7E5" rx="11" ry="11" style="stroke: #A80036; stroke-width: 1.0;"/><path d="M134.9277,22.3979 L134.9277,20.2397 L142.3071,20.2397 L142.3071,22.3979 L139.8418,22.3979 L139.8418,30.4746 L142.3071,30.4746 L142.3071,32.6328 L134.9277,32.6328 L134.9277,30.4746 L137.3931,30.4746 L137.3931,22.3979 Z "/><text fill="#000000" font-family="sans-serif" font-size="14" font-style="italic" lengthAdjust="spacingAndGlyphs" textLength="77" x="153.5" y="25.5352">Identifiable</text><text fill="#000000" font-family="sans-serif" font-size="10" font-style="italic" lengthAdjust="spacingAndGlyphs" textLength="79" x="152.5" y="38.1563">it.tidalwave.role</text><line style="stroke: #A80036; stroke-width: 1.5;" x1="124.5" x2="233.5" y1="45.2656" y2="45.2656"/><ellipse cx="134.5" cy="56.2656" fill="#84BE84" rx="3" ry="3" style="stroke: #038048; stroke-width: 1.0;"/><text fill="#000000" font-family="sans-serif" font-size="11" font-style="italic" lengthAdjust="spacingAndGlyphs" textLength="51" x="143.5" y="59.9004">getId(): Id</text><!--MD5=[eb00b5a6e50507b34ee839f68fbbfe04]
reverse link it.tidalwave.role.Identifiable to it.tidalwave.northernwind.frontend.ui.component.nodecontainer.NodeContainerView--><path codeLine="14" d="M179,86.5049 C179,99.6211 179,113.5128 179,125.7555 " fill="none" id="it.tidalwave.role.Identifiable-backto-it.tidalwave.northernwind.frontend.ui.component.nodecontainer.NodeContainerView" style="stroke: #A80036; stroke-width: 1.0;"/><polygon fill="none" points="172.0001,86.2418,179,66.2417,186.0001,86.2417,172.0001,86.2418" style="stroke: #A80036; stroke-width: 1.0;"/><text fill="#888888" font-family="sans-serif" font-size="10" lengthAdjust="spacingAndGlyphs" textLength="188" x="82" y="220.8438">UMLDoclet 2.0.12, PlantUML 1.2020.16</text><!--MD5=[a016c8ec18cbf826a906e5c53d88e9b9]
@startuml
    set namespaceSeparator none
    hide empty fields
    hide empty methods

    interface "<size:14>NodeContainerView\n<size:10>it.tidalwave.northernwind.frontend.ui.component.nodecontainer" as it.tidalwave.northernwind.frontend.ui.component.nodecontainer.NodeContainerView [[NodeContainerView.html]] {
        {abstract} +addAttribute(String, String): void
        {abstract} +setTemplate(String): void
    }

    interface "<size:14>Identifiable\n<size:10>it.tidalwave.role" as it.tidalwave.role.Identifiable {
        {abstract} +getId(): Id
    }

    it.tidalwave.role.Identifiable <|- - it.tidalwave.northernwind.frontend.ui.component.nodecontainer.NodeContainerView

    center footer UMLDoclet 2.0.12, PlantUML 1.2020.16
@enduml

PlantUML version 1.2020.16(Sun Aug 23 22:20:43 CEST 2020)
(APACHE source distribution)
Java Runtime: OpenJDK Runtime Environment
JVM: OpenJDK 64-Bit Server VM
Default Encoding: UTF-8
Language: en
Country: GB
--></g></svg>