@startuml
    set namespaceSeparator none
    hide empty fields
    hide empty methods

    class "<size:14>IdXStreamConverter\n<size:10>it.tidalwave.thesefoolishthings.examples.dci.marshal.xstream.converter" as it.tidalwave.thesefoolishthings.examples.dci.marshal.xstream.converter.IdXStreamConverter [[IdXStreamConverter.html]] {
        +toString(Object): String
        +fromString(String): Object
        +canConvert(Class): boolean
    }

    interface "<size:14>SingleValueConverter\n<size:10>com.thoughtworks.xstream.converters" as com.thoughtworks.xstream.converters.SingleValueConverter {
        {abstract} +toString(Object): String
        {abstract} +fromString(String): Object
    }

    com.thoughtworks.xstream.converters.SingleValueConverter <|.. it.tidalwave.thesefoolishthings.examples.dci.marshal.xstream.converter.IdXStreamConverter

    center footer UMLDoclet 2.0.12, PlantUML 1.2020.16
@enduml
