<?xml version="1.0" encoding="UTF-8" standalone="no"?><svg xmlns="http://www.w3.org/2000/svg" xmlns:xlink="http://www.w3.org/1999/xlink" contentScriptType="application/ecmascript" contentStyleType="text/css" height="221px" preserveAspectRatio="none" style="width:288px;height:221px;" version="1.1" viewBox="0 0 288 221" width="288px" zoomAndPan="magnify"><defs><filter height="300%" id="f10kld5mmidiwc" width="300%" x="-1" y="-1"><feGaussianBlur result="blurOut" stdDeviation="2.0"/><feColorMatrix in="blurOut" result="blurOut2" type="matrix" values="0 0 0 0 0 0 0 0 0 0 0 0 0 0 0 0 0 0 .4 0"/><feOffset dx="4.0" dy="4.0" in="blurOut2" result="blurOut3"/><feBlend in="SourceGraphic" in2="blurOut3" mode="normal"/></filter></defs><g><!--MD5=[0f8968839723c715d0bd042a244f8d5e]
class it.tidalwave.role.spring.spi.SpringSystemRoleFactoryProvider--><a href="SpringSystemRoleFactoryProvider.html" target="_top" title="SpringSystemRoleFactoryProvider.html" xlink:actuate="onRequest" xlink:href="SpringSystemRoleFactoryProvider.html" xlink:show="new" xlink:title="SpringSystemRoleFactoryProvider.html" xlink:type="simple"><rect codeLine="5" fill="#FEFECE" filter="url(#f10kld5mmidiwc)" height="59.2207" id="it.tidalwave.role.spring.spi.SpringSystemRoleFactoryProvider" style="stroke: #A80036; stroke-width: 1.5;" width="262" x="7" y="126"/><ellipse cx="22" cy="145.1328" fill="#ADD1B2" rx="11" ry="11" style="stroke: #A80036; stroke-width: 1.0;"/><path d="M24.4731,151.2759 Q23.8921,151.5747 23.2529,151.7241 Q22.6138,151.8735 21.9082,151.8735 Q19.4014,151.8735 18.0815,150.2217 Q16.7617,148.5698 16.7617,145.4487 Q16.7617,142.3193 18.0815,140.6675 Q19.4014,139.0156 21.9082,139.0156 Q22.6138,139.0156 23.2612,139.165 Q23.9087,139.3145 24.4731,139.6133 L24.4731,142.3359 Q23.8423,141.7549 23.2488,141.4851 Q22.6553,141.2153 22.0244,141.2153 Q20.6797,141.2153 19.9949,142.282 Q19.3101,143.3486 19.3101,145.4487 Q19.3101,147.5405 19.9949,148.6072 Q20.6797,149.6738 22.0244,149.6738 Q22.6553,149.6738 23.2488,149.4041 Q23.8423,149.1343 24.4731,148.5532 Z "/><text fill="#000000" font-family="sans-serif" font-size="14" lengthAdjust="spacingAndGlyphs" textLength="230" x="36" y="144.5352">SpringSystemRoleFactoryProvider</text><text fill="#000000" font-family="sans-serif" font-size="10" lengthAdjust="spacingAndGlyphs" textLength="129" x="86.5" y="157.1563">it.tidalwave.role.spring.spi</text><line style="stroke: #A80036; stroke-width: 1.5;" x1="8" x2="268" y1="164.2656" y2="164.2656"/><ellipse cx="18" cy="175.2656" fill="#84BE84" rx="3" ry="3" style="stroke: #038048; stroke-width: 1.0;"/><text fill="#000000" font-family="sans-serif" font-size="11" lengthAdjust="spacingAndGlyphs" textLength="233" x="27" y="178.9004">getSystemRoleFactory(): SystemRoleFactory</text></a><!--MD5=[f4dbeecb91c6680a7e2891ef60058bcd]
class it.tidalwave.role.spi.SystemRoleFactoryProvider--><a href="../../spi/SystemRoleFactoryProvider.html" target="_top" title="../../spi/SystemRoleFactoryProvider.html" xlink:actuate="onRequest" xlink:href="../../spi/SystemRoleFactoryProvider.html" xlink:show="new" xlink:title="../../spi/SystemRoleFactoryProvider.html" xlink:type="simple"><rect codeLine="9" fill="#FEFECE" filter="url(#f10kld5mmidiwc)" height="59.2207" id="it.tidalwave.role.spi.SystemRoleFactoryProvider" style="stroke: #A80036; stroke-width: 1.5;" width="259" x="8.5" y="7"/><ellipse cx="42.4" cy="26.1328" fill="#B4A7E5" rx="11" ry="11" style="stroke: #A80036; stroke-width: 1.0;"/><path d="M38.8277,22.3979 L38.8277,20.2397 L46.2071,20.2397 L46.2071,22.3979 L43.7418,22.3979 L43.7418,30.4746 L46.2071,30.4746 L46.2071,32.6328 L38.8277,32.6328 L38.8277,30.4746 L41.2931,30.4746 L41.2931,22.3979 Z "/><text fill="#000000" font-family="sans-serif" font-size="14" font-style="italic" lengthAdjust="spacingAndGlyphs" textLength="185" x="60.6" y="25.5352">SystemRoleFactoryProvider</text><text fill="#000000" font-family="sans-serif" font-size="10" font-style="italic" lengthAdjust="spacingAndGlyphs" textLength="96" x="105.1" y="38.1563">it.tidalwave.role.spi</text><line style="stroke: #A80036; stroke-width: 1.5;" x1="9.5" x2="266.5" y1="45.2656" y2="45.2656"/><ellipse cx="19.5" cy="56.2656" fill="#84BE84" rx="3" ry="3" style="stroke: #038048; stroke-width: 1.0;"/><text fill="#000000" font-family="sans-serif" font-size="11" font-style="italic" lengthAdjust="spacingAndGlyphs" textLength="233" x="28.5" y="59.9004">getSystemRoleFactory(): SystemRoleFactory</text></a><!--MD5=[fe5648e6d0955ef16ef35269f1dd9f51]
reverse link it.tidalwave.role.spi.SystemRoleFactoryProvider to it.tidalwave.role.spring.spi.SpringSystemRoleFactoryProvider--><path codeLine="13" d="M138,86.3288 C138,99.7348 138,113.8139 138,125.7447 " fill="none" id="it.tidalwave.role.spi.SystemRoleFactoryProvider-backto-it.tidalwave.role.spring.spi.SpringSystemRoleFactoryProvider" style="stroke: #A80036; stroke-width: 1.0; stroke-dasharray: 7.0,7.0;"/><polygon fill="none" points="131.0001,86.2218,138,66.2218,145.0001,86.2217,131.0001,86.2218" style="stroke: #A80036; stroke-width: 1.0;"/><text fill="#888888" font-family="sans-serif" font-size="10" lengthAdjust="spacingAndGlyphs" textLength="188" x="41" y="207.8887">UMLDoclet 2.0.12, PlantUML 1.2020.16</text><!--MD5=[c87980774593c5d525292c5575b200df]
@startuml
    set namespaceSeparator none
    hide empty fields
    hide empty methods

    class "<size:14>SpringSystemRoleFactoryProvider\n<size:10>it.tidalwave.role.spring.spi" as it.tidalwave.role.spring.spi.SpringSystemRoleFactoryProvider [[SpringSystemRoleFactoryProvider.html]] {
        +getSystemRoleFactory(): SystemRoleFactory
    }

    interface "<size:14>SystemRoleFactoryProvider\n<size:10>it.tidalwave.role.spi" as it.tidalwave.role.spi.SystemRoleFactoryProvider [[../../spi/SystemRoleFactoryProvider.html]] {
        {abstract} +getSystemRoleFactory(): SystemRoleFactory
    }

    it.tidalwave.role.spi.SystemRoleFactoryProvider <|.. it.tidalwave.role.spring.spi.SpringSystemRoleFactoryProvider

    center footer UMLDoclet 2.0.12, PlantUML 1.2020.16
@enduml

PlantUML version 1.2020.16(Sun Aug 23 22:20:43 CEST 2020)
(APACHE source distribution)
Java Runtime: OpenJDK Runtime Environment
JVM: OpenJDK 64-Bit Server VM
Default Encoding: UTF-8
Language: en
Country: GB
--></g></svg>