GROUP,PACKAGE,CLASS,INSTRUCTION_MISSED,INSTRUCTION_COVERED,BRANCH_MISSED,BRANCH_COVERED,LINE_MISSED,LINE_COVERED,COMPLEXITY_MISSED,COMPLEXITY_COVERED,METHOD_MISSED,METHOD_COVERED
NorthernWind :: Frontend :: Webapp :: Media :: Spring MVC/it-tidalwave-northernwind-core,it.tidalwave.northernwind.core.model.spi,ResponseBuilderSupport,31,356,5,18,5,71,7,30,2,23
NorthernWind :: Frontend :: Webapp :: Media :: Spring MVC/it-tidalwave-northernwind-core,it.tidalwave.northernwind.core.model.spi,DecoratedResourceFileSupport,75,24,8,0,11,2,11,3,7,3
NorthernWind :: Frontend :: Webapp :: Media :: Spring MVC/it-tidalwave-northernwind-core,it.tidalwave.northernwind.core.model.spi,ResourceSupport,51,0,0,0,7,0,8,0,8,0
NorthernWind :: Frontend :: Webapp :: Media :: Spring MVC/it-tidalwave-northernwind-core,it.tidalwave.northernwind.core.model.spi,ContentSupport,74,0,0,0,6,0,12,0,12,0
NorthernWind :: Frontend :: Webapp :: Media :: Spring MVC/it-tidalwave-northernwind-core,it.tidalwave.northernwind.core.model.spi,RequestHolder,22,0,0,0,7,0,4,0,4,0
NorthernWind :: Frontend :: Webapp :: Media :: Spring MVC/it-tidalwave-northernwind-core,it.tidalwave.northernwind.core.model.spi,ModelFactorySupport,63,21,0,0,12,4,12,4,12,4
NorthernWind :: Frontend :: Webapp :: Media :: Spring MVC/it-tidalwave-northernwind-core,it.tidalwave.northernwind.core.model.spi,ResourceFileFinderSupport,59,60,0,0,8,16,4,8,4,8
NorthernWind :: Frontend :: Webapp :: Media :: Spring MVC/it-tidalwave-northernwind-core,it.tidalwave.northernwind.core.model.spi,MediaSupport,78,0,0,0,6,0,13,0,13,0
NorthernWind :: Frontend :: Webapp :: Media :: Spring MVC/it-tidalwave-northernwind-core,it.tidalwave.northernwind.core.model.spi,SiteNodeSupport,53,22,0,0,0,6,11,2,11,2
NorthernWind :: Frontend :: Webapp :: Media :: Spring MVC/it-tidalwave-northernwind-core,it.tidalwave.northernwind.core.model.spi,ResponseHolder,3,14,0,0,2,4,1,3,1,3
NorthernWind :: Frontend :: Webapp :: Media :: Spring MVC/it-tidalwave-northernwind-core,it.tidalwave.northernwind.frontend.ui.spi,ViewAndControllerLayoutBuilder,105,0,0,0,19,0,8,0,8,0
NorthernWind :: Frontend :: Webapp :: Media :: Spring MVC/it-tidalwave-northernwind-core,it.tidalwave.northernwind.frontend.ui.spi,ViewAndControllerLayoutBuilder.new ViewController() {...},3,0,0,0,1,0,1,0,1,0
NorthernWind :: Frontend :: Webapp :: Media :: Spring MVC/it-tidalwave-northernwind-core,it.tidalwave.northernwind.frontend.ui.spi,VirtualSiteNode,95,0,0,0,11,0,15,0,15,0
NorthernWind :: Frontend :: Webapp :: Media :: Spring MVC/it-tidalwave-northernwind-core,it.tidalwave.northernwind.frontend.ui.spi,NodeViewRenderer,73,0,2,0,19,0,6,0,5,0
NorthernWind :: Frontend :: Webapp :: Media :: Spring MVC/it-tidalwave-northernwind-core,it.tidalwave.northernwind.frontend.ui.spi,DefaultRenderContext,29,0,0,0,3,0,4,0,4,0
NorthernWind :: Frontend :: Webapp :: Media :: Spring MVC/it-tidalwave-northernwind-core,it.tidalwave.northernwind.frontend.ui,RenderContext,16,0,0,0,4,0,3,0,3,0
NorthernWind :: Frontend :: Webapp :: Media :: Spring MVC/it-tidalwave-northernwind-core,it.tidalwave.northernwind.frontend.ui,ViewController,4,1,0,0,3,1,3,1,3,1
NorthernWind :: Frontend :: Webapp :: Media :: Spring MVC/it-tidalwave-northernwind-core,it.tidalwave.northernwind.frontend.ui,Layout.Builder,21,78,2,2,4,5,6,6,4,6
NorthernWind :: Frontend :: Webapp :: Media :: Spring MVC/it-tidalwave-northernwind-core,it.tidalwave.northernwind.frontend.ui,ViewFactory.ViewAndController,13,23,0,0,2,3,2,3,2,3
NorthernWind :: Frontend :: Webapp :: Media :: Spring MVC/it-tidalwave-northernwind-core,it.tidalwave.northernwind.util,UrlEncoding,4,4,0,0,1,1,1,1,1,1
NorthernWind :: Frontend :: Webapp :: Media :: Spring MVC/it-tidalwave-northernwind-core,it.tidalwave.northernwind.util,CollectionFunctions,44,26,4,2,6,4,4,2,2,1
NorthernWind :: Frontend :: Webapp :: Media :: Spring MVC/it-tidalwave-northernwind-core,it.tidalwave.northernwind.core.model,ResourceProperties.Builder,171,0,6,0,13,0,17,0,14,0
NorthernWind :: Frontend :: Webapp :: Media :: Spring MVC/it-tidalwave-northernwind-core,it.tidalwave.northernwind.core.model,SiteNode,0,11,0,0,0,3,0,1,0,1
NorthernWind :: Frontend :: Webapp :: Media :: Spring MVC/it-tidalwave-northernwind-core,it.tidalwave.northernwind.core.model,Site.Builder,39,306,8,8,2,19,10,20,2,20
NorthernWind :: Frontend :: Webapp :: Media :: Spring MVC/it-tidalwave-northernwind-core,it.tidalwave.northernwind.core.model,ResourcePath,51,301,10,30,5,42,11,37,3,25
NorthernWind :: Frontend :: Webapp :: Media :: Spring MVC/it-tidalwave-northernwind-core,it.tidalwave.northernwind.core.model,Content.new Key() {...},0,4,0,0,0,1,0,1,0,1
NorthernWind :: Frontend :: Webapp :: Media :: Spring MVC/it-tidalwave-northernwind-core,it.tidalwave.northernwind.core.model,Media,3,0,0,0,1,0,1,0,1,0
NorthernWind :: Frontend :: Webapp :: Media :: Spring MVC/it-tidalwave-northernwind-core,it.tidalwave.northernwind.core.model,SiteProvider,3,0,0,0,1,0,1,0,1,0
NorthernWind :: Frontend :: Webapp :: Media :: Spring MVC/it-tidalwave-northernwind-core,it.tidalwave.northernwind.core.model,Resource,5,16,0,0,1,4,1,2,1,2
NorthernWind :: Frontend :: Webapp :: Media :: Spring MVC/it-tidalwave-northernwind-core,it.tidalwave.northernwind.core.model,Content.Builder,14,58,1,1,3,4,4,5,3,5
NorthernWind :: Frontend :: Webapp :: Media :: Spring MVC/it-tidalwave-northernwind-core,it.tidalwave.northernwind.core.model,ResourceProperties.PropertyResolver.new ResourceProperties.PropertyResolver() {...},9,0,0,0,2,0,2,0,2,0
NorthernWind :: Frontend :: Webapp :: Media :: Spring MVC/it-tidalwave-northernwind-core,it.tidalwave.northernwind.core.model,Template,8,0,0,0,1,0,1,0,1,0
NorthernWind :: Frontend :: Webapp :: Media :: Spring MVC/it-tidalwave-northernwind-core,it.tidalwave.northernwind.core.model,SiteFinder,5,5,0,0,1,1,1,1,1,1
NorthernWind :: Frontend :: Webapp :: Media :: Spring MVC/it-tidalwave-northernwind-core,it.tidalwave.northernwind.core.model,Content,0,44,0,0,0,11,0,1,0,1
NorthernWind :: Frontend :: Webapp :: Media :: Spring MVC/it-tidalwave-northernwind-core,it.tidalwave.northernwind.core.model,HttpStatusException,46,52,0,2,8,10,4,7,4,6
NorthernWind :: Frontend :: Webapp :: Media :: Spring MVC/it-tidalwave-northernwind-core,it.tidalwave.northernwind.core.model,ResourceFileSystemChangedEvent,9,20,0,0,1,2,2,2,2,2
NorthernWind :: Frontend :: Webapp :: Media :: Spring MVC/it-tidalwave-northernwind-core,it.tidalwave.northernwind.core.model,Template.Aggregate,31,26,0,0,5,5,5,4,5,4
NorthernWind :: Frontend :: Webapp :: Media :: Spring MVC/it-tidalwave-northernwind-core,it.tidalwave.northernwind.core.model,RequestProcessor.Status,0,24,0,0,0,2,0,1,0,1
NorthernWind :: Frontend :: Webapp :: Media :: Spring MVC/it-tidalwave-northernwind-core,it.tidalwave.northernwind.core.model,Template.Aggregates,26,45,0,0,3,10,4,7,4,7
NorthernWind :: Frontend :: Webapp :: Media :: Spring MVC/it-tidalwave-northernwind-core,it.tidalwave.northernwind.core.model,ResourceProperties,12,0,0,0,1,0,2,0,2,0
NorthernWind :: Frontend :: Webapp :: Media :: Spring MVC/it-tidalwave-northernwind-core,it.tidalwave.northernwind.core.model,Media.Builder,14,58,1,1,3,4,4,5,3,5
NorthernWind :: Frontend :: Webapp :: Media :: Spring MVC/it-tidalwave-northernwind-core,it.tidalwave.northernwind.core.model,Resource.Builder,14,58,1,1,3,4,4,5,3,5
NorthernWind :: Frontend :: Webapp :: Media :: Spring MVC/it-tidalwave-northernwind-core,it.tidalwave.northernwind.core.model,ResourceProperties.PropertyResolver,5,0,0,0,1,0,1,0,1,0
NorthernWind :: Frontend :: Webapp :: Media :: Spring MVC/it-tidalwave-northernwind-core-default,it.tidalwave.northernwind.core.impl.model,DefaultSiteFinder,94,130,14,6,19,33,11,8,2,7
NorthernWind :: Frontend :: Webapp :: Media :: Spring MVC/it-tidalwave-northernwind-core-default,it.tidalwave.northernwind.core.impl.model,DefaultResourceProperties.new HashMap() {...},0,37,0,0,0,8,0,2,0,2
NorthernWind :: Frontend :: Webapp :: Media :: Spring MVC/it-tidalwave-northernwind-core-default,it.tidalwave.northernwind.core.impl.model,DefaultRequest,240,0,4,0,27,0,21,0,19,0
NorthernWind :: Frontend :: Webapp :: Media :: Spring MVC/it-tidalwave-northernwind-core-default,it.tidalwave.northernwind.core.impl.model,PathFinderSupport,309,0,50,0,29,0,33,0,8,0
NorthernWind :: Frontend :: Webapp :: Media :: Spring MVC/it-tidalwave-northernwind-core-default,it.tidalwave.northernwind.core.impl.model,FilterSetExpander,110,0,24,0,10,0,16,0,4,0
NorthernWind :: Frontend :: Webapp :: Media :: Spring MVC/it-tidalwave-northernwind-core-default,it.tidalwave.northernwind.core.impl.model,DefaultContent,170,0,24,0,23,0,21,0,9,0
NorthernWind :: Frontend :: Webapp :: Media :: Spring MVC/it-tidalwave-northernwind-core-default,it.tidalwave.northernwind.core.impl.model,DefaultMedia,12,0,0,0,3,0,3,0,3,0
NorthernWind :: Frontend :: Webapp :: Media :: Spring MVC/it-tidalwave-northernwind-core-default,it.tidalwave.northernwind.core.impl.model,ResourcePropertiesDelegate,108,0,0,0,5,0,16,0,16,0
NorthernWind :: Frontend :: Webapp :: Media :: Spring MVC/it-tidalwave-northernwind-core-default,it.tidalwave.northernwind.core.impl.model,DefaultResource,310,0,38,0,40,0,26,0,7,0
NorthernWind :: Frontend :: Webapp :: Media :: Spring MVC/it-tidalwave-northernwind-core-default,it.tidalwave.northernwind.core.impl.model,DefaultSiteNode,105,250,25,17,15,35,22,9,4,6
NorthernWind :: Frontend :: Webapp :: Media :: Spring MVC/it-tidalwave-northernwind-core-default,it.tidalwave.northernwind.core.impl.model,DefaultResourceProperties,472,49,19,3,72,9,32,3,22,2
NorthernWind :: Frontend :: Webapp :: Media :: Spring MVC/it-tidalwave-northernwind-core-default,it.tidalwave.northernwind.core.impl.model,VoidLinkPostProcessor,5,0,0,0,2,0,2,0,2,0
NorthernWind :: Frontend :: Webapp :: Media :: Spring MVC/it-tidalwave-northernwind-core-default,it.tidalwave.northernwind.core.impl.model,DefaultInheritanceHelper,128,0,6,0,27,0,8,0,5,0
NorthernWind :: Frontend :: Webapp :: Media :: Spring MVC/it-tidalwave-northernwind-core-default,it.tidalwave.northernwind.core.impl.model,Filter,3,0,0,0,1,0,1,0,1,0
NorthernWind :: Frontend :: Webapp :: Media :: Spring MVC/it-tidalwave-northernwind-core-default,it.tidalwave.northernwind.core.impl.model,TextResourcePropertyResolver,210,0,28,0,27,0,18,0,4,0
NorthernWind :: Frontend :: Webapp :: Media :: Spring MVC/it-tidalwave-northernwind-core-default,it.tidalwave.northernwind.core.impl.model,ServletContextMimeTypeResolver,35,0,6,0,8,0,6,0,3,0
NorthernWind :: Frontend :: Webapp :: Media :: Spring MVC/it-tidalwave-northernwind-core-default,it.tidalwave.northernwind.core.impl.model,DefaultModelFactory,118,0,4,0,26,0,15,0,13,0
NorthernWind :: Frontend :: Webapp :: Media :: Spring MVC/it-tidalwave-northernwind-core-default,it.tidalwave.northernwind.core.impl.model,DefaultRequestLocaleManager,105,77,17,11,24,3,19,2,5,2
NorthernWind :: Frontend :: Webapp :: Media :: Spring MVC/it-tidalwave-northernwind-core-default,it.tidalwave.northernwind.core.impl.model,NormalizedLinkPostProcessor,0,25,0,6,0,5,0,5,0,2
NorthernWind :: Frontend :: Webapp :: Media :: Spring MVC/it-tidalwave-northernwind-core-default,it.tidalwave.northernwind.core.impl.model,DefaultSiteProvider,56,246,0,0,0,53,9,17,9,17
NorthernWind :: Frontend :: Webapp :: Media :: Spring MVC/it-tidalwave-northernwind-core-default,it.tidalwave.northernwind.core.impl.model,DefaultSite,47,616,15,27,7,100,22,25,7,19
NorthernWind :: Frontend :: Webapp :: Media :: Spring MVC/it-tidalwave-northernwind-core-default,it.tidalwave.northernwind.core.impl.model,DefaultRequestContext,212,0,28,0,31,0,26,0,12,0
NorthernWind :: Frontend :: Webapp :: Media :: Spring MVC/it-tidalwave-northernwind-core-default,it.tidalwave.northernwind.core.model.spi,AvailabilityEnforcerRequestProcessor,9,116,11,13,0,14,12,5,1,4
NorthernWind :: Frontend :: Webapp :: Media :: Spring MVC/it-tidalwave-northernwind-core-default,it.tidalwave.northernwind.core.model.spi,DefaultContentRequestProcessor,130,0,26,0,14,0,17,0,4,0
NorthernWind :: Frontend :: Webapp :: Media :: Spring MVC/it-tidalwave-northernwind-core-default,it.tidalwave.northernwind.core.model.spi,ParameterLanguageOverrideLinkPostProcessor,22,148,11,19,1,18,13,7,2,3
NorthernWind :: Frontend :: Webapp :: Media :: Spring MVC/it-tidalwave-northernwind-core-default,it.tidalwave.northernwind.core.model.spi,HeaderLanguageOverrideRequestProcessor,109,0,26,0,9,0,16,0,3,0
NorthernWind :: Frontend :: Webapp :: Media :: Spring MVC/it-tidalwave-northernwind-core-default,it.tidalwave.northernwind.core.model.spi,ParameterLanguageOverrideRequestProcessor,46,83,13,11,8,4,17,3,5,3
NorthernWind :: Frontend :: Webapp :: Media :: Spring MVC/it-tidalwave-northernwind-core-default,it.tidalwave.northernwind.core.model.spi,DefaultRedirectProcessor.new Key() {...},4,0,0,0,1,0,1,0,1,0
NorthernWind :: Frontend :: Webapp :: Media :: Spring MVC/it-tidalwave-northernwind-core-default,it.tidalwave.northernwind.core.model.spi,DefaultRedirectProcessor.Mapping,30,0,0,0,7,0,3,0,3,0
NorthernWind :: Frontend :: Webapp :: Media :: Spring MVC/it-tidalwave-northernwind-core-default,it.tidalwave.northernwind.core.model.spi,SiteResetterOnFileSystemChange,23,0,0,0,6,0,3,0,3,0
NorthernWind :: Frontend :: Webapp :: Media :: Spring MVC/it-tidalwave-northernwind-core-default,it.tidalwave.northernwind.core.model.spi,SiteResetterOnFileSystemChange.new MessageBus.Listener() {...},16,0,0,0,4,0,2,0,2,0
NorthernWind :: Frontend :: Webapp :: Media :: Spring MVC/it-tidalwave-northernwind-core-default,it.tidalwave.northernwind.core.model.spi,DefaultRedirectProcessor,223,0,34,0,34,0,21,0,4,0
NorthernWind :: Frontend :: Webapp :: Media :: Spring MVC/it-tidalwave-northernwind-core-default,it.tidalwave.northernwind.core.model.spi,DefaultMediaRequestProcessor,162,0,8,0,39,0,11,0,7,0
NorthernWind :: Frontend :: Webapp :: Media :: Spring MVC/it-tidalwave-northernwind-core-default,it.tidalwave.northernwind.core.model.spi,DefaultLibraryRequestProcessor,152,0,24,0,20,0,17,0,5,0
NorthernWind :: Frontend :: Webapp :: Media :: Spring MVC/it-tidalwave-northernwind-core-default,it.tidalwave.northernwind.core.impl.filter,MediaLinkMacroFilter,40,0,4,0,5,0,5,0,3,0
NorthernWind :: Frontend :: Webapp :: Media :: Spring MVC/it-tidalwave-northernwind-core-default,it.tidalwave.northernwind.core.impl.filter,NodeLinkWithContentMacroFilter,5,99,2,2,0,13,3,5,1,5
NorthernWind :: Frontend :: Webapp :: Media :: Spring MVC/it-tidalwave-northernwind-core-default,it.tidalwave.northernwind.core.impl.filter,HtmlCleanupFilter,84,0,16,0,23,0,12,0,4,0
NorthernWind :: Frontend :: Webapp :: Media :: Spring MVC/it-tidalwave-northernwind-core-default,it.tidalwave.northernwind.core.impl.filter,ContentPropertyResolverMacroFilter,45,0,4,0,5,0,5,0,3,0
NorthernWind :: Frontend :: Webapp :: Media :: Spring MVC/it-tidalwave-northernwind-core-default,it.tidalwave.northernwind.core.impl.filter,NodeLinkMacroFilter,0,51,1,3,0,7,1,4,0,3
NorthernWind :: Frontend :: Webapp :: Media :: Spring MVC/it-tidalwave-northernwind-core-default,it.tidalwave.northernwind.core.impl.filter,NodePropertyResolverMacroFilter,42,0,4,0,5,0,5,0,3,0
NorthernWind :: Frontend :: Webapp :: Media :: Spring MVC/it-tidalwave-northernwind-core-default,it.tidalwave.northernwind.core.impl.filter,LibraryLinkMacroFilter,38,0,4,0,5,0,5,0,3,0
NorthernWind :: Frontend :: Webapp :: Media :: Spring MVC/it-tidalwave-northernwind-core-default,it.tidalwave.northernwind.core.impl.filter,XsltMacroFilter,86,283,13,17,18,43,13,10,0,8
NorthernWind :: Frontend :: Webapp :: Media :: Spring MVC/it-tidalwave-northernwind-core-default,it.tidalwave.northernwind.core.impl.filter,GlobalPropertyResolverMacroFilter,55,0,4,0,9,0,5,0,3,0
NorthernWind :: Frontend :: Webapp :: Media :: Spring MVC/it-tidalwave-northernwind-core-default,it.tidalwave.northernwind.core.impl.filter,MacroFilter,46,110,11,13,7,14,12,5,1,4
NorthernWind :: Frontend :: Webapp :: Media :: Spring MVC/it-tidalwave-northernwind-core-default,it.tidalwave.northernwind.core.impl.util,RegexTreeMap,4,86,2,10,1,20,2,9,0,5
NorthernWind :: Frontend :: Webapp :: Media :: Spring MVC/it-tidalwave-northernwind-core-default,it.tidalwave.northernwind.core.impl.util,CachedURIResolver,194,0,12,0,42,0,20,0,14,0
NorthernWind :: Frontend :: Webapp :: Media :: Spring MVC/it-tidalwave-northernwind-core-default,it.tidalwave.northernwind.frontend.impl.ui,DefaultLayout.CloneVisitor,44,0,2,0,11,0,5,0,4,0
NorthernWind :: Frontend :: Webapp :: Media :: Spring MVC/it-tidalwave-northernwind-core-default,it.tidalwave.northernwind.frontend.impl.ui,LayoutLoggerVisitor.Level.new LayoutLoggerVisitor.Level() {...},6,5,0,0,2,1,1,1,1,1
NorthernWind :: Frontend :: Webapp :: Media :: Spring MVC/it-tidalwave-northernwind-core-default,it.tidalwave.northernwind.frontend.impl.ui,LayoutLoggerVisitor.Level.new LayoutLoggerVisitor.Level() {...},6,5,0,0,2,1,1,1,1,1
NorthernWind :: Frontend :: Webapp :: Media :: Spring MVC/it-tidalwave-northernwind-core-default,it.tidalwave.northernwind.frontend.impl.ui,DefaultLayoutFinder,95,0,4,0,21,0,7,0,5,0
NorthernWind :: Frontend :: Webapp :: Media :: Spring MVC/it-tidalwave-northernwind-core-default,it.tidalwave.northernwind.frontend.impl.ui,DefaultViewFactory,9,102,1,3,0,20,3,8,2,7
NorthernWind :: Frontend :: Webapp :: Media :: Spring MVC/it-tidalwave-northernwind-core-default,it.tidalwave.northernwind.frontend.impl.ui,LayoutLoggerVisitor,30,14,0,0,5,1,3,2,3,2
NorthernWind :: Frontend :: Webapp :: Media :: Spring MVC/it-tidalwave-northernwind-core-default,it.tidalwave.northernwind.frontend.impl.ui,DefaultLayout,553,0,78,0,62,0,63,0,24,0
NorthernWind :: Frontend :: Webapp :: Media :: Spring MVC/it-tidalwave-northernwind-core-default,it.tidalwave.northernwind.frontend.impl.ui,LayoutLoggerVisitor.Level,0,24,0,0,0,3,0,1,0,1
NorthernWind :: Frontend :: Webapp :: Media :: Spring MVC/it-tidalwave-northernwind-core-default,it.tidalwave.northernwind.frontend.impl.ui,ViewBuilder,38,230,16,20,7,24,14,9,0,5
NorthernWind :: Frontend :: Webapp :: Media :: Spring MVC/it-tidalwave-northernwind-core-default,it.tidalwave.northernwind.frontend.ui.spi,DefaultSiteViewController,0,80,0,2,0,12,0,7,0,6
NorthernWind :: Frontend :: Webapp :: Media :: Spring MVC/it-tidalwave-northernwind-core-default,it.tidalwave.northernwind.frontend.ui.spi,DefaultSiteViewController.AjcClosure1,0,21,0,0,0,1,0,2,0,2
NorthernWind :: Frontend :: Webapp :: Media :: Spring MVC/it-tidalwave-northernwind-core-default,it.tidalwave.northernwind.core.impl.text,St4TemplateFactory,1,116,1,1,0,16,1,7,0,7
NorthernWind :: Frontend :: Webapp :: Media :: Spring MVC/it-tidalwave-northernwind-core-default,it.tidalwave.northernwind.core.impl.text,St4Template,27,58,3,3,5,9,3,4,1,3
NorthernWind :: Frontend :: Webapp :: Media :: Spring MVC/it-tidalwave-northernwind-core-filesystem-basic,it.tidalwave.northernwind.frontend.filesystem.impl,ResourceFileSystemNetBeansPlatform,32,54,0,4,1,11,6,5,6,3
NorthernWind :: Frontend :: Webapp :: Media :: Spring MVC/it-tidalwave-northernwind-core-filesystem-basic,it.tidalwave.northernwind.frontend.filesystem.impl,ResourceFileNetBeansPlatform,348,158,16,14,14,18,77,11,63,10
NorthernWind :: Frontend :: Webapp :: Media :: Spring MVC/it-tidalwave-northernwind-core-filesystem-basic,it.tidalwave.northernwind.frontend.filesystem.basic,LocalCopyFileSystemProvider,191,0,12,0,39,0,18,0,12,0
NorthernWind :: Frontend :: Webapp :: Media :: Spring MVC/it-tidalwave-northernwind-core-filesystem-basic,it.tidalwave.northernwind.frontend.filesystem.basic,ZipFileSystemProvider.new TimerTask() {...},100,0,6,0,20,0,5,0,2,0
NorthernWind :: Frontend :: Webapp :: Media :: Spring MVC/it-tidalwave-northernwind-core-filesystem-basic,it.tidalwave.northernwind.frontend.filesystem.basic,ZipFileSystemProvider,110,0,4,0,17,0,10,0,8,0
NorthernWind :: Frontend :: Webapp :: Media :: Spring MVC/it-tidalwave-northernwind-core-filesystem-basic,it.tidalwave.northernwind.frontend.filesystem.basic,LocalCopyFileSystemProvider.new MessageBus.Listener() {...},35,0,2,0,10,0,3,0,2,0
NorthernWind :: Frontend :: Webapp :: Media :: Spring MVC/it-tidalwave-northernwind-core-filesystem-basic,it.tidalwave.northernwind.frontend.filesystem.basic,LocalFileSystemProvider,20,47,1,3,4,10,3,4,2,3
NorthernWind :: Frontend :: Webapp :: Media :: Spring MVC/it-tidalwave-northernwind-core-filesystem-basic,it.tidalwave.northernwind.frontend.filesystem.basic.layered,DecoratorResourceFolder,105,117,7,11,7,27,20,11,15,7
NorthernWind :: Frontend :: Webapp :: Media :: Spring MVC/it-tidalwave-northernwind-core-filesystem-basic,it.tidalwave.northernwind.frontend.filesystem.basic.layered,LayeredFileSystemProvider,10,35,1,1,1,6,4,4,3,4
NorthernWind :: Frontend :: Webapp :: Media :: Spring MVC/it-tidalwave-northernwind-core-filesystem-basic,it.tidalwave.northernwind.frontend.filesystem.basic.layered,LayeredResourceFileSystem,47,116,5,7,7,25,10,6,5,5
NorthernWind :: Frontend :: Webapp :: Media :: Spring MVC/it-tidalwave-northernwind-core-filesystem-basic,it.tidalwave.northernwind.frontend.filesystem.basic.layered,DelegateZipFileSystemsDiscoverer,92,0,8,0,20,0,11,0,7,0
NorthernWind :: Frontend :: Webapp :: Media :: Spring MVC/it-tidalwave-northernwind-core-filesystem-basic,it.tidalwave.northernwind.frontend.filesystem.basic.layered,DecoratorResourceFile,64,25,0,0,0,5,14,5,14,5
NorthernWind :: Frontend :: Webapp :: Media :: Spring MVC/it-tidalwave-northernwind-core-filesystem-hg,it.tidalwave.northernwind.frontend.filesystem.hg.impl,MercurialFileSystemProvider,0,8,0,0,0,2,0,2,0,2
NorthernWind :: Frontend :: Webapp :: Media :: Spring MVC/it-tidalwave-northernwind-core-filesystem-hg,it.tidalwave.northernwind.frontend.filesystem.hg.impl,MercurialWorkingDirectory,2,154,2,4,1,31,2,11,0,10
NorthernWind :: Frontend :: Webapp :: Media :: Spring MVC/it-tidalwave-northernwind-core-filesystem-git,it.tidalwave.northernwind.frontend.filesystem.git.impl,GitFileSystemProvider,0,8,0,0,0,2,0,2,0,2
NorthernWind :: Frontend :: Webapp :: Media :: Spring MVC/it-tidalwave-northernwind-core-filesystem-git,it.tidalwave.northernwind.frontend.filesystem.git.impl,GitWorkingDirectory,4,175,4,4,2,29,4,10,0,10
NorthernWind :: Frontend :: Webapp :: Media :: Spring MVC/it-tidalwave-northernwind-core-marshalling-default,it.tidalwave.northernwind.core.impl.io.jaxb,ComponentJaxb,28,0,2,0,10,0,7,0,6,0
NorthernWind :: Frontend :: Webapp :: Media :: Spring MVC/it-tidalwave-northernwind-core-marshalling-default,it.tidalwave.northernwind.core.impl.io.jaxb,ObjectFactory,52,0,0,0,11,0,9,0,9,0
NorthernWind :: Frontend :: Webapp :: Media :: Spring MVC/it-tidalwave-northernwind-core-marshalling-default,it.tidalwave.northernwind.core.impl.io.jaxb,ComponentsJaxb,17,0,0,0,7,0,5,0,5,0
NorthernWind :: Frontend :: Webapp :: Media :: Spring MVC/it-tidalwave-northernwind-core-marshalling-default,it.tidalwave.northernwind.core.impl.io.jaxb,PropertiesJaxb,39,0,4,0,13,0,9,0,7,0
NorthernWind :: Frontend :: Webapp :: Media :: Spring MVC/it-tidalwave-northernwind-core-marshalling-default,it.tidalwave.northernwind.core.impl.io.jaxb,ValuesJaxb,14,0,2,0,4,0,3,0,2,0
NorthernWind :: Frontend :: Webapp :: Media :: Spring MVC/it-tidalwave-northernwind-core-marshalling-default,it.tidalwave.northernwind.core.impl.io.jaxb,PropertyJaxb,24,0,0,0,10,0,7,0,7,0
NorthernWind :: Frontend :: Webapp :: Media :: Spring MVC/it-tidalwave-northernwind-core-marshalling-default,it.tidalwave.northernwind.core.impl.io,ResourcePropertiesJaxbMarshallable,224,0,32,0,34,0,21,0,5,0
NorthernWind :: Frontend :: Webapp :: Media :: Spring MVC/it-tidalwave-northernwind-core-marshalling-default,it.tidalwave.northernwind.core.impl.io,LayoutJaxbMarshallable,155,0,24,0,20,0,16,0,4,0
NorthernWind :: Frontend :: Webapp :: Media :: Spring MVC/it-tidalwave-northernwind-core-marshalling-default,it.tidalwave.northernwind.core.impl.io,LayoutJaxbUnmarshallable,153,0,26,0,16,0,18,0,5,0
NorthernWind :: Frontend :: Webapp :: Media :: Spring MVC/it-tidalwave-northernwind-core-marshalling-default,it.tidalwave.northernwind.core.impl.io,ResourcePropertiesJaxbUnmarshallable,185,0,32,0,18,0,20,0,4,0
NorthernWind :: Frontend :: Webapp :: Media :: Spring MVC/it-tidalwave-northernwind-core-profiling,it.tidalwave.northernwind.profiling,RequestProfilerAspect,21,98,14,12,0,8,14,4,1,4
NorthernWind :: Frontend :: Webapp :: Media :: Spring MVC/it-tidalwave-northernwind-core-profiling,it.tidalwave.northernwind.profiling.impl,DefaultStatisticsCollector.Sample,55,0,0,0,11,0,5,0,5,0
NorthernWind :: Frontend :: Webapp :: Media :: Spring MVC/it-tidalwave-northernwind-core-profiling,it.tidalwave.northernwind.profiling.impl,Stats,160,0,0,0,20,0,5,0,5,0
NorthernWind :: Frontend :: Webapp :: Media :: Spring MVC/it-tidalwave-northernwind-core-profiling,it.tidalwave.northernwind.profiling.impl,DefaultStatisticsCollector,211,0,22,0,31,0,16,0,5,0
