<?xml version="1.0" encoding="UTF-8" standalone="no"?><svg xmlns="http://www.w3.org/2000/svg" xmlns:xlink="http://www.w3.org/1999/xlink" contentScriptType="application/ecmascript" contentStyleType="text/css" height="503px" preserveAspectRatio="none" style="width:983px;height:503px;" version="1.1" viewBox="0 0 983 503" width="983px" zoomAndPan="magnify"><defs><filter height="300%" id="f46kxkmk2el5l" width="300%" x="-1" y="-1"><feGaussianBlur result="blurOut" stdDeviation="2.0"/><feColorMatrix in="blurOut" result="blurOut2" type="matrix" values="0 0 0 0 0 0 0 0 0 0 0 0 0 0 0 0 0 0 .4 0"/><feOffset dx="4.0" dy="4.0" in="blurOut2" result="blurOut3"/><feBlend in="SourceGraphic" in2="blurOut3" mode="normal"/></filter></defs><g><!--MD5=[c157bec24dced1b294704707e0f8107e]
cluster it.tidalwave.actor.spi--><polygon fill="#FFFFFF" filter="url(#f46kxkmk2el5l)" points="16,166,169,166,176,188.4883,961,188.4883,961,474,16,474,16,166" style="stroke: #000000; stroke-width: 1.5;"/><line style="stroke: #000000; stroke-width: 1.5;" x1="16" x2="176" y1="188.4883" y2="188.4883"/><text fill="#000000" font-family="sans-serif" font-size="14" font-weight="bold" lengthAdjust="spacingAndGlyphs" textLength="147" x="20" y="181.5352">it.tidalwave.actor.spi</text><!--MD5=[e4549cd9a5af2e65ccdbc914a80faec6]
cluster it.tidalwave.messagebus--><polygon fill="#FFFFFF" filter="url(#f46kxkmk2el5l)" points="198,6,379,6,386,28.4883,458,28.4883,458,141,198,141,198,6" style="stroke: #000000; stroke-width: 1.5;"/><line style="stroke: #000000; stroke-width: 1.5;" x1="198" x2="386" y1="28.4883" y2="28.4883"/><text fill="#000000" font-family="sans-serif" font-size="14" font-weight="bold" lengthAdjust="spacingAndGlyphs" textLength="175" x="202" y="21.5352">it.tidalwave.messagebus</text><!--MD5=[7d1bdda8d351fda88bea9020a6725597]
class it.tidalwave.actor.spi.ActorActivatorStatsMBean--><a href="ActorActivatorStatsMBean.html" target="_top" title="ActorActivatorStatsMBean.html" xlink:actuate="onRequest" xlink:href="ActorActivatorStatsMBean.html" xlink:show="new" xlink:title="ActorActivatorStatsMBean.html" xlink:type="simple"><rect codeLine="3" fill="#FEFECE" filter="url(#f46kxkmk2el5l)" height="112.7754" id="it.tidalwave.actor.spi.ActorActivatorStatsMBean" style="stroke: #A80036; stroke-width: 1.5;" width="211" x="741.5" y="193"/><ellipse cx="771.8" cy="209" fill="#B4A7E5" rx="11" ry="11" style="stroke: #A80036; stroke-width: 1.0;"/><path d="M768.2277,205.2651 L768.2277,203.1069 L775.6071,203.1069 L775.6071,205.2651 L773.1418,205.2651 L773.1418,213.3418 L775.6071,213.3418 L775.6071,215.5 L768.2277,215.5 L768.2277,213.3418 L770.6931,213.3418 L770.6931,205.2651 Z "/><text fill="#000000" font-family="sans-serif" font-size="12" font-style="italic" lengthAdjust="spacingAndGlyphs" textLength="145" x="789.2" y="213.5352">ActorActivatorStatsMBean</text><line style="stroke: #A80036; stroke-width: 1.5;" x1="742.5" x2="951.5" y1="225" y2="225"/><line style="stroke: #A80036; stroke-width: 1.5;" x1="742.5" x2="951.5" y1="233" y2="233"/><ellipse cx="752.5" cy="244" fill="#84BE84" rx="3" ry="3" style="stroke: #038048; stroke-width: 1.0;"/><text fill="#000000" font-family="sans-serif" font-size="11" font-style="italic" lengthAdjust="spacingAndGlyphs" textLength="89" x="761.5" y="247.6348">getPoolSize(): int</text><ellipse cx="752.5" cy="256.9551" fill="#84BE84" rx="3" ry="3" style="stroke: #038048; stroke-width: 1.0;"/><text fill="#000000" font-family="sans-serif" font-size="11" font-style="italic" lengthAdjust="spacingAndGlyphs" textLength="167" x="761.5" y="260.5898">getPendingMessageCount(): int</text><ellipse cx="752.5" cy="269.9102" fill="#84BE84" rx="3" ry="3" style="stroke: #038048; stroke-width: 1.0;"/><text fill="#000000" font-family="sans-serif" font-size="11" font-style="italic" lengthAdjust="spacingAndGlyphs" textLength="134" x="761.5" y="273.5449">getInvocationCount(): int</text><ellipse cx="752.5" cy="282.8652" fill="#84BE84" rx="3" ry="3" style="stroke: #038048; stroke-width: 1.0;"/><text fill="#000000" font-family="sans-serif" font-size="11" font-style="italic" lengthAdjust="spacingAndGlyphs" textLength="185" x="761.5" y="286.5">getSuccesfulInvocationCount(): int</text><ellipse cx="752.5" cy="295.8203" fill="#84BE84" rx="3" ry="3" style="stroke: #038048; stroke-width: 1.0;"/><text fill="#000000" font-family="sans-serif" font-size="11" font-style="italic" lengthAdjust="spacingAndGlyphs" textLength="162" x="761.5" y="299.4551">getInvocationErrorCount(): int</text></a><!--MD5=[469158ad8ffc2dc5de2c3b64a9289a69]
class it.tidalwave.actor.spi.ActorActivatorStats--><a href="ActorActivatorStats.html" target="_top" title="ActorActivatorStats.html" xlink:actuate="onRequest" xlink:href="ActorActivatorStats.html" xlink:show="new" xlink:title="ActorActivatorStats.html" xlink:type="simple"><rect codeLine="11" fill="#FEFECE" filter="url(#f46kxkmk2el5l)" height="99.8203" id="it.tidalwave.actor.spi.ActorActivatorStats" style="stroke: #A80036; stroke-width: 1.5;" width="263" x="689.5" y="366"/><ellipse cx="763.25" cy="382" fill="#ADD1B2" rx="11" ry="11" style="stroke: #A80036; stroke-width: 1.0;"/><path d="M765.7231,388.1431 Q765.1421,388.4419 764.5029,388.5913 Q763.8638,388.7407 763.1582,388.7407 Q760.6514,388.7407 759.3315,387.0889 Q758.0117,385.437 758.0117,382.3159 Q758.0117,379.1865 759.3315,377.5347 Q760.6514,375.8828 763.1582,375.8828 Q763.8638,375.8828 764.5112,376.0322 Q765.1587,376.1816 765.7231,376.4805 L765.7231,379.2031 Q765.0923,378.6221 764.4988,378.3523 Q763.9053,378.0825 763.2744,378.0825 Q761.9297,378.0825 761.2449,379.1492 Q760.5601,380.2158 760.5601,382.3159 Q760.5601,384.4077 761.2449,385.4744 Q761.9297,386.541 763.2744,386.541 Q763.9053,386.541 764.4988,386.2712 Q765.0923,386.0015 765.7231,385.4204 Z "/><text fill="#000000" font-family="sans-serif" font-size="12" lengthAdjust="spacingAndGlyphs" textLength="107" x="783.75" y="386.5352">ActorActivatorStats</text><line style="stroke: #A80036; stroke-width: 1.5;" x1="690.5" x2="951.5" y1="398" y2="398"/><line style="stroke: #A80036; stroke-width: 1.5;" x1="690.5" x2="951.5" y1="406" y2="406"/><ellipse cx="700.5" cy="417" fill="#84BE84" rx="3" ry="3" style="stroke: #038048; stroke-width: 1.0;"/><text fill="#000000" font-family="sans-serif" font-size="11" lengthAdjust="spacingAndGlyphs" textLength="212" x="709.5" y="420.6348">changePendingMessageCount(int): void</text><ellipse cx="700.5" cy="429.9551" fill="#84BE84" rx="3" ry="3" style="stroke: #038048; stroke-width: 1.0;"/><text fill="#000000" font-family="sans-serif" font-size="11" lengthAdjust="spacingAndGlyphs" textLength="180" x="709.5" y="433.5898">incrementInvocationCount(): void</text><ellipse cx="700.5" cy="442.9102" fill="#84BE84" rx="3" ry="3" style="stroke: #038048; stroke-width: 1.0;"/><text fill="#000000" font-family="sans-serif" font-size="11" lengthAdjust="spacingAndGlyphs" textLength="208" x="709.5" y="446.5449">incrementInvocationErrorCount(): void</text><ellipse cx="700.5" cy="455.8652" fill="#84BE84" rx="3" ry="3" style="stroke: #038048; stroke-width: 1.0;"/><text fill="#000000" font-family="sans-serif" font-size="11" lengthAdjust="spacingAndGlyphs" textLength="237" x="709.5" y="459.5">incrementSuccessfulInvocationCount(): void</text></a><!--MD5=[08c2ebadfbb8510cffc8f2152dfa6753]
class it.tidalwave.actor.spi.ActorActivator--><a href="ActorActivator.html" target="_top" title="ActorActivator.html" xlink:actuate="onRequest" xlink:href="ActorActivator.html" xlink:show="new" xlink:title="ActorActivator.html" xlink:type="simple"><rect codeLine="18" fill="#FEFECE" filter="url(#f46kxkmk2el5l)" height="99.8203" id="it.tidalwave.actor.spi.ActorActivator" style="stroke: #A80036; stroke-width: 1.5;" width="236" x="470" y="199.5"/><ellipse cx="543.75" cy="215.5" fill="#ADD1B2" rx="11" ry="11" style="stroke: #A80036; stroke-width: 1.0;"/><path d="M546.2231,221.6431 Q545.6421,221.9419 545.0029,222.0913 Q544.3638,222.2407 543.6582,222.2407 Q541.1514,222.2407 539.8315,220.5889 Q538.5117,218.937 538.5117,215.8159 Q538.5117,212.6865 539.8315,211.0347 Q541.1514,209.3828 543.6582,209.3828 Q544.3638,209.3828 545.0112,209.5322 Q545.6587,209.6816 546.2231,209.9805 L546.2231,212.7031 Q545.5923,212.1221 544.9988,211.8523 Q544.4053,211.5825 543.7744,211.5825 Q542.4297,211.5825 541.7449,212.6492 Q541.0601,213.7158 541.0601,215.8159 Q541.0601,217.9077 541.7449,218.9744 Q542.4297,220.041 543.7744,220.041 Q544.4053,220.041 544.9988,219.7712 Q545.5923,219.5015 546.2231,218.9204 Z "/><text fill="#000000" font-family="sans-serif" font-size="12" lengthAdjust="spacingAndGlyphs" textLength="80" x="564.25" y="220.0352">ActorActivator</text><line style="stroke: #A80036; stroke-width: 1.5;" x1="471" x2="705" y1="231.5" y2="231.5"/><line style="stroke: #A80036; stroke-width: 1.5;" x1="471" x2="705" y1="239.5" y2="239.5"/><ellipse cx="481" cy="250.5" fill="#84BE84" rx="3" ry="3" style="stroke: #038048; stroke-width: 1.0;"/><text fill="#000000" font-family="sans-serif" font-size="11" lengthAdjust="spacingAndGlyphs" text-decoration="underline" textLength="210" x="490" y="254.1348">activatorFor(Class&lt;?&gt;): ActorActivator</text><ellipse cx="481" cy="263.4551" fill="#84BE84" rx="3" ry="3" style="stroke: #038048; stroke-width: 1.0;"/><text fill="#000000" font-family="sans-serif" font-size="11" lengthAdjust="spacingAndGlyphs" textLength="173" x="490" y="267.0898">withPoolSize(int): ActorActivator</text><ellipse cx="481" cy="276.4102" fill="#84BE84" rx="3" ry="3" style="stroke: #038048; stroke-width: 1.0;"/><text fill="#000000" font-family="sans-serif" font-size="11" lengthAdjust="spacingAndGlyphs" textLength="81" x="490" y="280.0449">initialize(): void</text><ellipse cx="481" cy="289.3652" fill="#84BE84" rx="3" ry="3" style="stroke: #038048; stroke-width: 1.0;"/><text fill="#000000" font-family="sans-serif" font-size="11" lengthAdjust="spacingAndGlyphs" textLength="79" x="490" y="293">dispose(): void</text></a><!--MD5=[677822b52490a333b943ed1d4f9b2e57]
class it.tidalwave.actor.spi.CollaborationAwareMessageBus--><a href="CollaborationAwareMessageBus.html" target="_top" title="CollaborationAwareMessageBus.html" xlink:actuate="onRequest" xlink:href="CollaborationAwareMessageBus.html" xlink:show="new" xlink:title="CollaborationAwareMessageBus.html" xlink:type="simple"><rect codeLine="25" fill="#FEFECE" filter="url(#f46kxkmk2el5l)" height="48" id="it.tidalwave.actor.spi.CollaborationAwareMessageBus" style="stroke: #A80036; stroke-width: 1.5;" width="214" x="221" y="225.5"/><ellipse cx="236" cy="241.5" fill="#B4A7E5" rx="11" ry="11" style="stroke: #A80036; stroke-width: 1.0;"/><path d="M232.4277,237.7651 L232.4277,235.6069 L239.8071,235.6069 L239.8071,237.7651 L237.3418,237.7651 L237.3418,245.8418 L239.8071,245.8418 L239.8071,248 L232.4277,248 L232.4277,245.8418 L234.8931,245.8418 L234.8931,237.7651 Z "/><text fill="#000000" font-family="sans-serif" font-size="12" font-style="italic" lengthAdjust="spacingAndGlyphs" textLength="182" x="250" y="246.0352">CollaborationAwareMessageBus</text><line style="stroke: #A80036; stroke-width: 1.5;" x1="222" x2="434" y1="257.5" y2="257.5"/><line style="stroke: #A80036; stroke-width: 1.5;" x1="222" x2="434" y1="265.5" y2="265.5"/></a><!--MD5=[66be5b1692a60590a7169bc8eb77308e]
class it.tidalwave.actor.spi.ActorGroupActivator--><a href="ActorGroupActivator.html" target="_top" title="ActorGroupActivator.html" xlink:actuate="onRequest" xlink:href="ActorGroupActivator.html" xlink:show="new" xlink:title="ActorGroupActivator.html" xlink:type="simple"><rect codeLine="27" fill="#FEFECE" filter="url(#f46kxkmk2el5l)" height="86.8652" id="it.tidalwave.actor.spi.ActorGroupActivator" style="stroke: #A80036; stroke-width: 1.5;" width="162" x="24" y="206"/><ellipse cx="45.3" cy="222" fill="#ADD1B2" rx="11" ry="11" style="stroke: #A80036; stroke-width: 1.0;"/><path d="M47.7731,228.1431 Q47.1921,228.4419 46.5529,228.5913 Q45.9138,228.7407 45.2082,228.7407 Q42.7014,228.7407 41.3815,227.0889 Q40.0617,225.437 40.0617,222.3159 Q40.0617,219.1865 41.3815,217.5347 Q42.7014,215.8828 45.2082,215.8828 Q45.9138,215.8828 46.5612,216.0322 Q47.2087,216.1816 47.7731,216.4805 L47.7731,219.2031 Q47.1423,218.6221 46.5488,218.3523 Q45.9553,218.0825 45.3244,218.0825 Q43.9797,218.0825 43.2949,219.1492 Q42.6101,220.2158 42.6101,222.3159 Q42.6101,224.4077 43.2949,225.4744 Q43.9797,226.541 45.3244,226.541 Q45.9553,226.541 46.5488,226.2712 Q47.1423,226.0015 47.7731,225.4204 Z "/><text fill="#000000" font-family="sans-serif" font-size="12" lengthAdjust="spacingAndGlyphs" textLength="116" x="60.7" y="226.5352">ActorGroupActivator</text><line style="stroke: #A80036; stroke-width: 1.5;" x1="25" x2="185" y1="238" y2="238"/><line style="stroke: #A80036; stroke-width: 1.5;" x1="25" x2="185" y1="246" y2="246"/><ellipse cx="35" cy="257" fill="#84BE84" rx="3" ry="3" style="stroke: #038048; stroke-width: 1.0;"/><text fill="#000000" font-family="sans-serif" font-size="11" lengthAdjust="spacingAndGlyphs" textLength="136" x="44" y="260.6348">add(ActorActivator): void</text><ellipse cx="35" cy="269.9551" fill="#84BE84" rx="3" ry="3" style="stroke: #038048; stroke-width: 1.0;"/><text fill="#000000" font-family="sans-serif" font-size="11" lengthAdjust="spacingAndGlyphs" textLength="78" x="44" y="273.5898">activate(): void</text><ellipse cx="35" cy="282.9102" fill="#84BE84" rx="3" ry="3" style="stroke: #038048; stroke-width: 1.0;"/><text fill="#000000" font-family="sans-serif" font-size="11" lengthAdjust="spacingAndGlyphs" textLength="91" x="44" y="286.5449">deactivate(): void</text></a><!--MD5=[4b7502cfe6ab48c04fed4eeb9239f3a0]
class it.tidalwave.messagebus.MessageBus--><a href="https://tidalwave.bitbucket.io/thesefoolishthings/modules/it-tidalwave-messagebus/apidocs/it/tidalwave/messagebus/MessageBus.html?is-external=true" target="_top" title="https://tidalwave.bitbucket.io/thesefoolishthings/modules/it-tidalwave-messagebus/apidocs/it/tidalwave/messagebus/MessageBus.html?is-external=true" xlink:actuate="onRequest" xlink:href="https://tidalwave.bitbucket.io/thesefoolishthings/modules/it-tidalwave-messagebus/apidocs/it/tidalwave/messagebus/MessageBus.html?is-external=true" xlink:show="new" xlink:title="https://tidalwave.bitbucket.io/thesefoolishthings/modules/it-tidalwave-messagebus/apidocs/it/tidalwave/messagebus/MessageBus.html?is-external=true" xlink:type="simple"><rect codeLine="38" fill="#FEFECE" filter="url(#f46kxkmk2el5l)" height="99.8203" id="it.tidalwave.messagebus.MessageBus" style="stroke: #A80036; stroke-width: 1.5;" width="244" x="206" y="33"/><ellipse cx="288.75" cy="49" fill="#B4A7E5" rx="11" ry="11" style="stroke: #A80036; stroke-width: 1.0;"/><path d="M285.1777,45.2651 L285.1777,43.1069 L292.5571,43.1069 L292.5571,45.2651 L290.0918,45.2651 L290.0918,53.3418 L292.5571,53.3418 L292.5571,55.5 L285.1777,55.5 L285.1777,53.3418 L287.6431,53.3418 L287.6431,45.2651 Z "/><text fill="#000000" font-family="sans-serif" font-size="12" font-style="italic" lengthAdjust="spacingAndGlyphs" textLength="70" x="309.25" y="53.5352">MessageBus</text><line style="stroke: #A80036; stroke-width: 1.5;" x1="207" x2="449" y1="65" y2="65"/><line style="stroke: #A80036; stroke-width: 1.5;" x1="207" x2="449" y1="73" y2="73"/><ellipse cx="217" cy="84" fill="#84BE84" rx="3" ry="3" style="stroke: #038048; stroke-width: 1.0;"/><text fill="#000000" font-family="sans-serif" font-size="11" font-style="italic" lengthAdjust="spacingAndGlyphs" textLength="84" x="226" y="87.6348">publish(T): void</text><ellipse cx="217" cy="96.9551" fill="#84BE84" rx="3" ry="3" style="stroke: #038048; stroke-width: 1.0;"/><text fill="#000000" font-family="sans-serif" font-size="11" font-style="italic" lengthAdjust="spacingAndGlyphs" textLength="144" x="226" y="100.5898">publish(Class&lt;T&gt;, T): void</text><ellipse cx="217" cy="109.9102" fill="#84BE84" rx="3" ry="3" style="stroke: #038048; stroke-width: 1.0;"/><text fill="#000000" font-family="sans-serif" font-size="11" font-style="italic" lengthAdjust="spacingAndGlyphs" textLength="218" x="226" y="113.5449">subscribe(Class&lt;T&gt;, Listener&lt;T&gt;): void</text><ellipse cx="217" cy="122.8652" fill="#84BE84" rx="3" ry="3" style="stroke: #038048; stroke-width: 1.0;"/><text fill="#000000" font-family="sans-serif" font-size="11" font-style="italic" lengthAdjust="spacingAndGlyphs" textLength="170" x="226" y="126.5">unsubscribe(Listener&lt;?&gt;): void</text></a><!--MD5=[94baf62fb573cf93c5ecf56ae87ff17a]
reverse link it.tidalwave.actor.spi.ActorActivatorStatsMBean to it.tidalwave.actor.spi.ActorActivatorStats--><path codeLine="33" d="M835.0022,326.3321 C832.9082,339.7418 830.7793,353.3748 828.8346,365.8284 " fill="none" id="it.tidalwave.actor.spi.ActorActivatorStatsMBean-backto-it.tidalwave.actor.spi.ActorActivatorStats" style="stroke: #A80036; stroke-width: 1.0; stroke-dasharray: 7.0,7.0;"/><polygon fill="none" points="828.123,325.0147,838.125,306.3342,841.9554,327.1747,828.123,325.0147" style="stroke: #A80036; stroke-width: 1.0;"/><!--MD5=[e1c50392019b37692c0f91d14234ef06]
reverse link it.tidalwave.messagebus.MessageBus to it.tidalwave.actor.spi.CollaborationAwareMessageBus--><path codeLine="34" d="M328,153.4077 C328,179.0299 328,206.315 328,225.238 " fill="none" id="it.tidalwave.messagebus.MessageBus-backto-it.tidalwave.actor.spi.CollaborationAwareMessageBus" style="stroke: #A80036; stroke-width: 1.0;"/><polygon fill="none" points="321.0001,153.4074,328,133.4073,335.0001,153.4073,321.0001,153.4074" style="stroke: #A80036; stroke-width: 1.0;"/><text fill="#888888" font-family="sans-serif" font-size="10" lengthAdjust="spacingAndGlyphs" textLength="188" x="388.5" y="489.668">UMLDoclet 2.0.12, PlantUML 1.2020.16</text><!--MD5=[c82a6f31326d370e49a61df71b3cb71c]
@startuml
    namespace it.tidalwave.actor.spi {

        interface ActorActivatorStatsMBean [[ActorActivatorStatsMBean.html]] {
            {abstract} +getPoolSize(): int
            {abstract} +getPendingMessageCount(): int
            {abstract} +getInvocationCount(): int
            {abstract} +getSuccesfulInvocationCount(): int
            {abstract} +getInvocationErrorCount(): int
        }

        class ActorActivatorStats [[ActorActivatorStats.html]] {
            +changePendingMessageCount(int): void
            +incrementInvocationCount(): void
            +incrementInvocationErrorCount(): void
            +incrementSuccessfulInvocationCount(): void
        }

        class ActorActivator [[ActorActivator.html]] {
            {static} +activatorFor(Class<?>): ActorActivator
            +withPoolSize(int): ActorActivator
            +initialize(): void
            +dispose(): void
        }

        interface CollaborationAwareMessageBus [[CollaborationAwareMessageBus.html]]

        class ActorGroupActivator [[ActorGroupActivator.html]] {
            +add(ActorActivator): void
            +activate(): void
            +deactivate(): void
        }

        ActorActivatorStatsMBean <|.. ActorActivatorStats
        it.tidalwave.messagebus.MessageBus <|- - CollaborationAwareMessageBus
    }

    namespace it.tidalwave.messagebus {
        interface MessageBus [[https://tidalwave.bitbucket.io/thesefoolishthings/modules/it-tidalwave-messagebus/apidocs/it/tidalwave/messagebus/MessageBus.html?is-external=true]] {
            {abstract} +publish(T): void
            {abstract} +publish(Class<T>, T): void
            {abstract} +subscribe(Class<T>, Listener<T>): void
            {abstract} +unsubscribe(Listener<?>): void
        }
    }

    center footer UMLDoclet 2.0.12, PlantUML 1.2020.16
@enduml

PlantUML version 1.2020.16(Sun Aug 23 22:20:43 CEST 2020)
(APACHE source distribution)
Java Runtime: OpenJDK Runtime Environment
JVM: OpenJDK 64-Bit Server VM
Default Encoding: UTF-8
Language: en
Country: GB
--></g></svg>