<?xml version="1.0" encoding="UTF-8" standalone="no"?><svg xmlns="http://www.w3.org/2000/svg" xmlns:xlink="http://www.w3.org/1999/xlink" contentScriptType="application/ecmascript" contentStyleType="text/css" height="265px" preserveAspectRatio="none" style="width:1053px;height:265px;" version="1.1" viewBox="0 0 1053 265" width="1053px" zoomAndPan="magnify"><defs><filter height="300%" id="f9fj1w9ezwa8q" width="300%" x="-1" y="-1"><feGaussianBlur result="blurOut" stdDeviation="2.0"/><feColorMatrix in="blurOut" result="blurOut2" type="matrix" values="0 0 0 0 0 0 0 0 0 0 0 0 0 0 0 0 0 0 .4 0"/><feOffset dx="4.0" dy="4.0" in="blurOut2" result="blurOut3"/><feBlend in="SourceGraphic" in2="blurOut3" mode="normal"/></filter></defs><g><!--MD5=[a7bbfb58198adaf59d6646ea10dcfb44]
cluster it.tidalwave.northernwind.frontend.ui.component.container.htmltemplate--><polygon fill="#FFFFFF" filter="url(#f9fj1w9ezwa8q)" points="310,140,835,140,842,162.4883,845,162.4883,845,236,310,236,310,140" style="stroke: #000000; stroke-width: 1.5;"/><line style="stroke: #000000; stroke-width: 1.5;" x1="310" x2="842" y1="162.4883" y2="162.4883"/><text fill="#000000" font-family="sans-serif" font-size="14" font-weight="bold" lengthAdjust="spacingAndGlyphs" textLength="519" x="314" y="155.5352">it.tidalwave.northernwind.frontend.ui.component.container.htmltemplate</text><!--MD5=[e5a41c449c1a068d941fa2cbecca88be]
cluster it.tidalwave.northernwind.frontend.ui.component.htmlfragment.htmltemplate--><polygon fill="#FFFFFF" filter="url(#f9fj1w9ezwa8q)" points="16,19,574,19,581,41.4883,584,41.4883,584,102,16,102,16,19" style="stroke: #000000; stroke-width: 1.5;"/><line style="stroke: #000000; stroke-width: 1.5;" x1="16" x2="581" y1="41.4883" y2="41.4883"/><text fill="#000000" font-family="sans-serif" font-size="14" font-weight="bold" lengthAdjust="spacingAndGlyphs" textLength="552" x="20" y="34.5352">it.tidalwave.northernwind.frontend.ui.component.htmlfragment.htmltemplate</text><!--MD5=[f752f3c602efab4f1a4fc6f56238e715]
cluster it.tidalwave.northernwind.frontend.ui.component.container--><polygon fill="#FFFFFF" filter="url(#f9fj1w9ezwa8q)" points="597,6,1021,6,1028,28.4883,1031,28.4883,1031,115,597,115,597,6" style="stroke: #000000; stroke-width: 1.5;"/><line style="stroke: #000000; stroke-width: 1.5;" x1="597" x2="1028" y1="28.4883" y2="28.4883"/><text fill="#000000" font-family="sans-serif" font-size="14" font-weight="bold" lengthAdjust="spacingAndGlyphs" textLength="418" x="601" y="21.5352">it.tidalwave.northernwind.frontend.ui.component.container</text><!--MD5=[ce081734fa1e05e7befe2f52c9297882]
class it.tidalwave.northernwind.frontend.ui.component.container.htmltemplate.HtmlTemplateContainerView--><a href="HtmlTemplateContainerView.html" target="_top" title="HtmlTemplateContainerView.html" xlink:actuate="onRequest" xlink:href="HtmlTemplateContainerView.html" xlink:show="new" xlink:title="HtmlTemplateContainerView.html" xlink:type="simple"><rect codeLine="3" fill="#FEFECE" filter="url(#f9fj1w9ezwa8q)" height="60.9551" id="it.tidalwave.northernwind.frontend.ui.component.container.htmltemplate.HtmlTemplateContainerView" style="stroke: #A80036; stroke-width: 1.5;" width="196" x="479" y="167"/><ellipse cx="494" cy="183" fill="#ADD1B2" rx="11" ry="11" style="stroke: #A80036; stroke-width: 1.0;"/><path d="M496.4731,189.1431 Q495.8921,189.4419 495.2529,189.5913 Q494.6138,189.7407 493.9082,189.7407 Q491.4014,189.7407 490.0815,188.0889 Q488.7617,186.437 488.7617,183.3159 Q488.7617,180.1865 490.0815,178.5347 Q491.4014,176.8828 493.9082,176.8828 Q494.6138,176.8828 495.2612,177.0322 Q495.9087,177.1816 496.4731,177.4805 L496.4731,180.2031 Q495.8423,179.6221 495.2488,179.3523 Q494.6553,179.0825 494.0244,179.0825 Q492.6797,179.0825 491.9949,180.1492 Q491.3101,181.2158 491.3101,183.3159 Q491.3101,185.4077 491.9949,186.4744 Q492.6797,187.541 494.0244,187.541 Q494.6553,187.541 495.2488,187.2712 Q495.8423,187.0015 496.4731,186.4204 Z "/><text fill="#000000" font-family="sans-serif" font-size="12" lengthAdjust="spacingAndGlyphs" textLength="164" x="508" y="187.5352">HtmlTemplateContainerView</text><line style="stroke: #A80036; stroke-width: 1.5;" x1="480" x2="674" y1="199" y2="199"/><line style="stroke: #A80036; stroke-width: 1.5;" x1="480" x2="674" y1="207" y2="207"/><ellipse cx="490" cy="218" fill="#84BE84" rx="3" ry="3" style="stroke: #038048; stroke-width: 1.0;"/><text fill="#000000" font-family="sans-serif" font-size="11" lengthAdjust="spacingAndGlyphs" textLength="169" x="499" y="221.6348">HtmlTemplateContainerView(Id)</text></a><!--MD5=[29faf4ef4f5626ea036e882b9bdb2503]
class it.tidalwave.northernwind.frontend.ui.component.htmlfragment.htmltemplate.HtmlTemplateHtmlFragmentView--><a href="../../htmlfragment/htmltemplate/HtmlTemplateHtmlFragmentView.html" target="_top" title="../../htmlfragment/htmltemplate/HtmlTemplateHtmlFragmentView.html" xlink:actuate="onRequest" xlink:href="../../htmlfragment/htmltemplate/HtmlTemplateHtmlFragmentView.html" xlink:show="new" xlink:title="../../htmlfragment/htmltemplate/HtmlTemplateHtmlFragmentView.html" xlink:type="simple"><rect codeLine="12" fill="#FEFECE" filter="url(#f9fj1w9ezwa8q)" height="48" id="it.tidalwave.northernwind.frontend.ui.component.htmlfragment.htmltemplate.HtmlTemplateHtmlFragmentView" style="stroke: #A80036; stroke-width: 1.5;" width="222" x="351" y="46"/><ellipse cx="366" cy="62" fill="#ADD1B2" rx="11" ry="11" style="stroke: #A80036; stroke-width: 1.0;"/><path d="M368.4731,68.1431 Q367.8921,68.4419 367.2529,68.5913 Q366.6138,68.7407 365.9082,68.7407 Q363.4014,68.7407 362.0815,67.0889 Q360.7617,65.437 360.7617,62.3159 Q360.7617,59.1865 362.0815,57.5347 Q363.4014,55.8828 365.9082,55.8828 Q366.6138,55.8828 367.2612,56.0322 Q367.9087,56.1816 368.4731,56.4805 L368.4731,59.2031 Q367.8423,58.6221 367.2488,58.3523 Q366.6553,58.0825 366.0244,58.0825 Q364.6797,58.0825 363.9949,59.1492 Q363.3101,60.2158 363.3101,62.3159 Q363.3101,64.4077 363.9949,65.4744 Q364.6797,66.541 366.0244,66.541 Q366.6553,66.541 367.2488,66.2712 Q367.8423,66.0015 368.4731,65.4204 Z "/><text fill="#000000" font-family="sans-serif" font-size="12" lengthAdjust="spacingAndGlyphs" textLength="190" x="380" y="66.5352">HtmlTemplateHtmlFragmentView</text><line style="stroke: #A80036; stroke-width: 1.5;" x1="352" x2="572" y1="78" y2="78"/><line style="stroke: #A80036; stroke-width: 1.5;" x1="352" x2="572" y1="86" y2="86"/></a><!--MD5=[c70019c641eac78d267b05df6c614903]
class it.tidalwave.northernwind.frontend.ui.component.container.ContainerView--><a href="http://tidalwave.tidalwave.it/northernwind/it-tidalwave-northernwind-modules/it-tidalwave-northernwind-frontend-components/apidocs/it/tidalwave/northernwind/frontend/ui/component/container/ContainerView.html?is-external=true" target="_top" title="http://tidalwave.tidalwave.it/northernwind/it-tidalwave-northernwind-modules/it-tidalwave-northernwind-frontend-components/apidocs/it/tidalwave/northernwind/frontend/ui/component/container/ContainerView.html?is-external=true" xlink:actuate="onRequest" xlink:href="http://tidalwave.tidalwave.it/northernwind/it-tidalwave-northernwind-modules/it-tidalwave-northernwind-frontend-components/apidocs/it/tidalwave/northernwind/frontend/ui/component/container/ContainerView.html?is-external=true" xlink:show="new" xlink:title="http://tidalwave.tidalwave.it/northernwind/it-tidalwave-northernwind-modules/it-tidalwave-northernwind-frontend-components/apidocs/it/tidalwave/northernwind/frontend/ui/component/container/ContainerView.html?is-external=true" xlink:type="simple"><rect codeLine="17" fill="#FEFECE" filter="url(#f9fj1w9ezwa8q)" height="73.9102" id="it.tidalwave.northernwind.frontend.ui.component.container.ContainerView" style="stroke: #A80036; stroke-width: 1.5;" width="170" x="608" y="33"/><ellipse cx="648.2" cy="49" fill="#B4A7E5" rx="11" ry="11" style="stroke: #A80036; stroke-width: 1.0;"/><path d="M644.6277,45.2651 L644.6277,43.1069 L652.0071,43.1069 L652.0071,45.2651 L649.5418,45.2651 L649.5418,53.3418 L652.0071,53.3418 L652.0071,55.5 L644.6277,55.5 L644.6277,53.3418 L647.0931,53.3418 L647.0931,45.2651 Z "/><text fill="#000000" font-family="sans-serif" font-size="12" font-style="italic" lengthAdjust="spacingAndGlyphs" textLength="82" x="667.8" y="53.5352">ContainerView</text><line style="stroke: #A80036; stroke-width: 1.5;" x1="609" x2="777" y1="65" y2="65"/><line style="stroke: #A80036; stroke-width: 1.5;" x1="609" x2="777" y1="73" y2="73"/><ellipse cx="619" cy="84" fill="#84BE84" rx="3" ry="3" style="stroke: #038048; stroke-width: 1.0;"/><text fill="#000000" font-family="sans-serif" font-size="11" font-style="italic" lengthAdjust="spacingAndGlyphs" textLength="134" x="628" y="87.6348">setTemplate(String): void</text><ellipse cx="619" cy="96.9551" fill="#84BE84" rx="3" ry="3" style="stroke: #038048; stroke-width: 1.0;"/><text fill="#000000" font-family="sans-serif" font-size="11" font-style="italic" lengthAdjust="spacingAndGlyphs" textLength="144" x="628" y="100.5898">setClassName(String): void</text></a><!--MD5=[1de30ec9b6ab79de3502f7603f7f1d79]
reverse link it.tidalwave.northernwind.frontend.ui.component.htmlfragment.htmltemplate.HtmlTemplateHtmlFragmentView to it.tidalwave.northernwind.frontend.ui.component.container.htmltemplate.HtmlTemplateContainerView--><path codeLine="7" d="M497.4089,109.2577 C514.1667,127.837 533.8768,149.6894 549.49,166.9998 " fill="none" id="it.tidalwave.northernwind.frontend.ui.component.htmlfragment.htmltemplate.HtmlTemplateHtmlFragmentView-backto-it.tidalwave.northernwind.frontend.ui.component.container.htmltemplate.HtmlTemplateContainerView" style="stroke: #A80036; stroke-width: 1.0;"/><polygon fill="none" points="492.0987,113.8217,483.9013,94.2819,502.4947,104.4449,492.0987,113.8217" style="stroke: #A80036; stroke-width: 1.0;"/><!--MD5=[539df5c3a89021a79cef435ca5efd180]
reverse link it.tidalwave.northernwind.frontend.ui.component.container.ContainerView to it.tidalwave.northernwind.frontend.ui.component.container.htmltemplate.HtmlTemplateContainerView--><path codeLine="8" d="M645.669,122.0233 C631.7978,137.2697 617.0833,153.443 604.8483,166.8909 " fill="none" id="it.tidalwave.northernwind.frontend.ui.component.container.ContainerView-backto-it.tidalwave.northernwind.frontend.ui.component.container.htmltemplate.HtmlTemplateContainerView" style="stroke: #A80036; stroke-width: 1.0; stroke-dasharray: 7.0,7.0;"/><polygon fill="none" points="640.4992,117.3039,659.1362,107.221,650.8547,126.7253,640.4992,117.3039" style="stroke: #A80036; stroke-width: 1.0;"/><text fill="#888888" font-family="sans-serif" font-size="10" lengthAdjust="spacingAndGlyphs" textLength="188" x="423.5" y="251.668">UMLDoclet 2.0.12, PlantUML 1.2020.16</text><!--MD5=[e33f3aa0a886970b3bf3d9625c52a90f]
@startuml
    namespace it.tidalwave.northernwind.frontend.ui.component.container.htmltemplate {

        class HtmlTemplateContainerView [[HtmlTemplateContainerView.html]] {
            +HtmlTemplateContainerView(Id)
        }

        it.tidalwave.northernwind.frontend.ui.component.htmlfragment.htmltemplate.HtmlTemplateHtmlFragmentView <|- - HtmlTemplateContainerView
        it.tidalwave.northernwind.frontend.ui.component.container.ContainerView <|.. HtmlTemplateContainerView
    }

    namespace it.tidalwave.northernwind.frontend.ui.component.htmlfragment.htmltemplate {
        class HtmlTemplateHtmlFragmentView [[../../htmlfragment/htmltemplate/HtmlTemplateHtmlFragmentView.html]] {
        }
    }

    namespace it.tidalwave.northernwind.frontend.ui.component.container {
        interface ContainerView [[http://tidalwave.tidalwave.it/northernwind/it-tidalwave-northernwind-modules/it-tidalwave-northernwind-frontend-components/apidocs/it/tidalwave/northernwind/frontend/ui/component/container/ContainerView.html?is-external=true]] {
            {abstract} +setTemplate(String): void
            {abstract} +setClassName(String): void
        }
    }

    center footer UMLDoclet 2.0.12, PlantUML 1.2020.16
@enduml

PlantUML version 1.2020.16(Sun Aug 23 22:20:43 CEST 2020)
(APACHE source distribution)
Java Runtime: OpenJDK Runtime Environment
JVM: OpenJDK 64-Bit Server VM
Default Encoding: UTF-8
Language: en
Country: GB
--></g></svg>