@startuml
    set namespaceSeparator none
    hide empty fields
    hide empty methods

    interface "<size:14>CollaborationAwareMessageBus\n<size:10>it.tidalwave.actor.spi" as it.tidalwave.actor.spi.CollaborationAwareMessageBus [[CollaborationAwareMessageBus.html]]

    interface "<size:14>MessageBus\n<size:10>it.tidalwave.messagebus" as it.tidalwave.messagebus.MessageBus [[../../messagebus/MessageBus.html]] {
        {abstract} +publish(TOPIC): void
        {abstract} +publish(Class<TOPIC>, TOPIC): void
        {abstract} +subscribe(Class<TOPIC>, Listener<TOPIC>): void
        {abstract} +unsubscribe(Listener<?>): void
    }

    it.tidalwave.messagebus.MessageBus <|-- it.tidalwave.actor.spi.CollaborationAwareMessageBus

    center footer UMLDoclet 2.0.12, PlantUML 1.2020.16
@enduml
