@startuml
    set namespaceSeparator none
    hide empty fields
    hide empty methods

    class "<size:14>HtmlTemplateBreadCrumbView\n<size:10>it.tidalwave.northernwind.frontend.ui.component.breadcrumb.htmltemplate" as it.tidalwave.northernwind.frontend.ui.component.breadcrumb.htmltemplate.HtmlTemplateBreadCrumbView [[HtmlTemplateBreadCrumbView.html]] {
        +HtmlTemplateBreadCrumbView(Id)
    }

    class "<size:14>HtmlHolder\n<size:10>it.tidalwave.northernwind.frontend.ui.component.htmltemplate" as it.tidalwave.northernwind.frontend.ui.component.htmltemplate.HtmlHolder [[../../htmltemplate/HtmlHolder.html]]
    interface "<size:14>BreadCrumbView\n<size:10>it.tidalwave.northernwind.frontend.ui.component.breadcrumb" as it.tidalwave.northernwind.frontend.ui.component.breadcrumb.BreadCrumbView [[http://tidalwave.tidalwave.it/northernwind/it-tidalwave-northernwind-modules/it-tidalwave-northernwind-frontend-components/apidocs/it/tidalwave/northernwind/frontend/ui/component/breadcrumb/BreadCrumbView.html?is-external=true]]

    it.tidalwave.northernwind.frontend.ui.component.htmltemplate.HtmlHolder <|-- it.tidalwave.northernwind.frontend.ui.component.breadcrumb.htmltemplate.HtmlTemplateBreadCrumbView
    it.tidalwave.northernwind.frontend.ui.component.breadcrumb.BreadCrumbView <|.. it.tidalwave.northernwind.frontend.ui.component.breadcrumb.htmltemplate.HtmlTemplateBreadCrumbView

    center footer UMLDoclet 2.0.12, PlantUML 1.2020.16
@enduml
