@startuml
    set namespaceSeparator none
    hide empty fields
    hide empty methods

    class "<size:14>MappingFinder\n<size:10>it.tidalwave.util" as it.tidalwave.util.MappingFinder<TYPE> [[MappingFinder.html]] {
        +MappingFinder(Finder<TYPE>, Function<TYPE, TYPE>)
        +MappingFinder(MappingFinder, Object)
        #computeResults(): List<? extends TYPE>
    }

    class "<size:14>SupplierBasedFinder\n<size:10>it.tidalwave.util" as it.tidalwave.util.SupplierBasedFinder<TYPE> [[SupplierBasedFinder.html]]

    it.tidalwave.util.SupplierBasedFinder <|-- it.tidalwave.util.MappingFinder

    center footer UMLDoclet 2.0.12, PlantUML 1.2020.16
@enduml
