<?xml version="1.0" encoding="UTF-8" standalone="no"?><svg xmlns="http://www.w3.org/2000/svg" xmlns:xlink="http://www.w3.org/1999/xlink" contentScriptType="application/ecmascript" contentStyleType="text/css" height="504px" preserveAspectRatio="none" style="width:512px;height:504px;" version="1.1" viewBox="0 0 512 504" width="512px" zoomAndPan="magnify"><defs><filter height="300%" id="f913mt3hmip4u" width="300%" x="-1" y="-1"><feGaussianBlur result="blurOut" stdDeviation="2.0"/><feColorMatrix in="blurOut" result="blurOut2" type="matrix" values="0 0 0 0 0 0 0 0 0 0 0 0 0 0 0 0 0 0 .4 0"/><feOffset dx="4.0" dy="4.0" in="blurOut2" result="blurOut3"/><feBlend in="SourceGraphic" in2="blurOut3" mode="normal"/></filter></defs><g><!--MD5=[d63e98a45e8384519e3fc4fd1371e7a4]
class it.tidalwave.util.spi.HierarchicFinderSupport--><a href="HierarchicFinderSupport.html" target="_top" title="HierarchicFinderSupport.html" xlink:actuate="onRequest" xlink:href="HierarchicFinderSupport.html" xlink:show="new" xlink:title="HierarchicFinderSupport.html" xlink:type="simple"><rect codeLine="5" fill="#FEFECE" filter="url(#f913mt3hmip4u)" height="287.457" id="it.tidalwave.util.spi.HierarchicFinderSupport" style="stroke: #A80036; stroke-width: 1.5;" width="484" x="9" y="181"/><ellipse cx="90.75" cy="200.1328" fill="#ADD1B2" rx="11" ry="11" style="stroke: #A80036; stroke-width: 1.0;"/><path d="M93.2231,206.2759 Q92.6421,206.5747 92.0029,206.7241 Q91.3638,206.8735 90.6582,206.8735 Q88.1514,206.8735 86.8315,205.2217 Q85.5117,203.5698 85.5117,200.4487 Q85.5117,197.3193 86.8315,195.6675 Q88.1514,194.0156 90.6582,194.0156 Q91.3638,194.0156 92.0112,194.165 Q92.6587,194.3145 93.2231,194.6133 L93.2231,197.3359 Q92.5923,196.7549 91.9988,196.4851 Q91.4053,196.2153 90.7744,196.2153 Q89.4297,196.2153 88.7449,197.282 Q88.0601,198.3486 88.0601,200.4487 Q88.0601,202.5405 88.7449,203.6072 Q89.4297,204.6738 90.7744,204.6738 Q91.4053,204.6738 91.9988,204.4041 Q92.5923,204.1343 93.2231,203.5532 Z "/><text fill="#000000" font-family="sans-serif" font-size="14" lengthAdjust="spacingAndGlyphs" textLength="168" x="111.25" y="199.5352">HierarchicFinderSupport</text><text fill="#000000" font-family="sans-serif" font-size="10" lengthAdjust="spacingAndGlyphs" textLength="93" x="148.75" y="212.1563">it.tidalwave.util.spi</text><rect fill="#FFFFFF" height="16.1328" style="stroke: #000000; stroke-width: 1.0; stroke-dasharray: 2.0,2.0;" width="142" x="354" y="178"/><text fill="#000000" font-family="sans-serif" font-size="12" font-style="italic" lengthAdjust="spacingAndGlyphs" textLength="140" x="355" y="190.6016">T, F extends Finder&lt;T&gt;</text><line style="stroke: #A80036; stroke-width: 1.5;" x1="10" x2="492" y1="219.2656" y2="219.2656"/><polygon fill="none" points="20,225.2656,24,229.2656,20,233.2656,16,229.2656" style="stroke: #B38D22; stroke-width: 1.0;"/><text fill="#000000" font-family="sans-serif" font-size="11" lengthAdjust="spacingAndGlyphs" textLength="75" x="29" y="233.9004">firstResult: int</text><polygon fill="none" points="20,238.2207,24,242.2207,20,246.2207,16,242.2207" style="stroke: #B38D22; stroke-width: 1.0;"/><text fill="#000000" font-family="sans-serif" font-size="11" lengthAdjust="spacingAndGlyphs" textLength="82" x="29" y="246.8555">maxResults: int</text><line style="stroke: #A80036; stroke-width: 1.5;" x1="10" x2="492" y1="253.1758" y2="253.1758"/><polygon fill="#FFFF44" points="20,259.1758,24,263.1758,20,267.1758,16,263.1758" style="stroke: #B38D22; stroke-width: 1.0;"/><text fill="#000000" font-family="sans-serif" font-size="11" lengthAdjust="spacingAndGlyphs" textLength="172" x="29" y="267.8105">HierarchicFinderSupport(String)</text><polygon fill="#FFFF44" points="20,272.1309,24,276.1309,20,280.1309,16,276.1309" style="stroke: #B38D22; stroke-width: 1.0;"/><text fill="#000000" font-family="sans-serif" font-size="11" lengthAdjust="spacingAndGlyphs" textLength="140" x="29" y="280.7656">HierarchicFinderSupport()</text><polygon fill="#FFFF44" points="20,285.0859,24,289.0859,20,293.0859,16,289.0859" style="stroke: #B38D22; stroke-width: 1.0;"/><text fill="#000000" font-family="sans-serif" font-size="11" lengthAdjust="spacingAndGlyphs" textLength="458" x="29" y="293.7207">HierarchicFinderSupport(HierarchicFinderSupport&lt;T, F extends Finder&lt;T&gt;&gt;, Object)</text><polygon fill="#FFFF44" points="20,298.041,24,302.041,20,306.041,16,302.041" style="stroke: #B38D22; stroke-width: 1.0;"/><text fill="#000000" font-family="sans-serif" font-size="11" lengthAdjust="spacingAndGlyphs" textLength="222" x="29" y="306.6758">clonedWith(Object): F extends Finder&lt;T&gt;</text><polygon fill="#FFFF44" points="20,310.9961,24,314.9961,20,318.9961,16,314.9961" style="stroke: #B38D22; stroke-width: 1.0;"/><text fill="#000000" font-family="sans-serif" font-size="11" lengthAdjust="spacingAndGlyphs" text-decoration="line-through" textLength="29" x="29" y="319.6309">clone</text><text fill="#000000" font-family="sans-serif" font-size="11" lengthAdjust="spacingAndGlyphs" textLength="163" x="58" y="319.6309">(Object): F extends Finder&lt;T&gt;</text><ellipse cx="20" cy="328.9512" fill="#84BE84" rx="3" ry="3" style="stroke: #038048; stroke-width: 1.0;"/><text fill="#000000" font-family="sans-serif" font-size="11" lengthAdjust="spacingAndGlyphs" textLength="168" x="29" y="332.5859">from(int): F extends Finder&lt;T&gt;</text><ellipse cx="20" cy="341.9063" fill="#84BE84" rx="3" ry="3" style="stroke: #038048; stroke-width: 1.0;"/><text fill="#000000" font-family="sans-serif" font-size="11" lengthAdjust="spacingAndGlyphs" textLength="165" x="29" y="345.541">max(int): F extends Finder&lt;T&gt;</text><ellipse cx="20" cy="354.8613" fill="#84BE84" rx="3" ry="3" style="stroke: #038048; stroke-width: 1.0;"/><text fill="#000000" font-family="sans-serif" font-size="11" lengthAdjust="spacingAndGlyphs" textLength="228" x="29" y="358.4961">withContext(Object): F extends Finder&lt;T&gt;</text><ellipse cx="20" cy="367.8164" fill="#84BE84" rx="3" ry="3" style="stroke: #038048; stroke-width: 1.0;"/><text fill="#000000" font-family="sans-serif" font-size="11" lengthAdjust="spacingAndGlyphs" textLength="166" x="29" y="371.4512">ofType(Class&lt;​U&gt;): Finder&lt;​U&gt;</text><ellipse cx="20" cy="380.7715" fill="#84BE84" rx="3" ry="3" style="stroke: #038048; stroke-width: 1.0;"/><text fill="#000000" font-family="sans-serif" font-size="11" lengthAdjust="spacingAndGlyphs" textLength="297" x="29" y="384.4063">sort(SortCriterion, SortDirection): F extends Finder&lt;T&gt;</text><ellipse cx="20" cy="393.7266" fill="#84BE84" rx="3" ry="3" style="stroke: #038048; stroke-width: 1.0;"/><text fill="#000000" font-family="sans-serif" font-size="11" lengthAdjust="spacingAndGlyphs" textLength="220" x="29" y="397.3613">sort(SortCriterion): F extends Finder&lt;T&gt;</text><ellipse cx="20" cy="406.6816" fill="#84BE84" rx="3" ry="3" style="stroke: #038048; stroke-width: 1.0;"/><text fill="#000000" font-family="sans-serif" font-size="11" lengthAdjust="spacingAndGlyphs" textLength="95" x="29" y="410.3164">results(): List&lt;T&gt;</text><ellipse cx="20" cy="419.6367" fill="#84BE84" rx="3" ry="3" style="stroke: #038048; stroke-width: 1.0;"/><text fill="#000000" font-family="sans-serif" font-size="11" lengthAdjust="spacingAndGlyphs" textLength="59" x="29" y="423.2715">count(): int</text><polygon fill="#FFFF44" points="20,427.5918,24,431.5918,20,435.5918,16,431.5918" style="stroke: #B38D22; stroke-width: 1.0;"/><text fill="#000000" font-family="sans-serif" font-size="11" lengthAdjust="spacingAndGlyphs" textLength="144" x="29" y="436.2266">computeResults(): List&lt;T&gt;</text><polygon fill="#FFFF44" points="20,440.5469,24,444.5469,20,448.5469,16,444.5469" style="stroke: #B38D22; stroke-width: 1.0;"/><text fill="#000000" font-family="sans-serif" font-size="11" lengthAdjust="spacingAndGlyphs" textLength="184" x="29" y="449.1816">computeNeededResults(): List&lt;T&gt;</text><polygon fill="#FFFF44" points="20,453.502,24,457.502,20,461.502,16,457.502" style="stroke: #B38D22; stroke-width: 1.0;"/><text fill="#000000" font-family="sans-serif" font-size="11" lengthAdjust="spacingAndGlyphs" text-decoration="underline" textLength="240" x="29" y="462.1367">getSource(Class&lt;? extends U&gt;, U, Object): U</text></a><!--MD5=[11c1b1d4d2028ec08c437ce6f62858f3]
class it.tidalwave.util.Finder--><a href="../Finder.html" target="_top" title="../Finder.html" xlink:actuate="onRequest" xlink:href="../Finder.html" xlink:show="new" xlink:title="../Finder.html" xlink:type="simple"><rect codeLine="26" fill="#FEFECE" filter="url(#f913mt3hmip4u)" height="111.041" id="it.tidalwave.util.Finder" style="stroke: #A80036; stroke-width: 1.5;" width="268" x="117" y="10"/><ellipse cx="202.75" cy="29.1328" fill="#B4A7E5" rx="11" ry="11" style="stroke: #A80036; stroke-width: 1.0;"/><path d="M199.1777,25.3979 L199.1777,23.2397 L206.5571,23.2397 L206.5571,25.3979 L204.0918,25.3979 L204.0918,33.4746 L206.5571,33.4746 L206.5571,35.6328 L199.1777,35.6328 L199.1777,33.4746 L201.6431,33.4746 L201.6431,25.3979 Z "/><text fill="#000000" font-family="sans-serif" font-size="14" font-style="italic" lengthAdjust="spacingAndGlyphs" textLength="44" x="239.25" y="28.5352">Finder</text><text fill="#000000" font-family="sans-serif" font-size="10" font-style="italic" lengthAdjust="spacingAndGlyphs" textLength="76" x="223.25" y="41.1563">it.tidalwave.util</text><rect fill="#FFFFFF" height="16.1328" style="stroke: #000000; stroke-width: 1.0; stroke-dasharray: 2.0,2.0;" width="10" x="378" y="7"/><text fill="#000000" font-family="sans-serif" font-size="12" font-style="italic" lengthAdjust="spacingAndGlyphs" textLength="8" x="379" y="19.6016">T</text><line style="stroke: #A80036; stroke-width: 1.5;" x1="118" x2="384" y1="48.2656" y2="48.2656"/><ellipse cx="128" cy="59.2656" fill="#84BE84" rx="3" ry="3" style="stroke: #038048; stroke-width: 1.0;"/><text fill="#000000" font-family="sans-serif" font-size="11" font-style="italic" lengthAdjust="spacingAndGlyphs" textLength="113" x="137" y="62.9004">from(int): Finder&lt;T&gt;</text><ellipse cx="128" cy="72.2207" fill="#84BE84" rx="3" ry="3" style="stroke: #038048; stroke-width: 1.0;"/><text fill="#000000" font-family="sans-serif" font-size="11" font-style="italic" lengthAdjust="spacingAndGlyphs" textLength="110" x="137" y="75.8555">max(int): Finder&lt;T&gt;</text><ellipse cx="128" cy="85.1758" fill="#84BE84" rx="3" ry="3" style="stroke: #038048; stroke-width: 1.0;"/><text fill="#000000" font-family="sans-serif" font-size="11" font-style="italic" lengthAdjust="spacingAndGlyphs" textLength="242" x="137" y="88.8105">sort(SortCriterion, SortDirection): Finder&lt;T&gt;</text><ellipse cx="128" cy="98.1309" fill="#84BE84" rx="3" ry="3" style="stroke: #038048; stroke-width: 1.0;"/><text fill="#000000" font-family="sans-serif" font-size="11" font-style="italic" lengthAdjust="spacingAndGlyphs" textLength="95" x="137" y="101.7656">results(): List&lt;T&gt;</text><ellipse cx="128" cy="111.0859" fill="#84BE84" rx="3" ry="3" style="stroke: #038048; stroke-width: 1.0;"/><text fill="#000000" font-family="sans-serif" font-size="11" font-style="italic" lengthAdjust="spacingAndGlyphs" textLength="59" x="137" y="114.7207">count(): int</text></a><!--MD5=[c07418da849014d6f55fcdf287a0160b]
reverse link it.tidalwave.util.Finder to it.tidalwave.util.spi.HierarchicFinderSupport--><path codeLine="34" d="M251,141.3636 C251,153.9519 251,167.3614 251,180.9802 " fill="none" id="it.tidalwave.util.Finder-backto-it.tidalwave.util.spi.HierarchicFinderSupport" style="stroke: #A80036; stroke-width: 1.0; stroke-dasharray: 7.0,7.0;"/><polygon fill="none" points="244.0001,141.062,251,121.062,258.0001,141.062,244.0001,141.062" style="stroke: #A80036; stroke-width: 1.0;"/><text fill="#888888" font-family="sans-serif" font-size="10" lengthAdjust="spacingAndGlyphs" textLength="188" x="153" y="491.125">UMLDoclet 2.0.12, PlantUML 1.2020.16</text><!--MD5=[566a92a8b3c64cbae005d671b751fc69]
@startuml
    set namespaceSeparator none
    hide empty fields
    hide empty methods

    class "<size:14>HierarchicFinderSupport\n<size:10>it.tidalwave.util.spi" as it.tidalwave.util.spi.HierarchicFinderSupport<T, F extends Finder<T>> [[HierarchicFinderSupport.html]] {
        #firstResult: int
        #maxResults: int
        #HierarchicFinderSupport(String)
        #HierarchicFinderSupport()
        #HierarchicFinderSupport(HierarchicFinderSupport<T, F extends Finder<T>>, Object)
        #clonedWith(Object): F extends Finder<T>
        #- -clone- -(Object): F extends Finder<T>
        +from(int): F extends Finder<T>
        +max(int): F extends Finder<T>
        +withContext(Object): F extends Finder<T>
        +ofType(Class<​U>): Finder<​U>
        +sort(SortCriterion, SortDirection): F extends Finder<T>
        +sort(SortCriterion): F extends Finder<T>
        +results(): List<T>
        +count(): int
        #computeResults(): List<T>
        #computeNeededResults(): List<T>
        {static} #getSource(Class<? extends U>, U, Object): U
    }

    interface "<size:14>Finder\n<size:10>it.tidalwave.util" as it.tidalwave.util.Finder<T> [[../Finder.html]] {
        {abstract} +from(int): Finder<T>
        {abstract} +max(int): Finder<T>
        {abstract} +sort(SortCriterion, SortDirection): Finder<T>
        {abstract} +results(): List<T>
        {abstract} +count(): int
    }

    it.tidalwave.util.Finder <|.. it.tidalwave.util.spi.HierarchicFinderSupport

    center footer UMLDoclet 2.0.12, PlantUML 1.2020.16
@enduml

PlantUML version 1.2020.16(Sun Aug 23 22:20:43 CEST 2020)
(APACHE source distribution)
Java Runtime: OpenJDK Runtime Environment
JVM: OpenJDK 64-Bit Server VM
Default Encoding: UTF-8
Language: en
Country: GB
--></g></svg>