@startuml
    namespace it.tidalwave.northernwind.frontend.ui.component.breadcrumb {

        class DefaultBreadCrumbViewController [[DefaultBreadCrumbViewController.html]] {
            +DefaultBreadCrumbViewController(BreadCrumbView, SiteNode)
        }

        interface BreadCrumbViewController [[BreadCrumbViewController.html]]

        interface BreadCrumbView [[BreadCrumbView.html]]

        BreadCrumbViewController <|.. DefaultBreadCrumbViewController
        it.tidalwave.northernwind.frontend.ui.ViewController <|-- BreadCrumbViewController
        it.tidalwave.role.Identifiable <|-- BreadCrumbView
    }

    namespace it.tidalwave.northernwind.frontend.ui {
        interface ViewController [[http://tidalwave.tidalwave.it/northernwind/it-tidalwave-northernwind-modules/it-tidalwave-northernwind-core/apidocs/it/tidalwave/northernwind/frontend/ui/ViewController.html?is-external=true]] {
            +initialize(): void
            +prepareRendering(RenderContext): void
            +renderView(RenderContext): void
            +findVirtualSiteNodes(): Finder<SiteNode>
        }
    }

    namespace it.tidalwave.role {
        interface Identifiable {
            {static} +_Identifiable_: Class<Identifiable>
            {abstract} +getId(): Id
            {static} +of(Id): Identifiable
        }
    }

    center footer UMLDoclet 2.0.12, PlantUML 1.2020.16
@enduml
