<?xml version="1.0" encoding="UTF-8" standalone="no"?><svg xmlns="http://www.w3.org/2000/svg" xmlns:xlink="http://www.w3.org/1999/xlink" contentScriptType="application/ecmascript" contentStyleType="text/css" height="117px" preserveAspectRatio="none" style="width:367px;height:117px;" version="1.1" viewBox="0 0 367 117" width="367px" zoomAndPan="magnify"><defs><filter height="300%" id="f29fibf1495jw" width="300%" x="-1" y="-1"><feGaussianBlur result="blurOut" stdDeviation="2.0"/><feColorMatrix in="blurOut" result="blurOut2" type="matrix" values="0 0 0 0 0 0 0 0 0 0 0 0 0 0 0 0 0 0 .4 0"/><feOffset dx="4.0" dy="4.0" in="blurOut2" result="blurOut3"/><feBlend in="SourceGraphic" in2="blurOut3" mode="normal"/></filter></defs><g><!--MD5=[d82f07e3cbe39862833336e0e84723a4]
class it.tidalwave.thesefoolishthings.examples.dci.swing.role.ObservableListProvider--><a href="ObservableListProvider.html" target="_top" title="ObservableListProvider.html" xlink:actuate="onRequest" xlink:href="ObservableListProvider.html" xlink:show="new" xlink:title="ObservableListProvider.html" xlink:type="simple"><rect codeLine="5" fill="#FEFECE" filter="url(#f29fibf1495jw)" height="80.1758" id="it.tidalwave.thesefoolishthings.examples.dci.swing.role.ObservableListProvider" style="stroke: #A80036; stroke-width: 1.5;" width="341" x="7" y="7"/><ellipse cx="39.55" cy="26.1328" fill="#B4A7E5" rx="11" ry="11" style="stroke: #A80036; stroke-width: 1.0;"/><path d="M35.9777,22.3979 L35.9777,20.2397 L43.3571,20.2397 L43.3571,22.3979 L40.8918,22.3979 L40.8918,30.4746 L43.3571,30.4746 L43.3571,32.6328 L35.9777,32.6328 L35.9777,30.4746 L38.4431,30.4746 L38.4431,22.3979 Z "/><text fill="#000000" font-family="sans-serif" font-size="14" font-style="italic" lengthAdjust="spacingAndGlyphs" textLength="157" x="113.95" y="25.5352">ObservableListProvider</text><text fill="#000000" font-family="sans-serif" font-size="10" font-style="italic" lengthAdjust="spacingAndGlyphs" textLength="270" x="57.45" y="38.1563">it.tidalwave.thesefoolishthings.examples.dci.swing.role</text><line style="stroke: #A80036; stroke-width: 1.5;" x1="8" x2="347" y1="45.2656" y2="45.2656"/><ellipse cx="18" cy="56.2656" fill="none" rx="3" ry="3" style="stroke: #038048; stroke-width: 1.0;"/><text fill="#000000" font-family="sans-serif" font-size="11" lengthAdjust="spacingAndGlyphs" text-decoration="underline" textLength="315" x="27" y="59.9004">_ObservableListProvider_: Class&lt;ObservableListProvider&gt;</text><line style="stroke: #A80036; stroke-width: 1.5;" x1="8" x2="347" y1="66.2207" y2="66.2207"/><ellipse cx="18" cy="77.2207" fill="#84BE84" rx="3" ry="3" style="stroke: #038048; stroke-width: 1.0;"/><text fill="#000000" font-family="sans-serif" font-size="11" font-style="italic" lengthAdjust="spacingAndGlyphs" textLength="230" x="27" y="80.8555">createObservableList(): ObservableList&lt;?&gt;</text></a><text fill="#888888" font-family="sans-serif" font-size="10" lengthAdjust="spacingAndGlyphs" textLength="188" x="83.5" y="103.8438">UMLDoclet 2.0.12, PlantUML 1.2020.16</text><!--MD5=[6f9dc35a313119291b584c0d0af9f372]
@startuml
    set namespaceSeparator none
    hide empty fields
    hide empty methods

    interface "<size:14>ObservableListProvider\n<size:10>it.tidalwave.thesefoolishthings.examples.dci.swing.role" as it.tidalwave.thesefoolishthings.examples.dci.swing.role.ObservableListProvider [[ObservableListProvider.html]] {
        {static} +_ObservableListProvider_: Class<ObservableListProvider>
        {abstract} +createObservableList(): ObservableList<?>
    }

    center footer UMLDoclet 2.0.12, PlantUML 1.2020.16
@enduml

PlantUML version 1.2020.16(Sun Aug 23 22:20:43 CEST 2020)
(APACHE source distribution)
Java Runtime: OpenJDK Runtime Environment
JVM: OpenJDK 64-Bit Server VM
Default Encoding: UTF-8
Language: en
Country: GB
--></g></svg>