@startuml
    namespace it.tidalwave.thesefoolishthings.examples.dci.swing {

        class SwingDciExample [[SwingDciExample.html]] {
            +run(): void
        }

        interface PersonPresentation [[PersonPresentation.html]] {
            {abstract} +bind(Action, PersonRegistry): void
            {abstract} +dispose(): void
        }

        interface PersonPresentationControl [[PersonPresentationControl.html]] {
            {static} +_PersonPresentationController_: Class<PersonPresentationControl>
        }

        class DefaultPersonPresentationControl [[DefaultPersonPresentationControl.html]] {
            +DefaultPersonPresentationControl(PersonPresentation)
        }

        class Main [[Main.html]] {
            {static} +main(String...): void
        }

        PersonPresentationControl <|.. DefaultPersonPresentationControl
    }

    center footer UMLDoclet 2.0.12, PlantUML 1.2020.16
@enduml
