<?xml version="1.0" encoding="UTF-8" standalone="no"?><svg xmlns="http://www.w3.org/2000/svg" xmlns:xlink="http://www.w3.org/1999/xlink" contentScriptType="application/ecmascript" contentStyleType="text/css" height="96px" preserveAspectRatio="none" style="width:421px;height:96px;" version="1.1" viewBox="0 0 421 96" width="421px" zoomAndPan="magnify"><defs><filter height="300%" id="fz98ekdzeop73" width="300%" x="-1" y="-1"><feGaussianBlur result="blurOut" stdDeviation="2.0"/><feColorMatrix in="blurOut" result="blurOut2" type="matrix" values="0 0 0 0 0 0 0 0 0 0 0 0 0 0 0 0 0 0 .4 0"/><feOffset dx="4.0" dy="4.0" in="blurOut2" result="blurOut3"/><feBlend in="SourceGraphic" in2="blurOut3" mode="normal"/></filter></defs><g><!--MD5=[c8467aeddaedf3a7e07e0a392460053a]
class it.tidalwave.thesefoolishthings.examples.dci.swing.PersonPresentationControl--><a href="PersonPresentationControl.html" target="_top" title="PersonPresentationControl.html" xlink:actuate="onRequest" xlink:href="PersonPresentationControl.html" xlink:show="new" xlink:title="PersonPresentationControl.html" xlink:type="simple"><rect codeLine="5" fill="#FEFECE" filter="url(#fz98ekdzeop73)" height="59.2207" id="it.tidalwave.thesefoolishthings.examples.dci.swing.PersonPresentationControl" style="stroke: #A80036; stroke-width: 1.5;" width="395" x="7" y="7"/><ellipse cx="76.25" cy="26.1328" fill="#B4A7E5" rx="11" ry="11" style="stroke: #A80036; stroke-width: 1.0;"/><path d="M72.6777,22.3979 L72.6777,20.2397 L80.0571,20.2397 L80.0571,22.3979 L77.5918,22.3979 L77.5918,30.4746 L80.0571,30.4746 L80.0571,32.6328 L72.6777,32.6328 L72.6777,30.4746 L75.1431,30.4746 L75.1431,22.3979 Z "/><text fill="#000000" font-family="sans-serif" font-size="14" font-style="italic" lengthAdjust="spacingAndGlyphs" textLength="185" x="128.25" y="25.5352">PersonPresentationControl</text><text fill="#000000" font-family="sans-serif" font-size="10" font-style="italic" lengthAdjust="spacingAndGlyphs" textLength="248" x="96.75" y="38.1563">it.tidalwave.thesefoolishthings.examples.dci.swing</text><line style="stroke: #A80036; stroke-width: 1.5;" x1="8" x2="401" y1="45.2656" y2="45.2656"/><ellipse cx="18" cy="56.2656" fill="none" rx="3" ry="3" style="stroke: #038048; stroke-width: 1.0;"/><text fill="#000000" font-family="sans-serif" font-size="11" lengthAdjust="spacingAndGlyphs" text-decoration="underline" textLength="369" x="27" y="59.9004">_PersonPresentationController_: Class&lt;PersonPresentationControl&gt;</text></a><text fill="#888888" font-family="sans-serif" font-size="10" lengthAdjust="spacingAndGlyphs" textLength="188" x="110.5" y="82.8887">UMLDoclet 2.0.12, PlantUML 1.2020.16</text><!--MD5=[4ba432ddd45603780fe3e1424e65f541]
@startuml
    set namespaceSeparator none
    hide empty fields
    hide empty methods

    interface "<size:14>PersonPresentationControl\n<size:10>it.tidalwave.thesefoolishthings.examples.dci.swing" as it.tidalwave.thesefoolishthings.examples.dci.swing.PersonPresentationControl [[PersonPresentationControl.html]] {
        {static} +_PersonPresentationController_: Class<PersonPresentationControl>
    }

    center footer UMLDoclet 2.0.12, PlantUML 1.2020.16
@enduml

PlantUML version 1.2020.16(Sun Aug 23 22:20:43 CEST 2020)
(APACHE source distribution)
Java Runtime: OpenJDK Runtime Environment
JVM: OpenJDK 64-Bit Server VM
Default Encoding: UTF-8
Language: en
Country: GB
--></g></svg>