@startuml
    set namespaceSeparator none
    hide empty fields
    hide empty methods

    interface "<size:14>AsDelegateProvider\n<size:10>it.tidalwave.util.spi" as it.tidalwave.util.spi.AsDelegateProvider [[AsDelegateProvider.html]] {
        {static} +_AsDelegateProvider_: Class<AsDelegateProvider>
        {abstract} +createAsDelegate(Object): AsDelegate
        {static} +empty(): AsDelegateProvider
    }
    class "<size:14>AsDelegateProvider.Locator\n<size:10>it.tidalwave.util.spi" as it.tidalwave.util.spi.AsDelegateProvider.Locator [[AsDelegateProvider.Locator.html]]
    class "<size:14>AsDelegateProvider.EmptyAsDelegateProvider\n<size:10>it.tidalwave.util.spi" as it.tidalwave.util.spi.AsDelegateProvider.EmptyAsDelegateProvider [[AsDelegateProvider.EmptyAsDelegateProvider.html]]

    it.tidalwave.util.spi.AsDelegateProvider +-- it.tidalwave.util.spi.AsDelegateProvider.Locator
    it.tidalwave.util.spi.AsDelegateProvider +-- it.tidalwave.util.spi.AsDelegateProvider.EmptyAsDelegateProvider

    center footer UMLDoclet 2.0.12, PlantUML 1.2020.16
@enduml
