@startuml
    set namespaceSeparator none
    hide empty fields
    hide empty methods

    class "<size:14>RoundRobinAsyncMessageDelivery\n<size:10>it.tidalwave.messagebus.spi" as it.tidalwave.messagebus.spi.RoundRobinAsyncMessageDelivery [[RoundRobinAsyncMessageDelivery.html]] {
        +initialize(SimpleMessageBus): void
        +deliverMessage(Class<T>, T): void
    }

    interface "<size:14>MessageDelivery\n<size:10>it.tidalwave.messagebus.spi" as it.tidalwave.messagebus.spi.MessageDelivery [[MessageDelivery.html]] {
        {abstract} +initialize(SimpleMessageBus): void
        {abstract} +deliverMessage(Class<T>, T): void
    }

    it.tidalwave.messagebus.spi.MessageDelivery <|.. it.tidalwave.messagebus.spi.RoundRobinAsyncMessageDelivery

    center footer UMLDoclet 2.0.12, PlantUML 1.2020.16
@enduml
