@startuml
    set namespaceSeparator none
    hide empty fields
    hide empty methods

    class "<size:14>VirtualSiteNode\n<size:10>it.tidalwave.northernwind.frontend.ui.spi" as it.tidalwave.northernwind.frontend.ui.spi.VirtualSiteNode [[VirtualSiteNode.html]] {
        +getSite(): Site
        +getLayout(): Layout
        +getFile(): ResourceFile
        +getPropertyGroup(Id): ResourceProperties
        +isPlaceHolder(): boolean
        +findChildren(): Finder<SiteNode>
    }

    interface "<size:14>SiteNode\n<size:10>it.tidalwave.northernwind.core.model" as it.tidalwave.northernwind.core.model.SiteNode [[../../../core/model/SiteNode.html]] {
        {abstract} +getSite(): Site
        {abstract} +getLayout(): Layout
        {abstract} +getRelativeUri(): ResourcePath
    }

    it.tidalwave.northernwind.core.model.SiteNode <|.. it.tidalwave.northernwind.frontend.ui.spi.VirtualSiteNode

    center footer UMLDoclet 2.0.12, PlantUML 1.2020.16
@enduml
