@startuml
    set namespaceSeparator none
    hide empty fields
    hide empty methods

    class "<size:14>HtmlTemplateSitemapView\n<size:10>it.tidalwave.northernwind.frontend.ui.component.sitemap.htmltemplate" as it.tidalwave.northernwind.frontend.ui.component.sitemap.htmltemplate.HtmlTemplateSitemapView [[HtmlTemplateSitemapView.html]] {
        +HtmlTemplateSitemapView(Id, Site)
        +render(Optional<ResourcePath>, Aggregates): void
    }

    class "<size:14>HtmlTemplateHtmlFragmentView\n<size:10>it.tidalwave.northernwind.frontend.ui.component.htmlfragment.htmltemplate" as it.tidalwave.northernwind.frontend.ui.component.htmlfragment.htmltemplate.HtmlTemplateHtmlFragmentView [[../../htmlfragment/htmltemplate/HtmlTemplateHtmlFragmentView.html]]
    interface "<size:14>SitemapView\n<size:10>it.tidalwave.northernwind.frontend.ui.component.sitemap" as it.tidalwave.northernwind.frontend.ui.component.sitemap.SitemapView [[http://tidalwave.it/projects/northernwind/it-tidalwave-northernwind-modules/it-tidalwave-northernwind-frontend-components/apidocs/it/tidalwave/northernwind/frontend/ui/component/sitemap/SitemapView.html?is-external=true]] {
        {abstract} +setMimeType(String): void
    }

    it.tidalwave.northernwind.frontend.ui.component.htmlfragment.htmltemplate.HtmlTemplateHtmlFragmentView <|-- it.tidalwave.northernwind.frontend.ui.component.sitemap.htmltemplate.HtmlTemplateSitemapView
    it.tidalwave.northernwind.frontend.ui.component.sitemap.SitemapView <|.. it.tidalwave.northernwind.frontend.ui.component.sitemap.htmltemplate.HtmlTemplateSitemapView

    center footer UMLDoclet 2.0.12, PlantUML 1.2020.16
@enduml
