GROUP,PACKAGE,CLASS,INSTRUCTION_MISSED,INSTRUCTION_COVERED,BRANCH_MISSED,BRANCH_COVERED,LINE_MISSED,LINE_COVERED,COMPLEXITY_MISSED,COMPLEXITY_COVERED,METHOD_MISSED,METHOD_COVERED
SteelBlue :: Examples :: Model/it-tidalwave-ui-core,it.tidalwave.ui.core.role.spi,MutableIconProviderSupport,24,0,0,0,6,0,3,0,3,0
SteelBlue :: Examples :: Model/it-tidalwave-ui-core,it.tidalwave.ui.core.role.spi,DefaultUserActionProvider,0,10,0,0,0,3,0,3,0,3
SteelBlue :: Examples :: Model/it-tidalwave-ui-core,it.tidalwave.ui.core.role.spi,DefaultPresentationModelFactory,0,9,0,0,0,2,0,2,0,2
SteelBlue :: Examples :: Model/it-tidalwave-ui-core,it.tidalwave.ui.core.role.spi,SimpleCompositePresentable,0,53,0,0,0,12,0,5,0,5
SteelBlue :: Examples :: Model/it-tidalwave-ui-core,it.tidalwave.ui.core.role.spi,SimpleCompositePresentable.new Task() {...},0,49,0,2,0,6,0,3,0,2
SteelBlue :: Examples :: Model/it-tidalwave-ui-core,it.tidalwave.ui.core.role.spi,SimpleCompositePresentable.SCPFinder.new Task() {...},0,52,0,0,0,8,0,6,0,6
SteelBlue :: Examples :: Model/it-tidalwave-ui-core,it.tidalwave.ui.core.role.spi,PresentationModelCollectors,73,0,0,0,11,0,9,0,9,0
SteelBlue :: Examples :: Model/it-tidalwave-ui-core,it.tidalwave.ui.core.role.spi,SimpleCompositePresentable.SCPFinder,19,10,0,0,5,1,1,1,1,1
SteelBlue :: Examples :: Model/it-tidalwave-ui-core,it.tidalwave.ui.core.role.impl,MutableListenerAdapter,0,10,0,0,0,2,0,1,0,1
SteelBlue :: Examples :: Model/it-tidalwave-ui-core,it.tidalwave.ui.core.role.impl,MutableListenerSupport,18,60,3,1,6,16,4,5,2,5
SteelBlue :: Examples :: Model/it-tidalwave-ui-core,it.tidalwave.ui.core.role.impl,DefaultMutableDisplayable,132,0,0,0,27,0,10,0,10,0
SteelBlue :: Examples :: Model/it-tidalwave-ui-core,it.tidalwave.ui.core.role.impl,DefaultPresentationModel,93,72,8,6,20,18,10,7,5,5
SteelBlue :: Examples :: Model/it-tidalwave-ui-core,it.tidalwave.ui.core.role.impl,DefaultDisplayable,17,44,0,0,3,10,3,4,3,4
SteelBlue :: Examples :: Model/it-tidalwave-ui-core,it.tidalwave.ui.core.role.impl,DefaultPresentable,5,0,0,0,1,0,1,0,1,0
SteelBlue :: Examples :: Model/it-tidalwave-ui-core,it.tidalwave.ui.core.role.impl,AsDisplayableComparator,0,20,0,0,0,3,0,3,0,3
SteelBlue :: Examples :: Model/it-tidalwave-ui-core,it.tidalwave.ui.core.role.impl,DefaultUserAction,17,66,0,0,6,17,2,4,2,4
SteelBlue :: Examples :: Model/it-tidalwave-ui-core,it.tidalwave.ui.core.role.impl,DefaultStyleable,24,0,0,0,7,0,3,0,3,0
SteelBlue :: Examples :: Model/it-tidalwave-ui-core,it.tidalwave.ui.core.role.impl,DisplayableComparator,0,14,0,0,0,3,0,3,0,3
SteelBlue :: Examples :: Model/it-tidalwave-ui-core,it.tidalwave.ui.core.spi,PanelGroupControlSupport,18,84,2,2,4,11,4,7,2,7
SteelBlue :: Examples :: Model/it-tidalwave-ui-core,it.tidalwave.ui.core.spi,MenuBarControlSupport,27,105,2,2,5,18,4,8,2,8
SteelBlue :: Examples :: Model/it-tidalwave-ui-core,it.tidalwave.ui.core.spi,PanelGroupProviderSupport,4,13,0,0,1,5,1,1,1,1
SteelBlue :: Examples :: Model/it-tidalwave-ui-core,it.tidalwave.ui.core.spi,ToolBarControlSupport,20,33,0,0,5,8,2,3,2,3
SteelBlue :: Examples :: Model/it-tidalwave-ui-core,it.tidalwave.ui.core.role,PresentationModel,35,40,0,0,7,8,4,5,4,5
SteelBlue :: Examples :: Model/it-tidalwave-ui-core,it.tidalwave.ui.core.role,HtmlDisplayable,3,0,0,0,1,0,1,0,1,0
SteelBlue :: Examples :: Model/it-tidalwave-ui-core,it.tidalwave.ui.core.role,UserActionProvider,0,15,0,0,0,5,0,3,0,3
SteelBlue :: Examples :: Model/it-tidalwave-ui-core,it.tidalwave.ui.core.role,MutableDisplayable,13,0,0,0,3,0,3,0,3,0
SteelBlue :: Examples :: Model/it-tidalwave-ui-core,it.tidalwave.ui.core.role,Visibility,11,0,0,0,3,0,3,0,3,0
SteelBlue :: Examples :: Model/it-tidalwave-ui-core,it.tidalwave.ui.core.role,IconProvider,7,0,0,0,2,0,1,0,1,0
SteelBlue :: Examples :: Model/it-tidalwave-ui-core,it.tidalwave.ui.core.role,UserActionProvider.new UserActionProvider() {...},0,23,0,2,0,5,0,4,0,3
SteelBlue :: Examples :: Model/it-tidalwave-ui-core,it.tidalwave.ui.core.role,Styleable,13,0,0,0,3,0,3,0,3,0
SteelBlue :: Examples :: Model/it-tidalwave-ui-core,it.tidalwave.ui.core.role,PresentationModelFactory,5,3,0,0,1,1,1,1,1,1
SteelBlue :: Examples :: Model/it-tidalwave-ui-core,it.tidalwave.ui.core.role,MutableIconProvider,3,0,0,0,1,0,1,0,1,0
SteelBlue :: Examples :: Model/it-tidalwave-ui-core,it.tidalwave.ui.core.role,IconProvider.new IconProvider() {...},17,0,0,0,3,0,2,0,2,0
SteelBlue :: Examples :: Model/it-tidalwave-ui-core,it.tidalwave.ui.core.role,PlainTextDisplayable,3,0,0,0,1,0,1,0,1,0
SteelBlue :: Examples :: Model/it-tidalwave-ui-core,it.tidalwave.ui.core.role,Presentable,23,3,0,0,4,1,3,1,3,1
SteelBlue :: Examples :: Model/it-tidalwave-ui-core,it.tidalwave.ui.core.role,Displayable,16,54,0,0,6,11,5,10,5,10
SteelBlue :: Examples :: Model/it-tidalwave-ui-core,it.tidalwave.ui.core.role,Selectable,3,0,0,0,1,0,1,0,1,0
SteelBlue :: Examples :: Model/it-tidalwave-ui-core,it.tidalwave.ui.core.role,PresentationModelAggregate,25,0,0,0,4,0,4,0,4,0
SteelBlue :: Examples :: Model/it-tidalwave-ui-core,it.tidalwave.ui.core.role,UserAction,13,9,0,0,3,2,2,2,2,2
SteelBlue :: Examples :: Model/it-tidalwave-ui-core,it.tidalwave.ui.core,PanelGroupControl,0,7,0,0,0,1,0,1,0,1
SteelBlue :: Examples :: Model/it-tidalwave-ui-core,it.tidalwave.ui.core,MenuBarControl.MenuIndex,0,54,0,0,0,6,0,3,0,3
SteelBlue :: Examples :: Model/it-tidalwave-ui-core,it.tidalwave.ui.core,UserNotification,0,40,0,0,0,5,0,5,0,5
SteelBlue :: Examples :: Model/it-tidalwave-ui-core,it.tidalwave.ui.core,PanelGroupControl.DefaultGroups,0,27,0,0,0,2,0,1,0,1
SteelBlue :: Examples :: Model/it-tidalwave-ui-core,it.tidalwave.ui.core,MenuBarControl.MenuPlacement,0,3,0,0,0,1,0,1,0,1
SteelBlue :: Examples :: Model/it-tidalwave-ui-core,it.tidalwave.ui.core,MutableListener2,0,5,0,0,0,2,0,1,0,1
SteelBlue :: Examples :: Model/it-tidalwave-ui-core,it.tidalwave.ui.core,MutableListener1,0,4,0,0,0,2,0,1,0,1
SteelBlue :: Examples :: Model/it-tidalwave-ui-core,it.tidalwave.ui.core,Mutable,0,8,0,0,0,4,0,2,0,2
SteelBlue :: Examples :: Model/it-tidalwave-ui-core,it.tidalwave.ui.core,UserNotificationWithFeedback.Feedback,6,26,0,4,0,8,0,6,0,4
SteelBlue :: Examples :: Model/it-tidalwave-ui-core,it.tidalwave.ui.core,UserNotificationWithFeedback,0,80,0,0,0,14,0,10,0,10
SteelBlue :: Examples :: Model/it-tidalwave-ui-core,it.tidalwave.ui.core,BoundProperty,78,0,4,0,16,0,9,0,7,0
SteelBlue :: Examples :: Model/it-tidalwave-ui-core,it.tidalwave.ui.core,PanelGroupControl.Configuration,0,48,0,0,0,6,0,3,0,3
SteelBlue :: Examples :: Model/it-tidalwave-ui-core,it.tidalwave.ui.core,PanelGroupControl.Options,0,21,0,0,0,4,0,1,0,1
SteelBlue :: Examples :: Model/it-tidalwave-ui-core,it.tidalwave.ui.core.function,UnaryBoundFunctionSupport,35,0,0,0,9,0,4,0,4,0
SteelBlue :: Examples :: Model/it-tidalwave-ui-core,it.tidalwave.ui.core.function,BooleanBoundFunctionSupport,40,0,2,0,8,0,3,0,2,0
SteelBlue :: Examples :: Model/it-tidalwave-ui-core,it.tidalwave.ui.core.function,NonEmptyFunction,38,0,4,0,8,0,6,0,4,0
SteelBlue :: Examples :: Model/it-tidalwave-ui-core,it.tidalwave.ui.core.function,WeakCopyFunctionSupport,35,0,2,0,12,0,6,0,5,0
SteelBlue :: Examples :: Model/it-tidalwave-ui-core,it.tidalwave.ui.core.function,BooleanBoundFunctionSupport.new PropertyChangeListener() {...},28,0,0,0,5,0,2,0,2,0
SteelBlue :: Examples :: Model/it-tidalwave-ui-core,it.tidalwave.ui.core.function,AndFunction,35,0,4,0,7,0,5,0,3,0
SteelBlue :: Examples :: Model/it-tidalwave-ui-core,it.tidalwave.ui.core.function,CopyIfEmptyOrConform,23,0,4,0,4,0,5,0,3,0
SteelBlue :: Examples :: Model/it-tidalwave-ui-core,it.tidalwave.ui.core.function,BoundFunctionSupport,55,0,2,0,10,0,5,0,4,0
SteelBlue :: Examples :: Model/it-tidalwave-ui-core,it.tidalwave.ui.core.function,OrFunction,35,0,4,0,7,0,5,0,3,0
SteelBlue :: Examples :: Model/it-tidalwave-ui-core,it.tidalwave.ui.core.message,PanelShowRequest,6,0,0,0,1,0,1,0,1,0
SteelBlue :: Examples :: Model/it-tidalwave-ui-core,it.tidalwave.ui.core.message,PowerOffEvent,3,0,0,0,1,0,1,0,1,0
SteelBlue :: Examples :: Model/it-tidalwave-ui-core,it.tidalwave.ui.core.message,PowerOnEvent,11,0,0,0,5,0,2,0,2,0
