@startuml
    namespace it.tidalwave.role.ui.javafx.example.large.data {

        class SimpleEntity [[SimpleEntity.html]] {
        }

        interface Dao [[Dao.html]] {
            {abstract} +getSimpleEntities(): Collection<SimpleEntity>
            {abstract} +getDciEntities(): Collection<SimpleDciEntity>
            {abstract} +getFiles(): Collection<FileEntity>
        }

        class SimpleDciEntity [[SimpleDciEntity.html]] {
            +SimpleDciEntity(String, int, int)
        }

        it.tidalwave.util.As <|.. SimpleDciEntity
    }

    namespace it.tidalwave.util {
        interface As {
            {static} +forObject(Object): As
            {static} +forObject(Object, Object): As
            {static} +forObject(Object, Collection<Object>): As
            +as(Class<? extends T>): T
            {abstract} +maybeAs(Class<? extends T>): Optional<T>
            {abstract} +asMany(Class<? extends T>): Collection<T>
            {static} +type(Class<?>): Type<T>
            +as(Type<? extends T>): T
            +maybeAs(Type<? extends T>): Optional<T>
            +asMany(Type<? extends T>): Collection<T>
        }
    }

    center footer UMLDoclet 2.0.12, PlantUML 1.2020.16
@enduml
