@startuml
    namespace it.tidalwave.actor.annotation {

        annotation Message [[Message.html]]

        annotation OriginatedBy [[OriginatedBy.html]]

        annotation Actor [[Actor.html]]

    }

    center footer UMLDoclet 2.0.12, PlantUML 1.2020.16
@enduml
