@startuml
    set namespaceSeparator none
    hide empty fields
    hide empty methods

    interface "<size:14>As\n<size:10>it.tidalwave.util" as it.tidalwave.util.As [[As.html]] {
        {static} +forObject(Object): As
        {static} +forObject(Object, Object): As
        {static} +forObject(Object, Collection<Object>): As
        +as(Class<? extends T>): T
        {abstract} +maybeAs(Class<? extends T>): Optional<T>
        {abstract} +asMany(Class<? extends T>): Collection<T>
        {static} +type(Class<?>): Type<T>
        +as(Type<? extends T>): T
        +maybeAs(Type<? extends T>): Optional<T>
        +asMany(Type<? extends T>): Collection<T>
    }
    class "<size:14>As.Type\n<size:10>it.tidalwave.util" as it.tidalwave.util.As.Type<T> [[As.Type.html]]

    it.tidalwave.util.As +-- it.tidalwave.util.As.Type

    center footer UMLDoclet 2.0.12, PlantUML 1.2020.16
@enduml
