@startuml
    set namespaceSeparator none
    hide empty fields
    hide empty methods

    class "<size:14>ShortNames\n<size:10>it.tidalwave.util" as it.tidalwave.util.ShortNames [[ShortNames.html]] {
        {static} +shortName(Class<?>): String
        {static} +shortName(Class<?>, boolean): String
        {static} +shortNames(Iterable<Class<?>>): String
        {static} +shortId(Object): String
        {static} +shortIds(Iterable<?>): String
        {static} +shortIds(Object...): String
    }

    center footer UMLDoclet 2.0.12, PlantUML 1.2020.16
@enduml
