<?xml version="1.0" encoding="UTF-8" standalone="no"?><svg xmlns="http://www.w3.org/2000/svg" xmlns:xlink="http://www.w3.org/1999/xlink" contentScriptType="application/ecmascript" contentStyleType="text/css" height="555px" preserveAspectRatio="none" style="width:569px;height:555px;" version="1.1" viewBox="0 0 569 555" width="569px" zoomAndPan="magnify"><defs><filter height="300%" id="f1glsy4h88g5b3" width="300%" x="-1" y="-1"><feGaussianBlur result="blurOut" stdDeviation="2.0"/><feColorMatrix in="blurOut" result="blurOut2" type="matrix" values="0 0 0 0 0 0 0 0 0 0 0 0 0 0 0 0 0 0 .4 0"/><feOffset dx="4.0" dy="4.0" in="blurOut2" result="blurOut3"/><feBlend in="SourceGraphic" in2="blurOut3" mode="normal"/></filter></defs><g><!--MD5=[4e8eb53d15ae3a92432814eeefcf7d1e]
cluster it.tidalwave.northernwind.frontend.ui.component.nodecontainer--><polygon fill="#FFFFFF" filter="url(#f1glsy4h88g5b3)" points="16,166,475,166,482,188.4883,543,188.4883,543,526,16,526,16,166" style="stroke: #000000; stroke-width: 1.5;"/><line style="stroke: #000000; stroke-width: 1.5;" x1="16" x2="482" y1="188.4883" y2="188.4883"/><text fill="#000000" font-family="sans-serif" font-size="14" font-weight="bold" lengthAdjust="spacingAndGlyphs" textLength="453" x="20" y="181.5352">it.tidalwave.northernwind.frontend.ui.component.nodecontainer</text><!--MD5=[90c2144f63705a3044483f7c3d43505d]
cluster it.tidalwave.northernwind.frontend.ui--><polygon fill="#FFFFFF" filter="url(#f1glsy4h88g5b3)" points="23,6,294,6,301,28.4883,304,28.4883,304,141,23,141,23,6" style="stroke: #000000; stroke-width: 1.5;"/><line style="stroke: #000000; stroke-width: 1.5;" x1="23" x2="301" y1="28.4883" y2="28.4883"/><text fill="#000000" font-family="sans-serif" font-size="14" font-weight="bold" lengthAdjust="spacingAndGlyphs" textLength="265" x="27" y="21.5352">it.tidalwave.northernwind.frontend.ui</text><!--MD5=[a7ca9ec2a63815c8336b48c8b310b176]
cluster it.tidalwave.role--><polygon fill="#FFFFFF" filter="url(#f1glsy4h88g5b3)" points="321,12.5,441,12.5,448,34.9883,547,34.9883,547,134.5,321,134.5,321,12.5" style="stroke: #000000; stroke-width: 1.5;"/><line style="stroke: #000000; stroke-width: 1.5;" x1="321" x2="448" y1="34.9883" y2="34.9883"/><text fill="#000000" font-family="sans-serif" font-size="14" font-weight="bold" lengthAdjust="spacingAndGlyphs" textLength="114" x="325" y="28.0352">it.tidalwave.role</text><!--MD5=[d4bc50ca56eeaccb383c763c15292b0b]
class it.tidalwave.northernwind.frontend.ui.component.nodecontainer.NodeContainerViewController--><a href="NodeContainerViewController.html" target="_top" title="NodeContainerViewController.html" xlink:actuate="onRequest" xlink:href="NodeContainerViewController.html" xlink:show="new" xlink:title="NodeContainerViewController.html" xlink:type="simple"><rect codeLine="3" fill="#FEFECE" filter="url(#f1glsy4h88g5b3)" height="177.5508" id="it.tidalwave.northernwind.frontend.ui.component.nodecontainer.NodeContainerViewController" style="stroke: #A80036; stroke-width: 1.5;" width="274" x="24" y="193"/><ellipse cx="72.25" cy="209" fill="#B4A7E5" rx="11" ry="11" style="stroke: #A80036; stroke-width: 1.0;"/><path d="M68.6777,205.2651 L68.6777,203.1069 L76.0571,203.1069 L76.0571,205.2651 L73.5918,205.2651 L73.5918,213.3418 L76.0571,213.3418 L76.0571,215.5 L68.6777,215.5 L68.6777,213.3418 L71.1431,213.3418 L71.1431,205.2651 Z "/><text fill="#000000" font-family="sans-serif" font-size="12" font-style="italic" lengthAdjust="spacingAndGlyphs" textLength="169" x="92.75" y="213.5352">NodeContainerViewController</text><line style="stroke: #A80036; stroke-width: 1.5;" x1="25" x2="297" y1="225" y2="225"/><ellipse cx="35" cy="236" fill="none" rx="3" ry="3" style="stroke: #038048; stroke-width: 1.0;"/><text fill="#000000" font-family="sans-serif" font-size="11" lengthAdjust="spacingAndGlyphs" text-decoration="underline" textLength="157" x="44" y="239.6348">P_TITLE_PREFIX: Key&lt;String&gt;</text><ellipse cx="35" cy="248.9551" fill="none" rx="3" ry="3" style="stroke: #038048; stroke-width: 1.0;"/><text fill="#000000" font-family="sans-serif" font-size="11" lengthAdjust="spacingAndGlyphs" text-decoration="underline" textLength="248" x="44" y="252.5898">P_SCREEN_STYLE_SHEETS: Key&lt;List&lt;String&gt;&gt;</text><ellipse cx="35" cy="261.9102" fill="none" rx="3" ry="3" style="stroke: #038048; stroke-width: 1.0;"/><text fill="#000000" font-family="sans-serif" font-size="11" lengthAdjust="spacingAndGlyphs" text-decoration="underline" textLength="238" x="44" y="265.5449">P_PRINT_STYLE_SHEETS: Key&lt;List&lt;String&gt;&gt;</text><ellipse cx="35" cy="274.8652" fill="none" rx="3" ry="3" style="stroke: #038048; stroke-width: 1.0;"/><text fill="#000000" font-family="sans-serif" font-size="11" lengthAdjust="spacingAndGlyphs" text-decoration="underline" textLength="181" x="44" y="278.5">P_RSS_FEEDS: Key&lt;List&lt;String&gt;&gt;</text><ellipse cx="35" cy="287.8203" fill="none" rx="3" ry="3" style="stroke: #038048; stroke-width: 1.0;"/><text fill="#000000" font-family="sans-serif" font-size="11" lengthAdjust="spacingAndGlyphs" text-decoration="underline" textLength="167" x="44" y="291.4551">P_SCRIPTS: Key&lt;List&lt;String&gt;&gt;</text><ellipse cx="35" cy="300.7754" fill="none" rx="3" ry="3" style="stroke: #038048; stroke-width: 1.0;"/><text fill="#000000" font-family="sans-serif" font-size="11" lengthAdjust="spacingAndGlyphs" text-decoration="underline" textLength="215" x="44" y="304.4102">P_INLINED_SCRIPTS: Key&lt;List&lt;String&gt;&gt;</text><ellipse cx="35" cy="313.7305" fill="none" rx="3" ry="3" style="stroke: #038048; stroke-width: 1.0;"/><text fill="#000000" font-family="sans-serif" font-size="11" lengthAdjust="spacingAndGlyphs" text-decoration="underline" textLength="124" x="44" y="317.3652">PD_TITLE: Key&lt;String&gt;</text><ellipse cx="35" cy="326.6855" fill="none" rx="3" ry="3" style="stroke: #038048; stroke-width: 1.0;"/><text fill="#000000" font-family="sans-serif" font-size="11" lengthAdjust="spacingAndGlyphs" text-decoration="underline" textLength="116" x="44" y="330.3203">PD_URL: Key&lt;String&gt;</text><ellipse cx="35" cy="339.6406" fill="none" rx="3" ry="3" style="stroke: #038048; stroke-width: 1.0;"/><text fill="#000000" font-family="sans-serif" font-size="11" lengthAdjust="spacingAndGlyphs" text-decoration="underline" textLength="106" x="44" y="343.2754">PD_ID: Key&lt;String&gt;</text><ellipse cx="35" cy="352.5957" fill="none" rx="3" ry="3" style="stroke: #038048; stroke-width: 1.0;"/><text fill="#000000" font-family="sans-serif" font-size="11" lengthAdjust="spacingAndGlyphs" text-decoration="underline" textLength="146" x="44" y="356.2305">PD_IMAGE_ID: Key&lt;String&gt;</text><line style="stroke: #A80036; stroke-width: 1.5;" x1="25" x2="297" y1="362.5508" y2="362.5508"/></a><!--MD5=[86615fb2b15091be7a1d5e9e453a6d9d]
class it.tidalwave.northernwind.frontend.ui.component.nodecontainer.NodeContainerView--><a href="NodeContainerView.html" target="_top" title="NodeContainerView.html" xlink:actuate="onRequest" xlink:href="NodeContainerView.html" xlink:show="new" xlink:title="NodeContainerView.html" xlink:type="simple"><rect codeLine="16" fill="#FEFECE" filter="url(#f1glsy4h88g5b3)" height="73.9102" id="it.tidalwave.northernwind.frontend.ui.component.nodecontainer.NodeContainerView" style="stroke: #A80036; stroke-width: 1.5;" width="201" x="333.5" y="245"/><ellipse cx="373.7" cy="261" fill="#B4A7E5" rx="11" ry="11" style="stroke: #A80036; stroke-width: 1.0;"/><path d="M370.1277,257.2651 L370.1277,255.1069 L377.5071,255.1069 L377.5071,257.2651 L375.0418,257.2651 L375.0418,265.3418 L377.5071,265.3418 L377.5071,267.5 L370.1277,267.5 L370.1277,265.3418 L372.5931,265.3418 L372.5931,257.2651 Z "/><text fill="#000000" font-family="sans-serif" font-size="12" font-style="italic" lengthAdjust="spacingAndGlyphs" textLength="113" x="393.3" y="265.5352">NodeContainerView</text><line style="stroke: #A80036; stroke-width: 1.5;" x1="334.5" x2="533.5" y1="277" y2="277"/><line style="stroke: #A80036; stroke-width: 1.5;" x1="334.5" x2="533.5" y1="285" y2="285"/><ellipse cx="344.5" cy="296" fill="#84BE84" rx="3" ry="3" style="stroke: #038048; stroke-width: 1.0;"/><text fill="#000000" font-family="sans-serif" font-size="11" font-style="italic" lengthAdjust="spacingAndGlyphs" textLength="175" x="353.5" y="299.6348">addAttribute(String, String): void</text><ellipse cx="344.5" cy="308.9551" fill="#84BE84" rx="3" ry="3" style="stroke: #038048; stroke-width: 1.0;"/><text fill="#000000" font-family="sans-serif" font-size="11" font-style="italic" lengthAdjust="spacingAndGlyphs" textLength="134" x="353.5" y="312.5898">setTemplate(String): void</text></a><!--MD5=[8c166e9f97128fd070bf32b87debae42]
class it.tidalwave.northernwind.frontend.ui.component.nodecontainer.DefaultNodeContainerViewController--><a href="DefaultNodeContainerViewController.html" target="_top" title="DefaultNodeContainerViewController.html" xlink:actuate="onRequest" xlink:href="DefaultNodeContainerViewController.html" xlink:show="new" xlink:title="DefaultNodeContainerViewController.html" xlink:type="simple"><rect codeLine="21" fill="#FEFECE" filter="url(#f1glsy4h88g5b3)" height="86.8652" id="it.tidalwave.northernwind.frontend.ui.component.nodecontainer.DefaultNodeContainerViewController" style="stroke: #A80036; stroke-width: 1.5;" width="242" x="40" y="431"/><ellipse cx="55" cy="447" fill="#ADD1B2" rx="11" ry="11" style="stroke: #A80036; stroke-width: 1.0;"/><path d="M57.4731,453.1431 Q56.8921,453.4419 56.2529,453.5913 Q55.6138,453.7407 54.9082,453.7407 Q52.4014,453.7407 51.0815,452.0889 Q49.7617,450.437 49.7617,447.3159 Q49.7617,444.1865 51.0815,442.5347 Q52.4014,440.8828 54.9082,440.8828 Q55.6138,440.8828 56.2612,441.0322 Q56.9087,441.1816 57.4731,441.4805 L57.4731,444.2031 Q56.8423,443.6221 56.2488,443.3523 Q55.6553,443.0825 55.0244,443.0825 Q53.6797,443.0825 52.9949,444.1492 Q52.3101,445.2158 52.3101,447.3159 Q52.3101,449.4077 52.9949,450.4744 Q53.6797,451.541 55.0244,451.541 Q55.6553,451.541 56.2488,451.2712 Q56.8423,451.0015 57.4731,450.4204 Z "/><text fill="#000000" font-family="sans-serif" font-size="12" lengthAdjust="spacingAndGlyphs" textLength="210" x="69" y="451.5352">DefaultNodeContainerViewController</text><line style="stroke: #A80036; stroke-width: 1.5;" x1="41" x2="281" y1="463" y2="463"/><line style="stroke: #A80036; stroke-width: 1.5;" x1="41" x2="281" y1="471" y2="471"/><ellipse cx="51" cy="482" fill="#84BE84" rx="3" ry="3" style="stroke: #038048; stroke-width: 1.0;"/><text fill="#000000" font-family="sans-serif" font-size="11" lengthAdjust="spacingAndGlyphs" textLength="178" x="60" y="485.6348">renderView(RenderContext): void</text><polygon fill="#FFFF44" points="51,489.9551,55,493.9551,51,497.9551,47,493.9551" style="stroke: #B38D22; stroke-width: 1.0;"/><text fill="#000000" font-family="sans-serif" font-size="11" lengthAdjust="spacingAndGlyphs" textLength="215" x="60" y="498.5898">getViewProperties(): ResourceProperties</text><polygon fill="#FFFF44" points="51,502.9102,55,506.9102,51,510.9102,47,506.9102" style="stroke: #B38D22; stroke-width: 1.0;"/><text fill="#000000" font-family="sans-serif" font-size="11" lengthAdjust="spacingAndGlyphs" textLength="205" x="60" y="511.5449">computeInlinedScriptsSection(): String</text></a><!--MD5=[fd49f22f3a54ad6da4c032e73965af1a]
class it.tidalwave.northernwind.frontend.ui.ViewController--><a href="../../ViewController.html" target="_top" title="../../ViewController.html" xlink:actuate="onRequest" xlink:href="../../ViewController.html" xlink:show="new" xlink:title="../../ViewController.html" xlink:type="simple"><rect codeLine="33" fill="#FEFECE" filter="url(#f1glsy4h88g5b3)" height="99.8203" id="it.tidalwave.northernwind.frontend.ui.ViewController" style="stroke: #A80036; stroke-width: 1.5;" width="248" x="37" y="33"/><ellipse cx="115.25" cy="49" fill="#B4A7E5" rx="11" ry="11" style="stroke: #A80036; stroke-width: 1.0;"/><path d="M111.6777,45.2651 L111.6777,43.1069 L119.0571,43.1069 L119.0571,45.2651 L116.5918,45.2651 L116.5918,53.3418 L119.0571,53.3418 L119.0571,55.5 L111.6777,55.5 L111.6777,53.3418 L114.1431,53.3418 L114.1431,45.2651 Z "/><text fill="#000000" font-family="sans-serif" font-size="12" font-style="italic" lengthAdjust="spacingAndGlyphs" textLength="83" x="135.75" y="53.5352">ViewController</text><line style="stroke: #A80036; stroke-width: 1.5;" x1="38" x2="284" y1="65" y2="65"/><line style="stroke: #A80036; stroke-width: 1.5;" x1="38" x2="284" y1="73" y2="73"/><ellipse cx="48" cy="84" fill="#84BE84" rx="3" ry="3" style="stroke: #038048; stroke-width: 1.0;"/><text fill="#000000" font-family="sans-serif" font-size="11" lengthAdjust="spacingAndGlyphs" textLength="81" x="57" y="87.6348">initialize(): void</text><ellipse cx="48" cy="96.9551" fill="#84BE84" rx="3" ry="3" style="stroke: #038048; stroke-width: 1.0;"/><text fill="#000000" font-family="sans-serif" font-size="11" lengthAdjust="spacingAndGlyphs" textLength="215" x="57" y="100.5898">prepareRendering(RenderContext): void</text><ellipse cx="48" cy="109.9102" fill="#84BE84" rx="3" ry="3" style="stroke: #038048; stroke-width: 1.0;"/><text fill="#000000" font-family="sans-serif" font-size="11" lengthAdjust="spacingAndGlyphs" textLength="178" x="57" y="113.5449">renderView(RenderContext): void</text><ellipse cx="48" cy="122.8652" fill="#84BE84" rx="3" ry="3" style="stroke: #038048; stroke-width: 1.0;"/><text fill="#000000" font-family="sans-serif" font-size="11" lengthAdjust="spacingAndGlyphs" textLength="222" x="57" y="126.5">findVirtualSiteNodes(): Finder&lt;SiteNode&gt;</text></a><!--MD5=[f40774d2c0efa8b70d7c747ac61cb911]
class it.tidalwave.role.Identifiable--><rect codeLine="42" fill="#FEFECE" filter="url(#f1glsy4h88g5b3)" height="86.8652" id="it.tidalwave.role.Identifiable" style="stroke: #A80036; stroke-width: 1.5;" width="209" x="329.5" y="39.5"/><ellipse cx="397.75" cy="55.5" fill="#B4A7E5" rx="11" ry="11" style="stroke: #A80036; stroke-width: 1.0;"/><path d="M394.1777,51.7651 L394.1777,49.6069 L401.5571,49.6069 L401.5571,51.7651 L399.0918,51.7651 L399.0918,59.8418 L401.5571,59.8418 L401.5571,62 L394.1777,62 L394.1777,59.8418 L396.6431,59.8418 L396.6431,51.7651 Z "/><text fill="#000000" font-family="sans-serif" font-size="12" font-style="italic" lengthAdjust="spacingAndGlyphs" textLength="64" x="418.25" y="60.0352">Identifiable</text><line style="stroke: #A80036; stroke-width: 1.5;" x1="330.5" x2="537.5" y1="71.5" y2="71.5"/><ellipse cx="340.5" cy="82.5" fill="none" rx="3" ry="3" style="stroke: #038048; stroke-width: 1.0;"/><text fill="#000000" font-family="sans-serif" font-size="11" lengthAdjust="spacingAndGlyphs" text-decoration="underline" textLength="183" x="349.5" y="86.1348">_Identifiable_: Class&lt;Identifiable&gt;</text><line style="stroke: #A80036; stroke-width: 1.5;" x1="330.5" x2="537.5" y1="92.4551" y2="92.4551"/><ellipse cx="340.5" cy="103.4551" fill="#84BE84" rx="3" ry="3" style="stroke: #038048; stroke-width: 1.0;"/><text fill="#000000" font-family="sans-serif" font-size="11" font-style="italic" lengthAdjust="spacingAndGlyphs" textLength="51" x="349.5" y="107.0898">getId(): Id</text><ellipse cx="340.5" cy="116.4102" fill="#84BE84" rx="3" ry="3" style="stroke: #038048; stroke-width: 1.0;"/><text fill="#000000" font-family="sans-serif" font-size="11" lengthAdjust="spacingAndGlyphs" text-decoration="underline" textLength="94" x="349.5" y="120.0449">of(Id): Identifiable</text><!--MD5=[a8c08947ba3296d2ae60dbe3052d84aa]
reverse link it.tidalwave.northernwind.frontend.ui.ViewController to it.tidalwave.northernwind.frontend.ui.component.nodecontainer.NodeContainerViewController--><path codeLine="27" d="M161,153.6689 C161,166.2986 161,179.6065 161,192.6777 " fill="none" id="it.tidalwave.northernwind.frontend.ui.ViewController-backto-it.tidalwave.northernwind.frontend.ui.component.nodecontainer.NodeContainerViewController" style="stroke: #A80036; stroke-width: 1.0;"/><polygon fill="none" points="154.0001,153.2161,161,133.2161,168.0001,153.2161,154.0001,153.2161" style="stroke: #A80036; stroke-width: 1.0;"/><!--MD5=[eb00b5a6e50507b34ee839f68fbbfe04]
reverse link it.tidalwave.role.Identifiable to it.tidalwave.northernwind.frontend.ui.component.nodecontainer.NodeContainerView--><path codeLine="28" d="M434,146.9036 C434,179.2175 434,217.3007 434,244.7821 " fill="none" id="it.tidalwave.role.Identifiable-backto-it.tidalwave.northernwind.frontend.ui.component.nodecontainer.NodeContainerView" style="stroke: #A80036; stroke-width: 1.0;"/><polygon fill="none" points="427.0001,146.6714,434,126.6714,441.0001,146.6714,427.0001,146.6714" style="stroke: #A80036; stroke-width: 1.0;"/><!--MD5=[8637a5ba1f78685cca4012d2b29fec3b]
reverse link it.tidalwave.northernwind.frontend.ui.component.nodecontainer.NodeContainerViewController to it.tidalwave.northernwind.frontend.ui.component.nodecontainer.DefaultNodeContainerViewController--><path codeLine="29" d="M161,391.6379 C161,405.4928 161,418.9702 161,430.8916 " fill="none" id="it.tidalwave.northernwind.frontend.ui.component.nodecontainer.NodeContainerViewController-backto-it.tidalwave.northernwind.frontend.ui.component.nodecontainer.DefaultNodeContainerViewController" style="stroke: #A80036; stroke-width: 1.0; stroke-dasharray: 7.0,7.0;"/><polygon fill="none" points="154.0001,391.2061,161,371.206,168.0001,391.206,154.0001,391.2061" style="stroke: #A80036; stroke-width: 1.0;"/><text fill="#888888" font-family="sans-serif" font-size="10" lengthAdjust="spacingAndGlyphs" textLength="188" x="181.5" y="541.668">UMLDoclet 2.0.12, PlantUML 1.2020.16</text><!--MD5=[93d5584dbf64bafb4dff7091ef4fbf13]
@startuml
    namespace it.tidalwave.northernwind.frontend.ui.component.nodecontainer {

        interface NodeContainerViewController [[NodeContainerViewController.html]] {
            {static} +P_TITLE_PREFIX: Key<String>
            {static} +P_SCREEN_STYLE_SHEETS: Key<List<String>>
            {static} +P_PRINT_STYLE_SHEETS: Key<List<String>>
            {static} +P_RSS_FEEDS: Key<List<String>>
            {static} +P_SCRIPTS: Key<List<String>>
            {static} +P_INLINED_SCRIPTS: Key<List<String>>
            {static} +PD_TITLE: Key<String>
            {static} +PD_URL: Key<String>
            {static} +PD_ID: Key<String>
            {static} +PD_IMAGE_ID: Key<String>
        }

        interface NodeContainerView [[NodeContainerView.html]] {
            {abstract} +addAttribute(String, String): void
            {abstract} +setTemplate(String): void
        }

        class DefaultNodeContainerViewController [[DefaultNodeContainerViewController.html]] {
            +renderView(RenderContext): void
            #getViewProperties(): ResourceProperties
            #computeInlinedScriptsSection(): String
        }

        it.tidalwave.northernwind.frontend.ui.ViewController <|- - NodeContainerViewController
        it.tidalwave.role.Identifiable <|- - NodeContainerView
        NodeContainerViewController <|.. DefaultNodeContainerViewController
    }

    namespace it.tidalwave.northernwind.frontend.ui {
        interface ViewController [[../../ViewController.html]] {
            +initialize(): void
            +prepareRendering(RenderContext): void
            +renderView(RenderContext): void
            +findVirtualSiteNodes(): Finder<SiteNode>
        }
    }

    namespace it.tidalwave.role {
        interface Identifiable {
            {static} +_Identifiable_: Class<Identifiable>
            {abstract} +getId(): Id
            {static} +of(Id): Identifiable
        }
    }

    center footer UMLDoclet 2.0.12, PlantUML 1.2020.16
@enduml

PlantUML version 1.2020.16(Sun Aug 23 22:20:43 CEST 2020)
(APACHE source distribution)
Java Runtime: OpenJDK Runtime Environment
JVM: OpenJDK 64-Bit Server VM
Default Encoding: UTF-8
Language: en
Country: GB
--></g></svg>