@startuml
    set namespaceSeparator none
    hide circle
    hide empty fields
    hide empty methods

    it.tidalwave.northernwind.frontend.filesystem.scm.spi --> org.slf4j
    it.tidalwave.northernwind.frontend.filesystem.scm.spi --> it.tidalwave.northernwind.core.model
    it.tidalwave.northernwind.frontend.filesystem.scm.spi --> org.openide.filesystems
    it.tidalwave.northernwind.frontend.filesystem.scm.spi --> org.springframework.beans.factory
    it.tidalwave.northernwind.frontend.filesystem.scm.spi --> it.tidalwave.messagebus
    it.tidalwave.northernwind.frontend.filesystem.scm.spi --> it.tidalwave.util.test
    it.tidalwave.northernwind.frontend.filesystem.scm.spi --> org.mockito

    ' Package links
    class "it.tidalwave.northernwind.frontend.filesystem.scm.spi" [[it/tidalwave/northernwind/frontend/filesystem/scm/spi/package-summary.html]] {
    }
    class "it.tidalwave.northernwind.core.model" [[http://tidalwave.it/projects/northernwind/it-tidalwave-northernwind-modules/it-tidalwave-northernwind-core/apidocs/it/tidalwave/northernwind/core/model/package-summary.html?is-external=true]] {
    }

    center footer UMLDoclet 2.0.12, PlantUML 1.2020.16
@enduml
