@startuml
    set namespaceSeparator none
    hide empty fields
    hide empty methods

    abstract class "<size:14>ContentSupport\n<size:10>it.tidalwave.northernwind.core.model.spi" as it.tidalwave.northernwind.core.model.spi.ContentSupport [[ContentSupport.html]] {
        #modelFactory: ModelFactory
        +ContentSupport(Builder)
    }

    interface "<size:14>Content\n<size:10>it.tidalwave.northernwind.core.model" as it.tidalwave.northernwind.core.model.Content [[../Content.html]] {
        {abstract} +getExposedUri(): Optional<ResourcePath>
    }

    it.tidalwave.northernwind.core.model.Content <|.. it.tidalwave.northernwind.core.model.spi.ContentSupport

    center footer UMLDoclet 2.0.12, PlantUML 1.2020.16
@enduml
