<?xml version="1.0" encoding="UTF-8" standalone="no"?><svg xmlns="http://www.w3.org/2000/svg" xmlns:xlink="http://www.w3.org/1999/xlink" contentScriptType="application/ecmascript" contentStyleType="text/css" height="221px" preserveAspectRatio="none" style="width:276px;height:221px;" version="1.1" viewBox="0 0 276 221" width="276px" zoomAndPan="magnify"><defs><filter height="300%" id="frhlc9vqhya75" width="300%" x="-1" y="-1"><feGaussianBlur result="blurOut" stdDeviation="2.0"/><feColorMatrix in="blurOut" result="blurOut2" type="matrix" values="0 0 0 0 0 0 0 0 0 0 0 0 0 0 0 0 0 0 .4 0"/><feOffset dx="4.0" dy="4.0" in="blurOut2" result="blurOut3"/><feBlend in="SourceGraphic" in2="blurOut3" mode="normal"/></filter></defs><g><!--MD5=[24be3ad7a17332867270a0d7b2226eba]
class it.tidalwave.northernwind.core.model.spi.DefaultLibraryRequestProcessor--><a href="DefaultLibraryRequestProcessor.html" target="_top" title="DefaultLibraryRequestProcessor.html" xlink:actuate="onRequest" xlink:href="DefaultLibraryRequestProcessor.html" xlink:show="new" xlink:title="DefaultLibraryRequestProcessor.html" xlink:type="simple"><rect codeLine="5" fill="#FEFECE" filter="url(#frhlc9vqhya75)" height="59.2207" id="it.tidalwave.northernwind.core.model.spi.DefaultLibraryRequestProcessor" style="stroke: #A80036; stroke-width: 1.5;" width="250" x="7" y="126"/><ellipse cx="22" cy="145.1328" fill="#ADD1B2" rx="11" ry="11" style="stroke: #A80036; stroke-width: 1.0;"/><path d="M24.4731,151.2759 Q23.8921,151.5747 23.2529,151.7241 Q22.6138,151.8735 21.9082,151.8735 Q19.4014,151.8735 18.0815,150.2217 Q16.7617,148.5698 16.7617,145.4487 Q16.7617,142.3193 18.0815,140.6675 Q19.4014,139.0156 21.9082,139.0156 Q22.6138,139.0156 23.2612,139.165 Q23.9087,139.3145 24.4731,139.6133 L24.4731,142.3359 Q23.8423,141.7549 23.2488,141.4851 Q22.6553,141.2153 22.0244,141.2153 Q20.6797,141.2153 19.9949,142.282 Q19.3101,143.3486 19.3101,145.4487 Q19.3101,147.5405 19.9949,148.6072 Q20.6797,149.6738 22.0244,149.6738 Q22.6553,149.6738 23.2488,149.4041 Q23.8423,149.1343 24.4731,148.5532 Z "/><text fill="#000000" font-family="sans-serif" font-size="14" lengthAdjust="spacingAndGlyphs" textLength="218" x="36" y="144.5352">DefaultLibraryRequestProcessor</text><text fill="#000000" font-family="sans-serif" font-size="10" lengthAdjust="spacingAndGlyphs" textLength="199" x="45.5" y="157.1563">it.tidalwave.northernwind.core.model.spi</text><line style="stroke: #A80036; stroke-width: 1.5;" x1="8" x2="256" y1="164.2656" y2="164.2656"/><ellipse cx="18" cy="175.2656" fill="#84BE84" rx="3" ry="3" style="stroke: #038048; stroke-width: 1.0;"/><text fill="#000000" font-family="sans-serif" font-size="11" lengthAdjust="spacingAndGlyphs" textLength="133" x="27" y="178.9004">process(Request): Status</text></a><!--MD5=[704de6b8ed38b98894edd2778e035021]
class it.tidalwave.northernwind.core.model.RequestProcessor--><a href="../RequestProcessor.html" target="_top" title="../RequestProcessor.html" xlink:actuate="onRequest" xlink:href="../RequestProcessor.html" xlink:show="new" xlink:title="../RequestProcessor.html" xlink:type="simple"><rect codeLine="9" fill="#FEFECE" filter="url(#frhlc9vqhya75)" height="59.2207" id="it.tidalwave.northernwind.core.model.RequestProcessor" style="stroke: #A80036; stroke-width: 1.5;" width="214" x="25" y="7"/><ellipse cx="40" cy="26.1328" fill="#B4A7E5" rx="11" ry="11" style="stroke: #A80036; stroke-width: 1.0;"/><path d="M36.4277,22.3979 L36.4277,20.2397 L43.8071,20.2397 L43.8071,22.3979 L41.3418,22.3979 L41.3418,30.4746 L43.8071,30.4746 L43.8071,32.6328 L36.4277,32.6328 L36.4277,30.4746 L38.8931,30.4746 L38.8931,22.3979 Z "/><text fill="#000000" font-family="sans-serif" font-size="14" font-style="italic" lengthAdjust="spacingAndGlyphs" textLength="122" x="84" y="25.5352">RequestProcessor</text><text fill="#000000" font-family="sans-serif" font-size="10" font-style="italic" lengthAdjust="spacingAndGlyphs" textLength="182" x="54" y="38.1563">it.tidalwave.northernwind.core.model</text><line style="stroke: #A80036; stroke-width: 1.5;" x1="26" x2="238" y1="45.2656" y2="45.2656"/><ellipse cx="36" cy="56.2656" fill="#84BE84" rx="3" ry="3" style="stroke: #038048; stroke-width: 1.0;"/><text fill="#000000" font-family="sans-serif" font-size="11" font-style="italic" lengthAdjust="spacingAndGlyphs" textLength="133" x="45" y="59.9004">process(Request): Status</text></a><!--MD5=[bf679d0bd4f9278aa700ab4743d8dad6]
reverse link it.tidalwave.northernwind.core.model.RequestProcessor to it.tidalwave.northernwind.core.model.spi.DefaultLibraryRequestProcessor--><path codeLine="13" d="M132,86.3288 C132,99.7348 132,113.8139 132,125.7447 " fill="none" id="it.tidalwave.northernwind.core.model.RequestProcessor-backto-it.tidalwave.northernwind.core.model.spi.DefaultLibraryRequestProcessor" style="stroke: #A80036; stroke-width: 1.0; stroke-dasharray: 7.0,7.0;"/><polygon fill="none" points="125.0001,86.2218,132,66.2218,139.0001,86.2217,125.0001,86.2218" style="stroke: #A80036; stroke-width: 1.0;"/><text fill="#888888" font-family="sans-serif" font-size="10" lengthAdjust="spacingAndGlyphs" textLength="188" x="35" y="207.8887">UMLDoclet 2.0.12, PlantUML 1.2020.16</text><!--MD5=[822227f3fc5359af543e928219f8c47a]
@startuml
    set namespaceSeparator none
    hide empty fields
    hide empty methods

    class "<size:14>DefaultLibraryRequestProcessor\n<size:10>it.tidalwave.northernwind.core.model.spi" as it.tidalwave.northernwind.core.model.spi.DefaultLibraryRequestProcessor [[DefaultLibraryRequestProcessor.html]] {
        +process(Request): Status
    }

    interface "<size:14>RequestProcessor\n<size:10>it.tidalwave.northernwind.core.model" as it.tidalwave.northernwind.core.model.RequestProcessor [[../RequestProcessor.html]] {
        {abstract} +process(Request): Status
    }

    it.tidalwave.northernwind.core.model.RequestProcessor <|.. it.tidalwave.northernwind.core.model.spi.DefaultLibraryRequestProcessor

    center footer UMLDoclet 2.0.12, PlantUML 1.2020.16
@enduml

PlantUML version 1.2020.16(Sun Aug 23 22:20:43 CEST 2020)
(APACHE source distribution)
Java Runtime: OpenJDK Runtime Environment
JVM: OpenJDK 64-Bit Server VM
Default Encoding: UTF-8
Language: en
Country: GB
--></g></svg>