@startuml
    set namespaceSeparator none
    hide empty fields
    hide empty methods

    class "<size:14>DefaultMediaRequestProcessor\n<size:10>it.tidalwave.northernwind.core.model.spi" as it.tidalwave.northernwind.core.model.spi.DefaultMediaRequestProcessor<ResponseType> [[DefaultMediaRequestProcessor.html]] {
        #responseHolder: ResponseHolder<ResponseType>
        +process(Request): Status
    }

    interface "<size:14>RequestProcessor\n<size:10>it.tidalwave.northernwind.core.model" as it.tidalwave.northernwind.core.model.RequestProcessor [[../RequestProcessor.html]] {
        {abstract} +process(Request): Status
    }

    it.tidalwave.northernwind.core.model.RequestProcessor <|.. it.tidalwave.northernwind.core.model.spi.DefaultMediaRequestProcessor

    center footer UMLDoclet 2.0.12, PlantUML 1.2020.16
@enduml
