<?xml version="1.0" encoding="UTF-8" standalone="no"?><svg xmlns="http://www.w3.org/2000/svg" xmlns:xlink="http://www.w3.org/1999/xlink" contentScriptType="application/ecmascript" contentStyleType="text/css" height="96px" preserveAspectRatio="none" style="width:265px;height:96px;" version="1.1" viewBox="0 0 265 96" width="265px" zoomAndPan="magnify"><defs><filter height="300%" id="f1d9opc1br3ra2" width="300%" x="-1" y="-1"><feGaussianBlur result="blurOut" stdDeviation="2.0"/><feColorMatrix in="blurOut" result="blurOut2" type="matrix" values="0 0 0 0 0 0 0 0 0 0 0 0 0 0 0 0 0 0 .4 0"/><feOffset dx="4.0" dy="4.0" in="blurOut2" result="blurOut3"/><feBlend in="SourceGraphic" in2="blurOut3" mode="normal"/></filter></defs><g><!--MD5=[adddf4dad9bb9fc466f298eb57039ea7]
class it.tidalwave.util.spi.AsDelegate--><a href="AsDelegate.html" target="_top" title="AsDelegate.html" xlink:actuate="onRequest" xlink:href="AsDelegate.html" xlink:show="new" xlink:title="AsDelegate.html" xlink:type="simple"><rect codeLine="5" fill="#FEFECE" filter="url(#f1d9opc1br3ra2)" height="59.2207" id="it.tidalwave.util.spi.AsDelegate" style="stroke: #A80036; stroke-width: 1.5;" width="239" x="7" y="7"/><ellipse cx="75.75" cy="26.1328" fill="#B4A7E5" rx="11" ry="11" style="stroke: #A80036; stroke-width: 1.0;"/><path d="M72.1777,22.3979 L72.1777,20.2397 L79.5571,20.2397 L79.5571,22.3979 L77.0918,22.3979 L77.0918,30.4746 L79.5571,30.4746 L79.5571,32.6328 L72.1777,32.6328 L72.1777,30.4746 L74.6431,30.4746 L74.6431,22.3979 Z "/><text fill="#000000" font-family="sans-serif" font-size="14" font-style="italic" lengthAdjust="spacingAndGlyphs" textLength="77" x="104.25" y="25.5352">AsDelegate</text><text fill="#000000" font-family="sans-serif" font-size="10" font-style="italic" lengthAdjust="spacingAndGlyphs" textLength="93" x="96.25" y="38.1563">it.tidalwave.util.spi</text><line style="stroke: #A80036; stroke-width: 1.5;" x1="8" x2="245" y1="45.2656" y2="45.2656"/><ellipse cx="18" cy="56.2656" fill="#84BE84" rx="3" ry="3" style="stroke: #038048; stroke-width: 1.0;"/><text fill="#000000" font-family="sans-serif" font-size="11" font-style="italic" lengthAdjust="spacingAndGlyphs" textLength="213" x="27" y="59.9004">as(Class&lt;T&gt;): Collection&lt;? extends T&gt;</text></a><text fill="#888888" font-family="sans-serif" font-size="10" lengthAdjust="spacingAndGlyphs" textLength="188" x="32.5" y="82.8887">UMLDoclet 2.0.12, PlantUML 1.2020.16</text><!--MD5=[31a5b8073a5641a109edc3967f5dfe18]
@startuml
    set namespaceSeparator none
    hide empty fields
    hide empty methods

    interface "<size:14>AsDelegate\n<size:10>it.tidalwave.util.spi" as it.tidalwave.util.spi.AsDelegate [[AsDelegate.html]] {
        {abstract} +as(Class<T>): Collection<? extends T>
    }

    center footer UMLDoclet 2.0.12, PlantUML 1.2020.16
@enduml

PlantUML version 1.2020.16(Sun Aug 23 22:20:43 CEST 2020)
(APACHE source distribution)
Java Runtime: OpenJDK Runtime Environment
JVM: OpenJDK 64-Bit Server VM
Default Encoding: UTF-8
Language: en
Country: GB
--></g></svg>