<?xml version="1.0" encoding="UTF-8" standalone="no"?><svg xmlns="http://www.w3.org/2000/svg" xmlns:xlink="http://www.w3.org/1999/xlink" contentScriptType="application/ecmascript" contentStyleType="text/css" height="234px" preserveAspectRatio="none" style="width:628px;height:234px;" version="1.1" viewBox="0 0 628 234" width="628px" zoomAndPan="magnify"><defs><filter height="300%" id="f1evp4q9r8jjwp" width="300%" x="-1" y="-1"><feGaussianBlur result="blurOut" stdDeviation="2.0"/><feColorMatrix in="blurOut" result="blurOut2" type="matrix" values="0 0 0 0 0 0 0 0 0 0 0 0 0 0 0 0 0 0 .4 0"/><feOffset dx="4.0" dy="4.0" in="blurOut2" result="blurOut3"/><feBlend in="SourceGraphic" in2="blurOut3" mode="normal"/></filter></defs><g><!--MD5=[8b6b765755a78aa2afd45c6077570460]
class it.tidalwave.util.spi.AsDelegateProvider--><a href="AsDelegateProvider.html" target="_top" title="AsDelegateProvider.html" xlink:actuate="onRequest" xlink:href="AsDelegateProvider.html" xlink:show="new" xlink:title="AsDelegateProvider.html" xlink:type="simple"><rect codeLine="5" fill="#FEFECE" filter="url(#f1evp4q9r8jjwp)" height="93.1309" id="it.tidalwave.util.spi.AsDelegateProvider" style="stroke: #A80036; stroke-width: 1.5;" width="301" x="126" y="7"/><ellipse cx="205.25" cy="26.1328" fill="#B4A7E5" rx="11" ry="11" style="stroke: #A80036; stroke-width: 1.0;"/><path d="M201.6777,22.3979 L201.6777,20.2397 L209.0571,20.2397 L209.0571,22.3979 L206.5918,22.3979 L206.5918,30.4746 L209.0571,30.4746 L209.0571,32.6328 L201.6777,32.6328 L201.6777,30.4746 L204.1431,30.4746 L204.1431,22.3979 Z "/><text fill="#000000" font-family="sans-serif" font-size="14" font-style="italic" lengthAdjust="spacingAndGlyphs" textLength="134" x="225.75" y="25.5352">AsDelegateProvider</text><text fill="#000000" font-family="sans-serif" font-size="10" font-style="italic" lengthAdjust="spacingAndGlyphs" textLength="93" x="246.25" y="38.1563">it.tidalwave.util.spi</text><line style="stroke: #A80036; stroke-width: 1.5;" x1="127" x2="426" y1="45.2656" y2="45.2656"/><ellipse cx="137" cy="56.2656" fill="none" rx="3" ry="3" style="stroke: #038048; stroke-width: 1.0;"/><text fill="#000000" font-family="sans-serif" font-size="11" lengthAdjust="spacingAndGlyphs" text-decoration="underline" textLength="275" x="146" y="59.9004">_AsDelegateProvider_: Class&lt;AsDelegateProvider&gt;</text><line style="stroke: #A80036; stroke-width: 1.5;" x1="127" x2="426" y1="66.2207" y2="66.2207"/><ellipse cx="137" cy="77.2207" fill="#84BE84" rx="3" ry="3" style="stroke: #038048; stroke-width: 1.0;"/><text fill="#000000" font-family="sans-serif" font-size="11" font-style="italic" lengthAdjust="spacingAndGlyphs" textLength="202" x="146" y="80.8555">createAsDelegate(Object): AsDelegate</text><ellipse cx="137" cy="90.1758" fill="#84BE84" rx="3" ry="3" style="stroke: #038048; stroke-width: 1.0;"/><text fill="#000000" font-family="sans-serif" font-size="11" lengthAdjust="spacingAndGlyphs" text-decoration="underline" textLength="152" x="146" y="93.8105">empty(): AsDelegateProvider</text></a><!--MD5=[d9efa9dcb899925b4488a2c470916d84]
class it.tidalwave.util.spi.AsDelegateProvider.Locator--><a href="AsDelegateProvider.Locator.html" target="_top" title="AsDelegateProvider.Locator.html" xlink:actuate="onRequest" xlink:href="AsDelegateProvider.Locator.html" xlink:show="new" xlink:title="AsDelegateProvider.Locator.html" xlink:type="simple"><rect codeLine="10" fill="#FEFECE" filter="url(#f1evp4q9r8jjwp)" height="38.2656" id="it.tidalwave.util.spi.AsDelegateProvider.Locator" style="stroke: #A80036; stroke-width: 1.5;" width="221" x="7" y="160"/><ellipse cx="22" cy="179.1328" fill="#ADD1B2" rx="11" ry="11" style="stroke: #A80036; stroke-width: 1.0;"/><path d="M24.4731,185.2759 Q23.8921,185.5747 23.2529,185.7241 Q22.6138,185.8735 21.9082,185.8735 Q19.4014,185.8735 18.0815,184.2217 Q16.7617,182.5698 16.7617,179.4487 Q16.7617,176.3193 18.0815,174.6675 Q19.4014,173.0156 21.9082,173.0156 Q22.6138,173.0156 23.2612,173.165 Q23.9087,173.3145 24.4731,173.6133 L24.4731,176.3359 Q23.8423,175.7549 23.2488,175.4851 Q22.6553,175.2153 22.0244,175.2153 Q20.6797,175.2153 19.9949,176.282 Q19.3101,177.3486 19.3101,179.4487 Q19.3101,181.5405 19.9949,182.6072 Q20.6797,183.6738 22.0244,183.6738 Q22.6553,183.6738 23.2488,183.4041 Q23.8423,183.1343 24.4731,182.5532 Z "/><text fill="#000000" font-family="sans-serif" font-size="14" lengthAdjust="spacingAndGlyphs" textLength="189" x="36" y="178.5352">AsDelegateProvider.Locator</text><text fill="#000000" font-family="sans-serif" font-size="10" lengthAdjust="spacingAndGlyphs" textLength="93" x="84" y="191.1563">it.tidalwave.util.spi</text></a><!--MD5=[113e8f439406a6db6193283f6ca7f223]
class it.tidalwave.util.spi.AsDelegateProvider.EmptyAsDelegateProvider--><a href="AsDelegateProvider.EmptyAsDelegateProvider.html" target="_top" title="AsDelegateProvider.EmptyAsDelegateProvider.html" xlink:actuate="onRequest" xlink:href="AsDelegateProvider.EmptyAsDelegateProvider.html" xlink:show="new" xlink:title="AsDelegateProvider.EmptyAsDelegateProvider.html" xlink:type="simple"><rect codeLine="11" fill="#FEFECE" filter="url(#f1evp4q9r8jjwp)" height="38.2656" id="it.tidalwave.util.spi.AsDelegateProvider.EmptyAsDelegateProvider" style="stroke: #A80036; stroke-width: 1.5;" width="346" x="263.5" y="160"/><ellipse cx="278.5" cy="179.1328" fill="#ADD1B2" rx="11" ry="11" style="stroke: #A80036; stroke-width: 1.0;"/><path d="M280.9731,185.2759 Q280.3921,185.5747 279.7529,185.7241 Q279.1138,185.8735 278.4082,185.8735 Q275.9014,185.8735 274.5815,184.2217 Q273.2617,182.5698 273.2617,179.4487 Q273.2617,176.3193 274.5815,174.6675 Q275.9014,173.0156 278.4082,173.0156 Q279.1138,173.0156 279.7612,173.165 Q280.4087,173.3145 280.9731,173.6133 L280.9731,176.3359 Q280.3423,175.7549 279.7488,175.4851 Q279.1553,175.2153 278.5244,175.2153 Q277.1797,175.2153 276.4949,176.282 Q275.8101,177.3486 275.8101,179.4487 Q275.8101,181.5405 276.4949,182.6072 Q277.1797,183.6738 278.5244,183.6738 Q279.1553,183.6738 279.7488,183.4041 Q280.3423,183.1343 280.9731,182.5532 Z "/><text fill="#000000" font-family="sans-serif" font-size="14" lengthAdjust="spacingAndGlyphs" textLength="314" x="292.5" y="178.5352">AsDelegateProvider.EmptyAsDelegateProvider</text><text fill="#000000" font-family="sans-serif" font-size="10" lengthAdjust="spacingAndGlyphs" textLength="93" x="403" y="191.1563">it.tidalwave.util.spi</text></a><!--MD5=[c5663ef353a26bd6b85f0458ade97ca1]
reverse link it.tidalwave.util.spi.AsDelegateProvider to it.tidalwave.util.spi.AsDelegateProvider.Locator--><path codeLine="13" d="M205.4893,109.5493 C182.6731,127.5583 158.9135,146.312 141.8434,159.7855 " fill="none" id="it.tidalwave.util.spi.AsDelegateProvider-backto-it.tidalwave.util.spi.AsDelegateProvider.Locator" style="stroke: #A80036; stroke-width: 1.0;"/><ellipse cx="211.0148" cy="105.1882" fill="#FFFFFF" rx="8" ry="8" style="stroke: #A80036; stroke-width: 1.0;"/><line style="stroke: #A80036; stroke-width: 1.0;" x1="204.7352" x2="217.2943" y1="110.1447" y2="100.2316"/><line style="stroke: #A80036; stroke-width: 1.0;" x1="206.0582" x2="215.9713" y1="98.9086" y2="111.4677"/><!--MD5=[29ec811eb0cb0cc69dfb967076d6406a]
reverse link it.tidalwave.util.spi.AsDelegateProvider to it.tidalwave.util.spi.AsDelegateProvider.EmptyAsDelegateProvider--><path codeLine="14" d="M347.9573,109.5493 C370.917,127.5583 394.826,146.312 412.0035,159.7855 " fill="none" id="it.tidalwave.util.spi.AsDelegateProvider-backto-it.tidalwave.util.spi.AsDelegateProvider.EmptyAsDelegateProvider" style="stroke: #A80036; stroke-width: 1.0;"/><ellipse cx="342.3727" cy="105.169" fill="#FFFFFF" rx="8" ry="8" style="stroke: #A80036; stroke-width: 1.0;"/><line style="stroke: #A80036; stroke-width: 1.0;" x1="348.6674" x2="336.0781" y1="110.1063" y2="100.2316"/><line style="stroke: #A80036; stroke-width: 1.0;" x1="337.4354" x2="347.3101" y1="111.4636" y2="98.8743"/><text fill="#888888" font-family="sans-serif" font-size="10" lengthAdjust="spacingAndGlyphs" textLength="188" x="211.25" y="220.9336">UMLDoclet 2.0.12, PlantUML 1.2020.16</text><!--MD5=[0f8d17b3546b6a4791c8e3d66fedceb4]
@startuml
    set namespaceSeparator none
    hide empty fields
    hide empty methods

    interface "<size:14>AsDelegateProvider\n<size:10>it.tidalwave.util.spi" as it.tidalwave.util.spi.AsDelegateProvider [[AsDelegateProvider.html]] {
        {static} +_AsDelegateProvider_: Class<AsDelegateProvider>
        {abstract} +createAsDelegate(Object): AsDelegate
        {static} +empty(): AsDelegateProvider
    }
    class "<size:14>AsDelegateProvider.Locator\n<size:10>it.tidalwave.util.spi" as it.tidalwave.util.spi.AsDelegateProvider.Locator [[AsDelegateProvider.Locator.html]]
    class "<size:14>AsDelegateProvider.EmptyAsDelegateProvider\n<size:10>it.tidalwave.util.spi" as it.tidalwave.util.spi.AsDelegateProvider.EmptyAsDelegateProvider [[AsDelegateProvider.EmptyAsDelegateProvider.html]]

    it.tidalwave.util.spi.AsDelegateProvider +- - it.tidalwave.util.spi.AsDelegateProvider.Locator
    it.tidalwave.util.spi.AsDelegateProvider +- - it.tidalwave.util.spi.AsDelegateProvider.EmptyAsDelegateProvider

    center footer UMLDoclet 2.0.12, PlantUML 1.2020.16
@enduml

PlantUML version 1.2020.16(Sun Aug 23 22:20:43 CEST 2020)
(APACHE source distribution)
Java Runtime: OpenJDK Runtime Environment
JVM: OpenJDK 64-Bit Server VM
Default Encoding: UTF-8
Language: en
Country: GB
--></g></svg>