<?xml version="1.0" encoding="UTF-8" standalone="no"?><svg xmlns="http://www.w3.org/2000/svg" xmlns:xlink="http://www.w3.org/1999/xlink" contentScriptType="application/ecmascript" contentStyleType="text/css" height="957px" preserveAspectRatio="none" style="width:1346px;height:957px;" version="1.1" viewBox="0 0 1346 957" width="1346px" zoomAndPan="magnify"><defs><filter height="300%" id="fi3okqgb5udor" width="300%" x="-1" y="-1"><feGaussianBlur result="blurOut" stdDeviation="2.0"/><feColorMatrix in="blurOut" result="blurOut2" type="matrix" values="0 0 0 0 0 0 0 0 0 0 0 0 0 0 0 0 0 0 .4 0"/><feOffset dx="4.0" dy="4.0" in="blurOut2" result="blurOut3"/><feBlend in="SourceGraphic" in2="blurOut3" mode="normal"/></filter></defs><g><!--MD5=[f9544f9575b0ae4f781aabf01f18fb68]
cluster it.tidalwave.role.ui.function--><polygon fill="#FFFFFF" filter="url(#fi3okqgb5udor)" points="16,179,216,179,223,201.4883,1324,201.4883,1324,928,16,928,16,179" style="stroke: #000000; stroke-width: 1.5;"/><line style="stroke: #000000; stroke-width: 1.5;" x1="16" x2="223" y1="201.4883" y2="201.4883"/><text fill="#000000" font-family="sans-serif" font-size="14" font-weight="bold" lengthAdjust="spacingAndGlyphs" textLength="194" x="20" y="194.5352">it.tidalwave.role.ui.function</text><!--MD5=[67085e5e9b3936516e5f1a6706f1b817]
cluster it.tidalwave.role.ui--><polygon fill="#FFFFFF" filter="url(#fi3okqgb5udor)" points="703,6,840,6,847,28.4883,1229,28.4883,1229,154,703,154,703,6" style="stroke: #000000; stroke-width: 1.5;"/><line style="stroke: #000000; stroke-width: 1.5;" x1="703" x2="847" y1="28.4883" y2="28.4883"/><text fill="#000000" font-family="sans-serif" font-size="14" font-weight="bold" lengthAdjust="spacingAndGlyphs" textLength="131" x="707" y="21.5352">it.tidalwave.role.ui</text><!--MD5=[ce9552726b10ef4a617d3227baaade86]
class it.tidalwave.role.ui.function.NonEmptyFunction--><a href="NonEmptyFunction.html" target="_top" title="NonEmptyFunction.html" xlink:actuate="onRequest" xlink:href="NonEmptyFunction.html" xlink:show="new" xlink:title="NonEmptyFunction.html" xlink:type="simple"><rect codeLine="3" fill="#FEFECE" filter="url(#fi3okqgb5udor)" height="99.8203" id="it.tidalwave.role.ui.function.NonEmptyFunction" style="stroke: #A80036; stroke-width: 1.5;" width="335" x="652.5" y="660"/><ellipse cx="762.75" cy="676" fill="#ADD1B2" rx="11" ry="11" style="stroke: #A80036; stroke-width: 1.0;"/><path d="M765.2231,682.1431 Q764.6421,682.4419 764.0029,682.5913 Q763.3638,682.7407 762.6582,682.7407 Q760.1514,682.7407 758.8315,681.0889 Q757.5117,679.437 757.5117,676.3159 Q757.5117,673.1865 758.8315,671.5347 Q760.1514,669.8828 762.6582,669.8828 Q763.3638,669.8828 764.0112,670.0322 Q764.6587,670.1816 765.2231,670.4805 L765.2231,673.2031 Q764.5923,672.6221 763.9988,672.3523 Q763.4053,672.0825 762.7744,672.0825 Q761.4297,672.0825 760.7449,673.1492 Q760.0601,674.2158 760.0601,676.3159 Q760.0601,678.4077 760.7449,679.4744 Q761.4297,680.541 762.7744,680.541 Q763.4053,680.541 763.9988,680.2712 Q764.5923,680.0015 765.2231,679.4204 Z "/><text fill="#000000" font-family="sans-serif" font-size="12" lengthAdjust="spacingAndGlyphs" textLength="106" x="783.25" y="680.5352">NonEmptyFunction</text><line style="stroke: #A80036; stroke-width: 1.5;" x1="653.5" x2="986.5" y1="692" y2="692"/><line style="stroke: #A80036; stroke-width: 1.5;" x1="653.5" x2="986.5" y1="700" y2="700"/><ellipse cx="663.5" cy="711" fill="#84BE84" rx="3" ry="3" style="stroke: #038048; stroke-width: 1.0;"/><text fill="#000000" font-family="sans-serif" font-size="11" lengthAdjust="spacingAndGlyphs" textLength="249" x="672.5" y="714.6348">NonEmptyFunction(ChangingSource&lt;String&gt;)</text><ellipse cx="663.5" cy="723.9551" fill="#84BE84" rx="3" ry="3" style="stroke: #038048; stroke-width: 1.0;"/><text fill="#000000" font-family="sans-serif" font-size="11" lengthAdjust="spacingAndGlyphs" text-decoration="underline" textLength="309" x="672.5" y="727.5898">nonEmpty(ChangingSource&lt;String&gt;): NonEmptyFunction</text><polygon fill="#FFFF44" points="663.5,731.9102,667.5,735.9102,663.5,739.9102,659.5,735.9102" style="stroke: #B38D22; stroke-width: 1.0;"/><text fill="#000000" font-family="sans-serif" font-size="11" lengthAdjust="spacingAndGlyphs" textLength="199" x="672.5" y="740.5449">onSourceChange(String, String): void</text><polygon fill="#FFFF44" points="663.5,744.8652,667.5,748.8652,663.5,752.8652,659.5,748.8652" style="stroke: #B38D22; stroke-width: 1.0;"/><text fill="#000000" font-family="sans-serif" font-size="11" lengthAdjust="spacingAndGlyphs" textLength="133" x="672.5" y="753.5">function(String): Boolean</text></a><!--MD5=[95accb1fb72a713c0b785990cdc5cfca]
class it.tidalwave.role.ui.function.UnaryBoundFunctionSupport--><a href="UnaryBoundFunctionSupport.html" target="_top" title="UnaryBoundFunctionSupport.html" xlink:actuate="onRequest" xlink:href="UnaryBoundFunctionSupport.html" xlink:show="new" xlink:title="UnaryBoundFunctionSupport.html" xlink:type="simple"><rect codeLine="10" fill="#FEFECE" filter="url(#fi3okqgb5udor)" height="125.7305" id="it.tidalwave.role.ui.function.UnaryBoundFunctionSupport" style="stroke: #A80036; stroke-width: 1.5;" width="388" x="695" y="461"/><ellipse cx="710" cy="477" fill="#A9DCDF" rx="11" ry="11" style="stroke: #A80036; stroke-width: 1.0;"/><path d="M709.8633,472.3481 L708.7095,477.4199 L711.0254,477.4199 Z M708.3691,470.1069 L711.3657,470.1069 L714.7109,482.5 L712.2622,482.5 L711.4985,479.437 L708.2197,479.437 L707.4727,482.5 L705.0239,482.5 Z "/><text fill="#000000" font-family="sans-serif" font-size="12" font-style="italic" lengthAdjust="spacingAndGlyphs" textLength="161" x="724" y="481.5352">UnaryBoundFunctionSupport</text><rect fill="#FFFFFF" height="16.1328" style="stroke: #000000; stroke-width: 1.0; stroke-dasharray: 2.0,2.0;" width="193" x="893" y="458"/><text fill="#000000" font-family="sans-serif" font-size="12" font-style="italic" lengthAdjust="spacingAndGlyphs" textLength="191" x="894" y="470.6016">DOMAIN_TYPE, CODOMAIN_TYPE</text><line style="stroke: #A80036; stroke-width: 1.5;" x1="696" x2="1082" y1="493" y2="493"/><polygon fill="none" points="706,499,710,503,706,507,702,503" style="stroke: #B38D22; stroke-width: 1.0;"/><text fill="#000000" font-family="sans-serif" font-size="11" lengthAdjust="spacingAndGlyphs" textLength="227" x="715" y="507.6348">source: ChangingSource&lt;DOMAIN_TYPE&gt;</text><polygon fill="none" points="706,511.9551,710,515.9551,706,519.9551,702,515.9551" style="stroke: #B38D22; stroke-width: 1.0;"/><text fill="#000000" font-family="sans-serif" font-size="11" lengthAdjust="spacingAndGlyphs" textLength="128" x="715" y="520.5898">value: CODOMAIN_TYPE</text><line style="stroke: #A80036; stroke-width: 1.5;" x1="696" x2="1082" y1="526.9102" y2="526.9102"/><polygon fill="#FFFF44" points="706,532.9102,710,536.9102,706,540.9102,702,536.9102" style="stroke: #B38D22; stroke-width: 1.0;"/><text fill="#000000" font-family="sans-serif" font-size="11" lengthAdjust="spacingAndGlyphs" textLength="348" x="715" y="541.5449">UnaryBoundFunctionSupport(ChangingSource&lt;DOMAIN_TYPE&gt;)</text><polygon fill="#FFFF44" points="706,545.8652,710,549.8652,706,553.8652,702,549.8652" style="stroke: #B38D22; stroke-width: 1.0;"/><text fill="#000000" font-family="sans-serif" font-size="11" lengthAdjust="spacingAndGlyphs" textLength="289" x="715" y="554.5">onSourceChange(DOMAIN_TYPE, DOMAIN_TYPE): void</text><polygon fill="#FFFF44" points="706,558.8203,710,562.8203,706,566.8203,702,562.8203" style="stroke: #B38D22; stroke-width: 1.0;"/><text fill="#000000" font-family="sans-serif" font-size="11" font-style="italic" lengthAdjust="spacingAndGlyphs" textLength="230" x="715" y="567.4551">function(DOMAIN_TYPE): CODOMAIN_TYPE</text><ellipse cx="706" cy="576.7754" fill="#84BE84" rx="3" ry="3" style="stroke: #038048; stroke-width: 1.0;"/><text fill="#000000" font-family="sans-serif" font-size="11" lengthAdjust="spacingAndGlyphs" textLength="125" x="715" y="580.4102">get(): CODOMAIN_TYPE</text></a><!--MD5=[3f2fd77e14a4759ebc36bde5667a1ad0]
class it.tidalwave.role.ui.function.WeakCopyFunctionSupport--><a href="WeakCopyFunctionSupport.html" target="_top" title="WeakCopyFunctionSupport.html" xlink:actuate="onRequest" xlink:href="WeakCopyFunctionSupport.html" xlink:show="new" xlink:title="WeakCopyFunctionSupport.html" xlink:type="simple"><rect codeLine="19" fill="#FEFECE" filter="url(#fi3okqgb5udor)" height="125.7305" id="it.tidalwave.role.ui.function.WeakCopyFunctionSupport" style="stroke: #A80036; stroke-width: 1.5;" width="293" x="1022.5" y="647"/><ellipse cx="1082.75" cy="663" fill="#A9DCDF" rx="11" ry="11" style="stroke: #A80036; stroke-width: 1.0;"/><path d="M1082.6133,658.3481 L1081.4595,663.4199 L1083.7754,663.4199 Z M1081.1191,656.1069 L1084.1157,656.1069 L1087.4609,668.5 L1085.0122,668.5 L1084.2485,665.437 L1080.9697,665.437 L1080.2227,668.5 L1077.7739,668.5 Z "/><text fill="#000000" font-family="sans-serif" font-size="12" font-style="italic" lengthAdjust="spacingAndGlyphs" textLength="152" x="1103.25" y="667.5352">WeakCopyFunctionSupport</text><rect fill="#FFFFFF" height="16.1328" style="stroke: #000000; stroke-width: 1.0; stroke-dasharray: 2.0,2.0;" width="10" x="1308.5" y="644"/><text fill="#000000" font-family="sans-serif" font-size="12" font-style="italic" lengthAdjust="spacingAndGlyphs" textLength="8" x="1309.5" y="656.6016">T</text><line style="stroke: #A80036; stroke-width: 1.5;" x1="1023.5" x2="1314.5" y1="679" y2="679"/><polygon fill="none" points="1033.5,685,1037.5,689,1033.5,693,1029.5,689" style="stroke: #B38D22; stroke-width: 1.0;"/><text fill="#000000" font-family="sans-serif" font-size="11" lengthAdjust="spacingAndGlyphs" textLength="74" x="1042.5" y="693.6348">targetValue: T</text><line style="stroke: #A80036; stroke-width: 1.5;" x1="1023.5" x2="1314.5" y1="699.9551" y2="699.9551"/><ellipse cx="1033.5" cy="710.9551" fill="#84BE84" rx="3" ry="3" style="stroke: #038048; stroke-width: 1.0;"/><text fill="#000000" font-family="sans-serif" font-size="11" lengthAdjust="spacingAndGlyphs" textLength="267" x="1042.5" y="714.5898">WeakCopyFunctionSupport(ChangingSource&lt;T&gt;)</text><polygon fill="#FFFF44" points="1033.5,718.9102,1037.5,722.9102,1033.5,726.9102,1029.5,722.9102" style="stroke: #B38D22; stroke-width: 1.0;"/><text fill="#000000" font-family="sans-serif" font-size="11" lengthAdjust="spacingAndGlyphs" textLength="149" x="1042.5" y="727.5449">onSourceChange(T, T): void</text><ellipse cx="1033.5" cy="736.8652" fill="#84BE84" rx="3" ry="3" style="stroke: #038048; stroke-width: 1.0;"/><text fill="#000000" font-family="sans-serif" font-size="11" lengthAdjust="spacingAndGlyphs" textLength="60" x="1042.5" y="740.5">set(T): void</text><polygon fill="#FFFF44" points="1033.5,744.8203,1037.5,748.8203,1033.5,752.8203,1029.5,748.8203" style="stroke: #B38D22; stroke-width: 1.0;"/><text fill="#000000" font-family="sans-serif" font-size="11" font-style="italic" lengthAdjust="spacingAndGlyphs" textLength="155" x="1042.5" y="753.4551">shouldChange(T, T): boolean</text><polygon fill="#FFFF44" points="1033.5,757.7754,1037.5,761.7754,1033.5,765.7754,1029.5,761.7754" style="stroke: #B38D22; stroke-width: 1.0;"/><text fill="#000000" font-family="sans-serif" font-size="11" lengthAdjust="spacingAndGlyphs" textLength="73" x="1042.5" y="766.4102">function(T): T</text></a><!--MD5=[970c74b91edc5daea837f429a46d3bc1]
class it.tidalwave.role.ui.function.OrFunction--><a href="OrFunction.html" target="_top" title="OrFunction.html" xlink:actuate="onRequest" xlink:href="OrFunction.html" xlink:show="new" xlink:title="OrFunction.html" xlink:type="simple"><rect codeLine="28" fill="#FEFECE" filter="url(#fi3okqgb5udor)" height="86.8652" id="it.tidalwave.role.ui.function.OrFunction" style="stroke: #A80036; stroke-width: 1.5;" width="271" x="24.5" y="666.5"/><ellipse cx="125.25" cy="682.5" fill="#ADD1B2" rx="11" ry="11" style="stroke: #A80036; stroke-width: 1.0;"/><path d="M127.7231,688.6431 Q127.1421,688.9419 126.5029,689.0913 Q125.8638,689.2407 125.1582,689.2407 Q122.6514,689.2407 121.3315,687.5889 Q120.0117,685.937 120.0117,682.8159 Q120.0117,679.6865 121.3315,678.0347 Q122.6514,676.3828 125.1582,676.3828 Q125.8638,676.3828 126.5112,676.5322 Q127.1587,676.6816 127.7231,676.9805 L127.7231,679.7031 Q127.0923,679.1221 126.4988,678.8523 Q125.9053,678.5825 125.2744,678.5825 Q123.9297,678.5825 123.2449,679.6492 Q122.5601,680.7158 122.5601,682.8159 Q122.5601,684.9077 123.2449,685.9744 Q123.9297,687.041 125.2744,687.041 Q125.9053,687.041 126.4988,686.7712 Q127.0923,686.5015 127.7231,685.9204 Z "/><text fill="#000000" font-family="sans-serif" font-size="12" lengthAdjust="spacingAndGlyphs" textLength="61" x="145.75" y="687.0352">OrFunction</text><line style="stroke: #A80036; stroke-width: 1.5;" x1="25.5" x2="294.5" y1="698.5" y2="698.5"/><line style="stroke: #A80036; stroke-width: 1.5;" x1="25.5" x2="294.5" y1="706.5" y2="706.5"/><ellipse cx="35.5" cy="717.5" fill="#84BE84" rx="3" ry="3" style="stroke: #038048; stroke-width: 1.0;"/><text fill="#000000" font-family="sans-serif" font-size="11" lengthAdjust="spacingAndGlyphs" textLength="227" x="44.5" y="721.1348">OrFunction(ChangingSource&lt;Boolean&gt;...)</text><ellipse cx="35.5" cy="730.4551" fill="#84BE84" rx="3" ry="3" style="stroke: #038048; stroke-width: 1.0;"/><text fill="#000000" font-family="sans-serif" font-size="11" lengthAdjust="spacingAndGlyphs" text-decoration="underline" textLength="245" x="44.5" y="734.0898">or(ChangingSource&lt;Boolean&gt;...): OrFunction</text><polygon fill="#FFFF44" points="35.5,738.4102,39.5,742.4102,35.5,746.4102,31.5,742.4102" style="stroke: #B38D22; stroke-width: 1.0;"/><text fill="#000000" font-family="sans-serif" font-size="11" lengthAdjust="spacingAndGlyphs" textLength="102" x="44.5" y="747.0449">function(): boolean</text></a><!--MD5=[af0ecab7152c3bde6517a3c16503d3ac]
class it.tidalwave.role.ui.function.BooleanBoundFunctionSupport--><a href="BooleanBoundFunctionSupport.html" target="_top" title="BooleanBoundFunctionSupport.html" xlink:actuate="onRequest" xlink:href="BooleanBoundFunctionSupport.html" xlink:show="new" xlink:title="BooleanBoundFunctionSupport.html" xlink:type="simple"><rect codeLine="34" fill="#FEFECE" filter="url(#fi3okqgb5udor)" height="99.8203" id="it.tidalwave.role.ui.function.BooleanBoundFunctionSupport" style="stroke: #A80036; stroke-width: 1.5;" width="358" x="295" y="474"/><ellipse cx="383.25" cy="490" fill="#A9DCDF" rx="11" ry="11" style="stroke: #A80036; stroke-width: 1.0;"/><path d="M383.1133,485.3481 L381.9595,490.4199 L384.2754,490.4199 Z M381.6191,483.1069 L384.6157,483.1069 L387.9609,495.5 L385.5122,495.5 L384.7485,492.437 L381.4697,492.437 L380.7227,495.5 L378.2739,495.5 Z "/><text fill="#000000" font-family="sans-serif" font-size="12" font-style="italic" lengthAdjust="spacingAndGlyphs" textLength="173" x="403.75" y="494.5352">BooleanBoundFunctionSupport</text><line style="stroke: #A80036; stroke-width: 1.5;" x1="296" x2="652" y1="506" y2="506"/><polygon fill="none" points="306,512,310,516,306,520,302,516" style="stroke: #B38D22; stroke-width: 1.0;"/><text fill="#000000" font-family="sans-serif" font-size="11" lengthAdjust="spacingAndGlyphs" textLength="206" x="315" y="520.6348">sources: ChangingSource&lt;Boolean&gt;[]</text><line style="stroke: #A80036; stroke-width: 1.5;" x1="296" x2="652" y1="526.9551" y2="526.9551"/><ellipse cx="306" cy="537.9551" fill="#84BE84" rx="3" ry="3" style="stroke: #038048; stroke-width: 1.0;"/><text fill="#000000" font-family="sans-serif" font-size="11" lengthAdjust="spacingAndGlyphs" textLength="332" x="315" y="541.5898">BooleanBoundFunctionSupport(ChangingSource&lt;Boolean&gt;...)</text><polygon fill="#FFFF44" points="306,545.9102,310,549.9102,306,553.9102,302,549.9102" style="stroke: #B38D22; stroke-width: 1.0;"/><text fill="#000000" font-family="sans-serif" font-size="11" font-style="italic" lengthAdjust="spacingAndGlyphs" textLength="102" x="315" y="554.5449">function(): boolean</text><ellipse cx="306" cy="563.8652" fill="#84BE84" rx="3" ry="3" style="stroke: #038048; stroke-width: 1.0;"/><text fill="#000000" font-family="sans-serif" font-size="11" lengthAdjust="spacingAndGlyphs" textLength="73" x="315" y="567.5">get(): Boolean</text></a><!--MD5=[700f1f6186f65a0fc39b41a073d56bc6]
class it.tidalwave.role.ui.function.AndFunction--><a href="AndFunction.html" target="_top" title="AndFunction.html" xlink:actuate="onRequest" xlink:href="AndFunction.html" xlink:show="new" xlink:title="AndFunction.html" xlink:type="simple"><rect codeLine="41" fill="#FEFECE" filter="url(#fi3okqgb5udor)" height="86.8652" id="it.tidalwave.role.ui.function.AndFunction" style="stroke: #A80036; stroke-width: 1.5;" width="287" x="330.5" y="666.5"/><ellipse cx="434.75" cy="682.5" fill="#ADD1B2" rx="11" ry="11" style="stroke: #A80036; stroke-width: 1.0;"/><path d="M437.2231,688.6431 Q436.6421,688.9419 436.0029,689.0913 Q435.3638,689.2407 434.6582,689.2407 Q432.1514,689.2407 430.8315,687.5889 Q429.5117,685.937 429.5117,682.8159 Q429.5117,679.6865 430.8315,678.0347 Q432.1514,676.3828 434.6582,676.3828 Q435.3638,676.3828 436.0112,676.5322 Q436.6587,676.6816 437.2231,676.9805 L437.2231,679.7031 Q436.5923,679.1221 435.9988,678.8523 Q435.4053,678.5825 434.7744,678.5825 Q433.4297,678.5825 432.7449,679.6492 Q432.0601,680.7158 432.0601,682.8159 Q432.0601,684.9077 432.7449,685.9744 Q433.4297,687.041 434.7744,687.041 Q435.4053,687.041 435.9988,686.7712 Q436.5923,686.5015 437.2231,685.9204 Z "/><text fill="#000000" font-family="sans-serif" font-size="12" lengthAdjust="spacingAndGlyphs" textLength="70" x="455.25" y="687.0352">AndFunction</text><line style="stroke: #A80036; stroke-width: 1.5;" x1="331.5" x2="616.5" y1="698.5" y2="698.5"/><line style="stroke: #A80036; stroke-width: 1.5;" x1="331.5" x2="616.5" y1="706.5" y2="706.5"/><ellipse cx="341.5" cy="717.5" fill="#84BE84" rx="3" ry="3" style="stroke: #038048; stroke-width: 1.0;"/><text fill="#000000" font-family="sans-serif" font-size="11" lengthAdjust="spacingAndGlyphs" textLength="235" x="350.5" y="721.1348">AndFunction(ChangingSource&lt;Boolean&gt;...)</text><ellipse cx="341.5" cy="730.4551" fill="#84BE84" rx="3" ry="3" style="stroke: #038048; stroke-width: 1.0;"/><text fill="#000000" font-family="sans-serif" font-size="11" lengthAdjust="spacingAndGlyphs" text-decoration="underline" textLength="261" x="350.5" y="734.0898">and(ChangingSource&lt;Boolean&gt;...): AndFunction</text><polygon fill="#FFFF44" points="341.5,738.4102,345.5,742.4102,341.5,746.4102,337.5,742.4102" style="stroke: #B38D22; stroke-width: 1.0;"/><text fill="#000000" font-family="sans-serif" font-size="11" lengthAdjust="spacingAndGlyphs" textLength="102" x="350.5" y="747.0449">function(): boolean</text></a><!--MD5=[74225100635efe70e475ded8b3e582dd]
class it.tidalwave.role.ui.function.BoundFunction--><a href="BoundFunction.html" target="_top" title="BoundFunction.html" xlink:actuate="onRequest" xlink:href="BoundFunction.html" xlink:show="new" xlink:title="BoundFunction.html" xlink:type="simple"><rect codeLine="47" fill="#FEFECE" filter="url(#fi3okqgb5udor)" height="48" id="it.tidalwave.role.ui.function.BoundFunction" style="stroke: #A80036; stroke-width: 1.5;" width="310" x="736" y="206"/><ellipse cx="751" cy="222" fill="#B4A7E5" rx="11" ry="11" style="stroke: #A80036; stroke-width: 1.0;"/><path d="M747.4277,218.2651 L747.4277,216.1069 L754.8071,216.1069 L754.8071,218.2651 L752.3418,218.2651 L752.3418,226.3418 L754.8071,226.3418 L754.8071,228.5 L747.4277,228.5 L747.4277,226.3418 L749.8931,226.3418 L749.8931,218.2651 Z "/><text fill="#000000" font-family="sans-serif" font-size="12" font-style="italic" lengthAdjust="spacingAndGlyphs" textLength="83" x="765" y="226.5352">BoundFunction</text><rect fill="#FFFFFF" height="16.1328" style="stroke: #000000; stroke-width: 1.0; stroke-dasharray: 2.0,2.0;" width="193" x="856" y="203"/><text fill="#000000" font-family="sans-serif" font-size="12" font-style="italic" lengthAdjust="spacingAndGlyphs" textLength="191" x="857" y="215.6016">DOMAIN_TYPE, CODOMAIN_TYPE</text><line style="stroke: #A80036; stroke-width: 1.5;" x1="737" x2="1045" y1="238" y2="238"/><line style="stroke: #A80036; stroke-width: 1.5;" x1="737" x2="1045" y1="246" y2="246"/></a><!--MD5=[778fa23d2a20b3c019db8a85b555009f]
class it.tidalwave.role.ui.function.BoundFunctionSupport--><a href="BoundFunctionSupport.html" target="_top" title="BoundFunctionSupport.html" xlink:actuate="onRequest" xlink:href="BoundFunctionSupport.html" xlink:show="new" xlink:title="BoundFunctionSupport.html" xlink:type="simple"><rect codeLine="49" fill="#FEFECE" filter="url(#fi3okqgb5udor)" height="86.8652" id="it.tidalwave.role.ui.function.BoundFunctionSupport" style="stroke: #A80036; stroke-width: 1.5;" width="355" x="711.5" y="314"/><ellipse cx="726.5" cy="330" fill="#A9DCDF" rx="11" ry="11" style="stroke: #A80036; stroke-width: 1.0;"/><path d="M726.3633,325.3481 L725.2095,330.4199 L727.5254,330.4199 Z M724.8691,323.1069 L727.8657,323.1069 L731.2109,335.5 L728.7622,335.5 L727.9985,332.437 L724.7197,332.437 L723.9727,335.5 L721.5239,335.5 Z "/><text fill="#000000" font-family="sans-serif" font-size="12" font-style="italic" lengthAdjust="spacingAndGlyphs" textLength="128" x="740.5" y="334.5352">BoundFunctionSupport</text><rect fill="#FFFFFF" height="16.1328" style="stroke: #000000; stroke-width: 1.0; stroke-dasharray: 2.0,2.0;" width="193" x="876.5" y="311"/><text fill="#000000" font-family="sans-serif" font-size="12" font-style="italic" lengthAdjust="spacingAndGlyphs" textLength="191" x="877.5" y="323.6016">DOMAIN_TYPE, CODOMAIN_TYPE</text><line style="stroke: #A80036; stroke-width: 1.5;" x1="712.5" x2="1065.5" y1="346" y2="346"/><line style="stroke: #A80036; stroke-width: 1.5;" x1="712.5" x2="1065.5" y1="354" y2="354"/><ellipse cx="722.5" cy="365" fill="#84BE84" rx="3" ry="3" style="stroke: #038048; stroke-width: 1.0;"/><text fill="#000000" font-family="sans-serif" font-size="11" lengthAdjust="spacingAndGlyphs" textLength="89" x="731.5" y="368.6348">unbindAll(): void</text><polygon fill="#FFFF44" points="722.5,372.9551,726.5,376.9551,722.5,380.9551,718.5,376.9551" style="stroke: #B38D22; stroke-width: 1.0;"/><text fill="#000000" font-family="sans-serif" font-size="11" lengthAdjust="spacingAndGlyphs" textLength="326" x="731.5" y="381.5898">fireValueChanged(CODOMAIN_TYPE, CODOMAIN_TYPE): void</text><polygon fill="#FFFF44" points="722.5,385.9102,726.5,389.9102,722.5,393.9102,718.5,389.9102" style="stroke: #B38D22; stroke-width: 1.0;"/><text fill="#000000" font-family="sans-serif" font-size="11" lengthAdjust="spacingAndGlyphs" textLength="224" x="731.5" y="394.5449">fireValueChanged(boolean, boolean): void</text></a><!--MD5=[29610f10aef743c1a76d76715ece5c9a]
class it.tidalwave.role.ui.function.CopyIfEmptyOrConform--><a href="CopyIfEmptyOrConform.html" target="_top" title="CopyIfEmptyOrConform.html" xlink:actuate="onRequest" xlink:href="CopyIfEmptyOrConform.html" xlink:show="new" xlink:title="CopyIfEmptyOrConform.html" xlink:type="simple"><rect codeLine="55" fill="#FEFECE" filter="url(#fi3okqgb5udor)" height="86.8652" id="it.tidalwave.role.ui.function.CopyIfEmptyOrConform" style="stroke: #A80036; stroke-width: 1.5;" width="437" x="879.5" y="833"/><ellipse cx="1026.25" cy="849" fill="#ADD1B2" rx="11" ry="11" style="stroke: #A80036; stroke-width: 1.0;"/><path d="M1028.7231,855.1431 Q1028.1421,855.4419 1027.5029,855.5913 Q1026.8638,855.7407 1026.1582,855.7407 Q1023.6514,855.7407 1022.3315,854.0889 Q1021.0117,852.437 1021.0117,849.3159 Q1021.0117,846.1865 1022.3315,844.5347 Q1023.6514,842.8828 1026.1582,842.8828 Q1026.8638,842.8828 1027.5112,843.0322 Q1028.1587,843.1816 1028.7231,843.4805 L1028.7231,846.2031 Q1028.0923,845.6221 1027.4988,845.3523 Q1026.9053,845.0825 1026.2744,845.0825 Q1024.9297,845.0825 1024.2449,846.1492 Q1023.5601,847.2158 1023.5601,849.3159 Q1023.5601,851.4077 1024.2449,852.4744 Q1024.9297,853.541 1026.2744,853.541 Q1026.9053,853.541 1027.4988,853.2712 Q1028.0923,853.0015 1028.7231,852.4204 Z "/><text fill="#000000" font-family="sans-serif" font-size="12" lengthAdjust="spacingAndGlyphs" textLength="135" x="1046.75" y="853.5352">CopyIfEmptyOrConform</text><line style="stroke: #A80036; stroke-width: 1.5;" x1="880.5" x2="1315.5" y1="865" y2="865"/><line style="stroke: #A80036; stroke-width: 1.5;" x1="880.5" x2="1315.5" y1="873" y2="873"/><ellipse cx="890.5" cy="884" fill="#84BE84" rx="3" ry="3" style="stroke: #038048; stroke-width: 1.0;"/><text fill="#000000" font-family="sans-serif" font-size="11" lengthAdjust="spacingAndGlyphs" textLength="277" x="899.5" y="887.6348">CopyIfEmptyOrConform(ChangingSource&lt;String&gt;)</text><ellipse cx="890.5" cy="896.9551" fill="#84BE84" rx="3" ry="3" style="stroke: #038048; stroke-width: 1.0;"/><text fill="#000000" font-family="sans-serif" font-size="11" lengthAdjust="spacingAndGlyphs" text-decoration="underline" textLength="411" x="899.5" y="900.5898">copyIfEmptyOrConform(ChangingSource&lt;String&gt;): CopyIfEmptyOrConform</text><polygon fill="#FFFF44" points="890.5,904.9102,894.5,908.9102,890.5,912.9102,886.5,908.9102" style="stroke: #B38D22; stroke-width: 1.0;"/><text fill="#000000" font-family="sans-serif" font-size="11" lengthAdjust="spacingAndGlyphs" textLength="205" x="899.5" y="913.5449">shouldChange(String, String): boolean</text></a><!--MD5=[3c2b4723d6d209f275040312ce0a6aa4]
class it.tidalwave.role.ui.Changeable--><a href="../Changeable.html" target="_top" title="../Changeable.html" xlink:actuate="onRequest" xlink:href="../Changeable.html" xlink:show="new" xlink:title="../Changeable.html" xlink:type="simple"><rect codeLine="74" fill="#FEFECE" filter="url(#fi3okqgb5udor)" height="60.9551" id="it.tidalwave.role.ui.Changeable" style="stroke: #A80036; stroke-width: 1.5;" width="112" x="1109" y="59"/><ellipse cx="1124" cy="75" fill="#B4A7E5" rx="11" ry="11" style="stroke: #A80036; stroke-width: 1.0;"/><path d="M1120.4277,71.2651 L1120.4277,69.1069 L1127.8071,69.1069 L1127.8071,71.2651 L1125.3418,71.2651 L1125.3418,79.3418 L1127.8071,79.3418 L1127.8071,81.5 L1120.4277,81.5 L1120.4277,79.3418 L1122.8931,79.3418 L1122.8931,71.2651 Z "/><text fill="#000000" font-family="sans-serif" font-size="12" font-style="italic" lengthAdjust="spacingAndGlyphs" textLength="68" x="1138" y="79.5352">Changeable</text><rect fill="#FFFFFF" height="16.1328" style="stroke: #000000; stroke-width: 1.0; stroke-dasharray: 2.0,2.0;" width="10" x="1214" y="56"/><text fill="#000000" font-family="sans-serif" font-size="12" font-style="italic" lengthAdjust="spacingAndGlyphs" textLength="8" x="1215" y="68.6016">T</text><line style="stroke: #A80036; stroke-width: 1.5;" x1="1110" x2="1220" y1="91" y2="91"/><line style="stroke: #A80036; stroke-width: 1.5;" x1="1110" x2="1220" y1="99" y2="99"/><ellipse cx="1120" cy="110" fill="#84BE84" rx="3" ry="3" style="stroke: #038048; stroke-width: 1.0;"/><text fill="#000000" font-family="sans-serif" font-size="11" font-style="italic" lengthAdjust="spacingAndGlyphs" textLength="60" x="1129" y="113.6348">set(T): void</text></a><!--MD5=[0a6bffe168313332e15e4fb53cf70a04]
class it.tidalwave.role.ui.ChangingSource--><a href="../ChangingSource.html" target="_top" title="../ChangingSource.html" xlink:actuate="onRequest" xlink:href="../ChangingSource.html" xlink:show="new" xlink:title="../ChangingSource.html" xlink:type="simple"><rect codeLine="77" fill="#FEFECE" filter="url(#fi3okqgb5udor)" height="112.7754" id="it.tidalwave.role.ui.ChangingSource" style="stroke: #A80036; stroke-width: 1.5;" width="363" x="710.5" y="33"/><ellipse cx="836.25" cy="49" fill="#B4A7E5" rx="11" ry="11" style="stroke: #A80036; stroke-width: 1.0;"/><path d="M832.6777,45.2651 L832.6777,43.1069 L840.0571,43.1069 L840.0571,45.2651 L837.5918,45.2651 L837.5918,53.3418 L840.0571,53.3418 L840.0571,55.5 L832.6777,55.5 L832.6777,53.3418 L835.1431,53.3418 L835.1431,45.2651 Z "/><text fill="#000000" font-family="sans-serif" font-size="12" font-style="italic" lengthAdjust="spacingAndGlyphs" textLength="91" x="856.75" y="53.5352">ChangingSource</text><rect fill="#FFFFFF" height="16.1328" style="stroke: #000000; stroke-width: 1.0; stroke-dasharray: 2.0,2.0;" width="10" x="1066.5" y="30"/><text fill="#000000" font-family="sans-serif" font-size="12" font-style="italic" lengthAdjust="spacingAndGlyphs" textLength="8" x="1067.5" y="42.6016">T</text><line style="stroke: #A80036; stroke-width: 1.5;" x1="711.5" x2="1072.5" y1="65" y2="65"/><line style="stroke: #A80036; stroke-width: 1.5;" x1="711.5" x2="1072.5" y1="73" y2="73"/><ellipse cx="721.5" cy="84" fill="#84BE84" rx="3" ry="3" style="stroke: #038048; stroke-width: 1.0;"/><text fill="#000000" font-family="sans-serif" font-size="11" font-style="italic" lengthAdjust="spacingAndGlyphs" textLength="305" x="730.5" y="87.6348">getPropertyChangeListeners(): PropertyChangeListener[]</text><ellipse cx="721.5" cy="96.9551" fill="#84BE84" rx="3" ry="3" style="stroke: #038048; stroke-width: 1.0;"/><text fill="#000000" font-family="sans-serif" font-size="11" font-style="italic" lengthAdjust="spacingAndGlyphs" textLength="317" x="730.5" y="100.5898">addPropertyChangeListener(PropertyChangeListener): void</text><ellipse cx="721.5" cy="109.9102" fill="#84BE84" rx="3" ry="3" style="stroke: #038048; stroke-width: 1.0;"/><text fill="#000000" font-family="sans-serif" font-size="11" font-style="italic" lengthAdjust="spacingAndGlyphs" textLength="337" x="730.5" y="113.5449">removePropertyChangeListener(PropertyChangeListener): void</text><ellipse cx="721.5" cy="122.8652" fill="#84BE84" rx="3" ry="3" style="stroke: #038048; stroke-width: 1.0;"/><text fill="#000000" font-family="sans-serif" font-size="11" font-style="italic" lengthAdjust="spacingAndGlyphs" textLength="89" x="730.5" y="126.5">unbindAll(): void</text><ellipse cx="721.5" cy="135.8203" fill="#84BE84" rx="3" ry="3" style="stroke: #038048; stroke-width: 1.0;"/><text fill="#000000" font-family="sans-serif" font-size="11" font-style="italic" lengthAdjust="spacingAndGlyphs" textLength="38" x="730.5" y="139.4551">get(): T</text></a><!--MD5=[99806147cd66fb48320b843dd22766dd]
reverse link it.tidalwave.role.ui.function.UnaryBoundFunctionSupport to it.tidalwave.role.ui.function.NonEmptyFunction--><path codeLine="61" d="M858.5766,606.011 C851.7733,624.3503 844.7555,643.2677 838.6016,659.8567 " fill="none" id="it.tidalwave.role.ui.function.UnaryBoundFunctionSupport-backto-it.tidalwave.role.ui.function.NonEmptyFunction" style="stroke: #A80036; stroke-width: 1.0;"/><polygon fill="none" points="852.0243,603.5473,865.5435,587.2307,865.1502,608.4167,852.0243,603.5473" style="stroke: #A80036; stroke-width: 1.0;"/><!--MD5=[21164d75fd92104eaea26e7f9529fefb]
reverse link it.tidalwave.role.ui.function.BoundFunctionSupport to it.tidalwave.role.ui.function.UnaryBoundFunctionSupport--><path codeLine="62" d="M889,421.456 C889,434.3678 889,447.9348 889,460.8198 " fill="none" id="it.tidalwave.role.ui.function.BoundFunctionSupport-backto-it.tidalwave.role.ui.function.UnaryBoundFunctionSupport" style="stroke: #A80036; stroke-width: 1.0;"/><polygon fill="none" points="882.0001,421.2459,889,401.2459,896.0001,421.2459,882.0001,421.2459" style="stroke: #A80036; stroke-width: 1.0;"/><!--MD5=[bd64466f2ac39d6fdb1321673291a28d]
reverse link it.tidalwave.role.ui.function.UnaryBoundFunctionSupport to it.tidalwave.role.ui.function.WeakCopyFunctionSupport--><path codeLine="63" d="M1001.1207,598.4802 C1025.2982,614.541 1050.6319,631.3698 1074.0774,646.9443 " fill="none" id="it.tidalwave.role.ui.function.UnaryBoundFunctionSupport-backto-it.tidalwave.role.ui.function.WeakCopyFunctionSupport" style="stroke: #A80036; stroke-width: 1.0;"/><polygon fill="none" points="996.9719,604.128,984.1859,587.2307,1004.7185,592.4665,996.9719,604.128" style="stroke: #A80036; stroke-width: 1.0;"/><!--MD5=[cc511e9df2874a47393c076caddf1c12]
reverse link it.tidalwave.role.ui.Changeable to it.tidalwave.role.ui.function.WeakCopyFunctionSupport--><path codeLine="64" d="M1165.3275,140.3063 C1166.0538,252.967 1167.7978,523.501 1168.5927,646.8206 " fill="none" id="it.tidalwave.role.ui.Changeable-backto-it.tidalwave.role.ui.function.WeakCopyFunctionSupport" style="stroke: #A80036; stroke-width: 1.0; stroke-dasharray: 7.0,7.0;"/><polygon fill="none" points="1158.3275,140.3154,1165.1984,120.2707,1172.3272,140.2251,1158.3275,140.3154" style="stroke: #A80036; stroke-width: 1.0;"/><!--MD5=[805b9c0e3423ee7580bf200c3ddc8742]
reverse link it.tidalwave.role.ui.function.BooleanBoundFunctionSupport to it.tidalwave.role.ui.function.OrFunction--><path codeLine="65" d="M372.177,584.3155 C326.9822,611.087 274.7983,641.9985 233.492,666.4665 " fill="none" id="it.tidalwave.role.ui.function.BooleanBoundFunctionSupport-backto-it.tidalwave.role.ui.function.OrFunction" style="stroke: #A80036; stroke-width: 1.0;"/><polygon fill="none" points="368.6655,578.2597,389.4407,574.0893,375.8007,590.305,368.6655,578.2597" style="stroke: #A80036; stroke-width: 1.0;"/><!--MD5=[14d3995de834b5210f6397bed9903640]
reverse link it.tidalwave.role.ui.function.BoundFunctionSupport to it.tidalwave.role.ui.function.BooleanBoundFunctionSupport--><path codeLine="66" d="M761.807,408.5305 C710.0029,429.3145 650.3024,453.2666 598.751,473.9493 " fill="none" id="it.tidalwave.role.ui.function.BoundFunctionSupport-backto-it.tidalwave.role.ui.function.BooleanBoundFunctionSupport" style="stroke: #A80036; stroke-width: 1.0;"/><polygon fill="none" points="759.3374,401.9789,780.5057,401.0284,764.5504,414.9722,759.3374,401.9789" style="stroke: #A80036; stroke-width: 1.0;"/><!--MD5=[20cc34e7165abc23449eccd73f1d8237]
reverse link it.tidalwave.role.ui.function.BooleanBoundFunctionSupport to it.tidalwave.role.ui.function.AndFunction--><path codeLine="67" d="M474,594.3874 C474,618.5376 474,644.8536 474,666.2692 " fill="none" id="it.tidalwave.role.ui.function.BooleanBoundFunctionSupport-backto-it.tidalwave.role.ui.function.AndFunction" style="stroke: #A80036; stroke-width: 1.0;"/><polygon fill="none" points="467.0001,594.3343,474,574.3343,481.0001,594.3342,467.0001,594.3343" style="stroke: #A80036; stroke-width: 1.0;"/><!--MD5=[954ee626ab9968cb2a8fd47b0de43412]
reverse link it.tidalwave.role.ui.ChangingSource to it.tidalwave.role.ui.function.BoundFunction--><path codeLine="68" d="M891.4527,166.4003 C891.3512,180.6612 891.2523,194.5531 891.173,205.6972 " fill="none" id="it.tidalwave.role.ui.ChangingSource-backto-it.tidalwave.role.ui.function.BoundFunction" style="stroke: #A80036; stroke-width: 1.0;"/><polygon fill="none" points="884.4539,166.1914,891.5961,146.2417,898.4535,166.2911,884.4539,166.1914" style="stroke: #A80036; stroke-width: 1.0;"/><!--MD5=[7becbf77d2eae6c2d211cf7e03edf9f3]
reverse link it.tidalwave.role.ui.function.BoundFunction to it.tidalwave.role.ui.function.BoundFunctionSupport--><path codeLine="69" d="M890.3042,274.3598 C890.1029,287.1877 889.8836,301.1732 889.6831,313.9512 " fill="none" id="it.tidalwave.role.ui.function.BoundFunction-backto-it.tidalwave.role.ui.function.BoundFunctionSupport" style="stroke: #A80036; stroke-width: 1.0; stroke-dasharray: 7.0,7.0;"/><polygon fill="none" points="883.3062,274.1696,890.6191,254.2819,897.3045,274.3892,883.3062,274.1696" style="stroke: #A80036; stroke-width: 1.0;"/><!--MD5=[34698787e9901c67b3c888fcf284b3d0]
reverse link it.tidalwave.role.ui.function.WeakCopyFunctionSupport to it.tidalwave.role.ui.function.CopyIfEmptyOrConform--><path codeLine="70" d="M1134.0873,791.8727 C1128.0475,806.0366 1121.9849,820.2536 1116.5993,832.8833 " fill="none" id="it.tidalwave.role.ui.function.WeakCopyFunctionSupport-backto-it.tidalwave.role.ui.function.CopyIfEmptyOrConform" style="stroke: #A80036; stroke-width: 1.0;"/><polygon fill="none" points="1127.6713,789.0729,1141.9554,773.4215,1140.5493,794.5644,1127.6713,789.0729" style="stroke: #A80036; stroke-width: 1.0;"/><text fill="#888888" font-family="sans-serif" font-size="10" lengthAdjust="spacingAndGlyphs" textLength="188" x="570" y="943.668">UMLDoclet 2.0.12, PlantUML 1.2020.16</text><!--MD5=[5585234f9e10d0a03d7af93fd33a246a]
@startuml
    namespace it.tidalwave.role.ui.function {

        class NonEmptyFunction [[NonEmptyFunction.html]] {
            +NonEmptyFunction(ChangingSource<String>)
            {static} +nonEmpty(ChangingSource<String>): NonEmptyFunction
            #onSourceChange(String, String): void
            #function(String): Boolean
        }

        abstract class UnaryBoundFunctionSupport<DOMAIN_TYPE, CODOMAIN_TYPE> [[UnaryBoundFunctionSupport.html]] {
            #source: ChangingSource<DOMAIN_TYPE>
            #value: CODOMAIN_TYPE
            #UnaryBoundFunctionSupport(ChangingSource<DOMAIN_TYPE>)
            #onSourceChange(DOMAIN_TYPE, DOMAIN_TYPE): void
            {abstract} #function(DOMAIN_TYPE): CODOMAIN_TYPE
            +get(): CODOMAIN_TYPE
        }

        abstract class WeakCopyFunctionSupport<T> [[WeakCopyFunctionSupport.html]] {
            #targetValue: T
            +WeakCopyFunctionSupport(ChangingSource<T>)
            #onSourceChange(T, T): void
            +set(T): void
            {abstract} #shouldChange(T, T): boolean
            #function(T): T
        }

        class OrFunction [[OrFunction.html]] {
            +OrFunction(ChangingSource<Boolean>...)
            {static} +or(ChangingSource<Boolean>...): OrFunction
            #function(): boolean
        }

        abstract class BooleanBoundFunctionSupport [[BooleanBoundFunctionSupport.html]] {
            #sources: ChangingSource<Boolean>[]
            +BooleanBoundFunctionSupport(ChangingSource<Boolean>...)
            {abstract} #function(): boolean
            +get(): Boolean
        }

        class AndFunction [[AndFunction.html]] {
            +AndFunction(ChangingSource<Boolean>...)
            {static} +and(ChangingSource<Boolean>...): AndFunction
            #function(): boolean
        }

        interface BoundFunction<DOMAIN_TYPE, CODOMAIN_TYPE> [[BoundFunction.html]]

        abstract class BoundFunctionSupport<DOMAIN_TYPE, CODOMAIN_TYPE> [[BoundFunctionSupport.html]] {
            +unbindAll(): void
            #fireValueChanged(CODOMAIN_TYPE, CODOMAIN_TYPE): void
            #fireValueChanged(boolean, boolean): void
        }

        class CopyIfEmptyOrConform [[CopyIfEmptyOrConform.html]] {
            +CopyIfEmptyOrConform(ChangingSource<String>)
            {static} +copyIfEmptyOrConform(ChangingSource<String>): CopyIfEmptyOrConform
            #shouldChange(String, String): boolean
        }

        UnaryBoundFunctionSupport <|- - NonEmptyFunction
        BoundFunctionSupport <|- - UnaryBoundFunctionSupport
        UnaryBoundFunctionSupport <|- - WeakCopyFunctionSupport
        it.tidalwave.role.ui.Changeable <|.. WeakCopyFunctionSupport
        BooleanBoundFunctionSupport <|- - OrFunction
        BoundFunctionSupport <|- - BooleanBoundFunctionSupport
        BooleanBoundFunctionSupport <|- - AndFunction
        it.tidalwave.role.ui.ChangingSource <|- - BoundFunction
        BoundFunction <|.. BoundFunctionSupport
        WeakCopyFunctionSupport <|- - CopyIfEmptyOrConform
    }

    namespace it.tidalwave.role.ui {
        interface Changeable<T> [[../Changeable.html]] {
            {abstract} +set(T): void
        }
        interface ChangingSource<T> [[../ChangingSource.html]] {
            {abstract} +getPropertyChangeListeners(): PropertyChangeListener[]
            {abstract} +addPropertyChangeListener(PropertyChangeListener): void
            {abstract} +removePropertyChangeListener(PropertyChangeListener): void
            {abstract} +unbindAll(): void
            {abstract} +get(): T
        }
    }

    center footer UMLDoclet 2.0.12, PlantUML 1.2020.16
@enduml

PlantUML version 1.2020.16(Sun Aug 23 22:20:43 CEST 2020)
(APACHE source distribution)
Java Runtime: OpenJDK Runtime Environment
JVM: OpenJDK 64-Bit Server VM
Default Encoding: UTF-8
Language: en
Country: GB
--></g></svg>