<?xml version="1.0" encoding="UTF-8" standalone="no"?><svg xmlns="http://www.w3.org/2000/svg" xmlns:xlink="http://www.w3.org/1999/xlink" contentScriptType="application/ecmascript" contentStyleType="text/css" height="213px" preserveAspectRatio="none" style="width:385px;height:213px;" version="1.1" viewBox="0 0 385 213" width="385px" zoomAndPan="magnify"><defs><filter height="300%" id="f1kmub9cq8xga4" width="300%" x="-1" y="-1"><feGaussianBlur result="blurOut" stdDeviation="2.0"/><feColorMatrix in="blurOut" result="blurOut2" type="matrix" values="0 0 0 0 0 0 0 0 0 0 0 0 0 0 0 0 0 0 .4 0"/><feOffset dx="4.0" dy="4.0" in="blurOut2" result="blurOut3"/><feBlend in="SourceGraphic" in2="blurOut3" mode="normal"/></filter></defs><g><!--MD5=[5007b6a70a51f8cfe7ddb8584420cb41]
class it.tidalwave.actor.CollaborationStartedMessage--><a href="CollaborationStartedMessage.html" target="_top" title="CollaborationStartedMessage.html" xlink:actuate="onRequest" xlink:href="CollaborationStartedMessage.html" xlink:show="new" xlink:title="CollaborationStartedMessage.html" xlink:type="simple"><rect codeLine="5" fill="#FEFECE" filter="url(#f1kmub9cq8xga4)" height="72.1758" id="it.tidalwave.actor.CollaborationStartedMessage" style="stroke: #A80036; stroke-width: 1.5;" width="359" x="7" y="105"/><ellipse cx="81.25" cy="124.1328" fill="#ADD1B2" rx="11" ry="11" style="stroke: #A80036; stroke-width: 1.0;"/><path d="M83.7231,130.2759 Q83.1421,130.5747 82.5029,130.7241 Q81.8638,130.8735 81.1582,130.8735 Q78.6514,130.8735 77.3315,129.2217 Q76.0117,127.5698 76.0117,124.4487 Q76.0117,121.3193 77.3315,119.6675 Q78.6514,118.0156 81.1582,118.0156 Q81.8638,118.0156 82.5112,118.165 Q83.1587,118.3145 83.7231,118.6133 L83.7231,121.3359 Q83.0923,120.7549 82.4988,120.4851 Q81.9053,120.2153 81.2744,120.2153 Q79.9297,120.2153 79.2449,121.282 Q78.5601,122.3486 78.5601,124.4487 Q78.5601,126.5405 79.2449,127.6072 Q79.9297,128.6738 81.2744,128.6738 Q81.9053,128.6738 82.4988,128.4041 Q83.0923,128.1343 83.7231,127.5532 Z "/><text fill="#000000" font-family="sans-serif" font-size="14" lengthAdjust="spacingAndGlyphs" textLength="202" x="101.75" y="123.5352">CollaborationStartedMessage</text><text fill="#000000" font-family="sans-serif" font-size="10" lengthAdjust="spacingAndGlyphs" textLength="85" x="160.25" y="136.1563">it.tidalwave.actor</text><line style="stroke: #A80036; stroke-width: 1.5;" x1="8" x2="365" y1="143.2656" y2="143.2656"/><ellipse cx="18" cy="154.2656" fill="#84BE84" rx="3" ry="3" style="stroke: #038048; stroke-width: 1.0;"/><text fill="#000000" font-family="sans-serif" font-size="11" lengthAdjust="spacingAndGlyphs" text-decoration="underline" textLength="333" x="27" y="157.9004">forCollaboration(Collaboration): CollaborationStartedMessage</text><ellipse cx="18" cy="167.2207" fill="#84BE84" rx="3" ry="3" style="stroke: #038048; stroke-width: 1.0;"/><text fill="#000000" font-family="sans-serif" font-size="11" lengthAdjust="spacingAndGlyphs" textLength="132" x="27" y="170.8555">getStartTime(): DateTime</text></a><!--MD5=[599d8ce795d7fb3f6db3226bbf1bc46e]
class it.tidalwave.actor.MessageSupport--><a href="MessageSupport.html" target="_top" title="MessageSupport.html" xlink:actuate="onRequest" xlink:href="MessageSupport.html" xlink:show="new" xlink:title="MessageSupport.html" xlink:type="simple"><rect codeLine="10" fill="#FEFECE" filter="url(#f1kmub9cq8xga4)" height="38.2656" id="it.tidalwave.actor.MessageSupport" style="stroke: #A80036; stroke-width: 1.5;" width="146" x="113.5" y="7"/><ellipse cx="128.5" cy="26.1328" fill="#A9DCDF" rx="11" ry="11" style="stroke: #A80036; stroke-width: 1.0;"/><path d="M128.3633,21.481 L127.2095,26.5527 L129.5254,26.5527 Z M126.8691,19.2397 L129.8657,19.2397 L133.2109,31.6328 L130.7622,31.6328 L129.9985,28.5698 L126.7197,28.5698 L125.9727,31.6328 L123.5239,31.6328 Z "/><text fill="#000000" font-family="sans-serif" font-size="14" font-style="italic" lengthAdjust="spacingAndGlyphs" textLength="114" x="142.5" y="25.5352">MessageSupport</text><text fill="#000000" font-family="sans-serif" font-size="10" font-style="italic" lengthAdjust="spacingAndGlyphs" textLength="85" x="157" y="38.1563">it.tidalwave.actor</text></a><!--MD5=[57a4b00667514bc507a5a5113f524b67]
reverse link it.tidalwave.actor.MessageSupport to it.tidalwave.actor.CollaborationStartedMessage--><path codeLine="12" d="M186.5,65.5888 C186.5,78.3573 186.5,92.4348 186.5,104.935 " fill="none" id="it.tidalwave.actor.MessageSupport-backto-it.tidalwave.actor.CollaborationStartedMessage" style="stroke: #A80036; stroke-width: 1.0;"/><polygon fill="none" points="179.5001,65.2484,186.5,45.2484,193.5001,65.2484,179.5001,65.2484" style="stroke: #A80036; stroke-width: 1.0;"/><text fill="#888888" font-family="sans-serif" font-size="10" lengthAdjust="spacingAndGlyphs" textLength="188" x="89.5" y="199.8438">UMLDoclet 2.0.12, PlantUML 1.2020.16</text><!--MD5=[3c9ed345d3715ce61358c800651f024f]
@startuml
    set namespaceSeparator none
    hide empty fields
    hide empty methods

    class "<size:14>CollaborationStartedMessage\n<size:10>it.tidalwave.actor" as it.tidalwave.actor.CollaborationStartedMessage [[CollaborationStartedMessage.html]] {
        {static} +forCollaboration(Collaboration): CollaborationStartedMessage
        +getStartTime(): DateTime
    }

    abstract class "<size:14>MessageSupport\n<size:10>it.tidalwave.actor" as it.tidalwave.actor.MessageSupport [[MessageSupport.html]]

    it.tidalwave.actor.MessageSupport <|- - it.tidalwave.actor.CollaborationStartedMessage

    center footer UMLDoclet 2.0.12, PlantUML 1.2020.16
@enduml

PlantUML version 1.2020.16(Sun Aug 23 22:20:43 CEST 2020)
(APACHE source distribution)
Java Runtime: OpenJDK Runtime Environment
JVM: OpenJDK 64-Bit Server VM
Default Encoding: UTF-8
Language: en
Country: GB
--></g></svg>