<?xml version="1.0" encoding="UTF-8" standalone="no"?><svg xmlns="http://www.w3.org/2000/svg" xmlns:xlink="http://www.w3.org/1999/xlink" contentScriptType="application/ecmascript" contentStyleType="text/css" height="1005px" preserveAspectRatio="none" style="width:1847px;height:1005px;" version="1.1" viewBox="0 0 1847 1005" width="1847px" zoomAndPan="magnify"><defs><filter height="300%" id="fezyseuz5tq2y" width="300%" x="-1" y="-1"><feGaussianBlur result="blurOut" stdDeviation="2.0"/><feColorMatrix in="blurOut" result="blurOut2" type="matrix" values="0 0 0 0 0 0 0 0 0 0 0 0 0 0 0 0 0 0 .4 0"/><feOffset dx="4.0" dy="4.0" in="blurOut2" result="blurOut3"/><feBlend in="SourceGraphic" in2="blurOut3" mode="normal"/></filter></defs><g><!--MD5=[4174d1b649aab468023a9640b47691b6]
cluster it.tidalwave.actor--><polygon fill="#FFFFFF" filter="url(#fezyseuz5tq2y)" points="16,237,144,237,151,259.4883,1637,259.4883,1637,976,16,976,16,237" style="stroke: #000000; stroke-width: 1.5;"/><line style="stroke: #000000; stroke-width: 1.5;" x1="16" x2="151" y1="259.4883" y2="259.4883"/><text fill="#000000" font-family="sans-serif" font-size="14" font-weight="bold" lengthAdjust="spacingAndGlyphs" textLength="122" x="20" y="252.5352">it.tidalwave.actor</text><!--MD5=[ab149ffdaace04607ca43f034ce9b9c0]
cluster it.tidalwave.util--><polygon fill="#FFFFFF" filter="url(#fezyseuz5tq2y)" points="1153,6,1270,6,1277,28.4883,1419,28.4883,1419,206,1153,206,1153,6" style="stroke: #000000; stroke-width: 1.5;"/><line style="stroke: #000000; stroke-width: 1.5;" x1="1153" x2="1277" y1="28.4883" y2="28.4883"/><text fill="#000000" font-family="sans-serif" font-size="14" font-weight="bold" lengthAdjust="spacingAndGlyphs" textLength="111" x="1157" y="21.5352">it.tidalwave.util</text><!--MD5=[0d852700fdad35b7061d461d6907a324]
cluster java.io--><polygon fill="#FFFFFF" filter="url(#fezyseuz5tq2y)" points="1438,64.5,1490,64.5,1497,86.9883,1552,86.9883,1552,147.5,1438,147.5,1438,64.5" style="stroke: #000000; stroke-width: 1.5;"/><line style="stroke: #000000; stroke-width: 1.5;" x1="1438" x2="1497" y1="86.9883" y2="86.9883"/><text fill="#000000" font-family="sans-serif" font-size="14" font-weight="bold" lengthAdjust="spacingAndGlyphs" textLength="46" x="1442" y="80.0352">java.io</text><!--MD5=[cb5d9968a9f0a362b5264493638791b0]
cluster it.tidalwave.actor.impl--><polygon fill="#FFFFFF" filter="url(#fezyseuz5tq2y)" points="1651,445,1815,445,1822,467.4883,1825,467.4883,1825,528,1651,528,1651,445" style="stroke: #000000; stroke-width: 1.5;"/><line style="stroke: #000000; stroke-width: 1.5;" x1="1651" x2="1822" y1="467.4883" y2="467.4883"/><text fill="#000000" font-family="sans-serif" font-size="14" font-weight="bold" lengthAdjust="spacingAndGlyphs" textLength="158" x="1655" y="460.5352">it.tidalwave.actor.impl</text><!--MD5=[599d8ce795d7fb3f6db3226bbf1bc46e]
class it.tidalwave.actor.MessageSupport--><a href="MessageSupport.html" target="_top" title="MessageSupport.html" xlink:actuate="onRequest" xlink:href="MessageSupport.html" xlink:show="new" xlink:title="MessageSupport.html" xlink:type="simple"><rect codeLine="3" fill="#FEFECE" filter="url(#fezyseuz5tq2y)" height="125.7305" id="it.tidalwave.actor.MessageSupport" style="stroke: #A80036; stroke-width: 1.5;" width="234" x="1295" y="264"/><ellipse cx="1360.25" cy="280" fill="#A9DCDF" rx="11" ry="11" style="stroke: #A80036; stroke-width: 1.0;"/><path d="M1360.1133,275.3481 L1358.9595,280.4199 L1361.2754,280.4199 Z M1358.6191,273.1069 L1361.6157,273.1069 L1364.9609,285.5 L1362.5122,285.5 L1361.7485,282.437 L1358.4697,282.437 L1357.7227,285.5 L1355.2739,285.5 Z "/><text fill="#000000" font-family="sans-serif" font-size="12" font-style="italic" lengthAdjust="spacingAndGlyphs" textLength="95" x="1380.75" y="284.5352">MessageSupport</text><line style="stroke: #A80036; stroke-width: 1.5;" x1="1296" x2="1528" y1="296" y2="296"/><line style="stroke: #A80036; stroke-width: 1.5;" x1="1296" x2="1528" y1="304" y2="304"/><polygon fill="#FFFF44" points="1306,310,1310,314,1306,318,1302,314" style="stroke: #B38D22; stroke-width: 1.0;"/><text fill="#000000" font-family="sans-serif" font-size="11" lengthAdjust="spacingAndGlyphs" textLength="97" x="1315" y="318.6348">MessageSupport()</text><polygon fill="#FFFF44" points="1306,322.9551,1310,326.9551,1306,330.9551,1302,326.9551" style="stroke: #B38D22; stroke-width: 1.0;"/><text fill="#000000" font-family="sans-serif" font-size="11" lengthAdjust="spacingAndGlyphs" textLength="170" x="1315" y="331.5898">MessageSupport(Collaboration)</text><ellipse cx="1306" cy="340.9102" fill="#84BE84" rx="3" ry="3" style="stroke: #038048; stroke-width: 1.0;"/><text fill="#000000" font-family="sans-serif" font-size="11" lengthAdjust="spacingAndGlyphs" textLength="113" x="1315" y="344.5449">send(): Collaboration</text><ellipse cx="1306" cy="353.8652" fill="#84BE84" rx="3" ry="3" style="stroke: #038048; stroke-width: 1.0;"/><text fill="#000000" font-family="sans-serif" font-size="11" lengthAdjust="spacingAndGlyphs" textLength="154" x="1315" y="357.5">sendDirectly(): Collaboration</text><ellipse cx="1306" cy="366.8203" fill="#84BE84" rx="3" ry="3" style="stroke: #038048; stroke-width: 1.0;"/><text fill="#000000" font-family="sans-serif" font-size="11" lengthAdjust="spacingAndGlyphs" textLength="208" x="1315" y="370.4551">sendLater(int, TimeUnit): Collaboration</text><ellipse cx="1306" cy="379.7754" fill="#84BE84" rx="3" ry="3" style="stroke: #038048; stroke-width: 1.0;"/><text fill="#000000" font-family="sans-serif" font-size="11" lengthAdjust="spacingAndGlyphs" textLength="87" x="1315" y="383.4102">as(Class&lt;T&gt;): T</text></a><!--MD5=[276ccb3c43e4a96f5ff9ee9e22952bc1]
class it.tidalwave.actor.MessageDecorator--><a href="MessageDecorator.html" target="_top" title="MessageDecorator.html" xlink:actuate="onRequest" xlink:href="MessageDecorator.html" xlink:show="new" xlink:title="MessageDecorator.html" xlink:type="simple"><rect codeLine="12" fill="#FEFECE" filter="url(#fezyseuz5tq2y)" height="73.9102" id="it.tidalwave.actor.MessageDecorator" style="stroke: #A80036; stroke-width: 1.5;" width="291" x="46.5" y="290"/><ellipse cx="134.25" cy="306" fill="#B4A7E5" rx="11" ry="11" style="stroke: #A80036; stroke-width: 1.0;"/><path d="M130.6777,302.2651 L130.6777,300.1069 L138.0571,300.1069 L138.0571,302.2651 L135.5918,302.2651 L135.5918,310.3418 L138.0571,310.3418 L138.0571,312.5 L130.6777,312.5 L130.6777,310.3418 L133.1431,310.3418 L133.1431,302.2651 Z "/><text fill="#000000" font-family="sans-serif" font-size="12" font-style="italic" lengthAdjust="spacingAndGlyphs" textLength="107" x="154.75" y="310.5352">MessageDecorator</text><line style="stroke: #A80036; stroke-width: 1.5;" x1="47.5" x2="336.5" y1="322" y2="322"/><ellipse cx="57.5" cy="333" fill="none" rx="3" ry="3" style="stroke: #038048; stroke-width: 1.0;"/><text fill="#000000" font-family="sans-serif" font-size="11" lengthAdjust="spacingAndGlyphs" text-decoration="underline" textLength="265" x="66.5" y="336.6348">_MessageDecorator_: Class&lt;MessageDecorator&gt;</text><line style="stroke: #A80036; stroke-width: 1.5;" x1="47.5" x2="336.5" y1="342.9551" y2="342.9551"/><ellipse cx="57.5" cy="353.9551" fill="#84BE84" rx="3" ry="3" style="stroke: #038048; stroke-width: 1.0;"/><text fill="#000000" font-family="sans-serif" font-size="11" font-style="italic" lengthAdjust="spacingAndGlyphs" textLength="221" x="66.5" y="357.5898">getDecoratedMessage(): MessageSupport</text></a><!--MD5=[e211bff39470f7e0a47928bb68c8c209]
class it.tidalwave.actor.MessageDecorator.Same--><a href="MessageDecorator.Same.html" target="_top" title="MessageDecorator.Same.html" xlink:actuate="onRequest" xlink:href="MessageDecorator.Same.html" xlink:show="new" xlink:title="MessageDecorator.Same.html" xlink:type="simple"><rect codeLine="17" fill="#FEFECE" filter="url(#fezyseuz5tq2y)" height="48" id="it.tidalwave.actor.MessageDecorator.Same" style="stroke: #A80036; stroke-width: 1.5;" width="335" x="24.5" y="658.5"/><ellipse cx="39.5" cy="674.5" fill="#ADD1B2" rx="11" ry="11" style="stroke: #A80036; stroke-width: 1.0;"/><path d="M41.9731,680.6431 Q41.3921,680.9419 40.7529,681.0913 Q40.1138,681.2407 39.4082,681.2407 Q36.9014,681.2407 35.5815,679.5889 Q34.2617,677.937 34.2617,674.8159 Q34.2617,671.6865 35.5815,670.0347 Q36.9014,668.3828 39.4082,668.3828 Q40.1138,668.3828 40.7612,668.5322 Q41.4087,668.6816 41.9731,668.9805 L41.9731,671.7031 Q41.3423,671.1221 40.7488,670.8523 Q40.1553,670.5825 39.5244,670.5825 Q38.1797,670.5825 37.4949,671.6492 Q36.8101,672.7158 36.8101,674.8159 Q36.8101,676.9077 37.4949,677.9744 Q38.1797,679.041 39.5244,679.041 Q40.1553,679.041 40.7488,678.7712 Q41.3423,678.5015 41.9731,677.9204 Z "/><text fill="#000000" font-family="sans-serif" font-size="12" lengthAdjust="spacingAndGlyphs" textLength="142" x="53.5" y="679.0352">MessageDecorator.Same</text><rect fill="#FFFFFF" height="16.1328" style="stroke: #000000; stroke-width: 1.0; stroke-dasharray: 2.0,2.0;" width="159" x="203.5" y="655.5"/><text fill="#000000" font-family="sans-serif" font-size="12" font-style="italic" lengthAdjust="spacingAndGlyphs" textLength="157" x="204.5" y="668.1016">T extends MessageSupport</text><line style="stroke: #A80036; stroke-width: 1.5;" x1="25.5" x2="358.5" y1="690.5" y2="690.5"/><line style="stroke: #A80036; stroke-width: 1.5;" x1="25.5" x2="358.5" y1="698.5" y2="698.5"/></a><!--MD5=[6a7c7efbe9be3287d907864e38cbe172]
class it.tidalwave.actor.Collaboration--><a href="Collaboration.html" target="_top" title="Collaboration.html" xlink:actuate="onRequest" xlink:href="Collaboration.html" xlink:show="new" xlink:title="Collaboration.html" xlink:type="simple"><rect codeLine="20" fill="#FEFECE" filter="url(#fezyseuz5tq2y)" height="203.4609" id="it.tidalwave.actor.Collaboration" style="stroke: #A80036; stroke-width: 1.5;" width="210" x="395" y="581"/><ellipse cx="457.75" cy="597" fill="#B4A7E5" rx="11" ry="11" style="stroke: #A80036; stroke-width: 1.0;"/><path d="M454.1777,593.2651 L454.1777,591.1069 L461.5571,591.1069 L461.5571,593.2651 L459.0918,593.2651 L459.0918,601.3418 L461.5571,601.3418 L461.5571,603.5 L454.1777,603.5 L454.1777,601.3418 L456.6431,601.3418 L456.6431,593.2651 Z "/><text fill="#000000" font-family="sans-serif" font-size="12" font-style="italic" lengthAdjust="spacingAndGlyphs" textLength="76" x="478.25" y="601.5352">Collaboration</text><line style="stroke: #A80036; stroke-width: 1.5;" x1="396" x2="604" y1="613" y2="613"/><line style="stroke: #A80036; stroke-width: 1.5;" x1="396" x2="604" y1="621" y2="621"/><ellipse cx="406" cy="632" fill="#84BE84" rx="3" ry="3" style="stroke: #038048; stroke-width: 1.0;"/><text fill="#000000" font-family="sans-serif" font-size="11" font-style="italic" lengthAdjust="spacingAndGlyphs" textLength="173" x="415" y="635.6348">getOriginatingMessage(): Object</text><ellipse cx="406" cy="644.9551" fill="#84BE84" rx="3" ry="3" style="stroke: #038048; stroke-width: 1.0;"/><text fill="#000000" font-family="sans-serif" font-size="11" font-style="italic" lengthAdjust="spacingAndGlyphs" textLength="124" x="415" y="648.5898">isCompleted(): boolean</text><ellipse cx="406" cy="657.9102" fill="#84BE84" rx="3" ry="3" style="stroke: #038048; stroke-width: 1.0;"/><text fill="#000000" font-family="sans-serif" font-size="11" font-style="italic" lengthAdjust="spacingAndGlyphs" textLength="138" x="415" y="661.5449">waitForCompletion(): void</text><ellipse cx="406" cy="670.8652" fill="#84BE84" rx="3" ry="3" style="stroke: #038048; stroke-width: 1.0;"/><text fill="#000000" font-family="sans-serif" font-size="11" font-style="italic" lengthAdjust="spacingAndGlyphs" textLength="132" x="415" y="674.5">getStartTime(): DateTime</text><ellipse cx="406" cy="683.8203" fill="#84BE84" rx="3" ry="3" style="stroke: #038048; stroke-width: 1.0;"/><text fill="#000000" font-family="sans-serif" font-size="11" font-style="italic" lengthAdjust="spacingAndGlyphs" textLength="125" x="415" y="687.4551">getDuration(): Duration</text><ellipse cx="406" cy="696.7754" fill="#84BE84" rx="3" ry="3" style="stroke: #038048; stroke-width: 1.0;"/><text fill="#000000" font-family="sans-serif" font-size="11" font-style="italic" lengthAdjust="spacingAndGlyphs" textLength="95" x="415" y="700.4102">suspend(): Object</text><ellipse cx="406" cy="709.7305" fill="#84BE84" rx="3" ry="3" style="stroke: #038048; stroke-width: 1.0;"/><text fill="#000000" font-family="sans-serif" font-size="11" font-style="italic" lengthAdjust="spacingAndGlyphs" textLength="168" x="415" y="713.3652">resume(Object, Runnable): void</text><ellipse cx="406" cy="722.6855" fill="#84BE84" rx="3" ry="3" style="stroke: #038048; stroke-width: 1.0;"/><text fill="#000000" font-family="sans-serif" font-size="11" font-style="italic" lengthAdjust="spacingAndGlyphs" textLength="151" x="415" y="726.3203">resumeAndDie(Object): void</text><ellipse cx="406" cy="735.6406" fill="#84BE84" rx="3" ry="3" style="stroke: #038048; stroke-width: 1.0;"/><text fill="#000000" font-family="sans-serif" font-size="11" font-style="italic" lengthAdjust="spacingAndGlyphs" textLength="125" x="415" y="739.2754">isSuspended(): boolean</text><ellipse cx="406" cy="748.5957" fill="#84BE84" rx="3" ry="3" style="stroke: #038048; stroke-width: 1.0;"/><text fill="#000000" font-family="sans-serif" font-size="11" font-style="italic" lengthAdjust="spacingAndGlyphs" textLength="184" x="415" y="752.2305">getDeliveringMessagesCount(): int</text><ellipse cx="406" cy="761.5508" fill="#84BE84" rx="3" ry="3" style="stroke: #038048; stroke-width: 1.0;"/><text fill="#000000" font-family="sans-serif" font-size="11" font-style="italic" lengthAdjust="spacingAndGlyphs" textLength="173" x="415" y="765.1855">getPendingMessagesCount(): int</text><ellipse cx="406" cy="774.5059" fill="#84BE84" rx="3" ry="3" style="stroke: #038048; stroke-width: 1.0;"/><text fill="#000000" font-family="sans-serif" font-size="11" font-style="italic" lengthAdjust="spacingAndGlyphs" textLength="167" x="415" y="778.1406">getRunningThreadsCount(): int</text></a><!--MD5=[b3163528fe3315bab641bcb5f2a790d2]
class it.tidalwave.actor.Collaboration.Provider--><a href="Collaboration.Provider.html" target="_top" title="Collaboration.Provider.html" xlink:actuate="onRequest" xlink:href="Collaboration.Provider.html" xlink:show="new" xlink:title="Collaboration.Provider.html" xlink:type="simple"><rect codeLine="35" fill="#FEFECE" filter="url(#fezyseuz5tq2y)" height="60.9551" id="it.tidalwave.actor.Collaboration.Provider" style="stroke: #A80036; stroke-width: 1.5;" width="203" x="912.5" y="907"/><ellipse cx="946.85" cy="923" fill="#B4A7E5" rx="11" ry="11" style="stroke: #A80036; stroke-width: 1.0;"/><path d="M943.2777,919.2651 L943.2777,917.1069 L950.6571,917.1069 L950.6571,919.2651 L948.1918,919.2651 L948.1918,927.3418 L950.6571,927.3418 L950.6571,929.5 L943.2777,929.5 L943.2777,927.3418 L945.7431,927.3418 L945.7431,919.2651 Z "/><text fill="#000000" font-family="sans-serif" font-size="12" font-style="italic" lengthAdjust="spacingAndGlyphs" textLength="128" x="965.15" y="927.5352">Collaboration.Provider</text><line style="stroke: #A80036; stroke-width: 1.5;" x1="913.5" x2="1114.5" y1="939" y2="939"/><line style="stroke: #A80036; stroke-width: 1.5;" x1="913.5" x2="1114.5" y1="947" y2="947"/><ellipse cx="923.5" cy="958" fill="#84BE84" rx="3" ry="3" style="stroke: #038048; stroke-width: 1.0;"/><text fill="#000000" font-family="sans-serif" font-size="11" font-style="italic" lengthAdjust="spacingAndGlyphs" textLength="177" x="932.5" y="961.6348">getCollaboration(): Collaboration</text></a><!--MD5=[23e79931789b8b390c998a81019f0f1f]
class it.tidalwave.actor.CollaborationCompletedMessage--><a href="CollaborationCompletedMessage.html" target="_top" title="CollaborationCompletedMessage.html" xlink:actuate="onRequest" xlink:href="CollaborationCompletedMessage.html" xlink:show="new" xlink:title="CollaborationCompletedMessage.html" xlink:type="simple"><rect codeLine="39" fill="#FEFECE" filter="url(#fezyseuz5tq2y)" height="99.8203" id="it.tidalwave.actor.CollaborationCompletedMessage" style="stroke: #A80036; stroke-width: 1.5;" width="379" x="818.5" y="632.5"/><ellipse cx="909.25" cy="648.5" fill="#ADD1B2" rx="11" ry="11" style="stroke: #A80036; stroke-width: 1.0;"/><path d="M911.7231,654.6431 Q911.1421,654.9419 910.5029,655.0913 Q909.8638,655.2407 909.1582,655.2407 Q906.6514,655.2407 905.3315,653.5889 Q904.0117,651.937 904.0117,648.8159 Q904.0117,645.6865 905.3315,644.0347 Q906.6514,642.3828 909.1582,642.3828 Q909.8638,642.3828 910.5112,642.5322 Q911.1587,642.6816 911.7231,642.9805 L911.7231,645.7031 Q911.0923,645.1221 910.4988,644.8523 Q909.9053,644.5825 909.2744,644.5825 Q907.9297,644.5825 907.2449,645.6492 Q906.5601,646.7158 906.5601,648.8159 Q906.5601,650.9077 907.2449,651.9744 Q907.9297,653.041 909.2744,653.041 Q909.9053,653.041 910.4988,652.7712 Q911.0923,652.5015 911.7231,651.9204 Z "/><text fill="#000000" font-family="sans-serif" font-size="12" lengthAdjust="spacingAndGlyphs" textLength="189" x="929.75" y="653.0352">CollaborationCompletedMessage</text><line style="stroke: #A80036; stroke-width: 1.5;" x1="819.5" x2="1196.5" y1="664.5" y2="664.5"/><line style="stroke: #A80036; stroke-width: 1.5;" x1="819.5" x2="1196.5" y1="672.5" y2="672.5"/><ellipse cx="829.5" cy="683.5" fill="#84BE84" rx="3" ry="3" style="stroke: #038048; stroke-width: 1.0;"/><text fill="#000000" font-family="sans-serif" font-size="11" lengthAdjust="spacingAndGlyphs" text-decoration="underline" textLength="353" x="838.5" y="687.1348">forCollaboration(Collaboration): CollaborationCompletedMessage</text><ellipse cx="829.5" cy="696.4551" fill="#84BE84" rx="3" ry="3" style="stroke: #038048; stroke-width: 1.0;"/><text fill="#000000" font-family="sans-serif" font-size="11" lengthAdjust="spacingAndGlyphs" textLength="132" x="838.5" y="700.0898">getStartTime(): DateTime</text><ellipse cx="829.5" cy="709.4102" fill="#84BE84" rx="3" ry="3" style="stroke: #038048; stroke-width: 1.0;"/><text fill="#000000" font-family="sans-serif" font-size="11" lengthAdjust="spacingAndGlyphs" textLength="127" x="838.5" y="713.0449">getEndTime(): DateTime</text><ellipse cx="829.5" cy="722.3652" fill="#84BE84" rx="3" ry="3" style="stroke: #038048; stroke-width: 1.0;"/><text fill="#000000" font-family="sans-serif" font-size="11" lengthAdjust="spacingAndGlyphs" textLength="125" x="838.5" y="726">getDuration(): Duration</text></a><!--MD5=[5007b6a70a51f8cfe7ddb8584420cb41]
class it.tidalwave.actor.CollaborationStartedMessage--><a href="CollaborationStartedMessage.html" target="_top" title="CollaborationStartedMessage.html" xlink:actuate="onRequest" xlink:href="CollaborationStartedMessage.html" xlink:show="new" xlink:title="CollaborationStartedMessage.html" xlink:type="simple"><rect codeLine="46" fill="#FEFECE" filter="url(#fezyseuz5tq2y)" height="73.9102" id="it.tidalwave.actor.CollaborationStartedMessage" style="stroke: #A80036; stroke-width: 1.5;" width="359" x="1232.5" y="645.5"/><ellipse cx="1324.25" cy="661.5" fill="#ADD1B2" rx="11" ry="11" style="stroke: #A80036; stroke-width: 1.0;"/><path d="M1326.7231,667.6431 Q1326.1421,667.9419 1325.5029,668.0913 Q1324.8638,668.2407 1324.1582,668.2407 Q1321.6514,668.2407 1320.3315,666.5889 Q1319.0117,664.937 1319.0117,661.8159 Q1319.0117,658.6865 1320.3315,657.0347 Q1321.6514,655.3828 1324.1582,655.3828 Q1324.8638,655.3828 1325.5112,655.5322 Q1326.1587,655.6816 1326.7231,655.9805 L1326.7231,658.7031 Q1326.0923,658.1221 1325.4988,657.8523 Q1324.9053,657.5825 1324.2744,657.5825 Q1322.9297,657.5825 1322.2449,658.6492 Q1321.5601,659.7158 1321.5601,661.8159 Q1321.5601,663.9077 1322.2449,664.9744 Q1322.9297,666.041 1324.2744,666.041 Q1324.9053,666.041 1325.4988,665.7712 Q1326.0923,665.5015 1326.7231,664.9204 Z "/><text fill="#000000" font-family="sans-serif" font-size="12" lengthAdjust="spacingAndGlyphs" textLength="167" x="1344.75" y="666.0352">CollaborationStartedMessage</text><line style="stroke: #A80036; stroke-width: 1.5;" x1="1233.5" x2="1590.5" y1="677.5" y2="677.5"/><line style="stroke: #A80036; stroke-width: 1.5;" x1="1233.5" x2="1590.5" y1="685.5" y2="685.5"/><ellipse cx="1243.5" cy="696.5" fill="#84BE84" rx="3" ry="3" style="stroke: #038048; stroke-width: 1.0;"/><text fill="#000000" font-family="sans-serif" font-size="11" lengthAdjust="spacingAndGlyphs" text-decoration="underline" textLength="333" x="1252.5" y="700.1348">forCollaboration(Collaboration): CollaborationStartedMessage</text><ellipse cx="1243.5" cy="709.4551" fill="#84BE84" rx="3" ry="3" style="stroke: #038048; stroke-width: 1.0;"/><text fill="#000000" font-family="sans-serif" font-size="11" lengthAdjust="spacingAndGlyphs" textLength="132" x="1252.5" y="713.0898">getStartTime(): DateTime</text></a><!--MD5=[dab04e1bf87902def4158d0914d2f9d5]
class it.tidalwave.util.As--><a href="http://tidalwave.it/projects/thesefoolishthings/modules/it-tidalwave-util/apidocs/it/tidalwave/util/As.html?is-external=true" target="_top" title="http://tidalwave.it/projects/thesefoolishthings/modules/it-tidalwave-util/apidocs/it/tidalwave/util/As.html?is-external=true" xlink:actuate="onRequest" xlink:href="http://tidalwave.it/projects/thesefoolishthings/modules/it-tidalwave-util/apidocs/it/tidalwave/util/As.html?is-external=true" xlink:show="new" xlink:title="http://tidalwave.it/projects/thesefoolishthings/modules/it-tidalwave-util/apidocs/it/tidalwave/util/As.html?is-external=true" xlink:type="simple"><rect codeLine="65" fill="#FEFECE" filter="url(#fezyseuz5tq2y)" height="164.5957" id="it.tidalwave.util.As" style="stroke: #A80036; stroke-width: 1.5;" width="250" x="1161" y="33"/><ellipse cx="1274.75" cy="49" fill="#B4A7E5" rx="11" ry="11" style="stroke: #A80036; stroke-width: 1.0;"/><path d="M1271.1777,45.2651 L1271.1777,43.1069 L1278.5571,43.1069 L1278.5571,45.2651 L1276.0918,45.2651 L1276.0918,53.3418 L1278.5571,53.3418 L1278.5571,55.5 L1271.1777,55.5 L1271.1777,53.3418 L1273.6431,53.3418 L1273.6431,45.2651 Z "/><text fill="#000000" font-family="sans-serif" font-size="12" font-style="italic" lengthAdjust="spacingAndGlyphs" textLength="14" x="1295.25" y="53.5352">As</text><line style="stroke: #A80036; stroke-width: 1.5;" x1="1162" x2="1410" y1="65" y2="65"/><line style="stroke: #A80036; stroke-width: 1.5;" x1="1162" x2="1410" y1="73" y2="73"/><ellipse cx="1172" cy="84" fill="#84BE84" rx="3" ry="3" style="stroke: #038048; stroke-width: 1.0;"/><text fill="#000000" font-family="sans-serif" font-size="11" font-style="italic" lengthAdjust="spacingAndGlyphs" textLength="87" x="1181" y="87.6348">as(Class&lt;T&gt;): T</text><ellipse cx="1172" cy="96.9551" fill="#84BE84" rx="3" ry="3" style="stroke: #038048; stroke-width: 1.0;"/><text fill="#000000" font-family="sans-serif" font-size="11" font-style="italic" lengthAdjust="spacingAndGlyphs" textLength="224" x="1181" y="100.5898">as(Class&lt;T&gt;, NotFoundBehaviour&lt;T&gt;): T</text><ellipse cx="1172" cy="109.9102" fill="#84BE84" rx="3" ry="3" style="stroke: #038048; stroke-width: 1.0;"/><text fill="#000000" font-family="sans-serif" font-size="11" lengthAdjust="spacingAndGlyphs" textLength="188" x="1181" y="113.5449">maybeAs(Class&lt;T&gt;): Optional&lt;T&gt;</text><ellipse cx="1172" cy="122.8652" fill="#84BE84" rx="3" ry="3" style="stroke: #038048; stroke-width: 1.0;"/><text fill="#000000" font-family="sans-serif" font-size="11" lengthAdjust="spacingAndGlyphs" text-decoration="line-through" textLength="58" x="1181" y="126.5">asOptional</text><text fill="#000000" font-family="sans-serif" font-size="11" lengthAdjust="spacingAndGlyphs" textLength="139" x="1239" y="126.5">(Class&lt;T&gt;): Optional&lt;T&gt;</text><ellipse cx="1172" cy="135.8203" fill="#84BE84" rx="3" ry="3" style="stroke: #038048; stroke-width: 1.0;"/><text fill="#000000" font-family="sans-serif" font-size="11" font-style="italic" lengthAdjust="spacingAndGlyphs" textLength="187" x="1181" y="139.4551">asMany(Class&lt;T&gt;): Collection&lt;T&gt;</text><ellipse cx="1172" cy="148.7754" fill="#84BE84" rx="3" ry="3" style="stroke: #038048; stroke-width: 1.0;"/><text fill="#000000" font-family="sans-serif" font-size="11" lengthAdjust="spacingAndGlyphs" text-decoration="underline" textLength="123" x="1181" y="152.4102">ref(Class&lt;?&gt;): Ref&lt;T&gt;</text><ellipse cx="1172" cy="161.7305" fill="#84BE84" rx="3" ry="3" style="stroke: #038048; stroke-width: 1.0;"/><text fill="#000000" font-family="sans-serif" font-size="11" lengthAdjust="spacingAndGlyphs" textLength="75" x="1181" y="165.3652">as(Ref&lt;T&gt;): T</text><ellipse cx="1172" cy="174.6855" fill="#84BE84" rx="3" ry="3" style="stroke: #038048; stroke-width: 1.0;"/><text fill="#000000" font-family="sans-serif" font-size="11" lengthAdjust="spacingAndGlyphs" textLength="176" x="1181" y="178.3203">maybeAs(Ref&lt;T&gt;): Optional&lt;T&gt;</text><ellipse cx="1172" cy="187.6406" fill="#84BE84" rx="3" ry="3" style="stroke: #038048; stroke-width: 1.0;"/><text fill="#000000" font-family="sans-serif" font-size="11" lengthAdjust="spacingAndGlyphs" textLength="175" x="1181" y="191.2754">asMany(Ref&lt;T&gt;): Collection&lt;T&gt;</text></a><!--MD5=[5a5af9b0547913863cbe0ddf55a9ab5e]
class java.io.Serializable--><rect codeLine="79" fill="#FEFECE" filter="url(#fezyseuz5tq2y)" height="48" id="java.io.Serializable" style="stroke: #A80036; stroke-width: 1.5;" width="98" x="1446" y="91.5"/><ellipse cx="1461" cy="107.5" fill="#B4A7E5" rx="11" ry="11" style="stroke: #A80036; stroke-width: 1.0;"/><path d="M1457.4277,103.7651 L1457.4277,101.6069 L1464.8071,101.6069 L1464.8071,103.7651 L1462.3418,103.7651 L1462.3418,111.8418 L1464.8071,111.8418 L1464.8071,114 L1457.4277,114 L1457.4277,111.8418 L1459.8931,111.8418 L1459.8931,103.7651 Z "/><text fill="#000000" font-family="sans-serif" font-size="12" font-style="italic" lengthAdjust="spacingAndGlyphs" textLength="66" x="1475" y="112.0352">Serializable</text><line style="stroke: #A80036; stroke-width: 1.5;" x1="1447" x2="1543" y1="123.5" y2="123.5"/><line style="stroke: #A80036; stroke-width: 1.5;" x1="1447" x2="1543" y1="131.5" y2="131.5"/><!--MD5=[578e8133e91fa66e7334028555ef6451]
class it.tidalwave.actor.impl.DefaultCollaboration--><rect fill="#FEFECE" filter="url(#fezyseuz5tq2y)" height="48" id="it.tidalwave.actor.impl.DefaultCollaboration" style="stroke: #A80036; stroke-width: 1.5;" width="149" x="1663.5" y="472"/><ellipse cx="1678.5" cy="488" fill="#ADD1B2" rx="11" ry="11" style="stroke: #A80036; stroke-width: 1.0;"/><path d="M1680.9731,494.1431 Q1680.3921,494.4419 1679.7529,494.5913 Q1679.1138,494.7407 1678.4082,494.7407 Q1675.9014,494.7407 1674.5815,493.0889 Q1673.2617,491.437 1673.2617,488.3159 Q1673.2617,485.1865 1674.5815,483.5347 Q1675.9014,481.8828 1678.4082,481.8828 Q1679.1138,481.8828 1679.7612,482.0322 Q1680.4087,482.1816 1680.9731,482.4805 L1680.9731,485.2031 Q1680.3423,484.6221 1679.7488,484.3523 Q1679.1553,484.0825 1678.5244,484.0825 Q1677.1797,484.0825 1676.4949,485.1492 Q1675.8101,486.2158 1675.8101,488.3159 Q1675.8101,490.4077 1676.4949,491.4744 Q1677.1797,492.541 1678.5244,492.541 Q1679.1553,492.541 1679.7488,492.2712 Q1680.3423,492.0015 1680.9731,491.4204 Z "/><text fill="#000000" font-family="sans-serif" font-size="12" lengthAdjust="spacingAndGlyphs" textLength="117" x="1692.5" y="492.5352">DefaultCollaboration</text><line style="stroke: #A80036; stroke-width: 1.5;" x1="1664.5" x2="1811.5" y1="504" y2="504"/><line style="stroke: #A80036; stroke-width: 1.5;" x1="1664.5" x2="1811.5" y1="512" y2="512"/><!--MD5=[6a9986ee02f67d9595af70ddcca09393]
reverse link it.tidalwave.actor.Collaboration.Provider to it.tidalwave.actor.MessageSupport--><path codeLine="51" d="M1135.809,931.3231 C1314.8316,920.5874 1628,894.7665 1628,845.5 C1628,496 1628,496 1628,496 C1628,438.506 1579.9439,397.6501 1529.166,370.5279 " fill="none" id="it.tidalwave.actor.Collaboration.Provider-backto-it.tidalwave.actor.MessageSupport" style="stroke: #A80036; stroke-width: 1.0; stroke-dasharray: 7.0,7.0;"/><polygon fill="none" points="1136.1088,938.3174,1115.734,932.4976,1135.291,924.3413,1136.1088,938.3174" style="stroke: #A80036; stroke-width: 1.0;"/><!--MD5=[b5bfe33a5cd958331edcb4032042ad5a]
reverse link it.tidalwave.util.As to it.tidalwave.actor.MessageSupport--><path codeLine="52" d="M1345.5705,215.4933 C1355.3477,231.905 1365.2354,248.5022 1374.2879,263.6975 " fill="none" id="it.tidalwave.util.As-backto-it.tidalwave.actor.MessageSupport" style="stroke: #A80036; stroke-width: 1.0; stroke-dasharray: 7.0,7.0;"/><polygon fill="none" points="1339.4787,218.9448,1335.2562,198.1801,1351.5061,211.7795,1339.4787,218.9448" style="stroke: #A80036; stroke-width: 1.0;"/><!--MD5=[d8bd7a5c063c96c5c4eac222db2d3eba]
reverse link java.io.Serializable to it.tidalwave.actor.MessageSupport--><path codeLine="53" d="M1478.0071,158.8013 C1466.1282,189.0709 1450.075,229.9775 1436.7745,263.8698 " fill="none" id="java.io.Serializable-backto-it.tidalwave.actor.MessageSupport" style="stroke: #A80036; stroke-width: 1.0; stroke-dasharray: 7.0,7.0;"/><polygon fill="none" points="1471.6563,155.8222,1485.4788,139.7617,1484.6887,160.9367,1471.6563,155.8222" style="stroke: #A80036; stroke-width: 1.0;"/><!--MD5=[4eac5043df18f28e426bd43fb450b4f8]
link it.tidalwave.actor.MessageSupport to it.tidalwave.actor.impl.DefaultCollaboration--><path codeLine="54" d="M1529.1257,368.8725 C1564.667,383.2971 1603.225,400.7283 1637,420 C1661.2762,433.8518 1686.3972,452.7329 1705.5131,468.21 " fill="none" id="it.tidalwave.actor.MessageSupport-to-it.tidalwave.actor.impl.DefaultCollaboration" style="stroke: #A80036; stroke-width: 1.0;"/><polygon fill="#A80036" points="1709.7443,471.6596,1705.2963,462.8724,1705.869,468.5002,1700.2412,469.0728,1709.7443,471.6596" style="stroke: #A80036; stroke-width: 1.0;"/><text fill="#000000" font-family="sans-serif" font-size="13" lengthAdjust="spacingAndGlyphs" textLength="83" x="1664" y="433.5684">collaboration</text><!--MD5=[90d2d5a77e183fc86f22f45389c05231]
link it.tidalwave.actor.MessageSupport to it.tidalwave.actor.Collaboration--><path codeLine="55" d="M1294.6663,369.1808 C1233.7462,391.3216 1158.1935,419.1552 1091,445 C922.3989,509.8495 728.3167,588.6461 609.9292,637.1826 " fill="none" id="it.tidalwave.actor.MessageSupport-to-it.tidalwave.actor.Collaboration" style="stroke: #A80036; stroke-width: 1.0;"/><polygon fill="#A80036" points="605.0501,639.1834,614.8948,639.4697,609.6763,637.2864,611.8596,632.0679,605.0501,639.1834" style="stroke: #A80036; stroke-width: 1.0;"/><text fill="#000000" font-family="sans-serif" font-size="13" lengthAdjust="spacingAndGlyphs" textLength="83" x="1092" y="501.0684">collaboration</text><!--MD5=[4296a84607210b5dbbd9af479de562cb]
reverse link it.tidalwave.actor.MessageDecorator to it.tidalwave.actor.MessageDecorator.Same--><path codeLine="56" d="M182.3367,384.1489 C177.4294,463.185 178.3734,602.4262 185.1686,658.2999 " fill="none" id="it.tidalwave.actor.MessageDecorator-backto-it.tidalwave.actor.MessageDecorator.Same" style="stroke: #A80036; stroke-width: 1.0; stroke-dasharray: 7.0,7.0;"/><polygon fill="none" points="175.3682,383.4637,183.834,364.0387,189.3296,384.5033,175.3682,383.4637" style="stroke: #A80036; stroke-width: 1.0;"/><!--MD5=[4296a84607210b5dbbd9af479de562cb]
reverse link it.tidalwave.actor.MessageDecorator to it.tidalwave.actor.MessageDecorator.Same--><path codeLine="57" d="M201.8909,379.1768 C207.4675,457.2093 206.5816,601.2349 199.2332,658.2999 " fill="none" id="it.tidalwave.actor.MessageDecorator-backto-it.tidalwave.actor.MessageDecorator.Same-1" style="stroke: #A80036; stroke-width: 1.0;"/><ellipse cx="201.3019" cy="372.0118" fill="#FFFFFF" rx="8" ry="8" style="stroke: #A80036; stroke-width: 1.0;"/><line style="stroke: #A80036; stroke-width: 1.0;" x1="201.9575" x2="200.6463" y1="379.9849" y2="364.0387"/><line style="stroke: #A80036; stroke-width: 1.0;" x1="193.3288" x2="209.275" y1="372.6674" y2="371.3562"/><!--MD5=[579f56542c0344170148261f3a32a7c2]
link it.tidalwave.actor.Collaboration to it.tidalwave.actor.Collaboration--><path codeLine="58" d="M605.0141,658.8512 C625.4722,661.5975 640,669.4805 640,682.5 C640,694.4007 627.8619,702.0096 610.1516,705.3269 " fill="none" id="it.tidalwave.actor.Collaboration-to-it.tidalwave.actor.Collaboration" style="stroke: #A80036; stroke-width: 1.0;"/><polygon fill="#A80036" points="605.0141,706.1488,614.533,708.6769,609.9513,705.359,613.2692,700.7773,605.0141,706.1488" style="stroke: #A80036; stroke-width: 1.0;"/><text fill="#000000" font-family="sans-serif" font-size="13" lengthAdjust="spacingAndGlyphs" textLength="148" x="646" y="687.5684">NULL_COLLABORATION</text><!--MD5=[c7aa638db1f0a68edf28099aa184f864]
reverse link it.tidalwave.actor.Collaboration to it.tidalwave.actor.Collaboration.Provider--><path codeLine="59" d="M618.695,741.3856 C722.8562,793.0609 870.1869,866.153 952.4066,906.9429 " fill="none" id="it.tidalwave.actor.Collaboration-backto-it.tidalwave.actor.Collaboration.Provider" style="stroke: #A80036; stroke-width: 1.0;"/><ellipse cx="612.4224" cy="738.2738" fill="#FFFFFF" rx="8" ry="8" style="stroke: #A80036; stroke-width: 1.0;"/><line style="stroke: #A80036; stroke-width: 1.0;" x1="619.5889" x2="605.2559" y1="741.8292" y2="734.7184"/><line style="stroke: #A80036; stroke-width: 1.0;" x1="608.867" x2="615.9778" y1="745.4403" y2="731.1073"/><!--MD5=[b81d6627806b26b4adb172ed876fb232]
reverse link it.tidalwave.actor.MessageSupport to it.tidalwave.actor.CollaborationCompletedMessage--><path codeLine="60" d="M1324.994,403.561 C1246.3262,472.7847 1132.7674,572.7108 1065.0728,632.2788 " fill="none" id="it.tidalwave.actor.MessageSupport-backto-it.tidalwave.actor.CollaborationCompletedMessage" style="stroke: #A80036; stroke-width: 1.0;"/><polygon fill="none" points="1320.5995,398.1037,1340.2384,390.1466,1329.848,408.6139,1320.5995,398.1037" style="stroke: #A80036; stroke-width: 1.0;"/><!--MD5=[57a4b00667514bc507a5a5113f524b67]
reverse link it.tidalwave.actor.MessageSupport to it.tidalwave.actor.CollaborationStartedMessage--><path codeLine="61" d="M1412,410.1878 C1412,484.3978 1412,589.6294 1412,645.0376 " fill="none" id="it.tidalwave.actor.MessageSupport-backto-it.tidalwave.actor.CollaborationStartedMessage" style="stroke: #A80036; stroke-width: 1.0;"/><polygon fill="none" points="1405.0001,410.1467,1412,390.1466,1419.0001,410.1466,1405.0001,410.1467" style="stroke: #A80036; stroke-width: 1.0;"/><text fill="#888888" font-family="sans-serif" font-size="10" lengthAdjust="spacingAndGlyphs" textLength="188" x="820.5" y="991.668">UMLDoclet 2.0.12, PlantUML 1.2020.16</text><!--MD5=[283d9ea227f096fbfb3a2ac63c380daa]
@startuml
    namespace it.tidalwave.actor {

        abstract class MessageSupport [[MessageSupport.html]] {
            #MessageSupport()
            #MessageSupport(Collaboration)
            +send(): Collaboration
            +sendDirectly(): Collaboration
            +sendLater(int, TimeUnit): Collaboration
            +as(Class<T>): T
        }

        interface MessageDecorator [[MessageDecorator.html]] {
            {static} +_MessageDecorator_: Class<MessageDecorator>
            {abstract} +getDecoratedMessage(): MessageSupport
        }

        class it.tidalwave.actor.MessageDecorator.Same<T extends MessageSupport> [[MessageDecorator.Same.html]] {
        }

        interface Collaboration [[Collaboration.html]] {
            {abstract} +getOriginatingMessage(): Object
            {abstract} +isCompleted(): boolean
            {abstract} +waitForCompletion(): void
            {abstract} +getStartTime(): DateTime
            {abstract} +getDuration(): Duration
            {abstract} +suspend(): Object
            {abstract} +resume(Object, Runnable): void
            {abstract} +resumeAndDie(Object): void
            {abstract} +isSuspended(): boolean
            {abstract} +getDeliveringMessagesCount(): int
            {abstract} +getPendingMessagesCount(): int
            {abstract} +getRunningThreadsCount(): int
        }

        interface it.tidalwave.actor.Collaboration.Provider [[Collaboration.Provider.html]] {
            {abstract} +getCollaboration(): Collaboration
        }

        class CollaborationCompletedMessage [[CollaborationCompletedMessage.html]] {
            {static} +forCollaboration(Collaboration): CollaborationCompletedMessage
            +getStartTime(): DateTime
            +getEndTime(): DateTime
            +getDuration(): Duration
        }

        class CollaborationStartedMessage [[CollaborationStartedMessage.html]] {
            {static} +forCollaboration(Collaboration): CollaborationStartedMessage
            +getStartTime(): DateTime
        }

        it.tidalwave.actor.Collaboration.Provider <|.. MessageSupport
        it.tidalwave.util.As <|.. MessageSupport
        java.io.Serializable <|.. MessageSupport
        MessageSupport - -> it.tidalwave.actor.impl.DefaultCollaboration: collaboration
        MessageSupport - -> Collaboration: collaboration
        MessageDecorator <|.. it.tidalwave.actor.MessageDecorator.Same
        MessageDecorator +- - it.tidalwave.actor.MessageDecorator.Same
        Collaboration - -> Collaboration: NULL_COLLABORATION
        Collaboration +- - it.tidalwave.actor.Collaboration.Provider
        MessageSupport <|- - CollaborationCompletedMessage
        MessageSupport <|- - CollaborationStartedMessage
    }

    namespace it.tidalwave.util {
        interface As [[http://tidalwave.it/projects/thesefoolishthings/modules/it-tidalwave-util/apidocs/it/tidalwave/util/As.html?is-external=true]] {
            {abstract} +as(Class<T>): T
            {abstract} +as(Class<T>, NotFoundBehaviour<T>): T
            +maybeAs(Class<T>): Optional<T>
            +- -asOptional- -(Class<T>): Optional<T>
            {abstract} +asMany(Class<T>): Collection<T>
            {static} +ref(Class<?>): Ref<T>
            +as(Ref<T>): T
            +maybeAs(Ref<T>): Optional<T>
            +asMany(Ref<T>): Collection<T>
        }
    }

    namespace java.io {
        interface Serializable
    }

    center footer UMLDoclet 2.0.12, PlantUML 1.2020.16
@enduml

PlantUML version 1.2020.16(Sun Aug 23 22:20:43 CEST 2020)
(APACHE source distribution)
Java Runtime: OpenJDK Runtime Environment
JVM: OpenJDK 64-Bit Server VM
Default Encoding: UTF-8
Language: en
Country: GB
--></g></svg>