<?xml version="1.0" encoding="UTF-8" standalone="no"?><svg xmlns="http://www.w3.org/2000/svg" xmlns:xlink="http://www.w3.org/1999/xlink" contentScriptType="application/ecmascript" contentStyleType="text/css" height="247px" preserveAspectRatio="none" style="width:381px;height:247px;" version="1.1" viewBox="0 0 381 247" width="381px" zoomAndPan="magnify"><defs><filter height="300%" id="fy38756ixjggy" width="300%" x="-1" y="-1"><feGaussianBlur result="blurOut" stdDeviation="2.0"/><feColorMatrix in="blurOut" result="blurOut2" type="matrix" values="0 0 0 0 0 0 0 0 0 0 0 0 0 0 0 0 0 0 .4 0"/><feOffset dx="4.0" dy="4.0" in="blurOut2" result="blurOut3"/><feBlend in="SourceGraphic" in2="blurOut3" mode="normal"/></filter></defs><g><!--MD5=[e37891f8175e7b84ff9fcb42eb97ea99]
class it.tidalwave.ui.javafx.JavaFXSafeProxyCreator--><a href="JavaFXSafeProxyCreator.html" target="_top" title="JavaFXSafeProxyCreator.html" xlink:actuate="onRequest" xlink:href="JavaFXSafeProxyCreator.html" xlink:show="new" xlink:title="JavaFXSafeProxyCreator.html" xlink:type="simple"><rect codeLine="5" fill="#FEFECE" filter="url(#fy38756ixjggy)" height="106.0859" id="it.tidalwave.ui.javafx.JavaFXSafeProxyCreator" style="stroke: #A80036; stroke-width: 1.5;" width="355" x="7" y="7"/><ellipse cx="98.25" cy="26.1328" fill="#ADD1B2" rx="11" ry="11" style="stroke: #A80036; stroke-width: 1.0;"/><path d="M100.7231,32.2759 Q100.1421,32.5747 99.5029,32.7241 Q98.8638,32.8735 98.1582,32.8735 Q95.6514,32.8735 94.3315,31.2217 Q93.0117,29.5698 93.0117,26.4487 Q93.0117,23.3193 94.3315,21.6675 Q95.6514,20.0156 98.1582,20.0156 Q98.8638,20.0156 99.5112,20.165 Q100.1587,20.3145 100.7231,20.6133 L100.7231,23.3359 Q100.0923,22.7549 99.4988,22.4851 Q98.9053,22.2153 98.2744,22.2153 Q96.9297,22.2153 96.2449,23.282 Q95.5601,24.3486 95.5601,26.4487 Q95.5601,28.5405 96.2449,29.6072 Q96.9297,30.6738 98.2744,30.6738 Q98.9053,30.6738 99.4988,30.4041 Q100.0923,30.1343 100.7231,29.5532 Z "/><text fill="#000000" font-family="sans-serif" font-size="14" lengthAdjust="spacingAndGlyphs" textLength="164" x="118.75" y="25.5352">JavaFXSafeProxyCreator</text><text fill="#000000" font-family="sans-serif" font-size="10" lengthAdjust="spacingAndGlyphs" textLength="102" x="149.75" y="38.1563">it.tidalwave.ui.javafx</text><line style="stroke: #A80036; stroke-width: 1.5;" x1="8" x2="361" y1="45.2656" y2="45.2656"/><ellipse cx="18" cy="56.2656" fill="none" rx="3" ry="3" style="stroke: #038048; stroke-width: 1.0;"/><text fill="#000000" font-family="sans-serif" font-size="11" lengthAdjust="spacingAndGlyphs" text-decoration="underline" textLength="173" x="27" y="59.9004">BEANS: Map&lt;Class&lt;?&gt;, Object&gt;</text><line style="stroke: #A80036; stroke-width: 1.5;" x1="8" x2="361" y1="66.2207" y2="66.2207"/><ellipse cx="18" cy="77.2207" fill="#84BE84" rx="3" ry="3" style="stroke: #038048; stroke-width: 1.0;"/><text fill="#000000" font-family="sans-serif" font-size="11" lengthAdjust="spacingAndGlyphs" text-decoration="underline" textLength="291" x="27" y="80.8555">createNodeAndDelegate(Class&lt;?&gt;): NodeAndDelegate</text><ellipse cx="18" cy="90.1758" fill="#84BE84" rx="3" ry="3" style="stroke: #038048; stroke-width: 1.0;"/><text fill="#000000" font-family="sans-serif" font-size="11" lengthAdjust="spacingAndGlyphs" text-decoration="underline" textLength="329" x="27" y="93.8105">createNodeAndDelegate(Class&lt;?&gt;, String): NodeAndDelegate</text><ellipse cx="18" cy="103.1309" fill="#84BE84" rx="3" ry="3" style="stroke: #038048; stroke-width: 1.0;"/><text fill="#000000" font-family="sans-serif" font-size="11" lengthAdjust="spacingAndGlyphs" text-decoration="underline" textLength="174" x="27" y="106.7656">createSafeProxy(T, Class&lt;T&gt;): T</text></a><!--MD5=[35d5f5f9b01d1896a4f998e2bf55c526]
class it.tidalwave.ui.javafx.JavaFXSafeProxyCreator.NodeAndDelegate--><a href="JavaFXSafeProxyCreator.NodeAndDelegate.html" target="_top" title="JavaFXSafeProxyCreator.NodeAndDelegate.html" xlink:actuate="onRequest" xlink:href="JavaFXSafeProxyCreator.NodeAndDelegate.html" xlink:show="new" xlink:title="JavaFXSafeProxyCreator.NodeAndDelegate.html" xlink:type="simple"><rect codeLine="11" fill="#FEFECE" filter="url(#fy38756ixjggy)" height="38.2656" id="it.tidalwave.ui.javafx.JavaFXSafeProxyCreator.NodeAndDelegate" style="stroke: #A80036; stroke-width: 1.5;" width="324" x="22.5" y="173"/><ellipse cx="37.5" cy="192.1328" fill="#ADD1B2" rx="11" ry="11" style="stroke: #A80036; stroke-width: 1.0;"/><path d="M39.9731,198.2759 Q39.3921,198.5747 38.7529,198.7241 Q38.1138,198.8735 37.4082,198.8735 Q34.9014,198.8735 33.5815,197.2217 Q32.2617,195.5698 32.2617,192.4487 Q32.2617,189.3193 33.5815,187.6675 Q34.9014,186.0156 37.4082,186.0156 Q38.1138,186.0156 38.7612,186.165 Q39.4087,186.3145 39.9731,186.6133 L39.9731,189.3359 Q39.3423,188.7549 38.7488,188.4851 Q38.1553,188.2153 37.5244,188.2153 Q36.1797,188.2153 35.4949,189.282 Q34.8101,190.3486 34.8101,192.4487 Q34.8101,194.5405 35.4949,195.6072 Q36.1797,196.6738 37.5244,196.6738 Q38.1553,196.6738 38.7488,196.4041 Q39.3423,196.1343 39.9731,195.5532 Z "/><text fill="#000000" font-family="sans-serif" font-size="14" lengthAdjust="spacingAndGlyphs" textLength="292" x="51.5" y="191.5352">JavaFXSafeProxyCreator.NodeAndDelegate</text><text fill="#000000" font-family="sans-serif" font-size="10" lengthAdjust="spacingAndGlyphs" textLength="102" x="146.5" y="204.1563">it.tidalwave.ui.javafx</text></a><!--MD5=[1ce23dcf562d7c17a3c31b46015922ac]
reverse link it.tidalwave.ui.javafx.JavaFXSafeProxyCreator to it.tidalwave.ui.javafx.JavaFXSafeProxyCreator.NodeAndDelegate--><path codeLine="13" d="M184.5,128.5296 C184.5,144.8136 184.5,160.8919 184.5,172.7917 " fill="none" id="it.tidalwave.ui.javafx.JavaFXSafeProxyCreator-backto-it.tidalwave.ui.javafx.JavaFXSafeProxyCreator.NodeAndDelegate" style="stroke: #A80036; stroke-width: 1.0;"/><ellipse cx="184.5001" cy="121.309" fill="#FFFFFF" rx="8" ry="8" style="stroke: #A80036; stroke-width: 1.0;"/><line style="stroke: #A80036; stroke-width: 1.0;" x1="184.5002" x2="184.5" y1="129.309" y2="113.309"/><line style="stroke: #A80036; stroke-width: 1.0;" x1="176.5001" x2="192.5001" y1="121.3091" y2="121.3089"/><text fill="#888888" font-family="sans-serif" font-size="10" lengthAdjust="spacingAndGlyphs" textLength="188" x="87.5" y="233.9336">UMLDoclet 2.0.12, PlantUML 1.2020.16</text><!--MD5=[15cf472e52559fdca52c9f75296e563a]
@startuml
    set namespaceSeparator none
    hide empty fields
    hide empty methods

    class "<size:14>JavaFXSafeProxyCreator\n<size:10>it.tidalwave.ui.javafx" as it.tidalwave.ui.javafx.JavaFXSafeProxyCreator [[JavaFXSafeProxyCreator.html]] {
        {static} +BEANS: Map<Class<?>, Object>
        {static} +createNodeAndDelegate(Class<?>): NodeAndDelegate
        {static} +createNodeAndDelegate(Class<?>, String): NodeAndDelegate
        {static} +createSafeProxy(T, Class<T>): T
    }
    class "<size:14>JavaFXSafeProxyCreator.NodeAndDelegate\n<size:10>it.tidalwave.ui.javafx" as it.tidalwave.ui.javafx.JavaFXSafeProxyCreator.NodeAndDelegate [[JavaFXSafeProxyCreator.NodeAndDelegate.html]]

    it.tidalwave.ui.javafx.JavaFXSafeProxyCreator +- - it.tidalwave.ui.javafx.JavaFXSafeProxyCreator.NodeAndDelegate

    center footer UMLDoclet 2.0.12, PlantUML 1.2020.16
@enduml

PlantUML version 1.2020.16(Sun Aug 23 22:20:43 CEST 2020)
(APACHE source distribution)
Java Runtime: OpenJDK Runtime Environment
JVM: OpenJDK 64-Bit Server VM
Default Encoding: UTF-8
Language: en
Country: GB
--></g></svg>