<?xml version="1.0" encoding="UTF-8" standalone="no"?><svg xmlns="http://www.w3.org/2000/svg" xmlns:xlink="http://www.w3.org/1999/xlink" contentScriptType="application/ecmascript" contentStyleType="text/css" height="345px" preserveAspectRatio="none" style="width:307px;height:345px;" version="1.1" viewBox="0 0 307 345" width="307px" zoomAndPan="magnify"><defs><filter height="300%" id="f1neh1ficopyeg" width="300%" x="-1" y="-1"><feGaussianBlur result="blurOut" stdDeviation="2.0"/><feColorMatrix in="blurOut" result="blurOut2" type="matrix" values="0 0 0 0 0 0 0 0 0 0 0 0 0 0 0 0 0 0 .4 0"/><feOffset dx="4.0" dy="4.0" in="blurOut2" result="blurOut3"/><feBlend in="SourceGraphic" in2="blurOut3" mode="normal"/></filter></defs><g><!--MD5=[aa4dd6fd68d95560ead69b48420dc8ce]
class it.tidalwave.ui.javafx.JavaFXApplicationWithSplash--><a href="JavaFXApplicationWithSplash.html" target="_top" title="JavaFXApplicationWithSplash.html" xlink:actuate="onRequest" xlink:href="JavaFXApplicationWithSplash.html" xlink:show="new" xlink:title="JavaFXApplicationWithSplash.html" xlink:type="simple"><rect codeLine="5" fill="#FEFECE" filter="url(#f1neh1ficopyeg)" height="183.8164" id="it.tidalwave.ui.javafx.JavaFXApplicationWithSplash" style="stroke: #A80036; stroke-width: 1.5;" width="279" x="9" y="126"/><ellipse cx="46.5" cy="145.1328" fill="#A9DCDF" rx="11" ry="11" style="stroke: #A80036; stroke-width: 1.0;"/><path d="M46.3633,140.481 L45.2095,145.5527 L47.5254,145.5527 Z M44.8691,138.2397 L47.8657,138.2397 L51.2109,150.6328 L48.7622,150.6328 L47.9985,147.5698 L44.7197,147.5698 L43.9727,150.6328 L41.5239,150.6328 Z "/><text fill="#000000" font-family="sans-serif" font-size="14" font-style="italic" lengthAdjust="spacingAndGlyphs" textLength="197" x="65.5" y="144.5352">JavaFXApplicationWithSplash</text><text fill="#000000" font-family="sans-serif" font-size="10" font-style="italic" lengthAdjust="spacingAndGlyphs" textLength="102" x="113" y="157.1563">it.tidalwave.ui.javafx</text><line style="stroke: #A80036; stroke-width: 1.5;" x1="10" x2="287" y1="164.2656" y2="164.2656"/><polygon fill="none" points="20,170.2656,24,174.2656,20,178.2656,16,174.2656" style="stroke: #B38D22; stroke-width: 1.0;"/><text fill="#000000" font-family="sans-serif" font-size="11" lengthAdjust="spacingAndGlyphs" textLength="123" x="29" y="178.9004">applicationFxml: String</text><polygon fill="none" points="20,183.2207,24,187.2207,20,191.2207,16,187.2207" style="stroke: #B38D22; stroke-width: 1.0;"/><text fill="#000000" font-family="sans-serif" font-size="11" lengthAdjust="spacingAndGlyphs" textLength="99" x="29" y="191.8555">splashFxml: String</text><line style="stroke: #A80036; stroke-width: 1.5;" x1="10" x2="287" y1="198.1758" y2="198.1758"/><ellipse cx="20" cy="209.1758" fill="#84BE84" rx="3" ry="3" style="stroke: #038048; stroke-width: 1.0;"/><text fill="#000000" font-family="sans-serif" font-size="11" lengthAdjust="spacingAndGlyphs" textLength="54" x="29" y="212.8105">init(): void</text><ellipse cx="20" cy="222.1309" fill="#84BE84" rx="3" ry="3" style="stroke: #038048; stroke-width: 1.0;"/><text fill="#000000" font-family="sans-serif" font-size="11" lengthAdjust="spacingAndGlyphs" textLength="91" x="29" y="225.7656">start(Stage): void</text><polygon fill="#FFFF44" points="20,230.0859,24,234.0859,20,238.0859,16,234.0859" style="stroke: #B38D22; stroke-width: 1.0;"/><text fill="#000000" font-family="sans-serif" font-size="11" lengthAdjust="spacingAndGlyphs" textLength="253" x="29" y="238.7207">onStageCreated(Stage, NodeAndDelegate): void</text><polygon fill="#FFFF44" points="20,243.041,24,247.041,20,251.041,16,247.041" style="stroke: #B38D22; stroke-width: 1.0;"/><text fill="#000000" font-family="sans-serif" font-size="11" font-style="italic" lengthAdjust="spacingAndGlyphs" textLength="177" x="29" y="251.6758">createParent(): NodeAndDelegate</text><polygon fill="#FFFF44" points="20,255.9961,24,259.9961,20,263.9961,16,259.9961" style="stroke: #B38D22; stroke-width: 1.0;"/><text fill="#000000" font-family="sans-serif" font-size="11" font-style="italic" lengthAdjust="spacingAndGlyphs" textLength="155" x="29" y="264.6309">initializeInBackground(): void</text><polygon fill="#FFFF44" points="20,268.9512,24,272.9512,20,276.9512,16,272.9512" style="stroke: #B38D22; stroke-width: 1.0;"/><text fill="#000000" font-family="sans-serif" font-size="11" lengthAdjust="spacingAndGlyphs" textLength="92" x="29" y="277.5859">onClosing(): void</text><polygon fill="#FFFF44" points="20,281.9063,24,285.9063,20,289.9063,16,285.9063" style="stroke: #B38D22; stroke-width: 1.0;"/><text fill="#000000" font-family="sans-serif" font-size="11" lengthAdjust="spacingAndGlyphs" textLength="127" x="29" y="290.541">getExecutor(): Executor</text><ellipse cx="20" cy="299.8613" fill="#84BE84" rx="3" ry="3" style="stroke: #038048; stroke-width: 1.0;"/><text fill="#000000" font-family="sans-serif" font-size="11" lengthAdjust="spacingAndGlyphs" text-decoration="underline" textLength="88" x="29" y="303.4961">isOSX(): boolean</text></a><!--MD5=[e3612552781b2b3849880f2b7cc3064d]
class javafx.application.Application--><rect codeLine="18" fill="#FEFECE" filter="url(#f1neh1ficopyeg)" height="59.2207" id="javafx.application.Application" style="stroke: #A80036; stroke-width: 1.5;" width="119" x="89" y="7"/><ellipse cx="104" cy="26.1328" fill="#A9DCDF" rx="11" ry="11" style="stroke: #A80036; stroke-width: 1.0;"/><path d="M103.8633,21.481 L102.7095,26.5527 L105.0254,26.5527 Z M102.3691,19.2397 L105.3657,19.2397 L108.7109,31.6328 L106.2622,31.6328 L105.4985,28.5698 L102.2197,28.5698 L101.4727,31.6328 L99.0239,31.6328 Z "/><text fill="#000000" font-family="sans-serif" font-size="14" font-style="italic" lengthAdjust="spacingAndGlyphs" textLength="78" x="122.5" y="25.5352">Application</text><text fill="#000000" font-family="sans-serif" font-size="10" font-style="italic" lengthAdjust="spacingAndGlyphs" textLength="87" x="118" y="38.1563">javafx.application</text><line style="stroke: #A80036; stroke-width: 1.5;" x1="90" x2="207" y1="45.2656" y2="45.2656"/><ellipse cx="100" cy="56.2656" fill="#84BE84" rx="3" ry="3" style="stroke: #038048; stroke-width: 1.0;"/><text fill="#000000" font-family="sans-serif" font-size="11" font-style="italic" lengthAdjust="spacingAndGlyphs" textLength="91" x="109" y="59.9004">start(Stage): void</text><!--MD5=[b18ffff8e3f59110ebf66e36771bf986]
reverse link javafx.application.Application to it.tidalwave.ui.javafx.JavaFXApplicationWithSplash--><path codeLine="22" d="M148.5,86.4629 C148.5,98.6871 148.5,112.1581 148.5,125.6756 " fill="none" id="javafx.application.Application-backto-it.tidalwave.ui.javafx.JavaFXApplicationWithSplash" style="stroke: #A80036; stroke-width: 1.0;"/><polygon fill="none" points="141.5001,86.0651,148.5,66.0651,155.5001,86.065,141.5001,86.0651" style="stroke: #A80036; stroke-width: 1.0;"/><text fill="#888888" font-family="sans-serif" font-size="10" lengthAdjust="spacingAndGlyphs" textLength="188" x="50.5" y="332.4844">UMLDoclet 2.0.12, PlantUML 1.2020.16</text><!--MD5=[e6621b86c7cfcdef4f8fd94125c4e550]
@startuml
    set namespaceSeparator none
    hide empty fields
    hide empty methods

    abstract class "<size:14>JavaFXApplicationWithSplash\n<size:10>it.tidalwave.ui.javafx" as it.tidalwave.ui.javafx.JavaFXApplicationWithSplash [[JavaFXApplicationWithSplash.html]] {
        #applicationFxml: String
        #splashFxml: String
        +init(): void
        +start(Stage): void
        #onStageCreated(Stage, NodeAndDelegate): void
        {abstract} #createParent(): NodeAndDelegate
        {abstract} #initializeInBackground(): void
        #onClosing(): void
        #getExecutor(): Executor
        {static} +isOSX(): boolean
    }

    abstract class "<size:14>Application\n<size:10>javafx.application" as javafx.application.Application {
        {abstract} +start(Stage): void
    }

    javafx.application.Application <|- - it.tidalwave.ui.javafx.JavaFXApplicationWithSplash

    center footer UMLDoclet 2.0.12, PlantUML 1.2020.16
@enduml

PlantUML version 1.2020.16(Sun Aug 23 22:20:43 CEST 2020)
(APACHE source distribution)
Java Runtime: OpenJDK Runtime Environment
JVM: OpenJDK 64-Bit Server VM
Default Encoding: UTF-8
Language: en
Country: GB
--></g></svg>