@startuml
    set namespaceSeparator none
    hide empty fields
    hide empty methods

    annotation "<size:14>OriginatedBy\n<size:10>it.tidalwave.actor.annotation" as it.tidalwave.actor.annotation.OriginatedBy [[OriginatedBy.html]]

    center footer UMLDoclet 2.0.12, PlantUML 1.2020.16
@enduml
