@startuml
    namespace it.tidalwave.accounting.ui.hourlyreport {

        interface HourlyReportPresentationControl [[HourlyReportPresentationControl.html]]

        interface HourlyReportPresentation [[HourlyReportPresentation.html]] {
            {abstract} +bind(): void
            {abstract} +showUp(UserNotificationWithFeedback): void
            {abstract} +populate(PresentationModel): void
        }

    }

    center footer UMLDoclet 2.0.12, PlantUML 1.2020.16
@enduml
