<?xml version="1.0" encoding="UTF-8" standalone="no"?><svg xmlns="http://www.w3.org/2000/svg" xmlns:xlink="http://www.w3.org/1999/xlink" contentScriptType="application/ecmascript" contentStyleType="text/css" height="157px" preserveAspectRatio="none" style="width:575px;height:157px;" version="1.1" viewBox="0 0 575 157" width="575px" zoomAndPan="magnify"><defs><filter height="300%" id="fxw7f20i3am4a" width="300%" x="-1" y="-1"><feGaussianBlur result="blurOut" stdDeviation="2.0"/><feColorMatrix in="blurOut" result="blurOut2" type="matrix" values="0 0 0 0 0 0 0 0 0 0 0 0 0 0 0 0 0 0 .4 0"/><feOffset dx="4.0" dy="4.0" in="blurOut2" result="blurOut3"/><feBlend in="SourceGraphic" in2="blurOut3" mode="normal"/></filter></defs><g><!--MD5=[953b932b21068980597d94597d4f85ae]
cluster it.tidalwave.accounting.ui.hourlyreport--><polygon fill="#FFFFFF" filter="url(#fxw7f20i3am4a)" points="16,6,296,6,303,28.4883,553,28.4883,553,128,16,128,16,6" style="stroke: #000000; stroke-width: 1.5;"/><line style="stroke: #000000; stroke-width: 1.5;" x1="16" x2="303" y1="28.4883" y2="28.4883"/><text fill="#000000" font-family="sans-serif" font-size="14" font-weight="bold" lengthAdjust="spacingAndGlyphs" textLength="274" x="20" y="21.5352">it.tidalwave.accounting.ui.hourlyreport</text><!--MD5=[ef9f3ea38a531f5f7840a2032ed6c342]
class it.tidalwave.accounting.ui.hourlyreport.HourlyReportPresentationControl--><a href="HourlyReportPresentationControl.html" target="_top" title="HourlyReportPresentationControl.html" xlink:actuate="onRequest" xlink:href="HourlyReportPresentationControl.html" xlink:show="new" xlink:title="HourlyReportPresentationControl.html" xlink:type="simple"><rect codeLine="3" fill="#FEFECE" filter="url(#fxw7f20i3am4a)" height="48" id="it.tidalwave.accounting.ui.hourlyreport.HourlyReportPresentationControl" style="stroke: #A80036; stroke-width: 1.5;" width="220" x="325" y="52.5"/><ellipse cx="340" cy="68.5" fill="#B4A7E5" rx="11" ry="11" style="stroke: #A80036; stroke-width: 1.0;"/><path d="M336.4277,64.7651 L336.4277,62.6069 L343.8071,62.6069 L343.8071,64.7651 L341.3418,64.7651 L341.3418,72.8418 L343.8071,72.8418 L343.8071,75 L336.4277,75 L336.4277,72.8418 L338.8931,72.8418 L338.8931,64.7651 Z "/><text fill="#000000" font-family="sans-serif" font-size="12" font-style="italic" lengthAdjust="spacingAndGlyphs" textLength="188" x="354" y="73.0352">HourlyReportPresentationControl</text><line style="stroke: #A80036; stroke-width: 1.5;" x1="326" x2="544" y1="84.5" y2="84.5"/><line style="stroke: #A80036; stroke-width: 1.5;" x1="326" x2="544" y1="92.5" y2="92.5"/></a><!--MD5=[70b805dc0b73cd72ced2d4327b45651d]
class it.tidalwave.accounting.ui.hourlyreport.HourlyReportPresentation--><a href="HourlyReportPresentation.html" target="_top" title="HourlyReportPresentation.html" xlink:actuate="onRequest" xlink:href="HourlyReportPresentation.html" xlink:show="new" xlink:title="HourlyReportPresentation.html" xlink:type="simple"><rect codeLine="5" fill="#FEFECE" filter="url(#fxw7f20i3am4a)" height="86.8652" id="it.tidalwave.accounting.ui.hourlyreport.HourlyReportPresentation" style="stroke: #A80036; stroke-width: 1.5;" width="266" x="24" y="33"/><ellipse cx="79.25" cy="49" fill="#B4A7E5" rx="11" ry="11" style="stroke: #A80036; stroke-width: 1.0;"/><path d="M75.6777,45.2651 L75.6777,43.1069 L83.0571,43.1069 L83.0571,45.2651 L80.5918,45.2651 L80.5918,53.3418 L83.0571,53.3418 L83.0571,55.5 L75.6777,55.5 L75.6777,53.3418 L78.1431,53.3418 L78.1431,45.2651 Z "/><text fill="#000000" font-family="sans-serif" font-size="12" font-style="italic" lengthAdjust="spacingAndGlyphs" textLength="147" x="99.75" y="53.5352">HourlyReportPresentation</text><line style="stroke: #A80036; stroke-width: 1.5;" x1="25" x2="289" y1="65" y2="65"/><line style="stroke: #A80036; stroke-width: 1.5;" x1="25" x2="289" y1="73" y2="73"/><ellipse cx="35" cy="84" fill="#84BE84" rx="3" ry="3" style="stroke: #038048; stroke-width: 1.0;"/><text fill="#000000" font-family="sans-serif" font-size="11" font-style="italic" lengthAdjust="spacingAndGlyphs" textLength="61" x="44" y="87.6348">bind(): void</text><ellipse cx="35" cy="96.9551" fill="#84BE84" rx="3" ry="3" style="stroke: #038048; stroke-width: 1.0;"/><text fill="#000000" font-family="sans-serif" font-size="11" font-style="italic" lengthAdjust="spacingAndGlyphs" textLength="240" x="44" y="100.5898">showUp(UserNotificationWithFeedback): void</text><ellipse cx="35" cy="109.9102" fill="#84BE84" rx="3" ry="3" style="stroke: #038048; stroke-width: 1.0;"/><text fill="#000000" font-family="sans-serif" font-size="11" font-style="italic" lengthAdjust="spacingAndGlyphs" textLength="183" x="44" y="113.5449">populate(PresentationModel): void</text></a><text fill="#888888" font-family="sans-serif" font-size="10" lengthAdjust="spacingAndGlyphs" textLength="188" x="184.5" y="143.668">UMLDoclet 2.0.12, PlantUML 1.2020.16</text><!--MD5=[04b58d53ee75c11223d636eff4a4a26e]
@startuml
    namespace it.tidalwave.accounting.ui.hourlyreport {

        interface HourlyReportPresentationControl [[HourlyReportPresentationControl.html]]

        interface HourlyReportPresentation [[HourlyReportPresentation.html]] {
            {abstract} +bind(): void
            {abstract} +showUp(UserNotificationWithFeedback): void
            {abstract} +populate(PresentationModel): void
        }

    }

    center footer UMLDoclet 2.0.12, PlantUML 1.2020.16
@enduml

PlantUML version 1.2020.16(Sun Aug 23 22:20:43 CEST 2020)
(APACHE source distribution)
Java Runtime: OpenJDK Runtime Environment
JVM: OpenJDK 64-Bit Server VM
Default Encoding: UTF-8
Language: en
Country: GB
--></g></svg>