<?xml version="1.0" encoding="UTF-8" standalone="no"?><svg xmlns="http://www.w3.org/2000/svg" xmlns:xlink="http://www.w3.org/1999/xlink" contentScriptType="application/ecmascript" contentStyleType="text/css" height="148px" preserveAspectRatio="none" style="width:637px;height:148px;" version="1.1" viewBox="0 0 637 148" width="637px" zoomAndPan="magnify"><defs><filter height="300%" id="f19xcwmuresf03" width="300%" x="-1" y="-1"><feGaussianBlur result="blurOut" stdDeviation="2.0"/><feColorMatrix in="blurOut" result="blurOut2" type="matrix" values="0 0 0 0 0 0 0 0 0 0 0 0 0 0 0 0 0 0 .4 0"/><feOffset dx="4.0" dy="4.0" in="blurOut2" result="blurOut3"/><feBlend in="SourceGraphic" in2="blurOut3" mode="normal"/></filter></defs><g><!--MD5=[bad8892982a730835e354de2cc865493]
class it.tidalwave.northernwind.frontend.media.impl.DefaultMetadataCacheTest--><a href="DefaultMetadataCacheTest.html" target="_top" title="DefaultMetadataCacheTest.html" xlink:actuate="onRequest" xlink:href="DefaultMetadataCacheTest.html" xlink:show="new" xlink:title="DefaultMetadataCacheTest.html" xlink:type="simple"><rect codeLine="5" fill="#FEFECE" filter="url(#f19xcwmuresf03)" height="111.041" id="it.tidalwave.northernwind.frontend.media.impl.DefaultMetadataCacheTest" style="stroke: #A80036; stroke-width: 1.5;" width="611" x="7" y="7"/><ellipse cx="194.75" cy="26.1328" fill="#ADD1B2" rx="11" ry="11" style="stroke: #A80036; stroke-width: 1.0;"/><path d="M197.2231,32.2759 Q196.6421,32.5747 196.0029,32.7241 Q195.3638,32.8735 194.6582,32.8735 Q192.1514,32.8735 190.8315,31.2217 Q189.5117,29.5698 189.5117,26.4487 Q189.5117,23.3193 190.8315,21.6675 Q192.1514,20.0156 194.6582,20.0156 Q195.3638,20.0156 196.0112,20.165 Q196.6587,20.3145 197.2231,20.6133 L197.2231,23.3359 Q196.5923,22.7549 195.9988,22.4851 Q195.4053,22.2153 194.7744,22.2153 Q193.4297,22.2153 192.7449,23.282 Q192.0601,24.3486 192.0601,26.4487 Q192.0601,28.5405 192.7449,29.6072 Q193.4297,30.6738 194.7744,30.6738 Q195.4053,30.6738 195.9988,30.4041 Q196.5923,30.1343 197.2231,29.5532 Z "/><text fill="#000000" font-family="sans-serif" font-size="14" lengthAdjust="spacingAndGlyphs" textLength="183" x="237.25" y="25.5352">DefaultMetadataCacheTest</text><text fill="#000000" font-family="sans-serif" font-size="10" lengthAdjust="spacingAndGlyphs" textLength="227" x="215.25" y="38.1563">it.tidalwave.northernwind.frontend.media.impl</text><line style="stroke: #A80036; stroke-width: 1.5;" x1="8" x2="617" y1="45.2656" y2="45.2656"/><ellipse cx="18" cy="56.2656" fill="#84BE84" rx="3" ry="3" style="stroke: #038048; stroke-width: 1.0;"/><text fill="#000000" font-family="sans-serif" font-size="11" lengthAdjust="spacingAndGlyphs" textLength="67" x="27" y="59.9004">setup(): void</text><ellipse cx="18" cy="69.2207" fill="#84BE84" rx="3" ry="3" style="stroke: #038048; stroke-width: 1.0;"/><text fill="#000000" font-family="sans-serif" font-size="11" lengthAdjust="spacingAndGlyphs" textLength="313" x="27" y="72.8555">must_correctly_load_metadata_when_not_in_cache(): void</text><ellipse cx="18" cy="82.1758" fill="#84BE84" rx="3" ry="3" style="stroke: #038048; stroke-width: 1.0;"/><text fill="#000000" font-family="sans-serif" font-size="11" lengthAdjust="spacingAndGlyphs" textLength="554" x="27" y="85.8105">must_cache_the_same_instance_within_expiration_time_without_checking_for_file_modification(): void</text><ellipse cx="18" cy="95.1309" fill="#84BE84" rx="3" ry="3" style="stroke: #038048; stroke-width: 1.0;"/><text fill="#000000" font-family="sans-serif" font-size="11" lengthAdjust="spacingAndGlyphs" textLength="585" x="27" y="98.7656">must_check_file_modification_after_expiration_time_and_still_keep_in_cache_when_no_modifications(): void</text><ellipse cx="18" cy="108.0859" fill="#84BE84" rx="3" ry="3" style="stroke: #038048; stroke-width: 1.0;"/><text fill="#000000" font-family="sans-serif" font-size="11" lengthAdjust="spacingAndGlyphs" textLength="445" x="27" y="111.7207">must_reload_metadata_after_expiration_time_when_file_has_been_changed(): void</text></a><text fill="#888888" font-family="sans-serif" font-size="10" lengthAdjust="spacingAndGlyphs" textLength="188" x="218.5" y="134.709">UMLDoclet 2.0.12, PlantUML 1.2020.16</text><!--MD5=[d67472ed2f79b75b27ca1b94a4ebdcf6]
@startuml
    set namespaceSeparator none
    hide empty fields
    hide empty methods

    class "<size:14>DefaultMetadataCacheTest\n<size:10>it.tidalwave.northernwind.frontend.media.impl" as it.tidalwave.northernwind.frontend.media.impl.DefaultMetadataCacheTest [[DefaultMetadataCacheTest.html]] {
        +setup(): void
        +must_correctly_load_metadata_when_not_in_cache(): void
        +must_cache_the_same_instance_within_expiration_time_without_checking_for_file_modification(): void
        +must_check_file_modification_after_expiration_time_and_still_keep_in_cache_when_no_modifications(): void
        +must_reload_metadata_after_expiration_time_when_file_has_been_changed(): void
    }

    center footer UMLDoclet 2.0.12, PlantUML 1.2020.16
@enduml

PlantUML version 1.2020.16(Sun Aug 23 22:20:43 CEST 2020)
(APACHE source distribution)
Java Runtime: OpenJDK Runtime Environment
JVM: OpenJDK 64-Bit Server VM
Default Encoding: UTF-8
Language: en
Country: GB
--></g></svg>