@startuml
    set namespaceSeparator none
    hide empty fields
    hide empty methods

    class "<size:14>DefaultBlogViewController.TagAndCount\n<size:10>it.tidalwave.northernwind.frontend.ui.component.blog" as it.tidalwave.northernwind.frontend.ui.component.blog.DefaultBlogViewController.TagAndCount [[DefaultBlogViewController.TagAndCount.html]] {
        +tag: String
        +count: int
        +rank: String
        +TagAndCount(String)
        +reduced(TagAndCount): TagAndCount
    }

    abstract class "<size:14>DefaultBlogViewController\n<size:10>it.tidalwave.northernwind.frontend.ui.component.blog" as it.tidalwave.northernwind.frontend.ui.component.blog.DefaultBlogViewController [[DefaultBlogViewController.html]] {
        {abstract} #renderPosts(List<Content>, List<Content>, List<Content>): void
        {abstract} #renderTagCloud(Collection<TagAndCount>): void
    }

    it.tidalwave.northernwind.frontend.ui.component.blog.DefaultBlogViewController +-- it.tidalwave.northernwind.frontend.ui.component.blog.DefaultBlogViewController.TagAndCount

    center footer UMLDoclet 2.0.12, PlantUML 1.2020.16
@enduml
