@startuml
    namespace it.tidalwave.northernwind.frontend.ui.component.htmltextwithtitle.htmltemplate {

        class HtmlTemplateHtmlTextWithTitleView [[HtmlTemplateHtmlTextWithTitleView.html]] {
            +HtmlTemplateHtmlTextWithTitleView(Id, Site)
            +render(Optional<ResourcePath>, Optional<ResourcePath>, Aggregates): void
        }

        class HtmlTemplateHtmlTextWithTitleViewController [[HtmlTemplateHtmlTextWithTitleViewController.html]] {
            +HtmlTemplateHtmlTextWithTitleViewController(HtmlTemplateHtmlTextWithTitleView, SiteNode)
            #render(List<? extends TextWithTitle>): void
        }

        it.tidalwave.northernwind.frontend.ui.component.htmltemplate.HtmlHolder <|-- HtmlTemplateHtmlTextWithTitleView
        it.tidalwave.northernwind.frontend.ui.component.htmltextwithtitle.HtmlTextWithTitleView <|.. HtmlTemplateHtmlTextWithTitleView
        it.tidalwave.northernwind.frontend.ui.component.htmltextwithtitle.DefaultHtmlTextWithTitleViewController <|-- HtmlTemplateHtmlTextWithTitleViewController
    }

    namespace it.tidalwave.northernwind.frontend.ui.component.htmltemplate {
        class HtmlHolder [[../../htmltemplate/HtmlHolder.html]]
    }

    namespace it.tidalwave.northernwind.frontend.ui.component.htmltextwithtitle {
        interface HtmlTextWithTitleView [[http://tidalwave.it/projects/northernwind/it-tidalwave-northernwind-modules/it-tidalwave-northernwind-frontend-components/apidocs/it/tidalwave/northernwind/frontend/ui/component/htmltextwithtitle/HtmlTextWithTitleView.html?is-external=true]] {
            {abstract} +setClassName(String): void
        }
        abstract class DefaultHtmlTextWithTitleViewController [[http://tidalwave.it/projects/northernwind/it-tidalwave-northernwind-modules/it-tidalwave-northernwind-frontend-components/apidocs/it/tidalwave/northernwind/frontend/ui/component/htmltextwithtitle/DefaultHtmlTextWithTitleViewController.html?is-external=true]] {
            {abstract} #render(List<? extends TextWithTitle>): void
        }
    }

    center footer UMLDoclet 2.0.12, PlantUML 1.2020.16
@enduml
