GROUP,PACKAGE,CLASS,INSTRUCTION_MISSED,INSTRUCTION_COVERED,BRANCH_MISSED,BRANCH_COVERED,LINE_MISSED,LINE_COVERED,COMPLEXITY_MISSED,COMPLEXITY_COVERED,METHOD_MISSED,METHOD_COVERED
SteelBlue :: Examples :: JavaFX presentation/it-tidalwave-ui-example-presentation,it.tidalwave.ui.example.presentation.impl,DefaultMainPanelPresentationControl,8,419,0,0,3,65,1,30,1,30
SteelBlue :: Examples :: JavaFX presentation/it-tidalwave-ui-example-presentation,it.tidalwave.ui.example.presentation.impl,FileEntityPresentable,0,124,0,0,0,18,0,6,0,6
SteelBlue :: Examples :: JavaFX presentation/it-tidalwave-ui-example-presentation,it.tidalwave.ui.example.presentation.impl,MainPanelUserActionProvider,17,0,0,0,1,0,1,0,1,0
SteelBlue :: Examples :: JavaFX presentation/it-tidalwave-ui-example-model,it.tidalwave.ui.example.model,SimpleEntity,0,10,0,0,0,1,0,1,0,1
SteelBlue :: Examples :: JavaFX presentation/it-tidalwave-ui-example-model,it.tidalwave.ui.example.model,FileEntity,36,39,1,1,5,8,6,5,5,5
SteelBlue :: Examples :: JavaFX presentation/it-tidalwave-ui-example-model,it.tidalwave.ui.example.model,FileEntity.FileEntityFinder,44,0,0,0,9,0,2,0,2,0
SteelBlue :: Examples :: JavaFX presentation/it-tidalwave-ui-example-model,it.tidalwave.ui.example.model,SimpleDciEntity,0,19,0,0,0,6,0,1,0,1
SteelBlue :: Examples :: JavaFX presentation/it-tidalwave-ui-example-model,it.tidalwave.ui.example.model.impl,DefaultDao,64,0,0,0,10,0,5,0,5,0
SteelBlue :: Examples :: JavaFX presentation/it-tidalwave-ui-javafx,it.tidalwave.ui.javafx.impl.tree,TreeViewBindings,46,12,0,0,8,4,2,2,2,2
SteelBlue :: Examples :: JavaFX presentation/it-tidalwave-ui-javafx,it.tidalwave.ui.javafx.impl.tree,ObsoletePresentationModelDisposer,0,36,1,3,0,11,1,5,0,4
SteelBlue :: Examples :: JavaFX presentation/it-tidalwave-ui-javafx,it.tidalwave.ui.javafx.impl.tree,AsObjectTreeCell,11,0,0,0,3,0,1,0,1,0
SteelBlue :: Examples :: JavaFX presentation/it-tidalwave-ui-javafx,it.tidalwave.ui.javafx.impl.combobox,ComboBoxBindings,101,25,4,0,25,7,9,2,7,2
SteelBlue :: Examples :: JavaFX presentation/it-tidalwave-ui-javafx,it.tidalwave.ui.javafx.impl.common,PresentationModelTreeItem,11,0,0,0,3,0,2,0,2,0
SteelBlue :: Examples :: JavaFX presentation/it-tidalwave-ui-javafx,it.tidalwave.ui.javafx.impl.common,PropertyAdapter,198,0,4,0,49,0,22,0,20,0
SteelBlue :: Examples :: JavaFX presentation/it-tidalwave-ui-javafx,it.tidalwave.ui.javafx.impl.common,TreeItemDelegateSupport,125,20,2,0,28,5,12,2,11,2
SteelBlue :: Examples :: JavaFX presentation/it-tidalwave-ui-javafx,it.tidalwave.ui.javafx.impl.common,RoleBag,44,35,0,0,7,9,5,4,5,4
SteelBlue :: Examples :: JavaFX presentation/it-tidalwave-ui-javafx,it.tidalwave.ui.javafx.impl.common,PresentationModelAsDelegateDecorator,53,0,2,0,8,0,6,0,5,0
SteelBlue :: Examples :: JavaFX presentation/it-tidalwave-ui-javafx,it.tidalwave.ui.javafx.impl.common,EventHandlerUserActionAdapter,0,10,0,0,0,2,0,1,0,1
SteelBlue :: Examples :: JavaFX presentation/it-tidalwave-ui-javafx,it.tidalwave.ui.javafx.impl.common,JavaFXWorker,109,0,2,0,25,0,12,0,11,0
SteelBlue :: Examples :: JavaFX presentation/it-tidalwave-ui-javafx,it.tidalwave.ui.javafx.impl.common,DefaultCellBinder,220,46,12,0,47,9,22,4,16,4
SteelBlue :: Examples :: JavaFX presentation/it-tidalwave-ui-javafx,it.tidalwave.ui.javafx.impl.common,ChangeListenerSelectableAdapter,1,36,2,2,0,7,2,6,0,6
SteelBlue :: Examples :: JavaFX presentation/it-tidalwave-ui-javafx,it.tidalwave.ui.javafx.impl.common,PresentationModelObservable,65,0,0,0,12,0,9,0,9,0
SteelBlue :: Examples :: JavaFX presentation/it-tidalwave-ui-javafx,it.tidalwave.ui.javafx.impl.common,DelegateSupport,54,0,0,0,16,0,3,0,3,0
SteelBlue :: Examples :: JavaFX presentation/it-tidalwave-ui-javafx,it.tidalwave.ui.javafx.impl.dialog,DialogBindings,224,8,12,0,51,3,10,2,4,2
SteelBlue :: Examples :: JavaFX presentation/it-tidalwave-ui-javafx,it.tidalwave.ui.javafx.impl.dialog,DialogBindings.UrlOpener,32,0,4,0,10,0,4,0,2,0
SteelBlue :: Examples :: JavaFX presentation/it-tidalwave-ui-javafx,it.tidalwave.ui.javafx.impl.tableview,AsObjectTableCell,11,0,0,0,3,0,1,0,1,0
SteelBlue :: Examples :: JavaFX presentation/it-tidalwave-ui-javafx,it.tidalwave.ui.javafx.impl.tableview,TableViewBindings,76,19,0,0,17,5,6,2,6,2
SteelBlue :: Examples :: JavaFX presentation/it-tidalwave-ui-javafx,it.tidalwave.ui.javafx.impl.list,AsObjectListCell,11,0,0,0,3,0,1,0,1,0
SteelBlue :: Examples :: JavaFX presentation/it-tidalwave-ui-javafx,it.tidalwave.ui.javafx.impl.list,ListViewBindings,91,19,2,0,21,5,8,2,7,2
SteelBlue :: Examples :: JavaFX presentation/it-tidalwave-ui-javafx,it.tidalwave.ui.javafx,JavaFXSpringAnnotationApplication.MessageBusBeans,0,29,0,0,0,9,0,2,0,2
SteelBlue :: Examples :: JavaFX presentation/it-tidalwave-ui-javafx,it.tidalwave.ui.javafx,JavaFXSpringApplication,59,0,6,0,13,0,5,0,2,0
SteelBlue :: Examples :: JavaFX presentation/it-tidalwave-ui-javafx,it.tidalwave.ui.javafx,JavaFXSpringAnnotationApplication.Beans,0,15,0,0,0,6,0,6,0,6
SteelBlue :: Examples :: JavaFX presentation/it-tidalwave-ui-javafx,it.tidalwave.ui.javafx,JavaFXBinder,143,0,0,0,42,0,25,0,25,0
SteelBlue :: Examples :: JavaFX presentation/it-tidalwave-ui-javafx,it.tidalwave.ui.javafx,Splash,104,0,0,0,18,0,5,0,5,0
SteelBlue :: Examples :: JavaFX presentation/it-tidalwave-ui-javafx,it.tidalwave.ui.javafx,NodeAndDelegate,102,4,4,0,19,1,4,1,2,1
SteelBlue :: Examples :: JavaFX presentation/it-tidalwave-ui-javafx,it.tidalwave.ui.javafx,JavaFXSafeProxyCreator,140,76,6,0,34,20,7,1,4,1
SteelBlue :: Examples :: JavaFX presentation/it-tidalwave-ui-javafx,it.tidalwave.ui.javafx,JavaFXSpringAnnotationApplication,0,46,0,2,0,9,0,3,0,2
SteelBlue :: Examples :: JavaFX presentation/it-tidalwave-ui-javafx,it.tidalwave.ui.javafx,StackPaneSelector,81,12,6,0,19,3,8,2,5,2
SteelBlue :: Examples :: JavaFX presentation/it-tidalwave-ui-javafx,it.tidalwave.ui.javafx,JavaFXApplicationWithSplash,246,41,8,0,53,11,15,2,11,2
SteelBlue :: Examples :: JavaFX presentation/it-tidalwave-ui-javafx,it.tidalwave.ui.javafx.impl.filechooser,FileChooserBindings,104,8,2,0,26,3,7,2,6,2
SteelBlue :: Examples :: JavaFX presentation/it-tidalwave-ui-javafx,it.tidalwave.ui.javafx.spi,AbstractJavaFXSpringApplication,95,134,3,5,22,33,7,13,5,11
SteelBlue :: Examples :: JavaFX presentation/it-tidalwave-ui-javafx,it.tidalwave.ui.javafx.spi,AbstractJavaFXSpringApplication.InitParameters,39,0,4,0,7,0,5,0,3,0
SteelBlue :: Examples :: JavaFX presentation/it-tidalwave-ui-javafx,it.tidalwave.ui.javafx.role,CustomGraphicProvider,0,3,0,0,0,1,0,1,0,1
SteelBlue :: Examples :: JavaFX presentation/it-tidalwave-ui-javafx,it.tidalwave.ui.javafx.impl,DefaultJavaFXToolBarControl,16,4,0,0,5,1,2,1,2,1
SteelBlue :: Examples :: JavaFX presentation/it-tidalwave-ui-javafx,it.tidalwave.ui.javafx.impl,DefaultJavaFXBinder,127,77,4,0,22,14,14,2,12,2
SteelBlue :: Examples :: JavaFX presentation/it-tidalwave-ui-javafx,it.tidalwave.ui.javafx.impl,DefaultJavaFXMenuBarControl,34,4,0,0,10,1,4,1,4,1
SteelBlue :: Examples :: JavaFX presentation/it-tidalwave-ui-javafx,it.tidalwave.ui.javafx.impl.button,ButtonBindings,300,10,8,0,55,3,21,2,17,2
SteelBlue :: Examples :: JavaFX presentation/it-tidalwave-ui-javafx,it.tidalwave.ui.javafx.impl.util,Logging,167,0,22,0,37,0,17,0,6,0
SteelBlue :: Examples :: JavaFX presentation/it-tidalwave-ui-javafx,it.tidalwave.ui.javafx.impl.util,JavaFXSafeComponentBuilder,260,0,14,0,58,0,16,0,9,0
SteelBlue :: Examples :: JavaFX presentation/it-tidalwave-ui-javafx,it.tidalwave.ui.javafx.impl.util,JavaFXSafeRunner,26,0,2,0,12,0,4,0,3,0
SteelBlue :: Examples :: JavaFX presentation/it-tidalwave-ui-javafx,it.tidalwave.ui.javafx.impl.util,JavaFXPresentationBuilder,24,0,0,0,5,0,2,0,2,0
SteelBlue :: Examples :: JavaFX presentation/it-tidalwave-ui-javafx,it.tidalwave.ui.javafx.impl.util,JavaFXSafeProxy,135,0,12,0,31,0,10,0,4,0
SteelBlue :: Examples :: JavaFX presentation/it-tidalwave-ui-javafx,it.tidalwave.ui.javafx.impl.treetable,AsObjectTreeTableCell,11,0,0,0,3,0,1,0,1,0
SteelBlue :: Examples :: JavaFX presentation/it-tidalwave-ui-javafx,it.tidalwave.ui.javafx.impl.treetable,TreeTableViewBindings,67,12,2,0,15,4,4,2,3,2
