<?xml version="1.0" encoding="UTF-8" standalone="no"?><svg xmlns="http://www.w3.org/2000/svg" xmlns:xlink="http://www.w3.org/1999/xlink" contentScriptType="application/ecmascript" contentStyleType="text/css" height="388px" preserveAspectRatio="none" style="width:2115px;height:388px;" version="1.1" viewBox="0 0 2115 388" width="2115px" zoomAndPan="magnify"><defs><filter height="300%" id="f2czkmfjm3niz" width="300%" x="-1" y="-1"><feGaussianBlur result="blurOut" stdDeviation="2.0"/><feColorMatrix in="blurOut" result="blurOut2" type="matrix" values="0 0 0 0 0 0 0 0 0 0 0 0 0 0 0 0 0 0 .4 0"/><feOffset dx="4.0" dy="4.0" in="blurOut2" result="blurOut3"/><feBlend in="SourceGraphic" in2="blurOut3" mode="normal"/></filter></defs><g><!--MD5=[a70ee3ac80eee6dd29f137b5d9529290]
cluster it.tidalwave.northernwind.frontend.ui.spi--><polygon fill="#FFFFFF" filter="url(#f2czkmfjm3niz)" points="271,198,567,198,574,220.4883,2093,220.4883,2093,359,271,359,271,198" style="stroke: #000000; stroke-width: 1.5;"/><line style="stroke: #000000; stroke-width: 1.5;" x1="271" x2="574" y1="220.4883" y2="220.4883"/><text fill="#000000" font-family="sans-serif" font-size="14" font-weight="bold" lengthAdjust="spacingAndGlyphs" textLength="290" x="275" y="213.5352">it.tidalwave.northernwind.frontend.ui.spi</text><!--MD5=[90c2144f63705a3044483f7c3d43505d]
cluster it.tidalwave.northernwind.frontend.ui--><polygon fill="#FFFFFF" filter="url(#f2czkmfjm3niz)" points="177,12.5,448,12.5,455,34.9883,732,34.9883,732,160.5,177,160.5,177,12.5" style="stroke: #000000; stroke-width: 1.5;"/><line style="stroke: #000000; stroke-width: 1.5;" x1="177" x2="455" y1="34.9883" y2="34.9883"/><text fill="#000000" font-family="sans-serif" font-size="14" font-weight="bold" lengthAdjust="spacingAndGlyphs" textLength="265" x="181" y="28.0352">it.tidalwave.northernwind.frontend.ui</text><!--MD5=[739e9bb822fe15eb97bc3207575fcd8d]
cluster it.tidalwave.northernwind.core.model--><polygon fill="#FFFFFF" filter="url(#f2czkmfjm3niz)" points="749,6,1019,6,1026,28.4883,1029,28.4883,1029,167,749,167,749,6" style="stroke: #000000; stroke-width: 1.5;"/><line style="stroke: #000000; stroke-width: 1.5;" x1="749" x2="1026" y1="28.4883" y2="28.4883"/><text fill="#000000" font-family="sans-serif" font-size="14" font-weight="bold" lengthAdjust="spacingAndGlyphs" textLength="264" x="753" y="21.5352">it.tidalwave.northernwind.core.model</text><!--MD5=[60b45cd5b5ff4aa4048d68cb57ef70a5]
cluster it.tidalwave.role.Composite--><polygon fill="#FFFFFF" filter="url(#f2czkmfjm3niz)" points="1475,45,1676,45,1683,67.4883,1686,67.4883,1686,128,1475,128,1475,45" style="stroke: #000000; stroke-width: 1.5;"/><line style="stroke: #000000; stroke-width: 1.5;" x1="1475" x2="1683" y1="67.4883" y2="67.4883"/><text fill="#000000" font-family="sans-serif" font-size="14" font-weight="bold" lengthAdjust="spacingAndGlyphs" textLength="195" x="1479" y="60.5352">it.tidalwave.role.Composite</text><!--MD5=[f0030b94b93e428b59aaff5f631ac5a3]
class it.tidalwave.northernwind.frontend.ui.spi.DefaultRenderContext--><a href="DefaultRenderContext.html" target="_top" title="DefaultRenderContext.html" xlink:actuate="onRequest" xlink:href="DefaultRenderContext.html" xlink:show="new" xlink:title="DefaultRenderContext.html" xlink:type="simple"><rect codeLine="3" fill="#FEFECE" filter="url(#f2czkmfjm3niz)" height="48" id="it.tidalwave.northernwind.frontend.ui.spi.DefaultRenderContext" style="stroke: #A80036; stroke-width: 1.5;" width="159" x="278.5" y="264"/><ellipse cx="293.5" cy="280" fill="#ADD1B2" rx="11" ry="11" style="stroke: #A80036; stroke-width: 1.0;"/><path d="M295.9731,286.1431 Q295.3921,286.4419 294.7529,286.5913 Q294.1138,286.7407 293.4082,286.7407 Q290.9014,286.7407 289.5815,285.0889 Q288.2617,283.437 288.2617,280.3159 Q288.2617,277.1865 289.5815,275.5347 Q290.9014,273.8828 293.4082,273.8828 Q294.1138,273.8828 294.7612,274.0322 Q295.4087,274.1816 295.9731,274.4805 L295.9731,277.2031 Q295.3423,276.6221 294.7488,276.3523 Q294.1553,276.0825 293.5244,276.0825 Q292.1797,276.0825 291.4949,277.1492 Q290.8101,278.2158 290.8101,280.3159 Q290.8101,282.4077 291.4949,283.4744 Q292.1797,284.541 293.5244,284.541 Q294.1553,284.541 294.7488,284.2712 Q295.3423,284.0015 295.9731,283.4204 Z "/><text fill="#000000" font-family="sans-serif" font-size="12" lengthAdjust="spacingAndGlyphs" textLength="127" x="307.5" y="284.5352">DefaultRenderContext</text><line style="stroke: #A80036; stroke-width: 1.5;" x1="279.5" x2="436.5" y1="296" y2="296"/><line style="stroke: #A80036; stroke-width: 1.5;" x1="279.5" x2="436.5" y1="304" y2="304"/></a><!--MD5=[4192c39f8b1f990e1faa0800b547829d]
class it.tidalwave.northernwind.frontend.ui.spi.VirtualSiteNode--><a href="VirtualSiteNode.html" target="_top" title="VirtualSiteNode.html" xlink:actuate="onRequest" xlink:href="VirtualSiteNode.html" xlink:show="new" xlink:title="VirtualSiteNode.html" xlink:type="simple"><rect codeLine="6" fill="#FEFECE" filter="url(#f2czkmfjm3niz)" height="125.7305" id="it.tidalwave.northernwind.frontend.ui.spi.VirtualSiteNode" style="stroke: #A80036; stroke-width: 1.5;" width="252" x="763" y="225"/><ellipse cx="840.75" cy="241" fill="#ADD1B2" rx="11" ry="11" style="stroke: #A80036; stroke-width: 1.0;"/><path d="M843.2231,247.1431 Q842.6421,247.4419 842.0029,247.5913 Q841.3638,247.7407 840.6582,247.7407 Q838.1514,247.7407 836.8315,246.0889 Q835.5117,244.437 835.5117,241.3159 Q835.5117,238.1865 836.8315,236.5347 Q838.1514,234.8828 840.6582,234.8828 Q841.3638,234.8828 842.0112,235.0322 Q842.6587,235.1816 843.2231,235.4805 L843.2231,238.2031 Q842.5923,237.6221 841.9988,237.3523 Q841.4053,237.0825 840.7744,237.0825 Q839.4297,237.0825 838.7449,238.1492 Q838.0601,239.2158 838.0601,241.3159 Q838.0601,243.4077 838.7449,244.4744 Q839.4297,245.541 840.7744,245.541 Q841.4053,245.541 841.9988,245.2712 Q842.5923,245.0015 843.2231,244.4204 Z "/><text fill="#000000" font-family="sans-serif" font-size="12" lengthAdjust="spacingAndGlyphs" textLength="88" x="861.25" y="245.5352">VirtualSiteNode</text><line style="stroke: #A80036; stroke-width: 1.5;" x1="764" x2="1014" y1="257" y2="257"/><line style="stroke: #A80036; stroke-width: 1.5;" x1="764" x2="1014" y1="265" y2="265"/><ellipse cx="774" cy="276" fill="#84BE84" rx="3" ry="3" style="stroke: #038048; stroke-width: 1.0;"/><text fill="#000000" font-family="sans-serif" font-size="11" lengthAdjust="spacingAndGlyphs" textLength="69" x="783" y="279.6348">getSite(): Site</text><ellipse cx="774" cy="288.9551" fill="#84BE84" rx="3" ry="3" style="stroke: #038048; stroke-width: 1.0;"/><text fill="#000000" font-family="sans-serif" font-size="11" lengthAdjust="spacingAndGlyphs" textLength="103" x="783" y="292.5898">getLayout(): Layout</text><ellipse cx="774" cy="301.9102" fill="#84BE84" rx="3" ry="3" style="stroke: #038048; stroke-width: 1.0;"/><text fill="#000000" font-family="sans-serif" font-size="11" lengthAdjust="spacingAndGlyphs" textLength="117" x="783" y="305.5449">getFile(): ResourceFile</text><ellipse cx="774" cy="314.8652" fill="#84BE84" rx="3" ry="3" style="stroke: #038048; stroke-width: 1.0;"/><text fill="#000000" font-family="sans-serif" font-size="11" lengthAdjust="spacingAndGlyphs" textLength="226" x="783" y="318.5">getPropertyGroup(Id): ResourceProperties</text><ellipse cx="774" cy="327.8203" fill="#84BE84" rx="3" ry="3" style="stroke: #038048; stroke-width: 1.0;"/><text fill="#000000" font-family="sans-serif" font-size="11" lengthAdjust="spacingAndGlyphs" textLength="129" x="783" y="331.4551">isPlaceHolder(): boolean</text><ellipse cx="774" cy="340.7754" fill="#84BE84" rx="3" ry="3" style="stroke: #038048; stroke-width: 1.0;"/><text fill="#000000" font-family="sans-serif" font-size="11" lengthAdjust="spacingAndGlyphs" textLength="180" x="783" y="344.4102">findChildren(): Finder&lt;SiteNode&gt;</text></a><!--MD5=[8bae9c5db476746114b52e8cb58d9089]
class it.tidalwave.northernwind.frontend.ui.spi.NodeViewRenderer--><a href="NodeViewRenderer.html" target="_top" title="NodeViewRenderer.html" xlink:actuate="onRequest" xlink:href="NodeViewRenderer.html" xlink:show="new" xlink:title="NodeViewRenderer.html" xlink:type="simple"><rect codeLine="15" fill="#FEFECE" filter="url(#f2czkmfjm3niz)" height="86.8652" id="it.tidalwave.northernwind.frontend.ui.spi.NodeViewRenderer" style="stroke: #A80036; stroke-width: 1.5;" width="559" x="1050.5" y="244.5"/><ellipse cx="1263.75" cy="260.5" fill="#ADD1B2" rx="11" ry="11" style="stroke: #A80036; stroke-width: 1.0;"/><path d="M1266.2231,266.6431 Q1265.6421,266.9419 1265.0029,267.0913 Q1264.3638,267.2407 1263.6582,267.2407 Q1261.1514,267.2407 1259.8315,265.5889 Q1258.5117,263.937 1258.5117,260.8159 Q1258.5117,257.6865 1259.8315,256.0347 Q1261.1514,254.3828 1263.6582,254.3828 Q1264.3638,254.3828 1265.0112,254.5322 Q1265.6587,254.6816 1266.2231,254.9805 L1266.2231,257.7031 Q1265.5923,257.1221 1264.9988,256.8523 Q1264.4053,256.5825 1263.7744,256.5825 Q1262.4297,256.5825 1261.7449,257.6492 Q1261.0601,258.7158 1261.0601,260.8159 Q1261.0601,262.9077 1261.7449,263.9744 Q1262.4297,265.041 1263.7744,265.041 Q1264.4053,265.041 1264.9988,264.7712 Q1265.5923,264.5015 1266.2231,263.9204 Z "/><text fill="#000000" font-family="sans-serif" font-size="12" lengthAdjust="spacingAndGlyphs" textLength="112" x="1284.25" y="265.0352">NodeViewRenderer</text><rect fill="#FFFFFF" height="16.1328" style="stroke: #000000; stroke-width: 1.0; stroke-dasharray: 2.0,2.0;" width="10" x="1602.5" y="241.5"/><text fill="#000000" font-family="sans-serif" font-size="12" font-style="italic" lengthAdjust="spacingAndGlyphs" textLength="8" x="1603.5" y="254.1016">T</text><line style="stroke: #A80036; stroke-width: 1.5;" x1="1051.5" x2="1608.5" y1="276.5" y2="276.5"/><line style="stroke: #A80036; stroke-width: 1.5;" x1="1051.5" x2="1608.5" y1="284.5" y2="284.5"/><ellipse cx="1061.5" cy="295.5" fill="#84BE84" rx="3" ry="3" style="stroke: #038048; stroke-width: 1.0;"/><text fill="#000000" font-family="sans-serif" font-size="11" lengthAdjust="spacingAndGlyphs" textLength="533" x="1070.5" y="299.1348">NodeViewRenderer(Request, RequestContext, ViewAndControllerLayoutBuilder, BiConsumer&lt;T, T&gt;)</text><ellipse cx="1061.5" cy="308.4551" fill="#84BE84" rx="3" ry="3" style="stroke: #038048; stroke-width: 1.0;"/><text fill="#000000" font-family="sans-serif" font-size="11" lengthAdjust="spacingAndGlyphs" textLength="114" x="1070.5" y="312.0898">preVisit(Layout): void</text><ellipse cx="1061.5" cy="321.4102" fill="#84BE84" rx="3" ry="3" style="stroke: #038048; stroke-width: 1.0;"/><text fill="#000000" font-family="sans-serif" font-size="11" lengthAdjust="spacingAndGlyphs" textLength="120" x="1070.5" y="325.0449">postVisit(Layout): void</text></a><!--MD5=[4309f9841cf9fc2cf337b1e548886f2e]
class it.tidalwave.northernwind.frontend.ui.spi.ViewAndControllerLayoutBuilder--><a href="ViewAndControllerLayoutBuilder.html" target="_top" title="ViewAndControllerLayoutBuilder.html" xlink:actuate="onRequest" xlink:href="ViewAndControllerLayoutBuilder.html" xlink:show="new" xlink:title="ViewAndControllerLayoutBuilder.html" xlink:type="simple"><rect codeLine="21" fill="#FEFECE" filter="url(#f2czkmfjm3niz)" height="73.9102" id="it.tidalwave.northernwind.frontend.ui.spi.ViewAndControllerLayoutBuilder" style="stroke: #A80036; stroke-width: 1.5;" width="377" x="1644.5" y="251"/><ellipse cx="1737.25" cy="267" fill="#ADD1B2" rx="11" ry="11" style="stroke: #A80036; stroke-width: 1.0;"/><path d="M1739.7231,273.1431 Q1739.1421,273.4419 1738.5029,273.5913 Q1737.8638,273.7407 1737.1582,273.7407 Q1734.6514,273.7407 1733.3315,272.0889 Q1732.0117,270.437 1732.0117,267.3159 Q1732.0117,264.1865 1733.3315,262.5347 Q1734.6514,260.8828 1737.1582,260.8828 Q1737.8638,260.8828 1738.5112,261.0322 Q1739.1587,261.1816 1739.7231,261.4805 L1739.7231,264.2031 Q1739.0923,263.6221 1738.4988,263.3523 Q1737.9053,263.0825 1737.2744,263.0825 Q1735.9297,263.0825 1735.2449,264.1492 Q1734.5601,265.2158 1734.5601,267.3159 Q1734.5601,269.4077 1735.2449,270.4744 Q1735.9297,271.541 1737.2744,271.541 Q1737.9053,271.541 1738.4988,271.2712 Q1739.0923,271.0015 1739.7231,270.4204 Z "/><text fill="#000000" font-family="sans-serif" font-size="12" lengthAdjust="spacingAndGlyphs" textLength="183" x="1757.75" y="271.5352">ViewAndControllerLayoutBuilder</text><line style="stroke: #A80036; stroke-width: 1.5;" x1="1645.5" x2="2020.5" y1="283" y2="283"/><line style="stroke: #A80036; stroke-width: 1.5;" x1="1645.5" x2="2020.5" y1="291" y2="291"/><ellipse cx="1655.5" cy="302" fill="#84BE84" rx="3" ry="3" style="stroke: #038048; stroke-width: 1.0;"/><text fill="#000000" font-family="sans-serif" font-size="11" lengthAdjust="spacingAndGlyphs" textLength="95" x="1664.5" y="305.6348">visit(Layout): void</text><ellipse cx="1655.5" cy="314.9551" fill="#84BE84" rx="3" ry="3" style="stroke: #038048; stroke-width: 1.0;"/><text fill="#000000" font-family="sans-serif" font-size="11" lengthAdjust="spacingAndGlyphs" textLength="351" x="1664.5" y="318.5898">getViewAndControllerFor(Layout): Optional&lt;ViewAndController&gt;</text></a><!--MD5=[44e1982ca7d72b2bd8332f3ce4b2a5e1]
class it.tidalwave.northernwind.frontend.ui.spi.DefaultSiteViewController--><a href="DefaultSiteViewController.html" target="_top" title="DefaultSiteViewController.html" xlink:actuate="onRequest" xlink:href="DefaultSiteViewController.html" xlink:show="new" xlink:title="DefaultSiteViewController.html" xlink:type="simple"><rect codeLine="26" fill="#FEFECE" filter="url(#f2czkmfjm3niz)" height="60.9551" id="it.tidalwave.northernwind.frontend.ui.spi.DefaultSiteViewController" style="stroke: #A80036; stroke-width: 1.5;" width="255" x="472.5" y="257.5"/><ellipse cx="523.75" cy="273.5" fill="#ADD1B2" rx="11" ry="11" style="stroke: #A80036; stroke-width: 1.0;"/><path d="M526.2231,279.6431 Q525.6421,279.9419 525.0029,280.0913 Q524.3638,280.2407 523.6582,280.2407 Q521.1514,280.2407 519.8315,278.5889 Q518.5117,276.937 518.5117,273.8159 Q518.5117,270.6865 519.8315,269.0347 Q521.1514,267.3828 523.6582,267.3828 Q524.3638,267.3828 525.0112,267.5322 Q525.6587,267.6816 526.2231,267.9805 L526.2231,270.7031 Q525.5923,270.1221 524.9988,269.8523 Q524.4053,269.5825 523.7744,269.5825 Q522.4297,269.5825 521.7449,270.6492 Q521.0601,271.7158 521.0601,273.8159 Q521.0601,275.9077 521.7449,276.9744 Q522.4297,278.041 523.7744,278.041 Q524.4053,278.041 524.9988,277.7712 Q525.5923,277.5015 526.2231,276.9204 Z "/><text fill="#000000" font-family="sans-serif" font-size="12" lengthAdjust="spacingAndGlyphs" textLength="144" x="544.25" y="278.0352">DefaultSiteViewController</text><line style="stroke: #A80036; stroke-width: 1.5;" x1="473.5" x2="726.5" y1="289.5" y2="289.5"/><line style="stroke: #A80036; stroke-width: 1.5;" x1="473.5" x2="726.5" y1="297.5" y2="297.5"/><ellipse cx="483.5" cy="308.5" fill="#84BE84" rx="3" ry="3" style="stroke: #038048; stroke-width: 1.0;"/><text fill="#000000" font-family="sans-serif" font-size="11" lengthAdjust="spacingAndGlyphs" textLength="229" x="492.5" y="312.1348">processRequest(Request): RESPONSE_TYPE</text></a><!--MD5=[daa72ce8d1c746de5fc9e51335728674]
class it.tidalwave.northernwind.frontend.ui.RenderContext--><a href="../RenderContext.html" target="_top" title="../RenderContext.html" xlink:actuate="onRequest" xlink:href="../RenderContext.html" xlink:show="new" xlink:title="../RenderContext.html" xlink:type="simple"><rect codeLine="39" fill="#FEFECE" filter="url(#f2czkmfjm3niz)" height="112.7754" id="it.tidalwave.northernwind.frontend.ui.RenderContext" style="stroke: #A80036; stroke-width: 1.5;" width="256" x="185" y="39.5"/><ellipse cx="265.75" cy="55.5" fill="#B4A7E5" rx="11" ry="11" style="stroke: #A80036; stroke-width: 1.0;"/><path d="M262.1777,51.7651 L262.1777,49.6069 L269.5571,49.6069 L269.5571,51.7651 L267.0918,51.7651 L267.0918,59.8418 L269.5571,59.8418 L269.5571,62 L262.1777,62 L262.1777,59.8418 L264.6431,59.8418 L264.6431,51.7651 Z "/><text fill="#000000" font-family="sans-serif" font-size="12" font-style="italic" lengthAdjust="spacingAndGlyphs" textLength="86" x="286.25" y="60.0352">RenderContext</text><line style="stroke: #A80036; stroke-width: 1.5;" x1="186" x2="440" y1="71.5" y2="71.5"/><line style="stroke: #A80036; stroke-width: 1.5;" x1="186" x2="440" y1="79.5" y2="79.5"/><ellipse cx="196" cy="90.5" fill="#84BE84" rx="3" ry="3" style="stroke: #038048; stroke-width: 1.0;"/><text fill="#000000" font-family="sans-serif" font-size="11" font-style="italic" lengthAdjust="spacingAndGlyphs" textLength="117" x="205" y="94.1348">getRequest(): Request</text><ellipse cx="196" cy="103.4551" fill="#84BE84" rx="3" ry="3" style="stroke: #038048; stroke-width: 1.0;"/><text fill="#000000" font-family="sans-serif" font-size="11" font-style="italic" lengthAdjust="spacingAndGlyphs" textLength="203" x="205" y="107.0898">getRequestContext(): RequestContext</text><ellipse cx="196" cy="116.4102" fill="#84BE84" rx="3" ry="3" style="stroke: #038048; stroke-width: 1.0;"/><text fill="#000000" font-family="sans-serif" font-size="11" lengthAdjust="spacingAndGlyphs" textLength="230" x="205" y="120.0449">setDynamicNodeProperty(Key&lt;T&gt;, T): void</text><ellipse cx="196" cy="129.3652" fill="#84BE84" rx="3" ry="3" style="stroke: #038048; stroke-width: 1.0;"/><text fill="#000000" font-family="sans-serif" font-size="11" lengthAdjust="spacingAndGlyphs" textLength="225" x="205" y="133">getQueryParam(String): Optional&lt;String&gt;</text><ellipse cx="196" cy="142.3203" fill="#84BE84" rx="3" ry="3" style="stroke: #038048; stroke-width: 1.0;"/><text fill="#000000" font-family="sans-serif" font-size="11" lengthAdjust="spacingAndGlyphs" textLength="213" x="205" y="145.9551">getPathParams(SiteNode): ResourcePath</text></a><!--MD5=[3f0f080e182d44bf4c2506f8ebf8a6f6]
class it.tidalwave.northernwind.frontend.ui.SiteViewController--><a href="../SiteViewController.html" target="_top" title="../SiteViewController.html" xlink:actuate="onRequest" xlink:href="../SiteViewController.html" xlink:show="new" xlink:title="../SiteViewController.html" xlink:type="simple"><rect codeLine="46" fill="#FEFECE" filter="url(#f2czkmfjm3niz)" height="60.9551" id="it.tidalwave.northernwind.frontend.ui.SiteViewController" style="stroke: #A80036; stroke-width: 1.5;" width="247" x="476.5" y="65.5"/><ellipse cx="544.25" cy="81.5" fill="#B4A7E5" rx="11" ry="11" style="stroke: #A80036; stroke-width: 1.0;"/><path d="M540.6777,77.7651 L540.6777,75.6069 L548.0571,75.6069 L548.0571,77.7651 L545.5918,77.7651 L545.5918,85.8418 L548.0571,85.8418 L548.0571,88 L540.6777,88 L540.6777,85.8418 L543.1431,85.8418 L543.1431,77.7651 Z "/><text fill="#000000" font-family="sans-serif" font-size="12" font-style="italic" lengthAdjust="spacingAndGlyphs" textLength="103" x="564.75" y="86.0352">SiteViewController</text><line style="stroke: #A80036; stroke-width: 1.5;" x1="477.5" x2="722.5" y1="97.5" y2="97.5"/><line style="stroke: #A80036; stroke-width: 1.5;" x1="477.5" x2="722.5" y1="105.5" y2="105.5"/><ellipse cx="487.5" cy="116.5" fill="#84BE84" rx="3" ry="3" style="stroke: #038048; stroke-width: 1.0;"/><text fill="#000000" font-family="sans-serif" font-size="11" font-style="italic" lengthAdjust="spacingAndGlyphs" textLength="221" x="496.5" y="120.1348">processRequest(Request): ResponseType</text></a><!--MD5=[9353c56aec044b035235af0105a34174]
class it.tidalwave.northernwind.core.model.SiteNode--><a href="../../../core/model/SiteNode.html" target="_top" title="../../../core/model/SiteNode.html" xlink:actuate="onRequest" xlink:href="../../../core/model/SiteNode.html" xlink:show="new" xlink:title="../../../core/model/SiteNode.html" xlink:type="simple"><rect codeLine="52" fill="#FEFECE" filter="url(#f2czkmfjm3niz)" height="125.7305" id="it.tidalwave.northernwind.core.model.SiteNode" style="stroke: #A80036; stroke-width: 1.5;" width="261" x="758.5" y="33"/><ellipse cx="859.25" cy="49" fill="#B4A7E5" rx="11" ry="11" style="stroke: #A80036; stroke-width: 1.0;"/><path d="M855.6777,45.2651 L855.6777,43.1069 L863.0571,43.1069 L863.0571,45.2651 L860.5918,45.2651 L860.5918,53.3418 L863.0571,53.3418 L863.0571,55.5 L855.6777,55.5 L855.6777,53.3418 L858.1431,53.3418 L858.1431,45.2651 Z "/><text fill="#000000" font-family="sans-serif" font-size="12" font-style="italic" lengthAdjust="spacingAndGlyphs" textLength="51" x="879.75" y="53.5352">SiteNode</text><line style="stroke: #A80036; stroke-width: 1.5;" x1="759.5" x2="1018.5" y1="65" y2="65"/><ellipse cx="769.5" cy="76" fill="none" rx="3" ry="3" style="stroke: #038048; stroke-width: 1.0;"/><text fill="#000000" font-family="sans-serif" font-size="11" lengthAdjust="spacingAndGlyphs" text-decoration="underline" textLength="159" x="778.5" y="79.6348">_SiteNode_: Class&lt;SiteNode&gt;</text><ellipse cx="769.5" cy="88.9551" fill="none" rx="3" ry="3" style="stroke: #038048; stroke-width: 1.0;"/><text fill="#000000" font-family="sans-serif" font-size="11" lengthAdjust="spacingAndGlyphs" text-decoration="underline" textLength="194" x="778.5" y="92.5898">P_NAVIGATION_LABEL: Key&lt;String&gt;</text><ellipse cx="769.5" cy="101.9102" fill="none" rx="3" ry="3" style="stroke: #038048; stroke-width: 1.0;"/><text fill="#000000" font-family="sans-serif" font-size="11" lengthAdjust="spacingAndGlyphs" text-decoration="underline" textLength="235" x="778.5" y="105.5449">P_MANAGES_PATH_PARAMS: Key&lt;Boolean&gt;</text><line style="stroke: #A80036; stroke-width: 1.5;" x1="759.5" x2="1018.5" y1="111.8652" y2="111.8652"/><ellipse cx="769.5" cy="122.8652" fill="#84BE84" rx="3" ry="3" style="stroke: #038048; stroke-width: 1.0;"/><text fill="#000000" font-family="sans-serif" font-size="11" font-style="italic" lengthAdjust="spacingAndGlyphs" textLength="69" x="778.5" y="126.5">getSite(): Site</text><ellipse cx="769.5" cy="135.8203" fill="#84BE84" rx="3" ry="3" style="stroke: #038048; stroke-width: 1.0;"/><text fill="#000000" font-family="sans-serif" font-size="11" font-style="italic" lengthAdjust="spacingAndGlyphs" textLength="103" x="778.5" y="139.4551">getLayout(): Layout</text><ellipse cx="769.5" cy="148.7754" fill="#84BE84" rx="3" ry="3" style="stroke: #038048; stroke-width: 1.0;"/><text fill="#000000" font-family="sans-serif" font-size="11" font-style="italic" lengthAdjust="spacingAndGlyphs" textLength="161" x="778.5" y="152.4102">getRelativeUri(): ResourcePath</text></a><!--MD5=[b22cb1a8928a08e138fc8f186757cde8]
class it.tidalwave.role.Composite.VisitorSupport--><rect codeLine="63" fill="#FEFECE" filter="url(#f2czkmfjm3niz)" height="48" id="it.tidalwave.role.Composite.VisitorSupport" style="stroke: #A80036; stroke-width: 1.5;" width="141" x="1510.5" y="72"/><ellipse cx="1525.5" cy="88" fill="#ADD1B2" rx="11" ry="11" style="stroke: #A80036; stroke-width: 1.0;"/><path d="M1527.9731,94.1431 Q1527.3921,94.4419 1526.7529,94.5913 Q1526.1138,94.7407 1525.4082,94.7407 Q1522.9014,94.7407 1521.5815,93.0889 Q1520.2617,91.437 1520.2617,88.3159 Q1520.2617,85.1865 1521.5815,83.5347 Q1522.9014,81.8828 1525.4082,81.8828 Q1526.1138,81.8828 1526.7612,82.0322 Q1527.4087,82.1816 1527.9731,82.4805 L1527.9731,85.2031 Q1527.3423,84.6221 1526.7488,84.3523 Q1526.1553,84.0825 1525.5244,84.0825 Q1524.1797,84.0825 1523.4949,85.1492 Q1522.8101,86.2158 1522.8101,88.3159 Q1522.8101,90.4077 1523.4949,91.4744 Q1524.1797,92.541 1525.5244,92.541 Q1526.1553,92.541 1526.7488,92.2712 Q1527.3423,92.0015 1527.9731,91.4204 Z "/><text fill="#000000" font-family="sans-serif" font-size="12" lengthAdjust="spacingAndGlyphs" textLength="81" x="1539.5" y="92.5352">VisitorSupport</text><rect fill="#FFFFFF" height="16.1328" style="stroke: #000000; stroke-width: 1.0; stroke-dasharray: 2.0,2.0;" width="26" x="1628.5" y="69"/><text fill="#000000" font-family="sans-serif" font-size="12" font-style="italic" lengthAdjust="spacingAndGlyphs" textLength="24" x="1629.5" y="81.6016">T, R</text><line style="stroke: #A80036; stroke-width: 1.5;" x1="1511.5" x2="1650.5" y1="104" y2="104"/><line style="stroke: #A80036; stroke-width: 1.5;" x1="1511.5" x2="1650.5" y1="112" y2="112"/><polygon fill="#FFFFFF" filter="url(#f2czkmfjm3niz)" points="16,69.5,136,69.5,143,91.9883,150,91.9883,150,122.4766,16,122.4766,16,69.5" style="stroke: #000000; stroke-width: 1.5;"/><line style="stroke: #000000; stroke-width: 1.5;" x1="16" x2="143" y1="91.9883" y2="91.9883"/><text fill="#000000" font-family="sans-serif" font-size="14" font-weight="bold" lengthAdjust="spacingAndGlyphs" textLength="114" x="20" y="85.0352">it.tidalwave.role</text><!--MD5=[7d689a064c0b1d195d4b6b2c99da3adc]
reverse link it.tidalwave.northernwind.frontend.ui.RenderContext to it.tidalwave.northernwind.frontend.ui.spi.DefaultRenderContext--><path codeLine="30" d="M330.8997,172.3722 C338.5629,205.0684 346.9698,240.9378 352.3562,263.9199 " fill="none" id="it.tidalwave.northernwind.frontend.ui.RenderContext-backto-it.tidalwave.northernwind.frontend.ui.spi.DefaultRenderContext" style="stroke: #A80036; stroke-width: 1.0; stroke-dasharray: 7.0,7.0;"/><polygon fill="none" points="324.0067,173.6376,326.2581,152.5679,337.6373,170.4428,324.0067,173.6376" style="stroke: #A80036; stroke-width: 1.0;"/><!--MD5=[905cc077ef13f3f10203d693b1aa5b79]
reverse link it.tidalwave.northernwind.core.model.SiteNode to it.tidalwave.northernwind.frontend.ui.spi.VirtualSiteNode--><path codeLine="31" d="M889,179.2093 C889,194.5047 889,210.2413 889,224.8282 " fill="none" id="it.tidalwave.northernwind.core.model.SiteNode-backto-it.tidalwave.northernwind.frontend.ui.spi.VirtualSiteNode" style="stroke: #A80036; stroke-width: 1.0; stroke-dasharray: 7.0,7.0;"/><polygon fill="none" points="882.0001,179.1339,889,159.1339,896.0001,179.1339,882.0001,179.1339" style="stroke: #A80036; stroke-width: 1.0;"/><!--MD5=[19fe737fc6e65cecb70435e0496cd606]
reverse link it.tidalwave.role.Composite.VisitorSupport to it.tidalwave.northernwind.frontend.ui.spi.NodeViewRenderer--><path codeLine="32" d="M1533.421,132.3951 C1491.7711,164.2547 1431.1745,210.6076 1386.9552,244.4327 " fill="none" id="it.tidalwave.role.Composite.VisitorSupport-backto-it.tidalwave.northernwind.frontend.ui.spi.NodeViewRenderer" style="stroke: #A80036; stroke-width: 1.0;"/><polygon fill="none" points="1529.3265,126.714,1549.4648,120.1225,1537.8324,137.8338,1529.3265,126.714" style="stroke: #A80036; stroke-width: 1.0;"/><!--MD5=[9be40bd3b00dce0111cfcd10ba472874]
reverse link it.tidalwave.role.Composite.VisitorSupport to it.tidalwave.northernwind.frontend.ui.spi.ViewAndControllerLayoutBuilder--><path codeLine="33" d="M1628.5955,132.2632 C1673.1843,166.2357 1739.5124,216.7713 1784.4183,250.9854 " fill="none" id="it.tidalwave.role.Composite.VisitorSupport-backto-it.tidalwave.northernwind.frontend.ui.spi.ViewAndControllerLayoutBuilder" style="stroke: #A80036; stroke-width: 1.0;"/><polygon fill="none" points="1624.3271,137.8115,1612.6608,120.1225,1632.8118,126.6754,1624.3271,137.8115" style="stroke: #A80036; stroke-width: 1.0;"/><!--MD5=[ff6befd3af7c594b76ef6c6687d3d7eb]
link it.tidalwave.northernwind.frontend.ui.spi.ViewAndControllerLayoutBuilder to it.tidalwave.northernwind.frontend.ui.spi.ViewAndControllerLayoutBuilder--><path codeLine="34" d="M2021.7343,272.4852 C2042.8444,275.4114 2056.5,280.583 2056.5,288 C2056.5,294.7796 2045.0906,299.6832 2027.0077,302.7107 " fill="none" id="it.tidalwave.northernwind.frontend.ui.spi.ViewAndControllerLayoutBuilder-to-it.tidalwave.northernwind.frontend.ui.spi.ViewAndControllerLayoutBuilder" style="stroke: #A80036; stroke-width: 1.0;"/><polygon fill="#A80036" points="2021.7343,303.5148,2031.2345,306.1121,2026.6771,302.7609,2030.0283,298.2036,2021.7343,303.5148" style="stroke: #A80036; stroke-width: 1.0;"/><text fill="#000000" font-family="sans-serif" font-size="13" lengthAdjust="spacingAndGlyphs" textLength="33" x="2062.5" y="293.0684">value</text><!--MD5=[bb4573663a5e3f83aa57473d0646aa5b]
reverse link it.tidalwave.northernwind.frontend.ui.SiteViewController to it.tidalwave.northernwind.frontend.ui.spi.DefaultSiteViewController--><path codeLine="35" d="M600,147.1213 C600,182.196 600,227.5844 600,257.2284 " fill="none" id="it.tidalwave.northernwind.frontend.ui.SiteViewController-backto-it.tidalwave.northernwind.frontend.ui.spi.DefaultSiteViewController" style="stroke: #A80036; stroke-width: 1.0; stroke-dasharray: 7.0,7.0;"/><polygon fill="none" points="593.0001,146.8482,600,126.8481,607.0001,146.8481,593.0001,146.8482" style="stroke: #A80036; stroke-width: 1.0;"/><text fill="#888888" font-family="sans-serif" font-size="10" lengthAdjust="spacingAndGlyphs" textLength="188" x="954.5" y="374.668">UMLDoclet 2.0.12, PlantUML 1.2020.16</text><!--MD5=[030f2f2ee4dcdf783c639ad363d93056]
@startuml
    namespace it.tidalwave.northernwind.frontend.ui.spi {

        class DefaultRenderContext [[DefaultRenderContext.html]] {
        }

        class VirtualSiteNode [[VirtualSiteNode.html]] {
            +getSite(): Site
            +getLayout(): Layout
            +getFile(): ResourceFile
            +getPropertyGroup(Id): ResourceProperties
            +isPlaceHolder(): boolean
            +findChildren(): Finder<SiteNode>
        }

        class NodeViewRenderer<T> [[NodeViewRenderer.html]] {
            +NodeViewRenderer(Request, RequestContext, ViewAndControllerLayoutBuilder, BiConsumer<T, T>)
            +preVisit(Layout): void
            +postVisit(Layout): void
        }

        class ViewAndControllerLayoutBuilder [[ViewAndControllerLayoutBuilder.html]] {
            +visit(Layout): void
            +getViewAndControllerFor(Layout): Optional<ViewAndController>
        }

        class DefaultSiteViewController [[DefaultSiteViewController.html]] {
            +processRequest(Request): RESPONSE_TYPE
        }

        it.tidalwave.northernwind.frontend.ui.RenderContext <|.. DefaultRenderContext
        it.tidalwave.northernwind.core.model.SiteNode <|.. VirtualSiteNode
        it.tidalwave.role.Composite.VisitorSupport <|- - NodeViewRenderer
        it.tidalwave.role.Composite.VisitorSupport <|- - ViewAndControllerLayoutBuilder
        ViewAndControllerLayoutBuilder - -> ViewAndControllerLayoutBuilder: value
        it.tidalwave.northernwind.frontend.ui.SiteViewController <|.. DefaultSiteViewController
    }

    namespace it.tidalwave.northernwind.frontend.ui {
        interface RenderContext [[../RenderContext.html]] {
            {abstract} +getRequest(): Request
            {abstract} +getRequestContext(): RequestContext
            +setDynamicNodeProperty(Key<T>, T): void
            +getQueryParam(String): Optional<String>
            +getPathParams(SiteNode): ResourcePath
        }
        interface SiteViewController [[../SiteViewController.html]] {
            {abstract} +processRequest(Request): ResponseType
        }
    }

    namespace it.tidalwave.northernwind.core.model {
        interface SiteNode [[../../../core/model/SiteNode.html]] {
            {static} +_SiteNode_: Class<SiteNode>
            {static} +P_NAVIGATION_LABEL: Key<String>
            {static} +P_MANAGES_PATH_PARAMS: Key<Boolean>
            {abstract} +getSite(): Site
            {abstract} +getLayout(): Layout
            {abstract} +getRelativeUri(): ResourcePath
        }
    }

    namespace it.tidalwave.role {
        class it.tidalwave.role.Composite.VisitorSupport<T, R>
    }

    center footer UMLDoclet 2.0.12, PlantUML 1.2020.16
@enduml

PlantUML version 1.2020.16(Sun Aug 23 22:20:43 CEST 2020)
(APACHE source distribution)
Java Runtime: OpenJDK Runtime Environment
JVM: OpenJDK 64-Bit Server VM
Default Encoding: UTF-8
Language: en
Country: GB
--></g></svg>