GROUP,PACKAGE,CLASS,INSTRUCTION_MISSED,INSTRUCTION_COVERED,BRANCH_MISSED,BRANCH_COVERED,LINE_MISSED,LINE_COVERED,COMPLEXITY_MISSED,COMPLEXITY_COVERED,METHOD_MISSED,METHOD_COVERED
TheseFoolishThings :: MessageBus/it-tidalwave-util,it.tidalwave.util.thread,ThreadAssertions,17,0,2,0,5,0,4,0,3,0
TheseFoolishThings :: MessageBus/it-tidalwave-util,it.tidalwave.util.thread,ThreadType,21,0,0,0,2,0,1,0,1,0
TheseFoolishThings :: MessageBus/it-tidalwave-util,it.tidalwave.util.spi,DefaultProcessExecutor.DefaultConsoleOutput,261,0,26,0,61,0,20,0,7,0
TheseFoolishThings :: MessageBus/it-tidalwave-util,it.tidalwave.util.spi,FinderWithIdMapSupport,37,0,0,0,9,0,4,0,4,0
TheseFoolishThings :: MessageBus/it-tidalwave-util,it.tidalwave.util.spi,DefaultProcessExecutor.DefaultConsoleOutput.new Runnable() {...},37,0,4,0,9,0,4,0,2,0
TheseFoolishThings :: MessageBus/it-tidalwave-util,it.tidalwave.util.spi,DefaultProcessExecutor.DefaultConsoleOutput.new Runnable() {...},19,0,0,0,6,0,2,0,2,0
TheseFoolishThings :: MessageBus/it-tidalwave-util,it.tidalwave.util.spi,DefaultProcessExecutor,169,0,6,0,31,0,12,0,9,0
TheseFoolishThings :: MessageBus/it-tidalwave-util,it.tidalwave.util.spi,ArrayListCollectorSupport,17,0,0,0,5,0,6,0,6,0
TheseFoolishThings :: MessageBus/it-tidalwave-util,it.tidalwave.util.spi,ContextSnapshot,19,32,1,1,2,8,2,4,1,4
TheseFoolishThings :: MessageBus/it-tidalwave-util,it.tidalwave.util.spi,HierarchicFinderSupport.Sorter,7,0,0,0,2,0,1,0,1,0
TheseFoolishThings :: MessageBus/it-tidalwave-util,it.tidalwave.util.spi,FinderWithIdSupport,62,0,0,0,12,0,8,0,8,0
TheseFoolishThings :: MessageBus/it-tidalwave-util,it.tidalwave.util.spi,SimpleFinderSupport,4,5,0,0,2,2,1,1,1,1
TheseFoolishThings :: MessageBus/it-tidalwave-util,it.tidalwave.util.spi,HierarchicFinderSupport,144,189,3,5,29,37,11,13,9,11
TheseFoolishThings :: MessageBus/it-tidalwave-util,it.tidalwave.role.spi,OwnerRoleFactoryProvider,0,4,0,0,0,1,0,1,0,1
TheseFoolishThings :: MessageBus/it-tidalwave-util,it.tidalwave.role.spi,SystemRoleFactory.Inner,3,12,0,0,1,4,1,2,1,2
TheseFoolishThings :: MessageBus/it-tidalwave-util,it.tidalwave.role.spi,OwnerRoleFactoryProvider.Inner,3,4,0,0,1,2,1,1,1,1
TheseFoolishThings :: MessageBus/it-tidalwave-util,it.tidalwave.role.spi,SystemRoleFactory,0,16,0,0,0,6,0,4,0,4
TheseFoolishThings :: MessageBus/it-tidalwave-util,it.tidalwave.role.spi,SystemRoleFactorySupport,52,454,8,38,10,82,10,28,3,12
TheseFoolishThings :: MessageBus/it-tidalwave-util,it.tidalwave.util.impl.finder,ArrayListFinder,0,31,0,0,0,8,0,3,0,3
TheseFoolishThings :: MessageBus/it-tidalwave-util,it.tidalwave.util.impl.finder,MappingFinder,0,39,0,0,0,10,0,3,0,3
TheseFoolishThings :: MessageBus/it-tidalwave-util,it.tidalwave.util.impl.finder,SupplierFinder,15,14,0,0,4,4,1,2,1,2
TheseFoolishThings :: MessageBus/it-tidalwave-util,it.tidalwave.util.impl.finder,ProviderFinder,0,35,0,0,0,8,0,3,0,3
TheseFoolishThings :: MessageBus/it-tidalwave-util,it.tidalwave.util,Initializer.EmptyInitializer,5,0,0,0,2,0,2,0,2,0
TheseFoolishThings :: MessageBus/it-tidalwave-util,it.tidalwave.util,NamedCallback,3,0,0,0,1,0,1,0,1,0
TheseFoolishThings :: MessageBus/it-tidalwave-util,it.tidalwave.util,ContextManager.Inner,3,12,0,0,1,4,1,2,1,2
TheseFoolishThings :: MessageBus/it-tidalwave-util,it.tidalwave.util,Finder.SortCriterion,8,0,0,0,3,0,2,0,2,0
TheseFoolishThings :: MessageBus/it-tidalwave-util,it.tidalwave.util,CollectionUtils,9,138,0,10,1,27,1,14,1,9
TheseFoolishThings :: MessageBus/it-tidalwave-util,it.tidalwave.util,RoleFactory,0,42,0,4,0,8,0,4,0,2
TheseFoolishThings :: MessageBus/it-tidalwave-util,it.tidalwave.util,Finder,99,21,6,0,19,4,18,4,15,4
TheseFoolishThings :: MessageBus/it-tidalwave-util,it.tidalwave.util,Initializer,4,0,0,0,1,0,1,0,1,0
TheseFoolishThings :: MessageBus/it-tidalwave-util,it.tidalwave.util,ContextManager,40,50,0,0,9,11,6,7,6,7
TheseFoolishThings :: MessageBus/it-tidalwave-util,it.tidalwave.util,LazySupplier,0,49,1,5,0,9,1,6,0,4
TheseFoolishThings :: MessageBus/it-tidalwave-util,it.tidalwave.util,Callback,4,0,0,0,1,0,2,0,2,0
TheseFoolishThings :: MessageBus/it-tidalwave-util,it.tidalwave.util,DuplicateException,7,0,0,0,4,0,2,0,2,0
TheseFoolishThings :: MessageBus/it-tidalwave-util,it.tidalwave.util,Finder.InMemorySortCriterion,17,0,0,0,4,0,3,0,3,0
TheseFoolishThings :: MessageBus/it-tidalwave-util,it.tidalwave.util,Finder.SortDirection,20,0,0,0,3,0,2,0,2,0
TheseFoolishThings :: MessageBus/it-tidalwave-util,it.tidalwave.util,Finder.InMemorySortCriterion.DefaultInMemorySortCriterion,15,0,0,0,2,0,2,0,2,0
TheseFoolishThings :: MessageBus/it-tidalwave-util,it.tidalwave.util,FunctionalCheckedExceptionWrappers,11,64,0,4,6,23,2,11,2,9
TheseFoolishThings :: MessageBus/it-tidalwave-util,it.tidalwave.util,Pair.Factory,0,29,0,0,0,4,0,3,0,3
TheseFoolishThings :: MessageBus/it-tidalwave-util,it.tidalwave.util,IdFactory,32,0,0,0,6,0,5,0,5,0
TheseFoolishThings :: MessageBus/it-tidalwave-util,it.tidalwave.util,Triple,0,30,0,0,0,4,0,5,0,5
TheseFoolishThings :: MessageBus/it-tidalwave-util,it.tidalwave.util,As.Type,3,0,0,0,1,0,1,0,1,0
TheseFoolishThings :: MessageBus/it-tidalwave-util,it.tidalwave.util,TimeProvider.DefaultTimeProvider,0,5,0,0,0,2,0,2,0,2
TheseFoolishThings :: MessageBus/it-tidalwave-util,it.tidalwave.util,AsExtensions,36,0,0,0,8,0,8,0,8,0
TheseFoolishThings :: MessageBus/it-tidalwave-util,it.tidalwave.util,PreferencesHandler,20,0,0,0,6,0,3,0,3,0
TheseFoolishThings :: MessageBus/it-tidalwave-util,it.tidalwave.util,AsException,6,5,0,0,2,2,1,1,1,1
TheseFoolishThings :: MessageBus/it-tidalwave-util,it.tidalwave.util,PreferencesHandler.Inner,7,0,0,0,2,0,2,0,2,0
TheseFoolishThings :: MessageBus/it-tidalwave-util,it.tidalwave.util,ContextManager.Binder,0,51,0,4,0,9,0,4,0,2
TheseFoolishThings :: MessageBus/it-tidalwave-util,it.tidalwave.util,ShortNames,11,206,3,17,3,40,4,15,1,8
TheseFoolishThings :: MessageBus/it-tidalwave-util,it.tidalwave.util,StreamUtils,2,88,2,2,0,16,2,4,0,4
TheseFoolishThings :: MessageBus/it-tidalwave-util,it.tidalwave.util,SimpleTask,3,0,0,0,1,0,1,0,1,0
TheseFoolishThings :: MessageBus/it-tidalwave-util,it.tidalwave.util,BundleUtilities,19,35,1,3,4,8,2,3,1,2
TheseFoolishThings :: MessageBus/it-tidalwave-util,it.tidalwave.util,Task,37,21,0,0,7,3,5,1,5,1
TheseFoolishThings :: MessageBus/it-tidalwave-util,it.tidalwave.util,Id,14,17,1,1,2,3,3,3,2,3
TheseFoolishThings :: MessageBus/it-tidalwave-util,it.tidalwave.util,ReflectionUtils,87,218,13,23,22,48,12,13,1,6
TheseFoolishThings :: MessageBus/it-tidalwave-util,it.tidalwave.util,StreamUtils.new Spliterators.AbstractSpliterator() {...},0,37,0,4,0,5,0,4,0,2
TheseFoolishThings :: MessageBus/it-tidalwave-util,it.tidalwave.util,As,38,17,2,0,6,2,7,3,6,3
TheseFoolishThings :: MessageBus/it-tidalwave-util,it.tidalwave.util,TypeSafeMultiMap,0,10,0,0,0,2,0,2,0,2
TheseFoolishThings :: MessageBus/it-tidalwave-util,it.tidalwave.util,Task.new Task() {...},11,0,0,0,3,0,2,0,2,0
TheseFoolishThings :: MessageBus/it-tidalwave-util,it.tidalwave.util,Pair,18,185,0,4,3,21,3,33,3,31
TheseFoolishThings :: MessageBus/it-tidalwave-util,it.tidalwave.util,TypeSafeMap,0,18,0,0,0,5,0,3,0,3
TheseFoolishThings :: MessageBus/it-tidalwave-util,it.tidalwave.util,NotFoundException,47,15,10,2,15,5,11,3,6,2
TheseFoolishThings :: MessageBus/it-tidalwave-util,it.tidalwave.util,Parameters,84,35,12,4,15,6,9,3,3,1
TheseFoolishThings :: MessageBus/it-tidalwave-util,it.tidalwave.util,Key,12,61,0,2,4,12,3,7,3,6
TheseFoolishThings :: MessageBus/it-tidalwave-util,it.tidalwave.util,LocalizedDateTimeFormatters,0,16,0,0,0,3,0,1,0,1
TheseFoolishThings :: MessageBus/it-tidalwave-util,it.tidalwave.util,TimeProvider,3,33,1,1,1,7,2,4,1,4
TheseFoolishThings :: MessageBus/it-tidalwave-util,it.tidalwave.util,Task.new Task() {...},10,0,0,0,2,0,2,0,2,0
TheseFoolishThings :: MessageBus/it-tidalwave-util,it.tidalwave.util,Task.new Task() {...},11,0,0,0,3,0,2,0,2,0
TheseFoolishThings :: MessageBus/it-tidalwave-util,it.tidalwave.util,ConcurrentHashMapWithOptionals,0,24,0,2,0,3,0,5,0,4
TheseFoolishThings :: MessageBus/it-tidalwave-util,it.tidalwave.util.impl,DefaultOwnerRoleFactory,7,58,1,1,1,12,1,3,0,3
TheseFoolishThings :: MessageBus/it-tidalwave-util,it.tidalwave.util.impl,DefaultSystemRoleFactory,0,3,0,0,0,1,0,1,0,1
TheseFoolishThings :: MessageBus/it-tidalwave-util,it.tidalwave.util.impl,AsDelegate,13,116,1,9,2,22,2,11,1,7
TheseFoolishThings :: MessageBus/it-tidalwave-util,it.tidalwave.util.impl,DefaultOwnerRoleFactoryProvider,0,8,0,0,0,2,0,2,0,2
TheseFoolishThings :: MessageBus/it-tidalwave-util,it.tidalwave.util.impl,DefaultSystemRoleFactoryProvider,0,7,0,0,0,2,0,2,0,2
TheseFoolishThings :: MessageBus/it-tidalwave-util,it.tidalwave.util.impl,DefaultContextManager.new ThreadLocal() {...},0,10,0,0,0,2,0,2,0,2
TheseFoolishThings :: MessageBus/it-tidalwave-util,it.tidalwave.util.impl,OwnerAndRole,0,71,0,4,0,8,0,4,0,2
TheseFoolishThings :: MessageBus/it-tidalwave-util,it.tidalwave.util.impl,TypeSafeHashMap,12,79,0,0,3,17,3,10,3,10
TheseFoolishThings :: MessageBus/it-tidalwave-util,it.tidalwave.util.impl,MultiMap,0,50,0,6,0,13,0,8,0,5
TheseFoolishThings :: MessageBus/it-tidalwave-util,it.tidalwave.util.impl,DefaultContextManagerProvider,0,7,0,0,0,2,0,2,0,2
TheseFoolishThings :: MessageBus/it-tidalwave-util,it.tidalwave.util.impl,ServiceLoaderLocator,52,67,8,4,8,16,7,5,1,5
TheseFoolishThings :: MessageBus/it-tidalwave-util,it.tidalwave.util.impl,TypeSafeHashMultiMap,12,87,0,2,3,20,3,11,3,10
TheseFoolishThings :: MessageBus/it-tidalwave-util,it.tidalwave.util.impl,DefaultOwnerRoleFactory.new Task() {...},22,35,3,1,3,4,2,2,0,2
TheseFoolishThings :: MessageBus/it-tidalwave-util,it.tidalwave.util.impl,DefaultPreferencesHandler,135,0,8,0,31,0,9,0,4,0
TheseFoolishThings :: MessageBus/it-tidalwave-util,it.tidalwave.util.impl,DefaultContextManager,41,99,6,2,9,25,5,8,1,8
