<?xml version="1.0" encoding="UTF-8" standalone="no"?><svg xmlns="http://www.w3.org/2000/svg" xmlns:xlink="http://www.w3.org/1999/xlink" contentScriptType="application/ecmascript" contentStyleType="text/css" height="317px" preserveAspectRatio="none" style="width:1046px;height:317px;" version="1.1" viewBox="0 0 1046 317" width="1046px" zoomAndPan="magnify"><defs><filter height="300%" id="f1m2ohgiuaygwc" width="300%" x="-1" y="-1"><feGaussianBlur result="blurOut" stdDeviation="2.0"/><feColorMatrix in="blurOut" result="blurOut2" type="matrix" values="0 0 0 0 0 0 0 0 0 0 0 0 0 0 0 0 0 0 .4 0"/><feOffset dx="4.0" dy="4.0" in="blurOut2" result="blurOut3"/><feBlend in="SourceGraphic" in2="blurOut3" mode="normal"/></filter></defs><g><!--MD5=[e4549cd9a5af2e65ccdbc914a80faec6]
cluster it.tidalwave.messagebus--><polygon fill="#FFFFFF" filter="url(#f1m2ohgiuaygwc)" points="16,6,197,6,204,28.4883,1024,28.4883,1024,288,16,288,16,6" style="stroke: #000000; stroke-width: 1.5;"/><line style="stroke: #000000; stroke-width: 1.5;" x1="16" x2="204" y1="28.4883" y2="28.4883"/><text fill="#000000" font-family="sans-serif" font-size="14" font-weight="bold" lengthAdjust="spacingAndGlyphs" textLength="175" x="20" y="21.5352">it.tidalwave.messagebus</text><!--MD5=[b16a8370fab75665485eec52c64cf912]
class it.tidalwave.messagebus.MessageBusHelper--><a href="MessageBusHelper.html" target="_top" title="MessageBusHelper.html" xlink:actuate="onRequest" xlink:href="MessageBusHelper.html" xlink:show="new" xlink:title="MessageBusHelper.html" xlink:type="simple"><rect codeLine="3" fill="#FEFECE" filter="url(#f1m2ohgiuaygwc)" height="99.8203" id="it.tidalwave.messagebus.MessageBusHelper" style="stroke: #A80036; stroke-width: 1.5;" width="222" x="567" y="33"/><ellipse cx="619.25" cy="49" fill="#ADD1B2" rx="11" ry="11" style="stroke: #A80036; stroke-width: 1.0;"/><path d="M621.7231,55.1431 Q621.1421,55.4419 620.5029,55.5913 Q619.8638,55.7407 619.1582,55.7407 Q616.6514,55.7407 615.3315,54.0889 Q614.0117,52.437 614.0117,49.3159 Q614.0117,46.1865 615.3315,44.5347 Q616.6514,42.8828 619.1582,42.8828 Q619.8638,42.8828 620.5112,43.0322 Q621.1587,43.1816 621.7231,43.4805 L621.7231,46.2031 Q621.0923,45.6221 620.4988,45.3523 Q619.9053,45.0825 619.2744,45.0825 Q617.9297,45.0825 617.2449,46.1492 Q616.5601,47.2158 616.5601,49.3159 Q616.5601,51.4077 617.2449,52.4744 Q617.9297,53.541 619.2744,53.541 Q619.9053,53.541 620.4988,53.2712 Q621.0923,53.0015 621.7231,52.4204 Z "/><text fill="#000000" font-family="sans-serif" font-size="12" lengthAdjust="spacingAndGlyphs" textLength="109" x="639.75" y="53.5352">MessageBusHelper</text><line style="stroke: #A80036; stroke-width: 1.5;" x1="568" x2="788" y1="65" y2="65"/><line style="stroke: #A80036; stroke-width: 1.5;" x1="568" x2="788" y1="73" y2="73"/><ellipse cx="578" cy="84" fill="#84BE84" rx="3" ry="3" style="stroke: #038048; stroke-width: 1.0;"/><text fill="#000000" font-family="sans-serif" font-size="11" lengthAdjust="spacingAndGlyphs" textLength="104" x="587" y="87.6348">subscribeAll(): void</text><ellipse cx="578" cy="96.9551" fill="#84BE84" rx="3" ry="3" style="stroke: #038048; stroke-width: 1.0;"/><text fill="#000000" font-family="sans-serif" font-size="11" lengthAdjust="spacingAndGlyphs" textLength="118" x="587" y="100.5898">unsubscribeAll(): void</text><ellipse cx="578" cy="109.9102" fill="#84BE84" rx="3" ry="3" style="stroke: #038048; stroke-width: 1.0;"/><text fill="#000000" font-family="sans-serif" font-size="11" lengthAdjust="spacingAndGlyphs" textLength="112" x="587" y="113.5449">publish(Object): void</text><ellipse cx="578" cy="122.8652" fill="#84BE84" rx="3" ry="3" style="stroke: #038048; stroke-width: 1.0;"/><text fill="#000000" font-family="sans-serif" font-size="11" lengthAdjust="spacingAndGlyphs" textLength="196" x="587" y="126.5">publish(Class&lt;TOPIC&gt;, TOPIC): void</text></a><!--MD5=[65548a0bf47d76891445718bc2c640e2]
class it.tidalwave.messagebus.MessageBusHelper.Adapter--><a href="MessageBusHelper.Adapter.html" target="_top" title="MessageBusHelper.Adapter.html" xlink:actuate="onRequest" xlink:href="MessageBusHelper.Adapter.html" xlink:show="new" xlink:title="MessageBusHelper.Adapter.html" xlink:type="simple"><rect codeLine="10" fill="#FEFECE" filter="url(#f1m2ohgiuaygwc)" height="86.8652" id="it.tidalwave.messagebus.MessageBusHelper.Adapter" style="stroke: #A80036; stroke-width: 1.5;" width="457" x="249.5" y="193"/><ellipse cx="393.75" cy="209" fill="#B4A7E5" rx="11" ry="11" style="stroke: #A80036; stroke-width: 1.0;"/><path d="M390.1777,205.2651 L390.1777,203.1069 L397.5571,203.1069 L397.5571,205.2651 L395.0918,205.2651 L395.0918,213.3418 L397.5571,213.3418 L397.5571,215.5 L390.1777,215.5 L390.1777,213.3418 L392.6431,213.3418 L392.6431,205.2651 Z "/><text fill="#000000" font-family="sans-serif" font-size="12" font-style="italic" lengthAdjust="spacingAndGlyphs" textLength="160" x="414.25" y="213.5352">MessageBusHelper.Adapter</text><line style="stroke: #A80036; stroke-width: 1.5;" x1="250.5" x2="705.5" y1="225" y2="225"/><line style="stroke: #A80036; stroke-width: 1.5;" x1="250.5" x2="705.5" y1="233" y2="233"/><ellipse cx="260.5" cy="244" fill="#84BE84" rx="3" ry="3" style="stroke: #038048; stroke-width: 1.0;"/><text fill="#000000" font-family="sans-serif" font-size="11" font-style="italic" lengthAdjust="spacingAndGlyphs" textLength="431" x="269.5" y="247.6348">createMethodAdapter(Object, Method, Class&lt;TOPIC&gt;): MethodAdapter&lt;TOPIC&gt;</text><ellipse cx="260.5" cy="256.9551" fill="#84BE84" rx="3" ry="3" style="stroke: #038048; stroke-width: 1.0;"/><text fill="#000000" font-family="sans-serif" font-size="11" font-style="italic" lengthAdjust="spacingAndGlyphs" textLength="112" x="269.5" y="260.5898">publish(Object): void</text><ellipse cx="260.5" cy="269.9102" fill="#84BE84" rx="3" ry="3" style="stroke: #038048; stroke-width: 1.0;"/><text fill="#000000" font-family="sans-serif" font-size="11" font-style="italic" lengthAdjust="spacingAndGlyphs" textLength="196" x="269.5" y="273.5449">publish(Class&lt;TOPIC&gt;, TOPIC): void</text></a><!--MD5=[c40894859b73567d155d047980c5a7dd]
class it.tidalwave.messagebus.MessageBusHelper.MethodAdapter--><a href="MessageBusHelper.MethodAdapter.html" target="_top" title="MessageBusHelper.MethodAdapter.html" xlink:actuate="onRequest" xlink:href="MessageBusHelper.MethodAdapter.html" xlink:show="new" xlink:title="MessageBusHelper.MethodAdapter.html" xlink:type="simple"><rect codeLine="16" fill="#FEFECE" filter="url(#f1m2ohgiuaygwc)" height="73.9102" id="it.tidalwave.messagebus.MessageBusHelper.MethodAdapter" style="stroke: #A80036; stroke-width: 1.5;" width="274" x="742" y="199.5"/><ellipse cx="757" cy="215.5" fill="#B4A7E5" rx="11" ry="11" style="stroke: #A80036; stroke-width: 1.0;"/><path d="M753.4277,211.7651 L753.4277,209.6069 L760.8071,209.6069 L760.8071,211.7651 L758.3418,211.7651 L758.3418,219.8418 L760.8071,219.8418 L760.8071,222 L753.4277,222 L753.4277,219.8418 L755.8931,219.8418 L755.8931,211.7651 Z "/><text fill="#000000" font-family="sans-serif" font-size="12" font-style="italic" lengthAdjust="spacingAndGlyphs" textLength="203" x="771" y="220.0352">MessageBusHelper.MethodAdapter</text><rect fill="#FFFFFF" height="16.1328" style="stroke: #000000; stroke-width: 1.0; stroke-dasharray: 2.0,2.0;" width="37" x="982" y="196.5"/><text fill="#000000" font-family="sans-serif" font-size="12" font-style="italic" lengthAdjust="spacingAndGlyphs" textLength="35" x="983" y="209.1016">TOPIC</text><line style="stroke: #A80036; stroke-width: 1.5;" x1="743" x2="1015" y1="231.5" y2="231.5"/><line style="stroke: #A80036; stroke-width: 1.5;" x1="743" x2="1015" y1="239.5" y2="239.5"/><ellipse cx="753" cy="250.5" fill="#84BE84" rx="3" ry="3" style="stroke: #038048; stroke-width: 1.0;"/><text fill="#000000" font-family="sans-serif" font-size="11" font-style="italic" lengthAdjust="spacingAndGlyphs" textLength="90" x="762" y="254.1348">subscribe(): void</text><ellipse cx="753" cy="263.4551" fill="#84BE84" rx="3" ry="3" style="stroke: #038048; stroke-width: 1.0;"/><text fill="#000000" font-family="sans-serif" font-size="11" font-style="italic" lengthAdjust="spacingAndGlyphs" textLength="104" x="762" y="267.0898">unsubscribe(): void</text></a><!--MD5=[4b7502cfe6ab48c04fed4eeb9239f3a0]
class it.tidalwave.messagebus.MessageBus--><a href="MessageBus.html" target="_top" title="MessageBus.html" xlink:actuate="onRequest" xlink:href="MessageBus.html" xlink:show="new" xlink:title="MessageBus.html" xlink:type="simple"><rect codeLine="21" fill="#FEFECE" filter="url(#f1m2ohgiuaygwc)" height="99.8203" id="it.tidalwave.messagebus.MessageBus" style="stroke: #A80036; stroke-width: 1.5;" width="296" x="24" y="33"/><ellipse cx="132.75" cy="49" fill="#B4A7E5" rx="11" ry="11" style="stroke: #A80036; stroke-width: 1.0;"/><path d="M129.1777,45.2651 L129.1777,43.1069 L136.5571,43.1069 L136.5571,45.2651 L134.0918,45.2651 L134.0918,53.3418 L136.5571,53.3418 L136.5571,55.5 L129.1777,55.5 L129.1777,53.3418 L131.6431,53.3418 L131.6431,45.2651 Z "/><text fill="#000000" font-family="sans-serif" font-size="12" font-style="italic" lengthAdjust="spacingAndGlyphs" textLength="70" x="153.25" y="53.5352">MessageBus</text><line style="stroke: #A80036; stroke-width: 1.5;" x1="25" x2="319" y1="65" y2="65"/><line style="stroke: #A80036; stroke-width: 1.5;" x1="25" x2="319" y1="73" y2="73"/><ellipse cx="35" cy="84" fill="#84BE84" rx="3" ry="3" style="stroke: #038048; stroke-width: 1.0;"/><text fill="#000000" font-family="sans-serif" font-size="11" font-style="italic" lengthAdjust="spacingAndGlyphs" textLength="110" x="44" y="87.6348">publish(TOPIC): void</text><ellipse cx="35" cy="96.9551" fill="#84BE84" rx="3" ry="3" style="stroke: #038048; stroke-width: 1.0;"/><text fill="#000000" font-family="sans-serif" font-size="11" font-style="italic" lengthAdjust="spacingAndGlyphs" textLength="196" x="44" y="100.5898">publish(Class&lt;TOPIC&gt;, TOPIC): void</text><ellipse cx="35" cy="109.9102" fill="#84BE84" rx="3" ry="3" style="stroke: #038048; stroke-width: 1.0;"/><text fill="#000000" font-family="sans-serif" font-size="11" font-style="italic" lengthAdjust="spacingAndGlyphs" textLength="270" x="44" y="113.5449">subscribe(Class&lt;TOPIC&gt;, Listener&lt;TOPIC&gt;): void</text><ellipse cx="35" cy="122.8652" fill="#84BE84" rx="3" ry="3" style="stroke: #038048; stroke-width: 1.0;"/><text fill="#000000" font-family="sans-serif" font-size="11" font-style="italic" lengthAdjust="spacingAndGlyphs" textLength="170" x="44" y="126.5">unsubscribe(Listener&lt;?&gt;): void</text></a><!--MD5=[33c6657d83bb240b06f77ba677e72097]
class it.tidalwave.messagebus.MessageBus.Listener--><a href="MessageBus.Listener.html" target="_top" title="MessageBus.Listener.html" xlink:actuate="onRequest" xlink:href="MessageBus.Listener.html" xlink:show="new" xlink:title="MessageBus.Listener.html" xlink:type="simple"><rect codeLine="28" fill="#FEFECE" filter="url(#f1m2ohgiuaygwc)" height="60.9551" id="it.tidalwave.messagebus.MessageBus.Listener" style="stroke: #A80036; stroke-width: 1.5;" width="190" x="24" y="206"/><ellipse cx="39" cy="222" fill="#B4A7E5" rx="11" ry="11" style="stroke: #A80036; stroke-width: 1.0;"/><path d="M35.4277,218.2651 L35.4277,216.1069 L42.8071,216.1069 L42.8071,218.2651 L40.3418,218.2651 L40.3418,226.3418 L42.8071,226.3418 L42.8071,228.5 L35.4277,228.5 L35.4277,226.3418 L37.8931,226.3418 L37.8931,218.2651 Z "/><text fill="#000000" font-family="sans-serif" font-size="12" font-style="italic" lengthAdjust="spacingAndGlyphs" textLength="119" x="53" y="226.5352">MessageBus.Listener</text><rect fill="#FFFFFF" height="16.1328" style="stroke: #000000; stroke-width: 1.0; stroke-dasharray: 2.0,2.0;" width="37" x="180" y="203"/><text fill="#000000" font-family="sans-serif" font-size="12" font-style="italic" lengthAdjust="spacingAndGlyphs" textLength="35" x="181" y="215.6016">TOPIC</text><line style="stroke: #A80036; stroke-width: 1.5;" x1="25" x2="213" y1="238" y2="238"/><line style="stroke: #A80036; stroke-width: 1.5;" x1="25" x2="213" y1="246" y2="246"/><ellipse cx="35" cy="257" fill="#84BE84" rx="3" ry="3" style="stroke: #038048; stroke-width: 1.0;"/><text fill="#000000" font-family="sans-serif" font-size="11" font-style="italic" lengthAdjust="spacingAndGlyphs" textLength="101" x="44" y="260.6348">notify(TOPIC): void</text></a><!--MD5=[6045877bbc8a7e032ba7d936189352ad]
reverse link it.tidalwave.messagebus.MessageBusHelper to it.tidalwave.messagebus.MessageBusHelper.Adapter--><path codeLine="32" d="M600.7629,142.2795 C578.7762,159.1542 555.2391,177.219 534.716,192.9705 " fill="none" id="it.tidalwave.messagebus.MessageBusHelper-backto-it.tidalwave.messagebus.MessageBusHelper.Adapter" style="stroke: #A80036; stroke-width: 1.0;"/><ellipse cx="606.443" cy="137.9199" fill="#FFFFFF" rx="8" ry="8" style="stroke: #A80036; stroke-width: 1.0;"/><line style="stroke: #A80036; stroke-width: 1.0;" x1="600.0967" x2="612.7893" y1="142.7907" y2="133.0492"/><line style="stroke: #A80036; stroke-width: 1.0;" x1="601.5722" x2="611.3137" y1="131.5736" y2="144.2663"/><!--MD5=[ab372988ad4e4ab6017317a93959ba31]
reverse link it.tidalwave.messagebus.MessageBusHelper to it.tidalwave.messagebus.MessageBusHelper.MethodAdapter--><path codeLine="33" d="M755.6955,142.3346 C780.8529,161.5469 808.023,182.2962 830.4391,199.415 " fill="none" id="it.tidalwave.messagebus.MessageBusHelper-backto-it.tidalwave.messagebus.MessageBusHelper.MethodAdapter" style="stroke: #A80036; stroke-width: 1.0;"/><ellipse cx="749.8948" cy="137.9047" fill="#FFFFFF" rx="8" ry="8" style="stroke: #A80036; stroke-width: 1.0;"/><line style="stroke: #A80036; stroke-width: 1.0;" x1="756.2528" x2="743.5368" y1="142.7602" y2="133.0492"/><line style="stroke: #A80036; stroke-width: 1.0;" x1="745.0393" x2="754.7503" y1="144.2627" y2="131.5467"/><!--MD5=[f16c43c247a984a766005974a4a0e313]
reverse link it.tidalwave.messagebus.MessageBus to it.tidalwave.messagebus.MessageBus.Listener--><path codeLine="34" d="M149.6724,147.6659 C142.7073,167.8382 135.3478,189.1529 129.5841,205.8462 " fill="none" id="it.tidalwave.messagebus.MessageBus-backto-it.tidalwave.messagebus.MessageBus.Listener" style="stroke: #A80036; stroke-width: 1.0;"/><ellipse cx="152.0348" cy="140.8235" fill="#FFFFFF" rx="8" ry="8" style="stroke: #A80036; stroke-width: 1.0;"/><line style="stroke: #A80036; stroke-width: 1.0;" x1="149.4238" x2="154.6458" y1="148.3855" y2="133.2616"/><line style="stroke: #A80036; stroke-width: 1.0;" x1="144.4729" x2="159.5967" y1="138.2125" y2="143.4345"/><text fill="#888888" font-family="sans-serif" font-size="10" lengthAdjust="spacingAndGlyphs" textLength="188" x="420" y="303.668">UMLDoclet 2.0.12, PlantUML 1.2020.16</text><!--MD5=[009b77502abccd0cc40db1654f1d57d2]
@startuml
    namespace it.tidalwave.messagebus {

        class MessageBusHelper [[MessageBusHelper.html]] {
            +subscribeAll(): void
            +unsubscribeAll(): void
            +publish(Object): void
            +publish(Class<TOPIC>, TOPIC): void
        }

        interface it.tidalwave.messagebus.MessageBusHelper.Adapter [[MessageBusHelper.Adapter.html]] {
            {abstract} +createMethodAdapter(Object, Method, Class<TOPIC>): MethodAdapter<TOPIC>
            {abstract} +publish(Object): void
            {abstract} +publish(Class<TOPIC>, TOPIC): void
        }

        interface it.tidalwave.messagebus.MessageBusHelper.MethodAdapter<TOPIC> [[MessageBusHelper.MethodAdapter.html]] {
            {abstract} +subscribe(): void
            {abstract} +unsubscribe(): void
        }

        interface MessageBus [[MessageBus.html]] {
            {abstract} +publish(TOPIC): void
            {abstract} +publish(Class<TOPIC>, TOPIC): void
            {abstract} +subscribe(Class<TOPIC>, Listener<TOPIC>): void
            {abstract} +unsubscribe(Listener<?>): void
        }

        interface it.tidalwave.messagebus.MessageBus.Listener<TOPIC> [[MessageBus.Listener.html]] {
            {abstract} +notify(TOPIC): void
        }

        MessageBusHelper +- - it.tidalwave.messagebus.MessageBusHelper.Adapter
        MessageBusHelper +- - it.tidalwave.messagebus.MessageBusHelper.MethodAdapter
        MessageBus +- - it.tidalwave.messagebus.MessageBus.Listener
    }

    center footer UMLDoclet 2.0.12, PlantUML 1.2020.16
@enduml

PlantUML version 1.2020.16(Sun Aug 23 22:20:43 CEST 2020)
(APACHE source distribution)
Java Runtime: OpenJDK Runtime Environment
JVM: OpenJDK 64-Bit Server VM
Default Encoding: UTF-8
Language: en
Country: GB
--></g></svg>