@startuml
    set namespaceSeparator none
    hide empty fields
    hide empty methods

    class "<size:14>DiaryPhotoCollectionProvider\n<size:10>it.tidalwave.bluemarine2.service.stoppingdown.impl" as it.tidalwave.bluemarine2.service.stoppingdown.impl.DiaryPhotoCollectionProvider [[DiaryPhotoCollectionProvider.html]] {
        +DiaryPhotoCollectionProvider()
        +DiaryPhotoCollectionProvider(String)
        +findPhotos(MediaFolder): PathAwareFinder
        #clearCachesImpl(): void
    }

    class "<size:14>PhotoCollectionProviderSupport\n<size:10>it.tidalwave.bluemarine2.service.stoppingdown.impl" as it.tidalwave.bluemarine2.service.stoppingdown.impl.PhotoCollectionProviderSupport [[PhotoCollectionProviderSupport.html]]

    it.tidalwave.bluemarine2.service.stoppingdown.impl.PhotoCollectionProviderSupport <|-- it.tidalwave.bluemarine2.service.stoppingdown.impl.DiaryPhotoCollectionProvider

    center footer UMLDoclet 2.0.12, PlantUML 1.2020.16
@enduml
