<?xml version="1.0" encoding="UTF-8" standalone="no"?><svg xmlns="http://www.w3.org/2000/svg" xmlns:xlink="http://www.w3.org/1999/xlink" contentScriptType="application/ecmascript" contentStyleType="text/css" height="239px" preserveAspectRatio="none" style="width:313px;height:239px;" version="1.1" viewBox="0 0 313 239" width="313px" zoomAndPan="magnify"><defs><filter height="300%" id="ffvh9i2ahr28k" width="300%" x="-1" y="-1"><feGaussianBlur result="blurOut" stdDeviation="2.0"/><feColorMatrix in="blurOut" result="blurOut2" type="matrix" values="0 0 0 0 0 0 0 0 0 0 0 0 0 0 0 0 0 0 .4 0"/><feOffset dx="4.0" dy="4.0" in="blurOut2" result="blurOut3"/><feBlend in="SourceGraphic" in2="blurOut3" mode="normal"/></filter></defs><g><!--MD5=[ca3154ac848439850009188cfe858fe0]
class it.tidalwave.bluemarine2.service.stoppingdown.impl.ThemesPhotoCollectionProvider--><a href="ThemesPhotoCollectionProvider.html" target="_top" title="ThemesPhotoCollectionProvider.html" xlink:actuate="onRequest" xlink:href="ThemesPhotoCollectionProvider.html" xlink:show="new" xlink:title="ThemesPhotoCollectionProvider.html" xlink:type="simple"><rect codeLine="5" fill="#FEFECE" filter="url(#ffvh9i2ahr28k)" height="98.0859" id="it.tidalwave.bluemarine2.service.stoppingdown.impl.ThemesPhotoCollectionProvider" style="stroke: #A80036; stroke-width: 1.5;" width="285" x="9" y="105"/><ellipse cx="24" cy="124.1328" fill="#ADD1B2" rx="11" ry="11" style="stroke: #A80036; stroke-width: 1.0;"/><path d="M26.4731,130.2759 Q25.8921,130.5747 25.2529,130.7241 Q24.6138,130.8735 23.9082,130.8735 Q21.4014,130.8735 20.0815,129.2217 Q18.7617,127.5698 18.7617,124.4487 Q18.7617,121.3193 20.0815,119.6675 Q21.4014,118.0156 23.9082,118.0156 Q24.6138,118.0156 25.2612,118.165 Q25.9087,118.3145 26.4731,118.6133 L26.4731,121.3359 Q25.8423,120.7549 25.2488,120.4851 Q24.6553,120.2153 24.0244,120.2153 Q22.6797,120.2153 21.9949,121.282 Q21.3101,122.3486 21.3101,124.4487 Q21.3101,126.5405 21.9949,127.6072 Q22.6797,128.6738 24.0244,128.6738 Q24.6553,128.6738 25.2488,128.4041 Q25.8423,128.1343 26.4731,127.5532 Z "/><text fill="#000000" font-family="sans-serif" font-size="14" lengthAdjust="spacingAndGlyphs" textLength="220" x="54.5" y="123.5352">ThemesPhotoCollectionProvider</text><text fill="#000000" font-family="sans-serif" font-size="10" lengthAdjust="spacingAndGlyphs" textLength="253" x="38" y="136.1563">it.tidalwave.bluemarine2.service.stoppingdown.impl</text><line style="stroke: #A80036; stroke-width: 1.5;" x1="10" x2="293" y1="143.2656" y2="143.2656"/><ellipse cx="20" cy="154.2656" fill="#84BE84" rx="3" ry="3" style="stroke: #038048; stroke-width: 1.0;"/><text fill="#000000" font-family="sans-serif" font-size="11" lengthAdjust="spacingAndGlyphs" textLength="180" x="29" y="157.9004">ThemesPhotoCollectionProvider()</text><ellipse cx="20" cy="167.2207" fill="#84BE84" rx="3" ry="3" style="stroke: #038048; stroke-width: 1.0;"/><text fill="#000000" font-family="sans-serif" font-size="11" lengthAdjust="spacingAndGlyphs" textLength="212" x="29" y="170.8555">ThemesPhotoCollectionProvider(String)</text><ellipse cx="20" cy="180.1758" fill="#84BE84" rx="3" ry="3" style="stroke: #038048; stroke-width: 1.0;"/><text fill="#000000" font-family="sans-serif" font-size="11" lengthAdjust="spacingAndGlyphs" textLength="227" x="29" y="183.8105">findPhotos(MediaFolder): PathAwareFinder</text><polygon fill="#FFFF44" points="20,188.1309,24,192.1309,20,196.1309,16,192.1309" style="stroke: #B38D22; stroke-width: 1.0;"/><text fill="#000000" font-family="sans-serif" font-size="11" lengthAdjust="spacingAndGlyphs" textLength="125" x="29" y="196.7656">clearCachesImpl(): void</text></a><!--MD5=[a1bacf25003e30252753474c28fe61bc]
class it.tidalwave.bluemarine2.service.stoppingdown.impl.PhotoCollectionProviderSupport--><a href="PhotoCollectionProviderSupport.html" target="_top" title="PhotoCollectionProviderSupport.html" xlink:actuate="onRequest" xlink:href="PhotoCollectionProviderSupport.html" xlink:show="new" xlink:title="PhotoCollectionProviderSupport.html" xlink:type="simple"><rect codeLine="12" fill="#FEFECE" filter="url(#ffvh9i2ahr28k)" height="38.2656" id="it.tidalwave.bluemarine2.service.stoppingdown.impl.PhotoCollectionProviderSupport" style="stroke: #A80036; stroke-width: 1.5;" width="285" x="9" y="7"/><ellipse cx="24" cy="26.1328" fill="#ADD1B2" rx="11" ry="11" style="stroke: #A80036; stroke-width: 1.0;"/><path d="M26.4731,32.2759 Q25.8921,32.5747 25.2529,32.7241 Q24.6138,32.8735 23.9082,32.8735 Q21.4014,32.8735 20.0815,31.2217 Q18.7617,29.5698 18.7617,26.4487 Q18.7617,23.3193 20.0815,21.6675 Q21.4014,20.0156 23.9082,20.0156 Q24.6138,20.0156 25.2612,20.165 Q25.9087,20.3145 26.4731,20.6133 L26.4731,23.3359 Q25.8423,22.7549 25.2488,22.4851 Q24.6553,22.2153 24.0244,22.2153 Q22.6797,22.2153 21.9949,23.282 Q21.3101,24.3486 21.3101,26.4487 Q21.3101,28.5405 21.9949,29.6072 Q22.6797,30.6738 24.0244,30.6738 Q24.6553,30.6738 25.2488,30.4041 Q25.8423,30.1343 26.4731,29.5532 Z "/><text fill="#000000" font-family="sans-serif" font-size="14" lengthAdjust="spacingAndGlyphs" textLength="221" x="54" y="25.5352">PhotoCollectionProviderSupport</text><text fill="#000000" font-family="sans-serif" font-size="10" lengthAdjust="spacingAndGlyphs" textLength="253" x="38" y="38.1563">it.tidalwave.bluemarine2.service.stoppingdown.impl</text></a><!--MD5=[bababcff9106fccaca7ad1eaedcc2ac4]
reverse link it.tidalwave.bluemarine2.service.stoppingdown.impl.PhotoCollectionProviderSupport to it.tidalwave.bluemarine2.service.stoppingdown.impl.ThemesPhotoCollectionProvider--><path codeLine="14" d="M151.5,65.4693 C151.5,77.9024 151.5,91.7909 151.5,104.8136 " fill="none" id="it.tidalwave.bluemarine2.service.stoppingdown.impl.PhotoCollectionProviderSupport-backto-it.tidalwave.bluemarine2.service.stoppingdown.impl.ThemesPhotoCollectionProvider" style="stroke: #A80036; stroke-width: 1.0;"/><polygon fill="none" points="144.5001,65.1629,151.5,45.1629,158.5001,65.1629,144.5001,65.1629" style="stroke: #A80036; stroke-width: 1.0;"/><text fill="#888888" font-family="sans-serif" font-size="10" lengthAdjust="spacingAndGlyphs" textLength="188" x="53.5" y="225.7539">UMLDoclet 2.0.12, PlantUML 1.2020.16</text><!--MD5=[5af61982395dce93afa965c25600f6bc]
@startuml
    set namespaceSeparator none
    hide empty fields
    hide empty methods

    class "<size:14>ThemesPhotoCollectionProvider\n<size:10>it.tidalwave.bluemarine2.service.stoppingdown.impl" as it.tidalwave.bluemarine2.service.stoppingdown.impl.ThemesPhotoCollectionProvider [[ThemesPhotoCollectionProvider.html]] {
        +ThemesPhotoCollectionProvider()
        +ThemesPhotoCollectionProvider(String)
        +findPhotos(MediaFolder): PathAwareFinder
        #clearCachesImpl(): void
    }

    class "<size:14>PhotoCollectionProviderSupport\n<size:10>it.tidalwave.bluemarine2.service.stoppingdown.impl" as it.tidalwave.bluemarine2.service.stoppingdown.impl.PhotoCollectionProviderSupport [[PhotoCollectionProviderSupport.html]]

    it.tidalwave.bluemarine2.service.stoppingdown.impl.PhotoCollectionProviderSupport <|- - it.tidalwave.bluemarine2.service.stoppingdown.impl.ThemesPhotoCollectionProvider

    center footer UMLDoclet 2.0.12, PlantUML 1.2020.16
@enduml

PlantUML version 1.2020.16(Sun Aug 23 22:20:43 CEST 2020)
(APACHE source distribution)
Java Runtime: OpenJDK Runtime Environment
JVM: OpenJDK 64-Bit Server VM
Default Encoding: UTF-8
Language: en
Country: GB
--></g></svg>