<?xml version="1.0" encoding="UTF-8" standalone="no"?><svg xmlns="http://www.w3.org/2000/svg" xmlns:xlink="http://www.w3.org/1999/xlink" contentScriptType="application/ecmascript" contentStyleType="text/css" height="289px" preserveAspectRatio="none" style="width:916px;height:289px;" version="1.1" viewBox="0 0 916 289" width="916px" zoomAndPan="magnify"><defs><filter height="300%" id="f1v9xlwhoacjxl" width="300%" x="-1" y="-1"><feGaussianBlur result="blurOut" stdDeviation="2.0"/><feColorMatrix in="blurOut" result="blurOut2" type="matrix" values="0 0 0 0 0 0 0 0 0 0 0 0 0 0 0 0 0 0 .4 0"/><feOffset dx="4.0" dy="4.0" in="blurOut2" result="blurOut3"/><feBlend in="SourceGraphic" in2="blurOut3" mode="normal"/></filter></defs><g><!--MD5=[34f4ad0292f8be6a39503f63d06b9019]
class it.tidalwave.bluemarine2.model.finder.audio.MusicPerformerFinder--><a href="MusicPerformerFinder.html" target="_top" title="MusicPerformerFinder.html" xlink:actuate="onRequest" xlink:href="MusicPerformerFinder.html" xlink:show="new" xlink:title="MusicPerformerFinder.html" xlink:type="simple"><rect codeLine="5" fill="#FEFECE" filter="url(#f1v9xlwhoacjxl)" height="72.1758" id="it.tidalwave.bluemarine2.model.finder.audio.MusicPerformerFinder" style="stroke: #A80036; stroke-width: 1.5;" width="295" x="306" y="181"/><ellipse cx="342.15" cy="200.1328" fill="#B4A7E5" rx="11" ry="11" style="stroke: #A80036; stroke-width: 1.0;"/><path d="M338.5777,196.3979 L338.5777,194.2397 L345.9571,194.2397 L345.9571,196.3979 L343.4918,196.3979 L343.4918,204.4746 L345.9571,204.4746 L345.9571,206.6328 L338.5777,206.6328 L338.5777,204.4746 L341.0431,204.4746 L341.0431,196.3979 Z "/><text fill="#000000" font-family="sans-serif" font-size="14" font-style="italic" lengthAdjust="spacingAndGlyphs" textLength="152" x="392.85" y="199.5352">MusicPerformerFinder</text><text fill="#000000" font-family="sans-serif" font-size="10" font-style="italic" lengthAdjust="spacingAndGlyphs" textLength="216" x="360.85" y="212.1563">it.tidalwave.bluemarine2.model.finder.audio</text><line style="stroke: #A80036; stroke-width: 1.5;" x1="307" x2="600" y1="219.2656" y2="219.2656"/><ellipse cx="317" cy="230.2656" fill="#84BE84" rx="3" ry="3" style="stroke: #038048; stroke-width: 1.0;"/><text fill="#000000" font-family="sans-serif" font-size="11" font-style="italic" lengthAdjust="spacingAndGlyphs" textLength="211" x="326" y="233.9004">performerOf(Id): MusicPerformerFinder</text><ellipse cx="317" cy="243.2207" fill="#84BE84" rx="3" ry="3" style="stroke: #038048; stroke-width: 1.0;"/><text fill="#000000" font-family="sans-serif" font-size="11" lengthAdjust="spacingAndGlyphs" textLength="269" x="326" y="246.8555">performerOf(Performance): MusicPerformerFinder</text></a><!--MD5=[2ff0b40956ebe4704fe2d1f2fe369a05]
class it.tidalwave.bluemarine2.model.spi.SourceAwareFinder--><a href="../../spi/SourceAwareFinder.html" target="_top" title="../../spi/SourceAwareFinder.html" xlink:actuate="onRequest" xlink:href="../../spi/SourceAwareFinder.html" xlink:show="new" xlink:title="../../spi/SourceAwareFinder.html" xlink:type="simple"><rect codeLine="10" fill="#FEFECE" filter="url(#f1v9xlwhoacjxl)" height="111.041" id="it.tidalwave.bluemarine2.model.spi.SourceAwareFinder" style="stroke: #A80036; stroke-width: 1.5;" width="431" x="7" y="10"/><ellipse cx="22" cy="29.1328" fill="#B4A7E5" rx="11" ry="11" style="stroke: #A80036; stroke-width: 1.0;"/><path d="M18.4277,25.3979 L18.4277,23.2397 L25.8071,23.2397 L25.8071,25.3979 L23.3418,25.3979 L23.3418,33.4746 L25.8071,33.4746 L25.8071,35.6328 L18.4277,35.6328 L18.4277,33.4746 L20.8931,33.4746 L20.8931,25.3979 Z "/><text fill="#000000" font-family="sans-serif" font-size="14" font-style="italic" lengthAdjust="spacingAndGlyphs" textLength="134" x="54.5" y="28.5352">SourceAwareFinder</text><text fill="#000000" font-family="sans-serif" font-size="10" font-style="italic" lengthAdjust="spacingAndGlyphs" textLength="171" x="36" y="41.1563">it.tidalwave.bluemarine2.model.spi</text><rect fill="#FFFFFF" height="16.1328" style="stroke: #000000; stroke-width: 1.0; stroke-dasharray: 2.0,2.0;" width="226" x="215" y="7"/><text fill="#000000" font-family="sans-serif" font-size="12" font-style="italic" lengthAdjust="spacingAndGlyphs" textLength="224" x="216" y="19.6016">MusicPerformer, MusicPerformerFinder</text><line style="stroke: #A80036; stroke-width: 1.5;" x1="8" x2="437" y1="48.2656" y2="48.2656"/><ellipse cx="18" cy="59.2656" fill="#84BE84" rx="3" ry="3" style="stroke: #038048; stroke-width: 1.0;"/><text fill="#000000" font-family="sans-serif" font-size="11" font-style="italic" lengthAdjust="spacingAndGlyphs" textLength="175" x="27" y="62.9004">withId(Id): MusicPerformerFinder</text><ellipse cx="18" cy="72.2207" fill="#84BE84" rx="3" ry="3" style="stroke: #038048; stroke-width: 1.0;"/><text fill="#000000" font-family="sans-serif" font-size="11" font-style="italic" lengthAdjust="spacingAndGlyphs" textLength="220" x="27" y="75.8555">importedFrom(Id): MusicPerformerFinder</text><ellipse cx="18" cy="85.1758" fill="#84BE84" rx="3" ry="3" style="stroke: #038048; stroke-width: 1.0;"/><text fill="#000000" font-family="sans-serif" font-size="11" font-style="italic" lengthAdjust="spacingAndGlyphs" textLength="284" x="27" y="88.8105">importedFrom(Optional&lt;Id&gt;): MusicPerformerFinder</text><ellipse cx="18" cy="98.1309" fill="#84BE84" rx="3" ry="3" style="stroke: #038048; stroke-width: 1.0;"/><text fill="#000000" font-family="sans-serif" font-size="11" font-style="italic" lengthAdjust="spacingAndGlyphs" textLength="208" x="27" y="101.7656">withFallback(Id): MusicPerformerFinder</text><ellipse cx="18" cy="111.0859" fill="#84BE84" rx="3" ry="3" style="stroke: #038048; stroke-width: 1.0;"/><text fill="#000000" font-family="sans-serif" font-size="11" font-style="italic" lengthAdjust="spacingAndGlyphs" textLength="272" x="27" y="114.7207">withFallback(Optional&lt;Id&gt;): MusicPerformerFinder</text></a><!--MD5=[aa1b61d3a274306ac3e9ee0851baf807]
class it.tidalwave.util.spi.ExtendedFinderSupport--><a href="http://blueMarine.tidalwave.it/bluemarine2-modules/it-tidalwave-bluemarine2-commons/apidocs/it/tidalwave/util/spi/ExtendedFinderSupport.html?is-external=true" target="_top" title="http://blueMarine.tidalwave.it/bluemarine2-modules/it-tidalwave-bluemarine2-commons/apidocs/it/tidalwave/util/spi/ExtendedFinderSupport.html?is-external=true" xlink:actuate="onRequest" xlink:href="http://blueMarine.tidalwave.it/bluemarine2-modules/it-tidalwave-bluemarine2-commons/apidocs/it/tidalwave/util/spi/ExtendedFinderSupport.html?is-external=true" xlink:show="new" xlink:title="http://blueMarine.tidalwave.it/bluemarine2-modules/it-tidalwave-bluemarine2-commons/apidocs/it/tidalwave/util/spi/ExtendedFinderSupport.html?is-external=true" xlink:type="simple"><rect codeLine="17" fill="#FEFECE" filter="url(#f1v9xlwhoacjxl)" height="111.041" id="it.tidalwave.util.spi.ExtendedFinderSupport" style="stroke: #A80036; stroke-width: 1.5;" width="424" x="473.5" y="10"/><ellipse cx="488.5" cy="29.1328" fill="#B4A7E5" rx="11" ry="11" style="stroke: #A80036; stroke-width: 1.0;"/><path d="M484.9277,25.3979 L484.9277,23.2397 L492.3071,23.2397 L492.3071,25.3979 L489.8418,25.3979 L489.8418,33.4746 L492.3071,33.4746 L492.3071,35.6328 L484.9277,35.6328 L484.9277,33.4746 L487.3931,33.4746 L487.3931,25.3979 Z "/><text fill="#000000" font-family="sans-serif" font-size="14" font-style="italic" lengthAdjust="spacingAndGlyphs" textLength="164" x="502.5" y="28.5352">ExtendedFinderSupport</text><text fill="#000000" font-family="sans-serif" font-size="10" font-style="italic" lengthAdjust="spacingAndGlyphs" textLength="93" x="538" y="41.1563">it.tidalwave.util.spi</text><rect fill="#FFFFFF" height="16.1328" style="stroke: #000000; stroke-width: 1.0; stroke-dasharray: 2.0,2.0;" width="226" x="674.5" y="7"/><text fill="#000000" font-family="sans-serif" font-size="12" font-style="italic" lengthAdjust="spacingAndGlyphs" textLength="224" x="675.5" y="19.6016">MusicPerformer, MusicPerformerFinder</text><line style="stroke: #A80036; stroke-width: 1.5;" x1="474.5" x2="896.5" y1="48.2656" y2="48.2656"/><ellipse cx="484.5" cy="59.2656" fill="#84BE84" rx="3" ry="3" style="stroke: #038048; stroke-width: 1.0;"/><text fill="#000000" font-family="sans-serif" font-size="11" font-style="italic" lengthAdjust="spacingAndGlyphs" textLength="173" x="493.5" y="62.9004">from(int): MusicPerformerFinder</text><ellipse cx="484.5" cy="72.2207" fill="#84BE84" rx="3" ry="3" style="stroke: #038048; stroke-width: 1.0;"/><text fill="#000000" font-family="sans-serif" font-size="11" font-style="italic" lengthAdjust="spacingAndGlyphs" textLength="170" x="493.5" y="75.8555">max(int): MusicPerformerFinder</text><ellipse cx="484.5" cy="85.1758" fill="#84BE84" rx="3" ry="3" style="stroke: #038048; stroke-width: 1.0;"/><text fill="#000000" font-family="sans-serif" font-size="11" font-style="italic" lengthAdjust="spacingAndGlyphs" textLength="225" x="493.5" y="88.8105">sort(SortCriterion): MusicPerformerFinder</text><ellipse cx="484.5" cy="98.1309" fill="#84BE84" rx="3" ry="3" style="stroke: #038048; stroke-width: 1.0;"/><text fill="#000000" font-family="sans-serif" font-size="11" font-style="italic" lengthAdjust="spacingAndGlyphs" textLength="302" x="493.5" y="101.7656">sort(SortCriterion, SortDirection): MusicPerformerFinder</text><ellipse cx="484.5" cy="111.0859" fill="#84BE84" rx="3" ry="3" style="stroke: #038048; stroke-width: 1.0;"/><text fill="#000000" font-family="sans-serif" font-size="11" font-style="italic" lengthAdjust="spacingAndGlyphs" textLength="233" x="493.5" y="114.7207">withContext(Object): MusicPerformerFinder</text></a><!--MD5=[44c470282cfa503aba704bdb6749deae]
reverse link it.tidalwave.bluemarine2.model.spi.SourceAwareFinder to it.tidalwave.bluemarine2.model.finder.audio.MusicPerformerFinder--><path codeLine="25" d="M324.1943,132.1956 C349.6678,148.9023 376.0502,166.205 398.289,180.7902 " fill="none" id="it.tidalwave.bluemarine2.model.spi.SourceAwareFinder-backto-it.tidalwave.bluemarine2.model.finder.audio.MusicPerformerFinder" style="stroke: #A80036; stroke-width: 1.0;"/><polygon fill="none" points="320.0893,137.8746,307.2042,121.0527,327.7672,126.1677,320.0893,137.8746" style="stroke: #A80036; stroke-width: 1.0;"/><!--MD5=[cb3f84bbf8cce6dabaf2d2dce8925ff6]
reverse link it.tidalwave.util.spi.ExtendedFinderSupport to it.tidalwave.bluemarine2.model.finder.audio.MusicPerformerFinder--><path codeLine="26" d="M583.3654,132.1956 C557.7816,148.9023 531.2851,166.205 508.95,180.7902 " fill="none" id="it.tidalwave.util.spi.ExtendedFinderSupport-backto-it.tidalwave.bluemarine2.model.finder.audio.MusicPerformerFinder" style="stroke: #A80036; stroke-width: 1.0;"/><polygon fill="none" points="579.856,126.127,600.4291,121.0527,587.5107,137.8491,579.856,126.127" style="stroke: #A80036; stroke-width: 1.0;"/><text fill="#888888" font-family="sans-serif" font-size="10" lengthAdjust="spacingAndGlyphs" textLength="188" x="355.25" y="275.8438">UMLDoclet 2.0.12, PlantUML 1.2020.16</text><!--MD5=[d291f93bc4babb70fca26c074155a12e]
@startuml
    set namespaceSeparator none
    hide empty fields
    hide empty methods

    interface "<size:14>MusicPerformerFinder\n<size:10>it.tidalwave.bluemarine2.model.finder.audio" as it.tidalwave.bluemarine2.model.finder.audio.MusicPerformerFinder [[MusicPerformerFinder.html]] {
        {abstract} +performerOf(Id): MusicPerformerFinder
        +performerOf(Performance): MusicPerformerFinder
    }

    interface "<size:14>SourceAwareFinder\n<size:10>it.tidalwave.bluemarine2.model.spi" as it.tidalwave.bluemarine2.model.spi.SourceAwareFinder<MusicPerformer, MusicPerformerFinder> [[../../spi/SourceAwareFinder.html]] {
        {abstract} +withId(Id): MusicPerformerFinder
        {abstract} +importedFrom(Id): MusicPerformerFinder
        {abstract} +importedFrom(Optional<Id>): MusicPerformerFinder
        {abstract} +withFallback(Id): MusicPerformerFinder
        {abstract} +withFallback(Optional<Id>): MusicPerformerFinder
    }
    interface "<size:14>ExtendedFinderSupport\n<size:10>it.tidalwave.util.spi" as it.tidalwave.util.spi.ExtendedFinderSupport<MusicPerformer, MusicPerformerFinder> [[http://blueMarine.tidalwave.it/bluemarine2-modules/it-tidalwave-bluemarine2-commons/apidocs/it/tidalwave/util/spi/ExtendedFinderSupport.html?is-external=true]] {
        {abstract} +from(int): MusicPerformerFinder
        {abstract} +max(int): MusicPerformerFinder
        {abstract} +sort(SortCriterion): MusicPerformerFinder
        {abstract} +sort(SortCriterion, SortDirection): MusicPerformerFinder
        {abstract} +withContext(Object): MusicPerformerFinder
    }

    it.tidalwave.bluemarine2.model.spi.SourceAwareFinder <|- - it.tidalwave.bluemarine2.model.finder.audio.MusicPerformerFinder
    it.tidalwave.util.spi.ExtendedFinderSupport <|- - it.tidalwave.bluemarine2.model.finder.audio.MusicPerformerFinder

    center footer UMLDoclet 2.0.12, PlantUML 1.2020.16
@enduml

PlantUML version 1.2020.16(Sun Aug 23 22:20:43 CEST 2020)
(APACHE source distribution)
Java Runtime: OpenJDK Runtime Environment
JVM: OpenJDK 64-Bit Server VM
Default Encoding: UTF-8
Language: en
Country: GB
--></g></svg>