@startuml
    set namespaceSeparator none
    hide empty fields
    hide empty methods

    interface "<size:14>PerformanceFinder\n<size:10>it.tidalwave.bluemarine2.model.finder.audio" as it.tidalwave.bluemarine2.model.finder.audio.PerformanceFinder [[PerformanceFinder.html]] {
        {abstract} +ofTrack(Id): PerformanceFinder
        +ofTrack(Track): PerformanceFinder
        {abstract} +performedBy(Id): PerformanceFinder
        +performedBy(MusicArtist): PerformanceFinder
    }

    interface "<size:14>SourceAwareFinder\n<size:10>it.tidalwave.bluemarine2.model.spi" as it.tidalwave.bluemarine2.model.spi.SourceAwareFinder<Performance, PerformanceFinder> [[../../spi/SourceAwareFinder.html]] {
        {abstract} +withId(Id): PerformanceFinder
        {abstract} +importedFrom(Id): PerformanceFinder
        {abstract} +importedFrom(Optional<Id>): PerformanceFinder
        {abstract} +withFallback(Id): PerformanceFinder
        {abstract} +withFallback(Optional<Id>): PerformanceFinder
    }
    interface "<size:14>ExtendedFinderSupport\n<size:10>it.tidalwave.util.spi" as it.tidalwave.util.spi.ExtendedFinderSupport<Performance, PerformanceFinder> [[http://blueMarine.tidalwave.it/bluemarine2-modules/it-tidalwave-bluemarine2-commons/apidocs/it/tidalwave/util/spi/ExtendedFinderSupport.html?is-external=true]] {
        {abstract} +from(int): PerformanceFinder
        {abstract} +max(int): PerformanceFinder
        {abstract} +sort(SortCriterion): PerformanceFinder
        {abstract} +sort(SortCriterion, SortDirection): PerformanceFinder
        {abstract} +withContext(Object): PerformanceFinder
    }

    it.tidalwave.bluemarine2.model.spi.SourceAwareFinder <|-- it.tidalwave.bluemarine2.model.finder.audio.PerformanceFinder
    it.tidalwave.util.spi.ExtendedFinderSupport <|-- it.tidalwave.bluemarine2.model.finder.audio.PerformanceFinder

    center footer UMLDoclet 2.0.12, PlantUML 1.2020.16
@enduml
