<?xml version="1.0" encoding="UTF-8" standalone="no"?><svg xmlns="http://www.w3.org/2000/svg" xmlns:xlink="http://www.w3.org/1999/xlink" contentScriptType="application/ecmascript" contentStyleType="text/css" height="315px" preserveAspectRatio="none" style="width:688px;height:315px;" version="1.1" viewBox="0 0 688 315" width="688px" zoomAndPan="magnify"><defs><filter height="300%" id="f1i77yoounet1n" width="300%" x="-1" y="-1"><feGaussianBlur result="blurOut" stdDeviation="2.0"/><feColorMatrix in="blurOut" result="blurOut2" type="matrix" values="0 0 0 0 0 0 0 0 0 0 0 0 0 0 0 0 0 0 .4 0"/><feOffset dx="4.0" dy="4.0" in="blurOut2" result="blurOut3"/><feBlend in="SourceGraphic" in2="blurOut3" mode="normal"/></filter></defs><g><!--MD5=[185cf4cd3fec23c68dfc397ee5a383db]
class it.tidalwave.bluemarine2.model.finder.audio.TrackFinder--><a href="TrackFinder.html" target="_top" title="TrackFinder.html" xlink:actuate="onRequest" xlink:href="TrackFinder.html" xlink:show="new" xlink:title="TrackFinder.html" xlink:type="simple"><rect codeLine="5" fill="#FEFECE" filter="url(#f1i77yoounet1n)" height="98.0859" id="it.tidalwave.bluemarine2.model.finder.audio.TrackFinder" style="stroke: #A80036; stroke-width: 1.5;" width="248" x="215.5" y="181"/><ellipse cx="230.5" cy="200.1328" fill="#B4A7E5" rx="11" ry="11" style="stroke: #A80036; stroke-width: 1.0;"/><path d="M226.9277,196.3979 L226.9277,194.2397 L234.3071,194.2397 L234.3071,196.3979 L231.8418,196.3979 L231.8418,204.4746 L234.3071,204.4746 L234.3071,206.6328 L226.9277,206.6328 L226.9277,204.4746 L229.3931,204.4746 L229.3931,196.3979 Z "/><text fill="#000000" font-family="sans-serif" font-size="14" font-style="italic" lengthAdjust="spacingAndGlyphs" textLength="82" x="311.5" y="199.5352">TrackFinder</text><text fill="#000000" font-family="sans-serif" font-size="10" font-style="italic" lengthAdjust="spacingAndGlyphs" textLength="216" x="244.5" y="212.1563">it.tidalwave.bluemarine2.model.finder.audio</text><line style="stroke: #A80036; stroke-width: 1.5;" x1="216.5" x2="462.5" y1="219.2656" y2="219.2656"/><ellipse cx="226.5" cy="230.2656" fill="#84BE84" rx="3" ry="3" style="stroke: #038048; stroke-width: 1.0;"/><text fill="#000000" font-family="sans-serif" font-size="11" font-style="italic" lengthAdjust="spacingAndGlyphs" textLength="129" x="235.5" y="233.9004">madeBy(Id): TrackFinder</text><ellipse cx="226.5" cy="243.2207" fill="#84BE84" rx="3" ry="3" style="stroke: #038048; stroke-width: 1.0;"/><text fill="#000000" font-family="sans-serif" font-size="11" lengthAdjust="spacingAndGlyphs" textLength="180" x="235.5" y="246.8555">madeBy(MusicArtist): TrackFinder</text><ellipse cx="226.5" cy="256.1758" fill="#84BE84" rx="3" ry="3" style="stroke: #038048; stroke-width: 1.0;"/><text fill="#000000" font-family="sans-serif" font-size="11" font-style="italic" lengthAdjust="spacingAndGlyphs" textLength="136" x="235.5" y="259.8105">inRecord(Id): TrackFinder</text><ellipse cx="226.5" cy="269.1309" fill="#84BE84" rx="3" ry="3" style="stroke: #038048; stroke-width: 1.0;"/><text fill="#000000" font-family="sans-serif" font-size="11" lengthAdjust="spacingAndGlyphs" textLength="164" x="235.5" y="272.7656">inRecord(Record): TrackFinder</text></a><!--MD5=[2ff0b40956ebe4704fe2d1f2fe369a05]
class it.tidalwave.bluemarine2.model.spi.SourceAwareFinder--><a href="../../spi/SourceAwareFinder.html" target="_top" title="../../spi/SourceAwareFinder.html" xlink:actuate="onRequest" xlink:href="../../spi/SourceAwareFinder.html" xlink:show="new" xlink:title="../../spi/SourceAwareFinder.html" xlink:type="simple"><rect codeLine="12" fill="#FEFECE" filter="url(#f1i77yoounet1n)" height="111.041" id="it.tidalwave.bluemarine2.model.spi.SourceAwareFinder" style="stroke: #A80036; stroke-width: 1.5;" width="317" x="7" y="10"/><ellipse cx="22" cy="29.1328" fill="#B4A7E5" rx="11" ry="11" style="stroke: #A80036; stroke-width: 1.0;"/><path d="M18.4277,25.3979 L18.4277,23.2397 L25.8071,23.2397 L25.8071,25.3979 L23.3418,25.3979 L23.3418,33.4746 L25.8071,33.4746 L25.8071,35.6328 L18.4277,35.6328 L18.4277,33.4746 L20.8931,33.4746 L20.8931,25.3979 Z "/><text fill="#000000" font-family="sans-serif" font-size="14" font-style="italic" lengthAdjust="spacingAndGlyphs" textLength="134" x="54.5" y="28.5352">SourceAwareFinder</text><text fill="#000000" font-family="sans-serif" font-size="10" font-style="italic" lengthAdjust="spacingAndGlyphs" textLength="171" x="36" y="41.1563">it.tidalwave.bluemarine2.model.spi</text><rect fill="#FFFFFF" height="16.1328" style="stroke: #000000; stroke-width: 1.0; stroke-dasharray: 2.0,2.0;" width="112" x="215" y="7"/><text fill="#000000" font-family="sans-serif" font-size="12" font-style="italic" lengthAdjust="spacingAndGlyphs" textLength="110" x="216" y="19.6016">Track, TrackFinder</text><line style="stroke: #A80036; stroke-width: 1.5;" x1="8" x2="323" y1="48.2656" y2="48.2656"/><ellipse cx="18" cy="59.2656" fill="#84BE84" rx="3" ry="3" style="stroke: #038048; stroke-width: 1.0;"/><text fill="#000000" font-family="sans-serif" font-size="11" font-style="italic" lengthAdjust="spacingAndGlyphs" textLength="120" x="27" y="62.9004">withId(Id): TrackFinder</text><ellipse cx="18" cy="72.2207" fill="#84BE84" rx="3" ry="3" style="stroke: #038048; stroke-width: 1.0;"/><text fill="#000000" font-family="sans-serif" font-size="11" font-style="italic" lengthAdjust="spacingAndGlyphs" textLength="165" x="27" y="75.8555">importedFrom(Id): TrackFinder</text><ellipse cx="18" cy="85.1758" fill="#84BE84" rx="3" ry="3" style="stroke: #038048; stroke-width: 1.0;"/><text fill="#000000" font-family="sans-serif" font-size="11" font-style="italic" lengthAdjust="spacingAndGlyphs" textLength="229" x="27" y="88.8105">importedFrom(Optional&lt;Id&gt;): TrackFinder</text><ellipse cx="18" cy="98.1309" fill="#84BE84" rx="3" ry="3" style="stroke: #038048; stroke-width: 1.0;"/><text fill="#000000" font-family="sans-serif" font-size="11" font-style="italic" lengthAdjust="spacingAndGlyphs" textLength="153" x="27" y="101.7656">withFallback(Id): TrackFinder</text><ellipse cx="18" cy="111.0859" fill="#84BE84" rx="3" ry="3" style="stroke: #038048; stroke-width: 1.0;"/><text fill="#000000" font-family="sans-serif" font-size="11" font-style="italic" lengthAdjust="spacingAndGlyphs" textLength="217" x="27" y="114.7207">withFallback(Optional&lt;Id&gt;): TrackFinder</text></a><!--MD5=[aa1b61d3a274306ac3e9ee0851baf807]
class it.tidalwave.util.spi.ExtendedFinderSupport--><a href="http://blueMarine.tidalwave.it/bluemarine2-modules/it-tidalwave-bluemarine2-commons/apidocs/it/tidalwave/util/spi/ExtendedFinderSupport.html?is-external=true" target="_top" title="http://blueMarine.tidalwave.it/bluemarine2-modules/it-tidalwave-bluemarine2-commons/apidocs/it/tidalwave/util/spi/ExtendedFinderSupport.html?is-external=true" xlink:actuate="onRequest" xlink:href="http://blueMarine.tidalwave.it/bluemarine2-modules/it-tidalwave-bluemarine2-commons/apidocs/it/tidalwave/util/spi/ExtendedFinderSupport.html?is-external=true" xlink:show="new" xlink:title="http://blueMarine.tidalwave.it/bluemarine2-modules/it-tidalwave-bluemarine2-commons/apidocs/it/tidalwave/util/spi/ExtendedFinderSupport.html?is-external=true" xlink:type="simple"><rect codeLine="19" fill="#FEFECE" filter="url(#f1i77yoounet1n)" height="111.041" id="it.tidalwave.util.spi.ExtendedFinderSupport" style="stroke: #A80036; stroke-width: 1.5;" width="310" x="359.5" y="10"/><ellipse cx="374.5" cy="29.1328" fill="#B4A7E5" rx="11" ry="11" style="stroke: #A80036; stroke-width: 1.0;"/><path d="M370.9277,25.3979 L370.9277,23.2397 L378.3071,23.2397 L378.3071,25.3979 L375.8418,25.3979 L375.8418,33.4746 L378.3071,33.4746 L378.3071,35.6328 L370.9277,35.6328 L370.9277,33.4746 L373.3931,33.4746 L373.3931,25.3979 Z "/><text fill="#000000" font-family="sans-serif" font-size="14" font-style="italic" lengthAdjust="spacingAndGlyphs" textLength="164" x="388.5" y="28.5352">ExtendedFinderSupport</text><text fill="#000000" font-family="sans-serif" font-size="10" font-style="italic" lengthAdjust="spacingAndGlyphs" textLength="93" x="424" y="41.1563">it.tidalwave.util.spi</text><rect fill="#FFFFFF" height="16.1328" style="stroke: #000000; stroke-width: 1.0; stroke-dasharray: 2.0,2.0;" width="112" x="560.5" y="7"/><text fill="#000000" font-family="sans-serif" font-size="12" font-style="italic" lengthAdjust="spacingAndGlyphs" textLength="110" x="561.5" y="19.6016">Track, TrackFinder</text><line style="stroke: #A80036; stroke-width: 1.5;" x1="360.5" x2="668.5" y1="48.2656" y2="48.2656"/><ellipse cx="370.5" cy="59.2656" fill="#84BE84" rx="3" ry="3" style="stroke: #038048; stroke-width: 1.0;"/><text fill="#000000" font-family="sans-serif" font-size="11" font-style="italic" lengthAdjust="spacingAndGlyphs" textLength="118" x="379.5" y="62.9004">from(int): TrackFinder</text><ellipse cx="370.5" cy="72.2207" fill="#84BE84" rx="3" ry="3" style="stroke: #038048; stroke-width: 1.0;"/><text fill="#000000" font-family="sans-serif" font-size="11" font-style="italic" lengthAdjust="spacingAndGlyphs" textLength="115" x="379.5" y="75.8555">max(int): TrackFinder</text><ellipse cx="370.5" cy="85.1758" fill="#84BE84" rx="3" ry="3" style="stroke: #038048; stroke-width: 1.0;"/><text fill="#000000" font-family="sans-serif" font-size="11" font-style="italic" lengthAdjust="spacingAndGlyphs" textLength="170" x="379.5" y="88.8105">sort(SortCriterion): TrackFinder</text><ellipse cx="370.5" cy="98.1309" fill="#84BE84" rx="3" ry="3" style="stroke: #038048; stroke-width: 1.0;"/><text fill="#000000" font-family="sans-serif" font-size="11" font-style="italic" lengthAdjust="spacingAndGlyphs" textLength="247" x="379.5" y="101.7656">sort(SortCriterion, SortDirection): TrackFinder</text><ellipse cx="370.5" cy="111.0859" fill="#84BE84" rx="3" ry="3" style="stroke: #038048; stroke-width: 1.0;"/><text fill="#000000" font-family="sans-serif" font-size="11" font-style="italic" lengthAdjust="spacingAndGlyphs" textLength="178" x="379.5" y="114.7207">withContext(Object): TrackFinder</text></a><!--MD5=[ee7e458dbce54cb015c3a6e6e255db1b]
reverse link it.tidalwave.bluemarine2.model.spi.SourceAwareFinder to it.tidalwave.bluemarine2.model.finder.audio.TrackFinder--><path codeLine="27" d="M239.1439,135.1231 C255.4597,150.5481 272.4174,166.58 287.6477,180.9787 " fill="none" id="it.tidalwave.bluemarine2.model.spi.SourceAwareFinder-backto-it.tidalwave.bluemarine2.model.finder.audio.TrackFinder" style="stroke: #A80036; stroke-width: 1.0;"/><polygon fill="none" points="234.1329,140.0187,224.4085,121.1922,243.7508,129.8454,234.1329,140.0187" style="stroke: #A80036; stroke-width: 1.0;"/><!--MD5=[712a55af52df402fba6a25744549f7f0]
reverse link it.tidalwave.util.spi.ExtendedFinderSupport to it.tidalwave.bluemarine2.model.finder.audio.TrackFinder--><path codeLine="28" d="M440.4329,135.1231 C424.0233,150.5481 406.9681,166.58 391.6503,180.9787 " fill="none" id="it.tidalwave.util.spi.ExtendedFinderSupport-backto-it.tidalwave.bluemarine2.model.finder.audio.TrackFinder" style="stroke: #A80036; stroke-width: 1.0;"/><polygon fill="none" points="435.886,129.79,455.253,121.1922,445.4748,139.9908,435.886,129.79" style="stroke: #A80036; stroke-width: 1.0;"/><text fill="#888888" font-family="sans-serif" font-size="10" lengthAdjust="spacingAndGlyphs" textLength="188" x="241.25" y="301.7539">UMLDoclet 2.0.12, PlantUML 1.2020.16</text><!--MD5=[33ba5b4ebc6f7cdf274ce14a6aca4fef]
@startuml
    set namespaceSeparator none
    hide empty fields
    hide empty methods

    interface "<size:14>TrackFinder\n<size:10>it.tidalwave.bluemarine2.model.finder.audio" as it.tidalwave.bluemarine2.model.finder.audio.TrackFinder [[TrackFinder.html]] {
        {abstract} +madeBy(Id): TrackFinder
        +madeBy(MusicArtist): TrackFinder
        {abstract} +inRecord(Id): TrackFinder
        +inRecord(Record): TrackFinder
    }

    interface "<size:14>SourceAwareFinder\n<size:10>it.tidalwave.bluemarine2.model.spi" as it.tidalwave.bluemarine2.model.spi.SourceAwareFinder<Track, TrackFinder> [[../../spi/SourceAwareFinder.html]] {
        {abstract} +withId(Id): TrackFinder
        {abstract} +importedFrom(Id): TrackFinder
        {abstract} +importedFrom(Optional<Id>): TrackFinder
        {abstract} +withFallback(Id): TrackFinder
        {abstract} +withFallback(Optional<Id>): TrackFinder
    }
    interface "<size:14>ExtendedFinderSupport\n<size:10>it.tidalwave.util.spi" as it.tidalwave.util.spi.ExtendedFinderSupport<Track, TrackFinder> [[http://blueMarine.tidalwave.it/bluemarine2-modules/it-tidalwave-bluemarine2-commons/apidocs/it/tidalwave/util/spi/ExtendedFinderSupport.html?is-external=true]] {
        {abstract} +from(int): TrackFinder
        {abstract} +max(int): TrackFinder
        {abstract} +sort(SortCriterion): TrackFinder
        {abstract} +sort(SortCriterion, SortDirection): TrackFinder
        {abstract} +withContext(Object): TrackFinder
    }

    it.tidalwave.bluemarine2.model.spi.SourceAwareFinder <|- - it.tidalwave.bluemarine2.model.finder.audio.TrackFinder
    it.tidalwave.util.spi.ExtendedFinderSupport <|- - it.tidalwave.bluemarine2.model.finder.audio.TrackFinder

    center footer UMLDoclet 2.0.12, PlantUML 1.2020.16
@enduml

PlantUML version 1.2020.16(Sun Aug 23 22:20:43 CEST 2020)
(APACHE source distribution)
Java Runtime: OpenJDK Runtime Environment
JVM: OpenJDK 64-Bit Server VM
Default Encoding: UTF-8
Language: en
Country: GB
--></g></svg>