@startuml
    namespace it.tidalwave.northernwind.rca.ui.contenteditor.spi {

        interface XhtmlNormalizer [[XhtmlNormalizer.html]] {
            {abstract} +asNormalizedString(String): String
        }

        class DefaultContentEditorPresentationControl [[DefaultContentEditorPresentationControl.html]] {
            +initialize(): void
        }

        interface PropertyBinder [[PropertyBinder.html]] {
            {static} +_PropertyBinder_: Class<PropertyBinder>
            {abstract} +bind(Key<T>, BoundProperty<T>, UpdateCallback): void
            {abstract} +createBoundDocument(Key<String>, UpdateCallback): Document
        }

        interface it.tidalwave.northernwind.rca.ui.contenteditor.spi.PropertyBinder.UpdateCallback [[PropertyBinder.UpdateCallback.html]] {
            {abstract} +notify(ResourceProperties): void
        }

        it.tidalwave.northernwind.rca.ui.contenteditor.ContentEditorPresentationControl <|.. DefaultContentEditorPresentationControl
        PropertyBinder +-- it.tidalwave.northernwind.rca.ui.contenteditor.spi.PropertyBinder.UpdateCallback
    }

    namespace it.tidalwave.northernwind.rca.ui.contenteditor {
        interface ContentEditorPresentationControl [[../ContentEditorPresentationControl.html]] {
            {abstract} +initialize(): void
        }
    }

    center footer UMLDoclet 2.0.12, PlantUML 1.2020.16
@enduml
