<?xml version="1.0" encoding="UTF-8" standalone="no"?><svg xmlns="http://www.w3.org/2000/svg" xmlns:xlink="http://www.w3.org/1999/xlink" contentScriptType="application/ecmascript" contentStyleType="text/css" height="96px" preserveAspectRatio="none" style="width:299px;height:96px;" version="1.1" viewBox="0 0 299 96" width="299px" zoomAndPan="magnify"><defs><filter height="300%" id="f5qf3iwzt4v6n" width="300%" x="-1" y="-1"><feGaussianBlur result="blurOut" stdDeviation="2.0"/><feColorMatrix in="blurOut" result="blurOut2" type="matrix" values="0 0 0 0 0 0 0 0 0 0 0 0 0 0 0 0 0 0 .4 0"/><feOffset dx="4.0" dy="4.0" in="blurOut2" result="blurOut3"/><feBlend in="SourceGraphic" in2="blurOut3" mode="normal"/></filter></defs><g><!--MD5=[916ae2fde54f987f36f079dd64845938]
class it.tidalwave.northernwind.rca.ui.contenteditor.spi.XhtmlNormalizer--><a href="XhtmlNormalizer.html" target="_top" title="XhtmlNormalizer.html" xlink:actuate="onRequest" xlink:href="XhtmlNormalizer.html" xlink:show="new" xlink:title="XhtmlNormalizer.html" xlink:type="simple"><rect codeLine="5" fill="#FEFECE" filter="url(#f5qf3iwzt4v6n)" height="59.2207" id="it.tidalwave.northernwind.rca.ui.contenteditor.spi.XhtmlNormalizer" style="stroke: #A80036; stroke-width: 1.5;" width="273" x="7" y="7"/><ellipse cx="22" cy="26.1328" fill="#B4A7E5" rx="11" ry="11" style="stroke: #A80036; stroke-width: 1.0;"/><path d="M18.4277,22.3979 L18.4277,20.2397 L25.8071,20.2397 L25.8071,22.3979 L23.3418,22.3979 L23.3418,30.4746 L25.8071,30.4746 L25.8071,32.6328 L18.4277,32.6328 L18.4277,30.4746 L20.8931,30.4746 L20.8931,22.3979 Z "/><text fill="#000000" font-family="sans-serif" font-size="14" font-style="italic" lengthAdjust="spacingAndGlyphs" textLength="116" x="98.5" y="25.5352">XhtmlNormalizer</text><text fill="#000000" font-family="sans-serif" font-size="10" font-style="italic" lengthAdjust="spacingAndGlyphs" textLength="241" x="36" y="38.1563">it.tidalwave.northernwind.rca.ui.contenteditor.spi</text><line style="stroke: #A80036; stroke-width: 1.5;" x1="8" x2="279" y1="45.2656" y2="45.2656"/><ellipse cx="18" cy="56.2656" fill="#84BE84" rx="3" ry="3" style="stroke: #038048; stroke-width: 1.0;"/><text fill="#000000" font-family="sans-serif" font-size="11" font-style="italic" lengthAdjust="spacingAndGlyphs" textLength="183" x="27" y="59.9004">asNormalizedString(String): String</text></a><text fill="#888888" font-family="sans-serif" font-size="10" lengthAdjust="spacingAndGlyphs" textLength="188" x="49.5" y="82.8887">UMLDoclet 2.0.12, PlantUML 1.2020.16</text><!--MD5=[71d2137135dc38b60ba04004bd9b3dcb]
@startuml
    set namespaceSeparator none
    hide empty fields
    hide empty methods

    interface "<size:14>XhtmlNormalizer\n<size:10>it.tidalwave.northernwind.rca.ui.contenteditor.spi" as it.tidalwave.northernwind.rca.ui.contenteditor.spi.XhtmlNormalizer [[XhtmlNormalizer.html]] {
        {abstract} +asNormalizedString(String): String
    }

    center footer UMLDoclet 2.0.12, PlantUML 1.2020.16
@enduml

PlantUML version 1.2020.16(Sun Aug 23 22:20:43 CEST 2020)
(APACHE source distribution)
Java Runtime: OpenJDK Runtime Environment
JVM: OpenJDK 64-Bit Server VM
Default Encoding: UTF-8
Language: en
Country: GB
--></g></svg>