@startuml
    namespace it.tidalwave.messagebus.annotation {

        annotation SimpleMessageSubscriber [[SimpleMessageSubscriber.html]]

        annotation ListensTo [[ListensTo.html]]

    }

    center footer UMLDoclet 2.0.12, PlantUML 1.2020.16
@enduml
