@startuml
    set namespaceSeparator none
    hide empty fields
    hide empty methods

    interface "<size:14>BlogViewController\n<size:10>it.tidalwave.northernwind.frontend.ui.component.blog" as it.tidalwave.northernwind.frontend.ui.component.blog.BlogViewController [[BlogViewController.html]] {
        {static} +P_MAX_FULL_ITEMS: Key<Integer>
        {static} +P_MAX_LEADIN_ITEMS: Key<Integer>
        {static} +P_MAX_ITEMS: Key<Integer>
        {static} +P_INDEX: Key<Boolean>
        {static} +P_TAG_CLOUD: Key<Boolean>
        {static} +P_CATEGORY: Key<String>
        {static} +P_IMAGE_ID: Key<String>
    }

    interface "<size:14>ViewController\n<size:10>it.tidalwave.northernwind.frontend.ui" as it.tidalwave.northernwind.frontend.ui.ViewController [[http://tidalwave.tidalwave.it/northernwind/it-tidalwave-northernwind-modules/it-tidalwave-northernwind-core/apidocs/it/tidalwave/northernwind/frontend/ui/ViewController.html?is-external=true]]

    it.tidalwave.northernwind.frontend.ui.ViewController <|-- it.tidalwave.northernwind.frontend.ui.component.blog.BlogViewController

    center footer UMLDoclet 2.0.12, PlantUML 1.2020.16
@enduml
