<?xml version="1.0" encoding="UTF-8" standalone="no"?><svg xmlns="http://www.w3.org/2000/svg" xmlns:xlink="http://www.w3.org/1999/xlink" contentScriptType="application/ecmascript" contentStyleType="text/css" height="278px" preserveAspectRatio="none" style="width:1166px;height:278px;" version="1.1" viewBox="0 0 1166 278" width="1166px" zoomAndPan="magnify"><defs><filter height="300%" id="f1x42o96zmqbyy" width="300%" x="-1" y="-1"><feGaussianBlur result="blurOut" stdDeviation="2.0"/><feColorMatrix in="blurOut" result="blurOut2" type="matrix" values="0 0 0 0 0 0 0 0 0 0 0 0 0 0 0 0 0 0 .4 0"/><feOffset dx="4.0" dy="4.0" in="blurOut2" result="blurOut3"/><feBlend in="SourceGraphic" in2="blurOut3" mode="normal"/></filter></defs><g><!--MD5=[9f1ac7c19fca800a862e8ac92d339612]
cluster it.tidalwave.thesefoolishthings.examples.dci.swing.swing--><polygon fill="#FFFFFF" filter="url(#f1x42o96zmqbyy)" points="16,140,431,140,438,162.4883,1004,162.4883,1004,249,16,249,16,140" style="stroke: #000000; stroke-width: 1.5;"/><line style="stroke: #000000; stroke-width: 1.5;" x1="16" x2="438" y1="162.4883" y2="162.4883"/><text fill="#000000" font-family="sans-serif" font-size="14" font-weight="bold" lengthAdjust="spacingAndGlyphs" textLength="409" x="20" y="155.5352">it.tidalwave.thesefoolishthings.examples.dci.swing.swing</text><!--MD5=[535aab4de90d4dfa371a9b40d5438fc3]
cluster javax.swing--><polygon fill="#FFFFFF" filter="url(#f1x42o96zmqbyy)" points="447,12.5,536,12.5,543,34.9883,732,34.9883,732,108.5,447,108.5,447,12.5" style="stroke: #000000; stroke-width: 1.5;"/><line style="stroke: #000000; stroke-width: 1.5;" x1="447" x2="543" y1="34.9883" y2="34.9883"/><text fill="#000000" font-family="sans-serif" font-size="14" font-weight="bold" lengthAdjust="spacingAndGlyphs" textLength="83" x="451" y="28.0352">javax.swing</text><!--MD5=[ce7d024af64bfdf9656efb36536b836f]
cluster it.tidalwave.thesefoolishthings.examples.dci.swing--><polygon fill="#FFFFFF" filter="url(#f1x42o96zmqbyy)" points="765,6,1134,6,1141,28.4883,1144,28.4883,1144,115,765,115,765,6" style="stroke: #000000; stroke-width: 1.5;"/><line style="stroke: #000000; stroke-width: 1.5;" x1="765" x2="1141" y1="28.4883" y2="28.4883"/><text fill="#000000" font-family="sans-serif" font-size="14" font-weight="bold" lengthAdjust="spacingAndGlyphs" textLength="363" x="769" y="21.5352">it.tidalwave.thesefoolishthings.examples.dci.swing</text><!--MD5=[7790a538407dea21b6c172bce0bab4e2]
class it.tidalwave.thesefoolishthings.examples.dci.swing.swing.SwingPersonPresentation--><a href="SwingPersonPresentation.html" target="_top" title="SwingPersonPresentation.html" xlink:actuate="onRequest" xlink:href="SwingPersonPresentation.html" xlink:show="new" xlink:title="SwingPersonPresentation.html" xlink:type="simple"><rect codeLine="3" fill="#FEFECE" filter="url(#f1x42o96zmqbyy)" height="73.9102" id="it.tidalwave.thesefoolishthings.examples.dci.swing.swing.SwingPersonPresentation" style="stroke: #A80036; stroke-width: 1.5;" width="209" x="786.5" y="167"/><ellipse cx="817.25" cy="183" fill="#ADD1B2" rx="11" ry="11" style="stroke: #A80036; stroke-width: 1.0;"/><path d="M819.7231,189.1431 Q819.1421,189.4419 818.5029,189.5913 Q817.8638,189.7407 817.1582,189.7407 Q814.6514,189.7407 813.3315,188.0889 Q812.0117,186.437 812.0117,183.3159 Q812.0117,180.1865 813.3315,178.5347 Q814.6514,176.8828 817.1582,176.8828 Q817.8638,176.8828 818.5112,177.0322 Q819.1587,177.1816 819.7231,177.4805 L819.7231,180.2031 Q819.0923,179.6221 818.4988,179.3523 Q817.9053,179.0825 817.2744,179.0825 Q815.9297,179.0825 815.2449,180.1492 Q814.5601,181.2158 814.5601,183.3159 Q814.5601,185.4077 815.2449,186.4744 Q815.9297,187.541 817.2744,187.541 Q817.9053,187.541 818.4988,187.2712 Q819.0923,187.0015 819.7231,186.4204 Z "/><text fill="#000000" font-family="sans-serif" font-size="12" lengthAdjust="spacingAndGlyphs" textLength="142" x="834.75" y="187.5352">SwingPersonPresentation</text><line style="stroke: #A80036; stroke-width: 1.5;" x1="787.5" x2="994.5" y1="199" y2="199"/><line style="stroke: #A80036; stroke-width: 1.5;" x1="787.5" x2="994.5" y1="207" y2="207"/><ellipse cx="797.5" cy="218" fill="#84BE84" rx="3" ry="3" style="stroke: #038048; stroke-width: 1.0;"/><text fill="#000000" font-family="sans-serif" font-size="11" lengthAdjust="spacingAndGlyphs" textLength="183" x="806.5" y="221.6348">bind(Action, PersonRegistry): void</text><ellipse cx="797.5" cy="230.9551" fill="#84BE84" rx="3" ry="3" style="stroke: #038048; stroke-width: 1.0;"/><text fill="#000000" font-family="sans-serif" font-size="11" lengthAdjust="spacingAndGlyphs" textLength="79" x="806.5" y="234.5898">dispose(): void</text></a><!--MD5=[5b9dc5848b88f19a7a2f10a360f7c7c3]
class it.tidalwave.thesefoolishthings.examples.dci.swing.swing.HtmlRenderableListCellRenderer--><a href="HtmlRenderableListCellRenderer.html" target="_top" title="HtmlRenderableListCellRenderer.html" xlink:actuate="onRequest" xlink:href="HtmlRenderableListCellRenderer.html" xlink:show="new" xlink:title="HtmlRenderableListCellRenderer.html" xlink:type="simple"><rect codeLine="8" fill="#FEFECE" filter="url(#f1x42o96zmqbyy)" height="60.9551" id="it.tidalwave.thesefoolishthings.examples.dci.swing.swing.HtmlRenderableListCellRenderer" style="stroke: #A80036; stroke-width: 1.5;" width="452" x="299" y="173.5"/><ellipse cx="426.75" cy="189.5" fill="#ADD1B2" rx="11" ry="11" style="stroke: #A80036; stroke-width: 1.0;"/><path d="M429.2231,195.6431 Q428.6421,195.9419 428.0029,196.0913 Q427.3638,196.2407 426.6582,196.2407 Q424.1514,196.2407 422.8315,194.5889 Q421.5117,192.937 421.5117,189.8159 Q421.5117,186.6865 422.8315,185.0347 Q424.1514,183.3828 426.6582,183.3828 Q427.3638,183.3828 428.0112,183.5322 Q428.6587,183.6816 429.2231,183.9805 L429.2231,186.7031 Q428.5923,186.1221 427.9988,185.8523 Q427.4053,185.5825 426.7744,185.5825 Q425.4297,185.5825 424.7449,186.6492 Q424.0601,187.7158 424.0601,189.8159 Q424.0601,191.9077 424.7449,192.9744 Q425.4297,194.041 426.7744,194.041 Q427.4053,194.041 427.9988,193.7712 Q428.5923,193.5015 429.2231,192.9204 Z "/><text fill="#000000" font-family="sans-serif" font-size="12" lengthAdjust="spacingAndGlyphs" textLength="188" x="447.25" y="194.0352">HtmlRenderableListCellRenderer</text><line style="stroke: #A80036; stroke-width: 1.5;" x1="300" x2="750" y1="205.5" y2="205.5"/><line style="stroke: #A80036; stroke-width: 1.5;" x1="300" x2="750" y1="213.5" y2="213.5"/><ellipse cx="310" cy="224.5" fill="#84BE84" rx="3" ry="3" style="stroke: #038048; stroke-width: 1.0;"/><text fill="#000000" font-family="sans-serif" font-size="11" lengthAdjust="spacingAndGlyphs" textLength="426" x="319" y="228.1348">getListCellRendererComponent(JList, Object, int, boolean, boolean): Component</text></a><!--MD5=[cf0d917e93f9743e1a7203f21b42de8c]
class it.tidalwave.thesefoolishthings.examples.dci.swing.swing.Bindings--><a href="Bindings.html" target="_top" title="Bindings.html" xlink:actuate="onRequest" xlink:href="Bindings.html" xlink:show="new" xlink:title="Bindings.html" xlink:type="simple"><rect codeLine="12" fill="#FEFECE" filter="url(#f1x42o96zmqbyy)" height="73.9102" id="it.tidalwave.thesefoolishthings.examples.dci.swing.swing.Bindings" style="stroke: #A80036; stroke-width: 1.5;" width="240" x="24" y="167"/><ellipse cx="115.75" cy="183" fill="#ADD1B2" rx="11" ry="11" style="stroke: #A80036; stroke-width: 1.0;"/><path d="M118.2231,189.1431 Q117.6421,189.4419 117.0029,189.5913 Q116.3638,189.7407 115.6582,189.7407 Q113.1514,189.7407 111.8315,188.0889 Q110.5117,186.437 110.5117,183.3159 Q110.5117,180.1865 111.8315,178.5347 Q113.1514,176.8828 115.6582,176.8828 Q116.3638,176.8828 117.0112,177.0322 Q117.6587,177.1816 118.2231,177.4805 L118.2231,180.2031 Q117.5923,179.6221 116.9988,179.3523 Q116.4053,179.0825 115.7744,179.0825 Q114.4297,179.0825 113.7449,180.1492 Q113.0601,181.2158 113.0601,183.3159 Q113.0601,185.4077 113.7449,186.4744 Q114.4297,187.541 115.7744,187.541 Q116.4053,187.541 116.9988,187.2712 Q117.5923,187.0015 118.2231,186.4204 Z "/><text fill="#000000" font-family="sans-serif" font-size="12" lengthAdjust="spacingAndGlyphs" textLength="48" x="136.25" y="187.5352">Bindings</text><line style="stroke: #A80036; stroke-width: 1.5;" x1="25" x2="263" y1="199" y2="199"/><line style="stroke: #A80036; stroke-width: 1.5;" x1="25" x2="263" y1="207" y2="207"/><ellipse cx="35" cy="218" fill="#84BE84" rx="3" ry="3" style="stroke: #038048; stroke-width: 1.0;"/><text fill="#000000" font-family="sans-serif" font-size="11" lengthAdjust="spacingAndGlyphs" text-decoration="underline" textLength="204" x="44" y="221.6348">bind(BindingGroup, Object, JList): void</text><ellipse cx="35" cy="230.9551" fill="#84BE84" rx="3" ry="3" style="stroke: #038048; stroke-width: 1.0;"/><text fill="#000000" font-family="sans-serif" font-size="11" lengthAdjust="spacingAndGlyphs" text-decoration="underline" textLength="214" x="44" y="234.5898">bind(BindingGroup, Object, JTable): void</text></a><!--MD5=[56a185cb33bdc7c23303e5865f20a19b]
class javax.swing.JPanel--><rect codeLine="23" fill="#FEFECE" filter="url(#f1x42o96zmqbyy)" height="48" id="javax.swing.JPanel" style="stroke: #A80036; stroke-width: 1.5;" width="67" x="656.5" y="46"/><ellipse cx="671.5" cy="62" fill="#ADD1B2" rx="11" ry="11" style="stroke: #A80036; stroke-width: 1.0;"/><path d="M673.9731,68.1431 Q673.3921,68.4419 672.7529,68.5913 Q672.1138,68.7407 671.4082,68.7407 Q668.9014,68.7407 667.5815,67.0889 Q666.2617,65.437 666.2617,62.3159 Q666.2617,59.1865 667.5815,57.5347 Q668.9014,55.8828 671.4082,55.8828 Q672.1138,55.8828 672.7612,56.0322 Q673.4087,56.1816 673.9731,56.4805 L673.9731,59.2031 Q673.3423,58.6221 672.7488,58.3523 Q672.1553,58.0825 671.5244,58.0825 Q670.1797,58.0825 669.4949,59.1492 Q668.8101,60.2158 668.8101,62.3159 Q668.8101,64.4077 669.4949,65.4744 Q670.1797,66.541 671.5244,66.541 Q672.1553,66.541 672.7488,66.2712 Q673.3423,66.0015 673.9731,65.4204 Z "/><text fill="#000000" font-family="sans-serif" font-size="12" lengthAdjust="spacingAndGlyphs" textLength="35" x="685.5" y="66.5352">JPanel</text><line style="stroke: #A80036; stroke-width: 1.5;" x1="657.5" x2="722.5" y1="78" y2="78"/><line style="stroke: #A80036; stroke-width: 1.5;" x1="657.5" x2="722.5" y1="86" y2="86"/><!--MD5=[c69cfc95647057fbe94b4df2bb4d4159]
class javax.swing.DefaultListCellRenderer--><rect codeLine="25" fill="#FEFECE" filter="url(#f1x42o96zmqbyy)" height="60.9551" id="javax.swing.DefaultListCellRenderer" style="stroke: #A80036; stroke-width: 1.5;" width="167" x="454.5" y="39.5"/><ellipse cx="469.5" cy="55.5" fill="#ADD1B2" rx="11" ry="11" style="stroke: #A80036; stroke-width: 1.0;"/><path d="M471.9731,61.6431 Q471.3921,61.9419 470.7529,62.0913 Q470.1138,62.2407 469.4082,62.2407 Q466.9014,62.2407 465.5815,60.5889 Q464.2617,58.937 464.2617,55.8159 Q464.2617,52.6865 465.5815,51.0347 Q466.9014,49.3828 469.4082,49.3828 Q470.1138,49.3828 470.7612,49.5322 Q471.4087,49.6816 471.9731,49.9805 L471.9731,52.7031 Q471.3423,52.1221 470.7488,51.8523 Q470.1553,51.5825 469.5244,51.5825 Q468.1797,51.5825 467.4949,52.6492 Q466.8101,53.7158 466.8101,55.8159 Q466.8101,57.9077 467.4949,58.9744 Q468.1797,60.041 469.5244,60.041 Q470.1553,60.041 470.7488,59.7712 Q471.3423,59.5015 471.9731,58.9204 Z "/><text fill="#000000" font-family="sans-serif" font-size="12" lengthAdjust="spacingAndGlyphs" textLength="135" x="483.5" y="60.0352">DefaultListCellRenderer</text><line style="stroke: #A80036; stroke-width: 1.5;" x1="455.5" x2="620.5" y1="71.5" y2="71.5"/><polygon fill="none" points="465.5,77.5,469.5,81.5,465.5,85.5,461.5,81.5" style="stroke: #B38D22; stroke-width: 1.0;"/><text fill="#000000" font-family="sans-serif" font-size="11" lengthAdjust="spacingAndGlyphs" text-decoration="underline" textLength="124" x="474.5" y="86.1348">noFocusBorder: Border</text><line style="stroke: #A80036; stroke-width: 1.5;" x1="455.5" x2="620.5" y1="92.4551" y2="92.4551"/><!--MD5=[47855b4f9e58a9de27c278c8ba630bf8]
class it.tidalwave.thesefoolishthings.examples.dci.swing.PersonPresentation--><a href="../PersonPresentation.html" target="_top" title="../PersonPresentation.html" xlink:actuate="onRequest" xlink:href="../PersonPresentation.html" xlink:show="new" xlink:title="../PersonPresentation.html" xlink:type="simple"><rect codeLine="31" fill="#FEFECE" filter="url(#f1x42o96zmqbyy)" height="73.9102" id="it.tidalwave.thesefoolishthings.examples.dci.swing.PersonPresentation" style="stroke: #A80036; stroke-width: 1.5;" width="209" x="786.5" y="33"/><ellipse cx="831.75" cy="49" fill="#B4A7E5" rx="11" ry="11" style="stroke: #A80036; stroke-width: 1.0;"/><path d="M828.1777,45.2651 L828.1777,43.1069 L835.5571,43.1069 L835.5571,45.2651 L833.0918,45.2651 L833.0918,53.3418 L835.5571,53.3418 L835.5571,55.5 L828.1777,55.5 L828.1777,53.3418 L830.6431,53.3418 L830.6431,45.2651 Z "/><text fill="#000000" font-family="sans-serif" font-size="12" font-style="italic" lengthAdjust="spacingAndGlyphs" textLength="110" x="852.25" y="53.5352">PersonPresentation</text><line style="stroke: #A80036; stroke-width: 1.5;" x1="787.5" x2="994.5" y1="65" y2="65"/><line style="stroke: #A80036; stroke-width: 1.5;" x1="787.5" x2="994.5" y1="73" y2="73"/><ellipse cx="797.5" cy="84" fill="#84BE84" rx="3" ry="3" style="stroke: #038048; stroke-width: 1.0;"/><text fill="#000000" font-family="sans-serif" font-size="11" font-style="italic" lengthAdjust="spacingAndGlyphs" textLength="183" x="806.5" y="87.6348">bind(Action, PersonRegistry): void</text><ellipse cx="797.5" cy="96.9551" fill="#84BE84" rx="3" ry="3" style="stroke: #038048; stroke-width: 1.0;"/><text fill="#000000" font-family="sans-serif" font-size="11" font-style="italic" lengthAdjust="spacingAndGlyphs" textLength="79" x="806.5" y="100.5898">dispose(): void</text></a><!--MD5=[37f39fccb7cb869b56d49ec974bbca96]
reverse link javax.swing.JPanel to it.tidalwave.thesefoolishthings.examples.dci.swing.swing.SwingPersonPresentation--><path codeLine="17" d="M740.5497,103.9916 C746.0982,107.7106 751.6664,111.4377 757,115 C782.5463,132.0625 810.8794,150.8941 834.8877,166.8242 " fill="none" id="javax.swing.JPanel-backto-it.tidalwave.thesefoolishthings.examples.dci.swing.swing.SwingPersonPresentation" style="stroke: #A80036; stroke-width: 1.0;"/><polygon fill="none" points="736.4243,109.6533,723.7182,92.6958,744.2258,98.0285,736.4243,109.6533" style="stroke: #A80036; stroke-width: 1.0;"/><!--MD5=[c08644ef11aa843fba31015c914cde06]
reverse link it.tidalwave.thesefoolishthings.examples.dci.swing.PersonPresentation to it.tidalwave.thesefoolishthings.examples.dci.swing.swing.SwingPersonPresentation--><path codeLine="18" d="M891,127.5351 C891,140.8601 891,154.6949 891,166.8737 " fill="none" id="it.tidalwave.thesefoolishthings.examples.dci.swing.PersonPresentation-backto-it.tidalwave.thesefoolishthings.examples.dci.swing.swing.SwingPersonPresentation" style="stroke: #A80036; stroke-width: 1.0; stroke-dasharray: 7.0,7.0;"/><polygon fill="none" points="884.0001,127.3265,891,107.3265,898.0001,127.3264,884.0001,127.3265" style="stroke: #A80036; stroke-width: 1.0;"/><!--MD5=[e34d9b76d3389d5e91a2bdea1234f616]
reverse link javax.swing.DefaultListCellRenderer to it.tidalwave.thesefoolishthings.examples.dci.swing.swing.HtmlRenderableListCellRenderer--><path codeLine="19" d="M533.0689,120.8284 C531.3509,138.5365 529.4775,157.8475 527.9686,173.4007 " fill="none" id="javax.swing.DefaultListCellRenderer-backto-it.tidalwave.thesefoolishthings.examples.dci.swing.swing.HtmlRenderableListCellRenderer" style="stroke: #A80036; stroke-width: 1.0;"/><polygon fill="none" points="526.1189,119.9729,535.0175,100.7423,540.0535,121.3248,526.1189,119.9729" style="stroke: #A80036; stroke-width: 1.0;"/><text fill="#888888" font-family="sans-serif" font-size="10" lengthAdjust="spacingAndGlyphs" textLength="188" x="480" y="264.668">UMLDoclet 2.0.12, PlantUML 1.2020.16</text><!--MD5=[6461d1ff6415c8beb642d942ce1fc837]
@startuml
    namespace it.tidalwave.thesefoolishthings.examples.dci.swing.swing {

        class SwingPersonPresentation [[SwingPersonPresentation.html]] {
            +bind(Action, PersonRegistry): void
            +dispose(): void
        }

        class HtmlRenderableListCellRenderer [[HtmlRenderableListCellRenderer.html]] {
            +getListCellRendererComponent(JList, Object, int, boolean, boolean): Component
        }

        class Bindings [[Bindings.html]] {
            {static} +bind(BindingGroup, Object, JList): void
            {static} +bind(BindingGroup, Object, JTable): void
        }

        javax.swing.JPanel <|- - SwingPersonPresentation
        it.tidalwave.thesefoolishthings.examples.dci.swing.PersonPresentation <|.. SwingPersonPresentation
        javax.swing.DefaultListCellRenderer <|- - HtmlRenderableListCellRenderer
    }

    namespace javax.swing {
        class JPanel {
        }
        class DefaultListCellRenderer {
            {static} #noFocusBorder: Border
        }
    }

    namespace it.tidalwave.thesefoolishthings.examples.dci.swing {
        interface PersonPresentation [[../PersonPresentation.html]] {
            {abstract} +bind(Action, PersonRegistry): void
            {abstract} +dispose(): void
        }
    }

    center footer UMLDoclet 2.0.12, PlantUML 1.2020.16
@enduml

PlantUML version 1.2020.16(Sun Aug 23 22:20:43 CEST 2020)
(APACHE source distribution)
Java Runtime: OpenJDK Runtime Environment
JVM: OpenJDK 64-Bit Server VM
Default Encoding: UTF-8
Language: en
Country: GB
--></g></svg>