<?xml version="1.0" encoding="UTF-8" standalone="no"?><svg xmlns="http://www.w3.org/2000/svg" xmlns:xlink="http://www.w3.org/1999/xlink" contentScriptType="application/ecmascript" contentStyleType="text/css" height="299px" preserveAspectRatio="none" style="width:482px;height:299px;" version="1.1" viewBox="0 0 482 299" width="482px" zoomAndPan="magnify"><defs><filter height="300%" id="fqq8n7y1bzhs8" width="300%" x="-1" y="-1"><feGaussianBlur result="blurOut" stdDeviation="2.0"/><feColorMatrix in="blurOut" result="blurOut2" type="matrix" values="0 0 0 0 0 0 0 0 0 0 0 0 0 0 0 0 0 0 .4 0"/><feOffset dx="4.0" dy="4.0" in="blurOut2" result="blurOut3"/><feBlend in="SourceGraphic" in2="blurOut3" mode="normal"/></filter></defs><g><!--MD5=[62ee17d8b3b523aa5ffca67327ab0c06]
class it.tidalwave.util.ContextManager.SupplierWithException--><a href="ContextManager.SupplierWithException.html" target="_top" title="ContextManager.SupplierWithException.html" xlink:actuate="onRequest" xlink:href="ContextManager.SupplierWithException.html" xlink:show="new" xlink:title="ContextManager.SupplierWithException.html" xlink:type="simple"><rect codeLine="5" fill="#FEFECE" filter="url(#fqq8n7y1bzhs8)" height="59.2207" id="it.tidalwave.util.ContextManager.SupplierWithException" style="stroke: #A80036; stroke-width: 1.5;" width="448" x="11" y="204"/><ellipse cx="26" cy="223.1328" fill="#B4A7E5" rx="11" ry="11" style="stroke: #A80036; stroke-width: 1.0;"/><path d="M22.4277,219.3979 L22.4277,217.2397 L29.8071,217.2397 L29.8071,219.3979 L27.3418,219.3979 L27.3418,227.4746 L29.8071,227.4746 L29.8071,229.6328 L22.4277,229.6328 L22.4277,227.4746 L24.8931,227.4746 L24.8931,219.3979 Z "/><text fill="#000000" font-family="sans-serif" font-size="14" font-style="italic" lengthAdjust="spacingAndGlyphs" textLength="274" x="40" y="222.5352">ContextManager.SupplierWithException</text><text fill="#000000" font-family="sans-serif" font-size="10" font-style="italic" lengthAdjust="spacingAndGlyphs" textLength="76" x="139" y="235.1563">it.tidalwave.util</text><rect fill="#FFFFFF" height="16.1328" style="stroke: #000000; stroke-width: 1.0; stroke-dasharray: 2.0,2.0;" width="140" x="322" y="201"/><text fill="#000000" font-family="sans-serif" font-size="12" font-style="italic" lengthAdjust="spacingAndGlyphs" textLength="138" x="323" y="213.6016">T, E extends Throwable</text><line style="stroke: #A80036; stroke-width: 1.5;" x1="12" x2="458" y1="242.2656" y2="242.2656"/><ellipse cx="22" cy="253.2656" fill="#84BE84" rx="3" ry="3" style="stroke: #038048; stroke-width: 1.0;"/><text fill="#000000" font-family="sans-serif" font-size="11" font-style="italic" lengthAdjust="spacingAndGlyphs" textLength="38" x="31" y="256.9004">get(): T</text></a><!--MD5=[31235b3a9ca423220048212828738b0f]
class it.tidalwave.util.ContextManager--><a href="ContextManager.html" target="_top" title="ContextManager.html" xlink:actuate="onRequest" xlink:href="ContextManager.html" xlink:show="new" xlink:title="ContextManager.html" xlink:type="simple"><rect codeLine="9" fill="#FEFECE" filter="url(#fqq8n7y1bzhs8)" height="136.9512" id="it.tidalwave.util.ContextManager" style="stroke: #A80036; stroke-width: 1.5;" width="456" x="7" y="7"/><ellipse cx="173.25" cy="26.1328" fill="#B4A7E5" rx="11" ry="11" style="stroke: #A80036; stroke-width: 1.0;"/><path d="M169.6777,22.3979 L169.6777,20.2397 L177.0571,20.2397 L177.0571,22.3979 L174.5918,22.3979 L174.5918,30.4746 L177.0571,30.4746 L177.0571,32.6328 L169.6777,32.6328 L169.6777,30.4746 L172.1431,30.4746 L172.1431,22.3979 Z "/><text fill="#000000" font-family="sans-serif" font-size="14" font-style="italic" lengthAdjust="spacingAndGlyphs" textLength="115" x="193.75" y="25.5352">ContextManager</text><text fill="#000000" font-family="sans-serif" font-size="10" font-style="italic" lengthAdjust="spacingAndGlyphs" textLength="76" x="213.25" y="38.1563">it.tidalwave.util</text><line style="stroke: #A80036; stroke-width: 1.5;" x1="8" x2="462" y1="45.2656" y2="45.2656"/><ellipse cx="18" cy="56.2656" fill="#84BE84" rx="3" ry="3" style="stroke: #038048; stroke-width: 1.0;"/><text fill="#000000" font-family="sans-serif" font-size="11" font-style="italic" lengthAdjust="spacingAndGlyphs" textLength="152" x="27" y="59.9004">getContexts(): List&lt;Object&gt;</text><ellipse cx="18" cy="69.2207" fill="#84BE84" rx="3" ry="3" style="stroke: #038048; stroke-width: 1.0;"/><text fill="#000000" font-family="sans-serif" font-size="11" font-style="italic" lengthAdjust="spacingAndGlyphs" textLength="242" x="27" y="72.8555">findContextOfType(Class&lt;T&gt;): Optional&lt;T&gt;</text><ellipse cx="18" cy="82.1758" fill="#84BE84" rx="3" ry="3" style="stroke: #038048; stroke-width: 1.0;"/><text fill="#000000" font-family="sans-serif" font-size="11" font-style="italic" lengthAdjust="spacingAndGlyphs" textLength="169" x="27" y="85.8105">addGlobalContext(Object): void</text><ellipse cx="18" cy="95.1309" fill="#84BE84" rx="3" ry="3" style="stroke: #038048; stroke-width: 1.0;"/><text fill="#000000" font-family="sans-serif" font-size="11" font-style="italic" lengthAdjust="spacingAndGlyphs" textLength="189" x="27" y="98.7656">removeGlobalContext(Object): void</text><ellipse cx="18" cy="108.0859" fill="#84BE84" rx="3" ry="3" style="stroke: #038048; stroke-width: 1.0;"/><text fill="#000000" font-family="sans-serif" font-size="11" font-style="italic" lengthAdjust="spacingAndGlyphs" textLength="163" x="27" y="111.7207">addLocalContext(Object): void</text><ellipse cx="18" cy="121.041" fill="#84BE84" rx="3" ry="3" style="stroke: #038048; stroke-width: 1.0;"/><text fill="#000000" font-family="sans-serif" font-size="11" font-style="italic" lengthAdjust="spacingAndGlyphs" textLength="183" x="27" y="124.6758">removeLocalContext(Object): void</text><ellipse cx="18" cy="133.9961" fill="#84BE84" rx="3" ry="3" style="stroke: #038048; stroke-width: 1.0;"/><text fill="#000000" font-family="sans-serif" font-size="11" font-style="italic" lengthAdjust="spacingAndGlyphs" textLength="430" x="27" y="137.6309">runEWithContexts(SupplierWithException&lt;T, E extends Throwable&gt;, Object...): T</text></a><!--MD5=[ad24fe898fde1921461d4115707aed5c]
reverse link it.tidalwave.util.ContextManager to it.tidalwave.util.ContextManager.SupplierWithException--><path codeLine="19" d="M235,159.5309 C235,175.3744 235,190.9469 235,203.6857 " fill="none" id="it.tidalwave.util.ContextManager-backto-it.tidalwave.util.ContextManager.SupplierWithException" style="stroke: #A80036; stroke-width: 1.0;"/><ellipse cx="235.0001" cy="152.3415" fill="#FFFFFF" rx="8" ry="8" style="stroke: #A80036; stroke-width: 1.0;"/><line style="stroke: #A80036; stroke-width: 1.0;" x1="235.0002" x2="235" y1="160.3415" y2="144.3415"/><line style="stroke: #A80036; stroke-width: 1.0;" x1="227.0001" x2="243.0001" y1="152.3416" y2="152.3414"/><text fill="#888888" font-family="sans-serif" font-size="10" lengthAdjust="spacingAndGlyphs" textLength="188" x="138" y="285.8887">UMLDoclet 2.0.12, PlantUML 1.2020.16</text><!--MD5=[236409c511550bf68631a41eafadb3c4]
@startuml
    set namespaceSeparator none
    hide empty fields
    hide empty methods

    interface "<size:14>ContextManager.SupplierWithException\n<size:10>it.tidalwave.util" as it.tidalwave.util.ContextManager.SupplierWithException<T, E extends Throwable> [[ContextManager.SupplierWithException.html]] {
        {abstract} +get(): T
    }

    interface "<size:14>ContextManager\n<size:10>it.tidalwave.util" as it.tidalwave.util.ContextManager [[ContextManager.html]] {
        {abstract} +getContexts(): List<Object>
        {abstract} +findContextOfType(Class<T>): Optional<T>
        {abstract} +addGlobalContext(Object): void
        {abstract} +removeGlobalContext(Object): void
        {abstract} +addLocalContext(Object): void
        {abstract} +removeLocalContext(Object): void
        {abstract} +runEWithContexts(SupplierWithException<T, E extends Throwable>, Object...): T
    }

    it.tidalwave.util.ContextManager +- - it.tidalwave.util.ContextManager.SupplierWithException

    center footer UMLDoclet 2.0.12, PlantUML 1.2020.16
@enduml

PlantUML version 1.2020.16(Sun Aug 23 22:20:43 CEST 2020)
(APACHE source distribution)
Java Runtime: OpenJDK Runtime Environment
JVM: OpenJDK 64-Bit Server VM
Default Encoding: UTF-8
Language: en
Country: GB
--></g></svg>