<?xml version="1.0" encoding="UTF-8" standalone="no"?><svg xmlns="http://www.w3.org/2000/svg" xmlns:xlink="http://www.w3.org/1999/xlink" contentScriptType="application/ecmascript" contentStyleType="text/css" height="276px" preserveAspectRatio="none" style="width:391px;height:276px;" version="1.1" viewBox="0 0 391 276" width="391px" zoomAndPan="magnify"><defs><filter height="300%" id="f1c3i6x349tb7p" width="300%" x="-1" y="-1"><feGaussianBlur result="blurOut" stdDeviation="2.0"/><feColorMatrix in="blurOut" result="blurOut2" type="matrix" values="0 0 0 0 0 0 0 0 0 0 0 0 0 0 0 0 0 0 .4 0"/><feOffset dx="4.0" dy="4.0" in="blurOut2" result="blurOut3"/><feBlend in="SourceGraphic" in2="blurOut3" mode="normal"/></filter></defs><g><!--MD5=[4db4be89674623c8d41b5f7d40acb090]
class it.tidalwave.northernwind.core.model.spi.ResponseBuilderTestable--><a href="ResponseBuilderTestable.html" target="_top" title="ResponseBuilderTestable.html" xlink:actuate="onRequest" xlink:href="ResponseBuilderTestable.html" xlink:show="new" xlink:title="ResponseBuilderTestable.html" xlink:type="simple"><rect codeLine="5" fill="#FEFECE" filter="url(#f1c3i6x349tb7p)" height="85.1309" id="it.tidalwave.northernwind.core.model.spi.ResponseBuilderTestable" style="stroke: #A80036; stroke-width: 1.5;" width="351" x="15" y="155"/><ellipse cx="86.75" cy="174.1328" fill="#ADD1B2" rx="11" ry="11" style="stroke: #A80036; stroke-width: 1.0;"/><path d="M89.2231,180.2759 Q88.6421,180.5747 88.0029,180.7241 Q87.3638,180.8735 86.6582,180.8735 Q84.1514,180.8735 82.8315,179.2217 Q81.5117,177.5698 81.5117,174.4487 Q81.5117,171.3193 82.8315,169.6675 Q84.1514,168.0156 86.6582,168.0156 Q87.3638,168.0156 88.0112,168.165 Q88.6587,168.3145 89.2231,168.6133 L89.2231,171.3359 Q88.5923,170.7549 87.9988,170.4851 Q87.4053,170.2153 86.7744,170.2153 Q85.4297,170.2153 84.7449,171.282 Q84.0601,172.3486 84.0601,174.4487 Q84.0601,176.5405 84.7449,177.6072 Q85.4297,178.6738 86.7744,178.6738 Q87.4053,178.6738 87.9988,178.4041 Q88.5923,178.1343 89.2231,177.5532 Z "/><text fill="#000000" font-family="sans-serif" font-size="14" lengthAdjust="spacingAndGlyphs" textLength="172" x="120.75" y="173.5352">ResponseBuilderTestable</text><text fill="#000000" font-family="sans-serif" font-size="10" lengthAdjust="spacingAndGlyphs" textLength="199" x="107.25" y="186.1563">it.tidalwave.northernwind.core.model.spi</text><line style="stroke: #A80036; stroke-width: 1.5;" x1="16" x2="365" y1="193.2656" y2="193.2656"/><ellipse cx="26" cy="204.2656" fill="#84BE84" rx="3" ry="3" style="stroke: #038048; stroke-width: 1.0;"/><text fill="#000000" font-family="sans-serif" font-size="11" lengthAdjust="spacingAndGlyphs" textLength="325" x="35" y="207.9004">withHeader(String, String): ResponseBuilderSupport&lt;byte[]&gt;</text><polygon fill="#FFFF44" points="26,212.2207,30,216.2207,26,220.2207,22,216.2207" style="stroke: #B38D22; stroke-width: 1.0;"/><text fill="#000000" font-family="sans-serif" font-size="11" lengthAdjust="spacingAndGlyphs" textLength="85" x="35" y="220.8555">doBuild(): byte[]</text><polygon fill="#FFFF44" points="26,225.1758,30,229.1758,26,233.1758,22,229.1758" style="stroke: #B38D22; stroke-width: 1.0;"/><text fill="#000000" font-family="sans-serif" font-size="11" lengthAdjust="spacingAndGlyphs" textLength="197" x="35" y="233.8105">getHeader(String): Optional&lt;String&gt;</text></a><!--MD5=[d51812597b3f298281aab4a1fb98f12d]
class it.tidalwave.northernwind.core.model.spi.ResponseBuilderSupport--><a href="../../../../../../../apidocs/it/tidalwave/northernwind/core/model/spi/ResponseBuilderSupport.html" target="_top" title="../../../../../../../apidocs/it/tidalwave/northernwind/core/model/spi/ResponseBuilderSupport.html" xlink:actuate="onRequest" xlink:href="../../../../../../../apidocs/it/tidalwave/northernwind/core/model/spi/ResponseBuilderSupport.html" xlink:show="new" xlink:title="../../../../../../../apidocs/it/tidalwave/northernwind/core/model/spi/ResponseBuilderSupport.html" xlink:type="simple"><rect codeLine="11" fill="#FEFECE" filter="url(#f1c3i6x349tb7p)" height="85.1309" id="it.tidalwave.northernwind.core.model.spi.ResponseBuilderSupport" style="stroke: #A80036; stroke-width: 1.5;" width="363" x="9" y="10"/><ellipse cx="68.25" cy="29.1328" fill="#A9DCDF" rx="11" ry="11" style="stroke: #A80036; stroke-width: 1.0;"/><path d="M68.1133,24.481 L66.9595,29.5527 L69.2754,29.5527 Z M66.6191,22.2397 L69.6157,22.2397 L72.9609,34.6328 L70.5122,34.6328 L69.7485,31.5698 L66.4697,31.5698 L65.7227,34.6328 L63.2739,34.6328 Z "/><text fill="#000000" font-family="sans-serif" font-size="14" font-style="italic" lengthAdjust="spacingAndGlyphs" textLength="169" x="103.75" y="28.5352">ResponseBuilderSupport</text><text fill="#000000" font-family="sans-serif" font-size="10" font-style="italic" lengthAdjust="spacingAndGlyphs" textLength="199" x="88.75" y="41.1563">it.tidalwave.northernwind.core.model.spi</text><rect fill="#FFFFFF" height="16.1328" style="stroke: #000000; stroke-width: 1.0; stroke-dasharray: 2.0,2.0;" width="35" x="340" y="7"/><text fill="#000000" font-family="sans-serif" font-size="12" font-style="italic" lengthAdjust="spacingAndGlyphs" textLength="33" x="341" y="19.6016">byte[]</text><line style="stroke: #A80036; stroke-width: 1.5;" x1="10" x2="371" y1="48.2656" y2="48.2656"/><ellipse cx="20" cy="59.2656" fill="#84BE84" rx="3" ry="3" style="stroke: #038048; stroke-width: 1.0;"/><text fill="#000000" font-family="sans-serif" font-size="11" font-style="italic" lengthAdjust="spacingAndGlyphs" textLength="337" x="29" y="62.9004">withHeader(String, String): ResponseBuilder&lt;RESPONSE_TYPE&gt;</text><polygon fill="#FFFF44" points="20,67.2207,24,71.2207,20,75.2207,16,71.2207" style="stroke: #B38D22; stroke-width: 1.0;"/><text fill="#000000" font-family="sans-serif" font-size="11" font-style="italic" lengthAdjust="spacingAndGlyphs" textLength="85" x="29" y="75.8555">doBuild(): byte[]</text><polygon fill="#FFFF44" points="20,80.1758,24,84.1758,20,88.1758,16,84.1758" style="stroke: #B38D22; stroke-width: 1.0;"/><text fill="#000000" font-family="sans-serif" font-size="11" font-style="italic" lengthAdjust="spacingAndGlyphs" textLength="197" x="29" y="88.8105">getHeader(String): Optional&lt;String&gt;</text></a><!--MD5=[bcdc5618675a6b4fd6da5c8219be4ef6]
reverse link it.tidalwave.northernwind.core.model.spi.ResponseBuilderSupport to it.tidalwave.northernwind.core.model.spi.ResponseBuilderTestable--><path codeLine="17" d="M190.5,115.3941 C190.5,128.6244 190.5,142.2891 190.5,154.5838 " fill="none" id="it.tidalwave.northernwind.core.model.spi.ResponseBuilderSupport-backto-it.tidalwave.northernwind.core.model.spi.ResponseBuilderTestable" style="stroke: #A80036; stroke-width: 1.0;"/><polygon fill="none" points="183.5001,115.2206,190.5,95.2205,197.5001,115.2205,183.5001,115.2206" style="stroke: #A80036; stroke-width: 1.0;"/><text fill="#888888" font-family="sans-serif" font-size="10" lengthAdjust="spacingAndGlyphs" textLength="188" x="92.5" y="262.7988">UMLDoclet 2.0.12, PlantUML 1.2020.16</text><!--MD5=[72815c5733f8615fbee75efe80e92fe9]
@startuml
    set namespaceSeparator none
    hide empty fields
    hide empty methods

    class "<size:14>ResponseBuilderTestable\n<size:10>it.tidalwave.northernwind.core.model.spi" as it.tidalwave.northernwind.core.model.spi.ResponseBuilderTestable [[ResponseBuilderTestable.html]] {
        +withHeader(String, String): ResponseBuilderSupport<byte[]>
        #doBuild(): byte[]
        #getHeader(String): Optional<String>
    }

    abstract class "<size:14>ResponseBuilderSupport\n<size:10>it.tidalwave.northernwind.core.model.spi" as it.tidalwave.northernwind.core.model.spi.ResponseBuilderSupport<byte[]> [[../../../../../../../apidocs/it/tidalwave/northernwind/core/model/spi/ResponseBuilderSupport.html]] {
        {abstract} +withHeader(String, String): ResponseBuilder<RESPONSE_TYPE>
        {abstract} #doBuild(): byte[]
        {abstract} #getHeader(String): Optional<String>
    }

    it.tidalwave.northernwind.core.model.spi.ResponseBuilderSupport <|- - it.tidalwave.northernwind.core.model.spi.ResponseBuilderTestable

    center footer UMLDoclet 2.0.12, PlantUML 1.2020.16
@enduml

PlantUML version 1.2020.16(Sun Aug 23 22:20:43 CEST 2020)
(APACHE source distribution)
Java Runtime: OpenJDK Runtime Environment
JVM: OpenJDK 64-Bit Server VM
Default Encoding: UTF-8
Language: en
Country: GB
--></g></svg>