<?xml version="1.0" encoding="UTF-8" standalone="no"?><svg xmlns="http://www.w3.org/2000/svg" xmlns:xlink="http://www.w3.org/1999/xlink" contentScriptType="application/ecmascript" contentStyleType="text/css" height="130px" preserveAspectRatio="none" style="width:285px;height:130px;" version="1.1" viewBox="0 0 285 130" width="285px" zoomAndPan="magnify"><defs><filter height="300%" id="fxo9624z6a947" width="300%" x="-1" y="-1"><feGaussianBlur result="blurOut" stdDeviation="2.0"/><feColorMatrix in="blurOut" result="blurOut2" type="matrix" values="0 0 0 0 0 0 0 0 0 0 0 0 0 0 0 0 0 0 .4 0"/><feOffset dx="4.0" dy="4.0" in="blurOut2" result="blurOut3"/><feBlend in="SourceGraphic" in2="blurOut3" mode="normal"/></filter></defs><g><!--MD5=[79d7c475264719f32ab168a584d65071]
class it.tidalwave.role.ui.ActionProvider--><a href="ActionProvider.html" target="_top" title="ActionProvider.html" xlink:actuate="onRequest" xlink:href="ActionProvider.html" xlink:show="new" xlink:title="ActionProvider.html" xlink:type="simple"><rect codeLine="5" fill="#FEFECE" filter="url(#fxo9624z6a947)" height="93.1309" id="it.tidalwave.role.ui.ActionProvider" style="stroke: #A80036; stroke-width: 1.5;" width="259" x="7" y="7"/><ellipse cx="81.75" cy="26.1328" fill="#B4A7E5" rx="11" ry="11" style="stroke: #A80036; stroke-width: 1.0;"/><path d="M78.1777,22.3979 L78.1777,20.2397 L85.5571,20.2397 L85.5571,22.3979 L83.0918,22.3979 L83.0918,30.4746 L85.5571,30.4746 L85.5571,32.6328 L78.1777,32.6328 L78.1777,30.4746 L80.6431,30.4746 L80.6431,22.3979 Z "/><text fill="#000000" font-family="sans-serif" font-size="14" font-style="italic" lengthAdjust="spacingAndGlyphs" textLength="101" x="102.25" y="25.5352">ActionProvider</text><text fill="#000000" font-family="sans-serif" font-size="10" font-style="italic" lengthAdjust="spacingAndGlyphs" textLength="91" x="107.25" y="38.1563">it.tidalwave.role.ui</text><line style="stroke: #A80036; stroke-width: 1.5;" x1="8" x2="265" y1="45.2656" y2="45.2656"/><ellipse cx="18" cy="56.2656" fill="none" rx="3" ry="3" style="stroke: #038048; stroke-width: 1.0;"/><text fill="#000000" font-family="sans-serif" font-size="11" lengthAdjust="spacingAndGlyphs" text-decoration="underline" textLength="225" x="27" y="59.9004">_ActionProvider_: Class&lt;ActionProvider&gt;</text><line style="stroke: #A80036; stroke-width: 1.5;" x1="8" x2="265" y1="66.2207" y2="66.2207"/><ellipse cx="18" cy="77.2207" fill="#84BE84" rx="3" ry="3" style="stroke: #038048; stroke-width: 1.0;"/><text fill="#000000" font-family="sans-serif" font-size="11" font-style="italic" lengthAdjust="spacingAndGlyphs" textLength="233" x="27" y="80.8555">getActions(): Collection&lt;? extends Action&gt;</text><ellipse cx="18" cy="90.1758" fill="#84BE84" rx="3" ry="3" style="stroke: #038048; stroke-width: 1.0;"/><text fill="#000000" font-family="sans-serif" font-size="11" font-style="italic" lengthAdjust="spacingAndGlyphs" textLength="139" x="27" y="93.8105">getDefaultAction(): Action</text></a><text fill="#888888" font-family="sans-serif" font-size="10" lengthAdjust="spacingAndGlyphs" textLength="188" x="42.5" y="116.7988">UMLDoclet 2.0.12, PlantUML 1.2020.16</text><!--MD5=[9b4230edd6f8a9eeeb022492734115b4]
@startuml
    set namespaceSeparator none
    hide empty fields
    hide empty methods

    interface "<size:14>ActionProvider\n<size:10>it.tidalwave.role.ui" as it.tidalwave.role.ui.ActionProvider [[ActionProvider.html]] {
        {static} +_ActionProvider_: Class<ActionProvider>
        {abstract} +getActions(): Collection<? extends Action>
        {abstract} +getDefaultAction(): Action
    }

    center footer UMLDoclet 2.0.12, PlantUML 1.2020.16
@enduml

PlantUML version 1.2020.16(Sun Aug 23 22:20:43 CEST 2020)
(APACHE source distribution)
Java Runtime: OpenJDK Runtime Environment
JVM: OpenJDK 64-Bit Server VM
Default Encoding: UTF-8
Language: en
Country: GB
--></g></svg>