<?xml version="1.0" encoding="UTF-8" standalone="no"?><svg xmlns="http://www.w3.org/2000/svg" xmlns:xlink="http://www.w3.org/1999/xlink" contentScriptType="application/ecmascript" contentStyleType="text/css" height="307px" preserveAspectRatio="none" style="width:295px;height:307px;" version="1.1" viewBox="0 0 295 307" width="295px" zoomAndPan="magnify"><defs><filter height="300%" id="f1tx0jqlqusq3t" width="300%" x="-1" y="-1"><feGaussianBlur result="blurOut" stdDeviation="2.0"/><feColorMatrix in="blurOut" result="blurOut2" type="matrix" values="0 0 0 0 0 0 0 0 0 0 0 0 0 0 0 0 0 0 .4 0"/><feOffset dx="4.0" dy="4.0" in="blurOut2" result="blurOut3"/><feBlend in="SourceGraphic" in2="blurOut3" mode="normal"/></filter></defs><g><!--MD5=[b67448de58e20857ce23674ed53a1b7e]
class it.tidalwave.role.ui.UserAction--><a href="UserAction.html" target="_top" title="UserAction.html" xlink:actuate="onRequest" xlink:href="UserAction.html" xlink:show="new" xlink:title="UserAction.html" xlink:type="simple"><rect codeLine="5" fill="#FEFECE" filter="url(#f1tx0jqlqusq3t)" height="131.9961" id="it.tidalwave.role.ui.UserAction" style="stroke: #A80036; stroke-width: 1.5;" width="269" x="7" y="139"/><ellipse cx="91.75" cy="158.1328" fill="#B4A7E5" rx="11" ry="11" style="stroke: #A80036; stroke-width: 1.0;"/><path d="M88.1777,154.3979 L88.1777,152.2397 L95.5571,152.2397 L95.5571,154.3979 L93.0918,154.3979 L93.0918,162.4746 L95.5571,162.4746 L95.5571,164.6328 L88.1777,164.6328 L88.1777,162.4746 L90.6431,162.4746 L90.6431,154.3979 Z "/><text fill="#000000" font-family="sans-serif" font-size="14" font-style="italic" lengthAdjust="spacingAndGlyphs" textLength="75" x="120.25" y="157.5352">UserAction</text><text fill="#000000" font-family="sans-serif" font-size="10" font-style="italic" lengthAdjust="spacingAndGlyphs" textLength="91" x="112.25" y="170.1563">it.tidalwave.role.ui</text><line style="stroke: #A80036; stroke-width: 1.5;" x1="8" x2="275" y1="177.2656" y2="177.2656"/><ellipse cx="18" cy="188.2656" fill="none" rx="3" ry="3" style="stroke: #038048; stroke-width: 1.0;"/><text fill="#000000" font-family="sans-serif" font-size="11" lengthAdjust="spacingAndGlyphs" text-decoration="underline" textLength="185" x="27" y="191.9004">_UserAction_: Class&lt;UserAction&gt;</text><line style="stroke: #A80036; stroke-width: 1.5;" x1="8" x2="275" y1="198.2207" y2="198.2207"/><ellipse cx="18" cy="209.2207" fill="#84BE84" rx="3" ry="3" style="stroke: #038048; stroke-width: 1.0;"/><text fill="#000000" font-family="sans-serif" font-size="11" font-style="italic" lengthAdjust="spacingAndGlyphs" textLength="126" x="27" y="212.8555">actionPerformed(): void</text><ellipse cx="18" cy="222.1758" fill="#84BE84" rx="3" ry="3" style="stroke: #038048; stroke-width: 1.0;"/><text fill="#000000" font-family="sans-serif" font-size="11" font-style="italic" lengthAdjust="spacingAndGlyphs" textLength="196" x="27" y="225.8105">enabled(): BoundProperty&lt;Boolean&gt;</text><ellipse cx="18" cy="235.1309" fill="#84BE84" rx="3" ry="3" style="stroke: #038048; stroke-width: 1.0;"/><text fill="#000000" font-family="sans-serif" font-size="11" lengthAdjust="spacingAndGlyphs" text-decoration="underline" textLength="243" x="27" y="238.7656">of(Callback, Collection&lt;Object&gt;): UserAction</text><ellipse cx="18" cy="248.0859" fill="#84BE84" rx="3" ry="3" style="stroke: #038048; stroke-width: 1.0;"/><text fill="#000000" font-family="sans-serif" font-size="11" lengthAdjust="spacingAndGlyphs" text-decoration="underline" textLength="171" x="27" y="251.7207">of(Callback, Object): UserAction</text><ellipse cx="18" cy="261.041" fill="#84BE84" rx="3" ry="3" style="stroke: #038048; stroke-width: 1.0;"/><text fill="#000000" font-family="sans-serif" font-size="11" lengthAdjust="spacingAndGlyphs" text-decoration="underline" textLength="130" x="27" y="264.6758">of(Callback): UserAction</text></a><!--MD5=[dab04e1bf87902def4158d0914d2f9d5]
class it.tidalwave.util.As--><a href="../../util/As.html" target="_top" title="../../util/As.html" xlink:actuate="onRequest" xlink:href="../../util/As.html" xlink:show="new" xlink:title="../../util/As.html" xlink:type="simple"><rect codeLine="14" fill="#FEFECE" filter="url(#f1tx0jqlqusq3t)" height="72.1758" id="it.tidalwave.util.As" style="stroke: #A80036; stroke-width: 1.5;" width="268" x="7.5" y="7"/><ellipse cx="99.25" cy="26.1328" fill="#B4A7E5" rx="11" ry="11" style="stroke: #A80036; stroke-width: 1.0;"/><path d="M95.6777,22.3979 L95.6777,20.2397 L103.0571,20.2397 L103.0571,22.3979 L100.5918,22.3979 L100.5918,30.4746 L103.0571,30.4746 L103.0571,32.6328 L95.6777,32.6328 L95.6777,30.4746 L98.1431,30.4746 L98.1431,22.3979 Z "/><text fill="#000000" font-family="sans-serif" font-size="14" font-style="italic" lengthAdjust="spacingAndGlyphs" textLength="17" x="149.25" y="25.5352">As</text><text fill="#000000" font-family="sans-serif" font-size="10" font-style="italic" lengthAdjust="spacingAndGlyphs" textLength="76" x="119.75" y="38.1563">it.tidalwave.util</text><line style="stroke: #A80036; stroke-width: 1.5;" x1="8.5" x2="274.5" y1="45.2656" y2="45.2656"/><ellipse cx="18.5" cy="56.2656" fill="#84BE84" rx="3" ry="3" style="stroke: #038048; stroke-width: 1.0;"/><text fill="#000000" font-family="sans-serif" font-size="11" font-style="italic" lengthAdjust="spacingAndGlyphs" textLength="242" x="27.5" y="59.9004">maybeAs(Class&lt;? extends T&gt;): Optional&lt;T&gt;</text><ellipse cx="18.5" cy="69.2207" fill="#84BE84" rx="3" ry="3" style="stroke: #038048; stroke-width: 1.0;"/><text fill="#000000" font-family="sans-serif" font-size="11" font-style="italic" lengthAdjust="spacingAndGlyphs" textLength="241" x="27.5" y="72.8555">asMany(Class&lt;? extends T&gt;): Collection&lt;T&gt;</text></a><!--MD5=[2feb61034e8642ec1d534967b7e0d994]
reverse link it.tidalwave.util.As to it.tidalwave.role.ui.UserAction--><path codeLine="19" d="M141.5,99.5893 C141.5,112.2519 141.5,125.7925 141.5,138.8054 " fill="none" id="it.tidalwave.util.As-backto-it.tidalwave.role.ui.UserAction" style="stroke: #A80036; stroke-width: 1.0;"/><polygon fill="none" points="134.5001,99.356,141.5,79.356,148.5001,99.3559,134.5001,99.356" style="stroke: #A80036; stroke-width: 1.0;"/><text fill="#888888" font-family="sans-serif" font-size="10" lengthAdjust="spacingAndGlyphs" textLength="188" x="44.5" y="293.6641">UMLDoclet 2.0.12, PlantUML 1.2020.16</text><!--MD5=[2f4221d9404ea48edf25f17cae596da0]
@startuml
    set namespaceSeparator none
    hide empty fields
    hide empty methods

    interface "<size:14>UserAction\n<size:10>it.tidalwave.role.ui" as it.tidalwave.role.ui.UserAction [[UserAction.html]] {
        {static} +_UserAction_: Class<UserAction>
        {abstract} +actionPerformed(): void
        {abstract} +enabled(): BoundProperty<Boolean>
        {static} +of(Callback, Collection<Object>): UserAction
        {static} +of(Callback, Object): UserAction
        {static} +of(Callback): UserAction
    }

    interface "<size:14>As\n<size:10>it.tidalwave.util" as it.tidalwave.util.As [[../../util/As.html]] {
        {abstract} +maybeAs(Class<? extends T>): Optional<T>
        {abstract} +asMany(Class<? extends T>): Collection<T>
    }

    it.tidalwave.util.As <|- - it.tidalwave.role.ui.UserAction

    center footer UMLDoclet 2.0.12, PlantUML 1.2020.16
@enduml

PlantUML version 1.2020.16(Sun Aug 23 22:20:43 CEST 2020)
(APACHE source distribution)
Java Runtime: OpenJDK Runtime Environment
JVM: OpenJDK 64-Bit Server VM
Default Encoding: UTF-8
Language: en
Country: GB
--></g></svg>