<?xml version="1.0" encoding="UTF-8" standalone="no"?><svg xmlns="http://www.w3.org/2000/svg" xmlns:xlink="http://www.w3.org/1999/xlink" contentScriptType="application/ecmascript" contentStyleType="text/css" height="122px" preserveAspectRatio="none" style="width:547px;height:122px;" version="1.1" viewBox="0 0 547 122" width="547px" zoomAndPan="magnify"><defs><filter height="300%" id="f1pfmz18jutnli" width="300%" x="-1" y="-1"><feGaussianBlur result="blurOut" stdDeviation="2.0"/><feColorMatrix in="blurOut" result="blurOut2" type="matrix" values="0 0 0 0 0 0 0 0 0 0 0 0 0 0 0 0 0 0 .4 0"/><feOffset dx="4.0" dy="4.0" in="blurOut2" result="blurOut3"/><feBlend in="SourceGraphic" in2="blurOut3" mode="normal"/></filter></defs><g><!--MD5=[1d4fa309eda27dd8f938ed2956580066]
class it.tidalwave.northernwind.frontend.ui.component.blog.MockPosts--><a href="MockPosts.html" target="_top" title="MockPosts.html" xlink:actuate="onRequest" xlink:href="MockPosts.html" xlink:show="new" xlink:title="MockPosts.html" xlink:type="simple"><rect codeLine="5" fill="#FEFECE" filter="url(#f1pfmz18jutnli)" height="85.1309" id="it.tidalwave.northernwind.frontend.ui.component.blog.MockPosts" style="stroke: #A80036; stroke-width: 1.5;" width="521" x="7" y="7"/><ellipse cx="131.75" cy="26.1328" fill="#ADD1B2" rx="11" ry="11" style="stroke: #A80036; stroke-width: 1.0;"/><path d="M134.2231,32.2759 Q133.6421,32.5747 133.0029,32.7241 Q132.3638,32.8735 131.6582,32.8735 Q129.1514,32.8735 127.8315,31.2217 Q126.5117,29.5698 126.5117,26.4487 Q126.5117,23.3193 127.8315,21.6675 Q129.1514,20.0156 131.6582,20.0156 Q132.3638,20.0156 133.0112,20.165 Q133.6587,20.3145 134.2231,20.6133 L134.2231,23.3359 Q133.5923,22.7549 132.9988,22.4851 Q132.4053,22.2153 131.7744,22.2153 Q130.4297,22.2153 129.7449,23.282 Q129.0601,24.3486 129.0601,26.4487 Q129.0601,28.5405 129.7449,29.6072 Q130.4297,30.6738 131.7744,30.6738 Q132.4053,30.6738 132.9988,30.4041 Q133.5923,30.1343 134.2231,29.5532 Z "/><text fill="#000000" font-family="sans-serif" font-size="14" lengthAdjust="spacingAndGlyphs" textLength="72" x="247.75" y="25.5352">MockPosts</text><text fill="#000000" font-family="sans-serif" font-size="10" lengthAdjust="spacingAndGlyphs" textLength="263" x="152.25" y="38.1563">it.tidalwave.northernwind.frontend.ui.component.blog</text><line style="stroke: #A80036; stroke-width: 1.5;" x1="8" x2="527" y1="45.2656" y2="45.2656"/><ellipse cx="18" cy="56.2656" fill="#84BE84" rx="3" ry="3" style="stroke: #038048; stroke-width: 1.0;"/><text fill="#000000" font-family="sans-serif" font-size="11" lengthAdjust="spacingAndGlyphs" textLength="136" x="27" y="59.9004">createMockData(int): void</text><ellipse cx="18" cy="69.2207" fill="#84BE84" rx="3" ry="3" style="stroke: #038048; stroke-width: 1.0;"/><text fill="#000000" font-family="sans-serif" font-size="11" lengthAdjust="spacingAndGlyphs" text-decoration="underline" textLength="286" x="27" y="72.8555">createMockDateTimes(int, int): List&lt;ZonedDateTime&gt;</text><ellipse cx="18" cy="82.1758" fill="#84BE84" rx="3" ry="3" style="stroke: #038048; stroke-width: 1.0;"/><text fill="#000000" font-family="sans-serif" font-size="11" lengthAdjust="spacingAndGlyphs" text-decoration="underline" textLength="495" x="27" y="85.8105">createMockPosts(int, List&lt;ZonedDateTime&gt;, List&lt;String&gt;, List&lt;String&gt;, int): List&lt;Content&gt;</text></a><text fill="#888888" font-family="sans-serif" font-size="10" lengthAdjust="spacingAndGlyphs" textLength="188" x="173.5" y="108.7988">UMLDoclet 2.0.12, PlantUML 1.2020.16</text><!--MD5=[26404eb81ba9ec01ec28efa197c1c033]
@startuml
    set namespaceSeparator none
    hide empty fields
    hide empty methods

    class "<size:14>MockPosts\n<size:10>it.tidalwave.northernwind.frontend.ui.component.blog" as it.tidalwave.northernwind.frontend.ui.component.blog.MockPosts [[MockPosts.html]] {
        +createMockData(int): void
        {static} +createMockDateTimes(int, int): List<ZonedDateTime>
        {static} +createMockPosts(int, List<ZonedDateTime>, List<String>, List<String>, int): List<Content>
    }

    center footer UMLDoclet 2.0.12, PlantUML 1.2020.16
@enduml

PlantUML version 1.2020.16(Sun Aug 23 22:20:43 CEST 2020)
(APACHE source distribution)
Java Runtime: OpenJDK Runtime Environment
JVM: OpenJDK 64-Bit Server VM
Default Encoding: UTF-8
Language: en
Country: GB
--></g></svg>