<?xml version="1.0" encoding="UTF-8" standalone="no"?><svg xmlns="http://www.w3.org/2000/svg" xmlns:xlink="http://www.w3.org/1999/xlink" contentScriptType="application/ecmascript" contentStyleType="text/css" height="222px" preserveAspectRatio="none" style="width:1281px;height:222px;" version="1.1" viewBox="0 0 1281 222" width="1281px" zoomAndPan="magnify"><defs><filter height="300%" id="f1cbk1h3cve1cv" width="300%" x="-1" y="-1"><feGaussianBlur result="blurOut" stdDeviation="2.0"/><feColorMatrix in="blurOut" result="blurOut2" type="matrix" values="0 0 0 0 0 0 0 0 0 0 0 0 0 0 0 0 0 0 .4 0"/><feOffset dx="4.0" dy="4.0" in="blurOut2" result="blurOut3"/><feBlend in="SourceGraphic" in2="blurOut3" mode="normal"/></filter></defs><g><!--MD5=[e68c14196269d1f2dad59416aa1d49ed]
cluster it.tidalwave.northernwind.frontend.ui.component.blog--><polygon fill="#FFFFFF" filter="url(#f1cbk1h3cve1cv)" points="16,6,405,6,412,28.4883,1259,28.4883,1259,193,16,193,16,6" style="stroke: #000000; stroke-width: 1.5;"/><line style="stroke: #000000; stroke-width: 1.5;" x1="16" x2="412" y1="28.4883" y2="28.4883"/><text fill="#000000" font-family="sans-serif" font-size="14" font-weight="bold" lengthAdjust="spacingAndGlyphs" textLength="383" x="20" y="21.5352">it.tidalwave.northernwind.frontend.ui.component.blog</text><!--MD5=[1d4fa309eda27dd8f938ed2956580066]
class it.tidalwave.northernwind.frontend.ui.component.blog.MockPosts--><a href="MockPosts.html" target="_top" title="MockPosts.html" xlink:actuate="onRequest" xlink:href="MockPosts.html" xlink:show="new" xlink:title="MockPosts.html" xlink:type="simple"><rect codeLine="3" fill="#FEFECE" filter="url(#f1cbk1h3cve1cv)" height="86.8652" id="it.tidalwave.northernwind.frontend.ui.component.blog.MockPosts" style="stroke: #A80036; stroke-width: 1.5;" width="521" x="729.5" y="65.5"/><ellipse cx="955.75" cy="81.5" fill="#ADD1B2" rx="11" ry="11" style="stroke: #A80036; stroke-width: 1.0;"/><path d="M958.2231,87.6431 Q957.6421,87.9419 957.0029,88.0913 Q956.3638,88.2407 955.6582,88.2407 Q953.1514,88.2407 951.8315,86.5889 Q950.5117,84.937 950.5117,81.8159 Q950.5117,78.6865 951.8315,77.0347 Q953.1514,75.3828 955.6582,75.3828 Q956.3638,75.3828 957.0112,75.5322 Q957.6587,75.6816 958.2231,75.9805 L958.2231,78.7031 Q957.5923,78.1221 956.9988,77.8523 Q956.4053,77.5825 955.7744,77.5825 Q954.4297,77.5825 953.7449,78.6492 Q953.0601,79.7158 953.0601,81.8159 Q953.0601,83.9077 953.7449,84.9744 Q954.4297,86.041 955.7744,86.041 Q956.4053,86.041 956.9988,85.7712 Q957.5923,85.5015 958.2231,84.9204 Z "/><text fill="#000000" font-family="sans-serif" font-size="12" lengthAdjust="spacingAndGlyphs" textLength="60" x="976.25" y="86.0352">MockPosts</text><line style="stroke: #A80036; stroke-width: 1.5;" x1="730.5" x2="1249.5" y1="97.5" y2="97.5"/><line style="stroke: #A80036; stroke-width: 1.5;" x1="730.5" x2="1249.5" y1="105.5" y2="105.5"/><ellipse cx="740.5" cy="116.5" fill="#84BE84" rx="3" ry="3" style="stroke: #038048; stroke-width: 1.0;"/><text fill="#000000" font-family="sans-serif" font-size="11" lengthAdjust="spacingAndGlyphs" textLength="136" x="749.5" y="120.1348">createMockData(int): void</text><ellipse cx="740.5" cy="129.4551" fill="#84BE84" rx="3" ry="3" style="stroke: #038048; stroke-width: 1.0;"/><text fill="#000000" font-family="sans-serif" font-size="11" lengthAdjust="spacingAndGlyphs" text-decoration="underline" textLength="286" x="749.5" y="133.0898">createMockDateTimes(int, int): List&lt;ZonedDateTime&gt;</text><ellipse cx="740.5" cy="142.4102" fill="#84BE84" rx="3" ry="3" style="stroke: #038048; stroke-width: 1.0;"/><text fill="#000000" font-family="sans-serif" font-size="11" lengthAdjust="spacingAndGlyphs" text-decoration="underline" textLength="495" x="749.5" y="146.0449">createMockPosts(int, List&lt;ZonedDateTime&gt;, List&lt;String&gt;, List&lt;String&gt;, int): List&lt;Content&gt;</text></a><!--MD5=[9b62008eb3f04d127e4c58d856bcc4d2]
class it.tidalwave.northernwind.frontend.ui.component.blog.DefaultBlogViewControllerTest--><a href="DefaultBlogViewControllerTest.html" target="_top" title="DefaultBlogViewControllerTest.html" xlink:actuate="onRequest" xlink:href="DefaultBlogViewControllerTest.html" xlink:show="new" xlink:title="DefaultBlogViewControllerTest.html" xlink:type="simple"><rect codeLine="9" fill="#FEFECE" filter="url(#f1cbk1h3cve1cv)" height="151.6406" id="it.tidalwave.northernwind.frontend.ui.component.blog.DefaultBlogViewControllerTest" style="stroke: #A80036; stroke-width: 1.5;" width="670" x="24" y="33"/><ellipse cx="268.25" cy="49" fill="#ADD1B2" rx="11" ry="11" style="stroke: #A80036; stroke-width: 1.0;"/><path d="M270.7231,55.1431 Q270.1421,55.4419 269.5029,55.5913 Q268.8638,55.7407 268.1582,55.7407 Q265.6514,55.7407 264.3315,54.0889 Q263.0117,52.437 263.0117,49.3159 Q263.0117,46.1865 264.3315,44.5347 Q265.6514,42.8828 268.1582,42.8828 Q268.8638,42.8828 269.5112,43.0322 Q270.1587,43.1816 270.7231,43.4805 L270.7231,46.2031 Q270.0923,45.6221 269.4988,45.3523 Q268.9053,45.0825 268.2744,45.0825 Q266.9297,45.0825 266.2449,46.1492 Q265.5601,47.2158 265.5601,49.3159 Q265.5601,51.4077 266.2449,52.4744 Q266.9297,53.541 268.2744,53.541 Q268.9053,53.541 269.4988,53.2712 Q270.0923,53.0015 270.7231,52.4204 Z "/><text fill="#000000" font-family="sans-serif" font-size="12" lengthAdjust="spacingAndGlyphs" textLength="173" x="288.75" y="53.5352">DefaultBlogViewControllerTest</text><line style="stroke: #A80036; stroke-width: 1.5;" x1="25" x2="693" y1="65" y2="65"/><line style="stroke: #A80036; stroke-width: 1.5;" x1="25" x2="693" y1="73" y2="73"/><ellipse cx="35" cy="84" fill="#84BE84" rx="3" ry="3" style="stroke: #038048; stroke-width: 1.0;"/><text fill="#000000" font-family="sans-serif" font-size="11" lengthAdjust="spacingAndGlyphs" textLength="587" x="44" y="87.6348">must_properly_render_posts(int, int, int, int, String, String, List&lt;Integer&gt;, List&lt;Integer&gt;, List&lt;Integer&gt;): void</text><ellipse cx="35" cy="96.9551" fill="#84BE84" rx="3" ry="3" style="stroke: #038048; stroke-width: 1.0;"/><text fill="#000000" font-family="sans-serif" font-size="11" lengthAdjust="spacingAndGlyphs" textLength="272" x="44" y="100.5898">must_throw_NotFound(int, int, int, int, String): void</text><ellipse cx="35" cy="109.9102" fill="#84BE84" rx="3" ry="3" style="stroke: #038048; stroke-width: 1.0;"/><text fill="#000000" font-family="sans-serif" font-size="11" lengthAdjust="spacingAndGlyphs" textLength="411" x="44" y="113.5449">must_throw_BadRequest_with_bad_path_params(int, int, int, int, String): void</text><ellipse cx="35" cy="122.8652" fill="#84BE84" rx="3" ry="3" style="stroke: #038048; stroke-width: 1.0;"/><text fill="#000000" font-family="sans-serif" font-size="11" lengthAdjust="spacingAndGlyphs" textLength="349" x="44" y="126.5">must_properly_render_tag_cloud(int, List&lt;TagAndCount&gt;): void</text><ellipse cx="35" cy="135.8203" fill="#84BE84" rx="3" ry="3" style="stroke: #038048; stroke-width: 1.0;"/><text fill="#000000" font-family="sans-serif" font-size="11" lengthAdjust="spacingAndGlyphs" textLength="356" x="44" y="139.4551">must_properly_render_tag_cloud2(int, List&lt;TagAndCount&gt;): void</text><ellipse cx="35" cy="148.7754" fill="#84BE84" rx="3" ry="3" style="stroke: #038048; stroke-width: 1.0;"/><text fill="#000000" font-family="sans-serif" font-size="11" lengthAdjust="spacingAndGlyphs" textLength="644" x="44" y="152.4102">must_properly_set_dynamic_properties(int, int, int, int, String, String, List&lt;Integer&gt;, List&lt;Integer&gt;, List&lt;Integer&gt;): void</text><ellipse cx="35" cy="161.7305" fill="#84BE84" rx="3" ry="3" style="stroke: #038048; stroke-width: 1.0;"/><text fill="#000000" font-family="sans-serif" font-size="11" lengthAdjust="spacingAndGlyphs" textLength="242" x="44" y="165.3652">must_properly_retrieve_virtual_nodes(): void</text><ellipse cx="35" cy="174.6855" fill="#84BE84" rx="3" ry="3" style="stroke: #038048; stroke-width: 1.0;"/><text fill="#000000" font-family="sans-serif" font-size="11" lengthAdjust="spacingAndGlyphs" textLength="574" x="44" y="178.3203">must_properly_render_the_date(String, Optional&lt;String&gt;, ZonedDateTime, Optional&lt;String&gt;, String): void</text></a><text fill="#888888" font-family="sans-serif" font-size="10" lengthAdjust="spacingAndGlyphs" textLength="188" x="537.5" y="208.668">UMLDoclet 2.0.12, PlantUML 1.2020.16</text><!--MD5=[4ca5d8300fd2dc4af18d53742bbd6634]
@startuml
    namespace it.tidalwave.northernwind.frontend.ui.component.blog {

        class MockPosts [[MockPosts.html]] {
            +createMockData(int): void
            {static} +createMockDateTimes(int, int): List<ZonedDateTime>
            {static} +createMockPosts(int, List<ZonedDateTime>, List<String>, List<String>, int): List<Content>
        }

        class DefaultBlogViewControllerTest [[DefaultBlogViewControllerTest.html]] {
            +must_properly_render_posts(int, int, int, int, String, String, List<Integer>, List<Integer>, List<Integer>): void
            +must_throw_NotFound(int, int, int, int, String): void
            +must_throw_BadRequest_with_bad_path_params(int, int, int, int, String): void
            +must_properly_render_tag_cloud(int, List<TagAndCount>): void
            +must_properly_render_tag_cloud2(int, List<TagAndCount>): void
            +must_properly_set_dynamic_properties(int, int, int, int, String, String, List<Integer>, List<Integer>, List<Integer>): void
            +must_properly_retrieve_virtual_nodes(): void
            +must_properly_render_the_date(String, Optional<String>, ZonedDateTime, Optional<String>, String): void
        }

    }

    center footer UMLDoclet 2.0.12, PlantUML 1.2020.16
@enduml

PlantUML version 1.2020.16(Sun Aug 23 22:20:43 CEST 2020)
(APACHE source distribution)
Java Runtime: OpenJDK Runtime Environment
JVM: OpenJDK 64-Bit Server VM
Default Encoding: UTF-8
Language: en
Country: GB
--></g></svg>