@startuml
    set namespaceSeparator none
    hide empty fields
    hide empty methods

    class "<size:14>UpnpUtilities\n<size:10>it.tidalwave.bluemarine2.upnp.mediaserver.impl" as it.tidalwave.bluemarine2.upnp.mediaserver.impl.UpnpUtilities [[UpnpUtilities.html]] {
        {static} +ID_NONE: String
        {static} +pathToDidlId(Path): String
        {static} +didlIdToPath(String): Path
        {static} +externalized(String): String
        {static} +internalized(String): String
        {static} +maxCount(long): int
    }

    center footer UMLDoclet 2.0.12, PlantUML 1.2020.16
@enduml
