<?xml version="1.0" encoding="UTF-8" standalone="no"?><svg xmlns="http://www.w3.org/2000/svg" xmlns:xlink="http://www.w3.org/1999/xlink" contentScriptType="application/ecmascript" contentStyleType="text/css" height="263px" preserveAspectRatio="none" style="width:340px;height:263px;" version="1.1" viewBox="0 0 340 263" width="340px" zoomAndPan="magnify"><defs><filter height="300%" id="fcz7mqzhou8rt" width="300%" x="-1" y="-1"><feGaussianBlur result="blurOut" stdDeviation="2.0"/><feColorMatrix in="blurOut" result="blurOut2" type="matrix" values="0 0 0 0 0 0 0 0 0 0 0 0 0 0 0 0 0 0 .4 0"/><feOffset dx="4.0" dy="4.0" in="blurOut2" result="blurOut3"/><feBlend in="SourceGraphic" in2="blurOut3" mode="normal"/></filter></defs><g><!--MD5=[28f428c66ea6dc6ddd3e830eb1887f56]
class it.tidalwave.role.Composite--><a href="Composite.html" target="_top" title="Composite.html" xlink:actuate="onRequest" xlink:href="Composite.html" xlink:show="new" xlink:title="Composite.html" xlink:type="simple"><rect codeLine="5" fill="#FEFECE" filter="url(#fcz7mqzhou8rt)" height="119.041" id="it.tidalwave.role.Composite" style="stroke: #A80036; stroke-width: 1.5;" width="314" x="7" y="10"/><ellipse cx="22" cy="29.1328" fill="#B4A7E5" rx="11" ry="11" style="stroke: #A80036; stroke-width: 1.0;"/><path d="M18.4277,25.3979 L18.4277,23.2397 L25.8071,23.2397 L25.8071,25.3979 L23.3418,25.3979 L23.3418,33.4746 L25.8071,33.4746 L25.8071,35.6328 L18.4277,35.6328 L18.4277,33.4746 L20.8931,33.4746 L20.8931,25.3979 Z "/><text fill="#000000" font-family="sans-serif" font-size="14" font-style="italic" lengthAdjust="spacingAndGlyphs" textLength="74" x="38.5" y="28.5352">Composite</text><text fill="#000000" font-family="sans-serif" font-size="10" font-style="italic" lengthAdjust="spacingAndGlyphs" textLength="79" x="36" y="41.1563">it.tidalwave.role</text><rect fill="#FFFFFF" height="16.1328" style="stroke: #000000; stroke-width: 1.0; stroke-dasharray: 2.0,2.0;" width="201" x="123" y="7"/><text fill="#000000" font-family="sans-serif" font-size="12" font-style="italic" lengthAdjust="spacingAndGlyphs" textLength="199" x="124" y="19.6016">T, F extends Finder&lt;? extends T&gt;</text><line style="stroke: #A80036; stroke-width: 1.5;" x1="8" x2="320" y1="48.2656" y2="48.2656"/><ellipse cx="18" cy="59.2656" fill="none" rx="3" ry="3" style="stroke: #038048; stroke-width: 1.0;"/><text fill="#000000" font-family="sans-serif" font-size="11" lengthAdjust="spacingAndGlyphs" text-decoration="underline" textLength="181" x="27" y="62.9004">_Composite_: Class&lt;Composite&gt;</text><ellipse cx="18" cy="72.2207" fill="none" rx="3" ry="3" style="stroke: #038048; stroke-width: 1.0;"/><text fill="#000000" font-family="sans-serif" font-size="11" lengthAdjust="spacingAndGlyphs" text-decoration="underline" textLength="259" x="27" y="75.8555">DEFAULT: Composite&lt;Object, Finder&lt;Object&gt;&gt;</text><line style="stroke: #A80036; stroke-width: 1.5;" x1="8" x2="320" y1="82.1758" y2="82.1758"/><ellipse cx="18" cy="93.1758" fill="#84BE84" rx="3" ry="3" style="stroke: #038048; stroke-width: 1.0;"/><text fill="#000000" font-family="sans-serif" font-size="11" font-style="italic" lengthAdjust="spacingAndGlyphs" textLength="249" x="27" y="96.8105">findChildren(): F extends Finder&lt;? extends T&gt;</text><ellipse cx="18" cy="106.1309" fill="#84BE84" rx="3" ry="3" style="stroke: #038048; stroke-width: 1.0;"/><text fill="#000000" font-family="sans-serif" font-size="11" lengthAdjust="spacingAndGlyphs" textLength="167" x="27" y="109.7656">stream(): Stream&lt;? extends T&gt;</text><ellipse cx="18" cy="119.0859" fill="#84BE84" rx="3" ry="3" style="stroke: #038048; stroke-width: 1.0;"/><text fill="#000000" font-family="sans-serif" font-size="11" lengthAdjust="spacingAndGlyphs" textLength="201" x="27" y="122.7207">forEach(Consumer&lt;? super T&gt;): void</text></a><!--MD5=[96fda046302279efd0df60a539f9f1f0]
class it.tidalwave.role.Composite.Visitor--><a href="Composite.Visitor.html" target="_top" title="Composite.Visitor.html" xlink:actuate="onRequest" xlink:href="Composite.Visitor.html" xlink:show="new" xlink:title="Composite.Visitor.html" xlink:type="simple"><rect codeLine="12" fill="#FEFECE" filter="url(#fcz7mqzhou8rt)" height="38.2656" id="it.tidalwave.role.Composite.Visitor" style="stroke: #A80036; stroke-width: 1.5;" width="182" x="73" y="189"/><ellipse cx="88" cy="208.1328" fill="#B4A7E5" rx="11" ry="11" style="stroke: #A80036; stroke-width: 1.0;"/><path d="M84.4277,204.3979 L84.4277,202.2397 L91.8071,202.2397 L91.8071,204.3979 L89.3418,204.3979 L89.3418,212.4746 L91.8071,212.4746 L91.8071,214.6328 L84.4277,214.6328 L84.4277,212.4746 L86.8931,212.4746 L86.8931,204.3979 Z "/><text fill="#000000" font-family="sans-serif" font-size="14" font-style="italic" lengthAdjust="spacingAndGlyphs" textLength="122" x="102" y="207.5352">Composite.Visitor</text><text fill="#000000" font-family="sans-serif" font-size="10" font-style="italic" lengthAdjust="spacingAndGlyphs" textLength="79" x="123.5" y="220.1563">it.tidalwave.role</text><rect fill="#FFFFFF" height="16.1328" style="stroke: #000000; stroke-width: 1.0; stroke-dasharray: 2.0,2.0;" width="26" x="232" y="186"/><text fill="#000000" font-family="sans-serif" font-size="12" font-style="italic" lengthAdjust="spacingAndGlyphs" textLength="24" x="233" y="198.6016">T, R</text></a><!--MD5=[c0a6916de380d2acc83b64a898d5fdf8]
reverse link it.tidalwave.role.Composite to it.tidalwave.role.Composite.Visitor--><path codeLine="14" d="M164,144.0426 C164,160.7336 164,177.0121 164,188.9692 " fill="none" id="it.tidalwave.role.Composite-backto-it.tidalwave.role.Composite.Visitor" style="stroke: #A80036; stroke-width: 1.0;"/><ellipse cx="164.0001" cy="137.0402" fill="#FFFFFF" rx="8" ry="8" style="stroke: #A80036; stroke-width: 1.0;"/><line style="stroke: #A80036; stroke-width: 1.0;" x1="164.0002" x2="164" y1="145.0402" y2="129.0402"/><line style="stroke: #A80036; stroke-width: 1.0;" x1="156.0001" x2="172.0001" y1="137.0403" y2="137.0401"/><text fill="#888888" font-family="sans-serif" font-size="10" lengthAdjust="spacingAndGlyphs" textLength="188" x="67" y="249.9336">UMLDoclet 2.0.12, PlantUML 1.2020.16</text><!--MD5=[e51e2f3d50010faf55ee68e4c53fd922]
@startuml
    set namespaceSeparator none
    hide empty fields
    hide empty methods

    interface "<size:14>Composite\n<size:10>it.tidalwave.role" as it.tidalwave.role.Composite<T, F extends Finder<? extends T>> [[Composite.html]] {
        {static} +_Composite_: Class<Composite>
        {static} +DEFAULT: Composite<Object, Finder<Object>>
        {abstract} +findChildren(): F extends Finder<? extends T>
        +stream(): Stream<? extends T>
        +forEach(Consumer<? super T>): void
    }
    interface "<size:14>Composite.Visitor\n<size:10>it.tidalwave.role" as it.tidalwave.role.Composite.Visitor<T, R> [[Composite.Visitor.html]]

    it.tidalwave.role.Composite +- - it.tidalwave.role.Composite.Visitor

    center footer UMLDoclet 2.0.12, PlantUML 1.2020.16
@enduml

PlantUML version 1.2020.16(Sun Aug 23 22:20:43 CEST 2020)
(APACHE source distribution)
Java Runtime: OpenJDK Runtime Environment
JVM: OpenJDK 64-Bit Server VM
Default Encoding: UTF-8
Language: en
Country: GB
--></g></svg>