@startuml
    namespace it.tidalwave.bluemarine2.ui.impl.javafx.role {

        class TrackCustomGraphicProvider [[TrackCustomGraphicProvider.html]] {
            +getGraphic(): Node
        }

        class FileSystemAudioFileCustomGraphicProvider [[FileSystemAudioFileCustomGraphicProvider.html]] {
            +getGraphic(): Node
        }

        class RecordCustomGraphicProvider [[RecordCustomGraphicProvider.html]] {
            +getGraphic(): Node
        }

        class FolderCustomGraphicProvider [[FolderCustomGraphicProvider.html]] {
            +getGraphic(): Node
        }

        class BrowserStyleable [[BrowserStyleable.html]] {
            +getStyles(): Collection<String>
        }

        class MusicArtistCustomGraphicProvider [[MusicArtistCustomGraphicProvider.html]] {
            +getGraphic(): Node
        }

        class MediaFileSystemStyleable [[MediaFileSystemStyleable.html]] {
            +getStyles(): Collection<String>
        }

        it.tidalwave.ui.role.javafx.CustomGraphicProvider <|.. TrackCustomGraphicProvider
        it.tidalwave.ui.role.javafx.CustomGraphicProvider <|.. FileSystemAudioFileCustomGraphicProvider
        it.tidalwave.ui.role.javafx.CustomGraphicProvider <|.. RecordCustomGraphicProvider
        it.tidalwave.ui.role.javafx.CustomGraphicProvider <|.. FolderCustomGraphicProvider
        it.tidalwave.role.ui.Styleable <|.. BrowserStyleable
        it.tidalwave.ui.role.javafx.CustomGraphicProvider <|.. MusicArtistCustomGraphicProvider
        it.tidalwave.role.ui.Styleable <|.. MediaFileSystemStyleable
    }

    namespace it.tidalwave.ui.role.javafx {
        interface CustomGraphicProvider {
            {static} +_CustomGraphicProvider_: Class<CustomGraphicProvider>
            {abstract} +getGraphic(): Node
        }
    }

    namespace it.tidalwave.role.ui {
        interface Styleable {
            {static} +_Styleable_: Class<Styleable>
            {abstract} +getStyles(): Collection<String>
            {static} +of(Collection<String>): Styleable
            {static} +of(String...): Styleable
        }
    }

    center footer UMLDoclet 2.0.12, PlantUML 1.2020.16
@enduml
