<?xml version="1.0" encoding="UTF-8" standalone="no"?><svg xmlns="http://www.w3.org/2000/svg" xmlns:xlink="http://www.w3.org/1999/xlink" contentScriptType="application/ecmascript" contentStyleType="text/css" height="341px" preserveAspectRatio="none" style="width:2016px;height:341px;" version="1.1" viewBox="0 0 2016 341" width="2016px" zoomAndPan="magnify"><defs><filter height="300%" id="fvbm2icagjqgo" width="300%" x="-1" y="-1"><feGaussianBlur result="blurOut" stdDeviation="2.0"/><feColorMatrix in="blurOut" result="blurOut2" type="matrix" values="0 0 0 0 0 0 0 0 0 0 0 0 0 0 0 0 0 0 .4 0"/><feOffset dx="4.0" dy="4.0" in="blurOut2" result="blurOut3"/><feBlend in="SourceGraphic" in2="blurOut3" mode="normal"/></filter></defs><g><!--MD5=[f624c859ad0e1eb814b90c4c4550318d]
cluster it.tidalwave.role.io--><polygon fill="#FFFFFF" filter="url(#fvbm2icagjqgo)" points="16,6,153,6,160,28.4883,1994,28.4883,1994,312,16,312,16,6" style="stroke: #000000; stroke-width: 1.5;"/><line style="stroke: #000000; stroke-width: 1.5;" x1="16" x2="160" y1="28.4883" y2="28.4883"/><text fill="#000000" font-family="sans-serif" font-size="14" font-weight="bold" lengthAdjust="spacingAndGlyphs" textLength="131" x="20" y="21.5352">it.tidalwave.role.io</text><!--MD5=[020cd9ae4c403ec9331e5e76009ca2a8]
class it.tidalwave.role.io.BinaryWritable--><a href="BinaryWritable.html" target="_top" title="BinaryWritable.html" xlink:actuate="onRequest" xlink:href="BinaryWritable.html" xlink:show="new" xlink:title="BinaryWritable.html" xlink:type="simple"><rect codeLine="3" fill="#FEFECE" filter="url(#fvbm2icagjqgo)" height="73.9102" id="it.tidalwave.role.io.BinaryWritable" style="stroke: #A80036; stroke-width: 1.5;" width="243" x="1103.5" y="33"/><ellipse cx="1179.75" cy="49" fill="#B4A7E5" rx="11" ry="11" style="stroke: #A80036; stroke-width: 1.0;"/><path d="M1176.1777,45.2651 L1176.1777,43.1069 L1183.5571,43.1069 L1183.5571,45.2651 L1181.0918,45.2651 L1181.0918,53.3418 L1183.5571,53.3418 L1183.5571,55.5 L1176.1777,55.5 L1176.1777,53.3418 L1178.6431,53.3418 L1178.6431,45.2651 Z "/><text fill="#000000" font-family="sans-serif" font-size="12" font-style="italic" lengthAdjust="spacingAndGlyphs" textLength="82" x="1200.25" y="53.5352">BinaryWritable</text><line style="stroke: #A80036; stroke-width: 1.5;" x1="1104.5" x2="1345.5" y1="65" y2="65"/><ellipse cx="1114.5" cy="76" fill="none" rx="3" ry="3" style="stroke: #038048; stroke-width: 1.0;"/><text fill="#000000" font-family="sans-serif" font-size="11" lengthAdjust="spacingAndGlyphs" text-decoration="underline" textLength="217" x="1123.5" y="79.6348">_BinaryWritable_: Class&lt;BinaryWritable&gt;</text><line style="stroke: #A80036; stroke-width: 1.5;" x1="1104.5" x2="1345.5" y1="85.9551" y2="85.9551"/><ellipse cx="1114.5" cy="96.9551" fill="#84BE84" rx="3" ry="3" style="stroke: #038048; stroke-width: 1.0;"/><text fill="#000000" font-family="sans-serif" font-size="11" font-style="italic" lengthAdjust="spacingAndGlyphs" textLength="153" x="1123.5" y="100.5898">openStream(): OutputStream</text></a><!--MD5=[0e5e728ae99ecbb96a97ddc8125ef291]
class it.tidalwave.role.io.TextReadable--><a href="TextReadable.html" target="_top" title="TextReadable.html" xlink:actuate="onRequest" xlink:href="TextReadable.html" xlink:show="new" xlink:title="TextReadable.html" xlink:type="simple"><rect codeLine="8" fill="#FEFECE" filter="url(#fvbm2icagjqgo)" height="73.9102" id="it.tidalwave.role.io.TextReadable" style="stroke: #A80036; stroke-width: 1.5;" width="235" x="746.5" y="33"/><ellipse cx="819.25" cy="49" fill="#B4A7E5" rx="11" ry="11" style="stroke: #A80036; stroke-width: 1.0;"/><path d="M815.6777,45.2651 L815.6777,43.1069 L823.0571,43.1069 L823.0571,45.2651 L820.5918,45.2651 L820.5918,53.3418 L823.0571,53.3418 L823.0571,55.5 L815.6777,55.5 L815.6777,53.3418 L818.1431,53.3418 L818.1431,45.2651 Z "/><text fill="#000000" font-family="sans-serif" font-size="12" font-style="italic" lengthAdjust="spacingAndGlyphs" textLength="81" x="839.75" y="53.5352">TextReadable</text><line style="stroke: #A80036; stroke-width: 1.5;" x1="747.5" x2="980.5" y1="65" y2="65"/><ellipse cx="757.5" cy="76" fill="none" rx="3" ry="3" style="stroke: #038048; stroke-width: 1.0;"/><text fill="#000000" font-family="sans-serif" font-size="11" lengthAdjust="spacingAndGlyphs" text-decoration="underline" textLength="209" x="766.5" y="79.6348">_TextReadable_: Class&lt;TextReadable&gt;</text><line style="stroke: #A80036; stroke-width: 1.5;" x1="747.5" x2="980.5" y1="85.9551" y2="85.9551"/><ellipse cx="757.5" cy="96.9551" fill="#84BE84" rx="3" ry="3" style="stroke: #038048; stroke-width: 1.0;"/><text fill="#000000" font-family="sans-serif" font-size="11" font-style="italic" lengthAdjust="spacingAndGlyphs" textLength="115" x="766.5" y="100.5898">openReader(): Reader</text></a><!--MD5=[1d6daf24c31beaff6fb6a993bb7422e1]
class it.tidalwave.role.io.Marshallable--><a href="Marshallable.html" target="_top" title="Marshallable.html" xlink:actuate="onRequest" xlink:href="Marshallable.html" xlink:show="new" xlink:title="Marshallable.html" xlink:type="simple"><rect codeLine="13" fill="#FEFECE" filter="url(#fvbm2icagjqgo)" height="73.9102" id="it.tidalwave.role.io.Marshallable" style="stroke: #A80036; stroke-width: 1.5;" width="225" x="1468.5" y="33"/><ellipse cx="1540.25" cy="49" fill="#B4A7E5" rx="11" ry="11" style="stroke: #A80036; stroke-width: 1.0;"/><path d="M1536.6777,45.2651 L1536.6777,43.1069 L1544.0571,43.1069 L1544.0571,45.2651 L1541.5918,45.2651 L1541.5918,53.3418 L1544.0571,53.3418 L1544.0571,55.5 L1536.6777,55.5 L1536.6777,53.3418 L1539.1431,53.3418 L1539.1431,45.2651 Z "/><text fill="#000000" font-family="sans-serif" font-size="12" font-style="italic" lengthAdjust="spacingAndGlyphs" textLength="73" x="1560.75" y="53.5352">Marshallable</text><line style="stroke: #A80036; stroke-width: 1.5;" x1="1469.5" x2="1692.5" y1="65" y2="65"/><ellipse cx="1479.5" cy="76" fill="none" rx="3" ry="3" style="stroke: #038048; stroke-width: 1.0;"/><text fill="#000000" font-family="sans-serif" font-size="11" lengthAdjust="spacingAndGlyphs" text-decoration="underline" textLength="199" x="1488.5" y="79.6348">_Marshallable_: Class&lt;Marshallable&gt;</text><line style="stroke: #A80036; stroke-width: 1.5;" x1="1469.5" x2="1692.5" y1="85.9551" y2="85.9551"/><ellipse cx="1479.5" cy="96.9551" fill="#84BE84" rx="3" ry="3" style="stroke: #038048; stroke-width: 1.0;"/><text fill="#000000" font-family="sans-serif" font-size="11" font-style="italic" lengthAdjust="spacingAndGlyphs" textLength="155" x="1488.5" y="100.5898">marshal(OutputStream): void</text></a><!--MD5=[b3950ca7eb4308f1b70587082a242658]
class it.tidalwave.role.io.Unmarshallable--><a href="Unmarshallable.html" target="_top" title="Unmarshallable.html" xlink:actuate="onRequest" xlink:href="Unmarshallable.html" xlink:show="new" xlink:title="Unmarshallable.html" xlink:type="simple"><rect codeLine="18" fill="#FEFECE" filter="url(#fvbm2icagjqgo)" height="73.9102" id="it.tidalwave.role.io.Unmarshallable" style="stroke: #A80036; stroke-width: 1.5;" width="257" x="1728.5" y="33"/><ellipse cx="1808.25" cy="49" fill="#B4A7E5" rx="11" ry="11" style="stroke: #A80036; stroke-width: 1.0;"/><path d="M1804.6777,45.2651 L1804.6777,43.1069 L1812.0571,43.1069 L1812.0571,45.2651 L1809.5918,45.2651 L1809.5918,53.3418 L1812.0571,53.3418 L1812.0571,55.5 L1804.6777,55.5 L1804.6777,53.3418 L1807.1431,53.3418 L1807.1431,45.2651 Z "/><text fill="#000000" font-family="sans-serif" font-size="12" font-style="italic" lengthAdjust="spacingAndGlyphs" textLength="89" x="1828.75" y="53.5352">Unmarshallable</text><line style="stroke: #A80036; stroke-width: 1.5;" x1="1729.5" x2="1984.5" y1="65" y2="65"/><ellipse cx="1739.5" cy="76" fill="none" rx="3" ry="3" style="stroke: #038048; stroke-width: 1.0;"/><text fill="#000000" font-family="sans-serif" font-size="11" lengthAdjust="spacingAndGlyphs" text-decoration="underline" textLength="231" x="1748.5" y="79.6348">_Unmarshallable_: Class&lt;Unmarshallable&gt;</text><line style="stroke: #A80036; stroke-width: 1.5;" x1="1729.5" x2="1984.5" y1="85.9551" y2="85.9551"/><ellipse cx="1739.5" cy="96.9551" fill="#84BE84" rx="3" ry="3" style="stroke: #038048; stroke-width: 1.0;"/><text fill="#000000" font-family="sans-serif" font-size="11" font-style="italic" lengthAdjust="spacingAndGlyphs" textLength="143" x="1748.5" y="100.5898">unmarshal(InputStream): T</text></a><!--MD5=[675092851b022aecb08720cc4f18e782]
class it.tidalwave.role.io.Persistable--><a href="Persistable.html" target="_top" title="Persistable.html" xlink:actuate="onRequest" xlink:href="Persistable.html" xlink:show="new" xlink:title="Persistable.html" xlink:type="simple"><rect codeLine="23" fill="#FEFECE" filter="url(#fvbm2icagjqgo)" height="73.9102" id="it.tidalwave.role.io.Persistable" style="stroke: #A80036; stroke-width: 1.5;" width="207" x="1477.5" y="230"/><ellipse cx="1545.25" cy="246" fill="#B4A7E5" rx="11" ry="11" style="stroke: #A80036; stroke-width: 1.0;"/><path d="M1541.6777,242.2651 L1541.6777,240.1069 L1549.0571,240.1069 L1549.0571,242.2651 L1546.5918,242.2651 L1546.5918,250.3418 L1549.0571,250.3418 L1549.0571,252.5 L1541.6777,252.5 L1541.6777,250.3418 L1544.1431,250.3418 L1544.1431,242.2651 Z "/><text fill="#000000" font-family="sans-serif" font-size="12" font-style="italic" lengthAdjust="spacingAndGlyphs" textLength="63" x="1565.75" y="250.5352">Persistable</text><line style="stroke: #A80036; stroke-width: 1.5;" x1="1478.5" x2="1683.5" y1="262" y2="262"/><ellipse cx="1488.5" cy="273" fill="none" rx="3" ry="3" style="stroke: #038048; stroke-width: 1.0;"/><text fill="#000000" font-family="sans-serif" font-size="11" lengthAdjust="spacingAndGlyphs" text-decoration="underline" textLength="181" x="1497.5" y="276.6348">_Persistable_: Class&lt;Persistable&gt;</text><line style="stroke: #A80036; stroke-width: 1.5;" x1="1478.5" x2="1683.5" y1="282.9551" y2="282.9551"/><ellipse cx="1488.5" cy="293.9551" fill="#84BE84" rx="3" ry="3" style="stroke: #038048; stroke-width: 1.0;"/><text fill="#000000" font-family="sans-serif" font-size="11" font-style="italic" lengthAdjust="spacingAndGlyphs" textLength="74" x="1497.5" y="297.5898">persist(): void</text></a><!--MD5=[01447793620d16fc257dd6b841f56ccc]
class it.tidalwave.role.io.BinaryReadable--><a href="BinaryReadable.html" target="_top" title="BinaryReadable.html" xlink:actuate="onRequest" xlink:href="BinaryReadable.html" xlink:show="new" xlink:title="BinaryReadable.html" xlink:type="simple"><rect codeLine="28" fill="#FEFECE" filter="url(#fvbm2icagjqgo)" height="73.9102" id="it.tidalwave.role.io.BinaryReadable" style="stroke: #A80036; stroke-width: 1.5;" width="253" x="371.5" y="33"/><ellipse cx="448.75" cy="49" fill="#B4A7E5" rx="11" ry="11" style="stroke: #A80036; stroke-width: 1.0;"/><path d="M445.1777,45.2651 L445.1777,43.1069 L452.5571,43.1069 L452.5571,45.2651 L450.0918,45.2651 L450.0918,53.3418 L452.5571,53.3418 L452.5571,55.5 L445.1777,55.5 L445.1777,53.3418 L447.6431,53.3418 L447.6431,45.2651 Z "/><text fill="#000000" font-family="sans-serif" font-size="12" font-style="italic" lengthAdjust="spacingAndGlyphs" textLength="90" x="469.25" y="53.5352">BinaryReadable</text><line style="stroke: #A80036; stroke-width: 1.5;" x1="372.5" x2="623.5" y1="65" y2="65"/><ellipse cx="382.5" cy="76" fill="none" rx="3" ry="3" style="stroke: #038048; stroke-width: 1.0;"/><text fill="#000000" font-family="sans-serif" font-size="11" lengthAdjust="spacingAndGlyphs" text-decoration="underline" textLength="227" x="391.5" y="79.6348">_BinaryReadable_: Class&lt;BinaryReadable&gt;</text><line style="stroke: #A80036; stroke-width: 1.5;" x1="372.5" x2="623.5" y1="85.9551" y2="85.9551"/><ellipse cx="382.5" cy="96.9551" fill="#84BE84" rx="3" ry="3" style="stroke: #038048; stroke-width: 1.0;"/><text fill="#000000" font-family="sans-serif" font-size="11" font-style="italic" lengthAdjust="spacingAndGlyphs" textLength="143" x="391.5" y="100.5898">openStream(): InputStream</text></a><!--MD5=[655d2c25539f643bdbdf98b39fed2e00]
class it.tidalwave.role.io.TextWritable--><a href="TextWritable.html" target="_top" title="TextWritable.html" xlink:actuate="onRequest" xlink:href="TextWritable.html" xlink:show="new" xlink:title="TextWritable.html" xlink:type="simple"><rect codeLine="33" fill="#FEFECE" filter="url(#fvbm2icagjqgo)" height="73.9102" id="it.tidalwave.role.io.TextWritable" style="stroke: #A80036; stroke-width: 1.5;" width="225" x="24.5" y="33"/><ellipse cx="96.25" cy="49" fill="#B4A7E5" rx="11" ry="11" style="stroke: #A80036; stroke-width: 1.0;"/><path d="M92.6777,45.2651 L92.6777,43.1069 L100.0571,43.1069 L100.0571,45.2651 L97.5918,45.2651 L97.5918,53.3418 L100.0571,53.3418 L100.0571,55.5 L92.6777,55.5 L92.6777,53.3418 L95.1431,53.3418 L95.1431,45.2651 Z "/><text fill="#000000" font-family="sans-serif" font-size="12" font-style="italic" lengthAdjust="spacingAndGlyphs" textLength="73" x="116.75" y="53.5352">TextWritable</text><line style="stroke: #A80036; stroke-width: 1.5;" x1="25.5" x2="248.5" y1="65" y2="65"/><ellipse cx="35.5" cy="76" fill="none" rx="3" ry="3" style="stroke: #038048; stroke-width: 1.0;"/><text fill="#000000" font-family="sans-serif" font-size="11" lengthAdjust="spacingAndGlyphs" text-decoration="underline" textLength="199" x="44.5" y="79.6348">_TextWritable_: Class&lt;TextWritable&gt;</text><line style="stroke: #A80036; stroke-width: 1.5;" x1="25.5" x2="248.5" y1="85.9551" y2="85.9551"/><ellipse cx="35.5" cy="96.9551" fill="#84BE84" rx="3" ry="3" style="stroke: #038048; stroke-width: 1.0;"/><text fill="#000000" font-family="sans-serif" font-size="11" font-style="italic" lengthAdjust="spacingAndGlyphs" textLength="105" x="44.5" y="100.5898">openWriter(): Writer</text></a><!--MD5=[2d300ae13929ae5f76951ff12c0a2f25]
link it.tidalwave.role.io.BinaryWritable to it.tidalwave.role.io.BinaryWritable--><path codeLine="38" d="M1346.7212,58.4726 C1367.283,60.0667 1381.5,63.9092 1381.5,70 C1381.5,75.5674 1369.6216,79.2562 1351.8767,81.0666 " fill="none" id="it.tidalwave.role.io.BinaryWritable-to-it.tidalwave.role.io.BinaryWritable" style="stroke: #A80036; stroke-width: 1.0;"/><polygon fill="#A80036" points="1346.7212,81.5274,1356.0417,84.71,1351.7013,81.0821,1355.3292,76.7418,1346.7212,81.5274" style="stroke: #A80036; stroke-width: 1.0;"/><text fill="#000000" font-family="sans-serif" font-size="13" lengthAdjust="spacingAndGlyphs" textLength="57" x="1387.5" y="75.0684">DEFAULT</text><!--MD5=[bbb0169f7ffd5a3f600a2b309da9683f]
link it.tidalwave.role.io.TextReadable to it.tidalwave.role.io.TextReadable--><path codeLine="39" d="M981.6514,58.3984 C1002.2031,59.9453 1016.5,63.8125 1016.5,70 C1016.5,75.6558 1004.5548,79.3729 986.8062,81.1514 " fill="none" id="it.tidalwave.role.io.TextReadable-to-it.tidalwave.role.io.TextReadable" style="stroke: #A80036; stroke-width: 1.0;"/><polygon fill="#A80036" points="981.6514,81.6016,990.9654,84.8032,986.6324,81.1665,990.2691,76.8335,981.6514,81.6016" style="stroke: #A80036; stroke-width: 1.0;"/><text fill="#000000" font-family="sans-serif" font-size="13" lengthAdjust="spacingAndGlyphs" textLength="57" x="1022.5" y="75.0684">DEFAULT</text><!--MD5=[a47d4af528cc2227b4a1b0276720ecfe]
link it.tidalwave.role.io.BinaryReadable to it.tidalwave.role.io.BinaryReadable--><path codeLine="40" d="M624.6155,58.5503 C645.2909,60.1893 659.5,64.0059 659.5,70 C659.5,75.479 647.6281,79.1387 629.7977,80.9789 " fill="none" id="it.tidalwave.role.io.BinaryReadable-to-it.tidalwave.role.io.BinaryReadable" style="stroke: #A80036; stroke-width: 1.0;"/><polygon fill="#A80036" points="624.6155,81.4497,633.9406,84.6187,629.595,80.9971,633.2165,76.6515,624.6155,81.4497" style="stroke: #A80036; stroke-width: 1.0;"/><text fill="#000000" font-family="sans-serif" font-size="13" lengthAdjust="spacingAndGlyphs" textLength="57" x="665.5" y="75.0684">DEFAULT</text><!--MD5=[108bec1e9483782d13ef5ffdb69ec5fe]
link it.tidalwave.role.io.TextWritable to it.tidalwave.role.io.TextWritable--><path codeLine="41" d="M249.5438,58.3048 C270.0897,59.7852 284.5,63.6836 284.5,70 C284.5,75.7736 272.46,79.5269 254.6996,81.26 " fill="none" id="it.tidalwave.role.io.TextWritable-to-it.tidalwave.role.io.TextWritable" style="stroke: #A80036; stroke-width: 1.0;"/><polygon fill="#A80036" points="249.5438,81.6952,258.8485,84.9237,254.5261,81.2745,258.1753,76.9521,249.5438,81.6952" style="stroke: #A80036; stroke-width: 1.0;"/><text fill="#000000" font-family="sans-serif" font-size="13" lengthAdjust="spacingAndGlyphs" textLength="57" x="290.5" y="75.0684">DEFAULT</text><!--MD5=[b58b2e1a7ab05041955f27a27f6e3d94]
link it.tidalwave.role.io.Marshallable to it.tidalwave.role.io.Unmarshallable--><!--MD5=[bfa6b25d4991fac9af68d9de18eb99e5]
link it.tidalwave.role.io.Marshallable to it.tidalwave.role.io.Persistable--><text fill="#888888" font-family="sans-serif" font-size="10" lengthAdjust="spacingAndGlyphs" textLength="188" x="905" y="327.668">UMLDoclet 2.0.12, PlantUML 1.2020.16</text><!--MD5=[3e90523b0d8d520e65f71c227f03cb52]
@startuml
    namespace it.tidalwave.role.io {

        interface BinaryWritable [[BinaryWritable.html]] {
            {static} +_BinaryWritable_: Class<BinaryWritable>
            {abstract} +openStream(): OutputStream
        }

        interface TextReadable [[TextReadable.html]] {
            {static} +_TextReadable_: Class<TextReadable>
            {abstract} +openReader(): Reader
        }

        interface Marshallable [[Marshallable.html]] {
            {static} +_Marshallable_: Class<Marshallable>
            {abstract} +marshal(OutputStream): void
        }

        interface Unmarshallable [[Unmarshallable.html]] {
            {static} +_Unmarshallable_: Class<Unmarshallable>
            {abstract} +unmarshal(InputStream): T
        }

        interface Persistable [[Persistable.html]] {
            {static} +_Persistable_: Class<Persistable>
            {abstract} +persist(): void
        }

        interface BinaryReadable [[BinaryReadable.html]] {
            {static} +_BinaryReadable_: Class<BinaryReadable>
            {abstract} +openStream(): InputStream
        }

        interface TextWritable [[TextWritable.html]] {
            {static} +_TextWritable_: Class<TextWritable>
            {abstract} +openWriter(): Writer
        }

        BinaryWritable - -> BinaryWritable: DEFAULT
        TextReadable - -> TextReadable: DEFAULT
        BinaryReadable - -> BinaryReadable: DEFAULT
        TextWritable - -> TextWritable: DEFAULT
    }

    center footer UMLDoclet 2.0.12, PlantUML 1.2020.16
@enduml

PlantUML version 1.2020.16(Sun Aug 23 22:20:43 CEST 2020)
(APACHE source distribution)
Java Runtime: OpenJDK Runtime Environment
JVM: OpenJDK 64-Bit Server VM
Default Encoding: UTF-8
Language: en
Country: GB
--></g></svg>