<?xml version="1.0" encoding="UTF-8" standalone="no"?><svg xmlns="http://www.w3.org/2000/svg" xmlns:xlink="http://www.w3.org/1999/xlink" contentScriptType="application/ecmascript" contentStyleType="text/css" height="226px" preserveAspectRatio="none" style="width:277px;height:226px;" version="1.1" viewBox="0 0 277 226" width="277px" zoomAndPan="magnify"><defs><filter height="300%" id="fat4fos3j6fk9" width="300%" x="-1" y="-1"><feGaussianBlur result="blurOut" stdDeviation="2.0"/><feColorMatrix in="blurOut" result="blurOut2" type="matrix" values="0 0 0 0 0 0 0 0 0 0 0 0 0 0 0 0 0 0 .4 0"/><feOffset dx="4.0" dy="4.0" in="blurOut2" result="blurOut3"/><feBlend in="SourceGraphic" in2="blurOut3" mode="normal"/></filter></defs><g><!--MD5=[63dee567d33f21312378f737a03d69d8]
cluster it.tidalwave.actor.annotation--><polygon fill="#FFFFFF" filter="url(#fat4fos3j6fk9)" points="16,6,225,6,232,28.4883,255,28.4883,255,197,16,197,16,6" style="stroke: #000000; stroke-width: 1.5;"/><line style="stroke: #000000; stroke-width: 1.5;" x1="16" x2="232" y1="28.4883" y2="28.4883"/><text fill="#000000" font-family="sans-serif" font-size="14" font-weight="bold" lengthAdjust="spacingAndGlyphs" textLength="203" x="20" y="21.5352">it.tidalwave.actor.annotation</text><!--MD5=[0740f0a174486809dbc2a1de53de2479]
class it.tidalwave.actor.annotation.OriginatedBy--><a href="OriginatedBy.html" target="_top" title="OriginatedBy.html" xlink:actuate="onRequest" xlink:href="OriginatedBy.html" xlink:show="new" xlink:title="OriginatedBy.html" xlink:type="simple"><rect codeLine="3" fill="#FEFECE" filter="url(#fat4fos3j6fk9)" height="48" id="it.tidalwave.actor.annotation.OriginatedBy" style="stroke: #A80036; stroke-width: 1.5;" width="105" x="24.5" y="33"/><ellipse cx="39.5" cy="49" fill="#E3664A" rx="11" ry="11" style="stroke: #A80036; stroke-width: 1.0;"/><path d="M42.0767,49.2261 Q42.0767,48.2881 41.6533,47.7568 Q41.23,47.2256 40.4912,47.2256 Q39.7524,47.2256 39.3333,47.7568 Q38.9141,48.2881 38.9141,49.2261 Q38.9141,50.1724 39.3333,50.7036 Q39.7524,51.2349 40.4912,51.2349 Q41.23,51.2349 41.6533,50.7036 Q42.0767,50.1724 42.0767,49.2261 Z M43.6206,52.6294 L41.9937,52.6294 L41.9937,51.9487 Q41.6782,52.3887 41.2507,52.592 Q40.8232,52.7954 40.2256,52.7954 Q38.8643,52.7954 38.03,51.8159 Q37.1958,50.8364 37.1958,49.2261 Q37.1958,47.624 38.0259,46.6487 Q38.856,45.6733 40.2256,45.6733 Q40.8149,45.6733 41.2632,45.8767 Q41.7114,46.0801 41.9937,46.4702 L41.9937,46.1299 Q41.9937,45.001 41.3752,44.3867 Q40.7568,43.7725 39.6113,43.7725 Q37.8848,43.7725 36.7932,45.2915 Q35.7017,46.8105 35.7017,49.2427 Q35.7017,51.791 36.9634,53.2976 Q38.2251,54.8042 40.3252,54.8042 Q40.9893,54.8042 41.6118,54.6091 Q42.2344,54.4141 42.8071,54.0239 L43.5708,55.4849 Q42.8984,55.9414 42.1057,56.1697 Q41.313,56.3979 40.4082,56.3979 Q37.5029,56.3979 35.7764,54.4639 Q34.0498,52.5298 34.0498,49.2427 Q34.0498,46.0303 35.6021,44.1003 Q37.1543,42.1704 39.7109,42.1704 Q41.5205,42.1704 42.5706,43.262 Q43.6206,44.3535 43.6206,46.2378 Z "/><text fill="#000000" font-family="sans-serif" font-size="12" lengthAdjust="spacingAndGlyphs" textLength="73" x="53.5" y="53.5352">OriginatedBy</text><line style="stroke: #A80036; stroke-width: 1.5;" x1="25.5" x2="128.5" y1="65" y2="65"/><line style="stroke: #A80036; stroke-width: 1.5;" x1="25.5" x2="128.5" y1="73" y2="73"/></a><!--MD5=[3c9ae24289eeb2d06d7ad55392517699]
class it.tidalwave.actor.annotation.Message--><a href="Message.html" target="_top" title="Message.html" xlink:actuate="onRequest" xlink:href="Message.html" xlink:show="new" xlink:title="Message.html" xlink:type="simple"><rect codeLine="5" fill="#FEFECE" filter="url(#fat4fos3j6fk9)" height="48" id="it.tidalwave.actor.annotation.Message" style="stroke: #A80036; stroke-width: 1.5;" width="82" x="165" y="33"/><ellipse cx="180" cy="49" fill="#E3664A" rx="11" ry="11" style="stroke: #A80036; stroke-width: 1.0;"/><path d="M182.5767,49.2261 Q182.5767,48.2881 182.1533,47.7568 Q181.73,47.2256 180.9912,47.2256 Q180.2524,47.2256 179.8333,47.7568 Q179.4141,48.2881 179.4141,49.2261 Q179.4141,50.1724 179.8333,50.7036 Q180.2524,51.2349 180.9912,51.2349 Q181.73,51.2349 182.1533,50.7036 Q182.5767,50.1724 182.5767,49.2261 Z M184.1206,52.6294 L182.4937,52.6294 L182.4937,51.9487 Q182.1782,52.3887 181.7507,52.592 Q181.3232,52.7954 180.7256,52.7954 Q179.3643,52.7954 178.53,51.8159 Q177.6958,50.8364 177.6958,49.2261 Q177.6958,47.624 178.5259,46.6487 Q179.356,45.6733 180.7256,45.6733 Q181.3149,45.6733 181.7632,45.8767 Q182.2114,46.0801 182.4937,46.4702 L182.4937,46.1299 Q182.4937,45.001 181.8752,44.3867 Q181.2568,43.7725 180.1113,43.7725 Q178.3848,43.7725 177.2932,45.2915 Q176.2017,46.8105 176.2017,49.2427 Q176.2017,51.791 177.4634,53.2976 Q178.7251,54.8042 180.8252,54.8042 Q181.4893,54.8042 182.1118,54.6091 Q182.7344,54.4141 183.3071,54.0239 L184.0708,55.4849 Q183.3984,55.9414 182.6057,56.1697 Q181.813,56.3979 180.9082,56.3979 Q178.0029,56.3979 176.2764,54.4639 Q174.5498,52.5298 174.5498,49.2427 Q174.5498,46.0303 176.1021,44.1003 Q177.6543,42.1704 180.2109,42.1704 Q182.0205,42.1704 183.0706,43.262 Q184.1206,44.3535 184.1206,46.2378 Z "/><text fill="#000000" font-family="sans-serif" font-size="12" lengthAdjust="spacingAndGlyphs" textLength="50" x="194" y="53.5352">Message</text><line style="stroke: #A80036; stroke-width: 1.5;" x1="166" x2="246" y1="65" y2="65"/><line style="stroke: #A80036; stroke-width: 1.5;" x1="166" x2="246" y1="73" y2="73"/></a><!--MD5=[4f9f8e827a92b0eb75191523c751e99d]
class it.tidalwave.actor.annotation.Actor--><a href="Actor.html" target="_top" title="Actor.html" xlink:actuate="onRequest" xlink:href="Actor.html" xlink:show="new" xlink:title="Actor.html" xlink:type="simple"><rect codeLine="7" fill="#FEFECE" filter="url(#fat4fos3j6fk9)" height="48" id="it.tidalwave.actor.annotation.Actor" style="stroke: #A80036; stroke-width: 1.5;" width="62" x="46" y="141"/><ellipse cx="61" cy="157" fill="#E3664A" rx="11" ry="11" style="stroke: #A80036; stroke-width: 1.0;"/><path d="M63.5767,157.2261 Q63.5767,156.2881 63.1533,155.7568 Q62.73,155.2256 61.9912,155.2256 Q61.2524,155.2256 60.8333,155.7568 Q60.4141,156.2881 60.4141,157.2261 Q60.4141,158.1724 60.8333,158.7036 Q61.2524,159.2349 61.9912,159.2349 Q62.73,159.2349 63.1533,158.7036 Q63.5767,158.1724 63.5767,157.2261 Z M65.1206,160.6294 L63.4937,160.6294 L63.4937,159.9487 Q63.1782,160.3887 62.7507,160.592 Q62.3232,160.7954 61.7256,160.7954 Q60.3643,160.7954 59.53,159.8159 Q58.6958,158.8364 58.6958,157.2261 Q58.6958,155.624 59.5259,154.6487 Q60.356,153.6733 61.7256,153.6733 Q62.3149,153.6733 62.7632,153.8767 Q63.2114,154.0801 63.4937,154.4702 L63.4937,154.1299 Q63.4937,153.001 62.8752,152.3867 Q62.2568,151.7725 61.1113,151.7725 Q59.3848,151.7725 58.2932,153.2915 Q57.2017,154.8105 57.2017,157.2427 Q57.2017,159.791 58.4634,161.2976 Q59.7251,162.8042 61.8252,162.8042 Q62.4893,162.8042 63.1118,162.6091 Q63.7344,162.4141 64.3071,162.0239 L65.0708,163.4849 Q64.3984,163.9414 63.6057,164.1697 Q62.813,164.3979 61.9082,164.3979 Q59.0029,164.3979 57.2764,162.4639 Q55.5498,160.5298 55.5498,157.2427 Q55.5498,154.0303 57.1021,152.1003 Q58.6543,150.1704 61.2109,150.1704 Q63.0205,150.1704 64.0706,151.262 Q65.1206,152.3535 65.1206,154.2378 Z "/><text fill="#000000" font-family="sans-serif" font-size="12" lengthAdjust="spacingAndGlyphs" textLength="30" x="75" y="161.5352">Actor</text><line style="stroke: #A80036; stroke-width: 1.5;" x1="47" x2="107" y1="173" y2="173"/><line style="stroke: #A80036; stroke-width: 1.5;" x1="47" x2="107" y1="181" y2="181"/></a><!--MD5=[9759f8fbae96968248a27e7127b7ca6d]
link it.tidalwave.actor.annotation.OriginatedBy to it.tidalwave.actor.annotation.Message--><!--MD5=[dfbf7568b31b206165d3035b46ee77ef]
link it.tidalwave.actor.annotation.OriginatedBy to it.tidalwave.actor.annotation.Actor--><text fill="#888888" font-family="sans-serif" font-size="10" lengthAdjust="spacingAndGlyphs" textLength="188" x="35.5" y="212.668">UMLDoclet 2.0.12, PlantUML 1.2020.16</text><!--MD5=[b67040fb47b4e0d525367a8fb9b59a8a]
@startuml
    namespace it.tidalwave.actor.annotation {

        annotation OriginatedBy [[OriginatedBy.html]]

        annotation Message [[Message.html]]

        annotation Actor [[Actor.html]]

    }

    center footer UMLDoclet 2.0.12, PlantUML 1.2020.16
@enduml

PlantUML version 1.2020.16(Sun Aug 23 22:20:43 CEST 2020)
(APACHE source distribution)
Java Runtime: OpenJDK Runtime Environment
JVM: OpenJDK 64-Bit Server VM
Default Encoding: UTF-8
Language: en
Country: GB
--></g></svg>