<?xml version="1.0" encoding="UTF-8" standalone="no"?><svg xmlns="http://www.w3.org/2000/svg" xmlns:xlink="http://www.w3.org/1999/xlink" contentScriptType="application/ecmascript" contentStyleType="text/css" height="278px" preserveAspectRatio="none" style="width:708px;height:278px;" version="1.1" viewBox="0 0 708 278" width="708px" zoomAndPan="magnify"><defs><filter height="300%" id="fqphm0czub27x" width="300%" x="-1" y="-1"><feGaussianBlur result="blurOut" stdDeviation="2.0"/><feColorMatrix in="blurOut" result="blurOut2" type="matrix" values="0 0 0 0 0 0 0 0 0 0 0 0 0 0 0 0 0 0 .4 0"/><feOffset dx="4.0" dy="4.0" in="blurOut2" result="blurOut3"/><feBlend in="SourceGraphic" in2="blurOut3" mode="normal"/></filter></defs><g><!--MD5=[fafe2dc1361a2ed7216ed55286aefdcd]
cluster it.tidalwave.thesefoolishthings.examples.inmemoryfinderexample--><polygon fill="#FFFFFF" filter="url(#fqphm0czub27x)" points="16,140,494,140,501,162.4883,606,162.4883,606,249,16,249,16,140" style="stroke: #000000; stroke-width: 1.5;"/><line style="stroke: #000000; stroke-width: 1.5;" x1="16" x2="501" y1="162.4883" y2="162.4883"/><text fill="#000000" font-family="sans-serif" font-size="14" font-weight="bold" lengthAdjust="spacingAndGlyphs" textLength="472" x="20" y="155.5352">it.tidalwave.thesefoolishthings.examples.inmemoryfinderexample</text><!--MD5=[1547051af1b51f5c31de2792b793acb7]
cluster it.tidalwave.thesefoolishthings.examples.person--><polygon fill="#FFFFFF" filter="url(#fqphm0czub27x)" points="325,6,676,6,683,28.4883,686,28.4883,686,115,325,115,325,6" style="stroke: #000000; stroke-width: 1.5;"/><line style="stroke: #000000; stroke-width: 1.5;" x1="325" x2="683" y1="28.4883" y2="28.4883"/><text fill="#000000" font-family="sans-serif" font-size="14" font-weight="bold" lengthAdjust="spacingAndGlyphs" textLength="345" x="329" y="21.5352">it.tidalwave.thesefoolishthings.examples.person</text><!--MD5=[58e2ac101cc42aab4c433468dd02c38c]
class it.tidalwave.thesefoolishthings.examples.inmemoryfinderexample.InMemoryPersonRegistry--><a href="InMemoryPersonRegistry.html" target="_top" title="InMemoryPersonRegistry.html" xlink:actuate="onRequest" xlink:href="InMemoryPersonRegistry.html" xlink:show="new" xlink:title="InMemoryPersonRegistry.html" xlink:type="simple"><rect codeLine="3" fill="#FEFECE" filter="url(#fqphm0czub27x)" height="73.9102" id="it.tidalwave.thesefoolishthings.examples.inmemoryfinderexample.InMemoryPersonRegistry" style="stroke: #A80036; stroke-width: 1.5;" width="187" x="411.5" y="167"/><ellipse cx="432.8" cy="183" fill="#ADD1B2" rx="11" ry="11" style="stroke: #A80036; stroke-width: 1.0;"/><path d="M435.2731,189.1431 Q434.6921,189.4419 434.0529,189.5913 Q433.4138,189.7407 432.7082,189.7407 Q430.2014,189.7407 428.8815,188.0889 Q427.5617,186.437 427.5617,183.3159 Q427.5617,180.1865 428.8815,178.5347 Q430.2014,176.8828 432.7082,176.8828 Q433.4138,176.8828 434.0612,177.0322 Q434.7087,177.1816 435.2731,177.4805 L435.2731,180.2031 Q434.6423,179.6221 434.0488,179.3523 Q433.4553,179.0825 432.8244,179.0825 Q431.4797,179.0825 430.7949,180.1492 Q430.1101,181.2158 430.1101,183.3159 Q430.1101,185.4077 430.7949,186.4744 Q431.4797,187.541 432.8244,187.541 Q433.4553,187.541 434.0488,187.2712 Q434.6423,187.0015 435.2731,186.4204 Z "/><text fill="#000000" font-family="sans-serif" font-size="12" lengthAdjust="spacingAndGlyphs" textLength="141" x="448.2" y="187.5352">InMemoryPersonRegistry</text><line style="stroke: #A80036; stroke-width: 1.5;" x1="412.5" x2="597.5" y1="199" y2="199"/><line style="stroke: #A80036; stroke-width: 1.5;" x1="412.5" x2="597.5" y1="207" y2="207"/><ellipse cx="422.5" cy="218" fill="#84BE84" rx="3" ry="3" style="stroke: #038048; stroke-width: 1.0;"/><text fill="#000000" font-family="sans-serif" font-size="11" lengthAdjust="spacingAndGlyphs" textLength="94" x="431.5" y="221.6348">add(Person): void</text><ellipse cx="422.5" cy="230.9551" fill="#84BE84" rx="3" ry="3" style="stroke: #038048; stroke-width: 1.0;"/><text fill="#000000" font-family="sans-serif" font-size="11" lengthAdjust="spacingAndGlyphs" textLength="161" x="431.5" y="234.5898">findPerson(): Finder&lt;Person&gt;</text></a><!--MD5=[7d99b434679dfcce19ab511f84294810]
class it.tidalwave.thesefoolishthings.examples.inmemoryfinderexample.PersonSortCriteria--><a href="PersonSortCriteria.html" target="_top" title="PersonSortCriteria.html" xlink:actuate="onRequest" xlink:href="PersonSortCriteria.html" xlink:show="new" xlink:title="PersonSortCriteria.html" xlink:type="simple"><rect codeLine="8" fill="#FEFECE" filter="url(#fqphm0czub27x)" height="73.9102" id="it.tidalwave.thesefoolishthings.examples.inmemoryfinderexample.PersonSortCriteria" style="stroke: #A80036; stroke-width: 1.5;" width="187" x="189.5" y="167"/><ellipse cx="227.9" cy="183" fill="#ADD1B2" rx="11" ry="11" style="stroke: #A80036; stroke-width: 1.0;"/><path d="M230.3731,189.1431 Q229.7921,189.4419 229.1529,189.5913 Q228.5138,189.7407 227.8082,189.7407 Q225.3014,189.7407 223.9815,188.0889 Q222.6617,186.437 222.6617,183.3159 Q222.6617,180.1865 223.9815,178.5347 Q225.3014,176.8828 227.8082,176.8828 Q228.5138,176.8828 229.1612,177.0322 Q229.8087,177.1816 230.3731,177.4805 L230.3731,180.2031 Q229.7423,179.6221 229.1488,179.3523 Q228.5553,179.0825 227.9244,179.0825 Q226.5797,179.0825 225.8949,180.1492 Q225.2101,181.2158 225.2101,183.3159 Q225.2101,185.4077 225.8949,186.4744 Q226.5797,187.541 227.9244,187.541 Q228.5553,187.541 229.1488,187.2712 Q229.7423,187.0015 230.3731,186.4204 Z "/><text fill="#000000" font-family="sans-serif" font-size="12" lengthAdjust="spacingAndGlyphs" textLength="103" x="247.1" y="187.5352">PersonSortCriteria</text><line style="stroke: #A80036; stroke-width: 1.5;" x1="190.5" x2="375.5" y1="199" y2="199"/><ellipse cx="200.5" cy="210" fill="none" rx="3" ry="3" style="stroke: #038048; stroke-width: 1.0;"/><text fill="#000000" font-family="sans-serif" font-size="11" lengthAdjust="spacingAndGlyphs" text-decoration="underline" textLength="161" x="209.5" y="213.6348">BY_FIRST_NAME: SortCriterion</text><ellipse cx="200.5" cy="222.9551" fill="none" rx="3" ry="3" style="stroke: #038048; stroke-width: 1.0;"/><text fill="#000000" font-family="sans-serif" font-size="11" lengthAdjust="spacingAndGlyphs" text-decoration="underline" textLength="159" x="209.5" y="226.5898">BY_LAST_NAME: SortCriterion</text><line style="stroke: #A80036; stroke-width: 1.5;" x1="190.5" x2="375.5" y1="232.9102" y2="232.9102"/></a><!--MD5=[99466c3a73846c52fc7bea1049b32b86]
class it.tidalwave.thesefoolishthings.examples.inmemoryfinderexample.Main--><a href="Main.html" target="_top" title="Main.html" xlink:actuate="onRequest" xlink:href="Main.html" xlink:show="new" xlink:title="Main.html" xlink:type="simple"><rect codeLine="13" fill="#FEFECE" filter="url(#fqphm0czub27x)" height="60.9551" id="it.tidalwave.thesefoolishthings.examples.inmemoryfinderexample.Main" style="stroke: #A80036; stroke-width: 1.5;" width="130" x="24" y="173.5"/><ellipse cx="71.25" cy="189.5" fill="#ADD1B2" rx="11" ry="11" style="stroke: #A80036; stroke-width: 1.0;"/><path d="M73.7231,195.6431 Q73.1421,195.9419 72.5029,196.0913 Q71.8638,196.2407 71.1582,196.2407 Q68.6514,196.2407 67.3315,194.5889 Q66.0117,192.937 66.0117,189.8159 Q66.0117,186.6865 67.3315,185.0347 Q68.6514,183.3828 71.1582,183.3828 Q71.8638,183.3828 72.5112,183.5322 Q73.1587,183.6816 73.7231,183.9805 L73.7231,186.7031 Q73.0923,186.1221 72.4988,185.8523 Q71.9053,185.5825 71.2744,185.5825 Q69.9297,185.5825 69.2449,186.6492 Q68.5601,187.7158 68.5601,189.8159 Q68.5601,191.9077 69.2449,192.9744 Q69.9297,194.041 71.2744,194.041 Q71.9053,194.041 72.4988,193.7712 Q73.0923,193.5015 73.7231,192.9204 Z "/><text fill="#000000" font-family="sans-serif" font-size="12" lengthAdjust="spacingAndGlyphs" textLength="27" x="91.75" y="194.0352">Main</text><line style="stroke: #A80036; stroke-width: 1.5;" x1="25" x2="153" y1="205.5" y2="205.5"/><line style="stroke: #A80036; stroke-width: 1.5;" x1="25" x2="153" y1="213.5" y2="213.5"/><ellipse cx="35" cy="224.5" fill="#84BE84" rx="3" ry="3" style="stroke: #038048; stroke-width: 1.0;"/><text fill="#000000" font-family="sans-serif" font-size="11" lengthAdjust="spacingAndGlyphs" text-decoration="underline" textLength="104" x="44" y="228.1348">main(String...): void</text></a><!--MD5=[a24178fb498e0bff7cc0053c0892f6a5]
class it.tidalwave.thesefoolishthings.examples.person.PersonRegistry--><a href="../person/PersonRegistry.html" target="_top" title="../person/PersonRegistry.html" xlink:actuate="onRequest" xlink:href="../person/PersonRegistry.html" xlink:show="new" xlink:title="../person/PersonRegistry.html" xlink:type="simple"><rect codeLine="21" fill="#FEFECE" filter="url(#fqphm0czub27x)" height="73.9102" id="it.tidalwave.thesefoolishthings.examples.person.PersonRegistry" style="stroke: #A80036; stroke-width: 1.5;" width="187" x="411.5" y="33"/><ellipse cx="458.25" cy="49" fill="#B4A7E5" rx="11" ry="11" style="stroke: #A80036; stroke-width: 1.0;"/><path d="M454.6777,45.2651 L454.6777,43.1069 L462.0571,43.1069 L462.0571,45.2651 L459.5918,45.2651 L459.5918,53.3418 L462.0571,53.3418 L462.0571,55.5 L454.6777,55.5 L454.6777,53.3418 L457.1431,53.3418 L457.1431,45.2651 Z "/><text fill="#000000" font-family="sans-serif" font-size="12" font-style="italic" lengthAdjust="spacingAndGlyphs" textLength="85" x="478.75" y="53.5352">PersonRegistry</text><line style="stroke: #A80036; stroke-width: 1.5;" x1="412.5" x2="597.5" y1="65" y2="65"/><line style="stroke: #A80036; stroke-width: 1.5;" x1="412.5" x2="597.5" y1="73" y2="73"/><ellipse cx="422.5" cy="84" fill="#84BE84" rx="3" ry="3" style="stroke: #038048; stroke-width: 1.0;"/><text fill="#000000" font-family="sans-serif" font-size="11" font-style="italic" lengthAdjust="spacingAndGlyphs" textLength="161" x="431.5" y="87.6348">findPerson(): Finder&lt;Person&gt;</text><ellipse cx="422.5" cy="96.9551" fill="#84BE84" rx="3" ry="3" style="stroke: #038048; stroke-width: 1.0;"/><text fill="#000000" font-family="sans-serif" font-size="11" font-style="italic" lengthAdjust="spacingAndGlyphs" textLength="94" x="431.5" y="100.5898">add(Person): void</text></a><!--MD5=[565a0908c06784933dc86f962a2e0387]
reverse link it.tidalwave.thesefoolishthings.examples.person.PersonRegistry to it.tidalwave.thesefoolishthings.examples.inmemoryfinderexample.InMemoryPersonRegistry--><path codeLine="17" d="M505,127.5351 C505,140.8601 505,154.6949 505,166.8737 " fill="none" id="it.tidalwave.thesefoolishthings.examples.person.PersonRegistry-backto-it.tidalwave.thesefoolishthings.examples.inmemoryfinderexample.InMemoryPersonRegistry" style="stroke: #A80036; stroke-width: 1.0; stroke-dasharray: 7.0,7.0;"/><polygon fill="none" points="498.0001,127.3265,505,107.3265,512.0001,127.3264,498.0001,127.3265" style="stroke: #A80036; stroke-width: 1.0;"/><text fill="#888888" font-family="sans-serif" font-size="10" lengthAdjust="spacingAndGlyphs" textLength="188" x="251" y="264.668">UMLDoclet 2.0.12, PlantUML 1.2020.16</text><!--MD5=[dfaacdcdc37fbb63c4f1c68c5b6f3a30]
@startuml
    namespace it.tidalwave.thesefoolishthings.examples.inmemoryfinderexample {

        class InMemoryPersonRegistry [[InMemoryPersonRegistry.html]] {
            +add(Person): void
            +findPerson(): Finder<Person>
        }

        class PersonSortCriteria [[PersonSortCriteria.html]] {
            {static} +BY_FIRST_NAME: SortCriterion
            {static} +BY_LAST_NAME: SortCriterion
        }

        class Main [[Main.html]] {
            {static} +main(String...): void
        }

        it.tidalwave.thesefoolishthings.examples.person.PersonRegistry <|.. InMemoryPersonRegistry
    }

    namespace it.tidalwave.thesefoolishthings.examples.person {
        interface PersonRegistry [[../person/PersonRegistry.html]] {
            {abstract} +findPerson(): Finder<Person>
            {abstract} +add(Person): void
        }
    }

    center footer UMLDoclet 2.0.12, PlantUML 1.2020.16
@enduml

PlantUML version 1.2020.16(Sun Aug 23 22:20:43 CEST 2020)
(APACHE source distribution)
Java Runtime: OpenJDK Runtime Environment
JVM: OpenJDK 64-Bit Server VM
Default Encoding: UTF-8
Language: en
Country: GB
--></g></svg>