<?xml version="1.0" encoding="UTF-8" standalone="no"?><svg xmlns="http://www.w3.org/2000/svg" xmlns:xlink="http://www.w3.org/1999/xlink" contentScriptType="application/ecmascript" contentStyleType="text/css" height="128px" preserveAspectRatio="none" style="width:229px;height:128px;" version="1.1" viewBox="0 0 229 128" width="229px" zoomAndPan="magnify"><defs><filter height="300%" id="fjdtu5bowfhft" width="300%" x="-1" y="-1"><feGaussianBlur result="blurOut" stdDeviation="2.0"/><feColorMatrix in="blurOut" result="blurOut2" type="matrix" values="0 0 0 0 0 0 0 0 0 0 0 0 0 0 0 0 0 0 .4 0"/><feOffset dx="4.0" dy="4.0" in="blurOut2" result="blurOut3"/><feBlend in="SourceGraphic" in2="blurOut3" mode="normal"/></filter></defs><g><!--MD5=[cbc03458a4d21a17cd2452c346a61bfd]
class it.tidalwave.role.ui.IconProvider--><a href="IconProvider.html" target="_top" title="IconProvider.html" xlink:actuate="onRequest" xlink:href="IconProvider.html" xlink:show="new" xlink:title="IconProvider.html" xlink:type="simple"><rect codeLine="5" fill="#FEFECE" filter="url(#fjdtu5bowfhft)" height="91.5444" id="it.tidalwave.role.ui.IconProvider" style="stroke: #A80036; stroke-width: 1.5;" width="203" x="7" y="7"/><ellipse cx="60.25" cy="25.7988" fill="#B4A7E5" rx="11" ry="11" style="stroke: #A80036; stroke-width: 1.0;"/><path d="M56.5469,20.0957 L64.1563,20.0957 L64.1563,21.9863 L61.5781,21.9863 L61.5781,29.4082 L64.1563,29.4082 L64.1563,31.2988 L56.5469,31.2988 L56.5469,29.4082 L59.1406,29.4082 L59.1406,21.9863 L56.5469,21.9863 L56.5469,20.0957 Z "/><text fill="#000000" font-family="sans-serif" font-size="14" font-style="italic" lengthAdjust="spacingAndGlyphs" textLength="79" x="85.25" y="25.1318">IconProvider</text><text fill="#000000" font-family="sans-serif" font-size="10" font-style="italic" lengthAdjust="spacingAndGlyphs" textLength="88" x="80.75" y="37.4785">it.tidalwave.role.ui</text><line style="stroke: #A80036; stroke-width: 1.5;" x1="8" x2="209" y1="44.5977" y2="44.5977"/><ellipse cx="18" cy="55.5977" fill="none" rx="3" ry="3" style="stroke: #038048; stroke-width: 1.0;"/><text fill="#000000" font-family="sans-serif" font-size="11" lengthAdjust="spacingAndGlyphs" text-decoration="underline" textLength="177" x="27" y="58.9155">_IconProvider_: Class&lt;IconProvider&gt;</text><ellipse cx="18" cy="68.2466" fill="none" rx="3" ry="3" style="stroke: #038048; stroke-width: 1.0;"/><text fill="#000000" font-family="sans-serif" font-size="11" lengthAdjust="spacingAndGlyphs" text-decoration="underline" textLength="112" x="27" y="71.5645">DEFAULT: IconProvider</text><line style="stroke: #A80036; stroke-width: 1.5;" x1="8" x2="209" y1="77.8955" y2="77.8955"/><ellipse cx="18" cy="88.8955" fill="#84BE84" rx="3" ry="3" style="stroke: #038048; stroke-width: 1.0;"/><text fill="#000000" font-family="sans-serif" font-size="11" font-style="italic" lengthAdjust="spacingAndGlyphs" textLength="83" x="27" y="92.2134">getIcon(int): Icon</text></a><text fill="#888888" font-family="sans-serif" font-size="10" lengthAdjust="spacingAndGlyphs" textLength="190" x="13.5" y="114.9243">UMLDoclet 2.0.12, PlantUML 1.2020.16</text><!--MD5=[477bba83717408517703dddbd8ef44bb]
@startuml
    set namespaceSeparator none
    hide empty fields
    hide empty methods

    interface "<size:14>IconProvider\n<size:10>it.tidalwave.role.ui" as it.tidalwave.role.ui.IconProvider [[IconProvider.html]] {
        {static} +_IconProvider_: Class<IconProvider>
        {static} +DEFAULT: IconProvider
        {abstract} +getIcon(int): Icon
    }

    center footer UMLDoclet 2.0.12, PlantUML 1.2020.16
@enduml

PlantUML version 1.2020.16(Sun Aug 23 22:20:43 CEST 2020)
(APACHE source distribution)
Java Runtime: OpenJDK Runtime Environment
JVM: OpenJDK 64-Bit Server VM
Default Encoding: UTF-8
Language: en
Country: US
--></g></svg>