@startuml
    set namespaceSeparator none
    hide empty fields
    hide empty methods

    class "<size:14>JavaFXToolBarModel\n<size:10>it.tidalwave.application.javafx" as it.tidalwave.application.javafx.JavaFXToolBarModel [[JavaFXToolBarModel.html]] {
        +populate(Object, Object): void
    }

    abstract class "<size:14>ToolBarModelSupport\n<size:10>it.tidalwave.application.spi" as it.tidalwave.application.spi.ToolBarModelSupport [[../spi/ToolBarModelSupport.html]]

    it.tidalwave.application.spi.ToolBarModelSupport <|-- it.tidalwave.application.javafx.JavaFXToolBarModel

    center footer UMLDoclet 2.0.12, PlantUML 1.2020.16
@enduml
