@startuml
    set namespaceSeparator none
    hide empty fields
    hide empty methods

    class "<size:14>DefaultUserActionProviderTest\n<size:10>it.tidalwave.role.ui.spi" as it.tidalwave.role.ui.spi.DefaultUserActionProviderTest [[DefaultUserActionProviderTest.html]] {
        +setup(): void
        +must_return_no_actions(): void
        +must_return_no_default_action(): void
    }

    center footer UMLDoclet 2.0.12, PlantUML 1.2020.16
@enduml
