<?xml version="1.0" encoding="UTF-8" standalone="no"?><svg xmlns="http://www.w3.org/2000/svg" xmlns:xlink="http://www.w3.org/1999/xlink" contentScriptType="application/ecmascript" contentStyleType="text/css" height="278px" preserveAspectRatio="none" style="width:1102px;height:278px;" version="1.1" viewBox="0 0 1102 278" width="1102px" zoomAndPan="magnify"><defs><filter height="300%" id="fmdln155wamu6" width="300%" x="-1" y="-1"><feGaussianBlur result="blurOut" stdDeviation="2.0"/><feColorMatrix in="blurOut" result="blurOut2" type="matrix" values="0 0 0 0 0 0 0 0 0 0 0 0 0 0 0 0 0 0 .4 0"/><feOffset dx="4.0" dy="4.0" in="blurOut2" result="blurOut3"/><feBlend in="SourceGraphic" in2="blurOut3" mode="normal"/></filter></defs><g><!--MD5=[9f1ac7c19fca800a862e8ac92d339612]
cluster it.tidalwave.thesefoolishthings.examples.dci.swing.swing--><polygon fill="#FFFFFF" filter="url(#fmdln155wamu6)" points="16,140,431,140,438,162.4883,1004,162.4883,1004,249,16,249,16,140" style="stroke: #000000; stroke-width: 1.5;"/><line style="stroke: #000000; stroke-width: 1.5;" x1="16" x2="438" y1="162.4883" y2="162.4883"/><text fill="#000000" font-family="sans-serif" font-size="14" font-weight="bold" lengthAdjust="spacingAndGlyphs" textLength="409" x="20" y="155.5352">it.tidalwave.thesefoolishthings.examples.dci.swing.swing</text><!--MD5=[535aab4de90d4dfa371a9b40d5438fc3]
cluster javax.swing--><polygon fill="#FFFFFF" filter="url(#fmdln155wamu6)" points="283,12.5,372,12.5,379,34.9883,568,34.9883,568,108.5,283,108.5,283,12.5" style="stroke: #000000; stroke-width: 1.5;"/><line style="stroke: #000000; stroke-width: 1.5;" x1="283" x2="379" y1="34.9883" y2="34.9883"/><text fill="#000000" font-family="sans-serif" font-size="14" font-weight="bold" lengthAdjust="spacingAndGlyphs" textLength="83" x="287" y="28.0352">javax.swing</text><!--MD5=[ce7d024af64bfdf9656efb36536b836f]
cluster it.tidalwave.thesefoolishthings.examples.dci.swing--><polygon fill="#FFFFFF" filter="url(#fmdln155wamu6)" points="701,6,1070,6,1077,28.4883,1080,28.4883,1080,115,701,115,701,6" style="stroke: #000000; stroke-width: 1.5;"/><line style="stroke: #000000; stroke-width: 1.5;" x1="701" x2="1077" y1="28.4883" y2="28.4883"/><text fill="#000000" font-family="sans-serif" font-size="14" font-weight="bold" lengthAdjust="spacingAndGlyphs" textLength="363" x="705" y="21.5352">it.tidalwave.thesefoolishthings.examples.dci.swing</text><!--MD5=[7790a538407dea21b6c172bce0bab4e2]
class it.tidalwave.thesefoolishthings.examples.dci.swing.swing.SwingPersonPresentation--><a href="SwingPersonPresentation.html" target="_top" title="SwingPersonPresentation.html" xlink:actuate="onRequest" xlink:href="SwingPersonPresentation.html" xlink:show="new" xlink:title="SwingPersonPresentation.html" xlink:type="simple"><rect codeLine="3" fill="#FEFECE" filter="url(#fmdln155wamu6)" height="73.9102" id="it.tidalwave.thesefoolishthings.examples.dci.swing.swing.SwingPersonPresentation" style="stroke: #A80036; stroke-width: 1.5;" width="209" x="786.5" y="167"/><ellipse cx="817.25" cy="183" fill="#ADD1B2" rx="11" ry="11" style="stroke: #A80036; stroke-width: 1.0;"/><path d="M819.7231,189.1431 Q819.1421,189.4419 818.5029,189.5913 Q817.8638,189.7407 817.1582,189.7407 Q814.6514,189.7407 813.3315,188.0889 Q812.0117,186.437 812.0117,183.3159 Q812.0117,180.1865 813.3315,178.5347 Q814.6514,176.8828 817.1582,176.8828 Q817.8638,176.8828 818.5112,177.0322 Q819.1587,177.1816 819.7231,177.4805 L819.7231,180.2031 Q819.0923,179.6221 818.4988,179.3523 Q817.9053,179.0825 817.2744,179.0825 Q815.9297,179.0825 815.2449,180.1492 Q814.5601,181.2158 814.5601,183.3159 Q814.5601,185.4077 815.2449,186.4744 Q815.9297,187.541 817.2744,187.541 Q817.9053,187.541 818.4988,187.2712 Q819.0923,187.0015 819.7231,186.4204 Z "/><text fill="#000000" font-family="sans-serif" font-size="12" lengthAdjust="spacingAndGlyphs" textLength="142" x="834.75" y="187.5352">SwingPersonPresentation</text><line style="stroke: #A80036; stroke-width: 1.5;" x1="787.5" x2="994.5" y1="199" y2="199"/><line style="stroke: #A80036; stroke-width: 1.5;" x1="787.5" x2="994.5" y1="207" y2="207"/><ellipse cx="797.5" cy="218" fill="#84BE84" rx="3" ry="3" style="stroke: #038048; stroke-width: 1.0;"/><text fill="#000000" font-family="sans-serif" font-size="11" lengthAdjust="spacingAndGlyphs" textLength="183" x="806.5" y="221.6348">bind(Action, PersonRegistry): void</text><ellipse cx="797.5" cy="230.9551" fill="#84BE84" rx="3" ry="3" style="stroke: #038048; stroke-width: 1.0;"/><text fill="#000000" font-family="sans-serif" font-size="11" lengthAdjust="spacingAndGlyphs" textLength="79" x="806.5" y="234.5898">dispose(): void</text></a><!--MD5=[cf0d917e93f9743e1a7203f21b42de8c]
class it.tidalwave.thesefoolishthings.examples.dci.swing.swing.Bindings--><a href="Bindings.html" target="_top" title="Bindings.html" xlink:actuate="onRequest" xlink:href="Bindings.html" xlink:show="new" xlink:title="Bindings.html" xlink:type="simple"><rect codeLine="8" fill="#FEFECE" filter="url(#fmdln155wamu6)" height="73.9102" id="it.tidalwave.thesefoolishthings.examples.dci.swing.swing.Bindings" style="stroke: #A80036; stroke-width: 1.5;" width="240" x="511" y="167"/><ellipse cx="602.75" cy="183" fill="#ADD1B2" rx="11" ry="11" style="stroke: #A80036; stroke-width: 1.0;"/><path d="M605.2231,189.1431 Q604.6421,189.4419 604.0029,189.5913 Q603.3638,189.7407 602.6582,189.7407 Q600.1514,189.7407 598.8315,188.0889 Q597.5117,186.437 597.5117,183.3159 Q597.5117,180.1865 598.8315,178.5347 Q600.1514,176.8828 602.6582,176.8828 Q603.3638,176.8828 604.0112,177.0322 Q604.6587,177.1816 605.2231,177.4805 L605.2231,180.2031 Q604.5923,179.6221 603.9988,179.3523 Q603.4053,179.0825 602.7744,179.0825 Q601.4297,179.0825 600.7449,180.1492 Q600.0601,181.2158 600.0601,183.3159 Q600.0601,185.4077 600.7449,186.4744 Q601.4297,187.541 602.7744,187.541 Q603.4053,187.541 603.9988,187.2712 Q604.5923,187.0015 605.2231,186.4204 Z "/><text fill="#000000" font-family="sans-serif" font-size="12" lengthAdjust="spacingAndGlyphs" textLength="48" x="623.25" y="187.5352">Bindings</text><line style="stroke: #A80036; stroke-width: 1.5;" x1="512" x2="750" y1="199" y2="199"/><line style="stroke: #A80036; stroke-width: 1.5;" x1="512" x2="750" y1="207" y2="207"/><ellipse cx="522" cy="218" fill="#84BE84" rx="3" ry="3" style="stroke: #038048; stroke-width: 1.0;"/><text fill="#000000" font-family="sans-serif" font-size="11" lengthAdjust="spacingAndGlyphs" text-decoration="underline" textLength="204" x="531" y="221.6348">bind(BindingGroup, Object, JList): void</text><ellipse cx="522" cy="230.9551" fill="#84BE84" rx="3" ry="3" style="stroke: #038048; stroke-width: 1.0;"/><text fill="#000000" font-family="sans-serif" font-size="11" lengthAdjust="spacingAndGlyphs" text-decoration="underline" textLength="214" x="531" y="234.5898">bind(BindingGroup, Object, JTable): void</text></a><!--MD5=[5b9dc5848b88f19a7a2f10a360f7c7c3]
class it.tidalwave.thesefoolishthings.examples.dci.swing.swing.HtmlRenderableListCellRenderer--><a href="HtmlRenderableListCellRenderer.html" target="_top" title="HtmlRenderableListCellRenderer.html" xlink:actuate="onRequest" xlink:href="HtmlRenderableListCellRenderer.html" xlink:show="new" xlink:title="HtmlRenderableListCellRenderer.html" xlink:type="simple"><rect codeLine="13" fill="#FEFECE" filter="url(#fmdln155wamu6)" height="60.9551" id="it.tidalwave.thesefoolishthings.examples.dci.swing.swing.HtmlRenderableListCellRenderer" style="stroke: #A80036; stroke-width: 1.5;" width="452" x="24" y="173.5"/><ellipse cx="151.75" cy="189.5" fill="#ADD1B2" rx="11" ry="11" style="stroke: #A80036; stroke-width: 1.0;"/><path d="M154.2231,195.6431 Q153.6421,195.9419 153.0029,196.0913 Q152.3638,196.2407 151.6582,196.2407 Q149.1514,196.2407 147.8315,194.5889 Q146.5117,192.937 146.5117,189.8159 Q146.5117,186.6865 147.8315,185.0347 Q149.1514,183.3828 151.6582,183.3828 Q152.3638,183.3828 153.0112,183.5322 Q153.6587,183.6816 154.2231,183.9805 L154.2231,186.7031 Q153.5923,186.1221 152.9988,185.8523 Q152.4053,185.5825 151.7744,185.5825 Q150.4297,185.5825 149.7449,186.6492 Q149.0601,187.7158 149.0601,189.8159 Q149.0601,191.9077 149.7449,192.9744 Q150.4297,194.041 151.7744,194.041 Q152.4053,194.041 152.9988,193.7712 Q153.5923,193.5015 154.2231,192.9204 Z "/><text fill="#000000" font-family="sans-serif" font-size="12" lengthAdjust="spacingAndGlyphs" textLength="188" x="172.25" y="194.0352">HtmlRenderableListCellRenderer</text><line style="stroke: #A80036; stroke-width: 1.5;" x1="25" x2="475" y1="205.5" y2="205.5"/><line style="stroke: #A80036; stroke-width: 1.5;" x1="25" x2="475" y1="213.5" y2="213.5"/><ellipse cx="35" cy="224.5" fill="#84BE84" rx="3" ry="3" style="stroke: #038048; stroke-width: 1.0;"/><text fill="#000000" font-family="sans-serif" font-size="11" lengthAdjust="spacingAndGlyphs" textLength="426" x="44" y="228.1348">getListCellRendererComponent(JList, Object, int, boolean, boolean): Component</text></a><!--MD5=[56a185cb33bdc7c23303e5865f20a19b]
class javax.swing.JPanel--><rect codeLine="23" fill="#FEFECE" filter="url(#fmdln155wamu6)" height="48" id="javax.swing.JPanel" style="stroke: #A80036; stroke-width: 1.5;" width="67" x="492.5" y="46"/><ellipse cx="507.5" cy="62" fill="#ADD1B2" rx="11" ry="11" style="stroke: #A80036; stroke-width: 1.0;"/><path d="M509.9731,68.1431 Q509.3921,68.4419 508.7529,68.5913 Q508.1138,68.7407 507.4082,68.7407 Q504.9014,68.7407 503.5815,67.0889 Q502.2617,65.437 502.2617,62.3159 Q502.2617,59.1865 503.5815,57.5347 Q504.9014,55.8828 507.4082,55.8828 Q508.1138,55.8828 508.7612,56.0322 Q509.4087,56.1816 509.9731,56.4805 L509.9731,59.2031 Q509.3423,58.6221 508.7488,58.3523 Q508.1553,58.0825 507.5244,58.0825 Q506.1797,58.0825 505.4949,59.1492 Q504.8101,60.2158 504.8101,62.3159 Q504.8101,64.4077 505.4949,65.4744 Q506.1797,66.541 507.5244,66.541 Q508.1553,66.541 508.7488,66.2712 Q509.3423,66.0015 509.9731,65.4204 Z "/><text fill="#000000" font-family="sans-serif" font-size="12" lengthAdjust="spacingAndGlyphs" textLength="35" x="521.5" y="66.5352">JPanel</text><line style="stroke: #A80036; stroke-width: 1.5;" x1="493.5" x2="558.5" y1="78" y2="78"/><line style="stroke: #A80036; stroke-width: 1.5;" x1="493.5" x2="558.5" y1="86" y2="86"/><!--MD5=[c69cfc95647057fbe94b4df2bb4d4159]
class javax.swing.DefaultListCellRenderer--><rect codeLine="25" fill="#FEFECE" filter="url(#fmdln155wamu6)" height="60.9551" id="javax.swing.DefaultListCellRenderer" style="stroke: #A80036; stroke-width: 1.5;" width="167" x="290.5" y="39.5"/><ellipse cx="305.5" cy="55.5" fill="#ADD1B2" rx="11" ry="11" style="stroke: #A80036; stroke-width: 1.0;"/><path d="M307.9731,61.6431 Q307.3921,61.9419 306.7529,62.0913 Q306.1138,62.2407 305.4082,62.2407 Q302.9014,62.2407 301.5815,60.5889 Q300.2617,58.937 300.2617,55.8159 Q300.2617,52.6865 301.5815,51.0347 Q302.9014,49.3828 305.4082,49.3828 Q306.1138,49.3828 306.7612,49.5322 Q307.4087,49.6816 307.9731,49.9805 L307.9731,52.7031 Q307.3423,52.1221 306.7488,51.8523 Q306.1553,51.5825 305.5244,51.5825 Q304.1797,51.5825 303.4949,52.6492 Q302.8101,53.7158 302.8101,55.8159 Q302.8101,57.9077 303.4949,58.9744 Q304.1797,60.041 305.5244,60.041 Q306.1553,60.041 306.7488,59.7712 Q307.3423,59.5015 307.9731,58.9204 Z "/><text fill="#000000" font-family="sans-serif" font-size="12" lengthAdjust="spacingAndGlyphs" textLength="135" x="319.5" y="60.0352">DefaultListCellRenderer</text><line style="stroke: #A80036; stroke-width: 1.5;" x1="291.5" x2="456.5" y1="71.5" y2="71.5"/><polygon fill="none" points="301.5,77.5,305.5,81.5,301.5,85.5,297.5,81.5" style="stroke: #B38D22; stroke-width: 1.0;"/><text fill="#000000" font-family="sans-serif" font-size="11" lengthAdjust="spacingAndGlyphs" text-decoration="underline" textLength="124" x="310.5" y="86.1348">noFocusBorder: Border</text><line style="stroke: #A80036; stroke-width: 1.5;" x1="291.5" x2="456.5" y1="92.4551" y2="92.4551"/><!--MD5=[47855b4f9e58a9de27c278c8ba630bf8]
class it.tidalwave.thesefoolishthings.examples.dci.swing.PersonPresentation--><a href="../PersonPresentation.html" target="_top" title="../PersonPresentation.html" xlink:actuate="onRequest" xlink:href="../PersonPresentation.html" xlink:show="new" xlink:title="../PersonPresentation.html" xlink:type="simple"><rect codeLine="31" fill="#FEFECE" filter="url(#fmdln155wamu6)" height="73.9102" id="it.tidalwave.thesefoolishthings.examples.dci.swing.PersonPresentation" style="stroke: #A80036; stroke-width: 1.5;" width="209" x="786.5" y="33"/><ellipse cx="831.75" cy="49" fill="#B4A7E5" rx="11" ry="11" style="stroke: #A80036; stroke-width: 1.0;"/><path d="M828.1777,45.2651 L828.1777,43.1069 L835.5571,43.1069 L835.5571,45.2651 L833.0918,45.2651 L833.0918,53.3418 L835.5571,53.3418 L835.5571,55.5 L828.1777,55.5 L828.1777,53.3418 L830.6431,53.3418 L830.6431,45.2651 Z "/><text fill="#000000" font-family="sans-serif" font-size="12" font-style="italic" lengthAdjust="spacingAndGlyphs" textLength="110" x="852.25" y="53.5352">PersonPresentation</text><line style="stroke: #A80036; stroke-width: 1.5;" x1="787.5" x2="994.5" y1="65" y2="65"/><line style="stroke: #A80036; stroke-width: 1.5;" x1="787.5" x2="994.5" y1="73" y2="73"/><ellipse cx="797.5" cy="84" fill="#84BE84" rx="3" ry="3" style="stroke: #038048; stroke-width: 1.0;"/><text fill="#000000" font-family="sans-serif" font-size="11" font-style="italic" lengthAdjust="spacingAndGlyphs" textLength="183" x="806.5" y="87.6348">bind(Action, PersonRegistry): void</text><ellipse cx="797.5" cy="96.9551" fill="#84BE84" rx="3" ry="3" style="stroke: #038048; stroke-width: 1.0;"/><text fill="#000000" font-family="sans-serif" font-size="11" font-style="italic" lengthAdjust="spacingAndGlyphs" textLength="79" x="806.5" y="100.5898">dispose(): void</text></a><!--MD5=[37f39fccb7cb869b56d49ec974bbca96]
reverse link javax.swing.JPanel to it.tidalwave.thesefoolishthings.examples.dci.swing.swing.SwingPersonPresentation--><path codeLine="17" d="M579.2049,83.9732 C639.7138,100.1026 734.5757,126.1787 769,140 C788.0884,147.664 808.12,157.4014 826.3068,166.9542 " fill="none" id="javax.swing.JPanel-backto-it.tidalwave.thesefoolishthings.examples.dci.swing.swing.SwingPersonPresentation" style="stroke: #A80036; stroke-width: 1.0;"/><polygon fill="none" points="577.3019,90.7105,559.7643,78.8179,580.8904,77.1782,577.3019,90.7105" style="stroke: #A80036; stroke-width: 1.0;"/><!--MD5=[c08644ef11aa843fba31015c914cde06]
reverse link it.tidalwave.thesefoolishthings.examples.dci.swing.PersonPresentation to it.tidalwave.thesefoolishthings.examples.dci.swing.swing.SwingPersonPresentation--><path codeLine="18" d="M891,127.5351 C891,140.8601 891,154.6949 891,166.8737 " fill="none" id="it.tidalwave.thesefoolishthings.examples.dci.swing.PersonPresentation-backto-it.tidalwave.thesefoolishthings.examples.dci.swing.swing.SwingPersonPresentation" style="stroke: #A80036; stroke-width: 1.0; stroke-dasharray: 7.0,7.0;"/><polygon fill="none" points="884.0001,127.3265,891,107.3265,898.0001,127.3264,884.0001,127.3265" style="stroke: #A80036; stroke-width: 1.0;"/><!--MD5=[e34d9b76d3389d5e91a2bdea1234f616]
reverse link javax.swing.DefaultListCellRenderer to it.tidalwave.thesefoolishthings.examples.dci.swing.swing.HtmlRenderableListCellRenderer--><path codeLine="19" d="M331.7523,115.6547 C314.1272,134.7013 294.1239,156.3177 278.3157,173.4007 " fill="none" id="javax.swing.DefaultListCellRenderer-backto-it.tidalwave.thesefoolishthings.examples.dci.swing.swing.HtmlRenderableListCellRenderer" style="stroke: #A80036; stroke-width: 1.0;"/><polygon fill="none" points="326.8303,110.6673,345.5519,100.7423,337.1058,120.1759,326.8303,110.6673" style="stroke: #A80036; stroke-width: 1.0;"/><text fill="#888888" font-family="sans-serif" font-size="10" lengthAdjust="spacingAndGlyphs" textLength="188" x="448" y="264.668">UMLDoclet 2.0.12, PlantUML 1.2020.16</text><!--MD5=[4ba29ca865a472a618e97425f26ad04e]
@startuml
    namespace it.tidalwave.thesefoolishthings.examples.dci.swing.swing {

        class SwingPersonPresentation [[SwingPersonPresentation.html]] {
            +bind(Action, PersonRegistry): void
            +dispose(): void
        }

        class Bindings [[Bindings.html]] {
            {static} +bind(BindingGroup, Object, JList): void
            {static} +bind(BindingGroup, Object, JTable): void
        }

        class HtmlRenderableListCellRenderer [[HtmlRenderableListCellRenderer.html]] {
            +getListCellRendererComponent(JList, Object, int, boolean, boolean): Component
        }

        javax.swing.JPanel <|- - SwingPersonPresentation
        it.tidalwave.thesefoolishthings.examples.dci.swing.PersonPresentation <|.. SwingPersonPresentation
        javax.swing.DefaultListCellRenderer <|- - HtmlRenderableListCellRenderer
    }

    namespace javax.swing {
        class JPanel {
        }
        class DefaultListCellRenderer {
            {static} #noFocusBorder: Border
        }
    }

    namespace it.tidalwave.thesefoolishthings.examples.dci.swing {
        interface PersonPresentation [[../PersonPresentation.html]] {
            {abstract} +bind(Action, PersonRegistry): void
            {abstract} +dispose(): void
        }
    }

    center footer UMLDoclet 2.0.12, PlantUML 1.2020.16
@enduml

PlantUML version 1.2020.16(Sun Aug 23 22:20:43 CEST 2020)
(APACHE source distribution)
Java Runtime: OpenJDK Runtime Environment
JVM: OpenJDK 64-Bit Server VM
Default Encoding: UTF-8
Language: en
Country: GB
--></g></svg>