@startuml
    set namespaceSeparator none
    hide empty fields
    hide empty methods

    class "<size:14>SwingPersonPresentation\n<size:10>it.tidalwave.thesefoolishthings.examples.dci.swing.swing" as it.tidalwave.thesefoolishthings.examples.dci.swing.swing.SwingPersonPresentation [[SwingPersonPresentation.html]] {
        +bind(Action, PersonRegistry): void
        +dispose(): void
    }

    class "<size:14>JPanel\n<size:10>javax.swing" as javax.swing.JPanel
    interface "<size:14>PersonPresentation\n<size:10>it.tidalwave.thesefoolishthings.examples.dci.swing" as it.tidalwave.thesefoolishthings.examples.dci.swing.PersonPresentation [[../PersonPresentation.html]] {
        {abstract} +bind(Action, PersonRegistry): void
        {abstract} +dispose(): void
    }

    javax.swing.JPanel <|-- it.tidalwave.thesefoolishthings.examples.dci.swing.swing.SwingPersonPresentation
    it.tidalwave.thesefoolishthings.examples.dci.swing.PersonPresentation <|.. it.tidalwave.thesefoolishthings.examples.dci.swing.swing.SwingPersonPresentation

    center footer UMLDoclet 2.0.12, PlantUML 1.2020.16
@enduml
