<?xml version="1.0" encoding="UTF-8" standalone="no"?><svg xmlns="http://www.w3.org/2000/svg" xmlns:xlink="http://www.w3.org/1999/xlink" contentScriptType="application/ecmascript" contentStyleType="text/css" height="187px" preserveAspectRatio="none" style="width:696px;height:187px;" version="1.1" viewBox="0 0 696 187" width="696px" zoomAndPan="magnify"><defs><filter height="300%" id="f1vjrcwvaox0gk" width="300%" x="-1" y="-1"><feGaussianBlur result="blurOut" stdDeviation="2.0"/><feColorMatrix in="blurOut" result="blurOut2" type="matrix" values="0 0 0 0 0 0 0 0 0 0 0 0 0 0 0 0 0 0 .4 0"/><feOffset dx="4.0" dy="4.0" in="blurOut2" result="blurOut3"/><feBlend in="SourceGraphic" in2="blurOut3" mode="normal"/></filter></defs><g><!--MD5=[9b62008eb3f04d127e4c58d856bcc4d2]
class it.tidalwave.northernwind.frontend.ui.component.blog.DefaultBlogViewControllerTest--><a href="DefaultBlogViewControllerTest.html" target="_top" title="DefaultBlogViewControllerTest.html" xlink:actuate="onRequest" xlink:href="DefaultBlogViewControllerTest.html" xlink:show="new" xlink:title="DefaultBlogViewControllerTest.html" xlink:type="simple"><rect codeLine="5" fill="#FEFECE" filter="url(#f1vjrcwvaox0gk)" height="149.9063" id="it.tidalwave.northernwind.frontend.ui.component.blog.DefaultBlogViewControllerTest" style="stroke: #A80036; stroke-width: 1.5;" width="670" x="7" y="7"/><ellipse cx="206.25" cy="26.1328" fill="#ADD1B2" rx="11" ry="11" style="stroke: #A80036; stroke-width: 1.0;"/><path d="M208.7231,32.2759 Q208.1421,32.5747 207.5029,32.7241 Q206.8638,32.8735 206.1582,32.8735 Q203.6514,32.8735 202.3315,31.2217 Q201.0117,29.5698 201.0117,26.4487 Q201.0117,23.3193 202.3315,21.6675 Q203.6514,20.0156 206.1582,20.0156 Q206.8638,20.0156 207.5112,20.165 Q208.1587,20.3145 208.7231,20.6133 L208.7231,23.3359 Q208.0923,22.7549 207.4988,22.4851 Q206.9053,22.2153 206.2744,22.2153 Q204.9297,22.2153 204.2449,23.282 Q203.5601,24.3486 203.5601,26.4487 Q203.5601,28.5405 204.2449,29.6072 Q204.9297,30.6738 206.2744,30.6738 Q206.9053,30.6738 207.4988,30.4041 Q208.0923,30.1343 208.7231,29.5532 Z "/><text fill="#000000" font-family="sans-serif" font-size="14" lengthAdjust="spacingAndGlyphs" textLength="210" x="253.25" y="25.5352">DefaultBlogViewControllerTest</text><text fill="#000000" font-family="sans-serif" font-size="10" lengthAdjust="spacingAndGlyphs" textLength="263" x="226.75" y="38.1563">it.tidalwave.northernwind.frontend.ui.component.blog</text><line style="stroke: #A80036; stroke-width: 1.5;" x1="8" x2="676" y1="45.2656" y2="45.2656"/><ellipse cx="18" cy="56.2656" fill="#84BE84" rx="3" ry="3" style="stroke: #038048; stroke-width: 1.0;"/><text fill="#000000" font-family="sans-serif" font-size="11" lengthAdjust="spacingAndGlyphs" textLength="587" x="27" y="59.9004">must_properly_render_posts(int, int, int, int, String, String, List&lt;Integer&gt;, List&lt;Integer&gt;, List&lt;Integer&gt;): void</text><ellipse cx="18" cy="69.2207" fill="#84BE84" rx="3" ry="3" style="stroke: #038048; stroke-width: 1.0;"/><text fill="#000000" font-family="sans-serif" font-size="11" lengthAdjust="spacingAndGlyphs" textLength="272" x="27" y="72.8555">must_throw_NotFound(int, int, int, int, String): void</text><ellipse cx="18" cy="82.1758" fill="#84BE84" rx="3" ry="3" style="stroke: #038048; stroke-width: 1.0;"/><text fill="#000000" font-family="sans-serif" font-size="11" lengthAdjust="spacingAndGlyphs" textLength="411" x="27" y="85.8105">must_throw_BadRequest_with_bad_path_params(int, int, int, int, String): void</text><ellipse cx="18" cy="95.1309" fill="#84BE84" rx="3" ry="3" style="stroke: #038048; stroke-width: 1.0;"/><text fill="#000000" font-family="sans-serif" font-size="11" lengthAdjust="spacingAndGlyphs" textLength="349" x="27" y="98.7656">must_properly_render_tag_cloud(int, List&lt;TagAndCount&gt;): void</text><ellipse cx="18" cy="108.0859" fill="#84BE84" rx="3" ry="3" style="stroke: #038048; stroke-width: 1.0;"/><text fill="#000000" font-family="sans-serif" font-size="11" lengthAdjust="spacingAndGlyphs" textLength="356" x="27" y="111.7207">must_properly_render_tag_cloud2(int, List&lt;TagAndCount&gt;): void</text><ellipse cx="18" cy="121.041" fill="#84BE84" rx="3" ry="3" style="stroke: #038048; stroke-width: 1.0;"/><text fill="#000000" font-family="sans-serif" font-size="11" lengthAdjust="spacingAndGlyphs" textLength="644" x="27" y="124.6758">must_properly_set_dynamic_properties(int, int, int, int, String, String, List&lt;Integer&gt;, List&lt;Integer&gt;, List&lt;Integer&gt;): void</text><ellipse cx="18" cy="133.9961" fill="#84BE84" rx="3" ry="3" style="stroke: #038048; stroke-width: 1.0;"/><text fill="#000000" font-family="sans-serif" font-size="11" lengthAdjust="spacingAndGlyphs" textLength="242" x="27" y="137.6309">must_properly_retrieve_virtual_nodes(): void</text><ellipse cx="18" cy="146.9512" fill="#84BE84" rx="3" ry="3" style="stroke: #038048; stroke-width: 1.0;"/><text fill="#000000" font-family="sans-serif" font-size="11" lengthAdjust="spacingAndGlyphs" textLength="574" x="27" y="150.5859">must_properly_render_the_date(String, Optional&lt;String&gt;, ZonedDateTime, Optional&lt;String&gt;, String): void</text></a><text fill="#888888" font-family="sans-serif" font-size="10" lengthAdjust="spacingAndGlyphs" textLength="188" x="248" y="173.5742">UMLDoclet 2.0.12, PlantUML 1.2020.16</text><!--MD5=[3e63805cfe042043f188e829c7f89017]
@startuml
    set namespaceSeparator none
    hide empty fields
    hide empty methods

    class "<size:14>DefaultBlogViewControllerTest\n<size:10>it.tidalwave.northernwind.frontend.ui.component.blog" as it.tidalwave.northernwind.frontend.ui.component.blog.DefaultBlogViewControllerTest [[DefaultBlogViewControllerTest.html]] {
        +must_properly_render_posts(int, int, int, int, String, String, List<Integer>, List<Integer>, List<Integer>): void
        +must_throw_NotFound(int, int, int, int, String): void
        +must_throw_BadRequest_with_bad_path_params(int, int, int, int, String): void
        +must_properly_render_tag_cloud(int, List<TagAndCount>): void
        +must_properly_render_tag_cloud2(int, List<TagAndCount>): void
        +must_properly_set_dynamic_properties(int, int, int, int, String, String, List<Integer>, List<Integer>, List<Integer>): void
        +must_properly_retrieve_virtual_nodes(): void
        +must_properly_render_the_date(String, Optional<String>, ZonedDateTime, Optional<String>, String): void
    }

    center footer UMLDoclet 2.0.12, PlantUML 1.2020.16
@enduml

PlantUML version 1.2020.16(Sun Aug 23 22:20:43 CEST 2020)
(APACHE source distribution)
Java Runtime: OpenJDK Runtime Environment
JVM: OpenJDK 64-Bit Server VM
Default Encoding: UTF-8
Language: en
Country: GB
--></g></svg>