<?xml version="1.0" encoding="UTF-8" standalone="no"?><svg xmlns="http://www.w3.org/2000/svg" xmlns:xlink="http://www.w3.org/1999/xlink" contentScriptType="application/ecmascript" contentStyleType="text/css" height="75px" preserveAspectRatio="none" style="width:200px;height:75px;" version="1.1" viewBox="0 0 200 75" width="200px" zoomAndPan="magnify"><defs><filter height="300%" id="fhy9756bbor80" width="300%" x="-1" y="-1"><feGaussianBlur result="blurOut" stdDeviation="2.0"/><feColorMatrix in="blurOut" result="blurOut2" type="matrix" values="0 0 0 0 0 0 0 0 0 0 0 0 0 0 0 0 0 0 .4 0"/><feOffset dx="4.0" dy="4.0" in="blurOut2" result="blurOut3"/><feBlend in="SourceGraphic" in2="blurOut3" mode="normal"/></filter></defs><g><!--MD5=[84f3fcd87139955af3ba087bcf920430]
class it.tidalwave.util.mock.Mock--><a href="Mock.html" target="_top" title="Mock.html" xlink:actuate="onRequest" xlink:href="Mock.html" xlink:show="new" xlink:title="Mock.html" xlink:type="simple"><rect codeLine="5" fill="#FEFECE" filter="url(#fhy9756bbor80)" height="38.2656" id="it.tidalwave.util.mock.Mock" style="stroke: #A80036; stroke-width: 1.5;" width="137" x="25.5" y="7"/><ellipse cx="40.5" cy="26.1328" fill="#ADD1B2" rx="11" ry="11" style="stroke: #A80036; stroke-width: 1.0;"/><path d="M42.9731,32.2759 Q42.3921,32.5747 41.7529,32.7241 Q41.1138,32.8735 40.4082,32.8735 Q37.9014,32.8735 36.5815,31.2217 Q35.2617,29.5698 35.2617,26.4487 Q35.2617,23.3193 36.5815,21.6675 Q37.9014,20.0156 40.4082,20.0156 Q41.1138,20.0156 41.7612,20.165 Q42.4087,20.3145 42.9731,20.6133 L42.9731,23.3359 Q42.3423,22.7549 41.7488,22.4851 Q41.1553,22.2153 40.5244,22.2153 Q39.1797,22.2153 38.4949,23.282 Q37.8101,24.3486 37.8101,26.4487 Q37.8101,28.5405 38.4949,29.6072 Q39.1797,30.6738 40.5244,30.6738 Q41.1553,30.6738 41.7488,30.4041 Q42.3423,30.1343 42.9731,29.5532 Z "/><text fill="#000000" font-family="sans-serif" font-size="14" lengthAdjust="spacingAndGlyphs" textLength="36" x="89" y="25.5352">Mock</text><text fill="#000000" font-family="sans-serif" font-size="10" lengthAdjust="spacingAndGlyphs" textLength="105" x="54.5" y="38.1563">it.tidalwave.util.mock</text></a><text fill="#888888" font-family="sans-serif" font-size="10" lengthAdjust="spacingAndGlyphs" textLength="188" x="0" y="61.9336">UMLDoclet 2.0.12, PlantUML 1.2020.16</text><!--MD5=[5e99239eba3bfeb08eb6ba9169d537e9]
@startuml
    set namespaceSeparator none
    hide empty fields
    hide empty methods

    class "<size:14>Mock\n<size:10>it.tidalwave.util.mock" as it.tidalwave.util.mock.Mock [[Mock.html]]

    center footer UMLDoclet 2.0.12, PlantUML 1.2020.16
@enduml

PlantUML version 1.2020.16(Sun Aug 23 22:20:43 CEST 2020)
(APACHE source distribution)
Java Runtime: OpenJDK Runtime Environment
JVM: OpenJDK 64-Bit Server VM
Default Encoding: UTF-8
Language: en
Country: GB
--></g></svg>