GROUP,PACKAGE,CLASS,INSTRUCTION_MISSED,INSTRUCTION_COVERED,BRANCH_MISSED,BRANCH_COVERED,LINE_MISSED,LINE_COVERED,COMPLEXITY_MISSED,COMPLEXITY_COVERED,METHOD_MISSED,METHOD_COVERED
Zephyr - UI Structure Explorer,it.tidalwave.northernwind.rca.ui.structureexplorer.impl,SiteNodeSelectableFiringSelectedEvent,10,20,2,2,0,3,2,2,0,2
Zephyr - UI Structure Explorer,it.tidalwave.northernwind.rca.ui.structureexplorer.impl,DefaultStructureExplorerPresentationControl,20,72,4,4,0,3,4,5,0,5
Zephyr - UI Structure Explorer,it.tidalwave.northernwind.rca.ui.structureexplorer.impl,DefaultStructureExplorerPresentationControl.AjcClosure1,0,22,0,0,0,1,0,2,0,2
