GROUP,PACKAGE,CLASS,INSTRUCTION_MISSED,INSTRUCTION_COVERED,BRANCH_MISSED,BRANCH_COVERED,LINE_MISSED,LINE_COVERED,COMPLEXITY_MISSED,COMPLEXITY_COVERED,METHOD_MISSED,METHOD_COVERED
TheseFoolishThings :: Roles/it-tidalwave-util,it.tidalwave.util.thread,ThreadType,34,0,0,0,2,0,1,0,1,0
TheseFoolishThings :: Roles/it-tidalwave-util,it.tidalwave.util.thread,ThreadAssertions,25,0,6,0,5,0,6,0,3,0
TheseFoolishThings :: Roles/it-tidalwave-util,it.tidalwave.util.ui,UserNotification,72,0,0,0,8,0,9,0,9,0
TheseFoolishThings :: Roles/it-tidalwave-util,it.tidalwave.util.ui,UserNotificationWithFeedback.Feedback,67,0,8,0,11,0,11,0,7,0
TheseFoolishThings :: Roles/it-tidalwave-util,it.tidalwave.util.ui,UserNotificationWithFeedback,101,0,0,0,16,0,12,0,12,0
TheseFoolishThings :: Roles/it-tidalwave-util,it.tidalwave.util.spi,FinderSupport.Sorter,30,0,4,0,3,0,4,0,2,0
TheseFoolishThings :: Roles/it-tidalwave-util,it.tidalwave.util.spi,DefaultProcessExecutor,192,0,6,0,35,0,15,0,12,0
TheseFoolishThings :: Roles/it-tidalwave-util,it.tidalwave.util.spi,AsDelegateProvider.EmptyAsDelegateProvider,0,8,0,0,0,2,0,2,0,2
TheseFoolishThings :: Roles/it-tidalwave-util,it.tidalwave.util.spi,AsDelegateProvider.EmptyAsDelegateProvider.new AsDelegate() {...},0,10,0,0,0,2,0,2,0,2
TheseFoolishThings :: Roles/it-tidalwave-util,it.tidalwave.util.spi,DefaultProcessExecutor.DefaultConsoleOutput,342,0,32,0,70,0,27,0,11,0
TheseFoolishThings :: Roles/it-tidalwave-util,it.tidalwave.util.spi,FinderSupport,177,248,6,8,32,38,15,16,10,14
TheseFoolishThings :: Roles/it-tidalwave-util,it.tidalwave.util.spi,AsDelegateProvider,0,7,0,0,0,2,0,2,0,2
TheseFoolishThings :: Roles/it-tidalwave-util,it.tidalwave.util.spi,DefaultProcessExecutor.DefaultConsoleOutput.new Runnable() {...},35,0,4,0,9,0,4,0,2,0
TheseFoolishThings :: Roles/it-tidalwave-util,it.tidalwave.util.spi,ArrayListCollectorSupport,17,0,0,0,5,0,6,0,6,0
TheseFoolishThings :: Roles/it-tidalwave-util,it.tidalwave.util.spi,AsDelegateProvider.Locator,22,10,3,1,7,6,2,3,0,3
TheseFoolishThings :: Roles/it-tidalwave-util,it.tidalwave.util.spi,DefaultProcessExecutor.DefaultConsoleOutput.new Runnable() {...},25,0,0,0,6,0,2,0,2,0
TheseFoolishThings :: Roles/it-tidalwave-util,it.tidalwave.util.spi,AsSupport,29,140,1,13,6,31,3,12,2,6
TheseFoolishThings :: Roles/it-tidalwave-util,it.tidalwave.util.spi,SimpleFinderSupport,4,8,0,0,2,3,1,2,1,2
TheseFoolishThings :: Roles/it-tidalwave-util,it.tidalwave.util,Initializer.EmptyInitializer,5,0,0,0,2,0,2,0,2,0
TheseFoolishThings :: Roles/it-tidalwave-util,it.tidalwave.util,NamedCallback,39,0,4,0,4,0,7,0,5,0
TheseFoolishThings :: Roles/it-tidalwave-util,it.tidalwave.util,Finder.SortCriterion,8,0,0,0,3,0,2,0,2,0
TheseFoolishThings :: Roles/it-tidalwave-util,it.tidalwave.util,As.Defaults.new As.NotFoundBehaviour() {...},0,13,0,0,0,2,0,2,0,2
TheseFoolishThings :: Roles/it-tidalwave-util,it.tidalwave.util,Finder,66,5,2,0,13,1,11,1,10,1
TheseFoolishThings :: Roles/it-tidalwave-util,it.tidalwave.util,SimpleTask,3,0,0,0,1,0,1,0,1,0
TheseFoolishThings :: Roles/it-tidalwave-util,it.tidalwave.util,BundleUtilities,0,34,0,2,0,5,0,3,0,2
TheseFoolishThings :: Roles/it-tidalwave-util,it.tidalwave.util,Initializer,4,0,0,0,1,0,1,0,1,0
TheseFoolishThings :: Roles/it-tidalwave-util,it.tidalwave.util,Task,37,21,0,0,7,3,5,1,5,1
TheseFoolishThings :: Roles/it-tidalwave-util,it.tidalwave.util,Id,30,75,9,9,2,4,10,8,2,7
TheseFoolishThings :: Roles/it-tidalwave-util,it.tidalwave.util,ReflectionUtils,78,73,11,11,18,17,9,5,1,2
TheseFoolishThings :: Roles/it-tidalwave-util,it.tidalwave.util,As,4,8,0,0,1,1,1,2,1,2
TheseFoolishThings :: Roles/it-tidalwave-util,it.tidalwave.util,TypeSafeMultiMap,6,10,0,0,2,2,2,2,2,2
TheseFoolishThings :: Roles/it-tidalwave-util,it.tidalwave.util,Task.new Task() {...},11,0,0,0,3,0,2,0,2,0
TheseFoolishThings :: Roles/it-tidalwave-util,it.tidalwave.util,Callback,4,0,0,0,1,0,2,0,2,0
TheseFoolishThings :: Roles/it-tidalwave-util,it.tidalwave.util,DuplicateException,7,0,0,0,4,0,2,0,2,0
TheseFoolishThings :: Roles/it-tidalwave-util,it.tidalwave.util,Finder.InMemorySortCriterion,17,0,0,0,4,0,3,0,3,0
TheseFoolishThings :: Roles/it-tidalwave-util,it.tidalwave.util,Finder.SortDirection,37,0,0,0,3,0,3,0,3,0
TheseFoolishThings :: Roles/it-tidalwave-util,it.tidalwave.util,Pair,87,179,17,9,2,16,17,27,4,27
TheseFoolishThings :: Roles/it-tidalwave-util,it.tidalwave.util,TypeSafeMap,6,18,0,0,2,5,2,3,2,3
TheseFoolishThings :: Roles/it-tidalwave-util,it.tidalwave.util,NotFoundException,35,27,8,4,10,10,8,6,4,4
TheseFoolishThings :: Roles/it-tidalwave-util,it.tidalwave.util,Parameters,85,44,10,6,12,9,8,4,2,2
TheseFoolishThings :: Roles/it-tidalwave-util,it.tidalwave.util,Key,38,173,13,15,4,15,14,16,3,13
TheseFoolishThings :: Roles/it-tidalwave-util,it.tidalwave.util,Finder.InMemorySortCriterion.DefaultInMemorySortCriterion,147,0,26,0,3,0,20,0,7,0
TheseFoolishThings :: Roles/it-tidalwave-util,it.tidalwave.util,FunctionalCheckedExceptionWrappers,0,64,0,4,0,23,0,11,0,9
TheseFoolishThings :: Roles/it-tidalwave-util,it.tidalwave.util,LocalizedDateTimeFormatters,0,22,0,0,0,3,0,1,0,1
TheseFoolishThings :: Roles/it-tidalwave-util,it.tidalwave.util,Pair.Factory,0,29,0,0,0,4,0,3,0,3
TheseFoolishThings :: Roles/it-tidalwave-util,it.tidalwave.util,TimeProvider.DefaultTimeProvider,0,5,0,0,0,2,0,2,0,2
TheseFoolishThings :: Roles/it-tidalwave-util,it.tidalwave.util,TimeProvider,3,33,1,1,1,7,2,4,1,4
TheseFoolishThings :: Roles/it-tidalwave-util,it.tidalwave.util,As.Defaults,0,5,0,0,0,1,0,1,0,1
TheseFoolishThings :: Roles/it-tidalwave-util,it.tidalwave.util,Task.new Task() {...},10,0,0,0,2,0,2,0,2,0
TheseFoolishThings :: Roles/it-tidalwave-util,it.tidalwave.util,Task.new Task() {...},11,0,0,0,3,0,2,0,2,0
TheseFoolishThings :: Roles/it-tidalwave-util,it.tidalwave.util,ConcurrentHashMapWithOptionals,0,24,0,2,0,3,0,5,0,4
TheseFoolishThings :: Roles/it-tidalwave-util,it.tidalwave.util,AsException,0,11,0,0,0,4,0,2,0,2
TheseFoolishThings :: Roles/it-tidalwave-util,it.tidalwave.util.impl,TypeHolder,3,0,0,0,1,0,1,0,1,0
TheseFoolishThings :: Roles/it-tidalwave-util,it.tidalwave.util.impl,TypeSafeHashMultiMap,74,86,14,2,4,20,13,11,6,10
TheseFoolishThings :: Roles/it-tidalwave-util,it.tidalwave.util.impl,ArrayListFinder,0,31,0,0,0,8,0,3,0,3
TheseFoolishThings :: Roles/it-tidalwave-util,it.tidalwave.util.impl,TypeSafeHashMap,74,78,14,0,4,17,13,10,6,10
TheseFoolishThings :: Roles/it-tidalwave-util-test,it.tidalwave.util.test,MockTimeProvider,14,0,0,0,4,0,3,0,3,0
TheseFoolishThings :: Roles/it-tidalwave-util-test,it.tidalwave.util.test,MoreAnswers,10,11,1,1,1,3,2,2,1,2
TheseFoolishThings :: Roles/it-tidalwave-util-test,it.tidalwave.util.test,FileComparisonUtils,665,0,26,0,95,0,39,0,25,0
TheseFoolishThings :: Roles/it-tidalwave-util-test,it.tidalwave.util.test,TestLogger,173,131,13,5,41,32,13,8,6,6
TheseFoolishThings :: Roles/it-tidalwave-util-test,it.tidalwave.util.test,FileComparisonUtils.Tuple,130,0,22,0,2,0,19,0,8,0
