@startuml
    set namespaceSeparator none
    hide empty fields
    hide empty methods

    class "<size:14>RepositoryBrowserSupport\n<size:10>it.tidalwave.bluemarine2.model.impl.catalog.browser" as it.tidalwave.bluemarine2.model.impl.catalog.browser.RepositoryBrowserSupport [[RepositoryBrowserSupport.html]] {
        #compositeForRootEntity: SimpleComposite<? extends Entity>
        #RepositoryBrowserSupport(Function<MediaCatalog, Finder<? extends Entity>>)
        +getRoot(): Entity
    }

    class "<size:14>EntityWithRoles\n<size:10>it.tidalwave.bluemarine2.model.spi" as it.tidalwave.bluemarine2.model.spi.EntityWithRoles [[http://blueMarine.tidalwave.it/bluemarine2-modules/it-tidalwave-bluemarine2-model/apidocs/it/tidalwave/bluemarine2/model/spi/EntityWithRoles.html?is-external=true]]
    interface "<size:14>EntityBrowser\n<size:10>it.tidalwave.bluemarine2.model.role" as it.tidalwave.bluemarine2.model.role.EntityBrowser [[http://blueMarine.tidalwave.it/bluemarine2-modules/it-tidalwave-bluemarine2-model/apidocs/it/tidalwave/bluemarine2/model/role/EntityBrowser.html?is-external=true]] {
        {abstract} +getRoot(): Entity
    }

    it.tidalwave.bluemarine2.model.spi.EntityWithRoles <|-- it.tidalwave.bluemarine2.model.impl.catalog.browser.RepositoryBrowserSupport
    it.tidalwave.bluemarine2.model.role.EntityBrowser <|.. it.tidalwave.bluemarine2.model.impl.catalog.browser.RepositoryBrowserSupport

    center footer UMLDoclet 2.0.12, PlantUML 1.2020.16
@enduml
