@startuml
    set namespaceSeparator none
    hide empty fields
    hide empty methods

    class "<size:14>ViewerPanel\n<size:10>it.tidalwave.mistral.example.viewer" as it.tidalwave.mistral.example.viewer.ViewerPanel [[ViewerPanel.html]] {
        #onImageLoaded(EditableImage): void
    }

    class "<size:14>AbstractViewerPanel\n<size:10>it.tidalwave.mistral.example" as it.tidalwave.mistral.example.AbstractViewerPanel [[../AbstractViewerPanel.html]]

    it.tidalwave.mistral.example.AbstractViewerPanel <|-- it.tidalwave.mistral.example.viewer.ViewerPanel

    center footer UMLDoclet 2.0.12, PlantUML 1.2020.16
@enduml
