<?xml version="1.0" encoding="UTF-8" standalone="no"?><svg xmlns="http://www.w3.org/2000/svg" xmlns:xlink="http://www.w3.org/1999/xlink" contentScriptType="application/ecmascript" contentStyleType="text/css" height="221px" preserveAspectRatio="none" style="width:651px;height:221px;" version="1.1" viewBox="0 0 651 221" width="651px" zoomAndPan="magnify"><defs><filter height="300%" id="fdvcwjb0z3icn" width="300%" x="-1" y="-1"><feGaussianBlur result="blurOut" stdDeviation="2.0"/><feColorMatrix in="blurOut" result="blurOut2" type="matrix" values="0 0 0 0 0 0 0 0 0 0 0 0 0 0 0 0 0 0 .4 0"/><feOffset dx="4.0" dy="4.0" in="blurOut2" result="blurOut3"/><feBlend in="SourceGraphic" in2="blurOut3" mode="normal"/></filter></defs><g><!--MD5=[0958813566ab1c3483dd103cb30b6b62]
class it.tidalwave.northernwind.frontend.filesystem.scm.spi.MockScmWorkingDirectory.Preparer--><a href="MockScmWorkingDirectory.Preparer.html" target="_top" title="MockScmWorkingDirectory.Preparer.html" xlink:actuate="onRequest" xlink:href="MockScmWorkingDirectory.Preparer.html" xlink:show="new" xlink:title="MockScmWorkingDirectory.Preparer.html" xlink:type="simple"><rect codeLine="5" fill="#FEFECE" filter="url(#fdvcwjb0z3icn)" height="59.2207" id="it.tidalwave.northernwind.frontend.filesystem.scm.spi.MockScmWorkingDirectory.Preparer" style="stroke: #A80036; stroke-width: 1.5;" width="294" x="173" y="126"/><ellipse cx="188" cy="145.1328" fill="#ADD1B2" rx="11" ry="11" style="stroke: #A80036; stroke-width: 1.0;"/><path d="M190.4731,151.2759 Q189.8921,151.5747 189.2529,151.7241 Q188.6138,151.8735 187.9082,151.8735 Q185.4014,151.8735 184.0815,150.2217 Q182.7617,148.5698 182.7617,145.4487 Q182.7617,142.3193 184.0815,140.6675 Q185.4014,139.0156 187.9082,139.0156 Q188.6138,139.0156 189.2612,139.165 Q189.9087,139.3145 190.4731,139.6133 L190.4731,142.3359 Q189.8423,141.7549 189.2488,141.4851 Q188.6553,141.2153 188.0244,141.2153 Q186.6797,141.2153 185.9949,142.282 Q185.3101,143.3486 185.3101,145.4487 Q185.3101,147.5405 185.9949,148.6072 Q186.6797,149.6738 188.0244,149.6738 Q188.6553,149.6738 189.2488,149.4041 Q189.8423,149.1343 190.4731,148.5532 Z "/><text fill="#000000" font-family="sans-serif" font-size="14" lengthAdjust="spacingAndGlyphs" textLength="246" x="210" y="144.5352">MockScmWorkingDirectory.Preparer</text><text fill="#000000" font-family="sans-serif" font-size="10" lengthAdjust="spacingAndGlyphs" textLength="262" x="202" y="157.1563">it.tidalwave.northernwind.frontend.filesystem.scm.spi</text><line style="stroke: #A80036; stroke-width: 1.5;" x1="174" x2="466" y1="164.2656" y2="164.2656"/><polygon fill="#FFFF44" points="184,170.2656,188,174.2656,184,178.2656,180,174.2656" style="stroke: #B38D22; stroke-width: 1.0;"/><text fill="#000000" font-family="sans-serif" font-size="11" lengthAdjust="spacingAndGlyphs" textLength="184" x="193" y="178.9004">stripChangesetsAfter(String): void</text></a><!--MD5=[715d7dcbf8373cbab67708348e154ea6]
class it.tidalwave.northernwind.frontend.filesystem.scm.spi.ScmPreparer--><a href="ScmPreparer.html" target="_top" title="ScmPreparer.html" xlink:actuate="onRequest" xlink:href="ScmPreparer.html" xlink:show="new" xlink:title="ScmPreparer.html" xlink:type="simple"><rect codeLine="9" fill="#FEFECE" filter="url(#fdvcwjb0z3icn)" height="59.2207" id="it.tidalwave.northernwind.frontend.filesystem.scm.spi.ScmPreparer" style="stroke: #A80036; stroke-width: 1.5;" width="294" x="9" y="7"/><ellipse cx="24" cy="26.1328" fill="#A9DCDF" rx="11" ry="11" style="stroke: #A80036; stroke-width: 1.0;"/><path d="M23.8633,21.481 L22.7095,26.5527 L25.0254,26.5527 Z M22.3691,19.2397 L25.3657,19.2397 L28.7109,31.6328 L26.2622,31.6328 L25.4985,28.5698 L22.2197,28.5698 L21.4727,31.6328 L19.0239,31.6328 Z "/><text fill="#000000" font-family="sans-serif" font-size="14" font-style="italic" lengthAdjust="spacingAndGlyphs" textLength="87" x="125.5" y="25.5352">ScmPreparer</text><text fill="#000000" font-family="sans-serif" font-size="10" font-style="italic" lengthAdjust="spacingAndGlyphs" textLength="262" x="38" y="38.1563">it.tidalwave.northernwind.frontend.filesystem.scm.spi</text><line style="stroke: #A80036; stroke-width: 1.5;" x1="10" x2="302" y1="45.2656" y2="45.2656"/><polygon fill="#FFFF44" points="20,51.2656,24,55.2656,20,59.2656,16,55.2656" style="stroke: #B38D22; stroke-width: 1.0;"/><text fill="#000000" font-family="sans-serif" font-size="11" font-style="italic" lengthAdjust="spacingAndGlyphs" textLength="184" x="29" y="59.9004">stripChangesetsAfter(String): void</text></a><!--MD5=[89c324356690be9680fe8006d7197432]
class it.tidalwave.northernwind.frontend.filesystem.scm.spi.MockScmWorkingDirectory--><a href="MockScmWorkingDirectory.html" target="_top" title="MockScmWorkingDirectory.html" xlink:actuate="onRequest" xlink:href="MockScmWorkingDirectory.html" xlink:show="new" xlink:title="MockScmWorkingDirectory.html" xlink:type="simple"><rect codeLine="12" fill="#FEFECE" filter="url(#fdvcwjb0z3icn)" height="38.2656" id="it.tidalwave.northernwind.frontend.filesystem.scm.spi.MockScmWorkingDirectory" style="stroke: #A80036; stroke-width: 1.5;" width="294" x="338" y="17.5"/><ellipse cx="353" cy="36.6328" fill="#ADD1B2" rx="11" ry="11" style="stroke: #A80036; stroke-width: 1.0;"/><path d="M355.4731,42.7759 Q354.8921,43.0747 354.2529,43.2241 Q353.6138,43.3735 352.9082,43.3735 Q350.4014,43.3735 349.0815,41.7217 Q347.7617,40.0698 347.7617,36.9487 Q347.7617,33.8193 349.0815,32.1675 Q350.4014,30.5156 352.9082,30.5156 Q353.6138,30.5156 354.2612,30.665 Q354.9087,30.8145 355.4731,31.1133 L355.4731,33.8359 Q354.8423,33.2549 354.2488,32.9851 Q353.6553,32.7153 353.0244,32.7153 Q351.6797,32.7153 350.9949,33.782 Q350.3101,34.8486 350.3101,36.9487 Q350.3101,39.0405 350.9949,40.1072 Q351.6797,41.1738 353.0244,41.1738 Q353.6553,41.1738 354.2488,40.9041 Q354.8423,40.6343 355.4731,40.0532 Z "/><text fill="#000000" font-family="sans-serif" font-size="14" lengthAdjust="spacingAndGlyphs" textLength="183" x="406.5" y="36.0352">MockScmWorkingDirectory</text><text fill="#000000" font-family="sans-serif" font-size="10" lengthAdjust="spacingAndGlyphs" textLength="262" x="367" y="48.6563">it.tidalwave.northernwind.frontend.filesystem.scm.spi</text></a><!--MD5=[34c34a938731f134bb4e81679608b487]
reverse link it.tidalwave.northernwind.frontend.filesystem.scm.spi.ScmPreparer to it.tidalwave.northernwind.frontend.filesystem.scm.spi.MockScmWorkingDirectory.Preparer--><path codeLine="14" d="M213.3447,78.1099 C235.0854,93.8851 259.3754,111.5102 279.2771,125.9511 " fill="none" id="it.tidalwave.northernwind.frontend.filesystem.scm.spi.ScmPreparer-backto-it.tidalwave.northernwind.frontend.filesystem.scm.spi.MockScmWorkingDirectory.Preparer" style="stroke: #A80036; stroke-width: 1.0;"/><polygon fill="none" points="209.0376,83.6333,196.9611,66.2218,217.2597,72.302,209.0376,83.6333" style="stroke: #A80036; stroke-width: 1.0;"/><!--MD5=[8e439fbfc5bce9557219c80b66ae2193]
reverse link it.tidalwave.northernwind.frontend.filesystem.scm.spi.MockScmWorkingDirectory to it.tidalwave.northernwind.frontend.filesystem.scm.spi.MockScmWorkingDirectory.Preparer--><path codeLine="15" d="M446.2465,64.4495 C420.6033,82.9437 387.0266,107.1596 360.9471,125.9684 " fill="none" id="it.tidalwave.northernwind.frontend.filesystem.scm.spi.MockScmWorkingDirectory-backto-it.tidalwave.northernwind.frontend.filesystem.scm.spi.MockScmWorkingDirectory.Preparer" style="stroke: #A80036; stroke-width: 1.0;"/><ellipse cx="452.0014" cy="60.2991" fill="#FFFFFF" rx="8" ry="8" style="stroke: #A80036; stroke-width: 1.0;"/><line style="stroke: #A80036; stroke-width: 1.0;" x1="445.5129" x2="458.4899" y1="64.9787" y2="55.6194"/><line style="stroke: #A80036; stroke-width: 1.0;" x1="447.3217" x2="456.6811" y1="53.8106" y2="66.7876"/><text fill="#888888" font-family="sans-serif" font-size="10" lengthAdjust="spacingAndGlyphs" textLength="188" x="222.5" y="207.8887">UMLDoclet 2.0.12, PlantUML 1.2020.16</text><!--MD5=[d1c660518e8495e0d96d704b090b2461]
@startuml
    set namespaceSeparator none
    hide empty fields
    hide empty methods

    class "<size:14>MockScmWorkingDirectory.Preparer\n<size:10>it.tidalwave.northernwind.frontend.filesystem.scm.spi" as it.tidalwave.northernwind.frontend.filesystem.scm.spi.MockScmWorkingDirectory.Preparer [[MockScmWorkingDirectory.Preparer.html]] {
        #stripChangesetsAfter(String): void
    }

    abstract class "<size:14>ScmPreparer\n<size:10>it.tidalwave.northernwind.frontend.filesystem.scm.spi" as it.tidalwave.northernwind.frontend.filesystem.scm.spi.ScmPreparer [[ScmPreparer.html]] {
        {abstract} #stripChangesetsAfter(String): void
    }
    class "<size:14>MockScmWorkingDirectory\n<size:10>it.tidalwave.northernwind.frontend.filesystem.scm.spi" as it.tidalwave.northernwind.frontend.filesystem.scm.spi.MockScmWorkingDirectory [[MockScmWorkingDirectory.html]]

    it.tidalwave.northernwind.frontend.filesystem.scm.spi.ScmPreparer <|- - it.tidalwave.northernwind.frontend.filesystem.scm.spi.MockScmWorkingDirectory.Preparer
    it.tidalwave.northernwind.frontend.filesystem.scm.spi.MockScmWorkingDirectory +- - it.tidalwave.northernwind.frontend.filesystem.scm.spi.MockScmWorkingDirectory.Preparer

    center footer UMLDoclet 2.0.12, PlantUML 1.2020.16
@enduml

PlantUML version 1.2020.16(Sun Aug 23 22:20:43 CEST 2020)
(APACHE source distribution)
Java Runtime: OpenJDK Runtime Environment
JVM: OpenJDK 64-Bit Server VM
Default Encoding: UTF-8
Language: en
Country: GB
--></g></svg>