@startuml
    ' Copyright to this UML and generated images belongs to the author of the corresponding Java sources.

    ' This UML was generated by UMLDoclet (C) Copyright 2016-2024 Talsma ICT.
    ' UMLDoclet 2.2.1 is licensed under the Apache License, version 2.0
    ' and contains parts of PlantUML 1.2024.7 (ASL) Copyright 2009-2024, Arnaud Roques.

    !pragma layout smetana

    set namespaceSeparator none
    hide empty fields
    hide empty methods

    interface "<size:14>OwnerRoleFactoryProvider\n<size:10>it.tidalwave.role.spi" as it.tidalwave.role.spi.OwnerRoleFactoryProvider [[OwnerRoleFactoryProvider.html]] {
        {static} +getInstance(): OwnerRoleFactoryProvider
        {abstract} +createRoleFactory(Object): OwnerRoleFactory
    }
    class "<size:14>OwnerRoleFactoryProvider.Inner\n<size:10>it.tidalwave.role.spi" as it.tidalwave.role.spi.OwnerRoleFactoryProvider.Inner [[OwnerRoleFactoryProvider.Inner.html]]

    it.tidalwave.role.spi.OwnerRoleFactoryProvider +-- it.tidalwave.role.spi.OwnerRoleFactoryProvider.Inner

    <style>
        footer {
            HyperLinkColor #8
            HyperLinkUnderlineThickness 0
        }
    </style>
    footer \n[[https://github.com/talsma-ict/umldoclet UMLDoclet 2.2.1]]
    ' Generated 2024-12-19T00:13:34.048580+01:00[Europe/Rome]
@enduml
