<?xml version="1.0" encoding="UTF-8" standalone="no"?><svg xmlns="http://www.w3.org/2000/svg" xmlns:xlink="http://www.w3.org/1999/xlink" contentScriptType="application/ecmascript" contentStyleType="text/css" height="650px" preserveAspectRatio="none" style="width:1343px;height:650px;" version="1.1" viewBox="0 0 1343 650" width="1343px" zoomAndPan="magnify"><defs><filter height="300%" id="f3l4g575tbcwp" width="300%" x="-1" y="-1"><feGaussianBlur result="blurOut" stdDeviation="2.0"/><feColorMatrix in="blurOut" result="blurOut2" type="matrix" values="0 0 0 0 0 0 0 0 0 0 0 0 0 0 0 0 0 0 .4 0"/><feOffset dx="4.0" dy="4.0" in="blurOut2" result="blurOut3"/><feBlend in="SourceGraphic" in2="blurOut3" mode="normal"/></filter></defs><g><!--MD5=[1f6f40219d8accefa53bfe3dcdfd5d87]
cluster it.tidalwave.messagebus.spi--><polygon fill="#FFFFFF" filter="url(#f3l4g575tbcwp)" points="16,166,222,166,229,188.4883,1321,188.4883,1321,621,16,621,16,166" style="stroke: #000000; stroke-width: 1.5;"/><line style="stroke: #000000; stroke-width: 1.5;" x1="16" x2="229" y1="188.4883" y2="188.4883"/><text fill="#000000" font-family="sans-serif" font-size="14" font-weight="bold" lengthAdjust="spacingAndGlyphs" textLength="200" x="20" y="181.5352">it.tidalwave.messagebus.spi</text><!--MD5=[e4549cd9a5af2e65ccdbc914a80faec6]
cluster it.tidalwave.messagebus--><polygon fill="#FFFFFF" filter="url(#f3l4g575tbcwp)" points="445,6,626,6,633,28.4883,757,28.4883,757,141,445,141,445,6" style="stroke: #000000; stroke-width: 1.5;"/><line style="stroke: #000000; stroke-width: 1.5;" x1="445" x2="633" y1="28.4883" y2="28.4883"/><text fill="#000000" font-family="sans-serif" font-size="14" font-weight="bold" lengthAdjust="spacingAndGlyphs" textLength="175" x="449" y="21.5352">it.tidalwave.messagebus</text><!--MD5=[55195224b75f480a85f2daf3351a70a8]
class it.tidalwave.messagebus.spi.MessageDelivery--><a href="MessageDelivery.html" target="_top" title="MessageDelivery.html" xlink:actuate="onRequest" xlink:href="MessageDelivery.html" xlink:show="new" xlink:title="MessageDelivery.html" xlink:type="simple"><rect codeLine="3" fill="#FEFECE" filter="url(#f3l4g575tbcwp)" height="73.9102" id="it.tidalwave.messagebus.spi.MessageDelivery" style="stroke: #A80036; stroke-width: 1.5;" width="264" x="1049" y="232"/><ellipse cx="1128.75" cy="248" fill="#B4A7E5" rx="11" ry="11" style="stroke: #A80036; stroke-width: 1.0;"/><path d="M1125.1777,244.2651 L1125.1777,242.1069 L1132.5571,242.1069 L1132.5571,244.2651 L1130.0918,244.2651 L1130.0918,252.3418 L1132.5571,252.3418 L1132.5571,254.5 L1125.1777,254.5 L1125.1777,252.3418 L1127.6431,252.3418 L1127.6431,244.2651 Z "/><text fill="#000000" font-family="sans-serif" font-size="12" font-style="italic" lengthAdjust="spacingAndGlyphs" textLength="96" x="1149.25" y="252.5352">MessageDelivery</text><line style="stroke: #A80036; stroke-width: 1.5;" x1="1050" x2="1312" y1="264" y2="264"/><line style="stroke: #A80036; stroke-width: 1.5;" x1="1050" x2="1312" y1="272" y2="272"/><ellipse cx="1060" cy="283" fill="#84BE84" rx="3" ry="3" style="stroke: #038048; stroke-width: 1.0;"/><text fill="#000000" font-family="sans-serif" font-size="11" font-style="italic" lengthAdjust="spacingAndGlyphs" textLength="181" x="1069" y="286.6348">initialize(SimpleMessageBus): void</text><ellipse cx="1060" cy="295.9551" fill="#84BE84" rx="3" ry="3" style="stroke: #038048; stroke-width: 1.0;"/><text fill="#000000" font-family="sans-serif" font-size="11" font-style="italic" lengthAdjust="spacingAndGlyphs" textLength="238" x="1069" y="299.5898">deliverMessage(Class&lt;TOPIC&gt;, TOPIC): void</text></a><!--MD5=[62953f3274c3ac701afc145194e77a54]
class it.tidalwave.messagebus.spi.MultiQueue--><a href="MultiQueue.html" target="_top" title="MultiQueue.html" xlink:actuate="onRequest" xlink:href="MultiQueue.html" xlink:show="new" xlink:title="MultiQueue.html" xlink:type="simple"><rect codeLine="8" fill="#FEFECE" filter="url(#f3l4g575tbcwp)" height="73.9102" id="it.tidalwave.messagebus.spi.MultiQueue" style="stroke: #A80036; stroke-width: 1.5;" width="229" x="784.5" y="232"/><ellipse cx="862.75" cy="248" fill="#ADD1B2" rx="11" ry="11" style="stroke: #A80036; stroke-width: 1.0;"/><path d="M865.2231,254.1431 Q864.6421,254.4419 864.0029,254.5913 Q863.3638,254.7407 862.6582,254.7407 Q860.1514,254.7407 858.8315,253.0889 Q857.5117,251.437 857.5117,248.3159 Q857.5117,245.1865 858.8315,243.5347 Q860.1514,241.8828 862.6582,241.8828 Q863.3638,241.8828 864.0112,242.0322 Q864.6587,242.1816 865.2231,242.4805 L865.2231,245.2031 Q864.5923,244.6221 863.9988,244.3523 Q863.4053,244.0825 862.7744,244.0825 Q861.4297,244.0825 860.7449,245.1492 Q860.0601,246.2158 860.0601,248.3159 Q860.0601,250.4077 860.7449,251.4744 Q861.4297,252.541 862.7744,252.541 Q863.4053,252.541 863.9988,252.2712 Q864.5923,252.0015 865.2231,251.4204 Z "/><text fill="#000000" font-family="sans-serif" font-size="12" lengthAdjust="spacingAndGlyphs" textLength="64" x="883.25" y="252.5352">MultiQueue</text><line style="stroke: #A80036; stroke-width: 1.5;" x1="785.5" x2="1012.5" y1="264" y2="264"/><line style="stroke: #A80036; stroke-width: 1.5;" x1="785.5" x2="1012.5" y1="272" y2="272"/><ellipse cx="795.5" cy="283" fill="#84BE84" rx="3" ry="3" style="stroke: #038048; stroke-width: 1.0;"/><text fill="#000000" font-family="sans-serif" font-size="11" lengthAdjust="spacingAndGlyphs" textLength="176" x="804.5" y="286.6348">add(Class&lt;TOPIC&gt;, TOPIC): void</text><ellipse cx="795.5" cy="295.9551" fill="#84BE84" rx="3" ry="3" style="stroke: #038048; stroke-width: 1.0;"/><text fill="#000000" font-family="sans-serif" font-size="11" lengthAdjust="spacingAndGlyphs" textLength="203" x="804.5" y="299.5898">remove(): TopicAndMessage&lt;TOPIC&gt;</text></a><!--MD5=[3524ccc2f3bbcf0d7b37c2974be7421a]
class it.tidalwave.messagebus.spi.RoundRobinAsyncMessageDelivery--><a href="RoundRobinAsyncMessageDelivery.html" target="_top" title="RoundRobinAsyncMessageDelivery.html" xlink:actuate="onRequest" xlink:href="RoundRobinAsyncMessageDelivery.html" xlink:show="new" xlink:title="RoundRobinAsyncMessageDelivery.html" xlink:type="simple"><rect codeLine="13" fill="#FEFECE" filter="url(#f3l4g575tbcwp)" height="73.9102" id="it.tidalwave.messagebus.spi.RoundRobinAsyncMessageDelivery" style="stroke: #A80036; stroke-width: 1.5;" width="264" x="750" y="405"/><ellipse cx="779.85" cy="421" fill="#ADD1B2" rx="11" ry="11" style="stroke: #A80036; stroke-width: 1.0;"/><path d="M782.3231,427.1431 Q781.7421,427.4419 781.1029,427.5913 Q780.4638,427.7407 779.7582,427.7407 Q777.2514,427.7407 775.9315,426.0889 Q774.6117,424.437 774.6117,421.3159 Q774.6117,418.1865 775.9315,416.5347 Q777.2514,414.8828 779.7582,414.8828 Q780.4638,414.8828 781.1112,415.0322 Q781.7587,415.1816 782.3231,415.4805 L782.3231,418.2031 Q781.6923,417.6221 781.0988,417.3523 Q780.5053,417.0825 779.8744,417.0825 Q778.5297,417.0825 777.8449,418.1492 Q777.1601,419.2158 777.1601,421.3159 Q777.1601,423.4077 777.8449,424.4744 Q778.5297,425.541 779.8744,425.541 Q780.5053,425.541 781.0988,425.2712 Q781.6923,425.0015 782.3231,424.4204 Z "/><text fill="#000000" font-family="sans-serif" font-size="12" lengthAdjust="spacingAndGlyphs" textLength="199" x="797.15" y="425.5352">RoundRobinAsyncMessageDelivery</text><line style="stroke: #A80036; stroke-width: 1.5;" x1="751" x2="1013" y1="437" y2="437"/><line style="stroke: #A80036; stroke-width: 1.5;" x1="751" x2="1013" y1="445" y2="445"/><ellipse cx="761" cy="456" fill="#84BE84" rx="3" ry="3" style="stroke: #038048; stroke-width: 1.0;"/><text fill="#000000" font-family="sans-serif" font-size="11" lengthAdjust="spacingAndGlyphs" textLength="181" x="770" y="459.6348">initialize(SimpleMessageBus): void</text><ellipse cx="761" cy="468.9551" fill="#84BE84" rx="3" ry="3" style="stroke: #038048; stroke-width: 1.0;"/><text fill="#000000" font-family="sans-serif" font-size="11" lengthAdjust="spacingAndGlyphs" textLength="238" x="770" y="472.5898">deliverMessage(Class&lt;TOPIC&gt;, TOPIC): void</text></a><!--MD5=[b5d7f310aaa443c74b49e7b556952ac1]
class it.tidalwave.messagebus.spi.SimpleAsyncMessageDelivery--><a href="SimpleAsyncMessageDelivery.html" target="_top" title="SimpleAsyncMessageDelivery.html" xlink:actuate="onRequest" xlink:href="SimpleAsyncMessageDelivery.html" xlink:show="new" xlink:title="SimpleAsyncMessageDelivery.html" xlink:type="simple"><rect codeLine="18" fill="#FEFECE" filter="url(#f3l4g575tbcwp)" height="73.9102" id="it.tidalwave.messagebus.spi.SimpleAsyncMessageDelivery" style="stroke: #A80036; stroke-width: 1.5;" width="264" x="1049" y="405"/><ellipse cx="1093.25" cy="421" fill="#ADD1B2" rx="11" ry="11" style="stroke: #A80036; stroke-width: 1.0;"/><path d="M1095.7231,427.1431 Q1095.1421,427.4419 1094.5029,427.5913 Q1093.8638,427.7407 1093.1582,427.7407 Q1090.6514,427.7407 1089.3315,426.0889 Q1088.0117,424.437 1088.0117,421.3159 Q1088.0117,418.1865 1089.3315,416.5347 Q1090.6514,414.8828 1093.1582,414.8828 Q1093.8638,414.8828 1094.5112,415.0322 Q1095.1587,415.1816 1095.7231,415.4805 L1095.7231,418.2031 Q1095.0923,417.6221 1094.4988,417.3523 Q1093.9053,417.0825 1093.2744,417.0825 Q1091.9297,417.0825 1091.2449,418.1492 Q1090.5601,419.2158 1090.5601,421.3159 Q1090.5601,423.4077 1091.2449,424.4744 Q1091.9297,425.541 1093.2744,425.541 Q1093.9053,425.541 1094.4988,425.2712 Q1095.0923,425.0015 1095.7231,424.4204 Z "/><text fill="#000000" font-family="sans-serif" font-size="12" lengthAdjust="spacingAndGlyphs" textLength="167" x="1113.75" y="425.5352">SimpleAsyncMessageDelivery</text><line style="stroke: #A80036; stroke-width: 1.5;" x1="1050" x2="1312" y1="437" y2="437"/><line style="stroke: #A80036; stroke-width: 1.5;" x1="1050" x2="1312" y1="445" y2="445"/><ellipse cx="1060" cy="456" fill="#84BE84" rx="3" ry="3" style="stroke: #038048; stroke-width: 1.0;"/><text fill="#000000" font-family="sans-serif" font-size="11" lengthAdjust="spacingAndGlyphs" textLength="181" x="1069" y="459.6348">initialize(SimpleMessageBus): void</text><ellipse cx="1060" cy="468.9551" fill="#84BE84" rx="3" ry="3" style="stroke: #038048; stroke-width: 1.0;"/><text fill="#000000" font-family="sans-serif" font-size="11" lengthAdjust="spacingAndGlyphs" textLength="238" x="1069" y="472.5898">deliverMessage(Class&lt;TOPIC&gt;, TOPIC): void</text></a><!--MD5=[5f63375c220a5e7e59111a05394ea0c1]
class it.tidalwave.messagebus.spi.SimpleMessageBus--><a href="SimpleMessageBus.html" target="_top" title="SimpleMessageBus.html" xlink:actuate="onRequest" xlink:href="SimpleMessageBus.html" xlink:show="new" xlink:title="SimpleMessageBus.html" xlink:type="simple"><rect codeLine="23" fill="#FEFECE" filter="url(#f3l4g575tbcwp)" height="151.6406" id="it.tidalwave.messagebus.spi.SimpleMessageBus" style="stroke: #A80036; stroke-width: 1.5;" width="296" x="453" y="193"/><ellipse cx="542.75" cy="209" fill="#ADD1B2" rx="11" ry="11" style="stroke: #A80036; stroke-width: 1.0;"/><path d="M545.2231,215.1431 Q544.6421,215.4419 544.0029,215.5913 Q543.3638,215.7407 542.6582,215.7407 Q540.1514,215.7407 538.8315,214.0889 Q537.5117,212.437 537.5117,209.3159 Q537.5117,206.1865 538.8315,204.5347 Q540.1514,202.8828 542.6582,202.8828 Q543.3638,202.8828 544.0112,203.0322 Q544.6587,203.1816 545.2231,203.4805 L545.2231,206.2031 Q544.5923,205.6221 543.9988,205.3523 Q543.4053,205.0825 542.7744,205.0825 Q541.4297,205.0825 540.7449,206.1492 Q540.0601,207.2158 540.0601,209.3159 Q540.0601,211.4077 540.7449,212.4744 Q541.4297,213.541 542.7744,213.541 Q543.4053,213.541 543.9988,213.2712 Q544.5923,213.0015 545.2231,212.4204 Z "/><text fill="#000000" font-family="sans-serif" font-size="12" lengthAdjust="spacingAndGlyphs" textLength="108" x="563.25" y="213.5352">SimpleMessageBus</text><line style="stroke: #A80036; stroke-width: 1.5;" x1="454" x2="748" y1="225" y2="225"/><line style="stroke: #A80036; stroke-width: 1.5;" x1="454" x2="748" y1="233" y2="233"/><ellipse cx="464" cy="244" fill="#84BE84" rx="3" ry="3" style="stroke: #038048; stroke-width: 1.0;"/><text fill="#000000" font-family="sans-serif" font-size="11" lengthAdjust="spacingAndGlyphs" textLength="108" x="473" y="247.6348">SimpleMessageBus()</text><ellipse cx="464" cy="256.9551" fill="#84BE84" rx="3" ry="3" style="stroke: #038048; stroke-width: 1.0;"/><text fill="#000000" font-family="sans-serif" font-size="11" lengthAdjust="spacingAndGlyphs" textLength="156" x="473" y="260.5898">SimpleMessageBus(Executor)</text><ellipse cx="464" cy="269.9102" fill="#84BE84" rx="3" ry="3" style="stroke: #038048; stroke-width: 1.0;"/><text fill="#000000" font-family="sans-serif" font-size="11" lengthAdjust="spacingAndGlyphs" textLength="251" x="473" y="273.5449">SimpleMessageBus(Executor, MessageDelivery)</text><ellipse cx="464" cy="282.8652" fill="#84BE84" rx="3" ry="3" style="stroke: #038048; stroke-width: 1.0;"/><text fill="#000000" font-family="sans-serif" font-size="11" lengthAdjust="spacingAndGlyphs" textLength="110" x="473" y="286.5">publish(TOPIC): void</text><ellipse cx="464" cy="295.8203" fill="#84BE84" rx="3" ry="3" style="stroke: #038048; stroke-width: 1.0;"/><text fill="#000000" font-family="sans-serif" font-size="11" lengthAdjust="spacingAndGlyphs" textLength="196" x="473" y="299.4551">publish(Class&lt;TOPIC&gt;, TOPIC): void</text><ellipse cx="464" cy="308.7754" fill="#84BE84" rx="3" ry="3" style="stroke: #038048; stroke-width: 1.0;"/><text fill="#000000" font-family="sans-serif" font-size="11" lengthAdjust="spacingAndGlyphs" textLength="270" x="473" y="312.4102">subscribe(Class&lt;TOPIC&gt;, Listener&lt;TOPIC&gt;): void</text><ellipse cx="464" cy="321.7305" fill="#84BE84" rx="3" ry="3" style="stroke: #038048; stroke-width: 1.0;"/><text fill="#000000" font-family="sans-serif" font-size="11" lengthAdjust="spacingAndGlyphs" textLength="170" x="473" y="325.3652">unsubscribe(Listener&lt;?&gt;): void</text><polygon fill="#FFFF44" points="464,329.6855,468,333.6855,464,337.6855,460,333.6855" style="stroke: #B38D22; stroke-width: 1.0;"/><text fill="#000000" font-family="sans-serif" font-size="11" lengthAdjust="spacingAndGlyphs" textLength="248" x="473" y="338.3203">dispatchMessage(Class&lt;TOPIC&gt;, TOPIC): void</text></a><!--MD5=[84dfc94921fc2aa4c43b60c35529c8c2]
class it.tidalwave.messagebus.spi.ReflectionUtils--><a href="ReflectionUtils.html" target="_top" title="ReflectionUtils.html" xlink:actuate="onRequest" xlink:href="ReflectionUtils.html" xlink:show="new" xlink:title="ReflectionUtils.html" xlink:type="simple"><rect codeLine="34" fill="#FEFECE" filter="url(#f3l4g575tbcwp)" height="86.8652" id="it.tidalwave.messagebus.spi.ReflectionUtils" style="stroke: #A80036; stroke-width: 1.5;" width="394" x="24" y="225.5"/><ellipse cx="176.75" cy="241.5" fill="#ADD1B2" rx="11" ry="11" style="stroke: #A80036; stroke-width: 1.0;"/><path d="M179.2231,247.6431 Q178.6421,247.9419 178.0029,248.0913 Q177.3638,248.2407 176.6582,248.2407 Q174.1514,248.2407 172.8315,246.5889 Q171.5117,244.937 171.5117,241.8159 Q171.5117,238.6865 172.8315,237.0347 Q174.1514,235.3828 176.6582,235.3828 Q177.3638,235.3828 178.0112,235.5322 Q178.6587,235.6816 179.2231,235.9805 L179.2231,238.7031 Q178.5923,238.1221 177.9988,237.8523 Q177.4053,237.5825 176.7744,237.5825 Q175.4297,237.5825 174.7449,238.6492 Q174.0601,239.7158 174.0601,241.8159 Q174.0601,243.9077 174.7449,244.9744 Q175.4297,246.041 176.7744,246.041 Q177.4053,246.041 177.9988,245.7712 Q178.5923,245.5015 179.2231,244.9204 Z "/><text fill="#000000" font-family="sans-serif" font-size="12" lengthAdjust="spacingAndGlyphs" textLength="80" x="197.25" y="246.0352">ReflectionUtils</text><line style="stroke: #A80036; stroke-width: 1.5;" x1="25" x2="417" y1="257.5" y2="257.5"/><line style="stroke: #A80036; stroke-width: 1.5;" x1="25" x2="417" y1="265.5" y2="265.5"/><ellipse cx="35" cy="276.5" fill="#84BE84" rx="3" ry="3" style="stroke: #038048; stroke-width: 1.0;"/><text fill="#000000" font-family="sans-serif" font-size="11" lengthAdjust="spacingAndGlyphs" text-decoration="underline" textLength="366" x="44" y="280.1348">forEachMethodInTopDownHierarchy(Object, MethodProcessor): void</text><ellipse cx="35" cy="289.4551" fill="#84BE84" rx="3" ry="3" style="stroke: #038048; stroke-width: 1.0;"/><text fill="#000000" font-family="sans-serif" font-size="11" lengthAdjust="spacingAndGlyphs" text-decoration="underline" textLength="368" x="44" y="293.0898">forEachMethodInBottomUpHierarchy(Object, MethodProcessor): void</text><ellipse cx="35" cy="302.4102" fill="#84BE84" rx="3" ry="3" style="stroke: #038048; stroke-width: 1.0;"/><text fill="#000000" font-family="sans-serif" font-size="11" lengthAdjust="spacingAndGlyphs" text-decoration="underline" textLength="289" x="44" y="306.0449">containsAnnotation(Annotation[], Class&lt;?&gt;): boolean</text></a><!--MD5=[96f181f1e7052bccee7d3fe3d1061377]
class it.tidalwave.messagebus.spi.ReflectionUtils.MethodProcessor--><a href="ReflectionUtils.MethodProcessor.html" target="_top" title="ReflectionUtils.MethodProcessor.html" xlink:actuate="onRequest" xlink:href="ReflectionUtils.MethodProcessor.html" xlink:show="new" xlink:title="ReflectionUtils.MethodProcessor.html" xlink:type="simple"><rect codeLine="40" fill="#FEFECE" filter="url(#f3l4g575tbcwp)" height="73.9102" id="it.tidalwave.messagebus.spi.ReflectionUtils.MethodProcessor" style="stroke: #A80036; stroke-width: 1.5;" width="215" x="113.5" y="405"/><ellipse cx="128.5" cy="421" fill="#B4A7E5" rx="11" ry="11" style="stroke: #A80036; stroke-width: 1.0;"/><path d="M124.9277,417.2651 L124.9277,415.1069 L132.3071,415.1069 L132.3071,417.2651 L129.8418,417.2651 L129.8418,425.3418 L132.3071,425.3418 L132.3071,427.5 L124.9277,427.5 L124.9277,425.3418 L127.3931,425.3418 L127.3931,417.2651 Z "/><text fill="#000000" font-family="sans-serif" font-size="12" font-style="italic" lengthAdjust="spacingAndGlyphs" textLength="183" x="142.5" y="425.5352">ReflectionUtils.MethodProcessor</text><line style="stroke: #A80036; stroke-width: 1.5;" x1="114.5" x2="327.5" y1="437" y2="437"/><line style="stroke: #A80036; stroke-width: 1.5;" x1="114.5" x2="327.5" y1="445" y2="445"/><ellipse cx="124.5" cy="456" fill="#84BE84" rx="3" ry="3" style="stroke: #038048; stroke-width: 1.0;"/><text fill="#000000" font-family="sans-serif" font-size="11" font-style="italic" lengthAdjust="spacingAndGlyphs" textLength="151" x="133.5" y="459.6348">filter(Class&lt;?&gt;): FilterResult</text><ellipse cx="124.5" cy="468.9551" fill="#84BE84" rx="3" ry="3" style="stroke: #038048; stroke-width: 1.0;"/><text fill="#000000" font-family="sans-serif" font-size="11" font-style="italic" lengthAdjust="spacingAndGlyphs" textLength="120" x="133.5" y="472.5898">process(Method): void</text></a><!--MD5=[898c3fa715c9537c42935eb6b026b52f]
class it.tidalwave.messagebus.spi.ReflectionUtils.MethodProcessor.FilterResult--><a href="ReflectionUtils.MethodProcessor.FilterResult.html" target="_top" title="ReflectionUtils.MethodProcessor.FilterResult.html" xlink:actuate="onRequest" xlink:href="ReflectionUtils.MethodProcessor.FilterResult.html" xlink:show="new" xlink:title="ReflectionUtils.MethodProcessor.FilterResult.html" xlink:type="simple"><rect codeLine="45" fill="#FEFECE" filter="url(#f3l4g575tbcwp)" height="73.9102" id="it.tidalwave.messagebus.spi.ReflectionUtils.MethodProcessor.FilterResult" style="stroke: #A80036; stroke-width: 1.5;" width="282" x="24" y="539"/><ellipse cx="39" cy="555" fill="#EB937F" rx="11" ry="11" style="stroke: #A80036; stroke-width: 1.0;"/><path d="M42.6143,561.5 L34.8945,561.5 L34.8945,549.1069 L42.6143,549.1069 L42.6143,551.2651 L37.3433,551.2651 L37.3433,553.938 L42.1162,553.938 L42.1162,556.0962 L37.3433,556.0962 L37.3433,559.3418 L42.6143,559.3418 Z "/><text fill="#000000" font-family="sans-serif" font-size="12" lengthAdjust="spacingAndGlyphs" textLength="250" x="53" y="559.5352">ReflectionUtils.MethodProcessor.FilterResult</text><line style="stroke: #A80036; stroke-width: 1.5;" x1="25" x2="305" y1="571" y2="571"/><ellipse cx="35" cy="582" fill="none" rx="3" ry="3" style="stroke: #038048; stroke-width: 1.0;"/><text fill="#000000" font-family="sans-serif" font-size="11" lengthAdjust="spacingAndGlyphs" text-decoration="underline" textLength="43" x="44" y="585.6348">ACCEPT</text><ellipse cx="35" cy="594.9551" fill="none" rx="3" ry="3" style="stroke: #038048; stroke-width: 1.0;"/><text fill="#000000" font-family="sans-serif" font-size="11" lengthAdjust="spacingAndGlyphs" text-decoration="underline" textLength="41" x="44" y="598.5898">IGNORE</text><line style="stroke: #A80036; stroke-width: 1.5;" x1="25" x2="305" y1="604.9102" y2="604.9102"/></a><!--MD5=[a8fcd7b9c5800cab5c8f479fdc481e8f]
class it.tidalwave.messagebus.spi.ReflectionUtils.MethodProcessorSupport--><a href="ReflectionUtils.MethodProcessorSupport.html" target="_top" title="ReflectionUtils.MethodProcessorSupport.html" xlink:actuate="onRequest" xlink:href="ReflectionUtils.MethodProcessorSupport.html" xlink:show="new" xlink:title="ReflectionUtils.MethodProcessorSupport.html" xlink:type="simple"><rect codeLine="50" fill="#FEFECE" filter="url(#f3l4g575tbcwp)" height="73.9102" id="it.tidalwave.messagebus.spi.ReflectionUtils.MethodProcessorSupport" style="stroke: #A80036; stroke-width: 1.5;" width="260" x="341" y="539"/><ellipse cx="356" cy="555" fill="#ADD1B2" rx="11" ry="11" style="stroke: #A80036; stroke-width: 1.0;"/><path d="M358.4731,561.1431 Q357.8921,561.4419 357.2529,561.5913 Q356.6138,561.7407 355.9082,561.7407 Q353.4014,561.7407 352.0815,560.0889 Q350.7617,558.437 350.7617,555.3159 Q350.7617,552.1865 352.0815,550.5347 Q353.4014,548.8828 355.9082,548.8828 Q356.6138,548.8828 357.2612,549.0322 Q357.9087,549.1816 358.4731,549.4805 L358.4731,552.2031 Q357.8423,551.6221 357.2488,551.3523 Q356.6553,551.0825 356.0244,551.0825 Q354.6797,551.0825 353.9949,552.1492 Q353.3101,553.2158 353.3101,555.3159 Q353.3101,557.4077 353.9949,558.4744 Q354.6797,559.541 356.0244,559.541 Q356.6553,559.541 357.2488,559.2712 Q357.8423,559.0015 358.4731,558.4204 Z "/><text fill="#000000" font-family="sans-serif" font-size="12" lengthAdjust="spacingAndGlyphs" textLength="228" x="370" y="559.5352">ReflectionUtils.MethodProcessorSupport</text><line style="stroke: #A80036; stroke-width: 1.5;" x1="342" x2="600" y1="571" y2="571"/><line style="stroke: #A80036; stroke-width: 1.5;" x1="342" x2="600" y1="579" y2="579"/><ellipse cx="352" cy="590" fill="#84BE84" rx="3" ry="3" style="stroke: #038048; stroke-width: 1.0;"/><text fill="#000000" font-family="sans-serif" font-size="11" lengthAdjust="spacingAndGlyphs" textLength="151" x="361" y="593.6348">filter(Class&lt;?&gt;): FilterResult</text><ellipse cx="352" cy="602.9551" fill="#84BE84" rx="3" ry="3" style="stroke: #038048; stroke-width: 1.0;"/><text fill="#000000" font-family="sans-serif" font-size="11" lengthAdjust="spacingAndGlyphs" textLength="120" x="361" y="606.5898">process(Method): void</text></a><!--MD5=[4b7502cfe6ab48c04fed4eeb9239f3a0]
class it.tidalwave.messagebus.MessageBus--><a href="../MessageBus.html" target="_top" title="../MessageBus.html" xlink:actuate="onRequest" xlink:href="../MessageBus.html" xlink:show="new" xlink:title="../MessageBus.html" xlink:type="simple"><rect codeLine="65" fill="#FEFECE" filter="url(#f3l4g575tbcwp)" height="99.8203" id="it.tidalwave.messagebus.MessageBus" style="stroke: #A80036; stroke-width: 1.5;" width="296" x="453" y="33"/><ellipse cx="561.75" cy="49" fill="#B4A7E5" rx="11" ry="11" style="stroke: #A80036; stroke-width: 1.0;"/><path d="M558.1777,45.2651 L558.1777,43.1069 L565.5571,43.1069 L565.5571,45.2651 L563.0918,45.2651 L563.0918,53.3418 L565.5571,53.3418 L565.5571,55.5 L558.1777,55.5 L558.1777,53.3418 L560.6431,53.3418 L560.6431,45.2651 Z "/><text fill="#000000" font-family="sans-serif" font-size="12" font-style="italic" lengthAdjust="spacingAndGlyphs" textLength="70" x="582.25" y="53.5352">MessageBus</text><line style="stroke: #A80036; stroke-width: 1.5;" x1="454" x2="748" y1="65" y2="65"/><line style="stroke: #A80036; stroke-width: 1.5;" x1="454" x2="748" y1="73" y2="73"/><ellipse cx="464" cy="84" fill="#84BE84" rx="3" ry="3" style="stroke: #038048; stroke-width: 1.0;"/><text fill="#000000" font-family="sans-serif" font-size="11" font-style="italic" lengthAdjust="spacingAndGlyphs" textLength="110" x="473" y="87.6348">publish(TOPIC): void</text><ellipse cx="464" cy="96.9551" fill="#84BE84" rx="3" ry="3" style="stroke: #038048; stroke-width: 1.0;"/><text fill="#000000" font-family="sans-serif" font-size="11" font-style="italic" lengthAdjust="spacingAndGlyphs" textLength="196" x="473" y="100.5898">publish(Class&lt;TOPIC&gt;, TOPIC): void</text><ellipse cx="464" cy="109.9102" fill="#84BE84" rx="3" ry="3" style="stroke: #038048; stroke-width: 1.0;"/><text fill="#000000" font-family="sans-serif" font-size="11" font-style="italic" lengthAdjust="spacingAndGlyphs" textLength="270" x="473" y="113.5449">subscribe(Class&lt;TOPIC&gt;, Listener&lt;TOPIC&gt;): void</text><ellipse cx="464" cy="122.8652" fill="#84BE84" rx="3" ry="3" style="stroke: #038048; stroke-width: 1.0;"/><text fill="#000000" font-family="sans-serif" font-size="11" font-style="italic" lengthAdjust="spacingAndGlyphs" textLength="170" x="473" y="126.5">unsubscribe(Listener&lt;?&gt;): void</text></a><!--MD5=[7e6ed0c7eb87aa512bb8556ca06f71f5]
reverse link it.tidalwave.messagebus.spi.MessageDelivery to it.tidalwave.messagebus.spi.RoundRobinAsyncMessageDelivery--><path codeLine="55" d="M1099.3367,316.25 C1051.0756,344.1737 990.8448,379.0229 946.0369,404.9485 " fill="none" id="it.tidalwave.messagebus.spi.MessageDelivery-backto-it.tidalwave.messagebus.spi.RoundRobinAsyncMessageDelivery" style="stroke: #A80036; stroke-width: 1.0; stroke-dasharray: 7.0,7.0;"/><polygon fill="none" points="1096.0401,310.0701,1116.857,306.1128,1103.0515,322.188,1096.0401,310.0701" style="stroke: #A80036; stroke-width: 1.0;"/><!--MD5=[c6d421c66a91960dc148e6d5a5dff037]
reverse link it.tidalwave.messagebus.spi.MessageDelivery to it.tidalwave.messagebus.spi.SimpleAsyncMessageDelivery--><path codeLine="56" d="M1181,326.2648 C1181,352.1713 1181,382.0428 1181,404.9485 " fill="none" id="it.tidalwave.messagebus.spi.MessageDelivery-backto-it.tidalwave.messagebus.spi.SimpleAsyncMessageDelivery" style="stroke: #A80036; stroke-width: 1.0; stroke-dasharray: 7.0,7.0;"/><polygon fill="none" points="1174.0001,326.1129,1181,306.1128,1188.0001,326.1128,1174.0001,326.1129" style="stroke: #A80036; stroke-width: 1.0;"/><!--MD5=[dac5fa958b4ba3feb71c204fbd0564ef]
reverse link it.tidalwave.messagebus.MessageBus to it.tidalwave.messagebus.spi.SimpleMessageBus--><path codeLine="57" d="M601,153.4978 C601,166.328 601,179.7661 601,192.7534 " fill="none" id="it.tidalwave.messagebus.MessageBus-backto-it.tidalwave.messagebus.spi.SimpleMessageBus" style="stroke: #A80036; stroke-width: 1.0; stroke-dasharray: 7.0,7.0;"/><polygon fill="none" points="594.0001,153.3343,601,133.3343,608.0001,153.3342,594.0001,153.3343" style="stroke: #A80036; stroke-width: 1.0;"/><!--MD5=[a0f2abbf64cec9c1acc031284cf37c90]
reverse link it.tidalwave.messagebus.spi.ReflectionUtils to it.tidalwave.messagebus.spi.ReflectionUtils.MethodProcessor--><path codeLine="58" d="M221,327.9543 C221,353.409 221,382.4172 221,404.8075 " fill="none" id="it.tidalwave.messagebus.spi.ReflectionUtils-backto-it.tidalwave.messagebus.spi.ReflectionUtils.MethodProcessor" style="stroke: #A80036; stroke-width: 1.0;"/><ellipse cx="221" cy="320.6552" fill="#FFFFFF" rx="8" ry="8" style="stroke: #A80036; stroke-width: 1.0;"/><line style="stroke: #A80036; stroke-width: 1.0;" x1="221" x2="221" y1="328.6552" y2="312.6552"/><line style="stroke: #A80036; stroke-width: 1.0;" x1="213" x2="229" y1="320.6552" y2="320.6552"/><!--MD5=[69890097a5209350340d5591db699472]
reverse link it.tidalwave.messagebus.spi.ReflectionUtils.MethodProcessor to it.tidalwave.messagebus.spi.ReflectionUtils.MethodProcessor.FilterResult--><path codeLine="59" d="M199.5223,493.3931 C193.193,508.5383 186.3928,524.8101 180.5155,538.8737 " fill="none" id="it.tidalwave.messagebus.spi.ReflectionUtils.MethodProcessor-backto-it.tidalwave.messagebus.spi.ReflectionUtils.MethodProcessor.FilterResult" style="stroke: #A80036; stroke-width: 1.0;"/><ellipse cx="202.3161" cy="486.7078" fill="#FFFFFF" rx="8" ry="8" style="stroke: #A80036; stroke-width: 1.0;"/><line style="stroke: #A80036; stroke-width: 1.0;" x1="199.2313" x2="205.4009" y1="494.0892" y2="479.3265"/><line style="stroke: #A80036; stroke-width: 1.0;" x1="194.9348" x2="209.6974" y1="483.623" y2="489.7926"/><!--MD5=[176bf7bd3573161464e34941ad5a4fb5]
reverse link it.tidalwave.messagebus.spi.ReflectionUtils.MethodProcessor to it.tidalwave.messagebus.spi.ReflectionUtils.MethodProcessorSupport--><path codeLine="60" d="M308.3234,488.8053 C338.8516,505.1684 372.6871,523.3043 401.5582,538.7792 " fill="none" id="it.tidalwave.messagebus.spi.ReflectionUtils.MethodProcessor-backto-it.tidalwave.messagebus.spi.ReflectionUtils.MethodProcessorSupport" style="stroke: #A80036; stroke-width: 1.0; stroke-dasharray: 7.0,7.0;"/><polygon fill="none" points="304.6275,494.7665,290.3069,479.1485,311.2414,482.4273,304.6275,494.7665" style="stroke: #A80036; stroke-width: 1.0;"/><!--MD5=[be8e3b0469b3e5bee9fd79e6a191387a]
reverse link it.tidalwave.messagebus.spi.ReflectionUtils to it.tidalwave.messagebus.spi.ReflectionUtils.MethodProcessorSupport--><path codeLine="61" d="M273.9193,323.7462 C296.7436,348.0697 323.3429,377.3939 346,405 C382.511,449.4862 421.0969,503.4876 445.5758,538.7448 " fill="none" id="it.tidalwave.messagebus.spi.ReflectionUtils-backto-it.tidalwave.messagebus.spi.ReflectionUtils.MethodProcessorSupport" style="stroke: #A80036; stroke-width: 1.0;"/><ellipse cx="268.8818" cy="318.4101" fill="#FFFFFF" rx="8" ry="8" style="stroke: #A80036; stroke-width: 1.0;"/><line style="stroke: #A80036; stroke-width: 1.0;" x1="274.3735" x2="263.39" y1="324.2273" y2="312.5928"/><line style="stroke: #A80036; stroke-width: 1.0;" x1="263.0645" x2="274.699" y1="323.9018" y2="312.9183"/><text fill="#888888" font-family="sans-serif" font-size="10" lengthAdjust="spacingAndGlyphs" textLength="188" x="568.5" y="636.668">UMLDoclet 2.0.12, PlantUML 1.2020.16</text><!--MD5=[31152a9379d2d2e630e5dc96a7fb1daf]
@startuml
    namespace it.tidalwave.messagebus.spi {

        interface MessageDelivery [[MessageDelivery.html]] {
            {abstract} +initialize(SimpleMessageBus): void
            {abstract} +deliverMessage(Class<TOPIC>, TOPIC): void
        }

        class MultiQueue [[MultiQueue.html]] {
            +add(Class<TOPIC>, TOPIC): void
            +remove(): TopicAndMessage<TOPIC>
        }

        class RoundRobinAsyncMessageDelivery [[RoundRobinAsyncMessageDelivery.html]] {
            +initialize(SimpleMessageBus): void
            +deliverMessage(Class<TOPIC>, TOPIC): void
        }

        class SimpleAsyncMessageDelivery [[SimpleAsyncMessageDelivery.html]] {
            +initialize(SimpleMessageBus): void
            +deliverMessage(Class<TOPIC>, TOPIC): void
        }

        class SimpleMessageBus [[SimpleMessageBus.html]] {
            +SimpleMessageBus()
            +SimpleMessageBus(Executor)
            +SimpleMessageBus(Executor, MessageDelivery)
            +publish(TOPIC): void
            +publish(Class<TOPIC>, TOPIC): void
            +subscribe(Class<TOPIC>, Listener<TOPIC>): void
            +unsubscribe(Listener<?>): void
            #dispatchMessage(Class<TOPIC>, TOPIC): void
        }

        class ReflectionUtils [[ReflectionUtils.html]] {
            {static} +forEachMethodInTopDownHierarchy(Object, MethodProcessor): void
            {static} +forEachMethodInBottomUpHierarchy(Object, MethodProcessor): void
            {static} +containsAnnotation(Annotation[], Class<?>): boolean
        }

        interface it.tidalwave.messagebus.spi.ReflectionUtils.MethodProcessor [[ReflectionUtils.MethodProcessor.html]] {
            {abstract} +filter(Class<?>): FilterResult
            {abstract} +process(Method): void
        }

        enum it.tidalwave.messagebus.spi.ReflectionUtils.MethodProcessor.FilterResult [[ReflectionUtils.MethodProcessor.FilterResult.html]] {
            {static} +ACCEPT
            {static} +IGNORE
        }

        class it.tidalwave.messagebus.spi.ReflectionUtils.MethodProcessorSupport [[ReflectionUtils.MethodProcessorSupport.html]] {
            +filter(Class<?>): FilterResult
            +process(Method): void
        }

        MessageDelivery <|.. RoundRobinAsyncMessageDelivery
        MessageDelivery <|.. SimpleAsyncMessageDelivery
        it.tidalwave.messagebus.MessageBus <|.. SimpleMessageBus
        ReflectionUtils +- - it.tidalwave.messagebus.spi.ReflectionUtils.MethodProcessor
        it.tidalwave.messagebus.spi.ReflectionUtils.MethodProcessor +- - it.tidalwave.messagebus.spi.ReflectionUtils.MethodProcessor.FilterResult
        it.tidalwave.messagebus.spi.ReflectionUtils.MethodProcessor <|.. it.tidalwave.messagebus.spi.ReflectionUtils.MethodProcessorSupport
        ReflectionUtils +- - it.tidalwave.messagebus.spi.ReflectionUtils.MethodProcessorSupport
    }

    namespace it.tidalwave.messagebus {
        interface MessageBus [[../MessageBus.html]] {
            {abstract} +publish(TOPIC): void
            {abstract} +publish(Class<TOPIC>, TOPIC): void
            {abstract} +subscribe(Class<TOPIC>, Listener<TOPIC>): void
            {abstract} +unsubscribe(Listener<?>): void
        }
    }

    center footer UMLDoclet 2.0.12, PlantUML 1.2020.16
@enduml

PlantUML version 1.2020.16(Sun Aug 23 22:20:43 CEST 2020)
(APACHE source distribution)
Java Runtime: OpenJDK Runtime Environment
JVM: OpenJDK 64-Bit Server VM
Default Encoding: UTF-8
Language: en
Country: GB
--></g></svg>