@startuml
    set namespaceSeparator none
    hide empty fields
    hide empty methods

    interface "<size:14>ResourceProperties.PropertyResolver\n<size:10>it.tidalwave.northernwind.core.model" as it.tidalwave.northernwind.core.model.ResourceProperties.PropertyResolver [[ResourceProperties.PropertyResolver.html]] {
        {static} +DEFAULT: PropertyResolver
        {abstract} +resolveProperty(Id, Key<T>): T
    }

    interface "<size:14>ResourceProperties\n<size:10>it.tidalwave.northernwind.core.model" as it.tidalwave.northernwind.core.model.ResourceProperties [[ResourceProperties.html]] {
        {abstract} +getProperty(Key<T>): Optional<T>
        {abstract} +getGroup(Id): ResourceProperties
        {abstract} +getKeys(): Collection<Key<?>>
        {abstract} +getGroupIds(): Collection<Id>
        {abstract} +withProperty(Key<T>, T): ResourceProperties
        {abstract} +withoutProperty(Key<?>): ResourceProperties
        {abstract} +withProperties(ResourceProperties): ResourceProperties
        {abstract} +merged(ResourceProperties): ResourceProperties
        {abstract} +withId(Id): ResourceProperties
    }

    it.tidalwave.northernwind.core.model.ResourceProperties +-- it.tidalwave.northernwind.core.model.ResourceProperties.PropertyResolver

    center footer UMLDoclet 2.0.12, PlantUML 1.2020.16
@enduml
