<?xml version="1.0" encoding="UTF-8" standalone="no"?><svg xmlns="http://www.w3.org/2000/svg" xmlns:xlink="http://www.w3.org/1999/xlink" contentScriptType="application/ecmascript" contentStyleType="text/css" height="364px" preserveAspectRatio="none" style="width:410px;height:364px;" version="1.1" viewBox="0 0 410 364" width="410px" zoomAndPan="magnify"><defs><filter height="300%" id="f2orjgolc2ssr" width="300%" x="-1" y="-1"><feGaussianBlur result="blurOut" stdDeviation="2.0"/><feColorMatrix in="blurOut" result="blurOut2" type="matrix" values="0 0 0 0 0 0 0 0 0 0 0 0 0 0 0 0 0 0 .4 0"/><feOffset dx="4.0" dy="4.0" in="blurOut2" result="blurOut3"/><feBlend in="SourceGraphic" in2="blurOut3" mode="normal"/></filter></defs><g><!--MD5=[6db788adbd1a285f84a4732524827450]
class it.tidalwave.role.ContextManager.Locator--><a href="ContextManager.Locator.html" target="_top" title="ContextManager.Locator.html" xlink:actuate="onRequest" xlink:href="ContextManager.Locator.html" xlink:show="new" xlink:title="ContextManager.Locator.html" xlink:type="simple"><rect codeLine="5" fill="#FEFECE" filter="url(#f2orjgolc2ssr)" height="85.1309" id="it.tidalwave.role.ContextManager.Locator" style="stroke: #A80036; stroke-width: 1.5;" width="213" x="92.5" y="243"/><ellipse cx="112.45" cy="262.1328" fill="#ADD1B2" rx="11" ry="11" style="stroke: #A80036; stroke-width: 1.0;"/><path d="M114.9231,268.2759 Q114.3421,268.5747 113.7029,268.7241 Q113.0638,268.8735 112.3582,268.8735 Q109.8514,268.8735 108.5315,267.2217 Q107.2117,265.5698 107.2117,262.4487 Q107.2117,259.3193 108.5315,257.6675 Q109.8514,256.0156 112.3582,256.0156 Q113.0638,256.0156 113.7112,256.165 Q114.3587,256.3145 114.9231,256.6133 L114.9231,259.3359 Q114.2923,258.7549 113.6988,258.4851 Q113.1053,258.2153 112.4744,258.2153 Q111.1297,258.2153 110.4449,259.282 Q109.7601,260.3486 109.7601,262.4487 Q109.7601,264.5405 110.4449,265.6072 Q111.1297,266.6738 112.4744,266.6738 Q113.1053,266.6738 113.6988,266.4041 Q114.2923,266.1343 114.9231,265.5532 Z "/><text fill="#000000" font-family="sans-serif" font-size="14" lengthAdjust="spacingAndGlyphs" textLength="170" x="127.55" y="261.5352">ContextManager.Locator</text><text fill="#000000" font-family="sans-serif" font-size="10" lengthAdjust="spacingAndGlyphs" textLength="79" x="173.05" y="274.1563">it.tidalwave.role</text><line style="stroke: #A80036; stroke-width: 1.5;" x1="93.5" x2="304.5" y1="281.2656" y2="281.2656"/><ellipse cx="103.5" cy="292.2656" fill="#84BE84" rx="3" ry="3" style="stroke: #038048; stroke-width: 1.0;"/><text fill="#000000" font-family="sans-serif" font-size="11" lengthAdjust="spacingAndGlyphs" text-decoration="underline" textLength="124" x="112.5" y="295.9004">find(): ContextManager</text><ellipse cx="103.5" cy="305.2207" fill="#84BE84" rx="3" ry="3" style="stroke: #038048; stroke-width: 1.0;"/><text fill="#000000" font-family="sans-serif" font-size="11" lengthAdjust="spacingAndGlyphs" text-decoration="underline" textLength="187" x="112.5" y="308.8555">set(ContextManagerProvider): void</text><ellipse cx="103.5" cy="318.1758" fill="#84BE84" rx="3" ry="3" style="stroke: #038048; stroke-width: 1.0;"/><text fill="#000000" font-family="sans-serif" font-size="11" lengthAdjust="spacingAndGlyphs" text-decoration="underline" textLength="64" x="112.5" y="321.8105">reset(): void</text></a><!--MD5=[1cffb8c88bcf61fc476fe06494225e45]
class it.tidalwave.role.ContextManager--><a href="ContextManager.html" target="_top" title="ContextManager.html" xlink:actuate="onRequest" xlink:href="ContextManager.html" xlink:show="new" xlink:title="ContextManager.html" xlink:type="simple"><rect codeLine="11" fill="#FEFECE" filter="url(#f2orjgolc2ssr)" height="175.8164" id="it.tidalwave.role.ContextManager" style="stroke: #A80036; stroke-width: 1.5;" width="384" x="7" y="7"/><ellipse cx="137.25" cy="26.1328" fill="#B4A7E5" rx="11" ry="11" style="stroke: #A80036; stroke-width: 1.0;"/><path d="M133.6777,22.3979 L133.6777,20.2397 L141.0571,20.2397 L141.0571,22.3979 L138.5918,22.3979 L138.5918,30.4746 L141.0571,30.4746 L141.0571,32.6328 L133.6777,32.6328 L133.6777,30.4746 L136.1431,30.4746 L136.1431,22.3979 Z "/><text fill="#000000" font-family="sans-serif" font-size="14" font-style="italic" lengthAdjust="spacingAndGlyphs" textLength="115" x="157.75" y="25.5352">ContextManager</text><text fill="#000000" font-family="sans-serif" font-size="10" font-style="italic" lengthAdjust="spacingAndGlyphs" textLength="79" x="175.75" y="38.1563">it.tidalwave.role</text><line style="stroke: #A80036; stroke-width: 1.5;" x1="8" x2="390" y1="45.2656" y2="45.2656"/><ellipse cx="18" cy="56.2656" fill="#84BE84" rx="3" ry="3" style="stroke: #038048; stroke-width: 1.0;"/><text fill="#000000" font-family="sans-serif" font-size="11" font-style="italic" lengthAdjust="spacingAndGlyphs" textLength="152" x="27" y="59.9004">getContexts(): List&lt;Object&gt;</text><ellipse cx="18" cy="69.2207" fill="#84BE84" rx="3" ry="3" style="stroke: #038048; stroke-width: 1.0;"/><text fill="#000000" font-family="sans-serif" font-size="11" font-style="italic" lengthAdjust="spacingAndGlyphs" textLength="178" x="27" y="72.8555">findContextOfType(Class&lt;T&gt;): T</text><ellipse cx="18" cy="82.1758" fill="#84BE84" rx="3" ry="3" style="stroke: #038048; stroke-width: 1.0;"/><text fill="#000000" font-family="sans-serif" font-size="11" font-style="italic" lengthAdjust="spacingAndGlyphs" textLength="169" x="27" y="85.8105">addGlobalContext(Object): void</text><ellipse cx="18" cy="95.1309" fill="#84BE84" rx="3" ry="3" style="stroke: #038048; stroke-width: 1.0;"/><text fill="#000000" font-family="sans-serif" font-size="11" font-style="italic" lengthAdjust="spacingAndGlyphs" textLength="189" x="27" y="98.7656">removeGlobalContext(Object): void</text><ellipse cx="18" cy="108.0859" fill="#84BE84" rx="3" ry="3" style="stroke: #038048; stroke-width: 1.0;"/><text fill="#000000" font-family="sans-serif" font-size="11" font-style="italic" lengthAdjust="spacingAndGlyphs" textLength="163" x="27" y="111.7207">addLocalContext(Object): void</text><ellipse cx="18" cy="121.041" fill="#84BE84" rx="3" ry="3" style="stroke: #038048; stroke-width: 1.0;"/><text fill="#000000" font-family="sans-serif" font-size="11" font-style="italic" lengthAdjust="spacingAndGlyphs" textLength="183" x="27" y="124.6758">removeLocalContext(Object): void</text><ellipse cx="18" cy="133.9961" fill="#84BE84" rx="3" ry="3" style="stroke: #038048; stroke-width: 1.0;"/><text fill="#000000" font-family="sans-serif" font-size="11" font-style="italic" lengthAdjust="spacingAndGlyphs" textLength="315" x="27" y="137.6309">runWithContext(Object, Task&lt;V, T extends Throwable&gt;): V</text><ellipse cx="18" cy="146.9512" fill="#84BE84" rx="3" ry="3" style="stroke: #038048; stroke-width: 1.0;"/><text fill="#000000" font-family="sans-serif" font-size="11" font-style="italic" lengthAdjust="spacingAndGlyphs" textLength="358" x="27" y="150.5859">runWithContexts(List&lt;Object&gt;, Task&lt;V, T extends Throwable&gt;): V</text><ellipse cx="18" cy="159.9063" fill="#84BE84" rx="3" ry="3" style="stroke: #038048; stroke-width: 1.0;"/><text fill="#000000" font-family="sans-serif" font-size="11" font-style="italic" lengthAdjust="spacingAndGlyphs" textLength="216" x="27" y="163.541">runWithContext(Object, Supplier&lt;V&gt;): V</text><ellipse cx="18" cy="172.8613" fill="#84BE84" rx="3" ry="3" style="stroke: #038048; stroke-width: 1.0;"/><text fill="#000000" font-family="sans-serif" font-size="11" font-style="italic" lengthAdjust="spacingAndGlyphs" textLength="259" x="27" y="176.4961">runWithContexts(List&lt;Object&gt;, Supplier&lt;V&gt;): V</text></a><!--MD5=[0e80474ad17d8b0aaec410b853884e3f]
reverse link it.tidalwave.role.ContextManager to it.tidalwave.role.ContextManager.Locator--><path codeLine="24" d="M199,198.1837 C199,213.9856 199,229.4942 199,242.9537 " fill="none" id="it.tidalwave.role.ContextManager-backto-it.tidalwave.role.ContextManager.Locator" style="stroke: #A80036; stroke-width: 1.0;"/><ellipse cx="199.0001" cy="191.0009" fill="#FFFFFF" rx="8" ry="8" style="stroke: #A80036; stroke-width: 1.0;"/><line style="stroke: #A80036; stroke-width: 1.0;" x1="199.0002" x2="199" y1="199.0009" y2="183.0009"/><line style="stroke: #A80036; stroke-width: 1.0;" x1="191.0001" x2="207.0001" y1="191.001" y2="191.0008"/><text fill="#888888" font-family="sans-serif" font-size="10" lengthAdjust="spacingAndGlyphs" textLength="188" x="102" y="350.7988">UMLDoclet 2.0.12, PlantUML 1.2020.16</text><!--MD5=[985d445379124ef4444969da301e030d]
@startuml
    set namespaceSeparator none
    hide empty fields
    hide empty methods

    class "<size:14>ContextManager.Locator\n<size:10>it.tidalwave.role" as it.tidalwave.role.ContextManager.Locator [[ContextManager.Locator.html]] {
        {static} +find(): ContextManager
        {static} +set(ContextManagerProvider): void
        {static} +reset(): void
    }

    interface "<size:14>ContextManager\n<size:10>it.tidalwave.role" as it.tidalwave.role.ContextManager [[ContextManager.html]] {
        {abstract} +getContexts(): List<Object>
        {abstract} +findContextOfType(Class<T>): T
        {abstract} +addGlobalContext(Object): void
        {abstract} +removeGlobalContext(Object): void
        {abstract} +addLocalContext(Object): void
        {abstract} +removeLocalContext(Object): void
        {abstract} +runWithContext(Object, Task<V, T extends Throwable>): V
        {abstract} +runWithContexts(List<Object>, Task<V, T extends Throwable>): V
        {abstract} +runWithContext(Object, Supplier<V>): V
        {abstract} +runWithContexts(List<Object>, Supplier<V>): V
    }

    it.tidalwave.role.ContextManager +- - it.tidalwave.role.ContextManager.Locator

    center footer UMLDoclet 2.0.12, PlantUML 1.2020.16
@enduml

PlantUML version 1.2020.16(Sun Aug 23 22:20:43 CEST 2020)
(APACHE source distribution)
Java Runtime: OpenJDK Runtime Environment
JVM: OpenJDK 64-Bit Server VM
Default Encoding: UTF-8
Language: en
Country: GB
--></g></svg>