@startuml
    set namespaceSeparator none
    hide empty fields
    hide empty methods

    class "<size:14>MockAsFactory\n<size:10>it.tidalwave.util.mock" as it.tidalwave.util.mock.MockAsFactory [[MockAsFactory.html]] {
        {static} +mockWithAs(Class<T extends As>): T extends As
        {static} +mockWithAs(Class<T extends As>, Collection<Object>): T extends As
    }

    center footer UMLDoclet 2.0.12, PlantUML 1.2020.16
@enduml
