@startuml
    set namespaceSeparator none
    hide empty fields
    hide empty methods

    class "<size:14>LocalCopyFileSystemProvider\n<size:10>it.tidalwave.northernwind.frontend.filesystem.basic" as it.tidalwave.northernwind.frontend.filesystem.basic.LocalCopyFileSystemProvider [[LocalCopyFileSystemProvider.html]] {
        +getFileSystem(): ResourceFileSystem
    }

    interface "<size:14>ResourceFileSystemProvider\n<size:10>it.tidalwave.northernwind.core.model" as it.tidalwave.northernwind.core.model.ResourceFileSystemProvider [[../../../core/model/ResourceFileSystemProvider.html]] {
        {abstract} +getFileSystem(): ResourceFileSystem
    }

    it.tidalwave.northernwind.core.model.ResourceFileSystemProvider <|.. it.tidalwave.northernwind.frontend.filesystem.basic.LocalCopyFileSystemProvider

    center footer UMLDoclet 2.0.12, PlantUML 1.2020.16
@enduml
