@startuml
    set namespaceSeparator none
    hide empty fields
    hide empty methods

    class "<size:14>JavaFxFlowController\n<size:10>it.tidalwave.bluemarine2.ui.commons.flowcontroller.impl.javafx" as it.tidalwave.bluemarine2.ui.commons.flowcontroller.impl.javafx.JavaFxFlowController [[JavaFxFlowController.html]] {
        +showPresentation(Object): void
        +showPresentation(Object, Object): void
        +dismissCurrentPresentation(): void
        +tryToDismissCurrentPresentation(): void
        +powerOff(): void
    }

    interface "<size:14>FlowController\n<size:10>it.tidalwave.bluemarine2.ui.commons.flowcontroller" as it.tidalwave.bluemarine2.ui.commons.flowcontroller.FlowController [[http://blueMarine.tidalwave.it/bluemarine2-modules/it-tidalwave-bluemarine2-ui/apidocs/it/tidalwave/bluemarine2/ui/commons/flowcontroller/FlowController.html?is-external=true]] {
        {abstract} +showPresentation(Object): void
        {abstract} +showPresentation(Object, Object): void
        {abstract} +dismissCurrentPresentation(): void
        {abstract} +powerOff(): void
    }

    it.tidalwave.bluemarine2.ui.commons.flowcontroller.FlowController <|.. it.tidalwave.bluemarine2.ui.commons.flowcontroller.impl.javafx.JavaFxFlowController

    center footer UMLDoclet 2.0.12, PlantUML 1.2020.16
@enduml
