<?xml version="1.0" encoding="UTF-8" standalone="no"?><svg xmlns="http://www.w3.org/2000/svg" xmlns:xlink="http://www.w3.org/1999/xlink" contentScriptType="application/ecmascript" contentStyleType="text/css" height="213px" preserveAspectRatio="none" style="width:370px;height:213px;" version="1.1" viewBox="0 0 370 213" width="370px" zoomAndPan="magnify"><defs><filter height="300%" id="fpi1ze62gh9c2" width="300%" x="-1" y="-1"><feGaussianBlur result="blurOut" stdDeviation="2.0"/><feColorMatrix in="blurOut" result="blurOut2" type="matrix" values="0 0 0 0 0 0 0 0 0 0 0 0 0 0 0 0 0 0 .4 0"/><feOffset dx="4.0" dy="4.0" in="blurOut2" result="blurOut3"/><feBlend in="SourceGraphic" in2="blurOut3" mode="normal"/></filter></defs><g><!--MD5=[41d7a0f20573fd3dcb944da664068423]
class it.tidalwave.northernwind.frontend.ui.component.gallery.GalleryView--><a href="GalleryView.html" target="_top" title="GalleryView.html" xlink:actuate="onRequest" xlink:href="GalleryView.html" xlink:show="new" xlink:title="GalleryView.html" xlink:type="simple"><rect codeLine="5" fill="#FEFECE" filter="url(#fpi1ze62gh9c2)" height="38.2656" id="it.tidalwave.northernwind.frontend.ui.component.gallery.GalleryView" style="stroke: #A80036; stroke-width: 1.5;" width="307" x="25.5" y="139"/><ellipse cx="40.5" cy="158.1328" fill="#B4A7E5" rx="11" ry="11" style="stroke: #A80036; stroke-width: 1.0;"/><path d="M36.9277,154.3979 L36.9277,152.2397 L44.3071,152.2397 L44.3071,154.3979 L41.8418,154.3979 L41.8418,162.4746 L44.3071,162.4746 L44.3071,164.6328 L36.9277,164.6328 L36.9277,162.4746 L39.3931,162.4746 L39.3931,154.3979 Z "/><text fill="#000000" font-family="sans-serif" font-size="14" font-style="italic" lengthAdjust="spacingAndGlyphs" textLength="79" x="152.5" y="157.5352">GalleryView</text><text fill="#000000" font-family="sans-serif" font-size="10" font-style="italic" lengthAdjust="spacingAndGlyphs" textLength="275" x="54.5" y="170.1563">it.tidalwave.northernwind.frontend.ui.component.gallery</text></a><!--MD5=[86615fb2b15091be7a1d5e9e453a6d9d]
class it.tidalwave.northernwind.frontend.ui.component.nodecontainer.NodeContainerView--><a href="../nodecontainer/NodeContainerView.html" target="_top" title="../nodecontainer/NodeContainerView.html" xlink:actuate="onRequest" xlink:href="../nodecontainer/NodeContainerView.html" xlink:show="new" xlink:title="../nodecontainer/NodeContainerView.html" xlink:type="simple"><rect codeLine="7" fill="#FEFECE" filter="url(#fpi1ze62gh9c2)" height="72.1758" id="it.tidalwave.northernwind.frontend.ui.component.nodecontainer.NodeContainerView" style="stroke: #A80036; stroke-width: 1.5;" width="344" x="7" y="7"/><ellipse cx="22" cy="26.1328" fill="#B4A7E5" rx="11" ry="11" style="stroke: #A80036; stroke-width: 1.0;"/><path d="M18.4277,22.3979 L18.4277,20.2397 L25.8071,20.2397 L25.8071,22.3979 L23.3418,22.3979 L23.3418,30.4746 L25.8071,30.4746 L25.8071,32.6328 L18.4277,32.6328 L18.4277,30.4746 L20.8931,30.4746 L20.8931,22.3979 Z "/><text fill="#000000" font-family="sans-serif" font-size="14" font-style="italic" lengthAdjust="spacingAndGlyphs" textLength="136" x="124" y="25.5352">NodeContainerView</text><text fill="#000000" font-family="sans-serif" font-size="10" font-style="italic" lengthAdjust="spacingAndGlyphs" textLength="312" x="36" y="38.1563">it.tidalwave.northernwind.frontend.ui.component.nodecontainer</text><line style="stroke: #A80036; stroke-width: 1.5;" x1="8" x2="350" y1="45.2656" y2="45.2656"/><ellipse cx="18" cy="56.2656" fill="#84BE84" rx="3" ry="3" style="stroke: #038048; stroke-width: 1.0;"/><text fill="#000000" font-family="sans-serif" font-size="11" font-style="italic" lengthAdjust="spacingAndGlyphs" textLength="175" x="27" y="59.9004">addAttribute(String, String): void</text><ellipse cx="18" cy="69.2207" fill="#84BE84" rx="3" ry="3" style="stroke: #038048; stroke-width: 1.0;"/><text fill="#000000" font-family="sans-serif" font-size="11" font-style="italic" lengthAdjust="spacingAndGlyphs" textLength="134" x="27" y="72.8555">setTemplate(String): void</text></a><!--MD5=[ebcdc095a5a2e4d47f45dc5c973a53d4]
reverse link it.tidalwave.northernwind.frontend.ui.component.nodecontainer.NodeContainerView to it.tidalwave.northernwind.frontend.ui.component.gallery.GalleryView--><path codeLine="12" d="M179,99.3935 C179,113.5832 179,127.8627 179,138.7739 " fill="none" id="it.tidalwave.northernwind.frontend.ui.component.nodecontainer.NodeContainerView-backto-it.tidalwave.northernwind.frontend.ui.component.gallery.GalleryView" style="stroke: #A80036; stroke-width: 1.0;"/><polygon fill="none" points="172.0001,99.0712,179,79.0712,186.0001,99.0712,172.0001,99.0712" style="stroke: #A80036; stroke-width: 1.0;"/><text fill="#888888" font-family="sans-serif" font-size="10" lengthAdjust="spacingAndGlyphs" textLength="188" x="82" y="199.9336">UMLDoclet 2.0.12, PlantUML 1.2020.16</text><!--MD5=[2dc5364fc77a18eeb8525c99ba8400ae]
@startuml
    set namespaceSeparator none
    hide empty fields
    hide empty methods

    interface "<size:14>GalleryView\n<size:10>it.tidalwave.northernwind.frontend.ui.component.gallery" as it.tidalwave.northernwind.frontend.ui.component.gallery.GalleryView [[GalleryView.html]]

    interface "<size:14>NodeContainerView\n<size:10>it.tidalwave.northernwind.frontend.ui.component.nodecontainer" as it.tidalwave.northernwind.frontend.ui.component.nodecontainer.NodeContainerView [[../nodecontainer/NodeContainerView.html]] {
        {abstract} +addAttribute(String, String): void
        {abstract} +setTemplate(String): void
    }

    it.tidalwave.northernwind.frontend.ui.component.nodecontainer.NodeContainerView <|- - it.tidalwave.northernwind.frontend.ui.component.gallery.GalleryView

    center footer UMLDoclet 2.0.12, PlantUML 1.2020.16
@enduml

PlantUML version 1.2020.16(Sun Aug 23 22:20:43 CEST 2020)
(APACHE source distribution)
Java Runtime: OpenJDK Runtime Environment
JVM: OpenJDK 64-Bit Server VM
Default Encoding: UTF-8
Language: en
Country: GB
--></g></svg>