@startuml
    set namespaceSeparator none
    hide empty fields
    hide empty methods

    class "<size:14>DefaultContextManager\n<size:10>it.tidalwave.role.spi" as it.tidalwave.role.spi.DefaultContextManager [[DefaultContextManager.html]] {
        +getContexts(): List<Object>
        +findContextOfType(Class<T>): T
        +addGlobalContext(Object): void
        +removeGlobalContext(Object): void
        +addLocalContext(Object): void
        +removeLocalContext(Object): void
        +runEWithContexts(SupplierWithException<T, E extends Throwable>, Object...): T
    }

    interface "<size:14>ContextManager\n<size:10>it.tidalwave.role" as it.tidalwave.role.ContextManager [[../ContextManager.html]] {
        {abstract} +getContexts(): List<Object>
        {abstract} +findContextOfType(Class<T>): T
        {abstract} +addGlobalContext(Object): void
        {abstract} +removeGlobalContext(Object): void
        {abstract} +addLocalContext(Object): void
        {abstract} +removeLocalContext(Object): void
        {abstract} +runEWithContexts(SupplierWithException<T, E extends Throwable>, Object...): T
    }

    it.tidalwave.role.ContextManager <|.. it.tidalwave.role.spi.DefaultContextManager

    center footer UMLDoclet 2.0.12, PlantUML 1.2020.16
@enduml
