@startuml
    set namespaceSeparator none
    hide empty fields
    hide empty methods

    class "<size:14>Tag\n<size:10>it.tidalwave.northernwind.frontend.filesystem.scm.spi" as it.tidalwave.northernwind.frontend.filesystem.scm.spi.Tag [[Tag.html]] {
    }

    center footer UMLDoclet 2.0.12, PlantUML 1.2020.16
@enduml
