<?xml version="1.0" encoding="UTF-8" standalone="no"?><svg xmlns="http://www.w3.org/2000/svg" xmlns:xlink="http://www.w3.org/1999/xlink" contentScriptType="application/ecmascript" contentStyleType="text/css" height="312px" preserveAspectRatio="none" style="width:507px;height:312px;" version="1.1" viewBox="0 0 507 312" width="507px" zoomAndPan="magnify"><defs><filter height="300%" id="f5zj7tm61cxah" width="300%" x="-1" y="-1"><feGaussianBlur result="blurOut" stdDeviation="2.0"/><feColorMatrix in="blurOut" result="blurOut2" type="matrix" values="0 0 0 0 0 0 0 0 0 0 0 0 0 0 0 0 0 0 .4 0"/><feOffset dx="4.0" dy="4.0" in="blurOut2" result="blurOut3"/><feBlend in="SourceGraphic" in2="blurOut3" mode="normal"/></filter></defs><g><!--MD5=[4e8eb53d15ae3a92432814eeefcf7d1e]
cluster it.tidalwave.northernwind.frontend.ui.component.nodecontainer--><polygon fill="#FFFFFF" filter="url(#f5zj7tm61cxah)" points="16,6,475,6,482,28.4883,485,28.4883,485,283,16,283,16,6" style="stroke: #000000; stroke-width: 1.5;"/><line style="stroke: #000000; stroke-width: 1.5;" x1="16" x2="482" y1="28.4883" y2="28.4883"/><text fill="#000000" font-family="sans-serif" font-size="14" font-weight="bold" lengthAdjust="spacingAndGlyphs" textLength="453" x="20" y="21.5352">it.tidalwave.northernwind.frontend.ui.component.nodecontainer</text><!--MD5=[272720cfdb2f833e753404207daa883b]
class it.tidalwave.northernwind.frontend.ui.component.nodecontainer.DefaultNodeContainerViewControllerTest--><a href="DefaultNodeContainerViewControllerTest.html" target="_top" title="DefaultNodeContainerViewControllerTest.html" xlink:actuate="onRequest" xlink:href="DefaultNodeContainerViewControllerTest.html" xlink:show="new" xlink:title="DefaultNodeContainerViewControllerTest.html" xlink:type="simple"><rect codeLine="3" fill="#FEFECE" filter="url(#f5zj7tm61cxah)" height="242.3262" id="it.tidalwave.northernwind.frontend.ui.component.nodecontainer.DefaultNodeContainerViewControllerTest" style="stroke: #A80036; stroke-width: 1.5;" width="340" x="80" y="33"/><ellipse cx="128.25" cy="49" fill="#ADD1B2" rx="11" ry="11" style="stroke: #A80036; stroke-width: 1.0;"/><path d="M130.7231,55.1431 Q130.1421,55.4419 129.5029,55.5913 Q128.8638,55.7407 128.1582,55.7407 Q125.6514,55.7407 124.3315,54.0889 Q123.0117,52.437 123.0117,49.3159 Q123.0117,46.1865 124.3315,44.5347 Q125.6514,42.8828 128.1582,42.8828 Q128.8638,42.8828 129.5112,43.0322 Q130.1587,43.1816 130.7231,43.4805 L130.7231,46.2031 Q130.0923,45.6221 129.4988,45.3523 Q128.9053,45.0825 128.2744,45.0825 Q126.9297,45.0825 126.2449,46.1492 Q125.5601,47.2158 125.5601,49.3159 Q125.5601,51.4077 126.2449,52.4744 Q126.9297,53.541 128.2744,53.541 Q128.9053,53.541 129.4988,53.2712 Q130.0923,53.0015 130.7231,52.4204 Z "/><text fill="#000000" font-family="sans-serif" font-size="12" lengthAdjust="spacingAndGlyphs" textLength="235" x="148.75" y="53.5352">DefaultNodeContainerViewControllerTest</text><line style="stroke: #A80036; stroke-width: 1.5;" x1="81" x2="419" y1="65" y2="65"/><line style="stroke: #A80036; stroke-width: 1.5;" x1="81" x2="419" y1="73" y2="73"/><ellipse cx="91" cy="84" fill="#84BE84" rx="3" ry="3" style="stroke: #038048; stroke-width: 1.0;"/><text fill="#000000" font-family="sans-serif" font-size="11" lengthAdjust="spacingAndGlyphs" textLength="213" x="100" y="87.6348">must_properly_set_the_template(): void</text><ellipse cx="91" cy="96.9551" fill="#84BE84" rx="3" ry="3" style="stroke: #038048; stroke-width: 1.0;"/><text fill="#000000" font-family="sans-serif" font-size="11" lengthAdjust="spacingAndGlyphs" textLength="314" x="100" y="100.5898">must_not_set_the_template_when_no_property_set(): void</text><ellipse cx="91" cy="109.9102" fill="#84BE84" rx="3" ry="3" style="stroke: #038048; stroke-width: 1.0;"/><text fill="#000000" font-family="sans-serif" font-size="11" lengthAdjust="spacingAndGlyphs" textLength="288" x="100" y="113.5449">must_not_set_the_template_when_no_Content(): void</text><ellipse cx="91" cy="122.8652" fill="#84BE84" rx="3" ry="3" style="stroke: #038048; stroke-width: 1.0;"/><text fill="#000000" font-family="sans-serif" font-size="11" lengthAdjust="spacingAndGlyphs" textLength="216" x="100" y="126.5">must_properly_set_the_language(): void</text><ellipse cx="91" cy="135.8203" fill="#84BE84" rx="3" ry="3" style="stroke: #038048; stroke-width: 1.0;"/><text fill="#000000" font-family="sans-serif" font-size="11" lengthAdjust="spacingAndGlyphs" textLength="225" x="100" y="139.4551">must_properly_set_the_title_prefix(): void</text><ellipse cx="91" cy="148.7754" fill="#84BE84" rx="3" ry="3" style="stroke: #038048; stroke-width: 1.0;"/><text fill="#000000" font-family="sans-serif" font-size="11" lengthAdjust="spacingAndGlyphs" textLength="299" x="100" y="152.4102">must_not_set_the_title_prefix_when_unspecified(): void</text><ellipse cx="91" cy="161.7305" fill="#84BE84" rx="3" ry="3" style="stroke: #038048; stroke-width: 1.0;"/><text fill="#000000" font-family="sans-serif" font-size="11" lengthAdjust="spacingAndGlyphs" textLength="235" x="100" y="165.3652">must_properly_set_the_descriptiond(): void</text><ellipse cx="91" cy="174.6855" fill="#84BE84" rx="3" ry="3" style="stroke: #038048; stroke-width: 1.0;"/><text fill="#000000" font-family="sans-serif" font-size="11" lengthAdjust="spacingAndGlyphs" textLength="302" x="100" y="178.3203">must_not_set_the_description_when_unspecified(): void</text><ellipse cx="91" cy="187.6406" fill="#84BE84" rx="3" ry="3" style="stroke: #038048; stroke-width: 1.0;"/><text fill="#000000" font-family="sans-serif" font-size="11" lengthAdjust="spacingAndGlyphs" textLength="187" x="100" y="191.2754">must_properly_set_the_title(): void</text><ellipse cx="91" cy="200.5957" fill="#84BE84" rx="3" ry="3" style="stroke: #038048; stroke-width: 1.0;"/><text fill="#000000" font-family="sans-serif" font-size="11" lengthAdjust="spacingAndGlyphs" textLength="261" x="100" y="204.2305">must_not_set_the_title_when_unspecified(): void</text><ellipse cx="91" cy="213.5508" fill="#84BE84" rx="3" ry="3" style="stroke: #038048; stroke-width: 1.0;"/><text fill="#000000" font-family="sans-serif" font-size="11" lengthAdjust="spacingAndGlyphs" textLength="262" x="100" y="217.1855">must_properly_set_the_screenCssSection(): void</text><ellipse cx="91" cy="226.5059" fill="#84BE84" rx="3" ry="3" style="stroke: #038048; stroke-width: 1.0;"/><text fill="#000000" font-family="sans-serif" font-size="11" lengthAdjust="spacingAndGlyphs" textLength="252" x="100" y="230.1406">must_properly_set_the_printCssSection(): void</text><ellipse cx="91" cy="239.4609" fill="#84BE84" rx="3" ry="3" style="stroke: #038048; stroke-width: 1.0;"/><text fill="#000000" font-family="sans-serif" font-size="11" lengthAdjust="spacingAndGlyphs" textLength="215" x="100" y="243.0957">must_properly_set_the_rssFeeds(): void</text><ellipse cx="91" cy="252.416" fill="#84BE84" rx="3" ry="3" style="stroke: #038048; stroke-width: 1.0;"/><text fill="#000000" font-family="sans-serif" font-size="11" lengthAdjust="spacingAndGlyphs" textLength="204" x="100" y="256.0508">must_properly_set_the_scripts(): void</text><ellipse cx="91" cy="265.3711" fill="#84BE84" rx="3" ry="3" style="stroke: #038048; stroke-width: 1.0;"/><text fill="#000000" font-family="sans-serif" font-size="11" lengthAdjust="spacingAndGlyphs" textLength="246" x="100" y="269.0059">must_properly_set_the_inlined_scripts(): void</text></a><text fill="#888888" font-family="sans-serif" font-size="10" lengthAdjust="spacingAndGlyphs" textLength="188" x="150.5" y="298.668">UMLDoclet 2.0.12, PlantUML 1.2020.16</text><!--MD5=[bc388506ad65515c941695dd0a12f84b]
@startuml
    namespace it.tidalwave.northernwind.frontend.ui.component.nodecontainer {

        class DefaultNodeContainerViewControllerTest [[DefaultNodeContainerViewControllerTest.html]] {
            +must_properly_set_the_template(): void
            +must_not_set_the_template_when_no_property_set(): void
            +must_not_set_the_template_when_no_Content(): void
            +must_properly_set_the_language(): void
            +must_properly_set_the_title_prefix(): void
            +must_not_set_the_title_prefix_when_unspecified(): void
            +must_properly_set_the_descriptiond(): void
            +must_not_set_the_description_when_unspecified(): void
            +must_properly_set_the_title(): void
            +must_not_set_the_title_when_unspecified(): void
            +must_properly_set_the_screenCssSection(): void
            +must_properly_set_the_printCssSection(): void
            +must_properly_set_the_rssFeeds(): void
            +must_properly_set_the_scripts(): void
            +must_properly_set_the_inlined_scripts(): void
        }

    }

    center footer UMLDoclet 2.0.12, PlantUML 1.2020.16
@enduml

PlantUML version 1.2020.16(Sun Aug 23 22:20:43 CEST 2020)
(APACHE source distribution)
Java Runtime: OpenJDK Runtime Environment
JVM: OpenJDK 64-Bit Server VM
Default Encoding: UTF-8
Language: en
Country: GB
--></g></svg>