@startuml
    set namespaceSeparator none
    hide empty fields
    hide empty methods

    class "<size:14>TextHolder\n<size:10>it.tidalwave.northernwind.frontend.ui.component.htmltemplate" as it.tidalwave.northernwind.frontend.ui.component.htmltemplate.TextHolder [[TextHolder.html]] {
        +TextHolder(Id)
        +TextHolder(String)
        +setContent(String): void
        +addComponent(TextHolder): void
        +addAttribute(String, String): void
        +asBytes(Charset): byte[]
        +asString(Charset): String
    }

    center footer UMLDoclet 2.0.12, PlantUML 1.2020.16
@enduml
