<?xml version="1.0" encoding="UTF-8" standalone="no"?><svg xmlns="http://www.w3.org/2000/svg" xmlns:xlink="http://www.w3.org/1999/xlink" contentScriptType="application/ecmascript" contentStyleType="text/css" height="213px" preserveAspectRatio="none" style="width:309px;height:213px;" version="1.1" viewBox="0 0 309 213" width="309px" zoomAndPan="magnify"><defs><filter height="300%" id="f1rv8xwpzaqs01" width="300%" x="-1" y="-1"><feGaussianBlur result="blurOut" stdDeviation="2.0"/><feColorMatrix in="blurOut" result="blurOut2" type="matrix" values="0 0 0 0 0 0 0 0 0 0 0 0 0 0 0 0 0 0 .4 0"/><feOffset dx="4.0" dy="4.0" in="blurOut2" result="blurOut3"/><feBlend in="SourceGraphic" in2="blurOut3" mode="normal"/></filter></defs><g><!--MD5=[c40894859b73567d155d047980c5a7dd]
class it.tidalwave.messagebus.MessageBusHelper.MethodAdapter--><a href="MessageBusHelper.MethodAdapter.html" target="_top" title="MessageBusHelper.MethodAdapter.html" xlink:actuate="onRequest" xlink:href="MessageBusHelper.MethodAdapter.html" xlink:show="new" xlink:title="MessageBusHelper.MethodAdapter.html" xlink:type="simple"><rect codeLine="5" fill="#FEFECE" filter="url(#f1rv8xwpzaqs01)" height="72.1758" id="it.tidalwave.messagebus.MessageBusHelper.MethodAdapter" style="stroke: #A80036; stroke-width: 1.5;" width="283" x="7" y="105"/><ellipse cx="22" cy="124.1328" fill="#B4A7E5" rx="11" ry="11" style="stroke: #A80036; stroke-width: 1.0;"/><path d="M18.4277,120.3979 L18.4277,118.2397 L25.8071,118.2397 L25.8071,120.3979 L23.3418,120.3979 L23.3418,128.4746 L25.8071,128.4746 L25.8071,130.6328 L18.4277,130.6328 L18.4277,128.4746 L20.8931,128.4746 L20.8931,120.3979 Z "/><text fill="#000000" font-family="sans-serif" font-size="14" font-style="italic" lengthAdjust="spacingAndGlyphs" textLength="239" x="36" y="123.5352">MessageBusHelper.MethodAdapter</text><text fill="#000000" font-family="sans-serif" font-size="10" font-style="italic" lengthAdjust="spacingAndGlyphs" textLength="120" x="95.5" y="136.1563">it.tidalwave.messagebus</text><rect fill="#FFFFFF" height="16.1328" style="stroke: #000000; stroke-width: 1.0; stroke-dasharray: 2.0,2.0;" width="10" x="283" y="102"/><text fill="#000000" font-family="sans-serif" font-size="12" font-style="italic" lengthAdjust="spacingAndGlyphs" textLength="8" x="284" y="114.6016">T</text><line style="stroke: #A80036; stroke-width: 1.5;" x1="8" x2="289" y1="143.2656" y2="143.2656"/><ellipse cx="18" cy="154.2656" fill="#84BE84" rx="3" ry="3" style="stroke: #038048; stroke-width: 1.0;"/><text fill="#000000" font-family="sans-serif" font-size="11" font-style="italic" lengthAdjust="spacingAndGlyphs" textLength="90" x="27" y="157.9004">subscribe(): void</text><ellipse cx="18" cy="167.2207" fill="#84BE84" rx="3" ry="3" style="stroke: #038048; stroke-width: 1.0;"/><text fill="#000000" font-family="sans-serif" font-size="11" font-style="italic" lengthAdjust="spacingAndGlyphs" textLength="104" x="27" y="170.8555">unsubscribe(): void</text></a><!--MD5=[b16a8370fab75665485eec52c64cf912]
class it.tidalwave.messagebus.MessageBusHelper--><a href="MessageBusHelper.html" target="_top" title="MessageBusHelper.html" xlink:actuate="onRequest" xlink:href="MessageBusHelper.html" xlink:show="new" xlink:title="MessageBusHelper.html" xlink:type="simple"><rect codeLine="10" fill="#FEFECE" filter="url(#f1rv8xwpzaqs01)" height="38.2656" id="it.tidalwave.messagebus.MessageBusHelper" style="stroke: #A80036; stroke-width: 1.5;" width="160" x="68.5" y="7"/><ellipse cx="83.5" cy="26.1328" fill="#ADD1B2" rx="11" ry="11" style="stroke: #A80036; stroke-width: 1.0;"/><path d="M85.9731,32.2759 Q85.3921,32.5747 84.7529,32.7241 Q84.1138,32.8735 83.4082,32.8735 Q80.9014,32.8735 79.5815,31.2217 Q78.2617,29.5698 78.2617,26.4487 Q78.2617,23.3193 79.5815,21.6675 Q80.9014,20.0156 83.4082,20.0156 Q84.1138,20.0156 84.7612,20.165 Q85.4087,20.3145 85.9731,20.6133 L85.9731,23.3359 Q85.3423,22.7549 84.7488,22.4851 Q84.1553,22.2153 83.5244,22.2153 Q82.1797,22.2153 81.4949,23.282 Q80.8101,24.3486 80.8101,26.4487 Q80.8101,28.5405 81.4949,29.6072 Q82.1797,30.6738 83.5244,30.6738 Q84.1553,30.6738 84.7488,30.4041 Q85.3423,30.1343 85.9731,29.5532 Z "/><text fill="#000000" font-family="sans-serif" font-size="14" lengthAdjust="spacingAndGlyphs" textLength="128" x="97.5" y="25.5352">MessageBusHelper</text><text fill="#000000" font-family="sans-serif" font-size="10" lengthAdjust="spacingAndGlyphs" textLength="120" x="101.5" y="38.1563">it.tidalwave.messagebus</text></a><!--MD5=[ab372988ad4e4ab6017317a93959ba31]
reverse link it.tidalwave.messagebus.MessageBusHelper to it.tidalwave.messagebus.MessageBusHelper.MethodAdapter--><path codeLine="12" d="M148.5,60.4665 C148.5,74.5047 148.5,90.7372 148.5,104.935 " fill="none" id="it.tidalwave.messagebus.MessageBusHelper-backto-it.tidalwave.messagebus.MessageBusHelper.MethodAdapter" style="stroke: #A80036; stroke-width: 1.0;"/><ellipse cx="148.5" cy="53.2484" fill="#FFFFFF" rx="8" ry="8" style="stroke: #A80036; stroke-width: 1.0;"/><line style="stroke: #A80036; stroke-width: 1.0;" x1="148.5" x2="148.5" y1="61.2484" y2="45.2484"/><line style="stroke: #A80036; stroke-width: 1.0;" x1="140.5" x2="156.5" y1="53.2484" y2="53.2484"/><text fill="#888888" font-family="sans-serif" font-size="10" lengthAdjust="spacingAndGlyphs" textLength="188" x="51.5" y="199.8438">UMLDoclet 2.0.12, PlantUML 1.2020.16</text><!--MD5=[52259213f1edf51d4770cbc1d62254ec]
@startuml
    set namespaceSeparator none
    hide empty fields
    hide empty methods

    interface "<size:14>MessageBusHelper.MethodAdapter\n<size:10>it.tidalwave.messagebus" as it.tidalwave.messagebus.MessageBusHelper.MethodAdapter<T> [[MessageBusHelper.MethodAdapter.html]] {
        {abstract} +subscribe(): void
        {abstract} +unsubscribe(): void
    }

    class "<size:14>MessageBusHelper\n<size:10>it.tidalwave.messagebus" as it.tidalwave.messagebus.MessageBusHelper [[MessageBusHelper.html]]

    it.tidalwave.messagebus.MessageBusHelper +- - it.tidalwave.messagebus.MessageBusHelper.MethodAdapter

    center footer UMLDoclet 2.0.12, PlantUML 1.2020.16
@enduml

PlantUML version 1.2020.16(Sun Aug 23 22:20:43 CEST 2020)
(APACHE source distribution)
Java Runtime: OpenJDK Runtime Environment
JVM: OpenJDK 64-Bit Server VM
Default Encoding: UTF-8
Language: en
Country: GB
--></g></svg>