@startuml
    namespace it.tidalwave.messagebus {

        class MessageBusHelper [[MessageBusHelper.html]] {
            +subscribeAll(): void
            +unsubscribeAll(): void
            +publish(Object): void
            +publish(Class<T>, T): void
        }

        interface it.tidalwave.messagebus.MessageBusHelper.Adapter [[MessageBusHelper.Adapter.html]] {
            {abstract} +createMethodAdapter(Object, Method, Class<T>): MethodAdapter<T>
            {abstract} +publish(Object): void
            {abstract} +publish(Class<T>, T): void
        }

        interface it.tidalwave.messagebus.MessageBusHelper.MethodAdapter<T> [[MessageBusHelper.MethodAdapter.html]] {
            {abstract} +subscribe(): void
            {abstract} +unsubscribe(): void
        }

        interface MessageBus [[MessageBus.html]] {
            {abstract} +publish(T): void
            {abstract} +publish(Class<T>, T): void
            {abstract} +subscribe(Class<T>, Listener<T>): void
            {abstract} +unsubscribe(Listener<?>): void
        }

        interface it.tidalwave.messagebus.MessageBus.Listener<T> [[MessageBus.Listener.html]] {
            {abstract} +notify(T): void
        }

        MessageBusHelper +-- it.tidalwave.messagebus.MessageBusHelper.Adapter
        MessageBusHelper +-- it.tidalwave.messagebus.MessageBusHelper.MethodAdapter
        MessageBus +-- it.tidalwave.messagebus.MessageBus.Listener
    }

    center footer UMLDoclet 2.0.12, PlantUML 1.2020.16
@enduml
