<?xml version="1.0" encoding="UTF-8" standalone="no"?><svg xmlns="http://www.w3.org/2000/svg" xmlns:xlink="http://www.w3.org/1999/xlink" contentScriptType="application/ecmascript" contentStyleType="text/css" height="179px" preserveAspectRatio="none" style="width:200px;height:179px;" version="1.1" viewBox="0 0 200 179" width="200px" zoomAndPan="magnify"><defs><filter height="300%" id="f11emhzhtg0m0k" width="300%" x="-1" y="-1"><feGaussianBlur result="blurOut" stdDeviation="2.0"/><feColorMatrix in="blurOut" result="blurOut2" type="matrix" values="0 0 0 0 0 0 0 0 0 0 0 0 0 0 0 0 0 0 .4 0"/><feOffset dx="4.0" dy="4.0" in="blurOut2" result="blurOut3"/><feBlend in="SourceGraphic" in2="blurOut3" mode="normal"/></filter></defs><g><!--MD5=[b2ec8c0ef53eaf001144b149953eb148]
class it.tidalwave.util.spi.Mocks.CA1--><a href="Mocks.CA1.html" target="_top" title="Mocks.CA1.html" xlink:actuate="onRequest" xlink:href="Mocks.CA1.html" xlink:show="new" xlink:title="Mocks.CA1.html" xlink:type="simple"><rect codeLine="5" fill="#FEFECE" filter="url(#f11emhzhtg0m0k)" height="38.2656" id="it.tidalwave.util.spi.Mocks.CA1" style="stroke: #A80036; stroke-width: 1.5;" width="125" x="34.5" y="105"/><ellipse cx="49.5" cy="124.1328" fill="#ADD1B2" rx="11" ry="11" style="stroke: #A80036; stroke-width: 1.0;"/><path d="M51.9731,130.2759 Q51.3921,130.5747 50.7529,130.7241 Q50.1138,130.8735 49.4082,130.8735 Q46.9014,130.8735 45.5815,129.2217 Q44.2617,127.5698 44.2617,124.4487 Q44.2617,121.3193 45.5815,119.6675 Q46.9014,118.0156 49.4082,118.0156 Q50.1138,118.0156 50.7612,118.165 Q51.4087,118.3145 51.9731,118.6133 L51.9731,121.3359 Q51.3423,120.7549 50.7488,120.4851 Q50.1553,120.2153 49.5244,120.2153 Q48.1797,120.2153 47.4949,121.282 Q46.8101,122.3486 46.8101,124.4487 Q46.8101,126.5405 47.4949,127.6072 Q48.1797,128.6738 49.5244,128.6738 Q50.1553,128.6738 50.7488,128.4041 Q51.3423,128.1343 51.9731,127.5532 Z "/><text fill="#000000" font-family="sans-serif" font-size="14" lengthAdjust="spacingAndGlyphs" textLength="76" x="72" y="123.5352">Mocks.CA1</text><text fill="#000000" font-family="sans-serif" font-size="10" lengthAdjust="spacingAndGlyphs" textLength="93" x="63.5" y="136.1563">it.tidalwave.util.spi</text></a><!--MD5=[6f87894b9ddb65fb896d958cc15de95d]
class it.tidalwave.util.spi.Mocks--><a href="Mocks.html" target="_top" title="Mocks.html" xlink:actuate="onRequest" xlink:href="Mocks.html" xlink:show="new" xlink:title="Mocks.html" xlink:type="simple"><rect codeLine="7" fill="#FEFECE" filter="url(#f11emhzhtg0m0k)" height="38.2656" id="it.tidalwave.util.spi.Mocks" style="stroke: #A80036; stroke-width: 1.5;" width="125" x="34.5" y="7"/><ellipse cx="49.5" cy="26.1328" fill="#ADD1B2" rx="11" ry="11" style="stroke: #A80036; stroke-width: 1.0;"/><path d="M51.9731,32.2759 Q51.3921,32.5747 50.7529,32.7241 Q50.1138,32.8735 49.4082,32.8735 Q46.9014,32.8735 45.5815,31.2217 Q44.2617,29.5698 44.2617,26.4487 Q44.2617,23.3193 45.5815,21.6675 Q46.9014,20.0156 49.4082,20.0156 Q50.1138,20.0156 50.7612,20.165 Q51.4087,20.3145 51.9731,20.6133 L51.9731,23.3359 Q51.3423,22.7549 50.7488,22.4851 Q50.1553,22.2153 49.5244,22.2153 Q48.1797,22.2153 47.4949,23.282 Q46.8101,24.3486 46.8101,26.4487 Q46.8101,28.5405 47.4949,29.6072 Q48.1797,30.6738 49.5244,30.6738 Q50.1553,30.6738 50.7488,30.4041 Q51.3423,30.1343 51.9731,29.5532 Z "/><text fill="#000000" font-family="sans-serif" font-size="14" lengthAdjust="spacingAndGlyphs" textLength="43" x="88.5" y="25.5352">Mocks</text><text fill="#000000" font-family="sans-serif" font-size="10" lengthAdjust="spacingAndGlyphs" textLength="93" x="63.5" y="38.1563">it.tidalwave.util.spi</text></a><!--MD5=[03c62924b859df489463cd381f985c52]
reverse link it.tidalwave.util.spi.Mocks to it.tidalwave.util.spi.Mocks.CA1--><path codeLine="9" d="M97,60.4087 C97,75.2562 97,92.0704 97,104.6786 " fill="none" id="it.tidalwave.util.spi.Mocks-backto-it.tidalwave.util.spi.Mocks.CA1" style="stroke: #A80036; stroke-width: 1.0;"/><ellipse cx="97.0001" cy="53.3616" fill="#FFFFFF" rx="8" ry="8" style="stroke: #A80036; stroke-width: 1.0;"/><line style="stroke: #A80036; stroke-width: 1.0;" x1="97.0002" x2="97" y1="61.3616" y2="45.3616"/><line style="stroke: #A80036; stroke-width: 1.0;" x1="89.0001" x2="105.0001" y1="53.3617" y2="53.3615"/><text fill="#888888" font-family="sans-serif" font-size="10" lengthAdjust="spacingAndGlyphs" textLength="188" x="0" y="165.9336">UMLDoclet 2.0.12, PlantUML 1.2020.16</text><!--MD5=[c95eb6a2bc1658534161cf7b8046563b]
@startuml
    set namespaceSeparator none
    hide empty fields
    hide empty methods

    class "<size:14>Mocks.CA1\n<size:10>it.tidalwave.util.spi" as it.tidalwave.util.spi.Mocks.CA1 [[Mocks.CA1.html]]

    class "<size:14>Mocks\n<size:10>it.tidalwave.util.spi" as it.tidalwave.util.spi.Mocks [[Mocks.html]]

    it.tidalwave.util.spi.Mocks +- - it.tidalwave.util.spi.Mocks.CA1

    center footer UMLDoclet 2.0.12, PlantUML 1.2020.16
@enduml

PlantUML version 1.2020.16(Sun Aug 23 22:20:43 CEST 2020)
(APACHE source distribution)
Java Runtime: OpenJDK Runtime Environment
JVM: OpenJDK 64-Bit Server VM
Default Encoding: UTF-8
Language: en
Country: GB
--></g></svg>