<?xml version="1.0" encoding="UTF-8" standalone="no"?><svg xmlns="http://www.w3.org/2000/svg" xmlns:xlink="http://www.w3.org/1999/xlink" contentScriptType="application/ecmascript" contentStyleType="text/css" height="331px" preserveAspectRatio="none" style="width:5301px;height:331px;" version="1.1" viewBox="0 0 5301 331" width="5301px" zoomAndPan="magnify"><defs><filter height="300%" id="fvc5gxws46yau" width="300%" x="-1" y="-1"><feGaussianBlur result="blurOut" stdDeviation="2.0"/><feColorMatrix in="blurOut" result="blurOut2" type="matrix" values="0 0 0 0 0 0 0 0 0 0 0 0 0 0 0 0 0 0 .4 0"/><feOffset dx="4.0" dy="4.0" in="blurOut2" result="blurOut3"/><feBlend in="SourceGraphic" in2="blurOut3" mode="normal"/></filter></defs><g><!--MD5=[00542fd93fd11b0f0977431291933584]
class it.tidalwave.northernwind.frontend.ui.component--><a href="it/tidalwave/northernwind/frontend/ui/component/package-summary.html" target="_top" title="it/tidalwave/northernwind/frontend/ui/component/package-summary.html" xlink:actuate="onRequest" xlink:href="it/tidalwave/northernwind/frontend/ui/component/package-summary.html" xlink:show="new" xlink:title="it/tidalwave/northernwind/frontend/ui/component/package-summary.html" xlink:type="simple"><rect codeLine="59" fill="#FEFECE" filter="url(#fvc5gxws46yau)" height="24.1328" id="it.tidalwave.northernwind.frontend.ui.component" style="stroke: #A80036; stroke-width: 1.5;" width="286" x="346.2972" y="187.5548"/><text fill="#000000" font-family="sans-serif" font-size="12" lengthAdjust="spacingAndGlyphs" textLength="280" x="349.2972" y="204.1564">it.tidalwave.northernwind.frontend.ui.component</text></a><!--MD5=[e2825e41240dc3ac7b156e1d527e9be0]
class it.tidalwave.util--><rect fill="#FEFECE" filter="url(#fvc5gxws46yau)" height="24.1328" id="it.tidalwave.util" style="stroke: #A80036; stroke-width: 1.5;" width="92" x="1090.2972" y="271.5548"/><text fill="#000000" font-family="sans-serif" font-size="12" lengthAdjust="spacingAndGlyphs" textLength="86" x="1093.2972" y="288.1564">it.tidalwave.util</text><!--MD5=[3124d29f986741389b01b2ff8b9a4d59]
class it.tidalwave.northernwind.frontend.ui.component.calendar--><a href="it/tidalwave/northernwind/frontend/ui/component/calendar/package-summary.html" target="_top" title="it/tidalwave/northernwind/frontend/ui/component/calendar/package-summary.html" xlink:actuate="onRequest" xlink:href="it/tidalwave/northernwind/frontend/ui/component/calendar/package-summary.html" xlink:show="new" xlink:title="it/tidalwave/northernwind/frontend/ui/component/calendar/package-summary.html" xlink:type="simple"><rect codeLine="61" fill="#FEFECE" filter="url(#fvc5gxws46yau)" height="24.1328" id="it.tidalwave.northernwind.frontend.ui.component.calendar" style="stroke: #A80036; stroke-width: 1.5;" width="340" x="3813.2972" y="103.5548"/><text fill="#000000" font-family="sans-serif" font-size="12" lengthAdjust="spacingAndGlyphs" textLength="334" x="3816.2972" y="120.1564">it.tidalwave.northernwind.frontend.ui.component.calendar</text></a><!--MD5=[bc5f19b0d2427a2b497e0877cefcb2cc]
class it.tidalwave.northernwind.frontend.ui--><a href="http://tidalwave.it/projects/northernwind/it-tidalwave-northernwind-modules/it-tidalwave-northernwind-core/apidocs/it/tidalwave/northernwind/frontend/ui/package-summary.html?is-external=true" target="_top" title="http://tidalwave.it/projects/northernwind/it-tidalwave-northernwind-modules/it-tidalwave-northernwind-core/apidocs/it/tidalwave/northernwind/frontend/ui/package-summary.html?is-external=true" xlink:actuate="onRequest" xlink:href="http://tidalwave.it/projects/northernwind/it-tidalwave-northernwind-modules/it-tidalwave-northernwind-core/apidocs/it/tidalwave/northernwind/frontend/ui/package-summary.html?is-external=true" xlink:show="new" xlink:title="http://tidalwave.it/projects/northernwind/it-tidalwave-northernwind-modules/it-tidalwave-northernwind-core/apidocs/it/tidalwave/northernwind/frontend/ui/package-summary.html?is-external=true" xlink:type="simple"><rect codeLine="63" fill="#FEFECE" filter="url(#fvc5gxws46yau)" height="24.1328" id="it.tidalwave.northernwind.frontend.ui" style="stroke: #A80036; stroke-width: 1.5;" width="218" x="2603.2972" y="271.5548"/><text fill="#000000" font-family="sans-serif" font-size="12" lengthAdjust="spacingAndGlyphs" textLength="212" x="2606.2972" y="288.1564">it.tidalwave.northernwind.frontend.ui</text></a><!--MD5=[d3b44b914aa2370fe6d684de0096bcf1]
class it.tidalwave.role--><rect fill="#FEFECE" filter="url(#fvc5gxws46yau)" height="24.1328" id="it.tidalwave.role" style="stroke: #A80036; stroke-width: 1.5;" width="97" x="3066.7972" y="271.5548"/><text fill="#000000" font-family="sans-serif" font-size="12" lengthAdjust="spacingAndGlyphs" textLength="91" x="3069.7972" y="288.1564">it.tidalwave.role</text><!--MD5=[0b3d1e905dead88dbdf65fd1cda455e2]
class it.tidalwave.northernwind.core.model--><a href="http://tidalwave.it/projects/northernwind/it-tidalwave-northernwind-modules/it-tidalwave-northernwind-core/apidocs/it/tidalwave/northernwind/core/model/package-summary.html?is-external=true" target="_top" title="http://tidalwave.it/projects/northernwind/it-tidalwave-northernwind-modules/it-tidalwave-northernwind-core/apidocs/it/tidalwave/northernwind/core/model/package-summary.html?is-external=true" xlink:actuate="onRequest" xlink:href="http://tidalwave.it/projects/northernwind/it-tidalwave-northernwind-modules/it-tidalwave-northernwind-core/apidocs/it/tidalwave/northernwind/core/model/package-summary.html?is-external=true" xlink:show="new" xlink:title="http://tidalwave.it/projects/northernwind/it-tidalwave-northernwind-modules/it-tidalwave-northernwind-core/apidocs/it/tidalwave/northernwind/core/model/package-summary.html?is-external=true" xlink:type="simple"><rect codeLine="65" fill="#FEFECE" filter="url(#fvc5gxws46yau)" height="24.1328" id="it.tidalwave.northernwind.core.model" style="stroke: #A80036; stroke-width: 1.5;" width="220" x="3839.2972" y="271.5548"/><text fill="#000000" font-family="sans-serif" font-size="12" lengthAdjust="spacingAndGlyphs" textLength="214" x="3842.2972" y="288.1564">it.tidalwave.northernwind.core.model</text></a><!--MD5=[358bf1ad3b41adbcdceacb8fb769b9fb]
class it.tidalwave.northernwind.frontend.ui.component.calendar.spi--><a href="it/tidalwave/northernwind/frontend/ui/component/calendar/spi/package-summary.html" target="_top" title="it/tidalwave/northernwind/frontend/ui/component/calendar/spi/package-summary.html" xlink:actuate="onRequest" xlink:href="it/tidalwave/northernwind/frontend/ui/component/calendar/spi/package-summary.html" xlink:show="new" xlink:title="it/tidalwave/northernwind/frontend/ui/component/calendar/spi/package-summary.html" xlink:type="simple"><rect codeLine="67" fill="#FEFECE" filter="url(#fvc5gxws46yau)" height="24.1328" id="it.tidalwave.northernwind.frontend.ui.component.calendar.spi" style="stroke: #A80036; stroke-width: 1.5;" width="361" x="4903.7972" y="187.5548"/><text fill="#000000" font-family="sans-serif" font-size="12" lengthAdjust="spacingAndGlyphs" textLength="355" x="4906.7972" y="204.1564">it.tidalwave.northernwind.frontend.ui.component.calendar.spi</text></a><!--MD5=[0f2eb0d73226a2a0d44571b783db2301]
class org.w3c.dom--><rect fill="#FEFECE" filter="url(#fvc5gxws46yau)" height="24.1328" id="org.w3c.dom" style="stroke: #A80036; stroke-width: 1.5;" width="82" x="5043.2972" y="271.5548"/><text fill="#000000" font-family="sans-serif" font-size="12" lengthAdjust="spacingAndGlyphs" textLength="76" x="5046.2972" y="288.1564">org.w3c.dom</text><!--MD5=[144ae85604f4eba502501c367771140a]
class it.tidalwave.northernwind.frontend.ui.component.htmlfragment--><a href="it/tidalwave/northernwind/frontend/ui/component/htmlfragment/package-summary.html" target="_top" title="it/tidalwave/northernwind/frontend/ui/component/htmlfragment/package-summary.html" xlink:actuate="onRequest" xlink:href="it/tidalwave/northernwind/frontend/ui/component/htmlfragment/package-summary.html" xlink:show="new" xlink:title="it/tidalwave/northernwind/frontend/ui/component/htmlfragment/package-summary.html" xlink:type="simple"><rect codeLine="69" fill="#FEFECE" filter="url(#fvc5gxws46yau)" height="24.1328" id="it.tidalwave.northernwind.frontend.ui.component.htmlfragment" style="stroke: #A80036; stroke-width: 1.5;" width="367" x="4359.7972" y="187.5548"/><text fill="#000000" font-family="sans-serif" font-size="12" lengthAdjust="spacingAndGlyphs" textLength="361" x="4362.7972" y="204.1564">it.tidalwave.northernwind.frontend.ui.component.htmlfragment</text></a><!--MD5=[c92b495dd9e088891c6d91bd670d9ac8]
class it.tidalwave.northernwind.frontend.ui.component.nodecontainer--><a href="it/tidalwave/northernwind/frontend/ui/component/nodecontainer/package-summary.html" target="_top" title="it/tidalwave/northernwind/frontend/ui/component/nodecontainer/package-summary.html" xlink:actuate="onRequest" xlink:href="it/tidalwave/northernwind/frontend/ui/component/nodecontainer/package-summary.html" xlink:show="new" xlink:title="it/tidalwave/northernwind/frontend/ui/component/nodecontainer/package-summary.html" xlink:type="simple"><rect codeLine="71" fill="#FEFECE" filter="url(#fvc5gxws46yau)" height="24.1328" id="it.tidalwave.northernwind.frontend.ui.component.nodecontainer" style="stroke: #A80036; stroke-width: 1.5;" width="372" x="1506.2972" y="187.5548"/><text fill="#000000" font-family="sans-serif" font-size="12" lengthAdjust="spacingAndGlyphs" textLength="366" x="1509.2972" y="204.1564">it.tidalwave.northernwind.frontend.ui.component.nodecontainer</text></a><!--MD5=[c729b051195a0b029cc0c9f7b6e87181]
class it.tidalwave.northernwind.frontend.ui.component.htmltextwithtitle--><a href="it/tidalwave/northernwind/frontend/ui/component/htmltextwithtitle/package-summary.html" target="_top" title="it/tidalwave/northernwind/frontend/ui/component/htmltextwithtitle/package-summary.html" xlink:actuate="onRequest" xlink:href="it/tidalwave/northernwind/frontend/ui/component/htmltextwithtitle/package-summary.html" xlink:show="new" xlink:title="it/tidalwave/northernwind/frontend/ui/component/htmltextwithtitle/package-summary.html" xlink:type="simple"><rect codeLine="73" fill="#FEFECE" filter="url(#fvc5gxws46yau)" height="24.1328" id="it.tidalwave.northernwind.frontend.ui.component.htmltextwithtitle" style="stroke: #A80036; stroke-width: 1.5;" width="381" x="3167.7972" y="187.5548"/><text fill="#000000" font-family="sans-serif" font-size="12" lengthAdjust="spacingAndGlyphs" textLength="375" x="3170.7972" y="204.1564">it.tidalwave.northernwind.frontend.ui.component.htmltextwithtitle</text></a><!--MD5=[326fc467843c25145ec6956b8690da27]
class it.tidalwave.northernwind.frontend.ui.component.gallery--><a href="it/tidalwave/northernwind/frontend/ui/component/gallery/package-summary.html" target="_top" title="it/tidalwave/northernwind/frontend/ui/component/gallery/package-summary.html" xlink:actuate="onRequest" xlink:href="it/tidalwave/northernwind/frontend/ui/component/gallery/package-summary.html" xlink:show="new" xlink:title="it/tidalwave/northernwind/frontend/ui/component/gallery/package-summary.html" xlink:type="simple"><rect codeLine="75" fill="#FEFECE" filter="url(#fvc5gxws46yau)" height="24.1328" id="it.tidalwave.northernwind.frontend.ui.component.gallery" style="stroke: #A80036; stroke-width: 1.5;" width="328" x="1024.2972" y="103.5548"/><text fill="#000000" font-family="sans-serif" font-size="12" lengthAdjust="spacingAndGlyphs" textLength="322" x="1027.2972" y="120.1564">it.tidalwave.northernwind.frontend.ui.component.gallery</text></a><!--MD5=[cadb40e77b29b34c4214bbbd416f90c0]
class it.tidalwave.util.spi--><rect fill="#FEFECE" filter="url(#fvc5gxws46yau)" height="24.1328" id="it.tidalwave.util.spi" style="stroke: #A80036; stroke-width: 1.5;" width="113" x="641.7972" y="271.5548"/><text fill="#000000" font-family="sans-serif" font-size="12" lengthAdjust="spacingAndGlyphs" textLength="107" x="644.7972" y="288.1564">it.tidalwave.util.spi</text><!--MD5=[472ee04098a585a153e0b4bdf18dd01b]
class it.tidalwave.northernwind.frontend.ui.spi--><a href="http://tidalwave.it/projects/northernwind/it-tidalwave-northernwind-modules/it-tidalwave-northernwind-core/apidocs/it/tidalwave/northernwind/frontend/ui/spi/package-summary.html?is-external=true" target="_top" title="http://tidalwave.it/projects/northernwind/it-tidalwave-northernwind-modules/it-tidalwave-northernwind-core/apidocs/it/tidalwave/northernwind/frontend/ui/spi/package-summary.html?is-external=true" xlink:actuate="onRequest" xlink:href="http://tidalwave.it/projects/northernwind/it-tidalwave-northernwind-modules/it-tidalwave-northernwind-core/apidocs/it/tidalwave/northernwind/frontend/ui/spi/package-summary.html?is-external=true" xlink:show="new" xlink:title="http://tidalwave.it/projects/northernwind/it-tidalwave-northernwind-modules/it-tidalwave-northernwind-core/apidocs/it/tidalwave/northernwind/frontend/ui/spi/package-summary.html?is-external=true" xlink:type="simple"><rect codeLine="77" fill="#FEFECE" filter="url(#fvc5gxws46yau)" height="24.1328" id="it.tidalwave.northernwind.frontend.ui.spi" style="stroke: #A80036; stroke-width: 1.5;" width="239" x="667.7972" y="187.5548"/><text fill="#000000" font-family="sans-serif" font-size="12" lengthAdjust="spacingAndGlyphs" textLength="233" x="670.7972" y="204.1564">it.tidalwave.northernwind.frontend.ui.spi</text></a><!--MD5=[63e7a584eafef3b24bc1c0cca5686a3b]
class org.springframework.beans.factory--><rect fill="#FEFECE" filter="url(#fvc5gxws46yau)" height="24.1328" id="org.springframework.beans.factory" style="stroke: #A80036; stroke-width: 1.5;" width="209" x="30.7972" y="187.5548"/><text fill="#000000" font-family="sans-serif" font-size="12" lengthAdjust="spacingAndGlyphs" textLength="203" x="33.7972" y="204.1564">org.springframework.beans.factory</text><!--MD5=[cac56950b7f1e4f4ab76a8ddb877443c]
class it.tidalwave.northernwind.frontend.ui.component.gallery.spi--><rect fill="#FEFECE" filter="url(#fvc5gxws46yau)" height="24.1328" id="it.tidalwave.northernwind.frontend.ui.component.gallery.spi" style="stroke: #A80036; stroke-width: 1.5;" width="349" x="1913.7972" y="187.5548"/><text fill="#000000" font-family="sans-serif" font-size="12" lengthAdjust="spacingAndGlyphs" textLength="343" x="1916.7972" y="204.1564">it.tidalwave.northernwind.frontend.ui.component.gallery.spi</text><!--MD5=[3ebdd6b83c3f211b028239fdc656436f]
class it.tidalwave.northernwind.frontend.ui.component.gallery.spi.loader--><a href="it/tidalwave/northernwind/frontend/ui/component/gallery/spi/loader/package-summary.html" target="_top" title="it/tidalwave/northernwind/frontend/ui/component/gallery/spi/loader/package-summary.html" xlink:actuate="onRequest" xlink:href="it/tidalwave/northernwind/frontend/ui/component/gallery/spi/loader/package-summary.html" xlink:show="new" xlink:title="it/tidalwave/northernwind/frontend/ui/component/gallery/spi/loader/package-summary.html" xlink:type="simple"><rect codeLine="79" fill="#FEFECE" filter="url(#fvc5gxws46yau)" height="24.1328" id="it.tidalwave.northernwind.frontend.ui.component.gallery.spi.loader" style="stroke: #A80036; stroke-width: 1.5;" width="390" x="993.2972" y="19.5548"/><text fill="#000000" font-family="sans-serif" font-size="12" lengthAdjust="spacingAndGlyphs" textLength="384" x="996.2972" y="36.1564">it.tidalwave.northernwind.frontend.ui.component.gallery.spi.loader</text></a><!--MD5=[82ac8f4d661e18f3be5980aadbc6ca8b]
class it.tidalwave.northernwind.frontend.ui.component.sitemap--><a href="it/tidalwave/northernwind/frontend/ui/component/sitemap/package-summary.html" target="_top" title="it/tidalwave/northernwind/frontend/ui/component/sitemap/package-summary.html" xlink:actuate="onRequest" xlink:href="it/tidalwave/northernwind/frontend/ui/component/sitemap/package-summary.html" xlink:show="new" xlink:title="it/tidalwave/northernwind/frontend/ui/component/sitemap/package-summary.html" xlink:type="simple"><rect codeLine="81" fill="#FEFECE" filter="url(#fvc5gxws46yau)" height="24.1328" id="it.tidalwave.northernwind.frontend.ui.component.sitemap" style="stroke: #A80036; stroke-width: 1.5;" width="336" x="2726.2972" y="187.5548"/><text fill="#000000" font-family="sans-serif" font-size="12" lengthAdjust="spacingAndGlyphs" textLength="330" x="2729.2972" y="204.1564">it.tidalwave.northernwind.frontend.ui.component.sitemap</text></a><!--MD5=[7e0ee81f82b76c069ae7a2afeaf55405]
class it.tidalwave.northernwind.frontend.ui.component.blog--><a href="it/tidalwave/northernwind/frontend/ui/component/blog/package-summary.html" target="_top" title="it/tidalwave/northernwind/frontend/ui/component/blog/package-summary.html" xlink:actuate="onRequest" xlink:href="it/tidalwave/northernwind/frontend/ui/component/blog/package-summary.html" xlink:show="new" xlink:title="it/tidalwave/northernwind/frontend/ui/component/blog/package-summary.html" xlink:type="simple"><rect codeLine="83" fill="#FEFECE" filter="url(#fvc5gxws46yau)" height="24.1328" id="it.tidalwave.northernwind.frontend.ui.component.blog" style="stroke: #A80036; stroke-width: 1.5;" width="315" x="1084.7972" y="187.5548"/><text fill="#000000" font-family="sans-serif" font-size="12" lengthAdjust="spacingAndGlyphs" textLength="309" x="1087.7972" y="204.1564">it.tidalwave.northernwind.frontend.ui.component.blog</text></a><!--MD5=[4d05699db41cec580b4600c441ef324b]
class it.tidalwave.northernwind.frontend.ui.component.container--><a href="it/tidalwave/northernwind/frontend/ui/component/container/package-summary.html" target="_top" title="it/tidalwave/northernwind/frontend/ui/component/container/package-summary.html" xlink:actuate="onRequest" xlink:href="it/tidalwave/northernwind/frontend/ui/component/container/package-summary.html" xlink:show="new" xlink:title="it/tidalwave/northernwind/frontend/ui/component/container/package-summary.html" xlink:type="simple"><rect codeLine="85" fill="#FEFECE" filter="url(#fvc5gxws46yau)" height="24.1328" id="it.tidalwave.northernwind.frontend.ui.component.container" style="stroke: #A80036; stroke-width: 1.5;" width="343" x="3583.7972" y="187.5548"/><text fill="#000000" font-family="sans-serif" font-size="12" lengthAdjust="spacingAndGlyphs" textLength="337" x="3586.7972" y="204.1564">it.tidalwave.northernwind.frontend.ui.component.container</text></a><!--MD5=[96073b2d8590f3bd65b14e4480d9ba73]
class it.tidalwave.northernwind.frontend.ui.component.menu--><a href="it/tidalwave/northernwind/frontend/ui/component/menu/package-summary.html" target="_top" title="it/tidalwave/northernwind/frontend/ui/component/menu/package-summary.html" xlink:actuate="onRequest" xlink:href="it/tidalwave/northernwind/frontend/ui/component/menu/package-summary.html" xlink:show="new" xlink:title="it/tidalwave/northernwind/frontend/ui/component/menu/package-summary.html" xlink:type="simple"><rect codeLine="87" fill="#FEFECE" filter="url(#fvc5gxws46yau)" height="24.1328" id="it.tidalwave.northernwind.frontend.ui.component.menu" style="stroke: #A80036; stroke-width: 1.5;" width="322" x="2369.2972" y="187.5548"/><text fill="#000000" font-family="sans-serif" font-size="12" lengthAdjust="spacingAndGlyphs" textLength="316" x="2372.2972" y="204.1564">it.tidalwave.northernwind.frontend.ui.component.menu</text></a><!--MD5=[1a764377a3f616d9db8be1aca19993dc]
class it.tidalwave.northernwind.frontend.ui.component.breadcrumb--><a href="it/tidalwave/northernwind/frontend/ui/component/breadcrumb/package-summary.html" target="_top" title="it/tidalwave/northernwind/frontend/ui/component/breadcrumb/package-summary.html" xlink:actuate="onRequest" xlink:href="it/tidalwave/northernwind/frontend/ui/component/breadcrumb/package-summary.html" xlink:show="new" xlink:title="it/tidalwave/northernwind/frontend/ui/component/breadcrumb/package-summary.html" xlink:type="simple"><rect codeLine="89" fill="#FEFECE" filter="url(#fvc5gxws46yau)" height="24.1328" id="it.tidalwave.northernwind.frontend.ui.component.breadcrumb" style="stroke: #A80036; stroke-width: 1.5;" width="362" x="3962.2972" y="187.5548"/><text fill="#000000" font-family="sans-serif" font-size="12" lengthAdjust="spacingAndGlyphs" textLength="356" x="3965.2972" y="204.1564">it.tidalwave.northernwind.frontend.ui.component.breadcrumb</text></a><!--MD5=[865140074db79ab46e097e97d4593b6f]
link it.tidalwave.northernwind.frontend.ui.component to it.tidalwave.util--><path codeLine="6" d="M581.9965,211.59 C720.2672,229.5416 975.9172,262.7327 1084.9075,276.8829 " fill="none" id="it.tidalwave.northernwind.frontend.ui.component-to-it.tidalwave.util" style="stroke: #A80036; stroke-width: 1.0;"/><polygon fill="#A80036" points="1089.9856,277.5422,1081.5756,272.4166,1085.0272,276.8984,1080.5454,280.35,1089.9856,277.5422" style="stroke: #A80036; stroke-width: 1.0;"/><!--MD5=[ab86a93432b90069cd7e784c89b4f00d]
link it.tidalwave.northernwind.frontend.ui.component.calendar to it.tidalwave.northernwind.frontend.ui--><path codeLine="7" d="M3812.9592,116.8098 C3404.8631,120.6514 2401.2191,135.3819 2351.2972,187.5548 C2343.9228,195.2617 2344.5324,203.3076 2351.2972,211.5548 C2382.2056,249.2366 2504.425,267.575 2598.1807,276.2435 " fill="none" id="it.tidalwave.northernwind.frontend.ui.component.calendar-to-it.tidalwave.northernwind.frontend.ui" style="stroke: #A80036; stroke-width: 1.0;"/><polygon fill="#A80036" points="2603.1853,276.6996,2594.5855,271.8992,2598.2059,276.2457,2593.8594,279.8662,2603.1853,276.6996" style="stroke: #A80036; stroke-width: 1.0;"/><!--MD5=[9abd1ccb34c2474e9811e35daae7d0ff]
link it.tidalwave.northernwind.frontend.ui.component.calendar to it.tidalwave.util--><path codeLine="8" d="M3813.0707,116.5768 C3196.7607,120.6766 1115.4868,138.1606 1067.2972,187.5548 C1042.1604,213.3199 1083.846,248.8371 1112.5963,268.6532 " fill="none" id="it.tidalwave.northernwind.frontend.ui.component.calendar-to-it.tidalwave.util" style="stroke: #A80036; stroke-width: 1.0;"/><polygon fill="#A80036" points="1116.7348,271.4599,1111.5315,263.0977,1112.5967,268.6534,1107.0411,269.7186,1116.7348,271.4599" style="stroke: #A80036; stroke-width: 1.0;"/><!--MD5=[384682bbea40a71a22c7f44707e13b17]
link it.tidalwave.northernwind.frontend.ui.component.calendar to it.tidalwave.role--><path codeLine="9" d="M3813.1896,120.5764 C3584.804,128.7808 3201.611,148.245 3150.2972,187.5548 C3125.6566,206.4311 3118.3487,244.3508 3116.191,266.4639 " fill="none" id="it.tidalwave.northernwind.frontend.ui.component.calendar-to-it.tidalwave.role" style="stroke: #A80036; stroke-width: 1.0;"/><polygon fill="#A80036" points="3115.7651,271.4596,3120.5154,262.832,3116.19,266.4777,3112.5443,262.1523,3115.7651,271.4596" style="stroke: #A80036; stroke-width: 1.0;"/><!--MD5=[ba43dff6634b742879cf92995a2faf49]
link it.tidalwave.northernwind.frontend.ui.component.calendar to it.tidalwave.northernwind.core.model--><path codeLine="10" d="M4153.458,118.4166 C4381.5985,124.0474 4763.147,140.4649 4806.2972,187.5548 C4813.5035,195.4191 4813.517,203.7029 4806.2972,211.5548 C4757.1013,265.0571 4286.942,278.8246 4064.6608,282.3501 " fill="none" id="it.tidalwave.northernwind.frontend.ui.component.calendar-to-it.tidalwave.northernwind.core.model" style="stroke: #A80036; stroke-width: 1.0;"/><polygon fill="#A80036" points="4059.4565,282.4315,4068.518,286.2901,4064.4559,282.3532,4068.3928,278.2911,4059.4565,282.4315" style="stroke: #A80036; stroke-width: 1.0;"/><!--MD5=[4e9b512f7da7e0beb609550cdaef0357]
link it.tidalwave.northernwind.frontend.ui.component.calendar to it.tidalwave.northernwind.frontend.ui.component.calendar.spi--><path codeLine="11" d="M4131.5008,127.5676 C4334.4566,143.4052 4697.8371,171.1318 4912.4578,187.1586 " fill="none" id="it.tidalwave.northernwind.frontend.ui.component.calendar-to-it.tidalwave.northernwind.frontend.ui.component.calendar.spi" style="stroke: #A80036; stroke-width: 1.0;"/><polygon fill="#A80036" points="4917.4997,187.535,4908.8225,182.876,4912.5136,187.1627,4908.2269,190.8538,4917.4997,187.535" style="stroke: #A80036; stroke-width: 1.0;"/><!--MD5=[bafed970ba003b9a7bd45fa4c0d70a66]
link it.tidalwave.northernwind.frontend.ui.component.calendar.spi to it.tidalwave.northernwind.frontend.ui.component.calendar--><path codeLine="13" d="M4936.5483,187.535 C4733.8178,171.694 4370.4376,143.9673 4155.5926,127.9439 " fill="none" id="it.tidalwave.northernwind.frontend.ui.component.calendar.spi-to-it.tidalwave.northernwind.frontend.ui.component.calendar" style="stroke: #A80036; stroke-width: 1.0;"/><polygon fill="#A80036" points="4150.5453,127.5676,4159.2229,132.2259,4155.5315,127.9395,4159.8179,124.248,4150.5453,127.5676" style="stroke: #A80036; stroke-width: 1.0;"/><!--MD5=[0aca63f38ff06fcb87b20635347f1db8]
link it.tidalwave.northernwind.frontend.ui.component.calendar.spi to it.tidalwave.northernwind.core.model--><path codeLine="12" d="M4921.981,211.5676 C4689.5577,228.769 4267.6314,259.9953 4064.57,275.0236 " fill="none" id="it.tidalwave.northernwind.frontend.ui.component.calendar.spi-to-it.tidalwave.northernwind.core.model" style="stroke: #A80036; stroke-width: 1.0;"/><polygon fill="#A80036" points="4059.5172,275.3975,4068.788,278.7221,4064.5036,275.0284,4068.1973,270.744,4059.5172,275.3975" style="stroke: #A80036; stroke-width: 1.0;"/><!--MD5=[6d5ddcccaf4136ba9421e14140e3a841]
link it.tidalwave.northernwind.frontend.ui.component.calendar.spi to org.w3c.dom--><path codeLine="14" d="M5084.2972,211.59 C5084.2972,225.9366 5084.2972,250.0163 5084.2972,266.3318 " fill="none" id="it.tidalwave.northernwind.frontend.ui.component.calendar.spi-to-org.w3c.dom" style="stroke: #A80036; stroke-width: 1.0;"/><polygon fill="#A80036" points="5084.2972,271.542,5088.2972,262.542,5084.2972,266.542,5080.2972,262.542,5084.2972,271.542" style="stroke: #A80036; stroke-width: 1.0;"/><!--MD5=[e8c14e8bb6753e725b5d0e84bdd52b83]
link it.tidalwave.northernwind.frontend.ui.component.htmlfragment to it.tidalwave.northernwind.core.model--><path codeLine="15" d="M4458.1914,211.59 C4346.9262,227.3244 4152.8728,254.7663 4039.2582,270.833 " fill="none" id="it.tidalwave.northernwind.frontend.ui.component.htmlfragment-to-it.tidalwave.northernwind.core.model" style="stroke: #A80036; stroke-width: 1.0;"/><polygon fill="#A80036" points="4034.245,271.542,4043.7164,274.2423,4039.1957,270.8419,4042.5962,266.3211,4034.245,271.542" style="stroke: #A80036; stroke-width: 1.0;"/><!--MD5=[28a109165abb05d6309e040284f024da]
link it.tidalwave.northernwind.frontend.ui.component.htmlfragment to it.tidalwave.northernwind.frontend.ui--><path codeLine="16" d="M4359.551,210.6407 C4353.7329,210.9546 4347.9702,211.2602 4342.2972,211.5548 C3773.451,241.097 3092.5221,268.6536 2826.5869,279.1158 " fill="none" id="it.tidalwave.northernwind.frontend.ui.component.htmlfragment-to-it.tidalwave.northernwind.frontend.ui" style="stroke: #A80036; stroke-width: 1.0;"/><polygon fill="#A80036" points="2821.5413,279.3142,2830.6916,282.9573,2826.5374,279.1176,2830.3771,274.9635,2821.5413,279.3142" style="stroke: #A80036; stroke-width: 1.0;"/><!--MD5=[407d15628330b087b74561371e565d92]
link it.tidalwave.northernwind.frontend.ui.component.htmlfragment to it.tidalwave.role--><path codeLine="17" d="M4359.545,210.5327 C4353.7286,210.8778 4347.9679,211.2191 4342.2972,211.5548 C3888.4851,238.4162 3340.2322,270.4335 3169.0151,280.4222 " fill="none" id="it.tidalwave.northernwind.frontend.ui.component.htmlfragment-to-it.tidalwave.role" style="stroke: #A80036; stroke-width: 1.0;"/><polygon fill="#A80036" points="3163.8155,280.7256,3173.0332,284.1945,3168.807,280.4343,3172.5672,276.2081,3163.8155,280.7256" style="stroke: #A80036; stroke-width: 1.0;"/><!--MD5=[d2336f00d1c59b06b40db0c2ec85dc8c]
link it.tidalwave.northernwind.frontend.ui.component.nodecontainer to it.tidalwave.northernwind.frontend.ui--><path codeLine="18" d="M1838.1672,211.5676 C2043.0165,228.4376 2411.6688,258.7972 2597.9394,274.1371 " fill="none" id="it.tidalwave.northernwind.frontend.ui.component.nodecontainer-to-it.tidalwave.northernwind.frontend.ui" style="stroke: #A80036; stroke-width: 1.0;"/><polygon fill="#A80036" points="2603.1239,274.5641,2594.4827,269.8386,2598.1408,274.1535,2593.8258,277.8116,2603.1239,274.5641" style="stroke: #A80036; stroke-width: 1.0;"/><!--MD5=[ccb9cd7ffdb23ff13a30205f83a8a986]
link it.tidalwave.northernwind.frontend.ui.component.nodecontainer to it.tidalwave.util--><path codeLine="19" d="M1612.6359,211.59 C1496.7036,229.1049 1284.7494,261.1268 1187.5151,275.8168 " fill="none" id="it.tidalwave.northernwind.frontend.ui.component.nodecontainer-to-it.tidalwave.util" style="stroke: #A80036; stroke-width: 1.0;"/><polygon fill="#A80036" points="1182.4071,276.5885,1191.9037,279.199,1187.351,275.8415,1190.7085,271.2888,1182.4071,276.5885" style="stroke: #A80036; stroke-width: 1.0;"/><!--MD5=[0295aca7965597f216e44571951d1dfe]
link it.tidalwave.northernwind.frontend.ui.component.nodecontainer to it.tidalwave.role--><path codeLine="20" d="M1878.3296,210.5363 C2205.7751,229.8655 2868.707,268.9985 3061.547,280.3819 " fill="none" id="it.tidalwave.northernwind.frontend.ui.component.nodecontainer-to-it.tidalwave.role" style="stroke: #A80036; stroke-width: 1.0;"/><polygon fill="#A80036" points="3066.5653,280.6781,3057.8167,276.1546,3061.574,280.3834,3057.3452,284.1407,3066.5653,280.6781" style="stroke: #A80036; stroke-width: 1.0;"/><!--MD5=[b84a5a7c24c114c2a624ce8a6f220406]
link it.tidalwave.northernwind.frontend.ui.component.nodecontainer to it.tidalwave.northernwind.core.model--><path codeLine="21" d="M1878.5102,210.691 C1884.5086,210.9914 1890.4497,211.2803 1896.2972,211.5548 C2634.204,246.1925 3522.0252,271.9141 3834.093,280.472 " fill="none" id="it.tidalwave.northernwind.frontend.ui.component.nodecontainer-to-it.tidalwave.northernwind.core.model" style="stroke: #A80036; stroke-width: 1.0;"/><polygon fill="#A80036" points="3839.0981,280.6092,3830.2111,276.3641,3834.1,280.4722,3829.9919,284.3611,3839.0981,280.6092" style="stroke: #A80036; stroke-width: 1.0;"/><!--MD5=[caacf9da33993c753a6c34a767451881]
link it.tidalwave.northernwind.frontend.ui.component.htmltextwithtitle to it.tidalwave.northernwind.core.model--><path codeLine="22" d="M3442.9731,211.59 C3553.6763,227.3244 3746.7497,254.7663 3859.7905,270.833 " fill="none" id="it.tidalwave.northernwind.frontend.ui.component.htmltextwithtitle-to-it.tidalwave.northernwind.core.model" style="stroke: #A80036; stroke-width: 1.0;"/><polygon fill="#A80036" points="3864.7783,271.542,3856.4308,266.3151,3859.8281,270.8383,3855.3049,274.2355,3864.7783,271.542" style="stroke: #A80036; stroke-width: 1.0;"/><!--MD5=[7e5a668e7b7691ddc9054190f3cc1e6c]
link it.tidalwave.northernwind.frontend.ui.component.htmltextwithtitle to it.tidalwave.northernwind.frontend.ui--><path codeLine="23" d="M3265.7411,211.59 C3144.6156,227.34 2933.2758,254.8207 2809.7664,270.8808 " fill="none" id="it.tidalwave.northernwind.frontend.ui.component.htmltextwithtitle-to-it.tidalwave.northernwind.frontend.ui" style="stroke: #A80036; stroke-width: 1.0;"/><polygon fill="#A80036" points="2804.6815,271.542,2814.1222,274.3479,2809.6397,270.8971,2813.0905,266.4147,2804.6815,271.542" style="stroke: #A80036; stroke-width: 1.0;"/><!--MD5=[c044b325956707d26455fe3af21aa703]
link it.tidalwave.northernwind.frontend.ui.component.htmltextwithtitle to it.tidalwave.role--><path codeLine="24" d="M3323.4812,211.59 C3278.9109,226.997 3201.8679,253.6291 3155.0436,269.8153 " fill="none" id="it.tidalwave.northernwind.frontend.ui.component.htmltextwithtitle-to-it.tidalwave.role" style="stroke: #A80036; stroke-width: 1.0;"/><polygon fill="#A80036" points="3150.0486,271.542,3159.8616,272.382,3154.7742,269.9084,3157.2478,264.8211,3150.0486,271.542" style="stroke: #A80036; stroke-width: 1.0;"/><!--MD5=[ec9c75502181107e96de58fa8c09cda2]
link it.tidalwave.northernwind.frontend.ui.component.gallery to it.tidalwave.northernwind.frontend.ui.component.nodecontainer--><path codeLine="25" d="M1260.5081,127.59 C1354.6342,143.2776 1518.5879,170.6033 1615.1049,186.6894 " fill="none" id="it.tidalwave.northernwind.frontend.ui.component.gallery-to-it.tidalwave.northernwind.frontend.ui.component.nodecontainer" style="stroke: #A80036; stroke-width: 1.0;"/><polygon fill="#A80036" points="1620.2202,187.542,1612.0004,182.1166,1615.2883,186.7199,1610.685,190.0077,1620.2202,187.542" style="stroke: #A80036; stroke-width: 1.0;"/><!--MD5=[4bf674a02371f1e960441a921a2338af]
link it.tidalwave.northernwind.frontend.ui.component.gallery to it.tidalwave.util.spi--><path codeLine="26" d="M1023.8812,117.5858 C787.3707,122.24 374.3204,137.5174 328.2972,187.5548 C321.0762,195.4056 321.5132,203.3234 328.2972,211.5548 C366.6815,258.1285 541.8315,274.9662 636.7396,280.7401 " fill="none" id="it.tidalwave.northernwind.frontend.ui.component.gallery-to-it.tidalwave.util.spi" style="stroke: #A80036; stroke-width: 1.0;"/><polygon fill="#A80036" points="641.7558,281.0395,633.0102,276.5102,636.7647,280.7415,632.5334,284.496,641.7558,281.0395" style="stroke: #A80036; stroke-width: 1.0;"/><!--MD5=[6fd71cc0a538106264013ef07ec3233b]
link it.tidalwave.northernwind.frontend.ui.component.gallery to it.tidalwave.northernwind.frontend.ui.spi--><path codeLine="27" d="M1130.8436,127.59 C1056.2513,143.2153 926.5428,170.3861 849.6326,186.497 " fill="none" id="it.tidalwave.northernwind.frontend.ui.component.gallery-to-it.tidalwave.northernwind.frontend.ui.spi" style="stroke: #A80036; stroke-width: 1.0;"/><polygon fill="#A80036" points="844.6441,187.542,854.273,189.6118,849.5379,186.5169,852.6328,181.7817,844.6441,187.542" style="stroke: #A80036; stroke-width: 1.0;"/><!--MD5=[253db637ec88e6849a4a0b8c366d20f8]
link it.tidalwave.northernwind.frontend.ui.component.gallery to it.tidalwave.northernwind.core.model--><path codeLine="28" d="M1352.5356,115.7814 C2043.8299,117.1194 4684.2129,126.2417 4744.2972,187.5548 C4751.7629,195.1732 4751.4914,203.6795 4744.2972,211.5548 C4699.3979,260.7041 4274.0493,276.6349 4064.6398,281.5243 " fill="none" id="it.tidalwave.northernwind.frontend.ui.component.gallery-to-it.tidalwave.northernwind.core.model" style="stroke: #A80036; stroke-width: 1.0;"/><polygon fill="#A80036" points="4059.4271,281.6448,4068.5172,285.4357,4064.4258,281.5292,4068.3322,277.4378,4059.4271,281.6448" style="stroke: #A80036; stroke-width: 1.0;"/><!--MD5=[df93fb61d93f912a774b39dcfa6a0ad3]
link it.tidalwave.northernwind.frontend.ui.component.gallery to org.springframework.beans.factory--><path codeLine="29" d="M1026.4517,127.5851 C842.4776,141.4049 533.1871,165.0767 267.2972,187.5548 C260.1246,188.1612 252.734,188.7985 245.2857,189.4502 " fill="none" id="it.tidalwave.northernwind.frontend.ui.component.gallery-to-org.springframework.beans.factory" style="stroke: #A80036; stroke-width: 1.0;"/><polygon fill="#A80036" points="240.122,189.9035,249.4373,193.1011,245.1028,189.4662,248.7377,185.1317,240.122,189.9035" style="stroke: #A80036; stroke-width: 1.0;"/><!--MD5=[2ea5b2855446e86ed76cfb791b56526f]
link it.tidalwave.northernwind.frontend.ui.component.gallery to it.tidalwave.northernwind.frontend.ui.component.gallery.spi--><path codeLine="30" d="M1317.2452,127.59 C1486.6643,143.4024 1782.7663,171.0386 1954.5427,187.071 " fill="none" id="it.tidalwave.northernwind.frontend.ui.component.gallery-to-it.tidalwave.northernwind.frontend.ui.component.gallery.spi" style="stroke: #A80036; stroke-width: 1.0;"/><polygon fill="#A80036" points="1959.5883,187.542,1950.999,182.7228,1954.6099,187.0773,1950.2555,190.6882,1959.5883,187.542" style="stroke: #A80036; stroke-width: 1.0;"/><!--MD5=[c297edbbe38e46065fb6087197c32946]
link it.tidalwave.northernwind.frontend.ui.component.gallery to it.tidalwave.util--><path codeLine="31" d="M1141.377,127.5557 C1092.5925,141.0946 1021.1542,164.2757 1005.2972,187.5548 C979.3614,225.63 1039.8943,254.2085 1087.0858,269.9027 " fill="none" id="it.tidalwave.northernwind.frontend.ui.component.gallery-to-it.tidalwave.util" style="stroke: #A80036; stroke-width: 1.0;"/><polygon fill="#A80036" points="1091.8967,271.474,1084.5835,264.8773,1087.1438,269.9216,1082.0996,272.4819,1091.8967,271.474" style="stroke: #A80036; stroke-width: 1.0;"/><!--MD5=[e7eec86e533429c0cb995c61a51465fe]
link it.tidalwave.northernwind.frontend.ui.component.gallery to it.tidalwave.northernwind.frontend.ui--><path codeLine="32" d="M1227.6844,127.6586 C1273.3756,141.7644 1350.9315,165.9078 1417.2972,187.5548 C1448.9648,197.8841 1455.6019,205.1867 1488.2972,211.5548 C1698.6632,252.5281 2335.3858,273.5907 2597.5848,280.7149 " fill="none" id="it.tidalwave.northernwind.frontend.ui.component.gallery-to-it.tidalwave.northernwind.frontend.ui" style="stroke: #A80036; stroke-width: 1.0;"/><polygon fill="#A80036" points="2602.9455,280.8601,2594.0571,276.6178,2597.9473,280.7247,2593.8405,284.6149,2602.9455,280.8601" style="stroke: #A80036; stroke-width: 1.0;"/><!--MD5=[d48a0ead9da106d8e3ec47b57cc0426d]
link it.tidalwave.northernwind.frontend.ui.component.gallery.spi.loader to it.tidalwave.util--><path codeLine="33" d="M993.2219,43.5023 C675.7899,64.964 76.326,114.7039 13.2972,187.5548 C6.3181,195.6214 6,203.7748 13.2972,211.5548 C31.8933,231.3814 867.3978,271.1738 1084.952,281.2132 " fill="none" id="it.tidalwave.northernwind.frontend.ui.component.gallery.spi.loader-to-it.tidalwave.util" style="stroke: #A80036; stroke-width: 1.0;"/><polygon fill="#A80036" points="1089.9755,281.4448,1081.1694,277.0343,1084.9808,281.2144,1080.8007,285.0258,1089.9755,281.4448" style="stroke: #A80036; stroke-width: 1.0;"/><!--MD5=[a64777d65b910c984745b200b43c2600]
link it.tidalwave.northernwind.frontend.ui.component.gallery.spi.loader to org.springframework.beans.factory--><path codeLine="34" d="M1112.9906,43.5695 C920.8771,74.2201 413.7989,155.1215 215.9647,186.6848 " fill="none" id="it.tidalwave.northernwind.frontend.ui.component.gallery.spi.loader-to-org.springframework.beans.factory" style="stroke: #A80036; stroke-width: 1.0;"/><polygon fill="#A80036" points="210.7755,187.5127,220.2934,190.0446,215.713,186.7248,219.0328,182.1445,210.7755,187.5127" style="stroke: #A80036; stroke-width: 1.0;"/><!--MD5=[93843268f5ed1869c83793b733c051e8]
link it.tidalwave.northernwind.frontend.ui.component.gallery.spi.loader to it.tidalwave.northernwind.core.model--><path codeLine="35" d="M1383.4335,32.8007 C1859.9213,36.5976 3120.6709,51.1924 4171.2972,103.5548 C4418.5838,115.8794 5113.9511,6 5282.2972,187.5548 C5289.5497,195.3764 5289.6334,203.8116 5282.2972,211.5548 C5240.7044,255.4547 4380.6162,275.6344 4064.5246,281.5883 " fill="none" id="it.tidalwave.northernwind.frontend.ui.component.gallery.spi.loader-to-it.tidalwave.northernwind.core.model" style="stroke: #A80036; stroke-width: 1.0;"/><polygon fill="#A80036" points="4059.4516,281.6835,4068.5251,285.5139,4064.4507,281.5896,4068.3749,277.5153,4059.4516,281.6835" style="stroke: #A80036; stroke-width: 1.0;"/><!--MD5=[f1873dd3b99c40c590ed1c704673bece]
link it.tidalwave.northernwind.frontend.ui.component.gallery.spi.loader to it.tidalwave.northernwind.frontend.ui.component.gallery.spi--><path codeLine="36" d="M1252.6618,43.5695 C1416.6995,74.1899 1849.4077,154.9621 2018.85,186.5913 " fill="none" id="it.tidalwave.northernwind.frontend.ui.component.gallery.spi.loader-to-it.tidalwave.northernwind.frontend.ui.component.gallery.spi" style="stroke: #A80036; stroke-width: 1.0;"/><polygon fill="#A80036" points="2023.7858,187.5127,2015.6727,181.929,2018.8707,186.5951,2014.2046,189.7932,2023.7858,187.5127" style="stroke: #A80036; stroke-width: 1.0;"/><!--MD5=[04df5d47c947bff270049f46cefe16f4]
link it.tidalwave.northernwind.frontend.ui.component.gallery.spi.loader to it.tidalwave.northernwind.frontend.ui.component.gallery--><path codeLine="37" d="M1188.2972,43.59 C1188.2972,57.9366 1188.2972,82.0163 1188.2972,98.3318 " fill="none" id="it.tidalwave.northernwind.frontend.ui.component.gallery.spi.loader-to-it.tidalwave.northernwind.frontend.ui.component.gallery" style="stroke: #A80036; stroke-width: 1.0;"/><polygon fill="#A80036" points="1188.2972,103.542,1192.2972,94.542,1188.2972,98.542,1184.2972,94.542,1188.2972,103.542" style="stroke: #A80036; stroke-width: 1.0;"/><!--MD5=[bebde7ce124fc3dae29bc862bfb4e483]
link it.tidalwave.northernwind.frontend.ui.component.sitemap to it.tidalwave.northernwind.core.model--><path codeLine="38" d="M3045.1725,211.5676 C3258.1434,228.5245 3642.2893,259.1106 3833.9801,274.3732 " fill="none" id="it.tidalwave.northernwind.frontend.ui.component.sitemap-to-it.tidalwave.northernwind.core.model" style="stroke: #A80036; stroke-width: 1.0;"/><polygon fill="#A80036" points="3839.0336,274.7755,3830.3795,270.0738,3834.0494,274.3786,3829.7445,278.0485,3839.0336,274.7755" style="stroke: #A80036; stroke-width: 1.0;"/><!--MD5=[1201877bbe56fc4fc0d76aa6b90fa19b]
link it.tidalwave.northernwind.frontend.ui.component.sitemap to it.tidalwave.northernwind.frontend.ui--><path codeLine="39" d="M2868.221,211.59 C2835.1095,226.8722 2778.069,253.1986 2742.9224,269.4201 " fill="none" id="it.tidalwave.northernwind.frontend.ui.component.sitemap-to-it.tidalwave.northernwind.frontend.ui" style="stroke: #A80036; stroke-width: 1.0;"/><polygon fill="#A80036" points="2738.325,271.542,2748.1729,271.4024,2742.8648,269.4467,2744.8204,264.1387,2738.325,271.542" style="stroke: #A80036; stroke-width: 1.0;"/><!--MD5=[fc5fe087cf9b1a4bca2edb569686aa18]
link it.tidalwave.northernwind.frontend.ui.component.sitemap to it.tidalwave.util--><path codeLine="40" d="M2726.0065,210.5534 C2720.0304,210.8991 2714.1129,211.234 2708.2972,211.5548 C2110.7339,244.5128 1384.7959,273.7861 1187.725,281.5485 " fill="none" id="it.tidalwave.northernwind.frontend.ui.component.sitemap-to-it.tidalwave.util" style="stroke: #A80036; stroke-width: 1.0;"/><polygon fill="#A80036" points="1182.608,281.7499,1191.7584,285.3927,1187.6041,281.5532,1191.4437,277.3989,1182.608,281.7499" style="stroke: #A80036; stroke-width: 1.0;"/><!--MD5=[13ce8b13ee1ddf5476017a1a507351de]
link it.tidalwave.northernwind.frontend.ui.component.sitemap to it.tidalwave.role--><path codeLine="41" d="M2925.9611,211.59 C2966.4141,226.9658 3036.2806,253.5213 3078.8902,269.7169 " fill="none" id="it.tidalwave.northernwind.frontend.ui.component.sitemap-to-it.tidalwave.role" style="stroke: #A80036; stroke-width: 1.0;"/><polygon fill="#A80036" points="3083.692,271.542,3076.7005,264.6052,3079.0183,269.7655,3073.858,272.0832,3083.692,271.542" style="stroke: #A80036; stroke-width: 1.0;"/><!--MD5=[83af923bafe1e3e657ac20caa31f2dd2]
link it.tidalwave.northernwind.frontend.ui.component.blog to it.tidalwave.role--><path codeLine="42" d="M1400.101,207.3584 C1429.4187,208.7781 1459.7863,210.2286 1488.2972,211.5548 C1805.1127,226.292 2816.1567,270.4942 3061.3506,281.2004 " fill="none" id="it.tidalwave.northernwind.frontend.ui.component.blog-to-it.tidalwave.role" style="stroke: #A80036; stroke-width: 1.0;"/><polygon fill="#A80036" points="3066.6523,281.4319,3057.8354,277.0431,3061.6571,281.2138,3057.4864,285.0354,3066.6523,281.4319" style="stroke: #A80036; stroke-width: 1.0;"/><!--MD5=[7997cd0e7da2177ddce723fa8fdc9a82]
link it.tidalwave.northernwind.frontend.ui.component.blog to it.tidalwave.util.spi--><path codeLine="43" d="M1164.3552,211.59 C1055.2904,228.4308 859.3684,258.6835 759.8806,274.0456 " fill="none" id="it.tidalwave.northernwind.frontend.ui.component.blog-to-it.tidalwave.util.spi" style="stroke: #A80036; stroke-width: 1.0;"/><polygon fill="#A80036" points="754.9254,274.8107,764.4305,277.3902,759.8668,274.0476,763.2094,269.4839,754.9254,274.8107" style="stroke: #A80036; stroke-width: 1.0;"/><!--MD5=[404ea2afe15854eee35cde2c94a7c64e]
link it.tidalwave.northernwind.frontend.ui.component.blog to it.tidalwave.northernwind.core.model--><path codeLine="44" d="M1400.086,207.7085 C1429.4052,209.0938 1459.7771,210.4421 1488.2972,211.5548 C2391.7501,246.8028 3482.3854,272.958 3834.0733,280.9821 " fill="none" id="it.tidalwave.northernwind.frontend.ui.component.blog-to-it.tidalwave.northernwind.core.model" style="stroke: #A80036; stroke-width: 1.0;"/><polygon fill="#A80036" points="3839.1967,281.0989,3830.2904,276.8945,3834.198,280.9848,3830.1077,284.8924,3839.1967,281.0989" style="stroke: #A80036; stroke-width: 1.0;"/><!--MD5=[632d7fa5f351f7e0ae35c3e1270501fa]
link it.tidalwave.northernwind.frontend.ui.component.blog to it.tidalwave.northernwind.frontend.ui--><path codeLine="45" d="M1400.2352,209.8927 C1409.3907,210.463 1418.4623,211.0208 1427.2972,211.5548 C1859.3672,237.6721 2373.3666,265.4924 2597.8723,277.4822 " fill="none" id="it.tidalwave.northernwind.frontend.ui.component.blog-to-it.tidalwave.northernwind.frontend.ui" style="stroke: #A80036; stroke-width: 1.0;"/><polygon fill="#A80036" points="2603.1216,277.7624,2594.3478,273.288,2598.1287,277.4957,2593.921,281.2766,2603.1216,277.7624" style="stroke: #A80036; stroke-width: 1.0;"/><!--MD5=[f57d8e7a73685927ff740f07c2b00131]
link it.tidalwave.northernwind.frontend.ui.component.blog to it.tidalwave.util--><path codeLine="46" d="M1227.1099,211.59 C1208.2188,226.5603 1175.954,252.1286 1155.4028,268.4145 " fill="none" id="it.tidalwave.northernwind.frontend.ui.component.blog-to-it.tidalwave.util" style="stroke: #A80036; stroke-width: 1.0;"/><polygon fill="#A80036" points="1151.4562,271.542,1160.9942,269.087,1155.3748,268.4365,1156.0253,262.8172,1151.4562,271.542" style="stroke: #A80036; stroke-width: 1.0;"/><!--MD5=[953366b06dccfdfcba58e7ef1f511de9]
link it.tidalwave.northernwind.frontend.ui.component.container to it.tidalwave.role--><path codeLine="47" d="M3663.6008,211.59 C3528.0169,229.3853 3278.3366,262.1559 3168.9796,276.509 " fill="none" id="it.tidalwave.northernwind.frontend.ui.component.container-to-it.tidalwave.role" style="stroke: #A80036; stroke-width: 1.0;"/><polygon fill="#A80036" points="3163.8792,277.1784,3173.3232,279.9731,3168.8367,276.5277,3172.2821,272.0412,3163.8792,277.1784" style="stroke: #A80036; stroke-width: 1.0;"/><!--MD5=[acca869955222c861c24a2a2e120f79e]
link it.tidalwave.northernwind.frontend.ui.component.container to it.tidalwave.northernwind.frontend.ui--><path codeLine="48" d="M3606.1379,211.5676 C3395.5895,228.5245 3015.813,259.1106 2826.3026,274.3732 " fill="none" id="it.tidalwave.northernwind.frontend.ui.component.container-to-it.tidalwave.northernwind.frontend.ui" style="stroke: #A80036; stroke-width: 1.0;"/><polygon fill="#A80036" points="2821.3065,274.7755,2830.5986,278.04,2826.2904,274.3741,2829.9563,270.0658,2821.3065,274.7755" style="stroke: #A80036; stroke-width: 1.0;"/><!--MD5=[d9ac320056adf5065b38493206345828]
link it.tidalwave.northernwind.frontend.ui.component.container to it.tidalwave.northernwind.core.model--><path codeLine="49" d="M3783.0926,211.59 C3818.3873,226.8722 3879.1887,253.1986 3916.6526,269.4201 " fill="none" id="it.tidalwave.northernwind.frontend.ui.component.container-to-it.tidalwave.northernwind.core.model" style="stroke: #A80036; stroke-width: 1.0;"/><polygon fill="#A80036" points="3921.5533,271.542,3914.8839,264.295,3916.965,269.5551,3911.7049,271.6363,3921.5533,271.542" style="stroke: #A80036; stroke-width: 1.0;"/><!--MD5=[13de43738bce5abc8d4ea907ad36a922]
link it.tidalwave.northernwind.frontend.ui.component.menu to it.tidalwave.northernwind.frontend.ui--><path codeLine="50" d="M2556.3733,211.59 C2589.4849,226.8722 2646.5253,253.1986 2681.6719,269.4201 " fill="none" id="it.tidalwave.northernwind.frontend.ui.component.menu-to-it.tidalwave.northernwind.frontend.ui" style="stroke: #A80036; stroke-width: 1.0;"/><polygon fill="#A80036" points="2686.2694,271.542,2679.774,264.1387,2681.7296,269.4467,2676.4215,271.4024,2686.2694,271.542" style="stroke: #A80036; stroke-width: 1.0;"/><!--MD5=[e90c2d27ef0cf9d31b93ab8eeb05132b]
link it.tidalwave.northernwind.frontend.ui.component.menu to it.tidalwave.util--><path codeLine="51" d="M2369.0258,209.2727 C2055.8989,228.1412 1379.5238,268.8984 1187.8611,280.4476 " fill="none" id="it.tidalwave.northernwind.frontend.ui.component.menu-to-it.tidalwave.util" style="stroke: #A80036; stroke-width: 1.0;"/><polygon fill="#A80036" points="1182.605,280.7644,1191.8294,284.2156,1187.5959,280.4635,1191.348,276.2301,1182.605,280.7644" style="stroke: #A80036; stroke-width: 1.0;"/><!--MD5=[7bd6a15e7c9d7225ff2bdb2720abcbb1]
link it.tidalwave.northernwind.frontend.ui.component.menu to it.tidalwave.northernwind.core.model--><path codeLine="52" d="M2691.3532,210.4803 C2697.0712,210.8466 2702.733,211.2058 2708.2972,211.5548 C3122.6231,237.5394 3614.979,265.1261 3834.1662,277.236 " fill="none" id="it.tidalwave.northernwind.frontend.ui.component.menu-to-it.tidalwave.northernwind.core.model" style="stroke: #A80036; stroke-width: 1.0;"/><polygon fill="#A80036" points="3839.2929,277.5192,3830.5273,273.0288,3834.3005,277.2433,3830.0859,281.0166,3839.2929,277.5192" style="stroke: #A80036; stroke-width: 1.0;"/><!--MD5=[1a2771225774cfe0cdf8794df6e1d9af]
link it.tidalwave.northernwind.frontend.ui.component.menu to it.tidalwave.role--><path codeLine="53" d="M2614.1134,211.59 C2736.2138,229.1223 2959.5454,261.1904 3061.7125,275.8606 " fill="none" id="it.tidalwave.northernwind.frontend.ui.component.menu-to-it.tidalwave.role" style="stroke: #A80036; stroke-width: 1.0;"/><polygon fill="#A80036" points="3066.7822,276.5885,3058.4422,271.3498,3061.833,275.8778,3057.305,279.2686,3066.7822,276.5885" style="stroke: #A80036; stroke-width: 1.0;"/><!--MD5=[2dff116f5fd29077c701c09c89c8f8cd]
link it.tidalwave.northernwind.frontend.ui.component.breadcrumb to it.tidalwave.northernwind.core.model--><path codeLine="54" d="M4115.5017,211.59 C4080.207,226.8722 4019.4056,253.1986 3981.9417,269.4201 " fill="none" id="it.tidalwave.northernwind.frontend.ui.component.breadcrumb-to-it.tidalwave.northernwind.core.model" style="stroke: #A80036; stroke-width: 1.0;"/><polygon fill="#A80036" points="3977.0411,271.542,3986.8895,271.6365,3981.6294,269.5553,3983.7107,264.2952,3977.0411,271.542" style="stroke: #A80036; stroke-width: 1.0;"/><!--MD5=[5586742d56af4ce617bc0569d2ac8dfd]
link it.tidalwave.northernwind.frontend.ui.component.breadcrumb to it.tidalwave.northernwind.frontend.ui--><path codeLine="55" d="M3962.1715,210.4912 C3956.1418,210.8507 3950.1707,211.2061 3944.2972,211.5548 C3532.8822,235.9811 3044.1442,264.3514 2826.5758,276.9471 " fill="none" id="it.tidalwave.northernwind.frontend.ui.component.breadcrumb-to-it.tidalwave.northernwind.frontend.ui" style="stroke: #A80036; stroke-width: 1.0;"/><polygon fill="#A80036" points="2821.487,277.2417,2830.7032,280.7148,2826.4786,276.9527,2830.2408,272.7282,2821.487,277.2417" style="stroke: #A80036; stroke-width: 1.0;"/><!--MD5=[6b17f6a91e572391bd00bae9a1cf2af4]
link it.tidalwave.northernwind.frontend.ui.component.breadcrumb to it.tidalwave.role--><path codeLine="56" d="M3996.283,211.5676 C3763.8726,230.5584 3322.2575,266.6436 3169.1584,279.1537 " fill="none" id="it.tidalwave.northernwind.frontend.ui.component.breadcrumb-to-it.tidalwave.role" style="stroke: #A80036; stroke-width: 1.0;"/><polygon fill="#A80036" points="3163.8347,279.5887,3173.1306,282.8423,3168.8181,279.1814,3172.479,274.8689,3163.8347,279.5887" style="stroke: #A80036; stroke-width: 1.0;"/><text fill="#888888" font-family="sans-serif" font-size="10" lengthAdjust="spacingAndGlyphs" textLength="188" x="2547.8167" y="318.3556">UMLDoclet 2.0.12, PlantUML 1.2020.16</text><!--MD5=[3a33454aa555c702e53f7f08b7d893c6]
@startuml
    set namespaceSeparator none
    hide circle
    hide empty fields
    hide empty methods

    it.tidalwave.northernwind.frontend.ui.component - -> it.tidalwave.util
    it.tidalwave.northernwind.frontend.ui.component.calendar - -> it.tidalwave.northernwind.frontend.ui
    it.tidalwave.northernwind.frontend.ui.component.calendar - -> it.tidalwave.util
    it.tidalwave.northernwind.frontend.ui.component.calendar - -> it.tidalwave.role
    it.tidalwave.northernwind.frontend.ui.component.calendar - -> it.tidalwave.northernwind.core.model
    it.tidalwave.northernwind.frontend.ui.component.calendar - -> it.tidalwave.northernwind.frontend.ui.component.calendar.spi
    it.tidalwave.northernwind.frontend.ui.component.calendar.spi - -> it.tidalwave.northernwind.core.model
    it.tidalwave.northernwind.frontend.ui.component.calendar.spi - -> it.tidalwave.northernwind.frontend.ui.component.calendar
    it.tidalwave.northernwind.frontend.ui.component.calendar.spi - -> org.w3c.dom
    it.tidalwave.northernwind.frontend.ui.component.htmlfragment - -> it.tidalwave.northernwind.core.model
    it.tidalwave.northernwind.frontend.ui.component.htmlfragment - -> it.tidalwave.northernwind.frontend.ui
    it.tidalwave.northernwind.frontend.ui.component.htmlfragment - -> it.tidalwave.role
    it.tidalwave.northernwind.frontend.ui.component.nodecontainer - -> it.tidalwave.northernwind.frontend.ui
    it.tidalwave.northernwind.frontend.ui.component.nodecontainer - -> it.tidalwave.util
    it.tidalwave.northernwind.frontend.ui.component.nodecontainer - -> it.tidalwave.role
    it.tidalwave.northernwind.frontend.ui.component.nodecontainer - -> it.tidalwave.northernwind.core.model
    it.tidalwave.northernwind.frontend.ui.component.htmltextwithtitle - -> it.tidalwave.northernwind.core.model
    it.tidalwave.northernwind.frontend.ui.component.htmltextwithtitle - -> it.tidalwave.northernwind.frontend.ui
    it.tidalwave.northernwind.frontend.ui.component.htmltextwithtitle - -> it.tidalwave.role
    it.tidalwave.northernwind.frontend.ui.component.gallery - -> it.tidalwave.northernwind.frontend.ui.component.nodecontainer
    it.tidalwave.northernwind.frontend.ui.component.gallery - -> it.tidalwave.util.spi
    it.tidalwave.northernwind.frontend.ui.component.gallery - -> it.tidalwave.northernwind.frontend.ui.spi
    it.tidalwave.northernwind.frontend.ui.component.gallery - -> it.tidalwave.northernwind.core.model
    it.tidalwave.northernwind.frontend.ui.component.gallery - -> org.springframework.beans.factory
    it.tidalwave.northernwind.frontend.ui.component.gallery - -> it.tidalwave.northernwind.frontend.ui.component.gallery.spi
    it.tidalwave.northernwind.frontend.ui.component.gallery - -> it.tidalwave.util
    it.tidalwave.northernwind.frontend.ui.component.gallery - -> it.tidalwave.northernwind.frontend.ui
    it.tidalwave.northernwind.frontend.ui.component.gallery.spi.loader - -> it.tidalwave.util
    it.tidalwave.northernwind.frontend.ui.component.gallery.spi.loader - -> org.springframework.beans.factory
    it.tidalwave.northernwind.frontend.ui.component.gallery.spi.loader - -> it.tidalwave.northernwind.core.model
    it.tidalwave.northernwind.frontend.ui.component.gallery.spi.loader - -> it.tidalwave.northernwind.frontend.ui.component.gallery.spi
    it.tidalwave.northernwind.frontend.ui.component.gallery.spi.loader - -> it.tidalwave.northernwind.frontend.ui.component.gallery
    it.tidalwave.northernwind.frontend.ui.component.sitemap - -> it.tidalwave.northernwind.core.model
    it.tidalwave.northernwind.frontend.ui.component.sitemap - -> it.tidalwave.northernwind.frontend.ui
    it.tidalwave.northernwind.frontend.ui.component.sitemap - -> it.tidalwave.util
    it.tidalwave.northernwind.frontend.ui.component.sitemap - -> it.tidalwave.role
    it.tidalwave.northernwind.frontend.ui.component.blog - -> it.tidalwave.role
    it.tidalwave.northernwind.frontend.ui.component.blog - -> it.tidalwave.util.spi
    it.tidalwave.northernwind.frontend.ui.component.blog - -> it.tidalwave.northernwind.core.model
    it.tidalwave.northernwind.frontend.ui.component.blog - -> it.tidalwave.northernwind.frontend.ui
    it.tidalwave.northernwind.frontend.ui.component.blog - -> it.tidalwave.util
    it.tidalwave.northernwind.frontend.ui.component.container - -> it.tidalwave.role
    it.tidalwave.northernwind.frontend.ui.component.container - -> it.tidalwave.northernwind.frontend.ui
    it.tidalwave.northernwind.frontend.ui.component.container - -> it.tidalwave.northernwind.core.model
    it.tidalwave.northernwind.frontend.ui.component.menu - -> it.tidalwave.northernwind.frontend.ui
    it.tidalwave.northernwind.frontend.ui.component.menu - -> it.tidalwave.util
    it.tidalwave.northernwind.frontend.ui.component.menu - -> it.tidalwave.northernwind.core.model
    it.tidalwave.northernwind.frontend.ui.component.menu - -> it.tidalwave.role
    it.tidalwave.northernwind.frontend.ui.component.breadcrumb - -> it.tidalwave.northernwind.core.model
    it.tidalwave.northernwind.frontend.ui.component.breadcrumb - -> it.tidalwave.northernwind.frontend.ui
    it.tidalwave.northernwind.frontend.ui.component.breadcrumb - -> it.tidalwave.role

    ' Package links
    class "it.tidalwave.northernwind.frontend.ui.component" [[it/tidalwave/northernwind/frontend/ui/component/package-summary.html]] {
    }
    class "it.tidalwave.northernwind.frontend.ui.component.calendar" [[it/tidalwave/northernwind/frontend/ui/component/calendar/package-summary.html]] {
    }
    class "it.tidalwave.northernwind.frontend.ui" [[http://tidalwave.it/projects/northernwind/it-tidalwave-northernwind-modules/it-tidalwave-northernwind-core/apidocs/it/tidalwave/northernwind/frontend/ui/package-summary.html?is-external=true]] {
    }
    class "it.tidalwave.northernwind.core.model" [[http://tidalwave.it/projects/northernwind/it-tidalwave-northernwind-modules/it-tidalwave-northernwind-core/apidocs/it/tidalwave/northernwind/core/model/package-summary.html?is-external=true]] {
    }
    class "it.tidalwave.northernwind.frontend.ui.component.calendar.spi" [[it/tidalwave/northernwind/frontend/ui/component/calendar/spi/package-summary.html]] {
    }
    class "it.tidalwave.northernwind.frontend.ui.component.htmlfragment" [[it/tidalwave/northernwind/frontend/ui/component/htmlfragment/package-summary.html]] {
    }
    class "it.tidalwave.northernwind.frontend.ui.component.nodecontainer" [[it/tidalwave/northernwind/frontend/ui/component/nodecontainer/package-summary.html]] {
    }
    class "it.tidalwave.northernwind.frontend.ui.component.htmltextwithtitle" [[it/tidalwave/northernwind/frontend/ui/component/htmltextwithtitle/package-summary.html]] {
    }
    class "it.tidalwave.northernwind.frontend.ui.component.gallery" [[it/tidalwave/northernwind/frontend/ui/component/gallery/package-summary.html]] {
    }
    class "it.tidalwave.northernwind.frontend.ui.spi" [[http://tidalwave.it/projects/northernwind/it-tidalwave-northernwind-modules/it-tidalwave-northernwind-core/apidocs/it/tidalwave/northernwind/frontend/ui/spi/package-summary.html?is-external=true]] {
    }
    class "it.tidalwave.northernwind.frontend.ui.component.gallery.spi.loader" [[it/tidalwave/northernwind/frontend/ui/component/gallery/spi/loader/package-summary.html]] {
    }
    class "it.tidalwave.northernwind.frontend.ui.component.sitemap" [[it/tidalwave/northernwind/frontend/ui/component/sitemap/package-summary.html]] {
    }
    class "it.tidalwave.northernwind.frontend.ui.component.blog" [[it/tidalwave/northernwind/frontend/ui/component/blog/package-summary.html]] {
    }
    class "it.tidalwave.northernwind.frontend.ui.component.container" [[it/tidalwave/northernwind/frontend/ui/component/container/package-summary.html]] {
    }
    class "it.tidalwave.northernwind.frontend.ui.component.menu" [[it/tidalwave/northernwind/frontend/ui/component/menu/package-summary.html]] {
    }
    class "it.tidalwave.northernwind.frontend.ui.component.breadcrumb" [[it/tidalwave/northernwind/frontend/ui/component/breadcrumb/package-summary.html]] {
    }

    center footer UMLDoclet 2.0.12, PlantUML 1.2020.16
@enduml

@startuml
    set namespaceSeparator none
    hide circle
    hide empty fields
    hide empty methods

    it.tidalwave.northernwind.frontend.ui.component - -> it.tidalwave.util
    it.tidalwave.northernwind.frontend.ui.component.calendar - -> it.tidalwave.northernwind.frontend.ui
    it.tidalwave.northernwind.frontend.ui.component.calendar - -> it.tidalwave.util
    it.tidalwave.northernwind.frontend.ui.component.calendar - -> it.tidalwave.role
    it.tidalwave.northernwind.frontend.ui.component.calendar - -> it.tidalwave.northernwind.core.model
    it.tidalwave.northernwind.frontend.ui.component.calendar - -> it.tidalwave.northernwind.frontend.ui.component.calendar.spi
    it.tidalwave.northernwind.frontend.ui.component.calendar.spi - -> it.tidalwave.northernwind.core.model
    it.tidalwave.northernwind.frontend.ui.component.calendar.spi - -> it.tidalwave.northernwind.frontend.ui.component.calendar
    it.tidalwave.northernwind.frontend.ui.component.calendar.spi - -> org.w3c.dom
    it.tidalwave.northernwind.frontend.ui.component.htmlfragment - -> it.tidalwave.northernwind.core.model
    it.tidalwave.northernwind.frontend.ui.component.htmlfragment - -> it.tidalwave.northernwind.frontend.ui
    it.tidalwave.northernwind.frontend.ui.component.htmlfragment - -> it.tidalwave.role
    it.tidalwave.northernwind.frontend.ui.component.nodecontainer - -> it.tidalwave.northernwind.frontend.ui
    it.tidalwave.northernwind.frontend.ui.component.nodecontainer - -> it.tidalwave.util
    it.tidalwave.northernwind.frontend.ui.component.nodecontainer - -> it.tidalwave.role
    it.tidalwave.northernwind.frontend.ui.component.nodecontainer - -> it.tidalwave.northernwind.core.model
    it.tidalwave.northernwind.frontend.ui.component.htmltextwithtitle - -> it.tidalwave.northernwind.core.model
    it.tidalwave.northernwind.frontend.ui.component.htmltextwithtitle - -> it.tidalwave.northernwind.frontend.ui
    it.tidalwave.northernwind.frontend.ui.component.htmltextwithtitle - -> it.tidalwave.role
    it.tidalwave.northernwind.frontend.ui.component.gallery - -> it.tidalwave.northernwind.frontend.ui.component.nodecontainer
    it.tidalwave.northernwind.frontend.ui.component.gallery - -> it.tidalwave.util.spi
    it.tidalwave.northernwind.frontend.ui.component.gallery - -> it.tidalwave.northernwind.frontend.ui.spi
    it.tidalwave.northernwind.frontend.ui.component.gallery - -> it.tidalwave.northernwind.core.model
    it.tidalwave.northernwind.frontend.ui.component.gallery - -> org.springframework.beans.factory
    it.tidalwave.northernwind.frontend.ui.component.gallery - -> it.tidalwave.northernwind.frontend.ui.component.gallery.spi
    it.tidalwave.northernwind.frontend.ui.component.gallery - -> it.tidalwave.util
    it.tidalwave.northernwind.frontend.ui.component.gallery - -> it.tidalwave.northernwind.frontend.ui
    it.tidalwave.northernwind.frontend.ui.component.gallery.spi.loader - -> it.tidalwave.util
    it.tidalwave.northernwind.frontend.ui.component.gallery.spi.loader - -> org.springframework.beans.factory
    it.tidalwave.northernwind.frontend.ui.component.gallery.spi.loader - -> it.tidalwave.northernwind.core.model
    it.tidalwave.northernwind.frontend.ui.component.gallery.spi.loader - -> it.tidalwave.northernwind.frontend.ui.component.gallery.spi
    it.tidalwave.northernwind.frontend.ui.component.gallery.spi.loader - -> it.tidalwave.northernwind.frontend.ui.component.gallery
    it.tidalwave.northernwind.frontend.ui.component.sitemap - -> it.tidalwave.northernwind.core.model
    it.tidalwave.northernwind.frontend.ui.component.sitemap - -> it.tidalwave.northernwind.frontend.ui
    it.tidalwave.northernwind.frontend.ui.component.sitemap - -> it.tidalwave.util
    it.tidalwave.northernwind.frontend.ui.component.sitemap - -> it.tidalwave.role
    it.tidalwave.northernwind.frontend.ui.component.blog - -> it.tidalwave.role
    it.tidalwave.northernwind.frontend.ui.component.blog - -> it.tidalwave.util.spi
    it.tidalwave.northernwind.frontend.ui.component.blog - -> it.tidalwave.northernwind.core.model
    it.tidalwave.northernwind.frontend.ui.component.blog - -> it.tidalwave.northernwind.frontend.ui
    it.tidalwave.northernwind.frontend.ui.component.blog - -> it.tidalwave.util
    it.tidalwave.northernwind.frontend.ui.component.container - -> it.tidalwave.role
    it.tidalwave.northernwind.frontend.ui.component.container - -> it.tidalwave.northernwind.frontend.ui
    it.tidalwave.northernwind.frontend.ui.component.container - -> it.tidalwave.northernwind.core.model
    it.tidalwave.northernwind.frontend.ui.component.menu - -> it.tidalwave.northernwind.frontend.ui
    it.tidalwave.northernwind.frontend.ui.component.menu - -> it.tidalwave.util
    it.tidalwave.northernwind.frontend.ui.component.menu - -> it.tidalwave.northernwind.core.model
    it.tidalwave.northernwind.frontend.ui.component.menu - -> it.tidalwave.role
    it.tidalwave.northernwind.frontend.ui.component.breadcrumb - -> it.tidalwave.northernwind.core.model
    it.tidalwave.northernwind.frontend.ui.component.breadcrumb - -> it.tidalwave.northernwind.frontend.ui
    it.tidalwave.northernwind.frontend.ui.component.breadcrumb - -> it.tidalwave.role

    class "it.tidalwave.northernwind.frontend.ui.component" [[it/tidalwave/northernwind/frontend/ui/component/package-summary.html]] {
    }
    class "it.tidalwave.northernwind.frontend.ui.component.calendar" [[it/tidalwave/northernwind/frontend/ui/component/calendar/package-summary.html]] {
    }
    class "it.tidalwave.northernwind.frontend.ui" [[http://tidalwave.it/projects/northernwind/it-tidalwave-northernwind-modules/it-tidalwave-northernwind-core/apidocs/it/tidalwave/northernwind/frontend/ui/package-summary.html?is-external=true]] {
    }
    class "it.tidalwave.northernwind.core.model" [[http://tidalwave.it/projects/northernwind/it-tidalwave-northernwind-modules/it-tidalwave-northernwind-core/apidocs/it/tidalwave/northernwind/core/model/package-summary.html?is-external=true]] {
    }
    class "it.tidalwave.northernwind.frontend.ui.component.calendar.spi" [[it/tidalwave/northernwind/frontend/ui/component/calendar/spi/package-summary.html]] {
    }
    class "it.tidalwave.northernwind.frontend.ui.component.htmlfragment" [[it/tidalwave/northernwind/frontend/ui/component/htmlfragment/package-summary.html]] {
    }
    class "it.tidalwave.northernwind.frontend.ui.component.nodecontainer" [[it/tidalwave/northernwind/frontend/ui/component/nodecontainer/package-summary.html]] {
    }
    class "it.tidalwave.northernwind.frontend.ui.component.htmltextwithtitle" [[it/tidalwave/northernwind/frontend/ui/component/htmltextwithtitle/package-summary.html]] {
    }
    class "it.tidalwave.northernwind.frontend.ui.component.gallery" [[it/tidalwave/northernwind/frontend/ui/component/gallery/package-summary.html]] {
    }
    class "it.tidalwave.northernwind.frontend.ui.spi" [[http://tidalwave.it/projects/northernwind/it-tidalwave-northernwind-modules/it-tidalwave-northernwind-core/apidocs/it/tidalwave/northernwind/frontend/ui/spi/package-summary.html?is-external=true]] {
    }
    class "it.tidalwave.northernwind.frontend.ui.component.gallery.spi.loader" [[it/tidalwave/northernwind/frontend/ui/component/gallery/spi/loader/package-summary.html]] {
    }
    class "it.tidalwave.northernwind.frontend.ui.component.sitemap" [[it/tidalwave/northernwind/frontend/ui/component/sitemap/package-summary.html]] {
    }
    class "it.tidalwave.northernwind.frontend.ui.component.blog" [[it/tidalwave/northernwind/frontend/ui/component/blog/package-summary.html]] {
    }
    class "it.tidalwave.northernwind.frontend.ui.component.container" [[it/tidalwave/northernwind/frontend/ui/component/container/package-summary.html]] {
    }
    class "it.tidalwave.northernwind.frontend.ui.component.menu" [[it/tidalwave/northernwind/frontend/ui/component/menu/package-summary.html]] {
    }
    class "it.tidalwave.northernwind.frontend.ui.component.breadcrumb" [[it/tidalwave/northernwind/frontend/ui/component/breadcrumb/package-summary.html]] {
    }

    center footer UMLDoclet 2.0.12, PlantUML 1.2020.16
@enduml

PlantUML version 1.2020.16(Sun Aug 23 22:20:43 CEST 2020)
(APACHE source distribution)
Java Runtime: OpenJDK Runtime Environment
JVM: OpenJDK 64-Bit Server VM
Default Encoding: UTF-8
Language: en
Country: GB
--></g></svg>