@startuml
    set namespaceSeparator none
    hide empty fields
    hide empty methods

    interface "<size:14>Performance\n<size:10>it.tidalwave.bluemarine2.model.audio" as it.tidalwave.bluemarine2.model.audio.Performance [[Performance.html]] {
        {static} +_Performance_: Class<Performance>
        {abstract} +findPerformers(): MusicPerformerFinder
    }

    interface "<size:14>Entity\n<size:10>it.tidalwave.bluemarine2.model.spi" as it.tidalwave.bluemarine2.model.spi.Entity [[../spi/Entity.html]]
    interface "<size:14>SourceAware\n<size:10>it.tidalwave.bluemarine2.model.spi" as it.tidalwave.bluemarine2.model.spi.SourceAware [[../spi/SourceAware.html]] {
        {abstract} +getSource(): Optional<Id>
    }
    interface "<size:14>Identifiable\n<size:10>it.tidalwave.role" as it.tidalwave.role.Identifiable {
        {abstract} +getId(): Id
    }

    it.tidalwave.bluemarine2.model.spi.Entity <|-- it.tidalwave.bluemarine2.model.audio.Performance
    it.tidalwave.bluemarine2.model.spi.SourceAware <|-- it.tidalwave.bluemarine2.model.audio.Performance
    it.tidalwave.role.Identifiable <|-- it.tidalwave.bluemarine2.model.audio.Performance

    center footer UMLDoclet 2.0.12, PlantUML 1.2020.16
@enduml
