@startuml
    set namespaceSeparator none
    hide empty fields
    hide empty methods

    class "<size:14>StringRenderableRole\n<size:10>it.tidalwave.util.asexamples" as it.tidalwave.util.asexamples.StringRenderableRole [[StringRenderableRole.html]] {
        +renderTo(Consumer<String>): void
    }

    interface "<size:14>Renderable\n<size:10>it.tidalwave.util.asexamples" as it.tidalwave.util.asexamples.Renderable [[Renderable.html]] {
        {abstract} +renderTo(Consumer<String>): void
    }

    it.tidalwave.util.asexamples.Renderable <|.. it.tidalwave.util.asexamples.StringRenderableRole

    center footer UMLDoclet 2.0.12, PlantUML 1.2020.16
@enduml
