<?xml version="1.0" encoding="UTF-8" standalone="no"?><svg xmlns="http://www.w3.org/2000/svg" xmlns:xlink="http://www.w3.org/1999/xlink" contentScriptType="application/ecmascript" contentStyleType="text/css" height="369px" preserveAspectRatio="none" style="width:1623px;height:369px;" version="1.1" viewBox="0 0 1623 369" width="1623px" zoomAndPan="magnify"><defs><filter height="300%" id="f606sf7oinhgm" width="300%" x="-1" y="-1"><feGaussianBlur result="blurOut" stdDeviation="2.0"/><feColorMatrix in="blurOut" result="blurOut2" type="matrix" values="0 0 0 0 0 0 0 0 0 0 0 0 0 0 0 0 0 0 .4 0"/><feOffset dx="4.0" dy="4.0" in="blurOut2" result="blurOut3"/><feBlend in="SourceGraphic" in2="blurOut3" mode="normal"/></filter></defs><g><!--MD5=[6d3e273014326a05abdba310e3005bbf]
cluster it.tidalwave.role.spi--><polygon fill="#FFFFFF" filter="url(#f606sf7oinhgm)" points="16,6,161,6,168,28.4883,1601,28.4883,1601,340,16,340,16,6" style="stroke: #000000; stroke-width: 1.5;"/><line style="stroke: #000000; stroke-width: 1.5;" x1="16" x2="168" y1="28.4883" y2="28.4883"/><text fill="#000000" font-family="sans-serif" font-size="14" font-weight="bold" lengthAdjust="spacingAndGlyphs" textLength="139" x="20" y="21.5352">it.tidalwave.role.spi</text><!--MD5=[f4dbeecb91c6680a7e2891ef60058bcd]
class it.tidalwave.role.spi.SystemRoleFactoryProvider--><a href="SystemRoleFactoryProvider.html" target="_top" title="SystemRoleFactoryProvider.html" xlink:actuate="onRequest" xlink:href="SystemRoleFactoryProvider.html" xlink:show="new" xlink:title="SystemRoleFactoryProvider.html" xlink:type="simple"><rect codeLine="3" fill="#FEFECE" filter="url(#f606sf7oinhgm)" height="60.9551" id="it.tidalwave.role.spi.SystemRoleFactoryProvider" style="stroke: #A80036; stroke-width: 1.5;" width="259" x="1333.5" y="59"/><ellipse cx="1381.75" cy="75" fill="#B4A7E5" rx="11" ry="11" style="stroke: #A80036; stroke-width: 1.0;"/><path d="M1378.1777,71.2651 L1378.1777,69.1069 L1385.5571,69.1069 L1385.5571,71.2651 L1383.0918,71.2651 L1383.0918,79.3418 L1385.5571,79.3418 L1385.5571,81.5 L1378.1777,81.5 L1378.1777,79.3418 L1380.6431,79.3418 L1380.6431,71.2651 Z "/><text fill="#000000" font-family="sans-serif" font-size="12" font-style="italic" lengthAdjust="spacingAndGlyphs" textLength="154" x="1402.25" y="79.5352">SystemRoleFactoryProvider</text><line style="stroke: #A80036; stroke-width: 1.5;" x1="1334.5" x2="1591.5" y1="91" y2="91"/><line style="stroke: #A80036; stroke-width: 1.5;" x1="1334.5" x2="1591.5" y1="99" y2="99"/><ellipse cx="1344.5" cy="110" fill="#84BE84" rx="3" ry="3" style="stroke: #038048; stroke-width: 1.0;"/><text fill="#000000" font-family="sans-serif" font-size="11" font-style="italic" lengthAdjust="spacingAndGlyphs" textLength="233" x="1353.5" y="113.6348">getSystemRoleFactory(): SystemRoleFactory</text></a><!--MD5=[162f4bee203f500ae281472bc18a82ef]
class it.tidalwave.role.spi.ContextManagerProvider--><a href="ContextManagerProvider.html" target="_top" title="ContextManagerProvider.html" xlink:actuate="onRequest" xlink:href="ContextManagerProvider.html" xlink:show="new" xlink:title="ContextManagerProvider.html" xlink:type="simple"><rect codeLine="7" fill="#FEFECE" filter="url(#f606sf7oinhgm)" height="60.9551" id="it.tidalwave.role.spi.ContextManagerProvider" style="stroke: #A80036; stroke-width: 1.5;" width="235" x="1063.5" y="59"/><ellipse cx="1105.95" cy="75" fill="#B4A7E5" rx="11" ry="11" style="stroke: #A80036; stroke-width: 1.0;"/><path d="M1102.3777,71.2651 L1102.3777,69.1069 L1109.7571,69.1069 L1109.7571,71.2651 L1107.2918,71.2651 L1107.2918,79.3418 L1109.7571,79.3418 L1109.7571,81.5 L1102.3777,81.5 L1102.3777,79.3418 L1104.8431,79.3418 L1104.8431,71.2651 Z "/><text fill="#000000" font-family="sans-serif" font-size="12" font-style="italic" lengthAdjust="spacingAndGlyphs" textLength="142" x="1126.05" y="79.5352">ContextManagerProvider</text><line style="stroke: #A80036; stroke-width: 1.5;" x1="1064.5" x2="1297.5" y1="91" y2="91"/><line style="stroke: #A80036; stroke-width: 1.5;" x1="1064.5" x2="1297.5" y1="99" y2="99"/><ellipse cx="1074.5" cy="110" fill="#84BE84" rx="3" ry="3" style="stroke: #038048; stroke-width: 1.0;"/><text fill="#000000" font-family="sans-serif" font-size="11" font-style="italic" lengthAdjust="spacingAndGlyphs" textLength="209" x="1083.5" y="113.6348">getContextManager(): ContextManager</text></a><!--MD5=[eede97e8f1b3919a6a1b8b08c01cebd5]
class it.tidalwave.role.spi.OwnerRoleFactory--><a href="OwnerRoleFactory.html" target="_top" title="OwnerRoleFactory.html" xlink:actuate="onRequest" xlink:href="OwnerRoleFactory.html" xlink:show="new" xlink:title="OwnerRoleFactory.html" xlink:type="simple"><rect codeLine="11" fill="#FEFECE" filter="url(#f606sf7oinhgm)" height="60.9551" id="it.tidalwave.role.spi.OwnerRoleFactory" style="stroke: #A80036; stroke-width: 1.5;" width="277" x="751.5" y="59"/><ellipse cx="834.25" cy="75" fill="#B4A7E5" rx="11" ry="11" style="stroke: #A80036; stroke-width: 1.0;"/><path d="M830.6777,71.2651 L830.6777,69.1069 L838.0571,69.1069 L838.0571,71.2651 L835.5918,71.2651 L835.5918,79.3418 L838.0571,79.3418 L838.0571,81.5 L830.6777,81.5 L830.6777,79.3418 L833.1431,79.3418 L833.1431,71.2651 Z "/><text fill="#000000" font-family="sans-serif" font-size="12" font-style="italic" lengthAdjust="spacingAndGlyphs" textLength="103" x="854.75" y="79.5352">OwnerRoleFactory</text><line style="stroke: #A80036; stroke-width: 1.5;" x1="752.5" x2="1027.5" y1="91" y2="91"/><line style="stroke: #A80036; stroke-width: 1.5;" x1="752.5" x2="1027.5" y1="99" y2="99"/><ellipse cx="762.5" cy="110" fill="#84BE84" rx="3" ry="3" style="stroke: #038048; stroke-width: 1.0;"/><text fill="#000000" font-family="sans-serif" font-size="11" font-style="italic" lengthAdjust="spacingAndGlyphs" textLength="251" x="771.5" y="113.6348">findRoles(Class&lt;? extends T&gt;): Collection&lt;T&gt;</text></a><!--MD5=[54459e5017c34196fbb22b3e00f96c42]
class it.tidalwave.role.spi.OwnerRoleFactoryProvider--><a href="OwnerRoleFactoryProvider.html" target="_top" title="OwnerRoleFactoryProvider.html" xlink:actuate="onRequest" xlink:href="OwnerRoleFactoryProvider.html" xlink:show="new" xlink:title="OwnerRoleFactoryProvider.html" xlink:type="simple"><rect codeLine="15" fill="#FEFECE" filter="url(#f606sf7oinhgm)" height="112.7754" id="it.tidalwave.role.spi.OwnerRoleFactoryProvider" style="stroke: #A80036; stroke-width: 1.5;" width="269" x="447.5" y="33"/><ellipse cx="502.25" cy="49" fill="#B4A7E5" rx="11" ry="11" style="stroke: #A80036; stroke-width: 1.0;"/><path d="M498.6777,45.2651 L498.6777,43.1069 L506.0571,43.1069 L506.0571,45.2651 L503.5918,45.2651 L503.5918,53.3418 L506.0571,53.3418 L506.0571,55.5 L498.6777,55.5 L498.6777,53.3418 L501.1431,53.3418 L501.1431,45.2651 Z "/><text fill="#000000" font-family="sans-serif" font-size="12" font-style="italic" lengthAdjust="spacingAndGlyphs" textLength="151" x="522.75" y="53.5352">OwnerRoleFactoryProvider</text><line style="stroke: #A80036; stroke-width: 1.5;" x1="448.5" x2="715.5" y1="65" y2="65"/><line style="stroke: #A80036; stroke-width: 1.5;" x1="448.5" x2="715.5" y1="73" y2="73"/><ellipse cx="458.5" cy="84" fill="#84BE84" rx="3" ry="3" style="stroke: #038048; stroke-width: 1.0;"/><text fill="#000000" font-family="sans-serif" font-size="11" lengthAdjust="spacingAndGlyphs" text-decoration="underline" textLength="219" x="467.5" y="87.6348">getInstance(): OwnerRoleFactoryProvider</text><ellipse cx="458.5" cy="96.9551" fill="#84BE84" rx="3" ry="3" style="stroke: #038048; stroke-width: 1.0;"/><text fill="#000000" font-family="sans-serif" font-size="11" font-style="italic" lengthAdjust="spacingAndGlyphs" textLength="243" x="467.5" y="100.5898">createRoleFactory(Object): OwnerRoleFactory</text><ellipse cx="458.5" cy="109.9102" fill="#84BE84" rx="3" ry="3" style="stroke: #038048; stroke-width: 1.0;"/><text fill="#000000" font-family="sans-serif" font-size="11" lengthAdjust="spacingAndGlyphs" text-decoration="underline" textLength="151" x="467.5" y="113.5449">set(OwnerRoleFactory): void</text><ellipse cx="458.5" cy="122.8652" fill="#84BE84" rx="3" ry="3" style="stroke: #038048; stroke-width: 1.0;"/><text fill="#000000" font-family="sans-serif" font-size="11" lengthAdjust="spacingAndGlyphs" text-decoration="underline" textLength="64" x="467.5" y="126.5">reset(): void</text><ellipse cx="458.5" cy="135.8203" fill="#84BE84" rx="3" ry="3" style="stroke: #038048; stroke-width: 1.0;"/><text fill="#000000" font-family="sans-serif" font-size="11" lengthAdjust="spacingAndGlyphs" text-decoration="underline" textLength="208" x="467.5" y="139.4551">emptyRoleFactory(): OwnerRoleFactory</text></a><!--MD5=[a8bbe0077c93409d8fd0545ec6fabd9d]
class it.tidalwave.role.spi.OwnerRoleFactoryProvider.Inner--><a href="OwnerRoleFactoryProvider.Inner.html" target="_top" title="OwnerRoleFactoryProvider.Inner.html" xlink:actuate="onRequest" xlink:href="OwnerRoleFactoryProvider.Inner.html" xlink:show="new" xlink:title="OwnerRoleFactoryProvider.Inner.html" xlink:type="simple"><rect codeLine="23" fill="#FEFECE" filter="url(#f606sf7oinhgm)" height="48" id="it.tidalwave.role.spi.OwnerRoleFactoryProvider.Inner" style="stroke: #A80036; stroke-width: 1.5;" width="216" x="605" y="245"/><ellipse cx="620" cy="261" fill="#ADD1B2" rx="11" ry="11" style="stroke: #A80036; stroke-width: 1.0;"/><path d="M622.4731,267.1431 Q621.8921,267.4419 621.2529,267.5913 Q620.6138,267.7407 619.9082,267.7407 Q617.4014,267.7407 616.0815,266.0889 Q614.7617,264.437 614.7617,261.3159 Q614.7617,258.1865 616.0815,256.5347 Q617.4014,254.8828 619.9082,254.8828 Q620.6138,254.8828 621.2612,255.0322 Q621.9087,255.1816 622.4731,255.4805 L622.4731,258.2031 Q621.8423,257.6221 621.2488,257.3523 Q620.6553,257.0825 620.0244,257.0825 Q618.6797,257.0825 617.9949,258.1492 Q617.3101,259.2158 617.3101,261.3159 Q617.3101,263.4077 617.9949,264.4744 Q618.6797,265.541 620.0244,265.541 Q620.6553,265.541 621.2488,265.2712 Q621.8423,265.0015 622.4731,264.4204 Z "/><text fill="#000000" font-family="sans-serif" font-size="12" lengthAdjust="spacingAndGlyphs" textLength="184" x="634" y="265.5352">OwnerRoleFactoryProvider.Inner</text><line style="stroke: #A80036; stroke-width: 1.5;" x1="606" x2="820" y1="277" y2="277"/><line style="stroke: #A80036; stroke-width: 1.5;" x1="606" x2="820" y1="285" y2="285"/></a><!--MD5=[906cc5d5c85c502758c5bffc7d4fed2a]
class it.tidalwave.role.spi.OwnerRoleFactoryProvider.SimpleOwnerRoleFactoryProvider--><a href="OwnerRoleFactoryProvider.SimpleOwnerRoleFactoryProvider.html" target="_top" title="OwnerRoleFactoryProvider.SimpleOwnerRoleFactoryProvider.html" xlink:actuate="onRequest" xlink:href="OwnerRoleFactoryProvider.SimpleOwnerRoleFactoryProvider.html" xlink:show="new" xlink:title="OwnerRoleFactoryProvider.SimpleOwnerRoleFactoryProvider.html" xlink:type="simple"><rect codeLine="26" fill="#FEFECE" filter="url(#f606sf7oinhgm)" height="60.9551" id="it.tidalwave.role.spi.OwnerRoleFactoryProvider.SimpleOwnerRoleFactoryProvider" style="stroke: #A80036; stroke-width: 1.5;" width="376" x="856" y="238.5"/><ellipse cx="871" cy="254.5" fill="#ADD1B2" rx="11" ry="11" style="stroke: #A80036; stroke-width: 1.0;"/><path d="M873.4731,260.6431 Q872.8921,260.9419 872.2529,261.0913 Q871.6138,261.2407 870.9082,261.2407 Q868.4014,261.2407 867.0815,259.5889 Q865.7617,257.937 865.7617,254.8159 Q865.7617,251.6865 867.0815,250.0347 Q868.4014,248.3828 870.9082,248.3828 Q871.6138,248.3828 872.2612,248.5322 Q872.9087,248.6816 873.4731,248.9805 L873.4731,251.7031 Q872.8423,251.1221 872.2488,250.8523 Q871.6553,250.5825 871.0244,250.5825 Q869.6797,250.5825 868.9949,251.6492 Q868.3101,252.7158 868.3101,254.8159 Q868.3101,256.9077 868.9949,257.9744 Q869.6797,259.041 871.0244,259.041 Q871.6553,259.041 872.2488,258.7712 Q872.8423,258.5015 873.4731,257.9204 Z "/><text fill="#000000" font-family="sans-serif" font-size="12" lengthAdjust="spacingAndGlyphs" textLength="344" x="885" y="259.0352">OwnerRoleFactoryProvider.SimpleOwnerRoleFactoryProvider</text><line style="stroke: #A80036; stroke-width: 1.5;" x1="857" x2="1231" y1="270.5" y2="270.5"/><line style="stroke: #A80036; stroke-width: 1.5;" x1="857" x2="1231" y1="278.5" y2="278.5"/><ellipse cx="867" cy="289.5" fill="#84BE84" rx="3" ry="3" style="stroke: #038048; stroke-width: 1.0;"/><text fill="#000000" font-family="sans-serif" font-size="11" lengthAdjust="spacingAndGlyphs" textLength="243" x="876" y="293.1348">createRoleFactory(Object): OwnerRoleFactory</text></a><!--MD5=[4cf8942e8227055c85007a81a561f2cc]
class it.tidalwave.role.spi.OwnerRoleFactoryProvider.EmptyOwnerRoleFactory--><a href="OwnerRoleFactoryProvider.EmptyOwnerRoleFactory.html" target="_top" title="OwnerRoleFactoryProvider.EmptyOwnerRoleFactory.html" xlink:actuate="onRequest" xlink:href="OwnerRoleFactoryProvider.EmptyOwnerRoleFactory.html" xlink:show="new" xlink:title="OwnerRoleFactoryProvider.EmptyOwnerRoleFactory.html" xlink:type="simple"><rect codeLine="30" fill="#FEFECE" filter="url(#f606sf7oinhgm)" height="60.9551" id="it.tidalwave.role.spi.OwnerRoleFactoryProvider.EmptyOwnerRoleFactory" style="stroke: #A80036; stroke-width: 1.5;" width="326" x="1267" y="238.5"/><ellipse cx="1282" cy="254.5" fill="#ADD1B2" rx="11" ry="11" style="stroke: #A80036; stroke-width: 1.0;"/><path d="M1284.4731,260.6431 Q1283.8921,260.9419 1283.2529,261.0913 Q1282.6138,261.2407 1281.9082,261.2407 Q1279.4014,261.2407 1278.0815,259.5889 Q1276.7617,257.937 1276.7617,254.8159 Q1276.7617,251.6865 1278.0815,250.0347 Q1279.4014,248.3828 1281.9082,248.3828 Q1282.6138,248.3828 1283.2612,248.5322 Q1283.9087,248.6816 1284.4731,248.9805 L1284.4731,251.7031 Q1283.8423,251.1221 1283.2488,250.8523 Q1282.6553,250.5825 1282.0244,250.5825 Q1280.6797,250.5825 1279.9949,251.6492 Q1279.3101,252.7158 1279.3101,254.8159 Q1279.3101,256.9077 1279.9949,257.9744 Q1280.6797,259.041 1282.0244,259.041 Q1282.6553,259.041 1283.2488,258.7712 Q1283.8423,258.5015 1284.4731,257.9204 Z "/><text fill="#000000" font-family="sans-serif" font-size="12" lengthAdjust="spacingAndGlyphs" textLength="294" x="1296" y="259.0352">OwnerRoleFactoryProvider.EmptyOwnerRoleFactory</text><line style="stroke: #A80036; stroke-width: 1.5;" x1="1268" x2="1592" y1="270.5" y2="270.5"/><line style="stroke: #A80036; stroke-width: 1.5;" x1="1268" x2="1592" y1="278.5" y2="278.5"/><ellipse cx="1278" cy="289.5" fill="#84BE84" rx="3" ry="3" style="stroke: #038048; stroke-width: 1.0;"/><text fill="#000000" font-family="sans-serif" font-size="11" lengthAdjust="spacingAndGlyphs" textLength="251" x="1287" y="293.1348">findRoles(Class&lt;? extends T&gt;): Collection&lt;T&gt;</text></a><!--MD5=[9a44e33e67d5ed1ae026c9139a03e4c2]
class it.tidalwave.role.spi.SystemRoleFactory--><a href="SystemRoleFactory.html" target="_top" title="SystemRoleFactory.html" xlink:actuate="onRequest" xlink:href="SystemRoleFactory.html" xlink:show="new" xlink:title="SystemRoleFactory.html" xlink:type="simple"><rect codeLine="34" fill="#FEFECE" filter="url(#f606sf7oinhgm)" height="73.9102" id="it.tidalwave.role.spi.SystemRoleFactory" style="stroke: #A80036; stroke-width: 1.5;" width="283" x="77.5" y="52.5"/><ellipse cx="161.75" cy="68.5" fill="#B4A7E5" rx="11" ry="11" style="stroke: #A80036; stroke-width: 1.0;"/><path d="M158.1777,64.7651 L158.1777,62.6069 L165.5571,62.6069 L165.5571,64.7651 L163.0918,64.7651 L163.0918,72.8418 L165.5571,72.8418 L165.5571,75 L158.1777,75 L158.1777,72.8418 L160.6431,72.8418 L160.6431,64.7651 Z "/><text fill="#000000" font-family="sans-serif" font-size="12" font-style="italic" lengthAdjust="spacingAndGlyphs" textLength="106" x="182.25" y="73.0352">SystemRoleFactory</text><line style="stroke: #A80036; stroke-width: 1.5;" x1="78.5" x2="359.5" y1="84.5" y2="84.5"/><line style="stroke: #A80036; stroke-width: 1.5;" x1="78.5" x2="359.5" y1="92.5" y2="92.5"/><ellipse cx="88.5" cy="103.5" fill="#84BE84" rx="3" ry="3" style="stroke: #038048; stroke-width: 1.0;"/><text fill="#000000" font-family="sans-serif" font-size="11" lengthAdjust="spacingAndGlyphs" text-decoration="underline" textLength="177" x="97.5" y="107.1348">getInstance(): SystemRoleFactory</text><ellipse cx="88.5" cy="116.4551" fill="#84BE84" rx="3" ry="3" style="stroke: #038048; stroke-width: 1.0;"/><text fill="#000000" font-family="sans-serif" font-size="11" font-style="italic" lengthAdjust="spacingAndGlyphs" textLength="257" x="97.5" y="120.0898">findRoles(Object, Class&lt;? extends T&gt;): List&lt;T&gt;</text></a><!--MD5=[ece9d26ae2a49f41e4104adf8e8baac3]
class it.tidalwave.role.spi.SystemRoleFactory.Inner--><a href="SystemRoleFactory.Inner.html" target="_top" title="SystemRoleFactory.Inner.html" xlink:actuate="onRequest" xlink:href="SystemRoleFactory.Inner.html" xlink:show="new" xlink:title="SystemRoleFactory.Inner.html" xlink:type="simple"><rect codeLine="39" fill="#FEFECE" filter="url(#f606sf7oinhgm)" height="48" id="it.tidalwave.role.spi.SystemRoleFactory.Inner" style="stroke: #A80036; stroke-width: 1.5;" width="171" x="24.5" y="245"/><ellipse cx="39.5" cy="261" fill="#ADD1B2" rx="11" ry="11" style="stroke: #A80036; stroke-width: 1.0;"/><path d="M41.9731,267.1431 Q41.3921,267.4419 40.7529,267.5913 Q40.1138,267.7407 39.4082,267.7407 Q36.9014,267.7407 35.5815,266.0889 Q34.2617,264.437 34.2617,261.3159 Q34.2617,258.1865 35.5815,256.5347 Q36.9014,254.8828 39.4082,254.8828 Q40.1138,254.8828 40.7612,255.0322 Q41.4087,255.1816 41.9731,255.4805 L41.9731,258.2031 Q41.3423,257.6221 40.7488,257.3523 Q40.1553,257.0825 39.5244,257.0825 Q38.1797,257.0825 37.4949,258.1492 Q36.8101,259.2158 36.8101,261.3159 Q36.8101,263.4077 37.4949,264.4744 Q38.1797,265.541 39.5244,265.541 Q40.1553,265.541 40.7488,265.2712 Q41.3423,265.0015 41.9731,264.4204 Z "/><text fill="#000000" font-family="sans-serif" font-size="12" lengthAdjust="spacingAndGlyphs" textLength="139" x="53.5" y="265.5352">SystemRoleFactory.Inner</text><line style="stroke: #A80036; stroke-width: 1.5;" x1="25.5" x2="194.5" y1="277" y2="277"/><line style="stroke: #A80036; stroke-width: 1.5;" x1="25.5" x2="194.5" y1="285" y2="285"/></a><!--MD5=[d11beaaf1467b21e3ddd81b2d636df52]
class it.tidalwave.role.spi.SystemRoleFactorySupport--><a href="SystemRoleFactorySupport.html" target="_top" title="SystemRoleFactorySupport.html" xlink:actuate="onRequest" xlink:href="SystemRoleFactorySupport.html" xlink:show="new" xlink:title="SystemRoleFactorySupport.html" xlink:type="simple"><rect codeLine="42" fill="#FEFECE" filter="url(#f606sf7oinhgm)" height="125.7305" id="it.tidalwave.role.spi.SystemRoleFactorySupport" style="stroke: #A80036; stroke-width: 1.5;" width="339" x="230.5" y="206"/><ellipse cx="320.25" cy="222" fill="#A9DCDF" rx="11" ry="11" style="stroke: #A80036; stroke-width: 1.0;"/><path d="M320.1133,217.3481 L318.9595,222.4199 L321.2754,222.4199 Z M318.6191,215.1069 L321.6157,215.1069 L324.9609,227.5 L322.5122,227.5 L321.7485,224.437 L318.4697,224.437 L317.7227,227.5 L315.2739,227.5 Z "/><text fill="#000000" font-family="sans-serif" font-size="12" font-style="italic" lengthAdjust="spacingAndGlyphs" textLength="151" x="340.75" y="226.5352">SystemRoleFactorySupport</text><line style="stroke: #A80036; stroke-width: 1.5;" x1="231.5" x2="568.5" y1="238" y2="238"/><line style="stroke: #A80036; stroke-width: 1.5;" x1="231.5" x2="568.5" y1="246" y2="246"/><ellipse cx="241.5" cy="257" fill="#84BE84" rx="3" ry="3" style="stroke: #038048; stroke-width: 1.0;"/><text fill="#000000" font-family="sans-serif" font-size="11" lengthAdjust="spacingAndGlyphs" textLength="257" x="250.5" y="260.6348">findRoles(Object, Class&lt;? extends T&gt;): List&lt;T&gt;</text><polygon fill="#FFFF44" points="241.5,264.9551,245.5,268.9551,241.5,272.9551,237.5,268.9551" style="stroke: #B38D22; stroke-width: 1.0;"/><text fill="#000000" font-family="sans-serif" font-size="11" lengthAdjust="spacingAndGlyphs" textLength="186" x="250.5" y="273.5898">scan(Collection&lt;Class&lt;?&gt;&gt;): void</text><polygon fill="#FFFF44" points="241.5,277.9102,245.5,281.9102,241.5,285.9102,237.5,281.9102" style="stroke: #B38D22; stroke-width: 1.0;"/><text fill="#000000" font-family="sans-serif" font-size="11" lengthAdjust="spacingAndGlyphs" textLength="181" x="250.5" y="286.5449">getBean(Class&lt;T&gt;): Optional&lt;T&gt;</text><polygon fill="#FFFF44" points="241.5,290.8652,245.5,294.8652,241.5,298.8652,237.5,294.8652" style="stroke: #B38D22; stroke-width: 1.0;"/><text fill="#000000" font-family="sans-serif" font-size="11" lengthAdjust="spacingAndGlyphs" textLength="313" x="250.5" y="299.5">findContextTypeForRole(Class&lt;?&gt;): Optional&lt;Class&lt;?&gt;&gt;</text><polygon fill="#FFFF44" points="241.5,303.8203,245.5,307.8203,241.5,311.8203,237.5,307.8203" style="stroke: #B38D22; stroke-width: 1.0;"/><text fill="#000000" font-family="sans-serif" font-size="11" lengthAdjust="spacingAndGlyphs" textLength="255" x="250.5" y="312.4551">findDatumTypesForRole(Class&lt;?&gt;): Class&lt;?&gt;[]</text><ellipse cx="241.5" cy="321.7754" fill="#84BE84" rx="3" ry="3" style="stroke: #038048; stroke-width: 1.0;"/><text fill="#000000" font-family="sans-serif" font-size="11" lengthAdjust="spacingAndGlyphs" textLength="83" x="250.5" y="325.4102">logRoles(): void</text></a><!--MD5=[22bd95158778917e72b61e81e9f7e442]
reverse link it.tidalwave.role.spi.OwnerRoleFactoryProvider to it.tidalwave.role.spi.OwnerRoleFactoryProvider.Inner--><path codeLine="51" d="M632.4687,158.6537 C654.6959,189.1101 679.3643,222.9114 695.4687,244.9781 " fill="none" id="it.tidalwave.role.spi.OwnerRoleFactoryProvider-backto-it.tidalwave.role.spi.OwnerRoleFactoryProvider.Inner" style="stroke: #A80036; stroke-width: 1.0;"/><ellipse cx="628.1653" cy="152.757" fill="#FFFFFF" rx="8" ry="8" style="stroke: #A80036; stroke-width: 1.0;"/><line style="stroke: #A80036; stroke-width: 1.0;" x1="632.8814" x2="623.4492" y1="159.219" y2="146.2949"/><line style="stroke: #A80036; stroke-width: 1.0;" x1="621.7032" x2="634.6274" y1="157.4731" y2="148.0409"/><!--MD5=[d58ab91d36cd2abc253df6a0cab6dc02]
reverse link it.tidalwave.role.spi.OwnerRoleFactoryProvider to it.tidalwave.role.spi.OwnerRoleFactoryProvider.SimpleOwnerRoleFactoryProvider--><path codeLine="52" d="M734.4507,153.4993 C807.7415,182.4029 892.9546,215.1992 955.4761,238.4397 " fill="none" id="it.tidalwave.role.spi.OwnerRoleFactoryProvider-backto-it.tidalwave.role.spi.OwnerRoleFactoryProvider.SimpleOwnerRoleFactoryProvider" style="stroke: #A80036; stroke-width: 1.0; stroke-dasharray: 7.0,7.0;"/><polygon fill="none" points="731.6305,159.9116,715.6049,146.0485,736.7778,146.8921,731.6305,159.9116" style="stroke: #A80036; stroke-width: 1.0;"/><!--MD5=[d58ab91d36cd2abc253df6a0cab6dc02]
reverse link it.tidalwave.role.spi.OwnerRoleFactoryProvider to it.tidalwave.role.spi.OwnerRoleFactoryProvider.SimpleOwnerRoleFactoryProvider--><path codeLine="53" d="M730.7893,142.4764 C813.0886,173.711 911.3114,212.1301 975.655,238.3842 " fill="none" id="it.tidalwave.role.spi.OwnerRoleFactoryProvider-backto-it.tidalwave.role.spi.OwnerRoleFactoryProvider.SimpleOwnerRoleFactoryProvider-1" style="stroke: #A80036; stroke-width: 1.0;"/><ellipse cx="724.157" cy="139.9647" fill="#FFFFFF" rx="8" ry="8" style="stroke: #A80036; stroke-width: 1.0;"/><line style="stroke: #A80036; stroke-width: 1.0;" x1="731.6384" x2="716.6755" y1="142.798" y2="137.1314"/><line style="stroke: #A80036; stroke-width: 1.0;" x1="721.3237" x2="726.9903" y1="147.4462" y2="132.4832"/><!--MD5=[c278c43d864d80430e2568162c44ffea]
reverse link it.tidalwave.role.spi.OwnerRoleFactory to it.tidalwave.role.spi.OwnerRoleFactoryProvider.EmptyOwnerRoleFactory--><path codeLine="54" d="M990.3404,126.8677 C1008.7836,133.4432 1027.9196,140.0732 1046,146 C1135.8049,175.4386 1160.0373,177.0472 1250,206 C1281.3592,216.0924 1315.5334,227.8567 1345.597,238.4686 " fill="none" id="it.tidalwave.role.spi.OwnerRoleFactory-backto-it.tidalwave.role.spi.OwnerRoleFactoryProvider.EmptyOwnerRoleFactory" style="stroke: #A80036; stroke-width: 1.0; stroke-dasharray: 7.0,7.0;"/><polygon fill="none" points="987.8924,133.4262,971.4448,120.0667,992.6336,120.2535,987.8924,133.4262" style="stroke: #A80036; stroke-width: 1.0;"/><!--MD5=[33a1d27be22316ef780d0b0b3797d3ae]
reverse link it.tidalwave.role.spi.OwnerRoleFactoryProvider to it.tidalwave.role.spi.OwnerRoleFactoryProvider.EmptyOwnerRoleFactory--><path codeLine="55" d="M731.2998,145.3414 C732.2016,145.5646 733.1018,145.7842 734,146 C958.4884,199.9429 1025.0038,154.2157 1250,206 C1285.0078,214.0573 1322.6744,226.6014 1354.4577,238.3819 " fill="none" id="it.tidalwave.role.spi.OwnerRoleFactoryProvider-backto-it.tidalwave.role.spi.OwnerRoleFactoryProvider.EmptyOwnerRoleFactory" style="stroke: #A80036; stroke-width: 1.0;"/><ellipse cx="724.2992" cy="143.4827" fill="#FFFFFF" rx="8" ry="8" style="stroke: #A80036; stroke-width: 1.0;"/><line style="stroke: #A80036; stroke-width: 1.0;" x1="732.0313" x2="716.5671" y1="145.5357" y2="141.4298"/><line style="stroke: #A80036; stroke-width: 1.0;" x1="722.2463" x2="726.3522" y1="151.2149" y2="135.7506"/><!--MD5=[ed1c73b644d01de891a9673d4a499178]
reverse link it.tidalwave.role.spi.SystemRoleFactory to it.tidalwave.role.spi.SystemRoleFactory.Inner--><path codeLine="56" d="M188.4678,139.7801 C167.6419,174.0759 140.9853,217.9737 124.717,244.7641 " fill="none" id="it.tidalwave.role.spi.SystemRoleFactory-backto-it.tidalwave.role.spi.SystemRoleFactory.Inner" style="stroke: #A80036; stroke-width: 1.0;"/><ellipse cx="192.2627" cy="133.5305" fill="#FFFFFF" rx="8" ry="8" style="stroke: #A80036; stroke-width: 1.0;"/><line style="stroke: #A80036; stroke-width: 1.0;" x1="188.1104" x2="196.4151" y1="140.3685" y2="126.6925"/><line style="stroke: #A80036; stroke-width: 1.0;" x1="185.4248" x2="199.1007" y1="129.3781" y2="137.6828"/><!--MD5=[056a49a9969e9190adebcaaf6d929d0e]
reverse link it.tidalwave.role.spi.SystemRoleFactory to it.tidalwave.role.spi.SystemRoleFactorySupport--><path codeLine="57" d="M270.9981,141.0671 C291.3218,161.2224 314.8297,184.5356 336.1663,205.6953 " fill="none" id="it.tidalwave.role.spi.SystemRoleFactory-backto-it.tidalwave.role.spi.SystemRoleFactorySupport" style="stroke: #A80036; stroke-width: 1.0; stroke-dasharray: 7.0,7.0;"/><polygon fill="none" points="265.7751,145.746,256.5033,126.6925,275.6333,135.8054,265.7751,145.746" style="stroke: #A80036; stroke-width: 1.0;"/><text fill="#888888" font-family="sans-serif" font-size="10" lengthAdjust="spacingAndGlyphs" textLength="188" x="708.5" y="355.668">UMLDoclet 2.0.12, PlantUML 1.2020.16</text><!--MD5=[920661e2a170071cbe62b69768389c2c]
@startuml
    namespace it.tidalwave.role.spi {

        interface SystemRoleFactoryProvider [[SystemRoleFactoryProvider.html]] {
            {abstract} +getSystemRoleFactory(): SystemRoleFactory
        }

        interface ContextManagerProvider [[ContextManagerProvider.html]] {
            {abstract} +getContextManager(): ContextManager
        }

        interface OwnerRoleFactory [[OwnerRoleFactory.html]] {
            {abstract} +findRoles(Class<? extends T>): Collection<T>
        }

        interface OwnerRoleFactoryProvider [[OwnerRoleFactoryProvider.html]] {
            {static} +getInstance(): OwnerRoleFactoryProvider
            {abstract} +createRoleFactory(Object): OwnerRoleFactory
            {static} +set(OwnerRoleFactory): void
            {static} +reset(): void
            {static} +emptyRoleFactory(): OwnerRoleFactory
        }

        class it.tidalwave.role.spi.OwnerRoleFactoryProvider.Inner [[OwnerRoleFactoryProvider.Inner.html]] {
        }

        class it.tidalwave.role.spi.OwnerRoleFactoryProvider.SimpleOwnerRoleFactoryProvider [[OwnerRoleFactoryProvider.SimpleOwnerRoleFactoryProvider.html]] {
            +createRoleFactory(Object): OwnerRoleFactory
        }

        class it.tidalwave.role.spi.OwnerRoleFactoryProvider.EmptyOwnerRoleFactory [[OwnerRoleFactoryProvider.EmptyOwnerRoleFactory.html]] {
            +findRoles(Class<? extends T>): Collection<T>
        }

        interface SystemRoleFactory [[SystemRoleFactory.html]] {
            {static} +getInstance(): SystemRoleFactory
            {abstract} +findRoles(Object, Class<? extends T>): List<T>
        }

        class it.tidalwave.role.spi.SystemRoleFactory.Inner [[SystemRoleFactory.Inner.html]] {
        }

        abstract class SystemRoleFactorySupport [[SystemRoleFactorySupport.html]] {
            +findRoles(Object, Class<? extends T>): List<T>
            #scan(Collection<Class<?>>): void
            #getBean(Class<T>): Optional<T>
            #findContextTypeForRole(Class<?>): Optional<Class<?>>
            #findDatumTypesForRole(Class<?>): Class<?>[]
            +logRoles(): void
        }

        OwnerRoleFactoryProvider +- - it.tidalwave.role.spi.OwnerRoleFactoryProvider.Inner
        OwnerRoleFactoryProvider <|.. it.tidalwave.role.spi.OwnerRoleFactoryProvider.SimpleOwnerRoleFactoryProvider
        OwnerRoleFactoryProvider +- - it.tidalwave.role.spi.OwnerRoleFactoryProvider.SimpleOwnerRoleFactoryProvider
        OwnerRoleFactory <|.. it.tidalwave.role.spi.OwnerRoleFactoryProvider.EmptyOwnerRoleFactory
        OwnerRoleFactoryProvider +- - it.tidalwave.role.spi.OwnerRoleFactoryProvider.EmptyOwnerRoleFactory
        SystemRoleFactory +- - it.tidalwave.role.spi.SystemRoleFactory.Inner
        SystemRoleFactory <|.. SystemRoleFactorySupport
    }

    center footer UMLDoclet 2.0.12, PlantUML 1.2020.16
@enduml

PlantUML version 1.2020.16(Sun Aug 23 22:20:43 CEST 2020)
(APACHE source distribution)
Java Runtime: OpenJDK Runtime Environment
JVM: OpenJDK 64-Bit Server VM
Default Encoding: UTF-8
Language: en
Country: GB
--></g></svg>