@startuml
    namespace it.tidalwave.util {

        interface PreferencesHandler [[PreferencesHandler.html]] {
            {static} +PROP_APP_NAME: String
            {static} +__BASE_NAME: String
            {static} +__INSTANCE: AtomicReference<PreferencesHandler>
            {abstract} +getAppFolder(): Path
            {abstract} +getLogFolder(): Path
            {static} +setAppName(String): void
            {abstract} +getProperty(Key<T>): Optional<T>
            {abstract} +setProperty(Key<T>, T): void
            {abstract} +setDefaultProperty(Key<T>, T): void
            {static} +getInstance(): PreferencesHandler
        }

        PreferencesHandler --> Key: KEY_INITIAL_SIZE\nKEY_FULL_SCREEN
    }

    center footer UMLDoclet 2.0.12, PlantUML 1.2020.16
@enduml
