<?xml version="1.0" encoding="UTF-8" standalone="no"?><svg xmlns="http://www.w3.org/2000/svg" xmlns:xlink="http://www.w3.org/1999/xlink" contentScriptType="application/ecmascript" contentStyleType="text/css" height="319px" preserveAspectRatio="none" style="width:513px;height:319px;" version="1.1" viewBox="0 0 513 319" width="513px" zoomAndPan="magnify"><defs><filter height="300%" id="fzrcwbcprc9d0" width="300%" x="-1" y="-1"><feGaussianBlur result="blurOut" stdDeviation="2.0"/><feColorMatrix in="blurOut" result="blurOut2" type="matrix" values="0 0 0 0 0 0 0 0 0 0 0 0 0 0 0 0 0 0 .4 0"/><feOffset dx="4.0" dy="4.0" in="blurOut2" result="blurOut3"/><feBlend in="SourceGraphic" in2="blurOut3" mode="normal"/></filter></defs><g><!--MD5=[e2825e41240dc3ac7b156e1d527e9be0]
class it.tidalwave.util--><a href="it/tidalwave/util/package-summary.html" target="_top" title="it/tidalwave/util/package-summary.html" xlink:actuate="onRequest" xlink:href="it/tidalwave/util/package-summary.html" xlink:show="new" xlink:title="it/tidalwave/util/package-summary.html" xlink:type="simple"><rect codeLine="16" fill="#FEFECE" filter="url(#fzrcwbcprc9d0)" height="24.1328" id="it.tidalwave.util" style="stroke: #A80036; stroke-width: 1.5;" width="92" x="130.5" y="91"/><text fill="#000000" font-family="sans-serif" font-size="12" lengthAdjust="spacingAndGlyphs" textLength="86" x="133.5" y="107.6016">it.tidalwave.util</text></a><!--MD5=[27f7e0616a267958b84ba032cb749f43]
class it.tidalwave.util.asexamples--><a href="it/tidalwave/util/asexamples/package-summary.html" target="_top" title="it/tidalwave/util/asexamples/package-summary.html" xlink:actuate="onRequest" xlink:href="it/tidalwave/util/asexamples/package-summary.html" xlink:show="new" xlink:title="it/tidalwave/util/asexamples/package-summary.html" xlink:type="simple"><rect codeLine="18" fill="#FEFECE" filter="url(#fzrcwbcprc9d0)" height="24.1328" id="it.tidalwave.util.asexamples" style="stroke: #A80036; stroke-width: 1.5;" width="165" x="7" y="175"/><text fill="#000000" font-family="sans-serif" font-size="12" lengthAdjust="spacingAndGlyphs" textLength="159" x="10" y="191.6016">it.tidalwave.util.asexamples</text></a><!--MD5=[cadb40e77b29b34c4214bbbd416f90c0]
class it.tidalwave.util.spi--><a href="it/tidalwave/util/spi/package-summary.html" target="_top" title="it/tidalwave/util/spi/package-summary.html" xlink:actuate="onRequest" xlink:href="it/tidalwave/util/spi/package-summary.html" xlink:show="new" xlink:title="it/tidalwave/util/spi/package-summary.html" xlink:type="simple"><rect codeLine="20" fill="#FEFECE" filter="url(#fzrcwbcprc9d0)" height="24.1328" id="it.tidalwave.util.spi" style="stroke: #A80036; stroke-width: 1.5;" width="113" x="207" y="175"/><text fill="#000000" font-family="sans-serif" font-size="12" lengthAdjust="spacingAndGlyphs" textLength="107" x="210" y="191.6016">it.tidalwave.util.spi</text></a><!--MD5=[d9cc2a12eccdaec0b66e99308938522a]
class it.tidalwave.util.ui--><a href="it/tidalwave/util/ui/package-summary.html" target="_top" title="it/tidalwave/util/ui/package-summary.html" xlink:actuate="onRequest" xlink:href="it/tidalwave/util/ui/package-summary.html" xlink:show="new" xlink:title="it/tidalwave/util/ui/package-summary.html" xlink:type="simple"><rect codeLine="22" fill="#FEFECE" filter="url(#fzrcwbcprc9d0)" height="24.1328" id="it.tidalwave.util.ui" style="stroke: #A80036; stroke-width: 1.5;" width="106" x="241.5" y="7"/><text fill="#000000" font-family="sans-serif" font-size="12" lengthAdjust="spacingAndGlyphs" textLength="100" x="244.5" y="23.6016">it.tidalwave.util.ui</text></a><!--MD5=[d653c5b6efc2ae0c4925c2af109f453b]
class org.mockito--><rect fill="#FEFECE" filter="url(#fzrcwbcprc9d0)" height="24.1328" id="org.mockito" style="stroke: #A80036; stroke-width: 1.5;" width="74" x="257.5" y="91"/><text fill="#000000" font-family="sans-serif" font-size="12" lengthAdjust="spacingAndGlyphs" textLength="68" x="260.5" y="107.6016">org.mockito</text><!--MD5=[40834590ad823b7924614afa728a2ea5]
class org.mockito.stubbing--><rect fill="#FEFECE" filter="url(#fzrcwbcprc9d0)" height="24.1328" id="org.mockito.stubbing" style="stroke: #A80036; stroke-width: 1.5;" width="128" x="366.5" y="91"/><text fill="#000000" font-family="sans-serif" font-size="12" lengthAdjust="spacingAndGlyphs" textLength="122" x="369.5" y="107.6016">org.mockito.stubbing</text><!--MD5=[b38b3a8d6b00b78b55a3da79514951c5]
class org.slf4j--><rect fill="#FEFECE" filter="url(#fzrcwbcprc9d0)" height="24.1328" id="org.slf4j" style="stroke: #A80036; stroke-width: 1.5;" width="54" x="236.5" y="259"/><text fill="#000000" font-family="sans-serif" font-size="12" lengthAdjust="spacingAndGlyphs" textLength="48" x="239.5" y="275.6016">org.slf4j</text><!--MD5=[1ea295cac322de05800c50461583570d]
link it.tidalwave.util to it.tidalwave.util.asexamples--><path codeLine="6" d="M154.7784,115.0352 C135.2359,129.756 109.0419,154.7245 95.7744,171.0377 " fill="none" id="it.tidalwave.util-to-it.tidalwave.util.asexamples" style="stroke: #A80036; stroke-width: 1.0;"/><polygon fill="#A80036" points="92.6917,174.9872,101.3825,170.3537,95.7682,171.0457,95.0762,165.4313,92.6917,174.9872" style="stroke: #A80036; stroke-width: 1.0;"/><!--MD5=[ee33081d68e14490f61383bb82e7141e]
link it.tidalwave.util.asexamples to it.tidalwave.util--><path codeLine="11" d="M111.7361,174.9872 C131.3571,160.4013 157.2979,135.7315 170.4742,119.4038 " fill="none" id="it.tidalwave.util.asexamples-to-it.tidalwave.util" style="stroke: #A80036; stroke-width: 1.0;"/><polygon fill="#A80036" points="173.8362,115.0352,165.1773,119.728,170.7868,118.9976,171.5172,124.6071,173.8362,115.0352" style="stroke: #A80036; stroke-width: 1.0;"/><!--MD5=[d8d0394a98044e17f6d67e0e59c6c5c7]
link it.tidalwave.util to it.tidalwave.util.spi--><path codeLine="7" d="M179.7083,115.0352 C190.8446,130.0055 217.055,155.5738 237.7489,171.8597 " fill="none" id="it.tidalwave.util-to-it.tidalwave.util.spi" style="stroke: #A80036; stroke-width: 1.0;"/><polygon fill="#A80036" points="241.808,174.9872,237.1201,166.3256,237.8473,171.9355,232.2374,172.6627,241.808,174.9872" style="stroke: #A80036; stroke-width: 1.0;"/><!--MD5=[4b6963b8be3ed41836ad51d65a687825]
link it.tidalwave.util.spi to it.tidalwave.util--><path codeLine="12" d="M260.8524,174.9872 C249.9883,160.0274 223.7989,134.4597 202.8747,118.1646 " fill="none" id="it.tidalwave.util.spi-to-it.tidalwave.util" style="stroke: #A80036; stroke-width: 1.0;"/><polygon fill="#A80036" points="198.7662,115.0352,203.502,123.6707,202.7438,118.0649,208.3496,117.3066,198.7662,115.0352" style="stroke: #A80036; stroke-width: 1.0;"/><!--MD5=[c7b1b3eb320c2ec1796793d4eeaa8d97]
link it.tidalwave.util.ui to it.tidalwave.util--><path codeLine="8" d="M277.5935,31.0352 C256.4761,46.0679 220.3467,71.7871 197.4833,88.0628 " fill="none" id="it.tidalwave.util.ui-to-it.tidalwave.util" style="stroke: #A80036; stroke-width: 1.0;"/><polygon fill="#A80036" points="193.3752,90.9872,203.0269,89.0263,197.4485,88.0875,198.3873,82.5091,193.3752,90.9872" style="stroke: #A80036; stroke-width: 1.0;"/><!--MD5=[3a5469186852ca8a5b759594e5d190be]
link it.tidalwave.util.ui to org.mockito--><path codeLine="9" d="M294.5,31.0352 C294.5,45.3818 294.5,69.4615 294.5,85.777 " fill="none" id="it.tidalwave.util.ui-to-org.mockito" style="stroke: #A80036; stroke-width: 1.0;"/><polygon fill="#A80036" points="294.5,90.9872,298.5,81.9872,294.5,85.9872,290.5,81.9872,294.5,90.9872" style="stroke: #A80036; stroke-width: 1.0;"/><!--MD5=[62f4c489ef33a8e526a25ed4e551a2f2]
link it.tidalwave.util.ui to org.mockito.stubbing--><path codeLine="10" d="M313.9855,31.0352 C338.4252,46.1303 380.3107,72.0007 406.6431,88.2649 " fill="none" id="it.tidalwave.util.ui-to-org.mockito.stubbing" style="stroke: #A80036; stroke-width: 1.0;"/><polygon fill="#A80036" points="411.0507,90.9872,405.4956,82.8545,406.7968,88.3597,401.2916,89.6608,411.0507,90.9872" style="stroke: #A80036; stroke-width: 1.0;"/><!--MD5=[7a3ed930f83222abf2caeb10610b8a84]
link it.tidalwave.util.spi to org.slf4j--><path codeLine="13" d="M263.5,199.0352 C263.5,213.3818 263.5,237.4615 263.5,253.777 " fill="none" id="it.tidalwave.util.spi-to-org.slf4j" style="stroke: #A80036; stroke-width: 1.0;"/><polygon fill="#A80036" points="263.5,258.9872,267.5,249.9872,263.5,253.9872,259.5,249.9872,263.5,258.9872" style="stroke: #A80036; stroke-width: 1.0;"/><text fill="#888888" font-family="sans-serif" font-size="10" lengthAdjust="spacingAndGlyphs" textLength="188" x="153.75" y="305.8008">UMLDoclet 2.0.12, PlantUML 1.2020.16</text><!--MD5=[68cc0ad19b81a982aa4d8cfa7aeb198e]
@startuml
    set namespaceSeparator none
    hide circle
    hide empty fields
    hide empty methods

    it.tidalwave.util - -> it.tidalwave.util.asexamples
    it.tidalwave.util - -> it.tidalwave.util.spi
    it.tidalwave.util.ui - -> it.tidalwave.util
    it.tidalwave.util.ui - -> org.mockito
    it.tidalwave.util.ui - -> org.mockito.stubbing
    it.tidalwave.util.asexamples - -> it.tidalwave.util
    it.tidalwave.util.spi - -> it.tidalwave.util
    it.tidalwave.util.spi - -> org.slf4j

    ' Package links
    class "it.tidalwave.util" [[it/tidalwave/util/package-summary.html]] {
    }
    class "it.tidalwave.util.asexamples" [[it/tidalwave/util/asexamples/package-summary.html]] {
    }
    class "it.tidalwave.util.spi" [[it/tidalwave/util/spi/package-summary.html]] {
    }
    class "it.tidalwave.util.ui" [[it/tidalwave/util/ui/package-summary.html]] {
    }

    center footer UMLDoclet 2.0.12, PlantUML 1.2020.16
@enduml

@startuml
    set namespaceSeparator none
    hide circle
    hide empty fields
    hide empty methods

    it.tidalwave.util - -> it.tidalwave.util.asexamples
    it.tidalwave.util - -> it.tidalwave.util.spi
    it.tidalwave.util.ui - -> it.tidalwave.util
    it.tidalwave.util.ui - -> org.mockito
    it.tidalwave.util.ui - -> org.mockito.stubbing
    it.tidalwave.util.asexamples - -> it.tidalwave.util
    it.tidalwave.util.spi - -> it.tidalwave.util
    it.tidalwave.util.spi - -> org.slf4j

    class "it.tidalwave.util" [[it/tidalwave/util/package-summary.html]] {
    }
    class "it.tidalwave.util.asexamples" [[it/tidalwave/util/asexamples/package-summary.html]] {
    }
    class "it.tidalwave.util.spi" [[it/tidalwave/util/spi/package-summary.html]] {
    }
    class "it.tidalwave.util.ui" [[it/tidalwave/util/ui/package-summary.html]] {
    }

    center footer UMLDoclet 2.0.12, PlantUML 1.2020.16
@enduml

PlantUML version 1.2020.16(Sun Aug 23 22:20:43 CEST 2020)
(APACHE source distribution)
Java Runtime: OpenJDK Runtime Environment
JVM: OpenJDK 64-Bit Server VM
Default Encoding: UTF-8
Language: en
Country: GB
--></g></svg>