@startuml
    set namespaceSeparator none
    hide empty fields
    hide empty methods

    class "<size:14>BandMergeOp\n<size:10>it.tidalwave.image.op" as it.tidalwave.image.op.BandMergeOp [[BandMergeOp.html]] {
        +BandMergeOp(EditableImage)
        +getOperand(): EditableImage
    }

    abstract class "<size:14>Operation\n<size:10>it.tidalwave.image.op" as it.tidalwave.image.op.Operation [[Operation.html]]

    it.tidalwave.image.op.Operation <|-- it.tidalwave.image.op.BandMergeOp

    center footer UMLDoclet 2.0.12, PlantUML 1.2020.16
@enduml
