<?xml version="1.0" encoding="UTF-8" standalone="no"?><svg xmlns="http://www.w3.org/2000/svg" xmlns:xlink="http://www.w3.org/1999/xlink" contentScriptType="application/ecmascript" contentStyleType="text/css" height="179px" preserveAspectRatio="none" style="width:203px;height:179px;" version="1.1" viewBox="0 0 203 179" width="203px" zoomAndPan="magnify"><defs><filter height="300%" id="frt3t3a2wh2f1" width="300%" x="-1" y="-1"><feGaussianBlur result="blurOut" stdDeviation="2.0"/><feColorMatrix in="blurOut" result="blurOut2" type="matrix" values="0 0 0 0 0 0 0 0 0 0 0 0 0 0 0 0 0 0 .4 0"/><feOffset dx="4.0" dy="4.0" in="blurOut2" result="blurOut3"/><feBlend in="SourceGraphic" in2="blurOut3" mode="normal"/></filter></defs><g><!--MD5=[c1a7da9007a53a36cb6aa1eb6207aabd]
class it.tidalwave.image.op.PadPeriodicPlanarOp--><a href="PadPeriodicPlanarOp.html" target="_top" title="PadPeriodicPlanarOp.html" xlink:actuate="onRequest" xlink:href="PadPeriodicPlanarOp.html" xlink:show="new" xlink:title="PadPeriodicPlanarOp.html" xlink:type="simple"><rect codeLine="5" fill="#FEFECE" filter="url(#frt3t3a2wh2f1)" height="38.2656" id="it.tidalwave.image.op.PadPeriodicPlanarOp" style="stroke: #A80036; stroke-width: 1.5;" width="175" x="9.5" y="105"/><ellipse cx="24.5" cy="124.1328" fill="#ADD1B2" rx="11" ry="11" style="stroke: #A80036; stroke-width: 1.0;"/><path d="M26.9731,130.2759 Q26.3921,130.5747 25.7529,130.7241 Q25.1138,130.8735 24.4082,130.8735 Q21.9014,130.8735 20.5815,129.2217 Q19.2617,127.5698 19.2617,124.4487 Q19.2617,121.3193 20.5815,119.6675 Q21.9014,118.0156 24.4082,118.0156 Q25.1138,118.0156 25.7612,118.165 Q26.4087,118.3145 26.9731,118.6133 L26.9731,121.3359 Q26.3423,120.7549 25.7488,120.4851 Q25.1553,120.2153 24.5244,120.2153 Q23.1797,120.2153 22.4949,121.282 Q21.8101,122.3486 21.8101,124.4487 Q21.8101,126.5405 22.4949,127.6072 Q23.1797,128.6738 24.5244,128.6738 Q25.1553,128.6738 25.7488,128.4041 Q26.3423,128.1343 26.9731,127.5532 Z "/><text fill="#000000" font-family="sans-serif" font-size="14" lengthAdjust="spacingAndGlyphs" textLength="143" x="38.5" y="123.5352">PadPeriodicPlanarOp</text><text fill="#000000" font-family="sans-serif" font-size="10" lengthAdjust="spacingAndGlyphs" textLength="105" x="57.5" y="136.1563">it.tidalwave.image.op</text></a><!--MD5=[38d98585b86eb6b7711a62ae1ef153dd]
class it.tidalwave.image.op.Operation--><a href="Operation.html" target="_top" title="Operation.html" xlink:actuate="onRequest" xlink:href="Operation.html" xlink:show="new" xlink:title="Operation.html" xlink:type="simple"><rect codeLine="7" fill="#FEFECE" filter="url(#frt3t3a2wh2f1)" height="38.2656" id="it.tidalwave.image.op.Operation" style="stroke: #A80036; stroke-width: 1.5;" width="137" x="28.5" y="7"/><ellipse cx="43.5" cy="26.1328" fill="#A9DCDF" rx="11" ry="11" style="stroke: #A80036; stroke-width: 1.0;"/><path d="M43.3633,21.481 L42.2095,26.5527 L44.5254,26.5527 Z M41.8691,19.2397 L44.8657,19.2397 L48.2109,31.6328 L45.7622,31.6328 L44.9985,28.5698 L41.7197,28.5698 L40.9727,31.6328 L38.5239,31.6328 Z "/><text fill="#000000" font-family="sans-serif" font-size="14" font-style="italic" lengthAdjust="spacingAndGlyphs" textLength="69" x="75.5" y="25.5352">Operation</text><text fill="#000000" font-family="sans-serif" font-size="10" font-style="italic" lengthAdjust="spacingAndGlyphs" textLength="105" x="57.5" y="38.1563">it.tidalwave.image.op</text></a><!--MD5=[a357ab54e4e1911df07e9cca5c5ffcb9]
reverse link it.tidalwave.image.op.Operation to it.tidalwave.image.op.PadPeriodicPlanarOp--><path codeLine="9" d="M97,65.692 C97,79.1338 97,93.5458 97,104.6786 " fill="none" id="it.tidalwave.image.op.Operation-backto-it.tidalwave.image.op.PadPeriodicPlanarOp" style="stroke: #A80036; stroke-width: 1.0;"/><polygon fill="none" points="90.0001,65.3617,97,45.3616,104.0001,65.3616,90.0001,65.3617" style="stroke: #A80036; stroke-width: 1.0;"/><text fill="#888888" font-family="sans-serif" font-size="10" lengthAdjust="spacingAndGlyphs" textLength="188" x="0" y="165.9336">UMLDoclet 2.0.12, PlantUML 1.2020.16</text><!--MD5=[9b6805aad9f9c2b07cdbfea2f24c76e5]
@startuml
    set namespaceSeparator none
    hide empty fields
    hide empty methods

    class "<size:14>PadPeriodicPlanarOp\n<size:10>it.tidalwave.image.op" as it.tidalwave.image.op.PadPeriodicPlanarOp [[PadPeriodicPlanarOp.html]]

    abstract class "<size:14>Operation\n<size:10>it.tidalwave.image.op" as it.tidalwave.image.op.Operation [[Operation.html]]

    it.tidalwave.image.op.Operation <|- - it.tidalwave.image.op.PadPeriodicPlanarOp

    center footer UMLDoclet 2.0.12, PlantUML 1.2020.16
@enduml

PlantUML version 1.2020.16(Sun Aug 23 22:20:43 CEST 2020)
(APACHE source distribution)
Java Runtime: OpenJDK Runtime Environment
JVM: OpenJDK 64-Bit Server VM
Default Encoding: UTF-8
Language: en
Country: GB
--></g></svg>