<?xml version="1.0" encoding="UTF-8" standalone="no"?><svg xmlns="http://www.w3.org/2000/svg" xmlns:xlink="http://www.w3.org/1999/xlink" contentScriptType="application/ecmascript" contentStyleType="text/css" height="304px" preserveAspectRatio="none" style="width:343px;height:304px;" version="1.1" viewBox="0 0 343 304" width="343px" zoomAndPan="magnify"><defs><filter height="300%" id="fpog7wdm7buim" width="300%" x="-1" y="-1"><feGaussianBlur result="blurOut" stdDeviation="2.0"/><feColorMatrix in="blurOut" result="blurOut2" type="matrix" values="0 0 0 0 0 0 0 0 0 0 0 0 0 0 0 0 0 0 .4 0"/><feOffset dx="4.0" dy="4.0" in="blurOut2" result="blurOut3"/><feBlend in="SourceGraphic" in2="blurOut3" mode="normal"/></filter></defs><g><!--MD5=[eac3c728c0f0fcd200c1a5b9fe8344be]
class it.tidalwave.image.op.WriteOp--><a href="WriteOp.html" target="_top" title="WriteOp.html" xlink:actuate="onRequest" xlink:href="WriteOp.html" xlink:show="new" xlink:title="WriteOp.html" xlink:type="simple"><rect codeLine="5" fill="#FEFECE" filter="url(#fpog7wdm7buim)" height="162.8613" id="it.tidalwave.image.op.WriteOp" style="stroke: #A80036; stroke-width: 1.5;" width="317" x="7" y="105"/><ellipse cx="108.75" cy="124.1328" fill="#ADD1B2" rx="11" ry="11" style="stroke: #A80036; stroke-width: 1.0;"/><path d="M111.2231,130.2759 Q110.6421,130.5747 110.0029,130.7241 Q109.3638,130.8735 108.6582,130.8735 Q106.1514,130.8735 104.8315,129.2217 Q103.5117,127.5698 103.5117,124.4487 Q103.5117,121.3193 104.8315,119.6675 Q106.1514,118.0156 108.6582,118.0156 Q109.3638,118.0156 110.0112,118.165 Q110.6587,118.3145 111.2231,118.6133 L111.2231,121.3359 Q110.5923,120.7549 109.9988,120.4851 Q109.4053,120.2153 108.7744,120.2153 Q107.4297,120.2153 106.7449,121.282 Q106.0601,122.3486 106.0601,124.4487 Q106.0601,126.5405 106.7449,127.6072 Q107.4297,128.6738 108.7744,128.6738 Q109.4053,128.6738 109.9988,128.4041 Q110.5923,128.1343 111.2231,127.5532 Z "/><text fill="#000000" font-family="sans-serif" font-size="14" lengthAdjust="spacingAndGlyphs" textLength="55" x="154.25" y="123.5352">WriteOp</text><text fill="#000000" font-family="sans-serif" font-size="10" lengthAdjust="spacingAndGlyphs" textLength="105" x="129.25" y="136.1563">it.tidalwave.image.op</text><line style="stroke: #A80036; stroke-width: 1.5;" x1="8" x2="323" y1="143.2656" y2="143.2656"/><ellipse cx="18" cy="154.2656" fill="#84BE84" rx="3" ry="3" style="stroke: #038048; stroke-width: 1.0;"/><text fill="#000000" font-family="sans-serif" font-size="11" lengthAdjust="spacingAndGlyphs" textLength="121" x="27" y="157.9004">WriteOp(String, String)</text><ellipse cx="18" cy="167.2207" fill="#84BE84" rx="3" ry="3" style="stroke: #038048; stroke-width: 1.0;"/><text fill="#000000" font-family="sans-serif" font-size="11" lengthAdjust="spacingAndGlyphs" textLength="219" x="27" y="170.8555">WriteOp(String, String, ImageWriteParam)</text><ellipse cx="18" cy="180.1758" fill="#84BE84" rx="3" ry="3" style="stroke: #038048; stroke-width: 1.0;"/><text fill="#000000" font-family="sans-serif" font-size="11" lengthAdjust="spacingAndGlyphs" textLength="124" x="27" y="183.8105">WriteOp(String, Object)</text><ellipse cx="18" cy="193.1309" fill="#84BE84" rx="3" ry="3" style="stroke: #038048; stroke-width: 1.0;"/><text fill="#000000" font-family="sans-serif" font-size="11" lengthAdjust="spacingAndGlyphs" textLength="222" x="27" y="196.7656">WriteOp(String, Object, ImageWriteParam)</text><ellipse cx="18" cy="206.0859" fill="#84BE84" rx="3" ry="3" style="stroke: #038048; stroke-width: 1.0;"/><text fill="#000000" font-family="sans-serif" font-size="11" lengthAdjust="spacingAndGlyphs" textLength="291" x="27" y="209.7207">WriteOp(String, Object, ImageWriteParam, IIOMetadata)</text><ellipse cx="18" cy="219.041" fill="#84BE84" rx="3" ry="3" style="stroke: #038048; stroke-width: 1.0;"/><text fill="#000000" font-family="sans-serif" font-size="11" lengthAdjust="spacingAndGlyphs" textLength="101" x="27" y="222.6758">getFormat(): String</text><ellipse cx="18" cy="231.9961" fill="#84BE84" rx="3" ry="3" style="stroke: #038048; stroke-width: 1.0;"/><text fill="#000000" font-family="sans-serif" font-size="11" lengthAdjust="spacingAndGlyphs" textLength="104" x="27" y="235.6309">getOutput(): Object</text><ellipse cx="18" cy="244.9512" fill="#84BE84" rx="3" ry="3" style="stroke: #038048; stroke-width: 1.0;"/><text fill="#000000" font-family="sans-serif" font-size="11" lengthAdjust="spacingAndGlyphs" textLength="215" x="27" y="248.5859">getImageWriteParam(): ImageWriteParam</text><ellipse cx="18" cy="257.9063" fill="#84BE84" rx="3" ry="3" style="stroke: #038048; stroke-width: 1.0;"/><text fill="#000000" font-family="sans-serif" font-size="11" lengthAdjust="spacingAndGlyphs" textLength="157" x="27" y="261.541">getIIOMetadata(): IIOMetadata</text></a><!--MD5=[38d98585b86eb6b7711a62ae1ef153dd]
class it.tidalwave.image.op.Operation--><a href="Operation.html" target="_top" title="Operation.html" xlink:actuate="onRequest" xlink:href="Operation.html" xlink:show="new" xlink:title="Operation.html" xlink:type="simple"><rect codeLine="17" fill="#FEFECE" filter="url(#fpog7wdm7buim)" height="38.2656" id="it.tidalwave.image.op.Operation" style="stroke: #A80036; stroke-width: 1.5;" width="137" x="97" y="7"/><ellipse cx="112" cy="26.1328" fill="#A9DCDF" rx="11" ry="11" style="stroke: #A80036; stroke-width: 1.0;"/><path d="M111.8633,21.481 L110.7095,26.5527 L113.0254,26.5527 Z M110.3691,19.2397 L113.3657,19.2397 L116.7109,31.6328 L114.2622,31.6328 L113.4985,28.5698 L110.2197,28.5698 L109.4727,31.6328 L107.0239,31.6328 Z "/><text fill="#000000" font-family="sans-serif" font-size="14" font-style="italic" lengthAdjust="spacingAndGlyphs" textLength="69" x="144" y="25.5352">Operation</text><text fill="#000000" font-family="sans-serif" font-size="10" font-style="italic" lengthAdjust="spacingAndGlyphs" textLength="105" x="126" y="38.1563">it.tidalwave.image.op</text></a><!--MD5=[f19da764949d5ef8d44a361930f879be]
reverse link it.tidalwave.image.op.Operation to it.tidalwave.image.op.WriteOp--><path codeLine="19" d="M165.5,65.1409 C165.5,77.2063 165.5,90.9701 165.5,104.7917 " fill="none" id="it.tidalwave.image.op.Operation-backto-it.tidalwave.image.op.WriteOp" style="stroke: #A80036; stroke-width: 1.0;"/><polygon fill="none" points="158.5001,65.0418,165.5,45.0417,172.5001,65.0417,158.5001,65.0418" style="stroke: #A80036; stroke-width: 1.0;"/><text fill="#888888" font-family="sans-serif" font-size="10" lengthAdjust="spacingAndGlyphs" textLength="188" x="68.5" y="290.5293">UMLDoclet 2.0.12, PlantUML 1.2020.16</text><!--MD5=[21237748555f5d6a0bdaacd352b3cc81]
@startuml
    set namespaceSeparator none
    hide empty fields
    hide empty methods

    class "<size:14>WriteOp\n<size:10>it.tidalwave.image.op" as it.tidalwave.image.op.WriteOp [[WriteOp.html]] {
        +WriteOp(String, String)
        +WriteOp(String, String, ImageWriteParam)
        +WriteOp(String, Object)
        +WriteOp(String, Object, ImageWriteParam)
        +WriteOp(String, Object, ImageWriteParam, IIOMetadata)
        +getFormat(): String
        +getOutput(): Object
        +getImageWriteParam(): ImageWriteParam
        +getIIOMetadata(): IIOMetadata
    }

    abstract class "<size:14>Operation\n<size:10>it.tidalwave.image.op" as it.tidalwave.image.op.Operation [[Operation.html]]

    it.tidalwave.image.op.Operation <|- - it.tidalwave.image.op.WriteOp

    center footer UMLDoclet 2.0.12, PlantUML 1.2020.16
@enduml

PlantUML version 1.2020.16(Sun Aug 23 22:20:43 CEST 2020)
(APACHE source distribution)
Java Runtime: OpenJDK Runtime Environment
JVM: OpenJDK 64-Bit Server VM
Default Encoding: UTF-8
Language: en
Country: GB
--></g></svg>