@startuml
    set namespaceSeparator none
    hide empty fields
    hide empty methods

    class "<size:14>DefaultCalendarViewControllerTest\n<size:10>it.tidalwave.northernwind.frontend.ui.component.calendar" as it.tidalwave.northernwind.frontend.ui.component.calendar.DefaultCalendarViewControllerTest [[DefaultCalendarViewControllerTest.html]] {
        +must_properly_render(int, int, int): void
        +must_throw_NotFound(int, int, Optional<Integer>, String): void
        +must_throw_BadRequest(int, int, Optional<Integer>, String): void
    }

    center footer UMLDoclet 2.0.12, PlantUML 1.2020.16
@enduml
