@startuml
    namespace it.tidalwave.util.ui {

        class UserNotificationWithFeedback [[UserNotificationWithFeedback.html]] {
            #UserNotificationWithFeedback(String, String, Feedback)
            {static} +notificationWithFeedback(): UserNotificationWithFeedback
            +withCaption(String): UserNotificationWithFeedback
            +withCaption(Class<?>, String, Object...): UserNotificationWithFeedback
            +withText(String): UserNotificationWithFeedback
            +withText(Class<?>, String, Object...): UserNotificationWithFeedback
            +withFeedback(Feedback): UserNotificationWithFeedback
            +confirm(): void
            +cancel(): void
            {static} +feedback(): Feedback
        }

        class it.tidalwave.util.ui.UserNotificationWithFeedback.Feedback [[UserNotificationWithFeedback.Feedback.html]] {
            +canConfirm(): boolean
            +canCancel(): boolean
        }

        interface LockableView [[LockableView.html]] {
            {abstract} +lock(UserNotification): void
            {abstract} +unlock(): void
        }

        class UserNotification [[UserNotification.html]] {
            #text: String
            #caption: String
            {static} +notification(): UserNotification
            +withCaption(String): UserNotification
            +withCaption(Class<?>, String, Object...): UserNotification
            +withText(String): UserNotification
            +withText(Class<?>, String, Object...): UserNotification
        }

        UserNotification <|-- UserNotificationWithFeedback
        UserNotificationWithFeedback --> it.tidalwave.util.ui.UserNotificationWithFeedback.Feedback: feedback
        UserNotificationWithFeedback +-- it.tidalwave.util.ui.UserNotificationWithFeedback.Feedback
    }

    center footer UMLDoclet 2.0.12, PlantUML 1.2020.16
@enduml
