<?xml version="1.0" encoding="UTF-8" standalone="no"?><svg xmlns="http://www.w3.org/2000/svg" xmlns:xlink="http://www.w3.org/1999/xlink" contentScriptType="application/ecmascript" contentStyleType="text/css" height="179px" preserveAspectRatio="none" style="width:200px;height:179px;" version="1.1" viewBox="0 0 200 179" width="200px" zoomAndPan="magnify"><defs><filter height="300%" id="f3ubps27otkq5" width="300%" x="-1" y="-1"><feGaussianBlur result="blurOut" stdDeviation="2.0"/><feColorMatrix in="blurOut" result="blurOut2" type="matrix" values="0 0 0 0 0 0 0 0 0 0 0 0 0 0 0 0 0 0 .4 0"/><feOffset dx="4.0" dy="4.0" in="blurOut2" result="blurOut3"/><feBlend in="SourceGraphic" in2="blurOut3" mode="normal"/></filter></defs><g><!--MD5=[9346fbdbf0106a38f5d72118586e48fd]
class it.tidalwave.image.op.AbstractCreateOp--><a href="AbstractCreateOp.html" target="_top" title="AbstractCreateOp.html" xlink:actuate="onRequest" xlink:href="AbstractCreateOp.html" xlink:show="new" xlink:title="AbstractCreateOp.html" xlink:type="simple"><rect codeLine="5" fill="#FEFECE" filter="url(#f3ubps27otkq5)" height="38.2656" id="it.tidalwave.image.op.AbstractCreateOp" style="stroke: #A80036; stroke-width: 1.5;" width="154" x="20" y="105"/><ellipse cx="35" cy="124.1328" fill="#A9DCDF" rx="11" ry="11" style="stroke: #A80036; stroke-width: 1.0;"/><path d="M34.8633,119.481 L33.7095,124.5527 L36.0254,124.5527 Z M33.3691,117.2397 L36.3657,117.2397 L39.7109,129.6328 L37.2622,129.6328 L36.4985,126.5698 L33.2197,126.5698 L32.4727,129.6328 L30.0239,129.6328 Z "/><text fill="#000000" font-family="sans-serif" font-size="14" font-style="italic" lengthAdjust="spacingAndGlyphs" textLength="122" x="49" y="123.5352">AbstractCreateOp</text><text fill="#000000" font-family="sans-serif" font-size="10" font-style="italic" lengthAdjust="spacingAndGlyphs" textLength="105" x="57.5" y="136.1563">it.tidalwave.image.op</text></a><!--MD5=[38d98585b86eb6b7711a62ae1ef153dd]
class it.tidalwave.image.op.Operation--><a href="Operation.html" target="_top" title="Operation.html" xlink:actuate="onRequest" xlink:href="Operation.html" xlink:show="new" xlink:title="Operation.html" xlink:type="simple"><rect codeLine="7" fill="#FEFECE" filter="url(#f3ubps27otkq5)" height="38.2656" id="it.tidalwave.image.op.Operation" style="stroke: #A80036; stroke-width: 1.5;" width="137" x="28.5" y="7"/><ellipse cx="43.5" cy="26.1328" fill="#A9DCDF" rx="11" ry="11" style="stroke: #A80036; stroke-width: 1.0;"/><path d="M43.3633,21.481 L42.2095,26.5527 L44.5254,26.5527 Z M41.8691,19.2397 L44.8657,19.2397 L48.2109,31.6328 L45.7622,31.6328 L44.9985,28.5698 L41.7197,28.5698 L40.9727,31.6328 L38.5239,31.6328 Z "/><text fill="#000000" font-family="sans-serif" font-size="14" font-style="italic" lengthAdjust="spacingAndGlyphs" textLength="69" x="75.5" y="25.5352">Operation</text><text fill="#000000" font-family="sans-serif" font-size="10" font-style="italic" lengthAdjust="spacingAndGlyphs" textLength="105" x="57.5" y="38.1563">it.tidalwave.image.op</text></a><!--MD5=[2d138c187dda46f5acf1e99b25377af6]
reverse link it.tidalwave.image.op.Operation to it.tidalwave.image.op.AbstractCreateOp--><path codeLine="9" d="M97,65.692 C97,79.1338 97,93.5458 97,104.6786 " fill="none" id="it.tidalwave.image.op.Operation-backto-it.tidalwave.image.op.AbstractCreateOp" style="stroke: #A80036; stroke-width: 1.0;"/><polygon fill="none" points="90.0001,65.3617,97,45.3616,104.0001,65.3616,90.0001,65.3617" style="stroke: #A80036; stroke-width: 1.0;"/><text fill="#888888" font-family="sans-serif" font-size="10" lengthAdjust="spacingAndGlyphs" textLength="188" x="0" y="165.9336">UMLDoclet 2.0.12, PlantUML 1.2020.16</text><!--MD5=[7433a37942b641d78e2e488e9266504b]
@startuml
    set namespaceSeparator none
    hide empty fields
    hide empty methods

    abstract class "<size:14>AbstractCreateOp\n<size:10>it.tidalwave.image.op" as it.tidalwave.image.op.AbstractCreateOp [[AbstractCreateOp.html]]

    abstract class "<size:14>Operation\n<size:10>it.tidalwave.image.op" as it.tidalwave.image.op.Operation [[Operation.html]]

    it.tidalwave.image.op.Operation <|- - it.tidalwave.image.op.AbstractCreateOp

    center footer UMLDoclet 2.0.12, PlantUML 1.2020.16
@enduml

PlantUML version 1.2020.16(Sun Aug 23 22:20:43 CEST 2020)
(APACHE source distribution)
Java Runtime: OpenJDK Runtime Environment
JVM: OpenJDK 64-Bit Server VM
Default Encoding: UTF-8
Language: en
Country: GB
--></g></svg>