<?xml version="1.0" encoding="UTF-8" standalone="no"?><svg xmlns="http://www.w3.org/2000/svg" xmlns:xlink="http://www.w3.org/1999/xlink" contentScriptType="application/ecmascript" contentStyleType="text/css" height="200px" preserveAspectRatio="none" style="width:258px;height:200px;" version="1.1" viewBox="0 0 258 200" width="258px" zoomAndPan="magnify"><defs><filter height="300%" id="f18qxgn43516uv" width="300%" x="-1" y="-1"><feGaussianBlur result="blurOut" stdDeviation="2.0"/><feColorMatrix in="blurOut" result="blurOut2" type="matrix" values="0 0 0 0 0 0 0 0 0 0 0 0 0 0 0 0 0 0 .4 0"/><feOffset dx="4.0" dy="4.0" in="blurOut2" result="blurOut3"/><feBlend in="SourceGraphic" in2="blurOut3" mode="normal"/></filter></defs><g><!--MD5=[abdeb88cbf9ab8059f7656336a46f1b3]
class it.tidalwave.image.op.DrawOp.Executor--><a href="DrawOp.Executor.html" target="_top" title="DrawOp.Executor.html" xlink:actuate="onRequest" xlink:href="DrawOp.Executor.html" xlink:show="new" xlink:title="DrawOp.Executor.html" xlink:type="simple"><rect codeLine="5" fill="#FEFECE" filter="url(#f18qxgn43516uv)" height="59.2207" id="it.tidalwave.image.op.DrawOp.Executor" style="stroke: #A80036; stroke-width: 1.5;" width="232" x="7" y="105"/><ellipse cx="58.75" cy="124.1328" fill="#B4A7E5" rx="11" ry="11" style="stroke: #A80036; stroke-width: 1.0;"/><path d="M55.1777,120.3979 L55.1777,118.2397 L62.5571,118.2397 L62.5571,120.3979 L60.0918,120.3979 L60.0918,128.4746 L62.5571,128.4746 L62.5571,130.6328 L55.1777,130.6328 L55.1777,128.4746 L57.6431,128.4746 L57.6431,120.3979 Z "/><text fill="#000000" font-family="sans-serif" font-size="14" font-style="italic" lengthAdjust="spacingAndGlyphs" textLength="120" x="79.25" y="123.5352">DrawOp.Executor</text><text fill="#000000" font-family="sans-serif" font-size="10" font-style="italic" lengthAdjust="spacingAndGlyphs" textLength="105" x="86.75" y="136.1563">it.tidalwave.image.op</text><line style="stroke: #A80036; stroke-width: 1.5;" x1="8" x2="238" y1="143.2656" y2="143.2656"/><ellipse cx="18" cy="154.2656" fill="#84BE84" rx="3" ry="3" style="stroke: #038048; stroke-width: 1.0;"/><text fill="#000000" font-family="sans-serif" font-size="11" font-style="italic" lengthAdjust="spacingAndGlyphs" textLength="206" x="27" y="157.9004">draw(Graphics2D, EditableImage): void</text></a><!--MD5=[772d562ab1ff09ea3c97f67ac9c1d405]
class it.tidalwave.image.op.DrawOp--><a href="DrawOp.html" target="_top" title="DrawOp.html" xlink:actuate="onRequest" xlink:href="DrawOp.html" xlink:show="new" xlink:title="DrawOp.html" xlink:type="simple"><rect codeLine="9" fill="#FEFECE" filter="url(#f18qxgn43516uv)" height="38.2656" id="it.tidalwave.image.op.DrawOp" style="stroke: #A80036; stroke-width: 1.5;" width="137" x="54.5" y="7"/><ellipse cx="69.5" cy="26.1328" fill="#ADD1B2" rx="11" ry="11" style="stroke: #A80036; stroke-width: 1.0;"/><path d="M71.9731,32.2759 Q71.3921,32.5747 70.7529,32.7241 Q70.1138,32.8735 69.4082,32.8735 Q66.9014,32.8735 65.5815,31.2217 Q64.2617,29.5698 64.2617,26.4487 Q64.2617,23.3193 65.5815,21.6675 Q66.9014,20.0156 69.4082,20.0156 Q70.1138,20.0156 70.7612,20.165 Q71.4087,20.3145 71.9731,20.6133 L71.9731,23.3359 Q71.3423,22.7549 70.7488,22.4851 Q70.1553,22.2153 69.5244,22.2153 Q68.1797,22.2153 67.4949,23.282 Q66.8101,24.3486 66.8101,26.4487 Q66.8101,28.5405 67.4949,29.6072 Q68.1797,30.6738 69.5244,30.6738 Q70.1553,30.6738 70.7488,30.4041 Q71.3423,30.1343 71.9731,29.5532 Z "/><text fill="#000000" font-family="sans-serif" font-size="14" lengthAdjust="spacingAndGlyphs" textLength="55" x="108.5" y="25.5352">DrawOp</text><text fill="#000000" font-family="sans-serif" font-size="10" lengthAdjust="spacingAndGlyphs" textLength="105" x="83.5" y="38.1563">it.tidalwave.image.op</text></a><!--MD5=[e3f6800d0d8e7524b43b222d46dddeef]
reverse link it.tidalwave.image.op.DrawOp to it.tidalwave.image.op.DrawOp.Executor--><path codeLine="11" d="M123,60.1734 C123,74.5357 123,91.0838 123,104.9146 " fill="none" id="it.tidalwave.image.op.DrawOp-backto-it.tidalwave.image.op.DrawOp.Executor" style="stroke: #A80036; stroke-width: 1.0;"/><ellipse cx="123.0001" cy="53.1479" fill="#FFFFFF" rx="8" ry="8" style="stroke: #A80036; stroke-width: 1.0;"/><line style="stroke: #A80036; stroke-width: 1.0;" x1="123.0002" x2="123" y1="61.1479" y2="45.1479"/><line style="stroke: #A80036; stroke-width: 1.0;" x1="115.0001" x2="131.0001" y1="53.148" y2="53.1478"/><text fill="#888888" font-family="sans-serif" font-size="10" lengthAdjust="spacingAndGlyphs" textLength="188" x="26" y="186.8887">UMLDoclet 2.0.12, PlantUML 1.2020.16</text><!--MD5=[7683a2c24438cb3a6dc1a506092896d8]
@startuml
    set namespaceSeparator none
    hide empty fields
    hide empty methods

    interface "<size:14>DrawOp.Executor\n<size:10>it.tidalwave.image.op" as it.tidalwave.image.op.DrawOp.Executor [[DrawOp.Executor.html]] {
        {abstract} +draw(Graphics2D, EditableImage): void
    }

    class "<size:14>DrawOp\n<size:10>it.tidalwave.image.op" as it.tidalwave.image.op.DrawOp [[DrawOp.html]]

    it.tidalwave.image.op.DrawOp +- - it.tidalwave.image.op.DrawOp.Executor

    center footer UMLDoclet 2.0.12, PlantUML 1.2020.16
@enduml

PlantUML version 1.2020.16(Sun Aug 23 22:20:43 CEST 2020)
(APACHE source distribution)
Java Runtime: OpenJDK Runtime Environment
JVM: OpenJDK 64-Bit Server VM
Default Encoding: UTF-8
Language: en
Country: GB
--></g></svg>