<?xml version="1.0" encoding="UTF-8" standalone="no"?><svg xmlns="http://www.w3.org/2000/svg" xmlns:xlink="http://www.w3.org/1999/xlink" contentScriptType="application/ecmascript" contentStyleType="text/css" height="213px" preserveAspectRatio="none" style="width:217px;height:213px;" version="1.1" viewBox="0 0 217 213" width="217px" zoomAndPan="magnify"><defs><filter height="300%" id="fcvq06d4ti9de" width="300%" x="-1" y="-1"><feGaussianBlur result="blurOut" stdDeviation="2.0"/><feColorMatrix in="blurOut" result="blurOut2" type="matrix" values="0 0 0 0 0 0 0 0 0 0 0 0 0 0 0 0 0 0 .4 0"/><feOffset dx="4.0" dy="4.0" in="blurOut2" result="blurOut3"/><feBlend in="SourceGraphic" in2="blurOut3" mode="normal"/></filter></defs><g><!--MD5=[ce4fa93338d0642c1257cdcb76a2b0c6]
class it.tidalwave.image.op.HistogramOp--><a href="HistogramOp.html" target="_top" title="HistogramOp.html" xlink:actuate="onRequest" xlink:href="HistogramOp.html" xlink:show="new" xlink:title="HistogramOp.html" xlink:type="simple"><rect codeLine="5" fill="#FEFECE" filter="url(#fcvq06d4ti9de)" height="72.1758" id="it.tidalwave.image.op.HistogramOp" style="stroke: #A80036; stroke-width: 1.5;" width="191" x="7" y="105"/><ellipse cx="46.3" cy="124.1328" fill="#ADD1B2" rx="11" ry="11" style="stroke: #A80036; stroke-width: 1.0;"/><path d="M48.7731,130.2759 Q48.1921,130.5747 47.5529,130.7241 Q46.9138,130.8735 46.2082,130.8735 Q43.7014,130.8735 42.3815,129.2217 Q41.0617,127.5698 41.0617,124.4487 Q41.0617,121.3193 42.3815,119.6675 Q43.7014,118.0156 46.2082,118.0156 Q46.9138,118.0156 47.5612,118.165 Q48.2087,118.3145 48.7731,118.6133 L48.7731,121.3359 Q48.1423,120.7549 47.5488,120.4851 Q46.9553,120.2153 46.3244,120.2153 Q44.9797,120.2153 44.2949,121.282 Q43.6101,122.3486 43.6101,124.4487 Q43.6101,126.5405 44.2949,127.6072 Q44.9797,128.6738 46.3244,128.6738 Q46.9553,128.6738 47.5488,128.4041 Q48.1423,128.1343 48.7731,127.5532 Z "/><text fill="#000000" font-family="sans-serif" font-size="14" lengthAdjust="spacingAndGlyphs" textLength="91" x="72.7" y="123.5352">HistogramOp</text><text fill="#000000" font-family="sans-serif" font-size="10" lengthAdjust="spacingAndGlyphs" textLength="105" x="65.7" y="136.1563">it.tidalwave.image.op</text><line style="stroke: #A80036; stroke-width: 1.5;" x1="8" x2="197" y1="143.2656" y2="143.2656"/><ellipse cx="18" cy="154.2656" fill="#84BE84" rx="3" ry="3" style="stroke: #038048; stroke-width: 1.0;"/><text fill="#000000" font-family="sans-serif" font-size="11" lengthAdjust="spacingAndGlyphs" textLength="165" x="27" y="157.9004">setHistogram(Histogram): void</text><ellipse cx="18" cy="167.2207" fill="#84BE84" rx="3" ry="3" style="stroke: #038048; stroke-width: 1.0;"/><text fill="#000000" font-family="sans-serif" font-size="11" lengthAdjust="spacingAndGlyphs" textLength="143" x="27" y="170.8555">getHistogram(): Histogram</text></a><!--MD5=[38d98585b86eb6b7711a62ae1ef153dd]
class it.tidalwave.image.op.Operation--><a href="Operation.html" target="_top" title="Operation.html" xlink:actuate="onRequest" xlink:href="Operation.html" xlink:show="new" xlink:title="Operation.html" xlink:type="simple"><rect codeLine="10" fill="#FEFECE" filter="url(#fcvq06d4ti9de)" height="38.2656" id="it.tidalwave.image.op.Operation" style="stroke: #A80036; stroke-width: 1.5;" width="137" x="34" y="7"/><ellipse cx="49" cy="26.1328" fill="#A9DCDF" rx="11" ry="11" style="stroke: #A80036; stroke-width: 1.0;"/><path d="M48.8633,21.481 L47.7095,26.5527 L50.0254,26.5527 Z M47.3691,19.2397 L50.3657,19.2397 L53.7109,31.6328 L51.2622,31.6328 L50.4985,28.5698 L47.2197,28.5698 L46.4727,31.6328 L44.0239,31.6328 Z "/><text fill="#000000" font-family="sans-serif" font-size="14" font-style="italic" lengthAdjust="spacingAndGlyphs" textLength="69" x="81" y="25.5352">Operation</text><text fill="#000000" font-family="sans-serif" font-size="10" font-style="italic" lengthAdjust="spacingAndGlyphs" textLength="105" x="63" y="38.1563">it.tidalwave.image.op</text></a><!--MD5=[984758f2a62a62a97bd8ff8fe0c2407f]
reverse link it.tidalwave.image.op.Operation to it.tidalwave.image.op.HistogramOp--><path codeLine="12" d="M102.5,65.5888 C102.5,78.3573 102.5,92.4348 102.5,104.935 " fill="none" id="it.tidalwave.image.op.Operation-backto-it.tidalwave.image.op.HistogramOp" style="stroke: #A80036; stroke-width: 1.0;"/><polygon fill="none" points="95.5001,65.2484,102.5,45.2484,109.5001,65.2484,95.5001,65.2484" style="stroke: #A80036; stroke-width: 1.0;"/><text fill="#888888" font-family="sans-serif" font-size="10" lengthAdjust="spacingAndGlyphs" textLength="188" x="5.5" y="199.8438">UMLDoclet 2.0.12, PlantUML 1.2020.16</text><!--MD5=[cf5b786d6bff01aee249f52e413d457c]
@startuml
    set namespaceSeparator none
    hide empty fields
    hide empty methods

    class "<size:14>HistogramOp\n<size:10>it.tidalwave.image.op" as it.tidalwave.image.op.HistogramOp [[HistogramOp.html]] {
        +setHistogram(Histogram): void
        +getHistogram(): Histogram
    }

    abstract class "<size:14>Operation\n<size:10>it.tidalwave.image.op" as it.tidalwave.image.op.Operation [[Operation.html]]

    it.tidalwave.image.op.Operation <|- - it.tidalwave.image.op.HistogramOp

    center footer UMLDoclet 2.0.12, PlantUML 1.2020.16
@enduml

PlantUML version 1.2020.16(Sun Aug 23 22:20:43 CEST 2020)
(APACHE source distribution)
Java Runtime: OpenJDK Runtime Environment
JVM: OpenJDK 64-Bit Server VM
Default Encoding: UTF-8
Language: en
Country: GB
--></g></svg>