<?xml version="1.0" encoding="UTF-8" standalone="no"?><svg xmlns="http://www.w3.org/2000/svg" xmlns:xlink="http://www.w3.org/1999/xlink" contentScriptType="application/ecmascript" contentStyleType="text/css" height="252px" preserveAspectRatio="none" style="width:205px;height:252px;" version="1.1" viewBox="0 0 205 252" width="205px" zoomAndPan="magnify"><defs><filter height="300%" id="f1tqghg0as3puv" width="300%" x="-1" y="-1"><feGaussianBlur result="blurOut" stdDeviation="2.0"/><feColorMatrix in="blurOut" result="blurOut2" type="matrix" values="0 0 0 0 0 0 0 0 0 0 0 0 0 0 0 0 0 0 .4 0"/><feOffset dx="4.0" dy="4.0" in="blurOut2" result="blurOut3"/><feBlend in="SourceGraphic" in2="blurOut3" mode="normal"/></filter></defs><g><!--MD5=[7971e3388d55d2f4e1cdec02099f0eb8]
class it.tidalwave.image.op.OptimizeOp--><a href="OptimizeOp.html" target="_top" title="OptimizeOp.html" xlink:actuate="onRequest" xlink:href="OptimizeOp.html" xlink:show="new" xlink:title="OptimizeOp.html" xlink:type="simple"><rect codeLine="5" fill="#FEFECE" filter="url(#f1tqghg0as3puv)" height="111.041" id="it.tidalwave.image.op.OptimizeOp" style="stroke: #A80036; stroke-width: 1.5;" width="179" x="7.5" y="105"/><ellipse cx="41.4" cy="124.1328" fill="#ADD1B2" rx="11" ry="11" style="stroke: #A80036; stroke-width: 1.0;"/><path d="M43.8731,130.2759 Q43.2921,130.5747 42.6529,130.7241 Q42.0138,130.8735 41.3082,130.8735 Q38.8014,130.8735 37.4815,129.2217 Q36.1617,127.5698 36.1617,124.4487 Q36.1617,121.3193 37.4815,119.6675 Q38.8014,118.0156 41.3082,118.0156 Q42.0138,118.0156 42.6612,118.165 Q43.3087,118.3145 43.8731,118.6133 L43.8731,121.3359 Q43.2423,120.7549 42.6488,120.4851 Q42.0553,120.2153 41.4244,120.2153 Q40.0797,120.2153 39.3949,121.282 Q38.7101,122.3486 38.7101,124.4487 Q38.7101,126.5405 39.3949,127.6072 Q40.0797,128.6738 41.4244,128.6738 Q42.0553,128.6738 42.6488,128.4041 Q43.2423,128.1343 43.8731,127.5532 Z "/><text fill="#000000" font-family="sans-serif" font-size="14" lengthAdjust="spacingAndGlyphs" textLength="82" x="71.1" y="123.5352">OptimizeOp</text><text fill="#000000" font-family="sans-serif" font-size="10" lengthAdjust="spacingAndGlyphs" textLength="105" x="59.6" y="136.1563">it.tidalwave.image.op</text><line style="stroke: #A80036; stroke-width: 1.5;" x1="8.5" x2="185.5" y1="143.2656" y2="143.2656"/><ellipse cx="18.5" cy="154.2656" fill="#84BE84" rx="3" ry="3" style="stroke: #038048; stroke-width: 1.0;"/><text fill="#000000" font-family="sans-serif" font-size="11" lengthAdjust="spacingAndGlyphs" textLength="153" x="27.5" y="157.9004">OptimizeOp(double, Quality)</text><ellipse cx="18.5" cy="167.2207" fill="#84BE84" rx="3" ry="3" style="stroke: #038048; stroke-width: 1.0;"/><text fill="#000000" font-family="sans-serif" font-size="11" lengthAdjust="spacingAndGlyphs" textLength="72" x="27.5" y="170.8555">OptimizeOp()</text><ellipse cx="18.5" cy="180.1758" fill="#84BE84" rx="3" ry="3" style="stroke: #038048; stroke-width: 1.0;"/><text fill="#000000" font-family="sans-serif" font-size="11" lengthAdjust="spacingAndGlyphs" textLength="109" x="27.5" y="183.8105">OptimizeOp(double)</text><ellipse cx="18.5" cy="193.1309" fill="#84BE84" rx="3" ry="3" style="stroke: #038048; stroke-width: 1.0;"/><text fill="#000000" font-family="sans-serif" font-size="11" lengthAdjust="spacingAndGlyphs" textLength="95" x="27.5" y="196.7656">getScale(): double</text><ellipse cx="18.5" cy="206.0859" fill="#84BE84" rx="3" ry="3" style="stroke: #038048; stroke-width: 1.0;"/><text fill="#000000" font-family="sans-serif" font-size="11" lengthAdjust="spacingAndGlyphs" textLength="107" x="27.5" y="209.7207">getQuality(): Quality</text></a><!--MD5=[38d98585b86eb6b7711a62ae1ef153dd]
class it.tidalwave.image.op.Operation--><a href="Operation.html" target="_top" title="Operation.html" xlink:actuate="onRequest" xlink:href="Operation.html" xlink:show="new" xlink:title="Operation.html" xlink:type="simple"><rect codeLine="13" fill="#FEFECE" filter="url(#f1tqghg0as3puv)" height="38.2656" id="it.tidalwave.image.op.Operation" style="stroke: #A80036; stroke-width: 1.5;" width="137" x="28.5" y="7"/><ellipse cx="43.5" cy="26.1328" fill="#A9DCDF" rx="11" ry="11" style="stroke: #A80036; stroke-width: 1.0;"/><path d="M43.3633,21.481 L42.2095,26.5527 L44.5254,26.5527 Z M41.8691,19.2397 L44.8657,19.2397 L48.2109,31.6328 L45.7622,31.6328 L44.9985,28.5698 L41.7197,28.5698 L40.9727,31.6328 L38.5239,31.6328 Z "/><text fill="#000000" font-family="sans-serif" font-size="14" font-style="italic" lengthAdjust="spacingAndGlyphs" textLength="69" x="75.5" y="25.5352">Operation</text><text fill="#000000" font-family="sans-serif" font-size="10" font-style="italic" lengthAdjust="spacingAndGlyphs" textLength="105" x="57.5" y="38.1563">it.tidalwave.image.op</text></a><!--MD5=[15d6f7dac77714516f2b1ad88aee1fdf]
reverse link it.tidalwave.image.op.Operation to it.tidalwave.image.op.OptimizeOp--><path codeLine="15" d="M97,65.4143 C97,77.7777 97,91.6652 97,104.9276 " fill="none" id="it.tidalwave.image.op.Operation-backto-it.tidalwave.image.op.OptimizeOp" style="stroke: #A80036; stroke-width: 1.0;"/><polygon fill="none" points="90.0001,65.2706,97,45.2706,104.0001,65.2705,90.0001,65.2706" style="stroke: #A80036; stroke-width: 1.0;"/><text fill="#888888" font-family="sans-serif" font-size="10" lengthAdjust="spacingAndGlyphs" textLength="188" x="0" y="238.709">UMLDoclet 2.0.12, PlantUML 1.2020.16</text><!--MD5=[8821e078b94b7b3f0afd896becd9ee9d]
@startuml
    set namespaceSeparator none
    hide empty fields
    hide empty methods

    class "<size:14>OptimizeOp\n<size:10>it.tidalwave.image.op" as it.tidalwave.image.op.OptimizeOp [[OptimizeOp.html]] {
        +OptimizeOp(double, Quality)
        +OptimizeOp()
        +OptimizeOp(double)
        +getScale(): double
        +getQuality(): Quality
    }

    abstract class "<size:14>Operation\n<size:10>it.tidalwave.image.op" as it.tidalwave.image.op.Operation [[Operation.html]]

    it.tidalwave.image.op.Operation <|- - it.tidalwave.image.op.OptimizeOp

    center footer UMLDoclet 2.0.12, PlantUML 1.2020.16
@enduml

PlantUML version 1.2020.16(Sun Aug 23 22:20:43 CEST 2020)
(APACHE source distribution)
Java Runtime: OpenJDK Runtime Environment
JVM: OpenJDK 64-Bit Server VM
Default Encoding: UTF-8
Language: en
Country: GB
--></g></svg>