<?xml version="1.0" encoding="UTF-8" standalone="no"?><svg xmlns="http://www.w3.org/2000/svg" xmlns:xlink="http://www.w3.org/1999/xlink" contentScriptType="application/ecmascript" contentStyleType="text/css" height="381px" preserveAspectRatio="none" style="width:466px;height:381px;" version="1.1" viewBox="0 0 466 381" width="466px" zoomAndPan="magnify"><defs><filter height="300%" id="f179im6fqibswc" width="300%" x="-1" y="-1"><feGaussianBlur result="blurOut" stdDeviation="2.0"/><feColorMatrix in="blurOut" result="blurOut2" type="matrix" values="0 0 0 0 0 0 0 0 0 0 0 0 0 0 0 0 0 0 .4 0"/><feOffset dx="4.0" dy="4.0" in="blurOut2" result="blurOut3"/><feBlend in="SourceGraphic" in2="blurOut3" mode="normal"/></filter></defs><g><!--MD5=[65a9b8e4eb249aeb370a6539980e5e68]
class it.tidalwave.image.op.PaintOp--><a href="PaintOp.html" target="_top" title="PaintOp.html" xlink:actuate="onRequest" xlink:href="PaintOp.html" xlink:show="new" xlink:title="PaintOp.html" xlink:type="simple"><rect codeLine="5" fill="#FEFECE" filter="url(#f179im6fqibswc)" height="240.5918" id="it.tidalwave.image.op.PaintOp" style="stroke: #A80036; stroke-width: 1.5;" width="440" x="7" y="105"/><ellipse cx="170.25" cy="124.1328" fill="#ADD1B2" rx="11" ry="11" style="stroke: #A80036; stroke-width: 1.0;"/><path d="M172.7231,130.2759 Q172.1421,130.5747 171.5029,130.7241 Q170.8638,130.8735 170.1582,130.8735 Q167.6514,130.8735 166.3315,129.2217 Q165.0117,127.5698 165.0117,124.4487 Q165.0117,121.3193 166.3315,119.6675 Q167.6514,118.0156 170.1582,118.0156 Q170.8638,118.0156 171.5112,118.165 Q172.1587,118.3145 172.7231,118.6133 L172.7231,121.3359 Q172.0923,120.7549 171.4988,120.4851 Q170.9053,120.2153 170.2744,120.2153 Q168.9297,120.2153 168.2449,121.282 Q167.5601,122.3486 167.5601,124.4487 Q167.5601,126.5405 168.2449,127.6072 Q168.9297,128.6738 170.2744,128.6738 Q170.9053,128.6738 171.4988,128.4041 Q172.0923,128.1343 172.7231,127.5532 Z "/><text fill="#000000" font-family="sans-serif" font-size="14" lengthAdjust="spacingAndGlyphs" textLength="54" x="216.25" y="123.5352">PaintOp</text><text fill="#000000" font-family="sans-serif" font-size="10" lengthAdjust="spacingAndGlyphs" textLength="105" x="190.75" y="136.1563">it.tidalwave.image.op</text><line style="stroke: #A80036; stroke-width: 1.5;" x1="8" x2="446" y1="143.2656" y2="143.2656"/><ellipse cx="18" cy="154.2656" fill="#84BE84" rx="3" ry="3" style="stroke: #038048; stroke-width: 1.0;"/><text fill="#000000" font-family="sans-serif" font-size="11" lengthAdjust="spacingAndGlyphs" textLength="414" x="27" y="157.9004">PaintOp(Graphics2D, int, int, int, int, Quality, PreviewSettings, ImageObserver)</text><ellipse cx="18" cy="167.2207" fill="#84BE84" rx="3" ry="3" style="stroke: #038048; stroke-width: 1.0;"/><text fill="#000000" font-family="sans-serif" font-size="11" lengthAdjust="spacingAndGlyphs" textLength="370" x="27" y="170.8555">PaintOp(Graphics2D, int, int, int, int, PreviewSettings, ImageObserver)</text><ellipse cx="18" cy="180.1758" fill="#84BE84" rx="3" ry="3" style="stroke: #038048; stroke-width: 1.0;"/><text fill="#000000" font-family="sans-serif" font-size="11" lengthAdjust="spacingAndGlyphs" textLength="330" x="27" y="183.8105">PaintOp(Graphics2D, int, int, PreviewSettings, ImageObserver)</text><ellipse cx="18" cy="193.1309" fill="#84BE84" rx="3" ry="3" style="stroke: #038048; stroke-width: 1.0;"/><text fill="#000000" font-family="sans-serif" font-size="11" lengthAdjust="spacingAndGlyphs" textLength="242" x="27" y="196.7656">PaintOp(Graphics2D, int, int, PreviewSettings)</text><ellipse cx="18" cy="206.0859" fill="#84BE84" rx="3" ry="3" style="stroke: #038048; stroke-width: 1.0;"/><text fill="#000000" font-family="sans-serif" font-size="11" lengthAdjust="spacingAndGlyphs" textLength="235" x="27" y="209.7207">PaintOp(Graphics2D, Point, PreviewSettings)</text><ellipse cx="18" cy="219.041" fill="#84BE84" rx="3" ry="3" style="stroke: #038048; stroke-width: 1.0;"/><text fill="#000000" font-family="sans-serif" font-size="11" lengthAdjust="spacingAndGlyphs" textLength="153" x="27" y="222.6758">PaintOp(Graphics2D, int, int)</text><ellipse cx="18" cy="231.9961" fill="#84BE84" rx="3" ry="3" style="stroke: #038048; stroke-width: 1.0;"/><text fill="#000000" font-family="sans-serif" font-size="11" lengthAdjust="spacingAndGlyphs" textLength="146" x="27" y="235.6309">PaintOp(Graphics2D, Point)</text><ellipse cx="18" cy="244.9512" fill="#84BE84" rx="3" ry="3" style="stroke: #038048; stroke-width: 1.0;"/><text fill="#000000" font-family="sans-serif" font-size="11" lengthAdjust="spacingAndGlyphs" textLength="52" x="27" y="248.5859">getX(): int</text><ellipse cx="18" cy="257.9063" fill="#84BE84" rx="3" ry="3" style="stroke: #038048; stroke-width: 1.0;"/><text fill="#000000" font-family="sans-serif" font-size="11" lengthAdjust="spacingAndGlyphs" textLength="52" x="27" y="261.541">getY(): int</text><ellipse cx="18" cy="270.8613" fill="#84BE84" rx="3" ry="3" style="stroke: #038048; stroke-width: 1.0;"/><text fill="#000000" font-family="sans-serif" font-size="11" lengthAdjust="spacingAndGlyphs" textLength="54" x="27" y="274.4961">getW(): int</text><ellipse cx="18" cy="283.8164" fill="#84BE84" rx="3" ry="3" style="stroke: #038048; stroke-width: 1.0;"/><text fill="#000000" font-family="sans-serif" font-size="11" lengthAdjust="spacingAndGlyphs" textLength="53" x="27" y="287.4512">getH(): int</text><ellipse cx="18" cy="296.7715" fill="#84BE84" rx="3" ry="3" style="stroke: #038048; stroke-width: 1.0;"/><text fill="#000000" font-family="sans-serif" font-size="11" lengthAdjust="spacingAndGlyphs" textLength="157" x="27" y="300.4063">getGraphics2D(): Graphics2D</text><ellipse cx="18" cy="309.7266" fill="#84BE84" rx="3" ry="3" style="stroke: #038048; stroke-width: 1.0;"/><text fill="#000000" font-family="sans-serif" font-size="11" lengthAdjust="spacingAndGlyphs" textLength="107" x="27" y="313.3613">getQuality(): Quality</text><ellipse cx="18" cy="322.6816" fill="#84BE84" rx="3" ry="3" style="stroke: #038048; stroke-width: 1.0;"/><text fill="#000000" font-family="sans-serif" font-size="11" lengthAdjust="spacingAndGlyphs" textLength="197" x="27" y="326.3164">getPreviewSettings(): PreviewSettings</text><ellipse cx="18" cy="335.6367" fill="#84BE84" rx="3" ry="3" style="stroke: #038048; stroke-width: 1.0;"/><text fill="#000000" font-family="sans-serif" font-size="11" lengthAdjust="spacingAndGlyphs" textLength="195" x="27" y="339.2715">getImageObserver(): ImageObserver</text></a><!--MD5=[38d98585b86eb6b7711a62ae1ef153dd]
class it.tidalwave.image.op.Operation--><a href="Operation.html" target="_top" title="Operation.html" xlink:actuate="onRequest" xlink:href="Operation.html" xlink:show="new" xlink:title="Operation.html" xlink:type="simple"><rect codeLine="23" fill="#FEFECE" filter="url(#f179im6fqibswc)" height="38.2656" id="it.tidalwave.image.op.Operation" style="stroke: #A80036; stroke-width: 1.5;" width="137" x="158.5" y="7"/><ellipse cx="173.5" cy="26.1328" fill="#A9DCDF" rx="11" ry="11" style="stroke: #A80036; stroke-width: 1.0;"/><path d="M173.3633,21.481 L172.2095,26.5527 L174.5254,26.5527 Z M171.8691,19.2397 L174.8657,19.2397 L178.2109,31.6328 L175.7622,31.6328 L174.9985,28.5698 L171.7197,28.5698 L170.9727,31.6328 L168.5239,31.6328 Z "/><text fill="#000000" font-family="sans-serif" font-size="14" font-style="italic" lengthAdjust="spacingAndGlyphs" textLength="69" x="205.5" y="25.5352">Operation</text><text fill="#000000" font-family="sans-serif" font-size="10" font-style="italic" lengthAdjust="spacingAndGlyphs" textLength="105" x="187.5" y="38.1563">it.tidalwave.image.op</text></a><!--MD5=[f9ee132f8ec2245065dd1464ba59a90c]
reverse link it.tidalwave.image.op.Operation to it.tidalwave.image.op.PaintOp--><path codeLine="25" d="M227,65.2692 C227,77.0736 227,90.6932 227,104.9036 " fill="none" id="it.tidalwave.image.op.Operation-backto-it.tidalwave.image.op.PaintOp" style="stroke: #A80036; stroke-width: 1.0;"/><polygon fill="none" points="220.0001,65.1289,227,45.1289,234.0001,65.1289,220.0001,65.1289" style="stroke: #A80036; stroke-width: 1.0;"/><text fill="#888888" font-family="sans-serif" font-size="10" lengthAdjust="spacingAndGlyphs" textLength="188" x="130" y="368.2598">UMLDoclet 2.0.12, PlantUML 1.2020.16</text><!--MD5=[e626eb0ac4c7e849d6cefe1785a121eb]
@startuml
    set namespaceSeparator none
    hide empty fields
    hide empty methods

    class "<size:14>PaintOp\n<size:10>it.tidalwave.image.op" as it.tidalwave.image.op.PaintOp [[PaintOp.html]] {
        +PaintOp(Graphics2D, int, int, int, int, Quality, PreviewSettings, ImageObserver)
        +PaintOp(Graphics2D, int, int, int, int, PreviewSettings, ImageObserver)
        +PaintOp(Graphics2D, int, int, PreviewSettings, ImageObserver)
        +PaintOp(Graphics2D, int, int, PreviewSettings)
        +PaintOp(Graphics2D, Point, PreviewSettings)
        +PaintOp(Graphics2D, int, int)
        +PaintOp(Graphics2D, Point)
        +getX(): int
        +getY(): int
        +getW(): int
        +getH(): int
        +getGraphics2D(): Graphics2D
        +getQuality(): Quality
        +getPreviewSettings(): PreviewSettings
        +getImageObserver(): ImageObserver
    }

    abstract class "<size:14>Operation\n<size:10>it.tidalwave.image.op" as it.tidalwave.image.op.Operation [[Operation.html]]

    it.tidalwave.image.op.Operation <|- - it.tidalwave.image.op.PaintOp

    center footer UMLDoclet 2.0.12, PlantUML 1.2020.16
@enduml

PlantUML version 1.2020.16(Sun Aug 23 22:20:43 CEST 2020)
(APACHE source distribution)
Java Runtime: OpenJDK Runtime Environment
JVM: OpenJDK 64-Bit Server VM
Default Encoding: UTF-8
Language: en
Country: GB
--></g></svg>