<?xml version="1.0" encoding="UTF-8" standalone="no"?><svg xmlns="http://www.w3.org/2000/svg" xmlns:xlink="http://www.w3.org/1999/xlink" contentScriptType="application/ecmascript" contentStyleType="text/css" height="286px" preserveAspectRatio="none" style="width:367px;height:286px;" version="1.1" viewBox="0 0 367 286" width="367px" zoomAndPan="magnify"><defs><filter height="300%" id="fwfawzmzurc6t" width="300%" x="-1" y="-1"><feGaussianBlur result="blurOut" stdDeviation="2.0"/><feColorMatrix in="blurOut" result="blurOut2" type="matrix" values="0 0 0 0 0 0 0 0 0 0 0 0 0 0 0 0 0 0 .4 0"/><feOffset dx="4.0" dy="4.0" in="blurOut2" result="blurOut3"/><feBlend in="SourceGraphic" in2="blurOut3" mode="normal"/></filter></defs><g><!--MD5=[d11beaaf1467b21e3ddd81b2d636df52]
class it.tidalwave.role.spi.SystemRoleFactorySupport--><a href="SystemRoleFactorySupport.html" target="_top" title="SystemRoleFactorySupport.html" xlink:actuate="onRequest" xlink:href="SystemRoleFactorySupport.html" xlink:show="new" xlink:title="SystemRoleFactorySupport.html" xlink:type="simple"><rect codeLine="5" fill="#FEFECE" filter="url(#fwfawzmzurc6t)" height="123.9961" id="it.tidalwave.role.spi.SystemRoleFactorySupport" style="stroke: #A80036; stroke-width: 1.5;" width="339" x="9" y="126"/><ellipse cx="82.75" cy="145.1328" fill="#A9DCDF" rx="11" ry="11" style="stroke: #A80036; stroke-width: 1.0;"/><path d="M82.6133,140.481 L81.4595,145.5527 L83.7754,145.5527 Z M81.1191,138.2397 L84.1157,138.2397 L87.4609,150.6328 L85.0122,150.6328 L84.2485,147.5698 L80.9697,147.5698 L80.2227,150.6328 L77.7739,150.6328 Z "/><text fill="#000000" font-family="sans-serif" font-size="14" font-style="italic" lengthAdjust="spacingAndGlyphs" textLength="183" x="103.25" y="144.5352">SystemRoleFactorySupport</text><text fill="#000000" font-family="sans-serif" font-size="10" font-style="italic" lengthAdjust="spacingAndGlyphs" textLength="96" x="146.75" y="157.1563">it.tidalwave.role.spi</text><line style="stroke: #A80036; stroke-width: 1.5;" x1="10" x2="347" y1="164.2656" y2="164.2656"/><ellipse cx="20" cy="175.2656" fill="#84BE84" rx="3" ry="3" style="stroke: #038048; stroke-width: 1.0;"/><text fill="#000000" font-family="sans-serif" font-size="11" lengthAdjust="spacingAndGlyphs" textLength="257" x="29" y="178.9004">findRoles(Object, Class&lt;? extends T&gt;): List&lt;T&gt;</text><polygon fill="#FFFF44" points="20,183.2207,24,187.2207,20,191.2207,16,187.2207" style="stroke: #B38D22; stroke-width: 1.0;"/><text fill="#000000" font-family="sans-serif" font-size="11" lengthAdjust="spacingAndGlyphs" textLength="186" x="29" y="191.8555">scan(Collection&lt;Class&lt;?&gt;&gt;): void</text><polygon fill="#FFFF44" points="20,196.1758,24,200.1758,20,204.1758,16,200.1758" style="stroke: #B38D22; stroke-width: 1.0;"/><text fill="#000000" font-family="sans-serif" font-size="11" lengthAdjust="spacingAndGlyphs" textLength="181" x="29" y="204.8105">getBean(Class&lt;T&gt;): Optional&lt;T&gt;</text><polygon fill="#FFFF44" points="20,209.1309,24,213.1309,20,217.1309,16,213.1309" style="stroke: #B38D22; stroke-width: 1.0;"/><text fill="#000000" font-family="sans-serif" font-size="11" lengthAdjust="spacingAndGlyphs" textLength="313" x="29" y="217.7656">findContextTypeForRole(Class&lt;?&gt;): Optional&lt;Class&lt;?&gt;&gt;</text><polygon fill="#FFFF44" points="20,222.0859,24,226.0859,20,230.0859,16,226.0859" style="stroke: #B38D22; stroke-width: 1.0;"/><text fill="#000000" font-family="sans-serif" font-size="11" lengthAdjust="spacingAndGlyphs" textLength="255" x="29" y="230.7207">findDatumTypesForRole(Class&lt;?&gt;): Class&lt;?&gt;[]</text><ellipse cx="20" cy="240.041" fill="#84BE84" rx="3" ry="3" style="stroke: #038048; stroke-width: 1.0;"/><text fill="#000000" font-family="sans-serif" font-size="11" lengthAdjust="spacingAndGlyphs" textLength="83" x="29" y="243.6758">logRoles(): void</text></a><!--MD5=[9a44e33e67d5ed1ae026c9139a03e4c2]
class it.tidalwave.role.spi.SystemRoleFactory--><a href="SystemRoleFactory.html" target="_top" title="SystemRoleFactory.html" xlink:actuate="onRequest" xlink:href="SystemRoleFactory.html" xlink:show="new" xlink:title="SystemRoleFactory.html" xlink:type="simple"><rect codeLine="14" fill="#FEFECE" filter="url(#fwfawzmzurc6t)" height="59.2207" id="it.tidalwave.role.spi.SystemRoleFactory" style="stroke: #A80036; stroke-width: 1.5;" width="283" x="37" y="7"/><ellipse cx="110.25" cy="26.1328" fill="#B4A7E5" rx="11" ry="11" style="stroke: #A80036; stroke-width: 1.0;"/><path d="M106.6777,22.3979 L106.6777,20.2397 L114.0571,20.2397 L114.0571,22.3979 L111.5918,22.3979 L111.5918,30.4746 L114.0571,30.4746 L114.0571,32.6328 L106.6777,32.6328 L106.6777,30.4746 L109.1431,30.4746 L109.1431,22.3979 Z "/><text fill="#000000" font-family="sans-serif" font-size="14" font-style="italic" lengthAdjust="spacingAndGlyphs" textLength="128" x="130.75" y="25.5352">SystemRoleFactory</text><text fill="#000000" font-family="sans-serif" font-size="10" font-style="italic" lengthAdjust="spacingAndGlyphs" textLength="96" x="146.75" y="38.1563">it.tidalwave.role.spi</text><line style="stroke: #A80036; stroke-width: 1.5;" x1="38" x2="319" y1="45.2656" y2="45.2656"/><ellipse cx="48" cy="56.2656" fill="#84BE84" rx="3" ry="3" style="stroke: #038048; stroke-width: 1.0;"/><text fill="#000000" font-family="sans-serif" font-size="11" font-style="italic" lengthAdjust="spacingAndGlyphs" textLength="257" x="57" y="59.9004">findRoles(Object, Class&lt;? extends T&gt;): List&lt;T&gt;</text></a><!--MD5=[056a49a9969e9190adebcaaf6d929d0e]
reverse link it.tidalwave.role.spi.SystemRoleFactory to it.tidalwave.role.spi.SystemRoleFactorySupport--><path codeLine="18" d="M178.5,86.1087 C178.5,98.8216 178.5,112.6542 178.5,125.9096 " fill="none" id="it.tidalwave.role.spi.SystemRoleFactory-backto-it.tidalwave.role.spi.SystemRoleFactorySupport" style="stroke: #A80036; stroke-width: 1.0; stroke-dasharray: 7.0,7.0;"/><polygon fill="none" points="171.5001,86.0704,178.5,66.0704,185.5001,86.0703,171.5001,86.0704" style="stroke: #A80036; stroke-width: 1.0;"/><text fill="#888888" font-family="sans-serif" font-size="10" lengthAdjust="spacingAndGlyphs" textLength="188" x="80.5" y="272.6641">UMLDoclet 2.0.12, PlantUML 1.2020.16</text><!--MD5=[bc911253a19a5e0592fb30a55f8a974f]
@startuml
    set namespaceSeparator none
    hide empty fields
    hide empty methods

    abstract class "<size:14>SystemRoleFactorySupport\n<size:10>it.tidalwave.role.spi" as it.tidalwave.role.spi.SystemRoleFactorySupport [[SystemRoleFactorySupport.html]] {
        +findRoles(Object, Class<? extends T>): List<T>
        #scan(Collection<Class<?>>): void
        #getBean(Class<T>): Optional<T>
        #findContextTypeForRole(Class<?>): Optional<Class<?>>
        #findDatumTypesForRole(Class<?>): Class<?>[]
        +logRoles(): void
    }

    interface "<size:14>SystemRoleFactory\n<size:10>it.tidalwave.role.spi" as it.tidalwave.role.spi.SystemRoleFactory [[SystemRoleFactory.html]] {
        {abstract} +findRoles(Object, Class<? extends T>): List<T>
    }

    it.tidalwave.role.spi.SystemRoleFactory <|.. it.tidalwave.role.spi.SystemRoleFactorySupport

    center footer UMLDoclet 2.0.12, PlantUML 1.2020.16
@enduml

PlantUML version 1.2020.16(Sun Aug 23 22:20:43 CEST 2020)
(APACHE source distribution)
Java Runtime: OpenJDK Runtime Environment
JVM: OpenJDK 64-Bit Server VM
Default Encoding: UTF-8
Language: en
Country: GB
--></g></svg>