<?xml version="1.0" encoding="UTF-8" standalone="no"?><svg xmlns="http://www.w3.org/2000/svg" xmlns:xlink="http://www.w3.org/1999/xlink" contentScriptType="application/ecmascript" contentStyleType="text/css" height="151px" preserveAspectRatio="none" style="width:2278px;height:151px;" version="1.1" viewBox="0 0 2278 151" width="2278px" zoomAndPan="magnify"><defs><filter height="300%" id="f1amyiv39raryn" width="300%" x="-1" y="-1"><feGaussianBlur result="blurOut" stdDeviation="2.0"/><feColorMatrix in="blurOut" result="blurOut2" type="matrix" values="0 0 0 0 0 0 0 0 0 0 0 0 0 0 0 0 0 0 .4 0"/><feOffset dx="4.0" dy="4.0" in="blurOut2" result="blurOut3"/><feBlend in="SourceGraphic" in2="blurOut3" mode="normal"/></filter></defs><g><!--MD5=[3124d29f986741389b01b2ff8b9a4d59]
class it.tidalwave.northernwind.frontend.ui.component.calendar--><a href="it/tidalwave/northernwind/frontend/ui/component/calendar/package-summary.html" target="_top" title="it/tidalwave/northernwind/frontend/ui/component/calendar/package-summary.html" xlink:actuate="onRequest" xlink:href="it/tidalwave/northernwind/frontend/ui/component/calendar/package-summary.html" xlink:show="new" xlink:title="it/tidalwave/northernwind/frontend/ui/component/calendar/package-summary.html" xlink:type="simple"><rect codeLine="44" fill="#FEFECE" filter="url(#f1amyiv39raryn)" height="24.1328" id="it.tidalwave.northernwind.frontend.ui.component.calendar" style="stroke: #A80036; stroke-width: 1.5;" width="340" x="17.5" y="7"/><text fill="#000000" font-family="sans-serif" font-size="12" lengthAdjust="spacingAndGlyphs" textLength="334" x="20.5" y="23.6016">it.tidalwave.northernwind.frontend.ui.component.calendar</text></a><!--MD5=[b38b3a8d6b00b78b55a3da79514951c5]
class org.slf4j--><rect fill="#FEFECE" filter="url(#f1amyiv39raryn)" height="24.1328" id="org.slf4j" style="stroke: #A80036; stroke-width: 1.5;" width="54" x="1271.5" y="91"/><text fill="#000000" font-family="sans-serif" font-size="12" lengthAdjust="spacingAndGlyphs" textLength="48" x="1274.5" y="107.6016">org.slf4j</text><!--MD5=[0b3d1e905dead88dbdf65fd1cda455e2]
class it.tidalwave.northernwind.core.model--><a href="http://tidalwave.tidalwave.it/northernwind/it-tidalwave-northernwind-modules/it-tidalwave-northernwind-core/apidocs/it/tidalwave/northernwind/core/model/package-summary.html?is-external=true" target="_top" title="http://tidalwave.tidalwave.it/northernwind/it-tidalwave-northernwind-modules/it-tidalwave-northernwind-core/apidocs/it/tidalwave/northernwind/core/model/package-summary.html?is-external=true" xlink:actuate="onRequest" xlink:href="http://tidalwave.tidalwave.it/northernwind/it-tidalwave-northernwind-modules/it-tidalwave-northernwind-core/apidocs/it/tidalwave/northernwind/core/model/package-summary.html?is-external=true" xlink:show="new" xlink:title="http://tidalwave.tidalwave.it/northernwind/it-tidalwave-northernwind-modules/it-tidalwave-northernwind-core/apidocs/it/tidalwave/northernwind/core/model/package-summary.html?is-external=true" xlink:type="simple"><rect codeLine="46" fill="#FEFECE" filter="url(#f1amyiv39raryn)" height="24.1328" id="it.tidalwave.northernwind.core.model" style="stroke: #A80036; stroke-width: 1.5;" width="220" x="1360.5" y="91"/><text fill="#000000" font-family="sans-serif" font-size="12" lengthAdjust="spacingAndGlyphs" textLength="214" x="1363.5" y="107.6016">it.tidalwave.northernwind.core.model</text></a><!--MD5=[358bf1ad3b41adbcdceacb8fb769b9fb]
class it.tidalwave.northernwind.frontend.ui.component.calendar.spi--><a href="../apidocs/it/tidalwave/northernwind/frontend/ui/component/calendar/spi/package-summary.html" target="_top" title="../apidocs/it/tidalwave/northernwind/frontend/ui/component/calendar/spi/package-summary.html" xlink:actuate="onRequest" xlink:href="../apidocs/it/tidalwave/northernwind/frontend/ui/component/calendar/spi/package-summary.html" xlink:show="new" xlink:title="../apidocs/it/tidalwave/northernwind/frontend/ui/component/calendar/spi/package-summary.html" xlink:type="simple"><rect codeLine="48" fill="#FEFECE" filter="url(#f1amyiv39raryn)" height="24.1328" id="it.tidalwave.northernwind.frontend.ui.component.calendar.spi" style="stroke: #A80036; stroke-width: 1.5;" width="361" x="7" y="91"/><text fill="#000000" font-family="sans-serif" font-size="12" lengthAdjust="spacingAndGlyphs" textLength="355" x="10" y="107.6016">it.tidalwave.northernwind.frontend.ui.component.calendar.spi</text></a><!--MD5=[e2825e41240dc3ac7b156e1d527e9be0]
class it.tidalwave.util--><rect fill="#FEFECE" filter="url(#f1amyiv39raryn)" height="24.1328" id="it.tidalwave.util" style="stroke: #A80036; stroke-width: 1.5;" width="92" x="758.5" y="91"/><text fill="#000000" font-family="sans-serif" font-size="12" lengthAdjust="spacingAndGlyphs" textLength="86" x="761.5" y="107.6016">it.tidalwave.util</text><!--MD5=[bc5f19b0d2427a2b497e0877cefcb2cc]
class it.tidalwave.northernwind.frontend.ui--><rect fill="#FEFECE" filter="url(#f1amyiv39raryn)" height="24.1328" id="it.tidalwave.northernwind.frontend.ui" style="stroke: #A80036; stroke-width: 1.5;" width="218" x="885.5" y="91"/><text fill="#000000" font-family="sans-serif" font-size="12" lengthAdjust="spacingAndGlyphs" textLength="212" x="888.5" y="107.6016">it.tidalwave.northernwind.frontend.ui</text><!--MD5=[d3b44b914aa2370fe6d684de0096bcf1]
class it.tidalwave.role--><rect fill="#FEFECE" filter="url(#f1amyiv39raryn)" height="24.1328" id="it.tidalwave.role" style="stroke: #A80036; stroke-width: 1.5;" width="97" x="1139" y="91"/><text fill="#000000" font-family="sans-serif" font-size="12" lengthAdjust="spacingAndGlyphs" textLength="91" x="1142" y="107.6016">it.tidalwave.role</text><!--MD5=[91148353968ef841bccf04cac47f32aa]
class it.tidalwave.northernwind.util.test--><a href="http://tidalwave.tidalwave.it/northernwind/it-tidalwave-northernwind-modules/it-tidalwave-northernwind-core-default/apidocs/it/tidalwave/northernwind/util/test/package-summary.html?is-external=true" target="_top" title="http://tidalwave.tidalwave.it/northernwind/it-tidalwave-northernwind-modules/it-tidalwave-northernwind-core-default/apidocs/it/tidalwave/northernwind/util/test/package-summary.html?is-external=true" xlink:actuate="onRequest" xlink:href="http://tidalwave.tidalwave.it/northernwind/it-tidalwave-northernwind-modules/it-tidalwave-northernwind-core-default/apidocs/it/tidalwave/northernwind/util/test/package-summary.html?is-external=true" xlink:show="new" xlink:title="http://tidalwave.tidalwave.it/northernwind/it-tidalwave-northernwind-modules/it-tidalwave-northernwind-core-default/apidocs/it/tidalwave/northernwind/util/test/package-summary.html?is-external=true" xlink:type="simple"><rect codeLine="50" fill="#FEFECE" filter="url(#f1amyiv39raryn)" height="24.1328" id="it.tidalwave.northernwind.util.test" style="stroke: #A80036; stroke-width: 1.5;" width="197" x="462" y="91"/><text fill="#000000" font-family="sans-serif" font-size="12" lengthAdjust="spacingAndGlyphs" textLength="191" x="465" y="107.6016">it.tidalwave.northernwind.util.test</text></a><!--MD5=[c92b495dd9e088891c6d91bd670d9ac8]
class it.tidalwave.northernwind.frontend.ui.component.nodecontainer--><a href="it/tidalwave/northernwind/frontend/ui/component/nodecontainer/package-summary.html" target="_top" title="it/tidalwave/northernwind/frontend/ui/component/nodecontainer/package-summary.html" xlink:actuate="onRequest" xlink:href="it/tidalwave/northernwind/frontend/ui/component/nodecontainer/package-summary.html" xlink:show="new" xlink:title="it/tidalwave/northernwind/frontend/ui/component/nodecontainer/package-summary.html" xlink:type="simple"><rect codeLine="52" fill="#FEFECE" filter="url(#f1amyiv39raryn)" height="24.1328" id="it.tidalwave.northernwind.frontend.ui.component.nodecontainer" style="stroke: #A80036; stroke-width: 1.5;" width="372" x="1536.5" y="7"/><text fill="#000000" font-family="sans-serif" font-size="12" lengthAdjust="spacingAndGlyphs" textLength="366" x="1539.5" y="23.6016">it.tidalwave.northernwind.frontend.ui.component.nodecontainer</text></a><!--MD5=[40834590ad823b7924614afa728a2ea5]
class org.mockito.stubbing--><rect fill="#FEFECE" filter="url(#f1amyiv39raryn)" height="24.1328" id="org.mockito.stubbing" style="stroke: #A80036; stroke-width: 1.5;" width="128" x="1658.5" y="91"/><text fill="#000000" font-family="sans-serif" font-size="12" lengthAdjust="spacingAndGlyphs" textLength="122" x="1661.5" y="107.6016">org.mockito.stubbing</text><!--MD5=[c729b051195a0b029cc0c9f7b6e87181]
class it.tidalwave.northernwind.frontend.ui.component.htmltextwithtitle--><a href="it/tidalwave/northernwind/frontend/ui/component/htmltextwithtitle/package-summary.html" target="_top" title="it/tidalwave/northernwind/frontend/ui/component/htmltextwithtitle/package-summary.html" xlink:actuate="onRequest" xlink:href="it/tidalwave/northernwind/frontend/ui/component/htmltextwithtitle/package-summary.html" xlink:show="new" xlink:title="it/tidalwave/northernwind/frontend/ui/component/htmltextwithtitle/package-summary.html" xlink:type="simple"><rect codeLine="54" fill="#FEFECE" filter="url(#f1amyiv39raryn)" height="24.1328" id="it.tidalwave.northernwind.frontend.ui.component.htmltextwithtitle" style="stroke: #A80036; stroke-width: 1.5;" width="381" x="763" y="7"/><text fill="#000000" font-family="sans-serif" font-size="12" lengthAdjust="spacingAndGlyphs" textLength="375" x="766" y="23.6016">it.tidalwave.northernwind.frontend.ui.component.htmltextwithtitle</text></a><!--MD5=[82ac8f4d661e18f3be5980aadbc6ca8b]
class it.tidalwave.northernwind.frontend.ui.component.sitemap--><a href="it/tidalwave/northernwind/frontend/ui/component/sitemap/package-summary.html" target="_top" title="it/tidalwave/northernwind/frontend/ui/component/sitemap/package-summary.html" xlink:actuate="onRequest" xlink:href="it/tidalwave/northernwind/frontend/ui/component/sitemap/package-summary.html" xlink:show="new" xlink:title="it/tidalwave/northernwind/frontend/ui/component/sitemap/package-summary.html" xlink:type="simple"><rect codeLine="56" fill="#FEFECE" filter="url(#f1amyiv39raryn)" height="24.1328" id="it.tidalwave.northernwind.frontend.ui.component.sitemap" style="stroke: #A80036; stroke-width: 1.5;" width="336" x="392.5" y="7"/><text fill="#000000" font-family="sans-serif" font-size="12" lengthAdjust="spacingAndGlyphs" textLength="330" x="395.5" y="23.6016">it.tidalwave.northernwind.frontend.ui.component.sitemap</text></a><!--MD5=[7e0ee81f82b76c069ae7a2afeaf55405]
class it.tidalwave.northernwind.frontend.ui.component.blog--><a href="it/tidalwave/northernwind/frontend/ui/component/blog/package-summary.html" target="_top" title="it/tidalwave/northernwind/frontend/ui/component/blog/package-summary.html" xlink:actuate="onRequest" xlink:href="it/tidalwave/northernwind/frontend/ui/component/blog/package-summary.html" xlink:show="new" xlink:title="it/tidalwave/northernwind/frontend/ui/component/blog/package-summary.html" xlink:type="simple"><rect codeLine="58" fill="#FEFECE" filter="url(#f1amyiv39raryn)" height="24.1328" id="it.tidalwave.northernwind.frontend.ui.component.blog" style="stroke: #A80036; stroke-width: 1.5;" width="315" x="1944" y="7"/><text fill="#000000" font-family="sans-serif" font-size="12" lengthAdjust="spacingAndGlyphs" textLength="309" x="1947" y="23.6016">it.tidalwave.northernwind.frontend.ui.component.blog</text></a><!--MD5=[cadb40e77b29b34c4214bbbd416f90c0]
class it.tidalwave.util.spi--><rect fill="#FEFECE" filter="url(#f1amyiv39raryn)" height="24.1328" id="it.tidalwave.util.spi" style="stroke: #A80036; stroke-width: 1.5;" width="113" x="2045" y="91"/><text fill="#000000" font-family="sans-serif" font-size="12" lengthAdjust="spacingAndGlyphs" textLength="107" x="2048" y="107.6016">it.tidalwave.util.spi</text><!--MD5=[96073b2d8590f3bd65b14e4480d9ba73]
class it.tidalwave.northernwind.frontend.ui.component.menu--><a href="it/tidalwave/northernwind/frontend/ui/component/menu/package-summary.html" target="_top" title="it/tidalwave/northernwind/frontend/ui/component/menu/package-summary.html" xlink:actuate="onRequest" xlink:href="it/tidalwave/northernwind/frontend/ui/component/menu/package-summary.html" xlink:show="new" xlink:title="it/tidalwave/northernwind/frontend/ui/component/menu/package-summary.html" xlink:type="simple"><rect codeLine="60" fill="#FEFECE" filter="url(#f1amyiv39raryn)" height="24.1328" id="it.tidalwave.northernwind.frontend.ui.component.menu" style="stroke: #A80036; stroke-width: 1.5;" width="322" x="1179.5" y="7"/><text fill="#000000" font-family="sans-serif" font-size="12" lengthAdjust="spacingAndGlyphs" textLength="316" x="1182.5" y="23.6016">it.tidalwave.northernwind.frontend.ui.component.menu</text></a><!--MD5=[cc0fb3331462b5f78c9ebcad9ad03897]
link it.tidalwave.northernwind.frontend.ui.component.calendar to org.slf4j--><path codeLine="6" d="M357.7372,30.077 C653.1984,49.36 1231.7328,87.3974 1253.5,91 C1257.6281,91.6832 1261.9261,92.5806 1266.1566,93.5776 " fill="none" id="it.tidalwave.northernwind.frontend.ui.component.calendar-to-org.slf4j" style="stroke: #A80036; stroke-width: 1.0;"/><polygon fill="#A80036" points="1271.0777,94.7869,1263.2924,88.7546,1266.2222,93.5936,1261.3831,96.5234,1271.0777,94.7869" style="stroke: #A80036; stroke-width: 1.0;"/><!--MD5=[ba43dff6634b742879cf92995a2faf49]
link it.tidalwave.northernwind.frontend.ui.component.calendar to it.tidalwave.northernwind.core.model--><path codeLine="7" d="M357.7033,29.9384 C363.3694,30.2973 368.9805,30.652 374.5,31 C805.1365,58.1496 913.3213,57.3672 1343.5,91 C1347.3812,91.3034 1351.3281,91.6218 1355.3135,91.9516 " fill="none" id="it.tidalwave.northernwind.frontend.ui.component.calendar-to-it.tidalwave.northernwind.core.model" style="stroke: #A80036; stroke-width: 1.0;"/><polygon fill="#A80036" points="1360.3802,92.3751,1351.7449,87.6389,1355.3976,91.9584,1351.0781,95.6111,1360.3802,92.3751" style="stroke: #A80036; stroke-width: 1.0;"/><!--MD5=[4e9b512f7da7e0beb609550cdaef0357]
link it.tidalwave.northernwind.frontend.ui.component.calendar to it.tidalwave.northernwind.frontend.ui.component.calendar.spi--><path codeLine="8" d="M187.5,31.0352 C187.5,45.3818 187.5,69.4615 187.5,85.777 " fill="none" id="it.tidalwave.northernwind.frontend.ui.component.calendar-to-it.tidalwave.northernwind.frontend.ui.component.calendar.spi" style="stroke: #A80036; stroke-width: 1.0;"/><polygon fill="#A80036" points="187.5,90.9872,191.5,81.9872,187.5,85.9872,183.5,81.9872,187.5,90.9872" style="stroke: #A80036; stroke-width: 1.0;"/><!--MD5=[9abd1ccb34c2474e9811e35daae7d0ff]
link it.tidalwave.northernwind.frontend.ui.component.calendar to it.tidalwave.util--><path codeLine="9" d="M275.9011,31.0352 C406.8104,48.8575 648.0493,81.7004 753.225,96.0193 " fill="none" id="it.tidalwave.northernwind.frontend.ui.component.calendar-to-it.tidalwave.util" style="stroke: #A80036; stroke-width: 1.0;"/><polygon fill="#A80036" points="758.4341,96.7285,750.056,91.5508,753.4798,96.0539,748.9767,99.4777,758.4341,96.7285" style="stroke: #A80036; stroke-width: 1.0;"/><!--MD5=[ab86a93432b90069cd7e784c89b4f00d]
link it.tidalwave.northernwind.frontend.ui.component.calendar to it.tidalwave.northernwind.frontend.ui--><path codeLine="10" d="M303.1234,31.0352 C456.7822,47.0294 726.6598,75.1207 879.834,91.0645 " fill="none" id="it.tidalwave.northernwind.frontend.ui.component.calendar-to-it.tidalwave.northernwind.frontend.ui" style="stroke: #A80036; stroke-width: 1.0;"/><polygon fill="#A80036" points="885.2333,91.6265,876.696,86.7159,880.2602,91.1086,875.8674,94.6729,885.2333,91.6265" style="stroke: #A80036; stroke-width: 1.0;"/><!--MD5=[384682bbea40a71a22c7f44707e13b17]
link it.tidalwave.northernwind.frontend.ui.component.calendar to it.tidalwave.role--><path codeLine="11" d="M357.6917,30.0088 C585.7996,45.1293 978.5521,72.5447 1121.5,91 C1125.5679,91.5252 1129.7656,92.133 1133.9806,92.7907 " fill="none" id="it.tidalwave.northernwind.frontend.ui.component.calendar-to-it.tidalwave.role" style="stroke: #A80036; stroke-width: 1.0;"/><polygon fill="#A80036" points="1138.9296,93.5838,1130.676,88.2099,1133.9926,92.7925,1129.41,96.1091,1138.9296,93.5838" style="stroke: #A80036; stroke-width: 1.0;"/><!--MD5=[b7a819e574dc4c4464ced13b1275f86a]
link it.tidalwave.northernwind.frontend.ui.component.calendar to it.tidalwave.northernwind.util.test--><path codeLine="12" d="M240.9418,31.0352 C310.1872,46.6293 430.4958,73.7229 502.0882,89.8456 " fill="none" id="it.tidalwave.northernwind.frontend.ui.component.calendar-to-it.tidalwave.northernwind.util.test" style="stroke: #A80036; stroke-width: 1.0;"/><polygon fill="#A80036" points="507.1573,90.9872,499.2561,85.1075,502.2795,89.8886,497.4984,92.912,507.1573,90.9872" style="stroke: #A80036; stroke-width: 1.0;"/><!--MD5=[d2336f00d1c59b06b40db0c2ec85dc8c]
link it.tidalwave.northernwind.frontend.ui.component.nodecontainer to it.tidalwave.northernwind.frontend.ui--><path codeLine="13" d="M1618.1953,31.0352 C1481.5596,46.8008 1243.0568,74.3204 1103.9284,90.3736 " fill="none" id="it.tidalwave.northernwind.frontend.ui.component.nodecontainer-to-it.tidalwave.northernwind.frontend.ui" style="stroke: #A80036; stroke-width: 1.0;"/><polygon fill="#A80036" points="1098.6112,90.9872,1108.0104,93.9292,1103.5782,90.4141,1107.0934,85.9819,1098.6112,90.9872" style="stroke: #A80036; stroke-width: 1.0;"/><!--MD5=[ccb9cd7ffdb23ff13a30205f83a8a986]
link it.tidalwave.northernwind.frontend.ui.component.nodecontainer to it.tidalwave.util--><path codeLine="14" d="M1555.0496,31.0162 C1344.7443,46.4718 995.899,73.414 867.5,91 C863.6219,91.5312 859.6207,92.1428 855.6036,92.8027 " fill="none" id="it.tidalwave.northernwind.frontend.ui.component.nodecontainer-to-it.tidalwave.util" style="stroke: #A80036; stroke-width: 1.0;"/><polygon fill="#A80036" points="850.5146,93.662,860.055,96.1076,855.4448,92.8294,858.7229,88.2192,850.5146,93.662" style="stroke: #A80036; stroke-width: 1.0;"/><!--MD5=[0295aca7965597f216e44571951d1dfe]
link it.tidalwave.northernwind.frontend.ui.component.nodecontainer to it.tidalwave.role--><path codeLine="15" d="M1640.3979,31.0071 C1546.873,44.8297 1389.5153,68.5268 1254.5,91 C1250.1342,91.7267 1245.6118,92.4976 1241.072,93.2842 " fill="none" id="it.tidalwave.northernwind.frontend.ui.component.nodecontainer-to-it.tidalwave.role" style="stroke: #A80036; stroke-width: 1.0;"/><polygon fill="#A80036" points="1236.1457,94.1426,1245.6988,96.5381,1241.0715,93.2842,1244.3253,88.6568,1236.1457,94.1426" style="stroke: #A80036; stroke-width: 1.0;"/><!--MD5=[bcaea3d7d4d3778c46f1bbbf44ea6317]
link it.tidalwave.northernwind.frontend.ui.component.nodecontainer to org.slf4j--><path codeLine="16" d="M1650.5765,31.0549 C1574.1028,44.2473 1449.7752,66.7691 1343.5,91 C1339.3071,91.956 1334.914,93.0327 1330.5849,94.1388 " fill="none" id="it.tidalwave.northernwind.frontend.ui.component.nodecontainer-to-org.slf4j" style="stroke: #A80036; stroke-width: 1.0;"/><polygon fill="#A80036" points="1325.5482,95.4451,1335.2642,97.0572,1330.388,94.1897,1333.2556,89.3135,1325.5482,95.4451" style="stroke: #A80036; stroke-width: 1.0;"/><!--MD5=[b84a5a7c24c114c2a624ce8a6f220406]
link it.tidalwave.northernwind.frontend.ui.component.nodecontainer to it.tidalwave.northernwind.core.model--><path codeLine="17" d="M1686.3945,31.0352 C1640.08,46.4733 1559.9534,73.1822 1511.424,89.3587 " fill="none" id="it.tidalwave.northernwind.frontend.ui.component.nodecontainer-to-it.tidalwave.northernwind.core.model" style="stroke: #A80036; stroke-width: 1.0;"/><polygon fill="#A80036" points="1506.5385,90.9872,1516.3416,91.9359,1511.2819,89.4061,1513.8117,84.3464,1506.5385,90.9872" style="stroke: #A80036; stroke-width: 1.0;"/><!--MD5=[a59188980fa2d14ef1e80ab13c154029]
link it.tidalwave.northernwind.frontend.ui.component.nodecontainer to org.mockito.stubbing--><path codeLine="18" d="M1722.5,31.0352 C1722.5,45.3818 1722.5,69.4615 1722.5,85.777 " fill="none" id="it.tidalwave.northernwind.frontend.ui.component.nodecontainer-to-org.mockito.stubbing" style="stroke: #A80036; stroke-width: 1.0;"/><polygon fill="#A80036" points="1722.5,90.9872,1726.5,81.9872,1722.5,85.9872,1718.5,81.9872,1722.5,90.9872" style="stroke: #A80036; stroke-width: 1.0;"/><!--MD5=[c044b325956707d26455fe3af21aa703]
link it.tidalwave.northernwind.frontend.ui.component.htmltextwithtitle to it.tidalwave.role--><path codeLine="19" d="M987.0265,31.0352 C1029.946,46.4422 1104.1356,73.0743 1149.2257,89.2605 " fill="none" id="it.tidalwave.northernwind.frontend.ui.component.htmltextwithtitle-to-it.tidalwave.role" style="stroke: #A80036; stroke-width: 1.0;"/><polygon fill="#A80036" points="1154.0357,90.9872,1146.9165,84.1815,1149.3298,89.2978,1144.2135,91.711,1154.0357,90.9872" style="stroke: #A80036; stroke-width: 1.0;"/><!--MD5=[559519c4bfb1858609021ecde52513e1]
link it.tidalwave.northernwind.frontend.ui.component.htmltextwithtitle to org.slf4j--><path codeLine="20" d="M1005.357,31.0295 C1065.24,45.0173 1166.6594,69.0041 1253.5,91 C1257.6688,92.0559 1262.0479,93.1911 1266.3698,94.3269 " fill="none" id="it.tidalwave.northernwind.frontend.ui.component.htmltextwithtitle-to-org.slf4j" style="stroke: #A80036; stroke-width: 1.0;"/><polygon fill="#A80036" points="1271.4011,95.656,1263.7212,89.49,1266.5669,94.379,1261.678,97.2247,1271.4011,95.656" style="stroke: #A80036; stroke-width: 1.0;"/><!--MD5=[caacf9da33993c753a6c34a767451881]
link it.tidalwave.northernwind.frontend.ui.component.htmltextwithtitle to it.tidalwave.northernwind.core.model--><path codeLine="21" d="M1027.5735,31.0352 C1124.2235,46.7384 1292.6445,74.1028 1391.6117,90.1826 " fill="none" id="it.tidalwave.northernwind.frontend.ui.component.htmltextwithtitle-to-it.tidalwave.northernwind.core.model" style="stroke: #A80036; stroke-width: 1.0;"/><polygon fill="#A80036" points="1396.5639,90.9872,1388.322,85.5954,1391.6286,90.1852,1387.0388,93.4918,1396.5639,90.9872" style="stroke: #A80036; stroke-width: 1.0;"/><!--MD5=[7e5a668e7b7691ddc9054190f3cc1e6c]
link it.tidalwave.northernwind.frontend.ui.component.htmltextwithtitle to it.tidalwave.northernwind.frontend.ui--><path codeLine="22" d="M959.3743,31.0352 C966.4377,45.5065 978.3348,69.881 986.3004,86.2009 " fill="none" id="it.tidalwave.northernwind.frontend.ui.component.htmltextwithtitle-to-it.tidalwave.northernwind.frontend.ui" style="stroke: #A80036; stroke-width: 1.0;"/><polygon fill="#A80036" points="988.6366,90.9872,988.2833,81.1447,986.4433,86.4939,981.0941,84.6539,988.6366,90.9872" style="stroke: #A80036; stroke-width: 1.0;"/><!--MD5=[01849179d0fa31f4707d24a1e6218bd4]
link it.tidalwave.northernwind.frontend.ui.component.htmltextwithtitle to it.tidalwave.util--><path codeLine="23" d="M932.1519,31.0352 C905.2654,46.1926 859.1073,72.2147 830.2806,88.466 " fill="none" id="it.tidalwave.northernwind.frontend.ui.component.htmltextwithtitle-to-it.tidalwave.util" style="stroke: #A80036; stroke-width: 1.0;"/><polygon fill="#A80036" points="825.8085,90.9872,835.6128,90.0519,830.1641,88.5318,831.6842,83.083,825.8085,90.9872" style="stroke: #A80036; stroke-width: 1.0;"/><!--MD5=[e02dd6912ba57191d77f796cedb88633]
link it.tidalwave.northernwind.frontend.ui.component.htmltextwithtitle to it.tidalwave.northernwind.util.test--><path codeLine="24" d="M897.1927,31.0352 C824.2344,46.6293 697.4749,73.7229 622.0438,89.8456 " fill="none" id="it.tidalwave.northernwind.frontend.ui.component.htmltextwithtitle-to-it.tidalwave.northernwind.util.test" style="stroke: #A80036; stroke-width: 1.0;"/><polygon fill="#A80036" points="616.7029,90.9872,626.3402,93.0176,621.5924,89.9421,624.668,85.1943,616.7029,90.9872" style="stroke: #A80036; stroke-width: 1.0;"/><!--MD5=[93a409d21413a682e73440402d882670]
link it.tidalwave.northernwind.frontend.ui.component.sitemap to org.slf4j--><path codeLine="25" d="M701.5826,31.0195 C872.7226,46.062 1151.0449,72.1378 1253.5,91 C1257.6151,91.7576 1261.9053,92.6993 1266.1318,93.7196 " fill="none" id="it.tidalwave.northernwind.frontend.ui.component.sitemap-to-org.slf4j" style="stroke: #A80036; stroke-width: 1.0;"/><polygon fill="#A80036" points="1271.0496,94.9473,1263.2865,88.8864,1266.1985,93.7362,1261.3487,96.6481,1271.0496,94.9473" style="stroke: #A80036; stroke-width: 1.0;"/><!--MD5=[bebde7ce124fc3dae29bc862bfb4e483]
link it.tidalwave.northernwind.frontend.ui.component.sitemap to it.tidalwave.northernwind.core.model--><path codeLine="26" d="M692.1224,31.0015 C847.7177,45.2125 1114.472,69.6498 1343.5,91 C1347.3762,91.3613 1351.3188,91.7296 1355.3006,92.1022 " fill="none" id="it.tidalwave.northernwind.frontend.ui.component.sitemap-to-it.tidalwave.northernwind.core.model" style="stroke: #A80036; stroke-width: 1.0;"/><polygon fill="#A80036" points="1360.3629,92.5763,1351.7751,87.7544,1355.3847,92.11,1351.0291,95.7196,1360.3629,92.5763" style="stroke: #A80036; stroke-width: 1.0;"/><!--MD5=[1201877bbe56fc4fc0d76aa6b90fa19b]
link it.tidalwave.northernwind.frontend.ui.component.sitemap to it.tidalwave.northernwind.frontend.ui--><path codeLine="27" d="M622.6816,31.0352 C703.4124,46.6605 843.7952,73.8313 927.0348,89.9422 " fill="none" id="it.tidalwave.northernwind.frontend.ui.component.sitemap-to-it.tidalwave.northernwind.frontend.ui" style="stroke: #A80036; stroke-width: 1.0;"/><polygon fill="#A80036" points="932.4337,90.9872,924.3578,85.3498,927.5248,90.0371,922.8376,93.204,932.4337,90.9872" style="stroke: #A80036; stroke-width: 1.0;"/><!--MD5=[13ce8b13ee1ddf5476017a1a507351de]
link it.tidalwave.northernwind.frontend.ui.component.sitemap to it.tidalwave.role--><path codeLine="28" d="M667.2376,31.0185 C780.2744,44.139 963.8159,66.5634 1121.5,91 C1125.5533,91.6281 1129.7404,92.3106 1133.9479,93.0205 " fill="none" id="it.tidalwave.northernwind.frontend.ui.component.sitemap-to-it.tidalwave.role" style="stroke: #A80036; stroke-width: 1.0;"/><polygon fill="#A80036" points="1138.8897,93.8648,1130.692,88.4061,1133.9611,93.0227,1129.3446,96.2918,1138.8897,93.8648" style="stroke: #A80036; stroke-width: 1.0;"/><!--MD5=[fc5fe087cf9b1a4bca2edb569686aa18]
link it.tidalwave.northernwind.frontend.ui.component.sitemap to it.tidalwave.util--><path codeLine="29" d="M595.4593,31.0352 C640.3035,46.4733 717.8864,73.1822 764.8752,89.3587 " fill="none" id="it.tidalwave.northernwind.frontend.ui.component.sitemap-to-it.tidalwave.util" style="stroke: #A80036; stroke-width: 1.0;"/><polygon fill="#A80036" points="769.6056,90.9872,762.398,84.2752,764.878,89.3595,759.7937,91.8395,769.6056,90.9872" style="stroke: #A80036; stroke-width: 1.0;"/><!--MD5=[6b1028718001a7a24b8297b322e48208]
link it.tidalwave.northernwind.frontend.ui.component.sitemap to it.tidalwave.northernwind.util.test--><path codeLine="30" d="M560.5,31.0352 C560.5,45.3818 560.5,69.4615 560.5,85.777 " fill="none" id="it.tidalwave.northernwind.frontend.ui.component.sitemap-to-it.tidalwave.northernwind.util.test" style="stroke: #A80036; stroke-width: 1.0;"/><polygon fill="#A80036" points="560.5,90.9872,564.5,81.9872,560.5,85.9872,556.5,81.9872,560.5,90.9872" style="stroke: #A80036; stroke-width: 1.0;"/><!--MD5=[7997cd0e7da2177ddce723fa8fdc9a82]
link it.tidalwave.northernwind.frontend.ui.component.blog to it.tidalwave.util.spi--><path codeLine="31" d="M2101.5,31.0352 C2101.5,45.3818 2101.5,69.4615 2101.5,85.777 " fill="none" id="it.tidalwave.northernwind.frontend.ui.component.blog-to-it.tidalwave.util.spi" style="stroke: #A80036; stroke-width: 1.0;"/><polygon fill="#A80036" points="2101.5,90.9872,2105.5,81.9872,2101.5,85.9872,2097.5,81.9872,2101.5,90.9872" style="stroke: #A80036; stroke-width: 1.0;"/><!--MD5=[404ea2afe15854eee35cde2c94a7c64e]
link it.tidalwave.northernwind.frontend.ui.component.blog to it.tidalwave.northernwind.core.model--><path codeLine="32" d="M2011.0931,31.0352 C1892.78,46.7852 1686.3476,74.2659 1565.7061,90.326 " fill="none" id="it.tidalwave.northernwind.frontend.ui.component.blog-to-it.tidalwave.northernwind.core.model" style="stroke: #A80036; stroke-width: 1.0;"/><polygon fill="#A80036" points="1560.7392,90.9872,1570.1884,93.7645,1565.6955,90.3273,1569.1326,85.8344,1560.7392,90.9872" style="stroke: #A80036; stroke-width: 1.0;"/><!--MD5=[5986ac89ab1111bf5f258247688f81fa]
link it.tidalwave.northernwind.frontend.ui.component.blog to org.slf4j--><path codeLine="33" d="M1943.9098,30.8717 C1756.4587,45.5371 1454.9059,70.9976 1343.5,91 C1339.3816,91.7394 1335.0894,92.6703 1330.8619,93.685 " fill="none" id="it.tidalwave.northernwind.frontend.ui.component.blog-to-org.slf4j" style="stroke: #A80036; stroke-width: 1.0;"/><polygon fill="#A80036" points="1325.9433,94.9081,1335.6426,96.6178,1330.7955,93.7014,1333.7119,88.8543,1325.9433,94.9081" style="stroke: #A80036; stroke-width: 1.0;"/><!--MD5=[632d7fa5f351f7e0ae35c3e1270501fa]
link it.tidalwave.northernwind.frontend.ui.component.blog to it.tidalwave.northernwind.frontend.ui--><path codeLine="34" d="M1943.8992,30.176 C1708.624,46.929 1276.6243,77.9743 1121.5,91 C1117.2965,91.353 1113.0155,91.7198 1108.6918,92.0966 " fill="none" id="it.tidalwave.northernwind.frontend.ui.component.blog-to-it.tidalwave.northernwind.frontend.ui" style="stroke: #A80036; stroke-width: 1.0;"/><polygon fill="#A80036" points="1103.5985,92.5432,1112.9136,95.7416,1108.5794,92.1064,1112.2146,87.7722,1103.5985,92.5432" style="stroke: #A80036; stroke-width: 1.0;"/><!--MD5=[f57d8e7a73685927ff740f07c2b00131]
link it.tidalwave.northernwind.frontend.ui.component.blog to it.tidalwave.util--><path codeLine="35" d="M1943.6282,29.912 C1937.8469,30.2841 1932.1228,30.6479 1926.5,31 C1455.9999,60.459 1335.394,33.4377 867.5,91 C863.6926,91.4684 859.769,92.0281 855.8294,92.646 " fill="none" id="it.tidalwave.northernwind.frontend.ui.component.blog-to-it.tidalwave.util" style="stroke: #A80036; stroke-width: 1.0;"/><polygon fill="#A80036" points="850.8381,93.4573,860.3633,95.9613,855.7733,92.655,859.0796,88.065,850.8381,93.4573" style="stroke: #A80036; stroke-width: 1.0;"/><!--MD5=[83af923bafe1e3e657ac20caa31f2dd2]
link it.tidalwave.northernwind.frontend.ui.component.blog to it.tidalwave.role--><path codeLine="36" d="M1943.6571,30.6621 C1736.3133,46.2863 1383.4394,74.0099 1254.5,91 C1250.2054,91.5659 1245.767,92.2158 1241.3141,92.9139 " fill="none" id="it.tidalwave.northernwind.frontend.ui.component.blog-to-it.tidalwave.role" style="stroke: #A80036; stroke-width: 1.0;"/><polygon fill="#A80036" points="1236.0877,93.7536,1245.6083,96.275,1241.0244,92.9603,1244.3391,88.3764,1236.0877,93.7536" style="stroke: #A80036; stroke-width: 1.0;"/><!--MD5=[fa665f181faa2a2677c8cb7b107671b5]
link it.tidalwave.northernwind.frontend.ui.component.menu to org.slf4j--><path codeLine="37" d="M1334.4824,31.0352 C1327.2467,45.5065 1315.0595,69.881 1306.8996,86.2009 " fill="none" id="it.tidalwave.northernwind.frontend.ui.component.menu-to-org.slf4j" style="stroke: #A80036; stroke-width: 1.0;"/><polygon fill="#A80036" points="1304.5064,90.9872,1312.1091,84.7263,1306.7425,86.5151,1304.9537,81.1485,1304.5064,90.9872" style="stroke: #A80036; stroke-width: 1.0;"/><!--MD5=[7bd6a15e7c9d7225ff2bdb2720abcbb1]
link it.tidalwave.northernwind.frontend.ui.component.menu to it.tidalwave.northernwind.core.model--><path codeLine="38" d="M1359.1258,31.0352 C1382.4873,46.1303 1422.5249,72.0007 1447.6956,88.2649 " fill="none" id="it.tidalwave.northernwind.frontend.ui.component.menu-to-it.tidalwave.northernwind.core.model" style="stroke: #A80036; stroke-width: 1.0;"/><polygon fill="#A80036" points="1451.9087,90.9872,1446.5203,82.7431,1447.7091,88.2736,1442.1786,89.4624,1451.9087,90.9872" style="stroke: #A80036; stroke-width: 1.0;"/><!--MD5=[13de43738bce5abc8d4ea907ad36a922]
link it.tidalwave.northernwind.frontend.ui.component.menu to it.tidalwave.northernwind.frontend.ui--><path codeLine="39" d="M1290.9266,31.0352 C1226.8221,46.5981 1115.5399,73.6146 1049.0826,89.7487 " fill="none" id="it.tidalwave.northernwind.frontend.ui.component.menu-to-it.tidalwave.northernwind.frontend.ui" style="stroke: #A80036; stroke-width: 1.0;"/><polygon fill="#A80036" points="1043.9814,90.9872,1053.6711,92.7508,1048.8402,89.8075,1051.7835,84.9767,1043.9814,90.9872" style="stroke: #A80036; stroke-width: 1.0;"/><!--MD5=[e90c2d27ef0cf9d31b93ab8eeb05132b]
link it.tidalwave.northernwind.frontend.ui.component.menu to it.tidalwave.util--><path codeLine="40" d="M1254.8972,31.054 C1160.0332,44.6394 1002.5882,67.8611 867.5,91 C863.6418,91.6609 859.6552,92.3665 855.6482,93.0922 " fill="none" id="it.tidalwave.northernwind.frontend.ui.component.menu-to-it.tidalwave.util" style="stroke: #A80036; stroke-width: 1.0;"/><polygon fill="#A80036" points="850.5698,94.0203,860.1423,96.3369,855.4883,93.1213,858.7039,88.4673,850.5698,94.0203" style="stroke: #A80036; stroke-width: 1.0;"/><!--MD5=[1a2771225774cfe0cdf8794df6e1d9af]
link it.tidalwave.northernwind.frontend.ui.component.menu to it.tidalwave.role--><path codeLine="41" d="M1318.5788,31.0352 C1290.9705,46.1926 1243.5733,72.2147 1213.9727,88.466 " fill="none" id="it.tidalwave.northernwind.frontend.ui.component.menu-to-it.tidalwave.role" style="stroke: #A80036; stroke-width: 1.0;"/><polygon fill="#A80036" points="1209.3805,90.9872,1219.1947,90.1622,1213.7634,88.5809,1215.3447,83.1495,1209.3805,90.9872" style="stroke: #A80036; stroke-width: 1.0;"/><text fill="#888888" font-family="sans-serif" font-size="10" lengthAdjust="spacingAndGlyphs" textLength="188" x="1036" y="137.8008">UMLDoclet 2.0.12, PlantUML 1.2020.16</text><!--MD5=[e2a6119a102f48bb96f39731a5e0ece2]
@startuml
    set namespaceSeparator none
    hide circle
    hide empty fields
    hide empty methods

    it.tidalwave.northernwind.frontend.ui.component.calendar - -> org.slf4j
    it.tidalwave.northernwind.frontend.ui.component.calendar - -> it.tidalwave.northernwind.core.model
    it.tidalwave.northernwind.frontend.ui.component.calendar - -> it.tidalwave.northernwind.frontend.ui.component.calendar.spi
    it.tidalwave.northernwind.frontend.ui.component.calendar - -> it.tidalwave.util
    it.tidalwave.northernwind.frontend.ui.component.calendar - -> it.tidalwave.northernwind.frontend.ui
    it.tidalwave.northernwind.frontend.ui.component.calendar - -> it.tidalwave.role
    it.tidalwave.northernwind.frontend.ui.component.calendar - -> it.tidalwave.northernwind.util.test
    it.tidalwave.northernwind.frontend.ui.component.nodecontainer - -> it.tidalwave.northernwind.frontend.ui
    it.tidalwave.northernwind.frontend.ui.component.nodecontainer - -> it.tidalwave.util
    it.tidalwave.northernwind.frontend.ui.component.nodecontainer - -> it.tidalwave.role
    it.tidalwave.northernwind.frontend.ui.component.nodecontainer - -> org.slf4j
    it.tidalwave.northernwind.frontend.ui.component.nodecontainer - -> it.tidalwave.northernwind.core.model
    it.tidalwave.northernwind.frontend.ui.component.nodecontainer - -> org.mockito.stubbing
    it.tidalwave.northernwind.frontend.ui.component.htmltextwithtitle - -> it.tidalwave.role
    it.tidalwave.northernwind.frontend.ui.component.htmltextwithtitle - -> org.slf4j
    it.tidalwave.northernwind.frontend.ui.component.htmltextwithtitle - -> it.tidalwave.northernwind.core.model
    it.tidalwave.northernwind.frontend.ui.component.htmltextwithtitle - -> it.tidalwave.northernwind.frontend.ui
    it.tidalwave.northernwind.frontend.ui.component.htmltextwithtitle - -> it.tidalwave.util
    it.tidalwave.northernwind.frontend.ui.component.htmltextwithtitle - -> it.tidalwave.northernwind.util.test
    it.tidalwave.northernwind.frontend.ui.component.sitemap - -> org.slf4j
    it.tidalwave.northernwind.frontend.ui.component.sitemap - -> it.tidalwave.northernwind.core.model
    it.tidalwave.northernwind.frontend.ui.component.sitemap - -> it.tidalwave.northernwind.frontend.ui
    it.tidalwave.northernwind.frontend.ui.component.sitemap - -> it.tidalwave.role
    it.tidalwave.northernwind.frontend.ui.component.sitemap - -> it.tidalwave.util
    it.tidalwave.northernwind.frontend.ui.component.sitemap - -> it.tidalwave.northernwind.util.test
    it.tidalwave.northernwind.frontend.ui.component.blog - -> it.tidalwave.util.spi
    it.tidalwave.northernwind.frontend.ui.component.blog - -> it.tidalwave.northernwind.core.model
    it.tidalwave.northernwind.frontend.ui.component.blog - -> org.slf4j
    it.tidalwave.northernwind.frontend.ui.component.blog - -> it.tidalwave.northernwind.frontend.ui
    it.tidalwave.northernwind.frontend.ui.component.blog - -> it.tidalwave.util
    it.tidalwave.northernwind.frontend.ui.component.blog - -> it.tidalwave.role
    it.tidalwave.northernwind.frontend.ui.component.menu - -> org.slf4j
    it.tidalwave.northernwind.frontend.ui.component.menu - -> it.tidalwave.northernwind.core.model
    it.tidalwave.northernwind.frontend.ui.component.menu - -> it.tidalwave.northernwind.frontend.ui
    it.tidalwave.northernwind.frontend.ui.component.menu - -> it.tidalwave.util
    it.tidalwave.northernwind.frontend.ui.component.menu - -> it.tidalwave.role

    ' Package links
    class "it.tidalwave.northernwind.frontend.ui.component.calendar" [[it/tidalwave/northernwind/frontend/ui/component/calendar/package-summary.html]] {
    }
    class "it.tidalwave.northernwind.core.model" [[http://tidalwave.tidalwave.it/northernwind/it-tidalwave-northernwind-modules/it-tidalwave-northernwind-core/apidocs/it/tidalwave/northernwind/core/model/package-summary.html?is-external=true]] {
    }
    class "it.tidalwave.northernwind.frontend.ui.component.calendar.spi" [[../apidocs/it/tidalwave/northernwind/frontend/ui/component/calendar/spi/package-summary.html]] {
    }
    class "it.tidalwave.northernwind.util.test" [[http://tidalwave.tidalwave.it/northernwind/it-tidalwave-northernwind-modules/it-tidalwave-northernwind-core-default/apidocs/it/tidalwave/northernwind/util/test/package-summary.html?is-external=true]] {
    }
    class "it.tidalwave.northernwind.frontend.ui.component.nodecontainer" [[it/tidalwave/northernwind/frontend/ui/component/nodecontainer/package-summary.html]] {
    }
    class "it.tidalwave.northernwind.frontend.ui.component.htmltextwithtitle" [[it/tidalwave/northernwind/frontend/ui/component/htmltextwithtitle/package-summary.html]] {
    }
    class "it.tidalwave.northernwind.frontend.ui.component.sitemap" [[it/tidalwave/northernwind/frontend/ui/component/sitemap/package-summary.html]] {
    }
    class "it.tidalwave.northernwind.frontend.ui.component.blog" [[it/tidalwave/northernwind/frontend/ui/component/blog/package-summary.html]] {
    }
    class "it.tidalwave.northernwind.frontend.ui.component.menu" [[it/tidalwave/northernwind/frontend/ui/component/menu/package-summary.html]] {
    }

    center footer UMLDoclet 2.0.12, PlantUML 1.2020.16
@enduml

@startuml
    set namespaceSeparator none
    hide circle
    hide empty fields
    hide empty methods

    it.tidalwave.northernwind.frontend.ui.component.calendar - -> org.slf4j
    it.tidalwave.northernwind.frontend.ui.component.calendar - -> it.tidalwave.northernwind.core.model
    it.tidalwave.northernwind.frontend.ui.component.calendar - -> it.tidalwave.northernwind.frontend.ui.component.calendar.spi
    it.tidalwave.northernwind.frontend.ui.component.calendar - -> it.tidalwave.util
    it.tidalwave.northernwind.frontend.ui.component.calendar - -> it.tidalwave.northernwind.frontend.ui
    it.tidalwave.northernwind.frontend.ui.component.calendar - -> it.tidalwave.role
    it.tidalwave.northernwind.frontend.ui.component.calendar - -> it.tidalwave.northernwind.util.test
    it.tidalwave.northernwind.frontend.ui.component.nodecontainer - -> it.tidalwave.northernwind.frontend.ui
    it.tidalwave.northernwind.frontend.ui.component.nodecontainer - -> it.tidalwave.util
    it.tidalwave.northernwind.frontend.ui.component.nodecontainer - -> it.tidalwave.role
    it.tidalwave.northernwind.frontend.ui.component.nodecontainer - -> org.slf4j
    it.tidalwave.northernwind.frontend.ui.component.nodecontainer - -> it.tidalwave.northernwind.core.model
    it.tidalwave.northernwind.frontend.ui.component.nodecontainer - -> org.mockito.stubbing
    it.tidalwave.northernwind.frontend.ui.component.htmltextwithtitle - -> it.tidalwave.role
    it.tidalwave.northernwind.frontend.ui.component.htmltextwithtitle - -> org.slf4j
    it.tidalwave.northernwind.frontend.ui.component.htmltextwithtitle - -> it.tidalwave.northernwind.core.model
    it.tidalwave.northernwind.frontend.ui.component.htmltextwithtitle - -> it.tidalwave.northernwind.frontend.ui
    it.tidalwave.northernwind.frontend.ui.component.htmltextwithtitle - -> it.tidalwave.util
    it.tidalwave.northernwind.frontend.ui.component.htmltextwithtitle - -> it.tidalwave.northernwind.util.test
    it.tidalwave.northernwind.frontend.ui.component.sitemap - -> org.slf4j
    it.tidalwave.northernwind.frontend.ui.component.sitemap - -> it.tidalwave.northernwind.core.model
    it.tidalwave.northernwind.frontend.ui.component.sitemap - -> it.tidalwave.northernwind.frontend.ui
    it.tidalwave.northernwind.frontend.ui.component.sitemap - -> it.tidalwave.role
    it.tidalwave.northernwind.frontend.ui.component.sitemap - -> it.tidalwave.util
    it.tidalwave.northernwind.frontend.ui.component.sitemap - -> it.tidalwave.northernwind.util.test
    it.tidalwave.northernwind.frontend.ui.component.blog - -> it.tidalwave.util.spi
    it.tidalwave.northernwind.frontend.ui.component.blog - -> it.tidalwave.northernwind.core.model
    it.tidalwave.northernwind.frontend.ui.component.blog - -> org.slf4j
    it.tidalwave.northernwind.frontend.ui.component.blog - -> it.tidalwave.northernwind.frontend.ui
    it.tidalwave.northernwind.frontend.ui.component.blog - -> it.tidalwave.util
    it.tidalwave.northernwind.frontend.ui.component.blog - -> it.tidalwave.role
    it.tidalwave.northernwind.frontend.ui.component.menu - -> org.slf4j
    it.tidalwave.northernwind.frontend.ui.component.menu - -> it.tidalwave.northernwind.core.model
    it.tidalwave.northernwind.frontend.ui.component.menu - -> it.tidalwave.northernwind.frontend.ui
    it.tidalwave.northernwind.frontend.ui.component.menu - -> it.tidalwave.util
    it.tidalwave.northernwind.frontend.ui.component.menu - -> it.tidalwave.role

    class "it.tidalwave.northernwind.frontend.ui.component.calendar" [[it/tidalwave/northernwind/frontend/ui/component/calendar/package-summary.html]] {
    }
    class "it.tidalwave.northernwind.core.model" [[http://tidalwave.tidalwave.it/northernwind/it-tidalwave-northernwind-modules/it-tidalwave-northernwind-core/apidocs/it/tidalwave/northernwind/core/model/package-summary.html?is-external=true]] {
    }
    class "it.tidalwave.northernwind.frontend.ui.component.calendar.spi" [[../apidocs/it/tidalwave/northernwind/frontend/ui/component/calendar/spi/package-summary.html]] {
    }
    class "it.tidalwave.northernwind.util.test" [[http://tidalwave.tidalwave.it/northernwind/it-tidalwave-northernwind-modules/it-tidalwave-northernwind-core-default/apidocs/it/tidalwave/northernwind/util/test/package-summary.html?is-external=true]] {
    }
    class "it.tidalwave.northernwind.frontend.ui.component.nodecontainer" [[it/tidalwave/northernwind/frontend/ui/component/nodecontainer/package-summary.html]] {
    }
    class "it.tidalwave.northernwind.frontend.ui.component.htmltextwithtitle" [[it/tidalwave/northernwind/frontend/ui/component/htmltextwithtitle/package-summary.html]] {
    }
    class "it.tidalwave.northernwind.frontend.ui.component.sitemap" [[it/tidalwave/northernwind/frontend/ui/component/sitemap/package-summary.html]] {
    }
    class "it.tidalwave.northernwind.frontend.ui.component.blog" [[it/tidalwave/northernwind/frontend/ui/component/blog/package-summary.html]] {
    }
    class "it.tidalwave.northernwind.frontend.ui.component.menu" [[it/tidalwave/northernwind/frontend/ui/component/menu/package-summary.html]] {
    }

    center footer UMLDoclet 2.0.12, PlantUML 1.2020.16
@enduml

PlantUML version 1.2020.16(Sun Aug 23 22:20:43 CEST 2020)
(APACHE source distribution)
Java Runtime: OpenJDK Runtime Environment
JVM: OpenJDK 64-Bit Server VM
Default Encoding: UTF-8
Language: en
Country: GB
--></g></svg>