<?xml version="1.0" encoding="UTF-8" standalone="no"?><svg xmlns="http://www.w3.org/2000/svg" xmlns:xlink="http://www.w3.org/1999/xlink" contentScriptType="application/ecmascript" contentStyleType="text/css" height="358px" preserveAspectRatio="none" style="width:423px;height:358px;" version="1.1" viewBox="0 0 423 358" width="423px" zoomAndPan="magnify"><defs><filter height="300%" id="fnh4mpurkak34" width="300%" x="-1" y="-1"><feGaussianBlur result="blurOut" stdDeviation="2.0"/><feColorMatrix in="blurOut" result="blurOut2" type="matrix" values="0 0 0 0 0 0 0 0 0 0 0 0 0 0 0 0 0 0 .4 0"/><feOffset dx="4.0" dy="4.0" in="blurOut2" result="blurOut3"/><feBlend in="SourceGraphic" in2="blurOut3" mode="normal"/></filter></defs><g><!--MD5=[e3e741244510fd3d6b0f447318e9a989]
class it.tidalwave.thesefoolishthings.examples.dci.marshal.xstream.converter.PersonConverter--><a href="PersonConverter.html" target="_top" title="PersonConverter.html" xlink:actuate="onRequest" xlink:href="PersonConverter.html" xlink:show="new" xlink:title="PersonConverter.html" xlink:type="simple"><rect codeLine="5" fill="#FEFECE" filter="url(#fnh4mpurkak34)" height="85.1309" id="it.tidalwave.thesefoolishthings.examples.dci.marshal.xstream.converter.PersonConverter" style="stroke: #A80036; stroke-width: 1.5;" width="397" x="7" y="139"/><ellipse cx="28.3" cy="158.1328" fill="#ADD1B2" rx="11" ry="11" style="stroke: #A80036; stroke-width: 1.0;"/><path d="M30.7731,164.2759 Q30.1921,164.5747 29.5529,164.7241 Q28.9138,164.8735 28.2082,164.8735 Q25.7014,164.8735 24.3815,163.2217 Q23.0617,161.5698 23.0617,158.4487 Q23.0617,155.3193 24.3815,153.6675 Q25.7014,152.0156 28.2082,152.0156 Q28.9138,152.0156 29.5612,152.165 Q30.2087,152.3145 30.7731,152.6133 L30.7731,155.3359 Q30.1423,154.7549 29.5488,154.4851 Q28.9553,154.2153 28.3244,154.2153 Q26.9797,154.2153 26.2949,155.282 Q25.6101,156.3486 25.6101,158.4487 Q25.6101,160.5405 26.2949,161.6072 Q26.9797,162.6738 28.3244,162.6738 Q28.9553,162.6738 29.5488,162.4041 Q30.1423,162.1343 30.7731,161.5532 Z "/><text fill="#000000" font-family="sans-serif" font-size="14" lengthAdjust="spacingAndGlyphs" textLength="115" x="161.7" y="157.5352">PersonConverter</text><text fill="#000000" font-family="sans-serif" font-size="10" lengthAdjust="spacingAndGlyphs" textLength="351" x="43.7" y="170.1563">it.tidalwave.thesefoolishthings.examples.dci.marshal.xstream.converter</text><line style="stroke: #A80036; stroke-width: 1.5;" x1="8" x2="403" y1="177.2656" y2="177.2656"/><ellipse cx="18" cy="188.2656" fill="#84BE84" rx="3" ry="3" style="stroke: #038048; stroke-width: 1.0;"/><text fill="#000000" font-family="sans-serif" font-size="11" lengthAdjust="spacingAndGlyphs" textLength="365" x="27" y="191.9004">marshal(Object, HierarchicalStreamWriter, MarshallingContext): void</text><ellipse cx="18" cy="201.2207" fill="#84BE84" rx="3" ry="3" style="stroke: #038048; stroke-width: 1.0;"/><text fill="#000000" font-family="sans-serif" font-size="11" lengthAdjust="spacingAndGlyphs" textLength="371" x="27" y="204.8555">unmarshal(HierarchicalStreamReader, UnmarshallingContext): Object</text><ellipse cx="18" cy="214.1758" fill="#84BE84" rx="3" ry="3" style="stroke: #038048; stroke-width: 1.0;"/><text fill="#000000" font-family="sans-serif" font-size="11" lengthAdjust="spacingAndGlyphs" textLength="148" x="27" y="217.8105">canConvert(Class): boolean</text></a><!--MD5=[97eaccd2f97e35bdc900855eee8dd8bb]
class com.thoughtworks.xstream.converters.Converter--><rect codeLine="11" fill="#FEFECE" filter="url(#fnh4mpurkak34)" height="72.1758" id="com.thoughtworks.xstream.converters.Converter" style="stroke: #A80036; stroke-width: 1.5;" width="397" x="7" y="7"/><ellipse cx="107.75" cy="26.1328" fill="#B4A7E5" rx="11" ry="11" style="stroke: #A80036; stroke-width: 1.0;"/><path d="M104.1777,22.3979 L104.1777,20.2397 L111.5571,20.2397 L111.5571,22.3979 L109.0918,22.3979 L109.0918,30.4746 L111.5571,30.4746 L111.5571,32.6328 L104.1777,32.6328 L104.1777,30.4746 L106.6431,30.4746 L106.6431,22.3979 Z "/><text fill="#000000" font-family="sans-serif" font-size="14" font-style="italic" lengthAdjust="spacingAndGlyphs" textLength="68" x="187.75" y="25.5352">Converter</text><text fill="#000000" font-family="sans-serif" font-size="10" font-style="italic" lengthAdjust="spacingAndGlyphs" textLength="187" x="128.25" y="38.1563">com.thoughtworks.xstream.converters</text><line style="stroke: #A80036; stroke-width: 1.5;" x1="8" x2="403" y1="45.2656" y2="45.2656"/><ellipse cx="18" cy="56.2656" fill="#84BE84" rx="3" ry="3" style="stroke: #038048; stroke-width: 1.0;"/><text fill="#000000" font-family="sans-serif" font-size="11" font-style="italic" lengthAdjust="spacingAndGlyphs" textLength="365" x="27" y="59.9004">marshal(Object, HierarchicalStreamWriter, MarshallingContext): void</text><ellipse cx="18" cy="69.2207" fill="#84BE84" rx="3" ry="3" style="stroke: #038048; stroke-width: 1.0;"/><text fill="#000000" font-family="sans-serif" font-size="11" font-style="italic" lengthAdjust="spacingAndGlyphs" textLength="371" x="27" y="72.8555">unmarshal(HierarchicalStreamReader, UnmarshallingContext): Object</text><!--MD5=[bd8fac1dfd3f3728803f03679a632555]
class it.tidalwave.thesefoolishthings.examples.dci.marshal.xstream.converter.PersonConverter.MutablePerson--><a href="PersonConverter.MutablePerson.html" target="_top" title="PersonConverter.MutablePerson.html" xlink:actuate="onRequest" xlink:href="PersonConverter.MutablePerson.html" xlink:show="new" xlink:title="PersonConverter.MutablePerson.html" xlink:type="simple"><rect codeLine="15" fill="#FEFECE" filter="url(#fnh4mpurkak34)" height="38.2656" id="it.tidalwave.thesefoolishthings.examples.dci.marshal.xstream.converter.PersonConverter.MutablePerson" style="stroke: #A80036; stroke-width: 1.5;" width="383" x="14" y="284"/><ellipse cx="29" cy="303.1328" fill="#ADD1B2" rx="11" ry="11" style="stroke: #A80036; stroke-width: 1.0;"/><path d="M31.4731,309.2759 Q30.8921,309.5747 30.2529,309.7241 Q29.6138,309.8735 28.9082,309.8735 Q26.4014,309.8735 25.0815,308.2217 Q23.7617,306.5698 23.7617,303.4487 Q23.7617,300.3193 25.0815,298.6675 Q26.4014,297.0156 28.9082,297.0156 Q29.6138,297.0156 30.2612,297.165 Q30.9087,297.3145 31.4731,297.6133 L31.4731,300.3359 Q30.8423,299.7549 30.2488,299.4851 Q29.6553,299.2153 29.0244,299.2153 Q27.6797,299.2153 26.9949,300.282 Q26.3101,301.3486 26.3101,303.4487 Q26.3101,305.5405 26.9949,306.6072 Q27.6797,307.6738 29.0244,307.6738 Q29.6553,307.6738 30.2488,307.4041 Q30.8423,307.1343 31.4731,306.5532 Z "/><text fill="#000000" font-family="sans-serif" font-size="14" lengthAdjust="spacingAndGlyphs" textLength="221" x="108" y="302.5352">PersonConverter.MutablePerson</text><text fill="#000000" font-family="sans-serif" font-size="10" lengthAdjust="spacingAndGlyphs" textLength="351" x="43" y="315.1563">it.tidalwave.thesefoolishthings.examples.dci.marshal.xstream.converter</text></a><!--MD5=[69aab37afd2ed2ee1d01adf1ecaac935]
reverse link com.thoughtworks.xstream.converters.Converter to it.tidalwave.thesefoolishthings.examples.dci.marshal.xstream.converter.PersonConverter--><path codeLine="17" d="M205.5,99.4872 C205.5,112.602 205.5,126.3495 205.5,138.7592 " fill="none" id="com.thoughtworks.xstream.converters.Converter-backto-it.tidalwave.thesefoolishthings.examples.dci.marshal.xstream.converter.PersonConverter" style="stroke: #A80036; stroke-width: 1.0; stroke-dasharray: 7.0,7.0;"/><polygon fill="none" points="198.5001,99.0277,205.5,79.0277,212.5001,99.0277,198.5001,99.0277" style="stroke: #A80036; stroke-width: 1.0;"/><!--MD5=[486000835d4fdf092b859c60e65ff580]
reverse link it.tidalwave.thesefoolishthings.examples.dci.marshal.xstream.converter.PersonConverter to it.tidalwave.thesefoolishthings.examples.dci.marshal.xstream.converter.PersonConverter.MutablePerson--><path codeLine="18" d="M205.5,239.501 C205.5,255.553 205.5,271.8613 205.5,283.9311 " fill="none" id="it.tidalwave.thesefoolishthings.examples.dci.marshal.xstream.converter.PersonConverter-backto-it.tidalwave.thesefoolishthings.examples.dci.marshal.xstream.converter.PersonConverter.MutablePerson" style="stroke: #A80036; stroke-width: 1.0;"/><ellipse cx="205.5001" cy="232.3364" fill="#FFFFFF" rx="8" ry="8" style="stroke: #A80036; stroke-width: 1.0;"/><line style="stroke: #A80036; stroke-width: 1.0;" x1="205.5002" x2="205.5" y1="240.3364" y2="224.3364"/><line style="stroke: #A80036; stroke-width: 1.0;" x1="197.5001" x2="213.5001" y1="232.3365" y2="232.3363"/><text fill="#888888" font-family="sans-serif" font-size="10" lengthAdjust="spacingAndGlyphs" textLength="188" x="108.5" y="344.9336">UMLDoclet 2.0.12, PlantUML 1.2020.16</text><!--MD5=[41d40864453581bbca3ca1df27140599]
@startuml
    set namespaceSeparator none
    hide empty fields
    hide empty methods

    class "<size:14>PersonConverter\n<size:10>it.tidalwave.thesefoolishthings.examples.dci.marshal.xstream.converter" as it.tidalwave.thesefoolishthings.examples.dci.marshal.xstream.converter.PersonConverter [[PersonConverter.html]] {
        +marshal(Object, HierarchicalStreamWriter, MarshallingContext): void
        +unmarshal(HierarchicalStreamReader, UnmarshallingContext): Object
        +canConvert(Class): boolean
    }

    interface "<size:14>Converter\n<size:10>com.thoughtworks.xstream.converters" as com.thoughtworks.xstream.converters.Converter {
        {abstract} +marshal(Object, HierarchicalStreamWriter, MarshallingContext): void
        {abstract} +unmarshal(HierarchicalStreamReader, UnmarshallingContext): Object
    }
    class "<size:14>PersonConverter.MutablePerson\n<size:10>it.tidalwave.thesefoolishthings.examples.dci.marshal.xstream.converter" as it.tidalwave.thesefoolishthings.examples.dci.marshal.xstream.converter.PersonConverter.MutablePerson [[PersonConverter.MutablePerson.html]]

    com.thoughtworks.xstream.converters.Converter <|.. it.tidalwave.thesefoolishthings.examples.dci.marshal.xstream.converter.PersonConverter
    it.tidalwave.thesefoolishthings.examples.dci.marshal.xstream.converter.PersonConverter +- - it.tidalwave.thesefoolishthings.examples.dci.marshal.xstream.converter.PersonConverter.MutablePerson

    center footer UMLDoclet 2.0.12, PlantUML 1.2020.16
@enduml

PlantUML version 1.2020.16(Sun Aug 23 22:20:43 CEST 2020)
(APACHE source distribution)
Java Runtime: OpenJDK Runtime Environment
JVM: OpenJDK 64-Bit Server VM
Default Encoding: UTF-8
Language: en
Country: GB
--></g></svg>