@startuml
    set namespaceSeparator none
    hide empty fields
    hide empty methods

    interface "<size:14>As\n<size:10>it.tidalwave.util" as it.tidalwave.util.As [[As.html]] {
        {abstract} +as(Class<T>): T
        {abstract} +as(Class<T>, NotFoundBehaviour<T>): T
        +maybeAs(Class<T>): Optional<T>
        +--asOptional--(Class<T>): Optional<T>
        {abstract} +asMany(Class<T>): Collection<T>
    }
    interface "<size:14>As.NotFoundBehaviour\n<size:10>it.tidalwave.util" as it.tidalwave.util.As.NotFoundBehaviour<T> [[As.NotFoundBehaviour.html]]
    class "<size:14>As.Defaults\n<size:10>it.tidalwave.util" as it.tidalwave.util.As.Defaults [[As.Defaults.html]]

    it.tidalwave.util.As +-- it.tidalwave.util.As.NotFoundBehaviour
    it.tidalwave.util.As +-- it.tidalwave.util.As.Defaults

    center footer UMLDoclet 2.0.12, PlantUML 1.2020.16
@enduml
