<?xml version="1.0" encoding="UTF-8" standalone="no"?><svg xmlns="http://www.w3.org/2000/svg" xmlns:xlink="http://www.w3.org/1999/xlink" contentScriptType="application/ecmascript" contentStyleType="text/css" height="216px" preserveAspectRatio="none" style="width:365px;height:216px;" version="1.1" viewBox="0 0 365 216" width="365px" zoomAndPan="magnify"><defs><filter height="300%" id="f4rn79x8kyc49" width="300%" x="-1" y="-1"><feGaussianBlur result="blurOut" stdDeviation="2.0"/><feColorMatrix in="blurOut" result="blurOut2" type="matrix" values="0 0 0 0 0 0 0 0 0 0 0 0 0 0 0 0 0 0 .4 0"/><feOffset dx="4.0" dy="4.0" in="blurOut2" result="blurOut3"/><feBlend in="SourceGraphic" in2="blurOut3" mode="normal"/></filter></defs><g><!--MD5=[811aef1fd9b2deecaabdd84493a84826]
class it.tidalwave.util.ConcurrentHashMapWithOptionals--><a href="ConcurrentHashMapWithOptionals.html" target="_top" title="ConcurrentHashMapWithOptionals.html" xlink:actuate="onRequest" xlink:href="ConcurrentHashMapWithOptionals.html" xlink:show="new" xlink:title="ConcurrentHashMapWithOptionals.html" xlink:type="simple"><rect codeLine="5" fill="#FEFECE" filter="url(#f4rn79x8kyc49)" height="72.1758" id="it.tidalwave.util.ConcurrentHashMapWithOptionals" style="stroke: #A80036; stroke-width: 1.5;" width="339" x="7" y="108"/><ellipse cx="40.9" cy="127.1328" fill="#ADD1B2" rx="11" ry="11" style="stroke: #A80036; stroke-width: 1.0;"/><path d="M43.3731,133.2759 Q42.7921,133.5747 42.1529,133.7241 Q41.5138,133.8735 40.8082,133.8735 Q38.3014,133.8735 36.9815,132.2217 Q35.6617,130.5698 35.6617,127.4487 Q35.6617,124.3193 36.9815,122.6675 Q38.3014,121.0156 40.8082,121.0156 Q41.5138,121.0156 42.1612,121.165 Q42.8087,121.3145 43.3731,121.6133 L43.3731,124.3359 Q42.7423,123.7549 42.1488,123.4851 Q41.5553,123.2153 40.9244,123.2153 Q39.5797,123.2153 38.8949,124.282 Q38.2101,125.3486 38.2101,127.4487 Q38.2101,129.5405 38.8949,130.6072 Q39.5797,131.6738 40.9244,131.6738 Q41.5553,131.6738 42.1488,131.4041 Q42.7423,131.1343 43.3731,130.5532 Z "/><text fill="#000000" font-family="sans-serif" font-size="14" lengthAdjust="spacingAndGlyphs" textLength="237" x="59.1" y="126.5352">ConcurrentHashMapWithOptionals</text><text fill="#000000" font-family="sans-serif" font-size="10" lengthAdjust="spacingAndGlyphs" textLength="76" x="139.6" y="139.1563">it.tidalwave.util</text><rect fill="#FFFFFF" height="16.1328" style="stroke: #000000; stroke-width: 1.0; stroke-dasharray: 2.0,2.0;" width="26" x="323" y="105"/><text fill="#000000" font-family="sans-serif" font-size="12" font-style="italic" lengthAdjust="spacingAndGlyphs" textLength="24" x="324" y="117.6016">K, V</text><line style="stroke: #A80036; stroke-width: 1.5;" x1="8" x2="345" y1="146.2656" y2="146.2656"/><ellipse cx="18" cy="157.2656" fill="#84BE84" rx="3" ry="3" style="stroke: #038048; stroke-width: 1.0;"/><text fill="#000000" font-family="sans-serif" font-size="11" lengthAdjust="spacingAndGlyphs" textLength="313" x="27" y="160.9004">putIfAbsentAndGetNewKey(Optional&lt;K&gt;, V): Optional&lt;K&gt;</text><ellipse cx="18" cy="170.2207" fill="#84BE84" rx="3" ry="3" style="stroke: #038048; stroke-width: 1.0;"/><text fill="#000000" font-family="sans-serif" font-size="11" lengthAdjust="spacingAndGlyphs" textLength="249" x="27" y="173.8555">putIfAbsentAndGetNewKey(K, V): Optional&lt;K&gt;</text></a><!--MD5=[365b5a55a72a498a808aa0265732f8e9]
class java.util.concurrent.ConcurrentHashMap--><rect codeLine="10" fill="#FEFECE" filter="url(#f4rn79x8kyc49)" height="38.2656" id="java.util.concurrent.ConcurrentHashMap" style="stroke: #A80036; stroke-width: 1.5;" width="201" x="76" y="10"/><ellipse cx="91" cy="29.1328" fill="#ADD1B2" rx="11" ry="11" style="stroke: #A80036; stroke-width: 1.0;"/><path d="M93.4731,35.2759 Q92.8921,35.5747 92.2529,35.7241 Q91.6138,35.8735 90.9082,35.8735 Q88.4014,35.8735 87.0815,34.2217 Q85.7617,32.5698 85.7617,29.4487 Q85.7617,26.3193 87.0815,24.6675 Q88.4014,23.0156 90.9082,23.0156 Q91.6138,23.0156 92.2612,23.165 Q92.9087,23.3145 93.4731,23.6133 L93.4731,26.3359 Q92.8423,25.7549 92.2488,25.4851 Q91.6553,25.2153 91.0244,25.2153 Q89.6797,25.2153 88.9949,26.282 Q88.3101,27.3486 88.3101,29.4487 Q88.3101,31.5405 88.9949,32.6072 Q89.6797,33.6738 91.0244,33.6738 Q91.6553,33.6738 92.2488,33.4041 Q92.8423,33.1343 93.4731,32.5532 Z "/><text fill="#000000" font-family="sans-serif" font-size="14" lengthAdjust="spacingAndGlyphs" textLength="141" x="105" y="28.5352">ConcurrentHashMap</text><text fill="#000000" font-family="sans-serif" font-size="10" lengthAdjust="spacingAndGlyphs" textLength="94" x="128.5" y="41.1563">java.util.concurrent</text><rect fill="#FFFFFF" height="16.1328" style="stroke: #000000; stroke-width: 1.0; stroke-dasharray: 2.0,2.0;" width="26" x="254" y="7"/><text fill="#000000" font-family="sans-serif" font-size="12" font-style="italic" lengthAdjust="spacingAndGlyphs" textLength="24" x="255" y="19.6016">K, V</text><!--MD5=[d20333052b8b1c0513db9e0e7645f011]
reverse link java.util.concurrent.ConcurrentHashMap to it.tidalwave.util.ConcurrentHashMapWithOptionals--><path codeLine="12" d="M176.5,68.5888 C176.5,81.3573 176.5,95.4348 176.5,107.935 " fill="none" id="java.util.concurrent.ConcurrentHashMap-backto-it.tidalwave.util.ConcurrentHashMapWithOptionals" style="stroke: #A80036; stroke-width: 1.0;"/><polygon fill="none" points="169.5001,68.2484,176.5,48.2484,183.5001,68.2484,169.5001,68.2484" style="stroke: #A80036; stroke-width: 1.0;"/><text fill="#888888" font-family="sans-serif" font-size="10" lengthAdjust="spacingAndGlyphs" textLength="188" x="79.5" y="202.8438">UMLDoclet 2.0.12, PlantUML 1.2020.16</text><!--MD5=[8b53d03fc1da0418b26a2592f11d4ff8]
@startuml
    set namespaceSeparator none
    hide empty fields
    hide empty methods

    class "<size:14>ConcurrentHashMapWithOptionals\n<size:10>it.tidalwave.util" as it.tidalwave.util.ConcurrentHashMapWithOptionals<K, V> [[ConcurrentHashMapWithOptionals.html]] {
        +putIfAbsentAndGetNewKey(Optional<K>, V): Optional<K>
        +putIfAbsentAndGetNewKey(K, V): Optional<K>
    }

    class "<size:14>ConcurrentHashMap\n<size:10>java.util.concurrent" as java.util.concurrent.ConcurrentHashMap<K, V>

    java.util.concurrent.ConcurrentHashMap <|- - it.tidalwave.util.ConcurrentHashMapWithOptionals

    center footer UMLDoclet 2.0.12, PlantUML 1.2020.16
@enduml

PlantUML version 1.2020.16(Sun Aug 23 22:20:43 CEST 2020)
(APACHE source distribution)
Java Runtime: OpenJDK Runtime Environment
JVM: OpenJDK 64-Bit Server VM
Default Encoding: UTF-8
Language: en
Country: GB
--></g></svg>