@startuml
    set namespaceSeparator none
    hide empty fields
    hide empty methods

    class "<size:14>CollectionFunctions\n<size:10>it.tidalwave.northernwind.util" as it.tidalwave.northernwind.util.CollectionFunctions [[CollectionFunctions.html]] {
        {static} +concat(Collection<T>...): List<T>
        {static} +safeSubList(List<T>, int, int): List<T>
        {static} +split(List<T>, int...): List<List<T>>
    }

    center footer UMLDoclet 2.0.12, PlantUML 1.2020.16
@enduml
