<?xml version="1.0" encoding="UTF-8" standalone="no"?><svg xmlns="http://www.w3.org/2000/svg" xmlns:xlink="http://www.w3.org/1999/xlink" contentScriptType="application/ecmascript" contentStyleType="text/css" height="96px" preserveAspectRatio="none" style="width:285px;height:96px;" version="1.1" viewBox="0 0 285 96" width="285px" zoomAndPan="magnify"><defs><filter height="300%" id="f14g81ghakyhv1" width="300%" x="-1" y="-1"><feGaussianBlur result="blurOut" stdDeviation="2.0"/><feColorMatrix in="blurOut" result="blurOut2" type="matrix" values="0 0 0 0 0 0 0 0 0 0 0 0 0 0 0 0 0 0 .4 0"/><feOffset dx="4.0" dy="4.0" in="blurOut2" result="blurOut3"/><feBlend in="SourceGraphic" in2="blurOut3" mode="normal"/></filter></defs><g><!--MD5=[f4dbeecb91c6680a7e2891ef60058bcd]
class it.tidalwave.role.spi.SystemRoleFactoryProvider--><a href="SystemRoleFactoryProvider.html" target="_top" title="SystemRoleFactoryProvider.html" xlink:actuate="onRequest" xlink:href="SystemRoleFactoryProvider.html" xlink:show="new" xlink:title="SystemRoleFactoryProvider.html" xlink:type="simple"><rect codeLine="5" fill="#FEFECE" filter="url(#f14g81ghakyhv1)" height="59.2207" id="it.tidalwave.role.spi.SystemRoleFactoryProvider" style="stroke: #A80036; stroke-width: 1.5;" width="259" x="7" y="7"/><ellipse cx="40.9" cy="26.1328" fill="#B4A7E5" rx="11" ry="11" style="stroke: #A80036; stroke-width: 1.0;"/><path d="M37.3277,22.3979 L37.3277,20.2397 L44.7071,20.2397 L44.7071,22.3979 L42.2418,22.3979 L42.2418,30.4746 L44.7071,30.4746 L44.7071,32.6328 L37.3277,32.6328 L37.3277,30.4746 L39.7931,30.4746 L39.7931,22.3979 Z "/><text fill="#000000" font-family="sans-serif" font-size="14" font-style="italic" lengthAdjust="spacingAndGlyphs" textLength="185" x="59.1" y="25.5352">SystemRoleFactoryProvider</text><text fill="#000000" font-family="sans-serif" font-size="10" font-style="italic" lengthAdjust="spacingAndGlyphs" textLength="96" x="103.6" y="38.1563">it.tidalwave.role.spi</text><line style="stroke: #A80036; stroke-width: 1.5;" x1="8" x2="265" y1="45.2656" y2="45.2656"/><ellipse cx="18" cy="56.2656" fill="#84BE84" rx="3" ry="3" style="stroke: #038048; stroke-width: 1.0;"/><text fill="#000000" font-family="sans-serif" font-size="11" font-style="italic" lengthAdjust="spacingAndGlyphs" textLength="233" x="27" y="59.9004">getSystemRoleFactory(): SystemRoleFactory</text></a><text fill="#888888" font-family="sans-serif" font-size="10" lengthAdjust="spacingAndGlyphs" textLength="188" x="42.5" y="82.8887">UMLDoclet 2.0.12, PlantUML 1.2020.16</text><!--MD5=[bc7a4da620ea9ffa7b686c84fbd97c94]
@startuml
    set namespaceSeparator none
    hide empty fields
    hide empty methods

    interface "<size:14>SystemRoleFactoryProvider\n<size:10>it.tidalwave.role.spi" as it.tidalwave.role.spi.SystemRoleFactoryProvider [[SystemRoleFactoryProvider.html]] {
        {abstract} +getSystemRoleFactory(): SystemRoleFactory
    }

    center footer UMLDoclet 2.0.12, PlantUML 1.2020.16
@enduml

PlantUML version 1.2020.16(Sun Aug 23 22:20:43 CEST 2020)
(APACHE source distribution)
Java Runtime: OpenJDK Runtime Environment
JVM: OpenJDK 64-Bit Server VM
Default Encoding: UTF-8
Language: en
Country: GB
--></g></svg>