<?xml version="1.0" encoding="UTF-8" standalone="no"?><svg xmlns="http://www.w3.org/2000/svg" xmlns:xlink="http://www.w3.org/1999/xlink" contentScriptType="application/ecmascript" contentStyleType="text/css" height="458px" preserveAspectRatio="none" style="width:1385px;height:458px;" version="1.1" viewBox="0 0 1385 458" width="1385px" zoomAndPan="magnify"><defs><filter height="300%" id="febt1ceiq8wtr" width="300%" x="-1" y="-1"><feGaussianBlur result="blurOut" stdDeviation="2.0"/><feColorMatrix in="blurOut" result="blurOut2" type="matrix" values="0 0 0 0 0 0 0 0 0 0 0 0 0 0 0 0 0 0 .4 0"/><feOffset dx="4.0" dy="4.0" in="blurOut2" result="blurOut3"/><feBlend in="SourceGraphic" in2="blurOut3" mode="normal"/></filter></defs><g><!--MD5=[f0b43ef0bedf9c3bde2c1317d75e4d3c]
cluster it.tidalwave.northernwind.frontend.ui.component.gallery.spi--><polygon fill="#FFFFFF" filter="url(#febt1ceiq8wtr)" points="16,6,447,6,454,28.4883,1363,28.4883,1363,429,16,429,16,6" style="stroke: #000000; stroke-width: 1.5;"/><line style="stroke: #000000; stroke-width: 1.5;" x1="16" x2="454" y1="28.4883" y2="28.4883"/><text fill="#000000" font-family="sans-serif" font-size="14" font-weight="bold" lengthAdjust="spacingAndGlyphs" textLength="425" x="20" y="21.5352">it.tidalwave.northernwind.frontend.ui.component.gallery.spi</text><!--MD5=[4e5ee5206b105c3ef4646c7e198dca40]
class it.tidalwave.northernwind.frontend.ui.component.gallery.spi.GalleryAdapter--><a href="GalleryAdapter.html" target="_top" title="GalleryAdapter.html" xlink:actuate="onRequest" xlink:href="GalleryAdapter.html" xlink:show="new" xlink:title="GalleryAdapter.html" xlink:type="simple"><rect codeLine="3" fill="#FEFECE" filter="url(#febt1ceiq8wtr)" height="138.6855" id="it.tidalwave.northernwind.frontend.ui.component.gallery.spi.GalleryAdapter" style="stroke: #A80036; stroke-width: 1.5;" width="348" x="1007" y="33"/><ellipse cx="1133.25" cy="49" fill="#B4A7E5" rx="11" ry="11" style="stroke: #A80036; stroke-width: 1.0;"/><path d="M1129.6777,45.2651 L1129.6777,43.1069 L1137.0571,43.1069 L1137.0571,45.2651 L1134.5918,45.2651 L1134.5918,53.3418 L1137.0571,53.3418 L1137.0571,55.5 L1129.6777,55.5 L1129.6777,53.3418 L1132.1431,53.3418 L1132.1431,45.2651 Z "/><text fill="#000000" font-family="sans-serif" font-size="12" font-style="italic" lengthAdjust="spacingAndGlyphs" textLength="87" x="1153.75" y="53.5352">GalleryAdapter</text><line style="stroke: #A80036; stroke-width: 1.5;" x1="1008" x2="1354" y1="65" y2="65"/><line style="stroke: #A80036; stroke-width: 1.5;" x1="1008" x2="1354" y1="73" y2="73"/><ellipse cx="1018" cy="84" fill="#84BE84" rx="3" ry="3" style="stroke: #038048; stroke-width: 1.0;"/><text fill="#000000" font-family="sans-serif" font-size="11" font-style="italic" lengthAdjust="spacingAndGlyphs" textLength="253" x="1027" y="87.6348">getExtraViewProperties(Id): ResourceProperties</text><ellipse cx="1018" cy="96.9551" fill="#84BE84" rx="3" ry="3" style="stroke: #038048; stroke-width: 1.0;"/><text fill="#000000" font-family="sans-serif" font-size="11" font-style="italic" lengthAdjust="spacingAndGlyphs" textLength="130" x="1027" y="100.5898">getInlinedScript(): String</text><ellipse cx="1018" cy="109.9102" fill="#84BE84" rx="3" ry="3" style="stroke: #038048; stroke-width: 1.0;"/><text fill="#000000" font-family="sans-serif" font-size="11" font-style="italic" lengthAdjust="spacingAndGlyphs" textLength="217" x="1027" y="113.5449">prepareCatalog(List&lt;GalleryItem&gt;): void</text><ellipse cx="1018" cy="122.8652" fill="#84BE84" rx="3" ry="3" style="stroke: #038048; stroke-width: 1.0;"/><text fill="#000000" font-family="sans-serif" font-size="11" font-style="italic" lengthAdjust="spacingAndGlyphs" textLength="279" x="1027" y="126.5">prepareGallery(GalleryItem, List&lt;GalleryItem&gt;): void</text><ellipse cx="1018" cy="135.8203" fill="#84BE84" rx="3" ry="3" style="stroke: #038048; stroke-width: 1.0;"/><text fill="#000000" font-family="sans-serif" font-size="11" font-style="italic" lengthAdjust="spacingAndGlyphs" textLength="322" x="1027" y="139.4551">prepareFallbackGallery(GalleryItem, List&lt;GalleryItem&gt;): void</text><ellipse cx="1018" cy="148.7754" fill="#84BE84" rx="3" ry="3" style="stroke: #038048; stroke-width: 1.0;"/><text fill="#000000" font-family="sans-serif" font-size="11" font-style="italic" lengthAdjust="spacingAndGlyphs" textLength="267" x="1027" y="152.4102">prepareFallbackLightbox(List&lt;GalleryItem&gt;): void</text><ellipse cx="1018" cy="161.7305" fill="#84BE84" rx="3" ry="3" style="stroke: #038048; stroke-width: 1.0;"/><text fill="#000000" font-family="sans-serif" font-size="11" font-style="italic" lengthAdjust="spacingAndGlyphs" textLength="154" x="1027" y="165.3652">render(RenderContext): void</text></a><!--MD5=[574608633bfc3e5645252a35d8884569]
class it.tidalwave.northernwind.frontend.ui.component.gallery.spi.MediaMetadataProvider--><a href="MediaMetadataProvider.html" target="_top" title="MediaMetadataProvider.html" xlink:actuate="onRequest" xlink:href="MediaMetadataProvider.html" xlink:show="new" xlink:title="MediaMetadataProvider.html" xlink:type="simple"><rect codeLine="13" fill="#FEFECE" filter="url(#febt1ceiq8wtr)" height="60.9551" id="it.tidalwave.northernwind.frontend.ui.component.gallery.spi.MediaMetadataProvider" style="stroke: #A80036; stroke-width: 1.5;" width="328" x="582" y="72"/><ellipse cx="673.25" cy="88" fill="#B4A7E5" rx="11" ry="11" style="stroke: #A80036; stroke-width: 1.0;"/><path d="M669.6777,84.2651 L669.6777,82.1069 L677.0571,82.1069 L677.0571,84.2651 L674.5918,84.2651 L674.5918,92.3418 L677.0571,92.3418 L677.0571,94.5 L669.6777,94.5 L669.6777,92.3418 L672.1431,92.3418 L672.1431,84.2651 Z "/><text fill="#000000" font-family="sans-serif" font-size="12" font-style="italic" lengthAdjust="spacingAndGlyphs" textLength="137" x="693.75" y="92.5352">MediaMetadataProvider</text><line style="stroke: #A80036; stroke-width: 1.5;" x1="583" x2="909" y1="104" y2="104"/><line style="stroke: #A80036; stroke-width: 1.5;" x1="583" x2="909" y1="112" y2="112"/><ellipse cx="593" cy="123" fill="#84BE84" rx="3" ry="3" style="stroke: #038048; stroke-width: 1.0;"/><text fill="#000000" font-family="sans-serif" font-size="11" font-style="italic" lengthAdjust="spacingAndGlyphs" textLength="302" x="602" y="126.6348">getMetadataString(Id, String, ResourceProperties): String</text></a><!--MD5=[395486fded579a007b3eff5898e337f9]
class it.tidalwave.northernwind.frontend.ui.component.gallery.spi.GalleryAdapterSupport--><a href="GalleryAdapterSupport.html" target="_top" title="GalleryAdapterSupport.html" xlink:actuate="onRequest" xlink:href="GalleryAdapterSupport.html" xlink:show="new" xlink:title="GalleryAdapterSupport.html" xlink:type="simple"><rect codeLine="17" fill="#FEFECE" filter="url(#febt1ceiq8wtr)" height="125.7305" id="it.tidalwave.northernwind.frontend.ui.component.gallery.spi.GalleryAdapterSupport" style="stroke: #A80036; stroke-width: 1.5;" width="309" x="1026.5" y="295"/><ellipse cx="1110.75" cy="311" fill="#A9DCDF" rx="11" ry="11" style="stroke: #A80036; stroke-width: 1.0;"/><path d="M1110.6133,306.3481 L1109.4595,311.4199 L1111.7754,311.4199 Z M1109.1191,304.1069 L1112.1157,304.1069 L1115.4609,316.5 L1113.0122,316.5 L1112.2485,313.437 L1108.9697,313.437 L1108.2227,316.5 L1105.7739,316.5 Z "/><text fill="#000000" font-family="sans-serif" font-size="12" font-style="italic" lengthAdjust="spacingAndGlyphs" textLength="132" x="1131.25" y="315.5352">GalleryAdapterSupport</text><line style="stroke: #A80036; stroke-width: 1.5;" x1="1027.5" x2="1334.5" y1="327" y2="327"/><polygon fill="none" points="1037.5,333,1041.5,337,1037.5,341,1033.5,337" style="stroke: #B38D22; stroke-width: 1.0;"/><text fill="#000000" font-family="sans-serif" font-size="11" lengthAdjust="spacingAndGlyphs" textLength="100" x="1046.5" y="341.6348">siteNode: SiteNode</text><polygon fill="none" points="1037.5,345.9551,1041.5,349.9551,1037.5,353.9551,1033.5,349.9551" style="stroke: #B38D22; stroke-width: 1.0;"/><text fill="#000000" font-family="sans-serif" font-size="11" lengthAdjust="spacingAndGlyphs" textLength="90" x="1046.5" y="354.5898">view: GalleryView</text><polygon fill="none" points="1037.5,358.9102,1041.5,362.9102,1037.5,366.9102,1033.5,362.9102" style="stroke: #B38D22; stroke-width: 1.0;"/><text fill="#000000" font-family="sans-serif" font-size="11" lengthAdjust="spacingAndGlyphs" textLength="151" x="1046.5" y="367.5449">modelFactory: ModelFactory</text><line style="stroke: #A80036; stroke-width: 1.5;" x1="1027.5" x2="1334.5" y1="373.8652" y2="373.8652"/><ellipse cx="1037.5" cy="384.8652" fill="#84BE84" rx="3" ry="3" style="stroke: #038048; stroke-width: 1.0;"/><text fill="#000000" font-family="sans-serif" font-size="11" lengthAdjust="spacingAndGlyphs" textLength="253" x="1046.5" y="388.5">getExtraViewProperties(Id): ResourceProperties</text><ellipse cx="1037.5" cy="397.8203" fill="#84BE84" rx="3" ry="3" style="stroke: #038048; stroke-width: 1.0;"/><text fill="#000000" font-family="sans-serif" font-size="11" lengthAdjust="spacingAndGlyphs" textLength="130" x="1046.5" y="401.4551">getInlinedScript(): String</text><polygon fill="#FFFF44" points="1037.5,405.7754,1041.5,409.7754,1037.5,413.7754,1033.5,409.7754" style="stroke: #B38D22; stroke-width: 1.0;"/><text fill="#000000" font-family="sans-serif" font-size="11" lengthAdjust="spacingAndGlyphs" textLength="283" x="1046.5" y="414.4102">loadTemplate(Key&lt;ResourcePath&gt;, String): Template</text></a><!--MD5=[afe9cd91afc1186b527cd1da7f5e393d]
class it.tidalwave.northernwind.frontend.ui.component.gallery.spi.MediaMetadataXsltAdapter--><a href="MediaMetadataXsltAdapter.html" target="_top" title="MediaMetadataXsltAdapter.html" xlink:actuate="onRequest" xlink:href="MediaMetadataXsltAdapter.html" xlink:show="new" xlink:title="MediaMetadataXsltAdapter.html" xlink:type="simple"><rect codeLine="26" fill="#FEFECE" filter="url(#febt1ceiq8wtr)" height="73.9102" id="it.tidalwave.northernwind.frontend.ui.component.gallery.spi.MediaMetadataXsltAdapter" style="stroke: #A80036; stroke-width: 1.5;" width="244" x="303" y="65.5"/><ellipse cx="342.75" cy="81.5" fill="#ADD1B2" rx="11" ry="11" style="stroke: #A80036; stroke-width: 1.0;"/><path d="M345.2231,87.6431 Q344.6421,87.9419 344.0029,88.0913 Q343.3638,88.2407 342.6582,88.2407 Q340.1514,88.2407 338.8315,86.5889 Q337.5117,84.937 337.5117,81.8159 Q337.5117,78.6865 338.8315,77.0347 Q340.1514,75.3828 342.6582,75.3828 Q343.3638,75.3828 344.0112,75.5322 Q344.6587,75.6816 345.2231,75.9805 L345.2231,78.7031 Q344.5923,78.1221 343.9988,77.8523 Q343.4053,77.5825 342.7744,77.5825 Q341.4297,77.5825 340.7449,78.6492 Q340.0601,79.7158 340.0601,81.8159 Q340.0601,83.9077 340.7449,84.9744 Q341.4297,86.041 342.7744,86.041 Q343.4053,86.041 343.9988,85.7712 Q344.5923,85.5015 345.2231,84.9204 Z "/><text fill="#000000" font-family="sans-serif" font-size="12" lengthAdjust="spacingAndGlyphs" textLength="157" x="362.25" y="86.0352">MediaMetadataXsltAdapter</text><line style="stroke: #A80036; stroke-width: 1.5;" x1="304" x2="546" y1="97.5" y2="97.5"/><line style="stroke: #A80036; stroke-width: 1.5;" x1="304" x2="546" y1="105.5" y2="105.5"/><ellipse cx="314" cy="116.5" fill="#84BE84" rx="3" ry="3" style="stroke: #038048; stroke-width: 1.0;"/><text fill="#000000" font-family="sans-serif" font-size="11" lengthAdjust="spacingAndGlyphs" text-decoration="underline" textLength="213" x="323" y="120.1348">getMetadataString(String, String): String</text><ellipse cx="314" cy="129.4551" fill="#84BE84" rx="3" ry="3" style="stroke: #038048; stroke-width: 1.0;"/><text fill="#000000" font-family="sans-serif" font-size="11" lengthAdjust="spacingAndGlyphs" text-decoration="underline" textLength="218" x="323" y="133.0898">getInstance(): MediaMetadataXsltAdapter</text></a><!--MD5=[56ccd166f5cb0e15831c2a81ab2ad5a5]
class it.tidalwave.northernwind.frontend.ui.component.gallery.spi.GalleryLoader--><a href="GalleryLoader.html" target="_top" title="GalleryLoader.html" xlink:actuate="onRequest" xlink:href="GalleryLoader.html" xlink:show="new" xlink:title="GalleryLoader.html" xlink:type="simple"><rect codeLine="31" fill="#FEFECE" filter="url(#febt1ceiq8wtr)" height="60.9551" id="it.tidalwave.northernwind.frontend.ui.component.gallery.spi.GalleryLoader" style="stroke: #A80036; stroke-width: 1.5;" width="244" x="24" y="72"/><ellipse cx="101.75" cy="88" fill="#B4A7E5" rx="11" ry="11" style="stroke: #A80036; stroke-width: 1.0;"/><path d="M98.1777,84.2651 L98.1777,82.1069 L105.5571,82.1069 L105.5571,84.2651 L103.0918,84.2651 L103.0918,92.3418 L105.5571,92.3418 L105.5571,94.5 L98.1777,94.5 L98.1777,92.3418 L100.6431,92.3418 L100.6431,84.2651 Z "/><text fill="#000000" font-family="sans-serif" font-size="12" font-style="italic" lengthAdjust="spacingAndGlyphs" textLength="80" x="122.25" y="92.5352">GalleryLoader</text><line style="stroke: #A80036; stroke-width: 1.5;" x1="25" x2="267" y1="104" y2="104"/><line style="stroke: #A80036; stroke-width: 1.5;" x1="25" x2="267" y1="112" y2="112"/><ellipse cx="35" cy="123" fill="#84BE84" rx="3" ry="3" style="stroke: #038048; stroke-width: 1.0;"/><text fill="#000000" font-family="sans-serif" font-size="11" font-style="italic" lengthAdjust="spacingAndGlyphs" textLength="218" x="44" y="126.6348">loadGallery(SiteNode): List&lt;GalleryItem&gt;</text></a><!--MD5=[017083c43dcd2ae1dcf9dd3fdd2866e2]
link it.tidalwave.northernwind.frontend.ui.component.gallery.spi.MediaMetadataProvider to it.tidalwave.northernwind.frontend.ui.component.gallery.spi.MediaMetadataProvider--><path codeLine="35" d="M910.326,86.1192 C931.2219,88.9831 945,94.4434 945,102.5 C945,109.8643 933.4882,115.0592 915.5513,118.0849 " fill="none" id="it.tidalwave.northernwind.frontend.ui.component.gallery.spi.MediaMetadataProvider-to-it.tidalwave.northernwind.frontend.ui.component.gallery.spi.MediaMetadataProvider" style="stroke: #A80036; stroke-width: 1.0;"/><polygon fill="#A80036" points="910.326,118.8808,919.8258,121.4798,915.269,118.1278,918.621,113.571,910.326,118.8808" style="stroke: #A80036; stroke-width: 1.0;"/><text fill="#000000" font-family="sans-serif" font-size="13" lengthAdjust="spacingAndGlyphs" textLength="32" x="951" y="107.5684">VOID</text><!--MD5=[603151907de961f8832c670790df10e9]
reverse link it.tidalwave.northernwind.frontend.ui.component.gallery.spi.GalleryAdapter to it.tidalwave.northernwind.frontend.ui.component.gallery.spi.GalleryAdapterSupport--><path codeLine="36" d="M1181,192.7332 C1181,226.4711 1181,264.0398 1181,294.8222 " fill="none" id="it.tidalwave.northernwind.frontend.ui.component.gallery.spi.GalleryAdapter-backto-it.tidalwave.northernwind.frontend.ui.component.gallery.spi.GalleryAdapterSupport" style="stroke: #A80036; stroke-width: 1.0; stroke-dasharray: 7.0,7.0;"/><polygon fill="none" points="1174.0001,192.3165,1181,172.3165,1188.0001,192.3165,1174.0001,192.3165" style="stroke: #A80036; stroke-width: 1.0;"/><text fill="#888888" font-family="sans-serif" font-size="10" lengthAdjust="spacingAndGlyphs" textLength="188" x="589.5" y="444.668">UMLDoclet 2.0.12, PlantUML 1.2020.16</text><!--MD5=[50963d0fb4ab959185469b33a7be7e46]
@startuml
    namespace it.tidalwave.northernwind.frontend.ui.component.gallery.spi {

        interface GalleryAdapter [[GalleryAdapter.html]] {
            {abstract} +getExtraViewProperties(Id): ResourceProperties
            {abstract} +getInlinedScript(): String
            {abstract} +prepareCatalog(List<GalleryItem>): void
            {abstract} +prepareGallery(GalleryItem, List<GalleryItem>): void
            {abstract} +prepareFallbackGallery(GalleryItem, List<GalleryItem>): void
            {abstract} +prepareFallbackLightbox(List<GalleryItem>): void
            {abstract} +render(RenderContext): void
        }

        interface MediaMetadataProvider [[MediaMetadataProvider.html]] {
            {abstract} +getMetadataString(Id, String, ResourceProperties): String
        }

        abstract class GalleryAdapterSupport [[GalleryAdapterSupport.html]] {
            #siteNode: SiteNode
            #view: GalleryView
            #modelFactory: ModelFactory
            +getExtraViewProperties(Id): ResourceProperties
            +getInlinedScript(): String
            #loadTemplate(Key<ResourcePath>, String): Template
        }

        class MediaMetadataXsltAdapter [[MediaMetadataXsltAdapter.html]] {
            {static} +getMetadataString(String, String): String
            {static} +getInstance(): MediaMetadataXsltAdapter
        }

        interface GalleryLoader [[GalleryLoader.html]] {
            {abstract} +loadGallery(SiteNode): List<GalleryItem>
        }

        MediaMetadataProvider - -> MediaMetadataProvider: VOID
        GalleryAdapter <|.. GalleryAdapterSupport
    }

    center footer UMLDoclet 2.0.12, PlantUML 1.2020.16
@enduml

PlantUML version 1.2020.16(Sun Aug 23 22:20:43 CEST 2020)
(APACHE source distribution)
Java Runtime: OpenJDK Runtime Environment
JVM: OpenJDK 64-Bit Server VM
Default Encoding: UTF-8
Language: en
Country: GB
--></g></svg>