@startuml
    set namespaceSeparator none
    hide empty fields
    hide empty methods

    class "<size:14>ContentSelectedEventTest\n<size:10>it.tidalwave.northernwind.rca.ui.event" as it.tidalwave.northernwind.rca.ui.event.ContentSelectedEventTest [[ContentSelectedEventTest.html]] {
        +must_represent_an_empty_selection_when_constructed_with_no_arguments(): void
        +must_return_the_original_SiteNode_when_constructed_with_arguments(): void
    }

    center footer UMLDoclet 2.0.12, PlantUML 1.2020.16
@enduml
