@startuml
    namespace it.tidalwave.northernwind.rca.ui.event {

        class SiteNodeSelectedEventMatcher [[SiteNodeSelectedEventMatcher.html]] {
            {static} +emptySelectionEvent(): SiteNodeSelectedEvent
            {static} +eventWith(SiteNode): SiteNodeSelectedEvent
            +matches(SiteNodeSelectedEvent): boolean
        }

        class ContentSelectedEventMatcher [[ContentSelectedEventMatcher.html]] {
            {static} +emptyEvent(): ContentSelectedEvent
            {static} +eventWith(Content): ContentSelectedEvent
            +matches(ContentSelectedEvent): boolean
        }

        class SiteNodeSelectedEventTest [[SiteNodeSelectedEventTest.html]] {
            +must_represent_an_empty_selection_when_constructed_with_no_arguments(): void
            +must_return_the_original_SiteNode_when_constructed_with_arguments(): void
        }

        class ContentSelectedEventTest [[ContentSelectedEventTest.html]] {
            +must_represent_an_empty_selection_when_constructed_with_no_arguments(): void
            +must_return_the_original_SiteNode_when_constructed_with_arguments(): void
        }

        org.mockito.ArgumentMatcher <|.. SiteNodeSelectedEventMatcher
        org.mockito.ArgumentMatcher <|.. ContentSelectedEventMatcher
    }

    namespace org.mockito {
        interface ArgumentMatcher<T> {
            {abstract} +matches(T): boolean
        }
    }

    center footer UMLDoclet 2.0.12, PlantUML 1.2020.16
@enduml
