GROUP,PACKAGE,CLASS,INSTRUCTION_MISSED,INSTRUCTION_COVERED,BRANCH_MISSED,BRANCH_COVERED,LINE_MISSED,LINE_COVERED,COMPLEXITY_MISSED,COMPLEXITY_COVERED,METHOD_MISSED,METHOD_COVERED
TheseFoolishThings :: Roles :: Spring/it-tidalwave-util,it.tidalwave.util.thread,ThreadType,34,0,0,0,2,0,1,0,1,0
TheseFoolishThings :: Roles :: Spring/it-tidalwave-util,it.tidalwave.util.thread,ThreadAssertions,25,0,6,0,5,0,6,0,3,0
TheseFoolishThings :: Roles :: Spring/it-tidalwave-util,it.tidalwave.util.ui,UserNotification,72,0,0,0,8,0,9,0,9,0
TheseFoolishThings :: Roles :: Spring/it-tidalwave-util,it.tidalwave.util.ui,UserNotificationWithFeedback.Feedback,67,0,8,0,11,0,11,0,7,0
TheseFoolishThings :: Roles :: Spring/it-tidalwave-util,it.tidalwave.util.ui,UserNotificationWithFeedback,101,0,0,0,16,0,12,0,12,0
TheseFoolishThings :: Roles :: Spring/it-tidalwave-util,it.tidalwave.util.spi,FinderSupport.Sorter,30,0,4,0,3,0,4,0,2,0
TheseFoolishThings :: Roles :: Spring/it-tidalwave-util,it.tidalwave.util.spi,DefaultProcessExecutor,192,0,6,0,35,0,15,0,12,0
TheseFoolishThings :: Roles :: Spring/it-tidalwave-util,it.tidalwave.util.spi,AsDelegateProvider.EmptyAsDelegateProvider,0,8,0,0,0,2,0,2,0,2
TheseFoolishThings :: Roles :: Spring/it-tidalwave-util,it.tidalwave.util.spi,AsDelegateProvider.EmptyAsDelegateProvider.new AsDelegate() {...},0,10,0,0,0,2,0,2,0,2
TheseFoolishThings :: Roles :: Spring/it-tidalwave-util,it.tidalwave.util.spi,DefaultProcessExecutor.DefaultConsoleOutput,332,0,30,0,69,0,26,0,11,0
TheseFoolishThings :: Roles :: Spring/it-tidalwave-util,it.tidalwave.util.spi,FinderSupport,177,248,6,8,32,38,15,16,10,14
TheseFoolishThings :: Roles :: Spring/it-tidalwave-util,it.tidalwave.util.spi,AsDelegateProvider,0,7,0,0,0,2,0,2,0,2
TheseFoolishThings :: Roles :: Spring/it-tidalwave-util,it.tidalwave.util.spi,DefaultProcessExecutor.DefaultConsoleOutput.new Runnable() {...},37,0,4,0,9,0,4,0,2,0
TheseFoolishThings :: Roles :: Spring/it-tidalwave-util,it.tidalwave.util.spi,ArrayListCollectorSupport,17,0,0,0,5,0,6,0,6,0
TheseFoolishThings :: Roles :: Spring/it-tidalwave-util,it.tidalwave.util.spi,AsDelegateProvider.Locator,7,25,1,3,2,11,1,4,0,3
TheseFoolishThings :: Roles :: Spring/it-tidalwave-util,it.tidalwave.util.spi,DefaultProcessExecutor.DefaultConsoleOutput.new Runnable() {...},25,0,0,0,6,0,2,0,2,0
TheseFoolishThings :: Roles :: Spring/it-tidalwave-util,it.tidalwave.util.spi,AsSupport,29,140,1,13,6,31,3,12,2,6
TheseFoolishThings :: Roles :: Spring/it-tidalwave-util,it.tidalwave.util.spi,SimpleFinderSupport,4,8,0,0,2,3,1,2,1,2
TheseFoolishThings :: Roles :: Spring/it-tidalwave-util,it.tidalwave.util,Initializer.EmptyInitializer,5,0,0,0,2,0,2,0,2,0
TheseFoolishThings :: Roles :: Spring/it-tidalwave-util,it.tidalwave.util,NamedCallback,39,0,4,0,4,0,7,0,5,0
TheseFoolishThings :: Roles :: Spring/it-tidalwave-util,it.tidalwave.util,As.Ref,72,8,13,1,1,1,11,1,4,1
TheseFoolishThings :: Roles :: Spring/it-tidalwave-util,it.tidalwave.util,Finder.SortCriterion,8,0,0,0,3,0,2,0,2,0
TheseFoolishThings :: Roles :: Spring/it-tidalwave-util,it.tidalwave.util,As.Defaults.new As.NotFoundBehaviour() {...},0,13,0,0,0,2,0,2,0,2
TheseFoolishThings :: Roles :: Spring/it-tidalwave-util,it.tidalwave.util,Finder,66,5,2,0,13,1,11,1,10,1
TheseFoolishThings :: Roles :: Spring/it-tidalwave-util,it.tidalwave.util,SimpleTask,3,0,0,0,1,0,1,0,1,0
TheseFoolishThings :: Roles :: Spring/it-tidalwave-util,it.tidalwave.util,BundleUtilities,0,34,0,2,0,5,0,3,0,2
TheseFoolishThings :: Roles :: Spring/it-tidalwave-util,it.tidalwave.util,Initializer,4,0,0,0,1,0,1,0,1,0
TheseFoolishThings :: Roles :: Spring/it-tidalwave-util,it.tidalwave.util,Task,37,21,0,0,7,3,5,1,5,1
TheseFoolishThings :: Roles :: Spring/it-tidalwave-util,it.tidalwave.util,Id,30,75,9,9,2,4,10,8,2,7
TheseFoolishThings :: Roles :: Spring/it-tidalwave-util,it.tidalwave.util,ReflectionUtils,78,73,11,11,18,17,9,5,1,2
TheseFoolishThings :: Roles :: Spring/it-tidalwave-util,it.tidalwave.util,As,19,13,0,0,4,2,4,3,4,3
TheseFoolishThings :: Roles :: Spring/it-tidalwave-util,it.tidalwave.util,TypeSafeMultiMap,6,10,0,0,2,2,2,2,2,2
TheseFoolishThings :: Roles :: Spring/it-tidalwave-util,it.tidalwave.util,Task.new Task() {...},11,0,0,0,3,0,2,0,2,0
TheseFoolishThings :: Roles :: Spring/it-tidalwave-util,it.tidalwave.util,Callback,4,0,0,0,1,0,2,0,2,0
TheseFoolishThings :: Roles :: Spring/it-tidalwave-util,it.tidalwave.util,DuplicateException,7,0,0,0,4,0,2,0,2,0
TheseFoolishThings :: Roles :: Spring/it-tidalwave-util,it.tidalwave.util,Finder.InMemorySortCriterion,17,0,0,0,4,0,3,0,3,0
TheseFoolishThings :: Roles :: Spring/it-tidalwave-util,it.tidalwave.util,Finder.SortDirection,37,0,0,0,3,0,3,0,3,0
TheseFoolishThings :: Roles :: Spring/it-tidalwave-util,it.tidalwave.util,Pair,95,226,17,9,3,22,18,34,5,34
TheseFoolishThings :: Roles :: Spring/it-tidalwave-util,it.tidalwave.util,TypeSafeMap,6,18,0,0,2,5,2,3,2,3
TheseFoolishThings :: Roles :: Spring/it-tidalwave-util,it.tidalwave.util,NotFoundException,35,27,8,4,10,10,8,6,4,4
TheseFoolishThings :: Roles :: Spring/it-tidalwave-util,it.tidalwave.util,Parameters,87,44,10,6,12,9,8,4,2,2
TheseFoolishThings :: Roles :: Spring/it-tidalwave-util,it.tidalwave.util,Key,38,173,13,15,4,15,14,16,3,13
TheseFoolishThings :: Roles :: Spring/it-tidalwave-util,it.tidalwave.util,Finder.InMemorySortCriterion.DefaultInMemorySortCriterion,147,0,26,0,3,0,20,0,7,0
TheseFoolishThings :: Roles :: Spring/it-tidalwave-util,it.tidalwave.util,FunctionalCheckedExceptionWrappers,11,64,0,4,6,23,2,11,2,9
TheseFoolishThings :: Roles :: Spring/it-tidalwave-util,it.tidalwave.util,LocalizedDateTimeFormatters,0,22,0,0,0,3,0,1,0,1
TheseFoolishThings :: Roles :: Spring/it-tidalwave-util,it.tidalwave.util,StreamOperations,2,64,2,2,0,12,2,2,0,2
TheseFoolishThings :: Roles :: Spring/it-tidalwave-util,it.tidalwave.util,Pair.Factory,0,29,0,0,0,4,0,3,0,3
TheseFoolishThings :: Roles :: Spring/it-tidalwave-util,it.tidalwave.util,Triple,106,118,24,12,0,8,20,12,2,12
TheseFoolishThings :: Roles :: Spring/it-tidalwave-util,it.tidalwave.util,TimeProvider.DefaultTimeProvider,0,5,0,0,0,2,0,2,0,2
TheseFoolishThings :: Roles :: Spring/it-tidalwave-util,it.tidalwave.util,TimeProvider,3,33,1,1,1,7,2,4,1,4
TheseFoolishThings :: Roles :: Spring/it-tidalwave-util,it.tidalwave.util,As.Defaults,0,5,0,0,0,1,0,1,0,1
TheseFoolishThings :: Roles :: Spring/it-tidalwave-util,it.tidalwave.util,Task.new Task() {...},10,0,0,0,2,0,2,0,2,0
TheseFoolishThings :: Roles :: Spring/it-tidalwave-util,it.tidalwave.util,StreamOperations.new Spliterators.AbstractSpliterator() {...},0,37,1,3,0,5,1,3,0,2
TheseFoolishThings :: Roles :: Spring/it-tidalwave-util,it.tidalwave.util,Task.new Task() {...},11,0,0,0,3,0,2,0,2,0
TheseFoolishThings :: Roles :: Spring/it-tidalwave-util,it.tidalwave.util,ConcurrentHashMapWithOptionals,0,24,0,2,0,3,0,5,0,4
TheseFoolishThings :: Roles :: Spring/it-tidalwave-util,it.tidalwave.util,AsException,0,11,0,0,0,4,0,2,0,2
TheseFoolishThings :: Roles :: Spring/it-tidalwave-util,it.tidalwave.util.impl,TypeHolder,3,0,0,0,1,0,1,0,1,0
TheseFoolishThings :: Roles :: Spring/it-tidalwave-util,it.tidalwave.util.impl,TypeSafeHashMultiMap,74,86,14,2,4,20,13,11,6,10
TheseFoolishThings :: Roles :: Spring/it-tidalwave-util,it.tidalwave.util.impl,ArrayListFinder,0,31,0,0,0,8,0,3,0,3
TheseFoolishThings :: Roles :: Spring/it-tidalwave-util,it.tidalwave.util.impl,TypeSafeHashMap,74,78,14,0,4,17,13,10,6,10
TheseFoolishThings :: Roles :: Spring/it-tidalwave-role,it.tidalwave.role.ui,MutableLocalizedDisplayable,13,0,0,0,3,0,3,0,3,0
TheseFoolishThings :: Roles :: Spring/it-tidalwave-role,it.tidalwave.role.ui,Selectable,3,0,0,0,1,0,1,0,1,0
TheseFoolishThings :: Roles :: Spring/it-tidalwave-role,it.tidalwave.role.ui,MutableIconProvider,3,0,0,0,1,0,1,0,1,0
TheseFoolishThings :: Roles :: Spring/it-tidalwave-role,it.tidalwave.role.ui,UserActionProvider.new UserActionProvider() {...},0,23,0,2,0,5,0,4,0,3
TheseFoolishThings :: Roles :: Spring/it-tidalwave-role,it.tidalwave.role.ui,Styleable,13,0,0,0,3,0,3,0,3,0
TheseFoolishThings :: Roles :: Spring/it-tidalwave-role,it.tidalwave.role.ui,UserAction,22,0,0,0,5,0,4,0,4,0
TheseFoolishThings :: Roles :: Spring/it-tidalwave-role,it.tidalwave.role.ui,IconProvider.new IconProvider() {...},17,0,0,0,3,0,2,0,2,0
TheseFoolishThings :: Roles :: Spring/it-tidalwave-role,it.tidalwave.role.ui,Presentable,23,3,0,0,4,1,3,1,3,1
TheseFoolishThings :: Roles :: Spring/it-tidalwave-role,it.tidalwave.role.ui,ActionProvider,3,0,0,0,1,0,1,0,1,0
TheseFoolishThings :: Roles :: Spring/it-tidalwave-role,it.tidalwave.role.ui,IconProvider,7,0,0,0,2,0,1,0,1,0
TheseFoolishThings :: Roles :: Spring/it-tidalwave-role,it.tidalwave.role.ui,MutableDisplayable,13,0,0,0,3,0,3,0,3,0
TheseFoolishThings :: Roles :: Spring/it-tidalwave-role,it.tidalwave.role.ui,UserActionProvider,0,15,0,0,0,5,0,3,0,3
TheseFoolishThings :: Roles :: Spring/it-tidalwave-role,it.tidalwave.role.ui,Visible,11,0,0,0,3,0,3,0,3,0
TheseFoolishThings :: Roles :: Spring/it-tidalwave-role,it.tidalwave.role.ui,PresentationModelFactory,5,3,0,0,1,1,1,1,1,1
TheseFoolishThings :: Roles :: Spring/it-tidalwave-role,it.tidalwave.role.ui,PresentationModel,35,37,0,0,7,7,4,5,4,5
TheseFoolishThings :: Roles :: Spring/it-tidalwave-role,it.tidalwave.role.ui,Displayable,27,20,0,0,5,4,6,3,6,3
TheseFoolishThings :: Roles :: Spring/it-tidalwave-role,it.tidalwave.role.ui,LocalizedDisplayable,3,0,0,0,1,0,1,0,1,0
TheseFoolishThings :: Roles :: Spring/it-tidalwave-role,it.tidalwave.role.ui,BoundProperty,255,0,18,0,17,0,36,0,27,0
TheseFoolishThings :: Roles :: Spring/it-tidalwave-role,it.tidalwave.role.ui,PresentationModelAggregate,50,0,2,0,5,0,7,0,6,0
TheseFoolishThings :: Roles :: Spring/it-tidalwave-role,it.tidalwave.role.io,TextWritable.new TextWritable() {...},8,0,0,0,2,0,2,0,2,0
TheseFoolishThings :: Roles :: Spring/it-tidalwave-role,it.tidalwave.role.io,BinaryReadable.new BinaryReadable() {...},8,0,0,0,2,0,2,0,2,0
TheseFoolishThings :: Roles :: Spring/it-tidalwave-role,it.tidalwave.role.io,BinaryReadable,7,0,0,0,2,0,1,0,1,0
TheseFoolishThings :: Roles :: Spring/it-tidalwave-role,it.tidalwave.role.io,Unmarshallable,3,0,0,0,1,0,1,0,1,0
TheseFoolishThings :: Roles :: Spring/it-tidalwave-role,it.tidalwave.role.io,BinaryWritable.new BinaryWritable() {...},8,0,0,0,2,0,2,0,2,0
TheseFoolishThings :: Roles :: Spring/it-tidalwave-role,it.tidalwave.role.io,TextReadable,7,0,0,0,2,0,1,0,1,0
TheseFoolishThings :: Roles :: Spring/it-tidalwave-role,it.tidalwave.role.io,Persistable,3,0,0,0,1,0,1,0,1,0
TheseFoolishThings :: Roles :: Spring/it-tidalwave-role,it.tidalwave.role.io,TextReadable.new TextReadable() {...},8,0,0,0,2,0,2,0,2,0
TheseFoolishThings :: Roles :: Spring/it-tidalwave-role,it.tidalwave.role.io,TextWritable,7,0,0,0,2,0,1,0,1,0
TheseFoolishThings :: Roles :: Spring/it-tidalwave-role,it.tidalwave.role.io,Marshallable,3,0,0,0,1,0,1,0,1,0
TheseFoolishThings :: Roles :: Spring/it-tidalwave-role,it.tidalwave.role.io,BinaryWritable,7,0,0,0,2,0,1,0,1,0
TheseFoolishThings :: Roles :: Spring/it-tidalwave-role,it.tidalwave.role.io.spi,PathTextWritable,27,0,0,0,8,0,3,0,3,0
TheseFoolishThings :: Roles :: Spring/it-tidalwave-role,it.tidalwave.role.io.spi,PathBinaryWritable,15,0,0,0,5,0,2,0,2,0
TheseFoolishThings :: Roles :: Spring/it-tidalwave-role,it.tidalwave.role.io.spi,FileTextWritable,19,0,2,0,2,0,3,0,2,0
TheseFoolishThings :: Roles :: Spring/it-tidalwave-role,it.tidalwave.role.io.spi,PathBinaryReadable,15,0,0,0,5,0,2,0,2,0
TheseFoolishThings :: Roles :: Spring/it-tidalwave-role,it.tidalwave.role.io.spi,FileTextReadable,19,0,2,0,2,0,3,0,2,0
TheseFoolishThings :: Roles :: Spring/it-tidalwave-role,it.tidalwave.role.io.spi,FileBinaryWritable,19,0,2,0,2,0,3,0,2,0
TheseFoolishThings :: Roles :: Spring/it-tidalwave-role,it.tidalwave.role.io.spi,PathTextReadable,20,0,0,0,7,0,3,0,3,0
TheseFoolishThings :: Roles :: Spring/it-tidalwave-role,it.tidalwave.role.io.spi,FileBinaryReadable,19,0,2,0,2,0,3,0,2,0
TheseFoolishThings :: Roles :: Spring/it-tidalwave-role,it.tidalwave.role.ui.function,AndFunction,35,0,4,0,7,0,5,0,3,0
TheseFoolishThings :: Roles :: Spring/it-tidalwave-role,it.tidalwave.role.ui.function,OrFunction,35,0,4,0,7,0,5,0,3,0
TheseFoolishThings :: Roles :: Spring/it-tidalwave-role,it.tidalwave.role.ui.function,NonEmptyFunction,39,0,4,0,8,0,6,0,4,0
TheseFoolishThings :: Roles :: Spring/it-tidalwave-role,it.tidalwave.role.ui.function,BoundFunctionSupport,134,0,2,0,9,0,19,0,18,0
TheseFoolishThings :: Roles :: Spring/it-tidalwave-role,it.tidalwave.role.ui.function,BooleanBoundFunctionSupport,40,0,2,0,8,0,3,0,2,0
TheseFoolishThings :: Roles :: Spring/it-tidalwave-role,it.tidalwave.role.ui.function,UnaryBoundFunctionSupport,35,0,0,0,10,0,4,0,4,0
TheseFoolishThings :: Roles :: Spring/it-tidalwave-role,it.tidalwave.role.ui.function,BooleanBoundFunctionSupport.new PropertyChangeListener() {...},30,0,0,0,5,0,2,0,2,0
TheseFoolishThings :: Roles :: Spring/it-tidalwave-role,it.tidalwave.role.ui.function,WeakCopyFunctionSupport,35,0,2,0,12,0,6,0,5,0
TheseFoolishThings :: Roles :: Spring/it-tidalwave-role,it.tidalwave.role.ui.function,CopyIfEmptyOrConform,23,0,4,0,4,0,5,0,3,0
TheseFoolishThings :: Roles :: Spring/it-tidalwave-role,it.tidalwave.role.spi,DefaultContextManager.new ThreadLocal() {...},0,10,0,0,0,2,0,2,0,2
TheseFoolishThings :: Roles :: Spring/it-tidalwave-role,it.tidalwave.role.spi,ContextSampler,0,52,1,1,0,9,1,5,0,5
TheseFoolishThings :: Roles :: Spring/it-tidalwave-role,it.tidalwave.role.spi,RoleManagerSupport,14,467,6,34,2,96,6,26,0,12
TheseFoolishThings :: Roles :: Spring/it-tidalwave-role,it.tidalwave.role.spi,DefaultContextManager,48,112,6,2,8,27,5,8,1,8
TheseFoolishThings :: Roles :: Spring/it-tidalwave-role,it.tidalwave.role.spi,DefaultContextManagerProvider,0,11,0,0,0,2,0,2,0,2
TheseFoolishThings :: Roles :: Spring/it-tidalwave-role,it.tidalwave.role.impl,DefaultSimpleComposite,17,11,1,1,0,2,2,2,1,2
TheseFoolishThings :: Roles :: Spring/it-tidalwave-role,it.tidalwave.role.impl,DefaultIdentifiable,32,0,2,0,3,0,4,0,3,0
TheseFoolishThings :: Roles :: Spring/it-tidalwave-role,it.tidalwave.role.impl,MapAggregate,57,0,0,0,12,0,6,0,6,0
TheseFoolishThings :: Roles :: Spring/it-tidalwave-role,it.tidalwave.role.ui.impl,DisplayableComparator,0,21,0,0,0,5,0,4,0,4
TheseFoolishThings :: Roles :: Spring/it-tidalwave-role,it.tidalwave.role.ui.impl,DefaultUserAction,121,0,4,0,14,0,17,0,15,0
TheseFoolishThings :: Roles :: Spring/it-tidalwave-role,it.tidalwave.role.ui.impl,DefaultPresentationModel.new As.NotFoundBehaviour() {...},1,35,1,3,1,7,1,3,0,2
TheseFoolishThings :: Roles :: Spring/it-tidalwave-role,it.tidalwave.role.ui.impl,DefaultMutableDisplayable,135,0,0,0,30,0,12,0,12,0
TheseFoolishThings :: Roles :: Spring/it-tidalwave-role,it.tidalwave.role.ui.impl,DefaultDisplayable,17,48,0,0,3,11,3,4,3,4
TheseFoolishThings :: Roles :: Spring/it-tidalwave-role,it.tidalwave.role.ui.impl,DefaultStyleable,36,0,0,0,8,0,4,0,4,0
TheseFoolishThings :: Roles :: Spring/it-tidalwave-role,it.tidalwave.role.ui.impl,DefaultPresentable,18,0,2,0,2,0,3,0,2,0
TheseFoolishThings :: Roles :: Spring/it-tidalwave-role,it.tidalwave.role.ui.impl,DefaultPresentationModel,174,56,7,1,18,9,23,5,19,5
TheseFoolishThings :: Roles :: Spring/it-tidalwave-role,it.tidalwave.role.ui.impl,AsDisplayableComparator,0,27,0,0,0,5,0,4,0,4
TheseFoolishThings :: Roles :: Spring/it-tidalwave-role,it.tidalwave.role.spi.impl,LogUtil,43,181,7,13,9,31,7,11,2,6
TheseFoolishThings :: Roles :: Spring/it-tidalwave-role,it.tidalwave.role.spi.impl,DatumAndRole,30,162,15,15,0,11,13,10,0,8
TheseFoolishThings :: Roles :: Spring/it-tidalwave-role,it.tidalwave.role.spi.impl,MultiMap,0,50,0,6,0,13,0,8,0,5
TheseFoolishThings :: Roles :: Spring/it-tidalwave-role,it.tidalwave.role,ContextManager.Locator,20,56,6,10,4,16,7,5,1,3
TheseFoolishThings :: Roles :: Spring/it-tidalwave-role,it.tidalwave.role,Sortable,7,0,0,0,2,0,1,0,1,0
TheseFoolishThings :: Roles :: Spring/it-tidalwave-role,it.tidalwave.role,ContextManager.Binder,0,51,0,4,0,9,0,4,0,2
TheseFoolishThings :: Roles :: Spring/it-tidalwave-role,it.tidalwave.role,StringRenderable,16,0,0,0,5,0,3,0,3,0
TheseFoolishThings :: Roles :: Spring/it-tidalwave-role,it.tidalwave.role,Identifiable,8,0,0,0,2,0,2,0,2,0
TheseFoolishThings :: Roles :: Spring/it-tidalwave-role,it.tidalwave.role,IdFactory,3,0,0,0,1,0,1,0,1,0
TheseFoolishThings :: Roles :: Spring/it-tidalwave-role,it.tidalwave.role,Sortable.new Sortable() {...},9,0,0,0,5,0,5,0,5,0
TheseFoolishThings :: Roles :: Spring/it-tidalwave-role,it.tidalwave.role,Composite.VisitorSupport,11,0,0,0,5,0,5,0,5,0
TheseFoolishThings :: Roles :: Spring/it-tidalwave-role,it.tidalwave.role,SimpleComposite,0,12,0,0,0,3,0,3,0,3
TheseFoolishThings :: Roles :: Spring/it-tidalwave-role,it.tidalwave.role,PlainTextRenderable,16,0,0,0,5,0,3,0,3,0
TheseFoolishThings :: Roles :: Spring/it-tidalwave-role,it.tidalwave.role,Aggregate,28,0,0,0,6,0,6,0,6,0
TheseFoolishThings :: Roles :: Spring/it-tidalwave-role,it.tidalwave.role,Composite.new Composite() {...},5,0,0,0,2,0,2,0,2,0
TheseFoolishThings :: Roles :: Spring/it-tidalwave-role,it.tidalwave.role,Removable,6,0,0,0,2,0,2,0,2,0
TheseFoolishThings :: Roles :: Spring/it-tidalwave-role,it.tidalwave.role,HtmlRenderable,3,0,0,0,1,0,1,0,1,0
TheseFoolishThings :: Roles :: Spring/it-tidalwave-role,it.tidalwave.role,ContextManager,35,41,0,0,6,7,5,5,5,5
TheseFoolishThings :: Roles :: Spring/it-tidalwave-role,it.tidalwave.role,Composite,7,0,0,0,2,0,1,0,1,0
TheseFoolishThings :: Roles :: Spring/it-tidalwave-role,it.tidalwave.role.ui.spi,DefaultUserActionProvider,0,10,0,0,0,3,0,3,0,3
TheseFoolishThings :: Roles :: Spring/it-tidalwave-role,it.tidalwave.role.ui.spi,SimpleCompositePresentable.SCPFinder.new Task() {...},0,52,0,0,0,8,0,6,0,6
TheseFoolishThings :: Roles :: Spring/it-tidalwave-role,it.tidalwave.role.ui.spi,SimpleCompositePresentable.new Task() {...},0,51,0,2,0,6,0,3,0,2
TheseFoolishThings :: Roles :: Spring/it-tidalwave-role,it.tidalwave.role.ui.spi,PresentationModelCollectors,73,0,0,0,11,0,9,0,9,0
TheseFoolishThings :: Roles :: Spring/it-tidalwave-role,it.tidalwave.role.ui.spi,SimpleCompositePresentable,0,81,0,4,0,18,0,8,0,6
TheseFoolishThings :: Roles :: Spring/it-tidalwave-role,it.tidalwave.role.ui.spi,MutableIconProviderSupport,27,0,0,0,9,0,5,0,5,0
TheseFoolishThings :: Roles :: Spring/it-tidalwave-role,it.tidalwave.role.ui.spi,DefaultPresentationModelFactory,0,9,0,0,0,2,0,2,0,2
TheseFoolishThings :: Roles :: Spring/it-tidalwave-role,it.tidalwave.role.ui.spi,ActionProviderSupport,10,0,0,0,3,0,3,0,3,0
TheseFoolishThings :: Roles :: Spring/it-tidalwave-role,it.tidalwave.role.ui.spi,SimpleCompositePresentable.SCPFinder,29,23,2,2,5,2,3,2,1,2
