@startuml
    set namespaceSeparator none
    hide empty fields
    hide empty methods

    class "<size:14>PersonFinderTestSupport\n<size:10>it.tidalwave.thesefoolishthings.examples.extendedfinderexample" as it.tidalwave.thesefoolishthings.examples.extendedfinderexample.PersonFinderTestSupport [[PersonFinderTestSupport.html]] {
        +PersonFinderTestSupport(Supplier<? extends PersonRegistry2>)
        +setup(): void
        +testAllPersons(): void
        +testAllPersonsSortedByFirstName(): void
        +testAllPersonsSortedByLastNameDescending(): void
        +testPersonRange(): void
        +testLastNameStartingWithB(): void
        +testLastNameStartingWithBSortedByFirstName(): void
        +testLastNameIsBerniniFirstResult(): void
    }

    center footer UMLDoclet 2.0.12, PlantUML 1.2020.16
@enduml
