@startuml
    namespace it.tidalwave.util.mock {

        class MockAsFactory [[MockAsFactory.html]] {
            {static} +mockWithAs(Class<T extends As>): T extends As
            {static} +mockWithAs(Class<T extends As>, Collection<Object>): T extends As
        }

        class MockSimpleOwnerRoleFactoryProvider [[MockSimpleOwnerRoleFactoryProvider.html]] {
            +createRoleFactory(Object): OwnerRoleFactory
        }

        class Mock [[Mock.html]]

        it.tidalwave.role.spi.OwnerRoleFactoryProvider <|.. MockSimpleOwnerRoleFactoryProvider
    }

    namespace it.tidalwave.role.spi {
        interface OwnerRoleFactoryProvider [[../../../../../apidocs/it/tidalwave/role/spi/OwnerRoleFactoryProvider.html]] {
            {static} +getInstance(): OwnerRoleFactoryProvider
            {abstract} +createRoleFactory(Object): OwnerRoleFactory
        }
    }

    center footer UMLDoclet 2.0.12, PlantUML 1.2020.16
@enduml
