@startuml
    set namespaceSeparator none
    hide empty fields
    hide empty methods

    class "<size:14>UserNotificationWithFeedbackTestHelper\n<size:10>it.tidalwave.util.ui" as it.tidalwave.util.ui.UserNotificationWithFeedbackTestHelper [[UserNotificationWithFeedbackTestHelper.html]] {
        {static} +notification(String, String): UserNotificationMatcher
        {static} +notificationWithFeedback(String, String): UserNotificationWithFeedbackMatcher
        {static} +confirm(): Answer<Void>
        {static} +cancel(): Answer<Void>
    }

    center footer UMLDoclet 2.0.12, PlantUML 1.2020.16
@enduml
