@startuml
    set namespaceSeparator none
    hide empty fields
    hide empty methods

    class "<size:14>SpringAsDelegateProvider\n<size:10>it.tidalwave.role.spring.spi" as it.tidalwave.role.spring.spi.SpringAsDelegateProvider [[SpringAsDelegateProvider.html]] {
        +createAsDelegate(Object): AsDelegate
    }

    interface "<size:14>AsDelegateProvider\n<size:10>it.tidalwave.util.spi" as it.tidalwave.util.spi.AsDelegateProvider [[../../../util/spi/AsDelegateProvider.html]] {
        {abstract} +createAsDelegate(Object): AsDelegate
    }

    it.tidalwave.util.spi.AsDelegateProvider <|.. it.tidalwave.role.spring.spi.SpringAsDelegateProvider

    center footer UMLDoclet 2.0.12, PlantUML 1.2020.16
@enduml
