<?xml version="1.0" encoding="UTF-8" standalone="no"?><svg xmlns="http://www.w3.org/2000/svg" xmlns:xlink="http://www.w3.org/1999/xlink" contentScriptType="application/ecmascript" contentStyleType="text/css" height="247px" preserveAspectRatio="none" style="width:404px;height:247px;" version="1.1" viewBox="0 0 404 247" width="404px" zoomAndPan="magnify"><defs><filter height="300%" id="f136lwshkydh7s" width="300%" x="-1" y="-1"><feGaussianBlur result="blurOut" stdDeviation="2.0"/><feColorMatrix in="blurOut" result="blurOut2" type="matrix" values="0 0 0 0 0 0 0 0 0 0 0 0 0 0 0 0 0 0 .4 0"/><feOffset dx="4.0" dy="4.0" in="blurOut2" result="blurOut3"/><feBlend in="SourceGraphic" in2="blurOut3" mode="normal"/></filter></defs><g><!--MD5=[01ea7521e17fff52947c1422da1cf2c9]
class it.tidalwave.role.ui.spi.SimpleCompositePresentable--><a href="SimpleCompositePresentable.html" target="_top" title="SimpleCompositePresentable.html" xlink:actuate="onRequest" xlink:href="SimpleCompositePresentable.html" xlink:show="new" xlink:title="SimpleCompositePresentable.html" xlink:type="simple"><rect codeLine="5" fill="#FEFECE" filter="url(#f136lwshkydh7s)" height="85.1309" id="it.tidalwave.role.ui.spi.SimpleCompositePresentable" style="stroke: #A80036; stroke-width: 1.5;" width="378" x="7" y="126"/><ellipse cx="91.75" cy="145.1328" fill="#ADD1B2" rx="11" ry="11" style="stroke: #A80036; stroke-width: 1.0;"/><path d="M94.2231,151.2759 Q93.6421,151.5747 93.0029,151.7241 Q92.3638,151.8735 91.6582,151.8735 Q89.1514,151.8735 87.8315,150.2217 Q86.5117,148.5698 86.5117,145.4487 Q86.5117,142.3193 87.8315,140.6675 Q89.1514,139.0156 91.6582,139.0156 Q92.3638,139.0156 93.0112,139.165 Q93.6587,139.3145 94.2231,139.6133 L94.2231,142.3359 Q93.5923,141.7549 92.9988,141.4851 Q92.4053,141.2153 91.7744,141.2153 Q90.4297,141.2153 89.7449,142.282 Q89.0601,143.3486 89.0601,145.4487 Q89.0601,147.5405 89.7449,148.6072 Q90.4297,149.6738 91.7744,149.6738 Q92.4053,149.6738 92.9988,149.4041 Q93.5923,149.1343 94.2231,148.5532 Z "/><text fill="#000000" font-family="sans-serif" font-size="14" lengthAdjust="spacingAndGlyphs" textLength="200" x="112.25" y="144.5352">SimpleCompositePresentable</text><text fill="#000000" font-family="sans-serif" font-size="10" lengthAdjust="spacingAndGlyphs" textLength="108" x="158.25" y="157.1563">it.tidalwave.role.ui.spi</text><line style="stroke: #A80036; stroke-width: 1.5;" x1="8" x2="384" y1="164.2656" y2="164.2656"/><ellipse cx="18" cy="175.2656" fill="#84BE84" rx="3" ry="3" style="stroke: #038048; stroke-width: 1.0;"/><text fill="#000000" font-family="sans-serif" font-size="11" lengthAdjust="spacingAndGlyphs" textLength="177" x="27" y="178.9004">SimpleCompositePresentable(As)</text><ellipse cx="18" cy="188.2207" fill="#84BE84" rx="3" ry="3" style="stroke: #038048; stroke-width: 1.0;"/><text fill="#000000" font-family="sans-serif" font-size="11" lengthAdjust="spacingAndGlyphs" textLength="322" x="27" y="191.8555">SimpleCompositePresentable(As, PresentationModelFactory)</text><ellipse cx="18" cy="201.1758" fill="#84BE84" rx="3" ry="3" style="stroke: #038048; stroke-width: 1.0;"/><text fill="#000000" font-family="sans-serif" font-size="11" lengthAdjust="spacingAndGlyphs" textLength="352" x="27" y="204.8105">createPresentationModel(Collection&lt;Object&gt;): PresentationModel</text></a><!--MD5=[54926f2b66bc141e2c7a16f5a7ddc88d]
class it.tidalwave.role.ui.Presentable--><a href="../Presentable.html" target="_top" title="../Presentable.html" xlink:actuate="onRequest" xlink:href="../Presentable.html" xlink:show="new" xlink:title="../Presentable.html" xlink:type="simple"><rect codeLine="11" fill="#FEFECE" filter="url(#f136lwshkydh7s)" height="59.2207" id="it.tidalwave.role.ui.Presentable" style="stroke: #A80036; stroke-width: 1.5;" width="378" x="7" y="7"/><ellipse cx="146.25" cy="26.1328" fill="#B4A7E5" rx="11" ry="11" style="stroke: #A80036; stroke-width: 1.0;"/><path d="M142.6777,22.3979 L142.6777,20.2397 L150.0571,20.2397 L150.0571,22.3979 L147.5918,22.3979 L147.5918,30.4746 L150.0571,30.4746 L150.0571,32.6328 L142.6777,32.6328 L142.6777,30.4746 L145.1431,30.4746 L145.1431,22.3979 Z "/><text fill="#000000" font-family="sans-serif" font-size="14" font-style="italic" lengthAdjust="spacingAndGlyphs" textLength="80" x="172.25" y="25.5352">Presentable</text><text fill="#000000" font-family="sans-serif" font-size="10" font-style="italic" lengthAdjust="spacingAndGlyphs" textLength="91" x="166.75" y="38.1563">it.tidalwave.role.ui</text><line style="stroke: #A80036; stroke-width: 1.5;" x1="8" x2="384" y1="45.2656" y2="45.2656"/><ellipse cx="18" cy="56.2656" fill="#84BE84" rx="3" ry="3" style="stroke: #038048; stroke-width: 1.0;"/><text fill="#000000" font-family="sans-serif" font-size="11" font-style="italic" lengthAdjust="spacingAndGlyphs" textLength="352" x="27" y="59.9004">createPresentationModel(Collection&lt;Object&gt;): PresentationModel</text></a><!--MD5=[3bfb159670b416af889ee71c37d52e8a]
reverse link it.tidalwave.role.ui.Presentable to it.tidalwave.role.ui.spi.SimpleCompositePresentable--><path codeLine="15" d="M196,86.235 C196,99.3112 196,113.2958 196,125.9566 " fill="none" id="it.tidalwave.role.ui.Presentable-backto-it.tidalwave.role.ui.spi.SimpleCompositePresentable" style="stroke: #A80036; stroke-width: 1.0; stroke-dasharray: 7.0,7.0;"/><polygon fill="none" points="189.0001,86.1234,196,66.1234,203.0001,86.1233,189.0001,86.1234" style="stroke: #A80036; stroke-width: 1.0;"/><text fill="#888888" font-family="sans-serif" font-size="10" lengthAdjust="spacingAndGlyphs" textLength="188" x="99" y="233.7988">UMLDoclet 2.0.12, PlantUML 1.2020.16</text><!--MD5=[e93e873cede73dc67d83d84e09d7adc7]
@startuml
    set namespaceSeparator none
    hide empty fields
    hide empty methods

    class "<size:14>SimpleCompositePresentable\n<size:10>it.tidalwave.role.ui.spi" as it.tidalwave.role.ui.spi.SimpleCompositePresentable [[SimpleCompositePresentable.html]] {
        +SimpleCompositePresentable(As)
        +SimpleCompositePresentable(As, PresentationModelFactory)
        +createPresentationModel(Collection<Object>): PresentationModel
    }

    interface "<size:14>Presentable\n<size:10>it.tidalwave.role.ui" as it.tidalwave.role.ui.Presentable [[../Presentable.html]] {
        {abstract} +createPresentationModel(Collection<Object>): PresentationModel
    }

    it.tidalwave.role.ui.Presentable <|.. it.tidalwave.role.ui.spi.SimpleCompositePresentable

    center footer UMLDoclet 2.0.12, PlantUML 1.2020.16
@enduml

PlantUML version 1.2020.16(Sun Aug 23 22:20:43 CEST 2020)
(APACHE source distribution)
Java Runtime: OpenJDK Runtime Environment
JVM: OpenJDK 64-Bit Server VM
Default Encoding: UTF-8
Language: en
Country: GB
--></g></svg>