<?xml version="1.0" encoding="UTF-8" standalone="no"?><svg xmlns="http://www.w3.org/2000/svg" xmlns:xlink="http://www.w3.org/1999/xlink" contentScriptType="application/ecmascript" contentStyleType="text/css" height="299px" preserveAspectRatio="none" style="width:482px;height:299px;" version="1.1" viewBox="0 0 482 299" width="482px" zoomAndPan="magnify"><defs><filter height="300%" id="f32xrmv83ukdd" width="300%" x="-1" y="-1"><feGaussianBlur result="blurOut" stdDeviation="2.0"/><feColorMatrix in="blurOut" result="blurOut2" type="matrix" values="0 0 0 0 0 0 0 0 0 0 0 0 0 0 0 0 0 0 .4 0"/><feOffset dx="4.0" dy="4.0" in="blurOut2" result="blurOut3"/><feBlend in="SourceGraphic" in2="blurOut3" mode="normal"/></filter></defs><g><!--MD5=[cad5cb0b581abb47f30e97381d3a22dc]
class it.tidalwave.role.ContextManager.RunnableWithException--><a href="ContextManager.RunnableWithException.html" target="_top" title="ContextManager.RunnableWithException.html" xlink:actuate="onRequest" xlink:href="ContextManager.RunnableWithException.html" xlink:show="new" xlink:title="ContextManager.RunnableWithException.html" xlink:type="simple"><rect codeLine="5" fill="#FEFECE" filter="url(#f32xrmv83ukdd)" height="59.2207" id="it.tidalwave.role.ContextManager.RunnableWithException" style="stroke: #A80036; stroke-width: 1.5;" width="440" x="15" y="204"/><ellipse cx="30" cy="223.1328" fill="#B4A7E5" rx="11" ry="11" style="stroke: #A80036; stroke-width: 1.0;"/><path d="M26.4277,219.3979 L26.4277,217.2397 L33.8071,217.2397 L33.8071,219.3979 L31.3418,219.3979 L31.3418,227.4746 L33.8071,227.4746 L33.8071,229.6328 L26.4277,229.6328 L26.4277,227.4746 L28.8931,227.4746 L28.8931,219.3979 Z "/><text fill="#000000" font-family="sans-serif" font-size="14" font-style="italic" lengthAdjust="spacingAndGlyphs" textLength="282" x="44" y="222.5352">ContextManager.RunnableWithException</text><text fill="#000000" font-family="sans-serif" font-size="10" font-style="italic" lengthAdjust="spacingAndGlyphs" textLength="79" x="145.5" y="235.1563">it.tidalwave.role</text><rect fill="#FFFFFF" height="16.1328" style="stroke: #000000; stroke-width: 1.0; stroke-dasharray: 2.0,2.0;" width="124" x="334" y="201"/><text fill="#000000" font-family="sans-serif" font-size="12" font-style="italic" lengthAdjust="spacingAndGlyphs" textLength="122" x="335" y="213.6016">E extends Throwable</text><line style="stroke: #A80036; stroke-width: 1.5;" x1="16" x2="454" y1="242.2656" y2="242.2656"/><ellipse cx="26" cy="253.2656" fill="#84BE84" rx="3" ry="3" style="stroke: #038048; stroke-width: 1.0;"/><text fill="#000000" font-family="sans-serif" font-size="11" font-style="italic" lengthAdjust="spacingAndGlyphs" textLength="56" x="35" y="256.9004">run(): void</text></a><!--MD5=[1cffb8c88bcf61fc476fe06494225e45]
class it.tidalwave.role.ContextManager--><a href="ContextManager.html" target="_top" title="ContextManager.html" xlink:actuate="onRequest" xlink:href="ContextManager.html" xlink:show="new" xlink:title="ContextManager.html" xlink:type="simple"><rect codeLine="9" fill="#FEFECE" filter="url(#f32xrmv83ukdd)" height="136.9512" id="it.tidalwave.role.ContextManager" style="stroke: #A80036; stroke-width: 1.5;" width="456" x="7" y="7"/><ellipse cx="173.25" cy="26.1328" fill="#B4A7E5" rx="11" ry="11" style="stroke: #A80036; stroke-width: 1.0;"/><path d="M169.6777,22.3979 L169.6777,20.2397 L177.0571,20.2397 L177.0571,22.3979 L174.5918,22.3979 L174.5918,30.4746 L177.0571,30.4746 L177.0571,32.6328 L169.6777,32.6328 L169.6777,30.4746 L172.1431,30.4746 L172.1431,22.3979 Z "/><text fill="#000000" font-family="sans-serif" font-size="14" font-style="italic" lengthAdjust="spacingAndGlyphs" textLength="115" x="193.75" y="25.5352">ContextManager</text><text fill="#000000" font-family="sans-serif" font-size="10" font-style="italic" lengthAdjust="spacingAndGlyphs" textLength="79" x="211.75" y="38.1563">it.tidalwave.role</text><line style="stroke: #A80036; stroke-width: 1.5;" x1="8" x2="462" y1="45.2656" y2="45.2656"/><ellipse cx="18" cy="56.2656" fill="#84BE84" rx="3" ry="3" style="stroke: #038048; stroke-width: 1.0;"/><text fill="#000000" font-family="sans-serif" font-size="11" font-style="italic" lengthAdjust="spacingAndGlyphs" textLength="152" x="27" y="59.9004">getContexts(): List&lt;Object&gt;</text><ellipse cx="18" cy="69.2207" fill="#84BE84" rx="3" ry="3" style="stroke: #038048; stroke-width: 1.0;"/><text fill="#000000" font-family="sans-serif" font-size="11" font-style="italic" lengthAdjust="spacingAndGlyphs" textLength="178" x="27" y="72.8555">findContextOfType(Class&lt;T&gt;): T</text><ellipse cx="18" cy="82.1758" fill="#84BE84" rx="3" ry="3" style="stroke: #038048; stroke-width: 1.0;"/><text fill="#000000" font-family="sans-serif" font-size="11" font-style="italic" lengthAdjust="spacingAndGlyphs" textLength="169" x="27" y="85.8105">addGlobalContext(Object): void</text><ellipse cx="18" cy="95.1309" fill="#84BE84" rx="3" ry="3" style="stroke: #038048; stroke-width: 1.0;"/><text fill="#000000" font-family="sans-serif" font-size="11" font-style="italic" lengthAdjust="spacingAndGlyphs" textLength="189" x="27" y="98.7656">removeGlobalContext(Object): void</text><ellipse cx="18" cy="108.0859" fill="#84BE84" rx="3" ry="3" style="stroke: #038048; stroke-width: 1.0;"/><text fill="#000000" font-family="sans-serif" font-size="11" font-style="italic" lengthAdjust="spacingAndGlyphs" textLength="163" x="27" y="111.7207">addLocalContext(Object): void</text><ellipse cx="18" cy="121.041" fill="#84BE84" rx="3" ry="3" style="stroke: #038048; stroke-width: 1.0;"/><text fill="#000000" font-family="sans-serif" font-size="11" font-style="italic" lengthAdjust="spacingAndGlyphs" textLength="183" x="27" y="124.6758">removeLocalContext(Object): void</text><ellipse cx="18" cy="133.9961" fill="#84BE84" rx="3" ry="3" style="stroke: #038048; stroke-width: 1.0;"/><text fill="#000000" font-family="sans-serif" font-size="11" font-style="italic" lengthAdjust="spacingAndGlyphs" textLength="430" x="27" y="137.6309">runEWithContexts(SupplierWithException&lt;T, E extends Throwable&gt;, Object...): T</text></a><!--MD5=[4c3c172d33f55594c5cbd13dfd2e5b8a]
reverse link it.tidalwave.role.ContextManager to it.tidalwave.role.ContextManager.RunnableWithException--><path codeLine="19" d="M235,159.5309 C235,175.3744 235,190.9469 235,203.6857 " fill="none" id="it.tidalwave.role.ContextManager-backto-it.tidalwave.role.ContextManager.RunnableWithException" style="stroke: #A80036; stroke-width: 1.0;"/><ellipse cx="235.0001" cy="152.3415" fill="#FFFFFF" rx="8" ry="8" style="stroke: #A80036; stroke-width: 1.0;"/><line style="stroke: #A80036; stroke-width: 1.0;" x1="235.0002" x2="235" y1="160.3415" y2="144.3415"/><line style="stroke: #A80036; stroke-width: 1.0;" x1="227.0001" x2="243.0001" y1="152.3416" y2="152.3414"/><text fill="#888888" font-family="sans-serif" font-size="10" lengthAdjust="spacingAndGlyphs" textLength="188" x="138" y="285.8887">UMLDoclet 2.0.12, PlantUML 1.2020.16</text><!--MD5=[fcdf98bdb91a7a346eec7d0399516e15]
@startuml
    set namespaceSeparator none
    hide empty fields
    hide empty methods

    interface "<size:14>ContextManager.RunnableWithException\n<size:10>it.tidalwave.role" as it.tidalwave.role.ContextManager.RunnableWithException<E extends Throwable> [[ContextManager.RunnableWithException.html]] {
        {abstract} +run(): void
    }

    interface "<size:14>ContextManager\n<size:10>it.tidalwave.role" as it.tidalwave.role.ContextManager [[ContextManager.html]] {
        {abstract} +getContexts(): List<Object>
        {abstract} +findContextOfType(Class<T>): T
        {abstract} +addGlobalContext(Object): void
        {abstract} +removeGlobalContext(Object): void
        {abstract} +addLocalContext(Object): void
        {abstract} +removeLocalContext(Object): void
        {abstract} +runEWithContexts(SupplierWithException<T, E extends Throwable>, Object...): T
    }

    it.tidalwave.role.ContextManager +- - it.tidalwave.role.ContextManager.RunnableWithException

    center footer UMLDoclet 2.0.12, PlantUML 1.2020.16
@enduml

PlantUML version 1.2020.16(Sun Aug 23 22:20:43 CEST 2020)
(APACHE source distribution)
Java Runtime: OpenJDK Runtime Environment
JVM: OpenJDK 64-Bit Server VM
Default Encoding: UTF-8
Language: en
Country: GB
--></g></svg>