@startuml
    set namespaceSeparator none
    hide empty fields
    hide empty methods

    interface "<size:14>Removable\n<size:10>it.tidalwave.role" as it.tidalwave.role.Removable [[Removable.html]] {
        {static} +_Removable_: Class<Removable>
        {static} +DEFAULT: Removable
        {abstract} +remove(): void
    }

    center footer UMLDoclet 2.0.12, PlantUML 1.2020.16
@enduml
