<?xml version="1.0" encoding="UTF-8" standalone="no"?><svg xmlns="http://www.w3.org/2000/svg" xmlns:xlink="http://www.w3.org/1999/xlink" contentScriptType="application/ecmascript" contentStyleType="text/css" height="241px" preserveAspectRatio="none" style="width:273px;height:241px;" version="1.1" viewBox="0 0 273 241" width="273px" zoomAndPan="magnify"><defs><filter height="300%" id="fq7k9fet98y4n" width="300%" x="-1" y="-1"><feGaussianBlur result="blurOut" stdDeviation="2.0"/><feColorMatrix in="blurOut" result="blurOut2" type="matrix" values="0 0 0 0 0 0 0 0 0 0 0 0 0 0 0 0 0 0 .4 0"/><feOffset dx="4.0" dy="4.0" in="blurOut2" result="blurOut3"/><feBlend in="SourceGraphic" in2="blurOut3" mode="normal"/></filter></defs><g><!--MD5=[5e11b9670f38e388e2ea5fedb9214007]
cluster it.tidalwave.dci.annotation--><polygon fill="#FFFFFF" filter="url(#fq7k9fet98y4n)" points="16,6,206,6,213,28.0986,251,28.0986,251,213,16,213,16,6" style="stroke: #000000; stroke-width: 1.5;"/><line style="stroke: #000000; stroke-width: 1.5;" x1="16" x2="213" y1="28.0986" y2="28.0986"/><text fill="#000000" font-family="sans-serif" font-size="14" font-weight="bold" lengthAdjust="spacingAndGlyphs" textLength="184" x="20" y="21.1318">it.tidalwave.dci.annotation</text><!--MD5=[394d6b3ebf5afb29891ea4b302132b0a]
class it.tidalwave.dci.annotation.DciRole--><a href="DciRole.html" target="_top" title="DciRole.html" xlink:actuate="onRequest" xlink:href="DciRole.html" xlink:show="new" xlink:title="DciRole.html" xlink:type="simple"><rect codeLine="3" fill="#FEFECE" filter="url(#fq7k9fet98y4n)" height="48" id="it.tidalwave.dci.annotation.DciRole" style="stroke: #A80036; stroke-width: 1.5;" width="76" x="159" y="41"/><ellipse cx="174" cy="57" fill="#E3664A" rx="11" ry="11" style="stroke: #A80036; stroke-width: 1.0;"/><path d="M178.875,55.7344 Q178.875,58.2031 178.1875,59.6719 Q177.5,61.1406 176.3438,61.1406 Q175.1563,61.1406 175.1563,59.8281 L175.1563,59.7656 L175.1719,59.4375 L175.125,59.4375 Q174.8125,60.2188 174.2813,60.6875 Q173.7656,61.1406 173.1719,61.1406 Q172.2813,61.1406 171.7813,60.3125 Q171.2969,59.4688 171.2969,57.9375 Q171.2969,56.6094 171.7031,55.4219 Q172.1094,54.2344 172.7969,53.5469 Q173.4844,52.8594 174.3438,52.8594 Q174.8906,52.8594 175.2344,53.2188 Q175.5938,53.5781 175.7031,54.2969 L175.75,54.2969 L176.0156,53.0469 L177.1406,53.0469 L176.3281,57.25 Q175.9844,59 175.9844,59.5625 Q175.9844,59.8438 176.0625,59.9844 Q176.1563,60.125 176.3906,60.125 Q177.0156,60.125 177.3906,58.9375 Q177.7813,57.7344 177.7813,55.75 Q177.7813,53.5 176.8906,52.125 Q176.0156,50.7344 174.5625,50.7344 Q173.3281,50.7344 172.4063,51.6406 Q171.4844,52.5313 170.9844,54.1406 Q170.5,55.75 170.5,57.7344 Q170.5,60.2969 171.4375,61.7969 Q172.3906,63.2813 174.0156,63.2813 Q174.7969,63.2813 175.5156,62.9844 Q176.2344,62.7031 177.0781,61.9688 L177.6719,62.7813 Q176.7188,63.6094 175.8125,63.9688 Q174.9219,64.3438 173.9375,64.3438 Q172.5625,64.3438 171.5156,63.5313 Q170.4844,62.7344 169.9219,61.2188 Q169.3594,59.7031 169.3594,57.7344 Q169.3594,55.3594 170,53.5313 Q170.6406,51.6875 171.8281,50.6875 Q173.0156,49.6875 174.5781,49.6875 Q175.8906,49.6875 176.8594,50.4375 Q177.8281,51.1875 178.3438,52.5625 Q178.875,53.9375 178.875,55.7344 Z M175.2656,55.4844 Q175.2656,53.875 174.3594,53.875 Q173.8594,53.875 173.4531,54.4531 Q173.0469,55.0156 172.8125,55.9688 Q172.5938,56.9219 172.5938,57.9219 Q172.5938,60.0938 173.3594,60.0938 Q173.9531,60.0938 174.375,59.375 Q174.7969,58.6563 175.0313,57.3594 Q175.2656,56.0625 175.2656,55.4844 Z "/><text fill="#000000" font-family="sans-serif" font-size="12" lengthAdjust="spacingAndGlyphs" textLength="44" x="188" y="61.3564">DciRole</text><line style="stroke: #A80036; stroke-width: 1.5;" x1="160" x2="234" y1="73" y2="73"/><line style="stroke: #A80036; stroke-width: 1.5;" x1="160" x2="234" y1="81" y2="81"/></a><!--MD5=[b9232632a6b1657c6eae5effab8da929]
class it.tidalwave.dci.annotation.DciRole.NoContext--><a href="DciRole.NoContext.html" target="_top" title="DciRole.NoContext.html" xlink:actuate="onRequest" xlink:href="DciRole.NoContext.html" xlink:show="new" xlink:title="DciRole.NoContext.html" xlink:type="simple"><rect codeLine="5" fill="#FEFECE" filter="url(#fq7k9fet98y4n)" height="48" id="it.tidalwave.dci.annotation.DciRole.NoContext" style="stroke: #A80036; stroke-width: 1.5;" width="136" x="99" y="149"/><ellipse cx="114" cy="165" fill="#ADD1B2" rx="11" ry="11" style="stroke: #A80036; stroke-width: 1.0;"/><path d="M111.9063,164.8438 Q111.9063,166.7188 112.4844,167.7344 Q113.0625,168.7344 114.2188,168.7344 Q115.5625,168.7344 116.2188,166.7188 L118.4844,167.1406 Q117.375,170.6719 114.2031,170.6719 Q111.8594,170.6719 110.6406,169.1875 Q109.4219,167.7031 109.4219,164.8438 Q109.4219,159.125 114.125,159.125 Q115.6719,159.125 116.7031,159.9375 Q117.75,160.75 118.25,162.3594 L115.9844,162.9063 Q115.75,162.0313 115.2656,161.5469 Q114.7813,161.0469 114.1563,161.0469 Q111.9063,161.0469 111.9063,164.8438 Z "/><text fill="#000000" font-family="sans-serif" font-size="12" lengthAdjust="spacingAndGlyphs" textLength="104" x="128" y="169.3564">DciRole.NoContext</text><line style="stroke: #A80036; stroke-width: 1.5;" x1="100" x2="234" y1="181" y2="181"/><line style="stroke: #A80036; stroke-width: 1.5;" x1="100" x2="234" y1="189" y2="189"/></a><!--MD5=[b429921e9968af36bb0badaab7b32fa2]
class it.tidalwave.dci.annotation.DciContext--><a href="DciContext.html" target="_top" title="DciContext.html" xlink:actuate="onRequest" xlink:href="DciContext.html" xlink:show="new" xlink:title="DciContext.html" xlink:type="simple"><rect codeLine="7" fill="#FEFECE" filter="url(#fq7k9fet98y4n)" height="48" id="it.tidalwave.dci.annotation.DciContext" style="stroke: #A80036; stroke-width: 1.5;" width="91" x="32.5" y="41"/><ellipse cx="47.5" cy="57" fill="#E3664A" rx="11" ry="11" style="stroke: #A80036; stroke-width: 1.0;"/><path d="M52.375,55.7344 Q52.375,58.2031 51.6875,59.6719 Q51,61.1406 49.8438,61.1406 Q48.6563,61.1406 48.6563,59.8281 L48.6563,59.7656 L48.6719,59.4375 L48.625,59.4375 Q48.3125,60.2188 47.7813,60.6875 Q47.2656,61.1406 46.6719,61.1406 Q45.7813,61.1406 45.2813,60.3125 Q44.7969,59.4688 44.7969,57.9375 Q44.7969,56.6094 45.2031,55.4219 Q45.6094,54.2344 46.2969,53.5469 Q46.9844,52.8594 47.8438,52.8594 Q48.3906,52.8594 48.7344,53.2188 Q49.0938,53.5781 49.2031,54.2969 L49.25,54.2969 L49.5156,53.0469 L50.6406,53.0469 L49.8281,57.25 Q49.4844,59 49.4844,59.5625 Q49.4844,59.8438 49.5625,59.9844 Q49.6563,60.125 49.8906,60.125 Q50.5156,60.125 50.8906,58.9375 Q51.2813,57.7344 51.2813,55.75 Q51.2813,53.5 50.3906,52.125 Q49.5156,50.7344 48.0625,50.7344 Q46.8281,50.7344 45.9063,51.6406 Q44.9844,52.5313 44.4844,54.1406 Q44,55.75 44,57.7344 Q44,60.2969 44.9375,61.7969 Q45.8906,63.2813 47.5156,63.2813 Q48.2969,63.2813 49.0156,62.9844 Q49.7344,62.7031 50.5781,61.9688 L51.1719,62.7813 Q50.2188,63.6094 49.3125,63.9688 Q48.4219,64.3438 47.4375,64.3438 Q46.0625,64.3438 45.0156,63.5313 Q43.9844,62.7344 43.4219,61.2188 Q42.8594,59.7031 42.8594,57.7344 Q42.8594,55.3594 43.5,53.5313 Q44.1406,51.6875 45.3281,50.6875 Q46.5156,49.6875 48.0781,49.6875 Q49.3906,49.6875 50.3594,50.4375 Q51.3281,51.1875 51.8438,52.5625 Q52.375,53.9375 52.375,55.7344 Z M48.7656,55.4844 Q48.7656,53.875 47.8594,53.875 Q47.3594,53.875 46.9531,54.4531 Q46.5469,55.0156 46.3125,55.9688 Q46.0938,56.9219 46.0938,57.9219 Q46.0938,60.0938 46.8594,60.0938 Q47.4531,60.0938 47.875,59.375 Q48.2969,58.6563 48.5313,57.3594 Q48.7656,56.0625 48.7656,55.4844 Z "/><text fill="#000000" font-family="sans-serif" font-size="12" lengthAdjust="spacingAndGlyphs" textLength="59" x="61.5" y="61.3564">DciContext</text><line style="stroke: #A80036; stroke-width: 1.5;" x1="33.5" x2="122.5" y1="73" y2="73"/><line style="stroke: #A80036; stroke-width: 1.5;" x1="33.5" x2="122.5" y1="81" y2="81"/></a><!--MD5=[7d9fcb98389f6ffdce63b793cc661ca0]
reverse link it.tidalwave.dci.annotation.DciRole to it.tidalwave.dci.annotation.DciRole.NoContext--><path codeLine="9" d="M186.32,103.75 C182.07,118.74 177.33,135.51 173.6,148.68 " fill="none" id="it.tidalwave.dci.annotation.DciRole-backto-it.tidalwave.dci.annotation.DciRole.NoContext" style="stroke: #A80036; stroke-width: 1.0;"/><ellipse cx="188.3124" cy="96.6979" fill="#FFFFFF" rx="8" ry="8" style="stroke: #A80036; stroke-width: 1.0;"/><line style="stroke: #A80036; stroke-width: 1.0;" x1="186.1347" x2="190.49" y1="104.3958" y2="89"/><line style="stroke: #A80036; stroke-width: 1.0;" x1="180.6144" x2="196.0103" y1="94.5203" y2="98.8756"/><text fill="#888888" font-family="sans-serif" font-size="10" lengthAdjust="spacingAndGlyphs" textLength="190" x="32.5" y="228.3799">UMLDoclet 2.0.12, PlantUML 1.2020.16</text><!--MD5=[a6a53dae51565629336f56e125702ccc]
@startuml
    namespace it.tidalwave.dci.annotation {

        annotation DciRole [[DciRole.html]]

        class it.tidalwave.dci.annotation.DciRole.NoContext [[DciRole.NoContext.html]]

        annotation DciContext [[DciContext.html]]

        DciRole +- - it.tidalwave.dci.annotation.DciRole.NoContext
    }

    center footer UMLDoclet 2.0.12, PlantUML 1.2020.16
@enduml

PlantUML version 1.2020.16(Sun Aug 23 22:20:43 CEST 2020)
(APACHE source distribution)
Java Runtime: OpenJDK Runtime Environment
JVM: OpenJDK 64-Bit Server VM
Default Encoding: UTF-8
Language: en
Country: US
--></g></svg>