@startuml
    set namespaceSeparator none
    hide empty fields
    hide empty methods

    class "<size:14>PersonFinderImpl2b\n<size:10>it.tidalwave.thesefoolishthings.examples.extendedfinderexample" as it.tidalwave.thesefoolishthings.examples.extendedfinderexample.PersonFinderImpl2b [[PersonFinderImpl2b.html]] {
        +PersonFinderImpl2b(List<Person>)
        +PersonFinderImpl2b(PersonFinderImpl2b, Object)
        +withFirstName(String): PersonFinder
        +withLastName(String): PersonFinder
        #computeResults(): List<Person>
    }

    class "<size:14>HierarchicFinderSupport\n<size:10>it.tidalwave.util.spi" as it.tidalwave.util.spi.HierarchicFinderSupport<Person, PersonFinder> [[../../../util/spi/HierarchicFinderSupport.html]]
    interface "<size:14>PersonFinder\n<size:10>it.tidalwave.thesefoolishthings.examples.extendedfinderexample" as it.tidalwave.thesefoolishthings.examples.extendedfinderexample.PersonFinder [[PersonFinder.html]] {
        {abstract} +withFirstName(String): PersonFinder
        {abstract} +withLastName(String): PersonFinder
    }

    it.tidalwave.util.spi.HierarchicFinderSupport <|-- it.tidalwave.thesefoolishthings.examples.extendedfinderexample.PersonFinderImpl2b
    it.tidalwave.thesefoolishthings.examples.extendedfinderexample.PersonFinder <|.. it.tidalwave.thesefoolishthings.examples.extendedfinderexample.PersonFinderImpl2b

    center footer UMLDoclet 2.0.12, PlantUML 1.2020.16
@enduml
