<?xml version="1.0" encoding="UTF-8" standalone="no"?><svg xmlns="http://www.w3.org/2000/svg" xmlns:xlink="http://www.w3.org/1999/xlink" contentScriptType="application/ecmascript" contentStyleType="text/css" height="252px" preserveAspectRatio="none" style="width:1223px;height:252px;" version="1.1" viewBox="0 0 1223 252" width="1223px" zoomAndPan="magnify"><defs><filter height="300%" id="f1vpr91gir8ig7" width="300%" x="-1" y="-1"><feGaussianBlur result="blurOut" stdDeviation="2.0"/><feColorMatrix in="blurOut" result="blurOut2" type="matrix" values="0 0 0 0 0 0 0 0 0 0 0 0 0 0 0 0 0 0 .4 0"/><feOffset dx="4.0" dy="4.0" in="blurOut2" result="blurOut3"/><feBlend in="SourceGraphic" in2="blurOut3" mode="normal"/></filter></defs><g><!--MD5=[5a45adc290434634f44e7efc10620d44]
cluster it.tidalwave.northernwind.frontend.filesystem.basic--><polygon fill="#FFFFFF" filter="url(#f1vpr91gir8ig7)" points="16,127,389,127,396,149.4883,1201,149.4883,1201,223,16,223,16,127" style="stroke: #000000; stroke-width: 1.5;"/><line style="stroke: #000000; stroke-width: 1.5;" x1="16" x2="396" y1="149.4883" y2="149.4883"/><text fill="#000000" font-family="sans-serif" font-size="14" font-weight="bold" lengthAdjust="spacingAndGlyphs" textLength="367" x="20" y="142.5352">it.tidalwave.northernwind.frontend.filesystem.basic</text><!--MD5=[739e9bb822fe15eb97bc3207575fcd8d]
cluster it.tidalwave.northernwind.core.model--><polygon fill="#FFFFFF" filter="url(#f1vpr91gir8ig7)" points="689,6,959,6,966,28.4883,969,28.4883,969,102,689,102,689,6" style="stroke: #000000; stroke-width: 1.5;"/><line style="stroke: #000000; stroke-width: 1.5;" x1="689" x2="966" y1="28.4883" y2="28.4883"/><text fill="#000000" font-family="sans-serif" font-size="14" font-weight="bold" lengthAdjust="spacingAndGlyphs" textLength="264" x="693" y="21.5352">it.tidalwave.northernwind.core.model</text><!--MD5=[3b56ca121c01ddcf34832d010aed8056]
class it.tidalwave.northernwind.frontend.filesystem.basic.LocalFileSystemProvider--><a href="LocalFileSystemProvider.html" target="_top" title="LocalFileSystemProvider.html" xlink:actuate="onRequest" xlink:href="LocalFileSystemProvider.html" xlink:show="new" xlink:title="LocalFileSystemProvider.html" xlink:type="simple"><rect codeLine="3" fill="#FEFECE" filter="url(#f1vpr91gir8ig7)" height="60.9551" id="it.tidalwave.northernwind.frontend.filesystem.basic.LocalFileSystemProvider" style="stroke: #A80036; stroke-width: 1.5;" width="219" x="973.5" y="154"/><ellipse cx="1011.45" cy="170" fill="#ADD1B2" rx="11" ry="11" style="stroke: #A80036; stroke-width: 1.0;"/><path d="M1013.9231,176.1431 Q1013.3421,176.4419 1012.7029,176.5913 Q1012.0638,176.7407 1011.3582,176.7407 Q1008.8514,176.7407 1007.5315,175.0889 Q1006.2117,173.437 1006.2117,170.3159 Q1006.2117,167.1865 1007.5315,165.5347 Q1008.8514,163.8828 1011.3582,163.8828 Q1012.0638,163.8828 1012.7112,164.0322 Q1013.3587,164.1816 1013.9231,164.4805 L1013.9231,167.2031 Q1013.2923,166.6221 1012.6988,166.3523 Q1012.1053,166.0825 1011.4744,166.0825 Q1010.1297,166.0825 1009.4449,167.1492 Q1008.7601,168.2158 1008.7601,170.3159 Q1008.7601,172.4077 1009.4449,173.4744 Q1010.1297,174.541 1011.4744,174.541 Q1012.1053,174.541 1012.6988,174.2712 Q1013.2923,174.0015 1013.9231,173.4204 Z "/><text fill="#000000" font-family="sans-serif" font-size="12" lengthAdjust="spacingAndGlyphs" textLength="136" x="1030.55" y="174.5352">LocalFileSystemProvider</text><line style="stroke: #A80036; stroke-width: 1.5;" x1="974.5" x2="1191.5" y1="186" y2="186"/><line style="stroke: #A80036; stroke-width: 1.5;" x1="974.5" x2="1191.5" y1="194" y2="194"/><ellipse cx="984.5" cy="205" fill="#84BE84" rx="3" ry="3" style="stroke: #038048; stroke-width: 1.0;"/><text fill="#000000" font-family="sans-serif" font-size="11" lengthAdjust="spacingAndGlyphs" textLength="193" x="993.5" y="208.6348">getFileSystem(): ResourceFileSystem</text></a><!--MD5=[11265b99746f5a916b16c74122786e59]
class it.tidalwave.northernwind.frontend.filesystem.basic.LocalCopyFileSystemProvider--><a href="LocalCopyFileSystemProvider.html" target="_top" title="LocalCopyFileSystemProvider.html" xlink:actuate="onRequest" xlink:href="LocalCopyFileSystemProvider.html" xlink:show="new" xlink:title="LocalCopyFileSystemProvider.html" xlink:type="simple"><rect codeLine="7" fill="#FEFECE" filter="url(#f1vpr91gir8ig7)" height="60.9551" id="it.tidalwave.northernwind.frontend.filesystem.basic.LocalCopyFileSystemProvider" style="stroke: #A80036; stroke-width: 1.5;" width="219" x="719.5" y="154"/><ellipse cx="744.4" cy="170" fill="#ADD1B2" rx="11" ry="11" style="stroke: #A80036; stroke-width: 1.0;"/><path d="M746.8731,176.1431 Q746.2921,176.4419 745.6529,176.5913 Q745.0138,176.7407 744.3082,176.7407 Q741.8014,176.7407 740.4815,175.0889 Q739.1617,173.437 739.1617,170.3159 Q739.1617,167.1865 740.4815,165.5347 Q741.8014,163.8828 744.3082,163.8828 Q745.0138,163.8828 745.6612,164.0322 Q746.3087,164.1816 746.8731,164.4805 L746.8731,167.2031 Q746.2423,166.6221 745.6488,166.3523 Q745.0553,166.0825 744.4244,166.0825 Q743.0797,166.0825 742.3949,167.1492 Q741.7101,168.2158 741.7101,170.3159 Q741.7101,172.4077 742.3949,173.4744 Q743.0797,174.541 744.4244,174.541 Q745.0553,174.541 745.6488,174.2712 Q746.2423,174.0015 746.8731,173.4204 Z "/><text fill="#000000" font-family="sans-serif" font-size="12" lengthAdjust="spacingAndGlyphs" textLength="165" x="760.6" y="174.5352">LocalCopyFileSystemProvider</text><line style="stroke: #A80036; stroke-width: 1.5;" x1="720.5" x2="937.5" y1="186" y2="186"/><line style="stroke: #A80036; stroke-width: 1.5;" x1="720.5" x2="937.5" y1="194" y2="194"/><ellipse cx="730.5" cy="205" fill="#84BE84" rx="3" ry="3" style="stroke: #038048; stroke-width: 1.0;"/><text fill="#000000" font-family="sans-serif" font-size="11" lengthAdjust="spacingAndGlyphs" textLength="193" x="739.5" y="208.6348">getFileSystem(): ResourceFileSystem</text></a><!--MD5=[0b3b3632f160eb0835184ebff7004abb]
class it.tidalwave.northernwind.frontend.filesystem.basic.ZipFileSystemProvider--><a href="ZipFileSystemProvider.html" target="_top" title="ZipFileSystemProvider.html" xlink:actuate="onRequest" xlink:href="ZipFileSystemProvider.html" xlink:show="new" xlink:title="ZipFileSystemProvider.html" xlink:type="simple"><rect codeLine="11" fill="#FEFECE" filter="url(#f1vpr91gir8ig7)" height="60.9551" id="it.tidalwave.northernwind.frontend.filesystem.basic.ZipFileSystemProvider" style="stroke: #A80036; stroke-width: 1.5;" width="219" x="465.5" y="154"/><ellipse cx="508.4" cy="170" fill="#ADD1B2" rx="11" ry="11" style="stroke: #A80036; stroke-width: 1.0;"/><path d="M510.8731,176.1431 Q510.2921,176.4419 509.6529,176.5913 Q509.0138,176.7407 508.3082,176.7407 Q505.8014,176.7407 504.4815,175.0889 Q503.1617,173.437 503.1617,170.3159 Q503.1617,167.1865 504.4815,165.5347 Q505.8014,163.8828 508.3082,163.8828 Q509.0138,163.8828 509.6612,164.0322 Q510.3087,164.1816 510.8731,164.4805 L510.8731,167.2031 Q510.2423,166.6221 509.6488,166.3523 Q509.0553,166.0825 508.4244,166.0825 Q507.0797,166.0825 506.3949,167.1492 Q505.7101,168.2158 505.7101,170.3159 Q505.7101,172.4077 506.3949,173.4744 Q507.0797,174.541 508.4244,174.541 Q509.0553,174.541 509.6488,174.2712 Q510.2423,174.0015 510.8731,173.4204 Z "/><text fill="#000000" font-family="sans-serif" font-size="12" lengthAdjust="spacingAndGlyphs" textLength="125" x="528.6" y="174.5352">ZipFileSystemProvider</text><line style="stroke: #A80036; stroke-width: 1.5;" x1="466.5" x2="683.5" y1="186" y2="186"/><line style="stroke: #A80036; stroke-width: 1.5;" x1="466.5" x2="683.5" y1="194" y2="194"/><ellipse cx="476.5" cy="205" fill="#84BE84" rx="3" ry="3" style="stroke: #038048; stroke-width: 1.0;"/><text fill="#000000" font-family="sans-serif" font-size="11" lengthAdjust="spacingAndGlyphs" textLength="193" x="485.5" y="208.6348">getFileSystem(): ResourceFileSystem</text></a><!--MD5=[0d596dd42a8e9d19caa36b70ba5c9b26]
class it.tidalwave.northernwind.frontend.filesystem.basic.FileSystemProvidersProvider--><a href="FileSystemProvidersProvider.html" target="_top" title="FileSystemProvidersProvider.html" xlink:actuate="onRequest" xlink:href="FileSystemProvidersProvider.html" xlink:show="new" xlink:title="FileSystemProvidersProvider.html" xlink:type="simple"><rect codeLine="15" fill="#FEFECE" filter="url(#f1vpr91gir8ig7)" height="60.9551" id="it.tidalwave.northernwind.frontend.filesystem.basic.FileSystemProvidersProvider" style="stroke: #A80036; stroke-width: 1.5;" width="406" x="24" y="154"/><ellipse cx="142.25" cy="170" fill="#B4A7E5" rx="11" ry="11" style="stroke: #A80036; stroke-width: 1.0;"/><path d="M138.6777,166.2651 L138.6777,164.1069 L146.0571,164.1069 L146.0571,166.2651 L143.5918,166.2651 L143.5918,174.3418 L146.0571,174.3418 L146.0571,176.5 L138.6777,176.5 L138.6777,174.3418 L141.1431,174.3418 L141.1431,166.2651 Z "/><text fill="#000000" font-family="sans-serif" font-size="12" font-style="italic" lengthAdjust="spacingAndGlyphs" textLength="161" x="162.75" y="174.5352">FileSystemProvidersProvider</text><line style="stroke: #A80036; stroke-width: 1.5;" x1="25" x2="429" y1="186" y2="186"/><line style="stroke: #A80036; stroke-width: 1.5;" x1="25" x2="429" y1="194" y2="194"/><ellipse cx="35" cy="205" fill="#84BE84" rx="3" ry="3" style="stroke: #038048; stroke-width: 1.0;"/><text fill="#000000" font-family="sans-serif" font-size="11" font-style="italic" lengthAdjust="spacingAndGlyphs" textLength="380" x="44" y="208.6348">getFileSystemProviders(): List&lt;? extends ResourceFileSystemProvider&gt;</text></a><!--MD5=[35c78745d2c67b9c273170bd89205265]
class it.tidalwave.northernwind.core.model.ResourceFileSystemProvider--><a href="../../../core/model/ResourceFileSystemProvider.html" target="_top" title="../../../core/model/ResourceFileSystemProvider.html" xlink:actuate="onRequest" xlink:href="../../../core/model/ResourceFileSystemProvider.html" xlink:show="new" xlink:title="../../../core/model/ResourceFileSystemProvider.html" xlink:type="simple"><rect codeLine="25" fill="#FEFECE" filter="url(#f1vpr91gir8ig7)" height="60.9551" id="it.tidalwave.northernwind.core.model.ResourceFileSystemProvider" style="stroke: #A80036; stroke-width: 1.5;" width="219" x="719.5" y="33"/><ellipse cx="746.65" cy="49" fill="#B4A7E5" rx="11" ry="11" style="stroke: #A80036; stroke-width: 1.0;"/><path d="M743.0777,45.2651 L743.0777,43.1069 L750.4571,43.1069 L750.4571,45.2651 L747.9918,45.2651 L747.9918,53.3418 L750.4571,53.3418 L750.4571,55.5 L743.0777,55.5 L743.0777,53.3418 L745.5431,53.3418 L745.5431,45.2651 Z "/><text fill="#000000" font-family="sans-serif" font-size="12" font-style="italic" lengthAdjust="spacingAndGlyphs" textLength="160" x="763.35" y="53.5352">ResourceFileSystemProvider</text><line style="stroke: #A80036; stroke-width: 1.5;" x1="720.5" x2="937.5" y1="65" y2="65"/><line style="stroke: #A80036; stroke-width: 1.5;" x1="720.5" x2="937.5" y1="73" y2="73"/><ellipse cx="730.5" cy="84" fill="#84BE84" rx="3" ry="3" style="stroke: #038048; stroke-width: 1.0;"/><text fill="#000000" font-family="sans-serif" font-size="11" font-style="italic" lengthAdjust="spacingAndGlyphs" textLength="193" x="739.5" y="87.6348">getFileSystem(): ResourceFileSystem</text></a><!--MD5=[14cb4f2698a8f5667cd12e5183bef02a]
reverse link it.tidalwave.northernwind.core.model.ResourceFileSystemProvider to it.tidalwave.northernwind.frontend.filesystem.basic.LocalFileSystemProvider--><path codeLine="19" d="M911.3383,102.7241 C946.2363,119.3488 986.2901,138.4295 1018.9256,153.9764 " fill="none" id="it.tidalwave.northernwind.core.model.ResourceFileSystemProvider-backto-it.tidalwave.northernwind.frontend.filesystem.basic.LocalFileSystemProvider" style="stroke: #A80036; stroke-width: 1.0; stroke-dasharray: 7.0,7.0;"/><polygon fill="none" points="908.1403,108.9545,893.0949,94.0334,914.1614,96.3153,908.1403,108.9545" style="stroke: #A80036; stroke-width: 1.0;"/><!--MD5=[f3d3b1b6856e68d1397e6b9562ee6c6e]
reverse link it.tidalwave.northernwind.core.model.ResourceFileSystemProvider to it.tidalwave.northernwind.frontend.filesystem.basic.LocalCopyFileSystemProvider--><path codeLine="20" d="M829,114.2927 C829,127.7857 829,141.9401 829,153.9764 " fill="none" id="it.tidalwave.northernwind.core.model.ResourceFileSystemProvider-backto-it.tidalwave.northernwind.frontend.filesystem.basic.LocalCopyFileSystemProvider" style="stroke: #A80036; stroke-width: 1.0; stroke-dasharray: 7.0,7.0;"/><polygon fill="none" points="822.0001,114.0334,829,94.0334,836.0001,114.0334,822.0001,114.0334" style="stroke: #A80036; stroke-width: 1.0;"/><!--MD5=[7a0d03d993433f7d7436f805c1aefda4]
reverse link it.tidalwave.northernwind.core.model.ResourceFileSystemProvider to it.tidalwave.northernwind.frontend.filesystem.basic.ZipFileSystemProvider--><path codeLine="21" d="M746.6617,102.7241 C711.7637,119.3488 671.7099,138.4295 639.0744,153.9764 " fill="none" id="it.tidalwave.northernwind.core.model.ResourceFileSystemProvider-backto-it.tidalwave.northernwind.frontend.filesystem.basic.ZipFileSystemProvider" style="stroke: #A80036; stroke-width: 1.0; stroke-dasharray: 7.0,7.0;"/><polygon fill="none" points="743.8386,96.3153,764.9051,94.0334,749.8597,108.9545,743.8386,96.3153" style="stroke: #A80036; stroke-width: 1.0;"/><text fill="#888888" font-family="sans-serif" font-size="10" lengthAdjust="spacingAndGlyphs" textLength="188" x="508.5" y="238.668">UMLDoclet 2.0.12, PlantUML 1.2020.16</text><!--MD5=[d50eca0f843d0598e63704a6cd8a6c88]
@startuml
    namespace it.tidalwave.northernwind.frontend.filesystem.basic {

        class LocalFileSystemProvider [[LocalFileSystemProvider.html]] {
            +getFileSystem(): ResourceFileSystem
        }

        class LocalCopyFileSystemProvider [[LocalCopyFileSystemProvider.html]] {
            +getFileSystem(): ResourceFileSystem
        }

        class ZipFileSystemProvider [[ZipFileSystemProvider.html]] {
            +getFileSystem(): ResourceFileSystem
        }

        interface FileSystemProvidersProvider [[FileSystemProvidersProvider.html]] {
            {abstract} +getFileSystemProviders(): List<? extends ResourceFileSystemProvider>
        }

        it.tidalwave.northernwind.core.model.ResourceFileSystemProvider <|.. LocalFileSystemProvider
        it.tidalwave.northernwind.core.model.ResourceFileSystemProvider <|.. LocalCopyFileSystemProvider
        it.tidalwave.northernwind.core.model.ResourceFileSystemProvider <|.. ZipFileSystemProvider
    }

    namespace it.tidalwave.northernwind.core.model {
        interface ResourceFileSystemProvider [[../../../core/model/ResourceFileSystemProvider.html]] {
            {abstract} +getFileSystem(): ResourceFileSystem
        }
    }

    center footer UMLDoclet 2.0.12, PlantUML 1.2020.16
@enduml

PlantUML version 1.2020.16(Sun Aug 23 22:20:43 CEST 2020)
(APACHE source distribution)
Java Runtime: OpenJDK Runtime Environment
JVM: OpenJDK 64-Bit Server VM
Default Encoding: UTF-8
Language: en
Country: GB
--></g></svg>