<?xml version="1.0" encoding="UTF-8" standalone="no"?><svg xmlns="http://www.w3.org/2000/svg" xmlns:xlink="http://www.w3.org/1999/xlink" contentScriptType="application/ecmascript" contentStyleType="text/css" height="219px" preserveAspectRatio="none" style="width:326px;height:219px;" version="1.1" viewBox="0 0 326 219" width="326px" zoomAndPan="magnify"><defs><filter height="300%" id="fk7zx8c6n1xsp" width="300%" x="-1" y="-1"><feGaussianBlur result="blurOut" stdDeviation="2.0"/><feColorMatrix in="blurOut" result="blurOut2" type="matrix" values="0 0 0 0 0 0 0 0 0 0 0 0 0 0 0 0 0 0 .4 0"/><feOffset dx="4.0" dy="4.0" in="blurOut2" result="blurOut3"/><feBlend in="SourceGraphic" in2="blurOut3" mode="normal"/></filter></defs><g><!--MD5=[24d5d30ae9f1cf360c6715cbe38e9ec4]
class it.tidalwave.thesefoolishthings.examples.person.PersonRegistryTableHeaderDescriptor--><a href="PersonRegistryTableHeaderDescriptor.html" target="_top" title="PersonRegistryTableHeaderDescriptor.html" xlink:actuate="onRequest" xlink:href="PersonRegistryTableHeaderDescriptor.html" xlink:show="new" xlink:title="PersonRegistryTableHeaderDescriptor.html" xlink:type="simple"><rect codeLine="5" fill="#FEFECE" filter="url(#fk7zx8c6n1xsp)" height="58.2466" id="it.tidalwave.thesefoolishthings.examples.person.PersonRegistryTableHeaderDescriptor" style="stroke: #A80036; stroke-width: 1.5;" width="286" x="14" y="125"/><ellipse cx="33.5" cy="143.7988" fill="#ADD1B2" rx="11" ry="11" style="stroke: #A80036; stroke-width: 1.0;"/><path d="M31.4063,143.6426 Q31.4063,145.5176 31.9844,146.5332 Q32.5625,147.5332 33.7188,147.5332 Q35.0625,147.5332 35.7188,145.5176 L37.9844,145.9395 Q36.875,149.4707 33.7031,149.4707 Q31.3594,149.4707 30.1406,147.9863 Q28.9219,146.502 28.9219,143.6426 Q28.9219,137.9238 33.625,137.9238 Q35.1719,137.9238 36.2031,138.7363 Q37.25,139.5488 37.75,141.1582 L35.4844,141.7051 Q35.25,140.8301 34.7656,140.3457 Q34.2813,139.8457 33.6563,139.8457 Q31.4063,139.8457 31.4063,143.6426 Z "/><text fill="#000000" font-family="sans-serif" font-size="14" lengthAdjust="spacingAndGlyphs" textLength="244" x="48.5" y="143.1318">PersonRegistryTableHeaderDescriptor</text><text fill="#000000" font-family="sans-serif" font-size="10" lengthAdjust="spacingAndGlyphs" textLength="223" x="59" y="155.4785">it.tidalwave.thesefoolishthings.examples.person</text><line style="stroke: #A80036; stroke-width: 1.5;" x1="15" x2="299" y1="162.5977" y2="162.5977"/><ellipse cx="25" cy="173.5977" fill="#84BE84" rx="3" ry="3" style="stroke: #038048; stroke-width: 1.0;"/><text fill="#000000" font-family="sans-serif" font-size="11" lengthAdjust="spacingAndGlyphs" textLength="260" x="34" y="176.9155">getColumnDescriptors(): List&lt;TableColumnDescriptor&gt;</text></a><!--MD5=[25d47310c451efc650cb23d973f2681c]
class it.tidalwave.thesefoolishthings.examples.dci.swing.role.TableHeaderDescriptor--><a href="../dci/swing/role/TableHeaderDescriptor.html" target="_top" title="../dci/swing/role/TableHeaderDescriptor.html" xlink:actuate="onRequest" xlink:href="../dci/swing/role/TableHeaderDescriptor.html" xlink:show="new" xlink:title="../dci/swing/role/TableHeaderDescriptor.html" xlink:type="simple"><rect codeLine="9" fill="#FEFECE" filter="url(#fk7zx8c6n1xsp)" height="58.2466" id="it.tidalwave.thesefoolishthings.examples.dci.swing.role.TableHeaderDescriptor" style="stroke: #A80036; stroke-width: 1.5;" width="300" x="7" y="7"/><ellipse cx="25.15" cy="25.7988" fill="#B4A7E5" rx="11" ry="11" style="stroke: #A80036; stroke-width: 1.0;"/><path d="M21.4469,20.0957 L29.0563,20.0957 L29.0563,21.9863 L26.4781,21.9863 L26.4781,29.4082 L29.0563,29.4082 L29.0563,31.2988 L21.4469,31.2988 L21.4469,29.4082 L24.0406,29.4082 L24.0406,21.9863 L21.4469,21.9863 L21.4469,20.0957 Z "/><text fill="#000000" font-family="sans-serif" font-size="14" font-style="italic" lengthAdjust="spacingAndGlyphs" textLength="148" x="96.35" y="25.1318">TableHeaderDescriptor</text><text fill="#000000" font-family="sans-serif" font-size="10" font-style="italic" lengthAdjust="spacingAndGlyphs" textLength="261" x="39.85" y="37.4785">it.tidalwave.thesefoolishthings.examples.dci.swing.role</text><line style="stroke: #A80036; stroke-width: 1.5;" x1="8" x2="306" y1="44.5977" y2="44.5977"/><ellipse cx="18" cy="55.5977" fill="#84BE84" rx="3" ry="3" style="stroke: #038048; stroke-width: 1.0;"/><text fill="#000000" font-family="sans-serif" font-size="11" font-style="italic" lengthAdjust="spacingAndGlyphs" textLength="274" x="27" y="58.9155">getColumnDescriptors(): List&lt;TableColumnDescriptor&gt;</text></a><!--MD5=[a1297c56b7f1c30a304c8f696684545f]
reverse link it.tidalwave.thesefoolishthings.examples.dci.swing.role.TableHeaderDescriptor to it.tidalwave.thesefoolishthings.examples.person.PersonRegistryTableHeaderDescriptor--><path codeLine="13" d="M157,85.21 C157,98.68 157,112.88 157,124.78 " fill="none" id="it.tidalwave.thesefoolishthings.examples.dci.swing.role.TableHeaderDescriptor-backto-it.tidalwave.thesefoolishthings.examples.person.PersonRegistryTableHeaderDescriptor" style="stroke: #A80036; stroke-width: 1.0; stroke-dasharray: 7.0,7.0;"/><polygon fill="none" points="150,85.08,157,65.08,164,85.08,150,85.08" style="stroke: #A80036; stroke-width: 1.0;"/><text fill="#888888" font-family="sans-serif" font-size="10" lengthAdjust="spacingAndGlyphs" textLength="190" x="59" y="205.6265">UMLDoclet 2.0.12, PlantUML 1.2020.16</text><!--MD5=[b2541b29337fdf91fd9570e575c9aa28]
@startuml
    set namespaceSeparator none
    hide empty fields
    hide empty methods

    class "<size:14>PersonRegistryTableHeaderDescriptor\n<size:10>it.tidalwave.thesefoolishthings.examples.person" as it.tidalwave.thesefoolishthings.examples.person.PersonRegistryTableHeaderDescriptor [[PersonRegistryTableHeaderDescriptor.html]] {
        +getColumnDescriptors(): List<TableColumnDescriptor>
    }

    interface "<size:14>TableHeaderDescriptor\n<size:10>it.tidalwave.thesefoolishthings.examples.dci.swing.role" as it.tidalwave.thesefoolishthings.examples.dci.swing.role.TableHeaderDescriptor [[../dci/swing/role/TableHeaderDescriptor.html]] {
        {abstract} +getColumnDescriptors(): List<TableColumnDescriptor>
    }

    it.tidalwave.thesefoolishthings.examples.dci.swing.role.TableHeaderDescriptor <|.. it.tidalwave.thesefoolishthings.examples.person.PersonRegistryTableHeaderDescriptor

    center footer UMLDoclet 2.0.12, PlantUML 1.2020.16
@enduml

PlantUML version 1.2020.16(Sun Aug 23 22:20:43 CEST 2020)
(APACHE source distribution)
Java Runtime: OpenJDK Runtime Environment
JVM: OpenJDK 64-Bit Server VM
Default Encoding: UTF-8
Language: en
Country: US
--></g></svg>