<?xml version="1.0" encoding="UTF-8" standalone="no"?><svg xmlns="http://www.w3.org/2000/svg" xmlns:xlink="http://www.w3.org/1999/xlink" contentScriptType="application/ecmascript" contentStyleType="text/css" height="219px" preserveAspectRatio="none" style="width:339px;height:219px;" version="1.1" viewBox="0 0 339 219" width="339px" zoomAndPan="magnify"><defs><filter height="300%" id="f1wsafjdpa5mia" width="300%" x="-1" y="-1"><feGaussianBlur result="blurOut" stdDeviation="2.0"/><feColorMatrix in="blurOut" result="blurOut2" type="matrix" values="0 0 0 0 0 0 0 0 0 0 0 0 0 0 0 0 0 0 .4 0"/><feOffset dx="4.0" dy="4.0" in="blurOut2" result="blurOut3"/><feBlend in="SourceGraphic" in2="blurOut3" mode="normal"/></filter></defs><g><!--MD5=[a3797e6f94e0e1742a6af271a4c9232a]
class it.tidalwave.thesefoolishthings.examples.person.PersonHtmlRenderable--><a href="PersonHtmlRenderable.html" target="_top" title="PersonHtmlRenderable.html" xlink:actuate="onRequest" xlink:href="PersonHtmlRenderable.html" xlink:show="new" xlink:title="PersonHtmlRenderable.html" xlink:type="simple"><rect codeLine="5" fill="#FEFECE" filter="url(#f1wsafjdpa5mia)" height="58.2466" id="it.tidalwave.thesefoolishthings.examples.person.PersonHtmlRenderable" style="stroke: #A80036; stroke-width: 1.5;" width="255" x="33.5" y="125"/><ellipse cx="48.5" cy="143.7988" fill="#ADD1B2" rx="11" ry="11" style="stroke: #A80036; stroke-width: 1.0;"/><path d="M46.4063,143.6426 Q46.4063,145.5176 46.9844,146.5332 Q47.5625,147.5332 48.7188,147.5332 Q50.0625,147.5332 50.7188,145.5176 L52.9844,145.9395 Q51.875,149.4707 48.7031,149.4707 Q46.3594,149.4707 45.1406,147.9863 Q43.9219,146.502 43.9219,143.6426 Q43.9219,137.9238 48.625,137.9238 Q50.1719,137.9238 51.2031,138.7363 Q52.25,139.5488 52.75,141.1582 L50.4844,141.7051 Q50.25,140.8301 49.7656,140.3457 Q49.2813,139.8457 48.6563,139.8457 Q46.4063,139.8457 46.4063,143.6426 Z "/><text fill="#000000" font-family="sans-serif" font-size="14" lengthAdjust="spacingAndGlyphs" textLength="146" x="101" y="143.1318">PersonHtmlRenderable</text><text fill="#000000" font-family="sans-serif" font-size="10" lengthAdjust="spacingAndGlyphs" textLength="223" x="62.5" y="155.4785">it.tidalwave.thesefoolishthings.examples.person</text><line style="stroke: #A80036; stroke-width: 1.5;" x1="34.5" x2="287.5" y1="162.5977" y2="162.5977"/><ellipse cx="44.5" cy="173.5977" fill="#84BE84" rx="3" ry="3" style="stroke: #038048; stroke-width: 1.0;"/><text fill="#000000" font-family="sans-serif" font-size="11" lengthAdjust="spacingAndGlyphs" textLength="114" x="53.5" y="176.9155">render(Object...): String</text></a><!--MD5=[6b5abc6464049f80e4292c9591761e23]
class it.tidalwave.role.HtmlRenderable--><a href="https://tidalwave.bitbucket.io/thesefoolishthings/modules/it-tidalwave-role/apidocs/it/tidalwave/role/HtmlRenderable.html?is-external=true" target="_top" title="https://tidalwave.bitbucket.io/thesefoolishthings/modules/it-tidalwave-role/apidocs/it/tidalwave/role/HtmlRenderable.html?is-external=true" xlink:actuate="onRequest" xlink:href="https://tidalwave.bitbucket.io/thesefoolishthings/modules/it-tidalwave-role/apidocs/it/tidalwave/role/HtmlRenderable.html?is-external=true" xlink:show="new" xlink:title="https://tidalwave.bitbucket.io/thesefoolishthings/modules/it-tidalwave-role/apidocs/it/tidalwave/role/HtmlRenderable.html?is-external=true" xlink:type="simple"><rect codeLine="9" fill="#FEFECE" filter="url(#f1wsafjdpa5mia)" height="37.5977" id="it.tidalwave.role.HtmlRenderable" style="stroke: #A80036; stroke-width: 1.5;" width="134" x="7" y="17"/><ellipse cx="22" cy="35.7988" fill="#B4A7E5" rx="11" ry="11" style="stroke: #A80036; stroke-width: 1.0;"/><path d="M18.2969,30.0957 L25.9063,30.0957 L25.9063,31.9863 L23.3281,31.9863 L23.3281,39.4082 L25.9063,39.4082 L25.9063,41.2988 L18.2969,41.2988 L18.2969,39.4082 L20.8906,39.4082 L20.8906,31.9863 L18.2969,31.9863 L18.2969,30.0957 Z "/><text fill="#000000" font-family="sans-serif" font-size="14" font-style="italic" lengthAdjust="spacingAndGlyphs" textLength="102" x="36" y="35.1318">HtmlRenderable</text><text fill="#000000" font-family="sans-serif" font-size="10" font-style="italic" lengthAdjust="spacingAndGlyphs" textLength="76" x="49" y="47.4785">it.tidalwave.role</text></a><!--MD5=[c4c289a19c40fe4e636fc9eb67c73418]
class it.tidalwave.role.StringRenderable--><a href="https://tidalwave.bitbucket.io/thesefoolishthings/modules/it-tidalwave-role/apidocs/it/tidalwave/role/StringRenderable.html?is-external=true" target="_top" title="https://tidalwave.bitbucket.io/thesefoolishthings/modules/it-tidalwave-role/apidocs/it/tidalwave/role/StringRenderable.html?is-external=true" xlink:actuate="onRequest" xlink:href="https://tidalwave.bitbucket.io/thesefoolishthings/modules/it-tidalwave-role/apidocs/it/tidalwave/role/StringRenderable.html?is-external=true" xlink:show="new" xlink:title="https://tidalwave.bitbucket.io/thesefoolishthings/modules/it-tidalwave-role/apidocs/it/tidalwave/role/StringRenderable.html?is-external=true" xlink:type="simple"><rect codeLine="10" fill="#FEFECE" filter="url(#f1wsafjdpa5mia)" height="58.2466" id="it.tidalwave.role.StringRenderable" style="stroke: #A80036; stroke-width: 1.5;" width="144" x="176" y="7"/><ellipse cx="191.45" cy="25.7988" fill="#B4A7E5" rx="11" ry="11" style="stroke: #A80036; stroke-width: 1.0;"/><path d="M187.7469,20.0957 L195.3563,20.0957 L195.3563,21.9863 L192.7781,21.9863 L192.7781,29.4082 L195.3563,29.4082 L195.3563,31.2988 L187.7469,31.2988 L187.7469,29.4082 L190.3406,29.4082 L190.3406,21.9863 L187.7469,21.9863 L187.7469,20.0957 Z "/><text fill="#000000" font-family="sans-serif" font-size="14" font-style="italic" lengthAdjust="spacingAndGlyphs" textLength="111" x="205.55" y="25.1318">StringRenderable</text><text fill="#000000" font-family="sans-serif" font-size="10" font-style="italic" lengthAdjust="spacingAndGlyphs" textLength="76" x="223.05" y="37.4785">it.tidalwave.role</text><line style="stroke: #A80036; stroke-width: 1.5;" x1="177" x2="319" y1="44.5977" y2="44.5977"/><ellipse cx="187" cy="55.5977" fill="#84BE84" rx="3" ry="3" style="stroke: #038048; stroke-width: 1.0;"/><text fill="#000000" font-family="sans-serif" font-size="11" font-style="italic" lengthAdjust="spacingAndGlyphs" textLength="118" x="196" y="58.9155">render(Object...): String</text></a><!--MD5=[83baa5fa4b2c15aa8e2f56aa6a796b9b]
reverse link it.tidalwave.role.HtmlRenderable to it.tidalwave.thesefoolishthings.examples.person.PersonHtmlRenderable--><path codeLine="14" d="M99.74,71.32 C112.47,88.3 127.65,108.54 139.72,124.62 " fill="none" id="it.tidalwave.role.HtmlRenderable-backto-it.tidalwave.thesefoolishthings.examples.person.PersonHtmlRenderable" style="stroke: #A80036; stroke-width: 1.0; stroke-dasharray: 7.0,7.0;"/><polygon fill="none" points="93.99,75.33,87.59,55.12,105.19,66.93,93.99,75.33" style="stroke: #A80036; stroke-width: 1.0;"/><!--MD5=[a86f2abeaaa8da2d7b5bf598ba1c4e37]
reverse link it.tidalwave.role.StringRenderable to it.tidalwave.thesefoolishthings.examples.person.PersonHtmlRenderable--><path codeLine="15" d="M214.71,81.39 C203.78,95.96 191.94,111.74 182.17,124.78 " fill="none" id="it.tidalwave.role.StringRenderable-backto-it.tidalwave.thesefoolishthings.examples.person.PersonHtmlRenderable" style="stroke: #A80036; stroke-width: 1.0; stroke-dasharray: 7.0,7.0;"/><polygon fill="none" points="209.34,76.88,226.94,65.08,220.54,85.28,209.34,76.88" style="stroke: #A80036; stroke-width: 1.0;"/><text fill="#888888" font-family="sans-serif" font-size="10" lengthAdjust="spacingAndGlyphs" textLength="190" x="65.5" y="205.6265">UMLDoclet 2.0.12, PlantUML 1.2020.16</text><!--MD5=[ce2f673aca6ec54b127071a0455b03c5]
@startuml
    set namespaceSeparator none
    hide empty fields
    hide empty methods

    class "<size:14>PersonHtmlRenderable\n<size:10>it.tidalwave.thesefoolishthings.examples.person" as it.tidalwave.thesefoolishthings.examples.person.PersonHtmlRenderable [[PersonHtmlRenderable.html]] {
        +render(Object...): String
    }

    interface "<size:14>HtmlRenderable\n<size:10>it.tidalwave.role" as it.tidalwave.role.HtmlRenderable [[https://tidalwave.bitbucket.io/thesefoolishthings/modules/it-tidalwave-role/apidocs/it/tidalwave/role/HtmlRenderable.html?is-external=true]]
    interface "<size:14>StringRenderable\n<size:10>it.tidalwave.role" as it.tidalwave.role.StringRenderable [[https://tidalwave.bitbucket.io/thesefoolishthings/modules/it-tidalwave-role/apidocs/it/tidalwave/role/StringRenderable.html?is-external=true]] {
        {abstract} +render(Object...): String
    }

    it.tidalwave.role.HtmlRenderable <|.. it.tidalwave.thesefoolishthings.examples.person.PersonHtmlRenderable
    it.tidalwave.role.StringRenderable <|.. it.tidalwave.thesefoolishthings.examples.person.PersonHtmlRenderable

    center footer UMLDoclet 2.0.12, PlantUML 1.2020.16
@enduml

PlantUML version 1.2020.16(Sun Aug 23 22:20:43 CEST 2020)
(APACHE source distribution)
Java Runtime: OpenJDK Runtime Environment
JVM: OpenJDK 64-Bit Server VM
Default Encoding: UTF-8
Language: en
Country: US
--></g></svg>