<?xml version="1.0" encoding="UTF-8" standalone="no"?><svg xmlns="http://www.w3.org/2000/svg" xmlns:xlink="http://www.w3.org/1999/xlink" contentScriptType="application/ecmascript" contentStyleType="text/css" height="75px" preserveAspectRatio="none" style="width:234px;height:75px;" version="1.1" viewBox="0 0 234 75" width="234px" zoomAndPan="magnify"><defs><filter height="300%" id="fyb5kkj58yi46" width="300%" x="-1" y="-1"><feGaussianBlur result="blurOut" stdDeviation="2.0"/><feColorMatrix in="blurOut" result="blurOut2" type="matrix" values="0 0 0 0 0 0 0 0 0 0 0 0 0 0 0 0 0 0 .4 0"/><feOffset dx="4.0" dy="4.0" in="blurOut2" result="blurOut3"/><feBlend in="SourceGraphic" in2="blurOut3" mode="normal"/></filter></defs><g><!--MD5=[b7e774fb07f805bfe02e75a8ce7ec0b7]
class it.tidalwave.messagebus.annotation.ListensTo--><a href="ListensTo.html" target="_top" title="ListensTo.html" xlink:actuate="onRequest" xlink:href="ListensTo.html" xlink:show="new" xlink:title="ListensTo.html" xlink:type="simple"><rect codeLine="5" fill="#FEFECE" filter="url(#fyb5kkj58yi46)" height="38.2656" id="it.tidalwave.messagebus.annotation.ListensTo" style="stroke: #A80036; stroke-width: 1.5;" width="208" x="7" y="7"/><ellipse cx="22" cy="26.1328" fill="#E3664A" rx="11" ry="11" style="stroke: #A80036; stroke-width: 1.0;"/><path d="M24.5767,26.3589 Q24.5767,25.4209 24.1533,24.8896 Q23.73,24.3584 22.9912,24.3584 Q22.2524,24.3584 21.8333,24.8896 Q21.4141,25.4209 21.4141,26.3589 Q21.4141,27.3052 21.8333,27.8364 Q22.2524,28.3677 22.9912,28.3677 Q23.73,28.3677 24.1533,27.8364 Q24.5767,27.3052 24.5767,26.3589 Z M26.1206,29.7622 L24.4937,29.7622 L24.4937,29.0815 Q24.1782,29.5215 23.7507,29.7249 Q23.3232,29.9282 22.7256,29.9282 Q21.3643,29.9282 20.53,28.9487 Q19.6958,27.9692 19.6958,26.3589 Q19.6958,24.7568 20.5259,23.7815 Q21.356,22.8062 22.7256,22.8062 Q23.3149,22.8062 23.7632,23.0095 Q24.2114,23.2129 24.4937,23.603 L24.4937,23.2627 Q24.4937,22.1338 23.8752,21.5195 Q23.2568,20.9053 22.1113,20.9053 Q20.3848,20.9053 19.2932,22.4243 Q18.2017,23.9434 18.2017,26.3755 Q18.2017,28.9238 19.4634,30.4304 Q20.7251,31.937 22.8252,31.937 Q23.4893,31.937 24.1118,31.7419 Q24.7344,31.5469 25.3071,31.1567 L26.0708,32.6177 Q25.3984,33.0742 24.6057,33.3025 Q23.813,33.5308 22.9082,33.5308 Q20.0029,33.5308 18.2764,31.5967 Q16.5498,29.6626 16.5498,26.3755 Q16.5498,23.1631 18.1021,21.2332 Q19.6543,19.3032 22.2109,19.3032 Q24.0205,19.3032 25.0706,20.3948 Q26.1206,21.4863 26.1206,23.3706 Z "/><text fill="#000000" font-family="sans-serif" font-size="14" lengthAdjust="spacingAndGlyphs" textLength="65" x="91.5" y="25.5352">ListensTo</text><text fill="#000000" font-family="sans-serif" font-size="10" lengthAdjust="spacingAndGlyphs" textLength="176" x="36" y="38.1563">it.tidalwave.messagebus.annotation</text></a><text fill="#888888" font-family="sans-serif" font-size="10" lengthAdjust="spacingAndGlyphs" textLength="188" x="17" y="61.9336">UMLDoclet 2.0.12, PlantUML 1.2020.16</text><!--MD5=[994987b37f6472af93b3ea35d42c98fd]
@startuml
    set namespaceSeparator none
    hide empty fields
    hide empty methods

    annotation "<size:14>ListensTo\n<size:10>it.tidalwave.messagebus.annotation" as it.tidalwave.messagebus.annotation.ListensTo [[ListensTo.html]]

    center footer UMLDoclet 2.0.12, PlantUML 1.2020.16
@enduml

PlantUML version 1.2020.16(Sun Aug 23 22:20:43 CEST 2020)
(APACHE source distribution)
Java Runtime: OpenJDK Runtime Environment
JVM: OpenJDK 64-Bit Server VM
Default Encoding: UTF-8
Language: en
Country: GB
--></g></svg>