<?xml version="1.0" encoding="UTF-8" standalone="no"?><svg xmlns="http://www.w3.org/2000/svg" xmlns:xlink="http://www.w3.org/1999/xlink" contentScriptType="application/ecmascript" contentStyleType="text/css" height="278px" preserveAspectRatio="none" style="width:707px;height:278px;" version="1.1" viewBox="0 0 707 278" width="707px" zoomAndPan="magnify"><defs><filter height="300%" id="f396k6q6gudmr" width="300%" x="-1" y="-1"><feGaussianBlur result="blurOut" stdDeviation="2.0"/><feColorMatrix in="blurOut" result="blurOut2" type="matrix" values="0 0 0 0 0 0 0 0 0 0 0 0 0 0 0 0 0 0 .4 0"/><feOffset dx="4.0" dy="4.0" in="blurOut2" result="blurOut3"/><feBlend in="SourceGraphic" in2="blurOut3" mode="normal"/></filter></defs><g><!--MD5=[fafe2dc1361a2ed7216ed55286aefdcd]
cluster it.tidalwave.thesefoolishthings.examples.inmemoryfinderexample--><polygon fill="#FFFFFF" filter="url(#f396k6q6gudmr)" points="95,140,573,140,580,162.4883,685,162.4883,685,249,95,249,95,140" style="stroke: #000000; stroke-width: 1.5;"/><line style="stroke: #000000; stroke-width: 1.5;" x1="95" x2="580" y1="162.4883" y2="162.4883"/><text fill="#000000" font-family="sans-serif" font-size="14" font-weight="bold" lengthAdjust="spacingAndGlyphs" textLength="472" x="99" y="155.5352">it.tidalwave.thesefoolishthings.examples.inmemoryfinderexample</text><!--MD5=[1547051af1b51f5c31de2792b793acb7]
cluster it.tidalwave.thesefoolishthings.examples.person--><polygon fill="#FFFFFF" filter="url(#f396k6q6gudmr)" points="16,6,367,6,374,28.4883,377,28.4883,377,115,16,115,16,6" style="stroke: #000000; stroke-width: 1.5;"/><line style="stroke: #000000; stroke-width: 1.5;" x1="16" x2="374" y1="28.4883" y2="28.4883"/><text fill="#000000" font-family="sans-serif" font-size="14" font-weight="bold" lengthAdjust="spacingAndGlyphs" textLength="345" x="20" y="21.5352">it.tidalwave.thesefoolishthings.examples.person</text><!--MD5=[7d99b434679dfcce19ab511f84294810]
class it.tidalwave.thesefoolishthings.examples.inmemoryfinderexample.PersonSortCriteria--><a href="PersonSortCriteria.html" target="_top" title="PersonSortCriteria.html" xlink:actuate="onRequest" xlink:href="PersonSortCriteria.html" xlink:show="new" xlink:title="PersonSortCriteria.html" xlink:type="simple"><rect codeLine="3" fill="#FEFECE" filter="url(#f396k6q6gudmr)" height="73.9102" id="it.tidalwave.thesefoolishthings.examples.inmemoryfinderexample.PersonSortCriteria" style="stroke: #A80036; stroke-width: 1.5;" width="187" x="490.5" y="167"/><ellipse cx="528.9" cy="183" fill="#ADD1B2" rx="11" ry="11" style="stroke: #A80036; stroke-width: 1.0;"/><path d="M531.3731,189.1431 Q530.7921,189.4419 530.1529,189.5913 Q529.5138,189.7407 528.8082,189.7407 Q526.3014,189.7407 524.9815,188.0889 Q523.6617,186.437 523.6617,183.3159 Q523.6617,180.1865 524.9815,178.5347 Q526.3014,176.8828 528.8082,176.8828 Q529.5138,176.8828 530.1612,177.0322 Q530.8087,177.1816 531.3731,177.4805 L531.3731,180.2031 Q530.7423,179.6221 530.1488,179.3523 Q529.5553,179.0825 528.9244,179.0825 Q527.5797,179.0825 526.8949,180.1492 Q526.2101,181.2158 526.2101,183.3159 Q526.2101,185.4077 526.8949,186.4744 Q527.5797,187.541 528.9244,187.541 Q529.5553,187.541 530.1488,187.2712 Q530.7423,187.0015 531.3731,186.4204 Z "/><text fill="#000000" font-family="sans-serif" font-size="12" lengthAdjust="spacingAndGlyphs" textLength="103" x="548.1" y="187.5352">PersonSortCriteria</text><line style="stroke: #A80036; stroke-width: 1.5;" x1="491.5" x2="676.5" y1="199" y2="199"/><ellipse cx="501.5" cy="210" fill="none" rx="3" ry="3" style="stroke: #038048; stroke-width: 1.0;"/><text fill="#000000" font-family="sans-serif" font-size="11" lengthAdjust="spacingAndGlyphs" text-decoration="underline" textLength="161" x="510.5" y="213.6348">BY_FIRST_NAME: SortCriterion</text><ellipse cx="501.5" cy="222.9551" fill="none" rx="3" ry="3" style="stroke: #038048; stroke-width: 1.0;"/><text fill="#000000" font-family="sans-serif" font-size="11" lengthAdjust="spacingAndGlyphs" text-decoration="underline" textLength="159" x="510.5" y="226.5898">BY_LAST_NAME: SortCriterion</text><line style="stroke: #A80036; stroke-width: 1.5;" x1="491.5" x2="676.5" y1="232.9102" y2="232.9102"/></a><!--MD5=[99466c3a73846c52fc7bea1049b32b86]
class it.tidalwave.thesefoolishthings.examples.inmemoryfinderexample.Main--><a href="Main.html" target="_top" title="Main.html" xlink:actuate="onRequest" xlink:href="Main.html" xlink:show="new" xlink:title="Main.html" xlink:type="simple"><rect codeLine="8" fill="#FEFECE" filter="url(#f396k6q6gudmr)" height="60.9551" id="it.tidalwave.thesefoolishthings.examples.inmemoryfinderexample.Main" style="stroke: #A80036; stroke-width: 1.5;" width="130" x="325" y="173.5"/><ellipse cx="372.25" cy="189.5" fill="#ADD1B2" rx="11" ry="11" style="stroke: #A80036; stroke-width: 1.0;"/><path d="M374.7231,195.6431 Q374.1421,195.9419 373.5029,196.0913 Q372.8638,196.2407 372.1582,196.2407 Q369.6514,196.2407 368.3315,194.5889 Q367.0117,192.937 367.0117,189.8159 Q367.0117,186.6865 368.3315,185.0347 Q369.6514,183.3828 372.1582,183.3828 Q372.8638,183.3828 373.5112,183.5322 Q374.1587,183.6816 374.7231,183.9805 L374.7231,186.7031 Q374.0923,186.1221 373.4988,185.8523 Q372.9053,185.5825 372.2744,185.5825 Q370.9297,185.5825 370.2449,186.6492 Q369.5601,187.7158 369.5601,189.8159 Q369.5601,191.9077 370.2449,192.9744 Q370.9297,194.041 372.2744,194.041 Q372.9053,194.041 373.4988,193.7712 Q374.0923,193.5015 374.7231,192.9204 Z "/><text fill="#000000" font-family="sans-serif" font-size="12" lengthAdjust="spacingAndGlyphs" textLength="27" x="392.75" y="194.0352">Main</text><line style="stroke: #A80036; stroke-width: 1.5;" x1="326" x2="454" y1="205.5" y2="205.5"/><line style="stroke: #A80036; stroke-width: 1.5;" x1="326" x2="454" y1="213.5" y2="213.5"/><ellipse cx="336" cy="224.5" fill="#84BE84" rx="3" ry="3" style="stroke: #038048; stroke-width: 1.0;"/><text fill="#000000" font-family="sans-serif" font-size="11" lengthAdjust="spacingAndGlyphs" text-decoration="underline" textLength="104" x="345" y="228.1348">main(String...): void</text></a><!--MD5=[58e2ac101cc42aab4c433468dd02c38c]
class it.tidalwave.thesefoolishthings.examples.inmemoryfinderexample.InMemoryPersonRegistry--><a href="InMemoryPersonRegistry.html" target="_top" title="InMemoryPersonRegistry.html" xlink:actuate="onRequest" xlink:href="InMemoryPersonRegistry.html" xlink:show="new" xlink:title="InMemoryPersonRegistry.html" xlink:type="simple"><rect codeLine="12" fill="#FEFECE" filter="url(#f396k6q6gudmr)" height="73.9102" id="it.tidalwave.thesefoolishthings.examples.inmemoryfinderexample.InMemoryPersonRegistry" style="stroke: #A80036; stroke-width: 1.5;" width="187" x="102.5" y="167"/><ellipse cx="123.8" cy="183" fill="#ADD1B2" rx="11" ry="11" style="stroke: #A80036; stroke-width: 1.0;"/><path d="M126.2731,189.1431 Q125.6921,189.4419 125.0529,189.5913 Q124.4138,189.7407 123.7082,189.7407 Q121.2014,189.7407 119.8815,188.0889 Q118.5617,186.437 118.5617,183.3159 Q118.5617,180.1865 119.8815,178.5347 Q121.2014,176.8828 123.7082,176.8828 Q124.4138,176.8828 125.0612,177.0322 Q125.7087,177.1816 126.2731,177.4805 L126.2731,180.2031 Q125.6423,179.6221 125.0488,179.3523 Q124.4553,179.0825 123.8244,179.0825 Q122.4797,179.0825 121.7949,180.1492 Q121.1101,181.2158 121.1101,183.3159 Q121.1101,185.4077 121.7949,186.4744 Q122.4797,187.541 123.8244,187.541 Q124.4553,187.541 125.0488,187.2712 Q125.6423,187.0015 126.2731,186.4204 Z "/><text fill="#000000" font-family="sans-serif" font-size="12" lengthAdjust="spacingAndGlyphs" textLength="141" x="139.2" y="187.5352">InMemoryPersonRegistry</text><line style="stroke: #A80036; stroke-width: 1.5;" x1="103.5" x2="288.5" y1="199" y2="199"/><line style="stroke: #A80036; stroke-width: 1.5;" x1="103.5" x2="288.5" y1="207" y2="207"/><ellipse cx="113.5" cy="218" fill="#84BE84" rx="3" ry="3" style="stroke: #038048; stroke-width: 1.0;"/><text fill="#000000" font-family="sans-serif" font-size="11" lengthAdjust="spacingAndGlyphs" textLength="94" x="122.5" y="221.6348">add(Person): void</text><ellipse cx="113.5" cy="230.9551" fill="#84BE84" rx="3" ry="3" style="stroke: #038048; stroke-width: 1.0;"/><text fill="#000000" font-family="sans-serif" font-size="11" lengthAdjust="spacingAndGlyphs" textLength="161" x="122.5" y="234.5898">findPerson(): Finder&lt;Person&gt;</text></a><!--MD5=[a24178fb498e0bff7cc0053c0892f6a5]
class it.tidalwave.thesefoolishthings.examples.person.PersonRegistry--><a href="https://tidalwave.bitbucket.io/thesefoolishthings/modules/thesefoolishthings-examples/it-tidalwave-thesefoolishthings-examples-data/apidocs/it/tidalwave/thesefoolishthings/examples/person/PersonRegistry.html?is-external=true" target="_top" title="https://tidalwave.bitbucket.io/thesefoolishthings/modules/thesefoolishthings-examples/it-tidalwave-thesefoolishthings-examples-data/apidocs/it/tidalwave/thesefoolishthings/examples/person/PersonRegistry.html?is-external=true" xlink:actuate="onRequest" xlink:href="https://tidalwave.bitbucket.io/thesefoolishthings/modules/thesefoolishthings-examples/it-tidalwave-thesefoolishthings-examples-data/apidocs/it/tidalwave/thesefoolishthings/examples/person/PersonRegistry.html?is-external=true" xlink:show="new" xlink:title="https://tidalwave.bitbucket.io/thesefoolishthings/modules/thesefoolishthings-examples/it-tidalwave-thesefoolishthings-examples-data/apidocs/it/tidalwave/thesefoolishthings/examples/person/PersonRegistry.html?is-external=true" xlink:type="simple"><rect codeLine="21" fill="#FEFECE" filter="url(#f396k6q6gudmr)" height="73.9102" id="it.tidalwave.thesefoolishthings.examples.person.PersonRegistry" style="stroke: #A80036; stroke-width: 1.5;" width="187" x="102.5" y="33"/><ellipse cx="149.25" cy="49" fill="#B4A7E5" rx="11" ry="11" style="stroke: #A80036; stroke-width: 1.0;"/><path d="M145.6777,45.2651 L145.6777,43.1069 L153.0571,43.1069 L153.0571,45.2651 L150.5918,45.2651 L150.5918,53.3418 L153.0571,53.3418 L153.0571,55.5 L145.6777,55.5 L145.6777,53.3418 L148.1431,53.3418 L148.1431,45.2651 Z "/><text fill="#000000" font-family="sans-serif" font-size="12" font-style="italic" lengthAdjust="spacingAndGlyphs" textLength="85" x="169.75" y="53.5352">PersonRegistry</text><line style="stroke: #A80036; stroke-width: 1.5;" x1="103.5" x2="288.5" y1="65" y2="65"/><line style="stroke: #A80036; stroke-width: 1.5;" x1="103.5" x2="288.5" y1="73" y2="73"/><ellipse cx="113.5" cy="84" fill="#84BE84" rx="3" ry="3" style="stroke: #038048; stroke-width: 1.0;"/><text fill="#000000" font-family="sans-serif" font-size="11" font-style="italic" lengthAdjust="spacingAndGlyphs" textLength="161" x="122.5" y="87.6348">findPerson(): Finder&lt;Person&gt;</text><ellipse cx="113.5" cy="96.9551" fill="#84BE84" rx="3" ry="3" style="stroke: #038048; stroke-width: 1.0;"/><text fill="#000000" font-family="sans-serif" font-size="11" font-style="italic" lengthAdjust="spacingAndGlyphs" textLength="94" x="122.5" y="100.5898">add(Person): void</text></a><!--MD5=[565a0908c06784933dc86f962a2e0387]
reverse link it.tidalwave.thesefoolishthings.examples.person.PersonRegistry to it.tidalwave.thesefoolishthings.examples.inmemoryfinderexample.InMemoryPersonRegistry--><path codeLine="17" d="M196,127.5351 C196,140.8601 196,154.6949 196,166.8737 " fill="none" id="it.tidalwave.thesefoolishthings.examples.person.PersonRegistry-backto-it.tidalwave.thesefoolishthings.examples.inmemoryfinderexample.InMemoryPersonRegistry" style="stroke: #A80036; stroke-width: 1.0; stroke-dasharray: 7.0,7.0;"/><polygon fill="none" points="189.0001,127.3265,196,107.3265,203.0001,127.3264,189.0001,127.3265" style="stroke: #A80036; stroke-width: 1.0;"/><text fill="#888888" font-family="sans-serif" font-size="10" lengthAdjust="spacingAndGlyphs" textLength="188" x="250.5" y="264.668">UMLDoclet 2.0.12, PlantUML 1.2020.16</text><!--MD5=[e011d3326119a382d0e301c985069128]
@startuml
    namespace it.tidalwave.thesefoolishthings.examples.inmemoryfinderexample {

        class PersonSortCriteria [[PersonSortCriteria.html]] {
            {static} +BY_FIRST_NAME: SortCriterion
            {static} +BY_LAST_NAME: SortCriterion
        }

        class Main [[Main.html]] {
            {static} +main(String...): void
        }

        class InMemoryPersonRegistry [[InMemoryPersonRegistry.html]] {
            +add(Person): void
            +findPerson(): Finder<Person>
        }

        it.tidalwave.thesefoolishthings.examples.person.PersonRegistry <|.. InMemoryPersonRegistry
    }

    namespace it.tidalwave.thesefoolishthings.examples.person {
        interface PersonRegistry [[https://tidalwave.bitbucket.io/thesefoolishthings/modules/thesefoolishthings-examples/it-tidalwave-thesefoolishthings-examples-data/apidocs/it/tidalwave/thesefoolishthings/examples/person/PersonRegistry.html?is-external=true]] {
            {abstract} +findPerson(): Finder<Person>
            {abstract} +add(Person): void
        }
    }

    center footer UMLDoclet 2.0.12, PlantUML 1.2020.16
@enduml

PlantUML version 1.2020.16(Sun Aug 23 22:20:43 CEST 2020)
(APACHE source distribution)
Java Runtime: OpenJDK Runtime Environment
JVM: OpenJDK 64-Bit Server VM
Default Encoding: UTF-8
Language: en
Country: GB
--></g></svg>