<?xml version="1.0" encoding="UTF-8" standalone="no"?><svg xmlns="http://www.w3.org/2000/svg" xmlns:xlink="http://www.w3.org/1999/xlink" contentScriptType="application/ecmascript" contentStyleType="text/css" height="151px" preserveAspectRatio="none" style="width:4798px;height:151px;" version="1.1" viewBox="0 0 4798 151" width="4798px" zoomAndPan="magnify"><defs><filter height="300%" id="fch74qfbqcuis" width="300%" x="-1" y="-1"><feGaussianBlur result="blurOut" stdDeviation="2.0"/><feColorMatrix in="blurOut" result="blurOut2" type="matrix" values="0 0 0 0 0 0 0 0 0 0 0 0 0 0 0 0 0 0 .4 0"/><feOffset dx="4.0" dy="4.0" in="blurOut2" result="blurOut3"/><feBlend in="SourceGraphic" in2="blurOut3" mode="normal"/></filter></defs><g><!--MD5=[9033afd0354f10d5bdc5f217a76b3874]
class it.tidalwave.bluemarine2.ui.impl.javafx--><a href="it/tidalwave/bluemarine2/ui/impl/javafx/package-summary.html" target="_top" title="it/tidalwave/bluemarine2/ui/impl/javafx/package-summary.html" xlink:actuate="onRequest" xlink:href="it/tidalwave/bluemarine2/ui/impl/javafx/package-summary.html" xlink:show="new" xlink:title="it/tidalwave/bluemarine2/ui/impl/javafx/package-summary.html" xlink:type="simple"><rect codeLine="53" fill="#FEFECE" filter="url(#fch74qfbqcuis)" height="24.1328" id="it.tidalwave.bluemarine2.ui.impl.javafx" style="stroke: #A80036; stroke-width: 1.5;" width="230" x="1432.5" y="7"/><text fill="#000000" font-family="sans-serif" font-size="12" lengthAdjust="spacingAndGlyphs" textLength="224" x="1435.5" y="23.6016">it.tidalwave.bluemarine2.ui.impl.javafx</text></a><!--MD5=[f3fac5395084164b5fd1cd391d283204]
class javafx.scene.control--><rect fill="#FEFECE" filter="url(#fch74qfbqcuis)" height="24.1328" id="javafx.scene.control" style="stroke: #A80036; stroke-width: 1.5;" width="121" x="2574" y="91"/><text fill="#000000" font-family="sans-serif" font-size="12" lengthAdjust="spacingAndGlyphs" textLength="115" x="2577" y="107.6016">javafx.scene.control</text><!--MD5=[ace0bab5442f7240afa42562f28b4083]
class javafx.scene.layout--><rect fill="#FEFECE" filter="url(#fch74qfbqcuis)" height="24.1328" id="javafx.scene.layout" style="stroke: #A80036; stroke-width: 1.5;" width="116" x="1449.5" y="91"/><text fill="#000000" font-family="sans-serif" font-size="12" lengthAdjust="spacingAndGlyphs" textLength="110" x="1452.5" y="107.6016">javafx.scene.layout</text><!--MD5=[c18a28c10143dbfbc566a10952e74eb8]
class javafx.scene--><rect fill="#FEFECE" filter="url(#fch74qfbqcuis)" height="24.1328" id="javafx.scene" style="stroke: #A80036; stroke-width: 1.5;" width="78" x="1051.5" y="91"/><text fill="#000000" font-family="sans-serif" font-size="12" lengthAdjust="spacingAndGlyphs" textLength="72" x="1054.5" y="107.6016">javafx.scene</text><!--MD5=[960e6b17bddf80f494dbe3b08216700f]
class it.tidalwave.bluemarine2.ui.impl.javafx.role--><a href="it/tidalwave/bluemarine2/ui/impl/javafx/role/package-summary.html" target="_top" title="it/tidalwave/bluemarine2/ui/impl/javafx/role/package-summary.html" xlink:actuate="onRequest" xlink:href="it/tidalwave/bluemarine2/ui/impl/javafx/role/package-summary.html" xlink:show="new" xlink:title="it/tidalwave/bluemarine2/ui/impl/javafx/role/package-summary.html" xlink:type="simple"><rect codeLine="55" fill="#FEFECE" filter="url(#fch74qfbqcuis)" height="24.1328" id="it.tidalwave.bluemarine2.ui.impl.javafx.role" style="stroke: #A80036; stroke-width: 1.5;" width="256" x="736.5" y="7"/><text fill="#000000" font-family="sans-serif" font-size="12" lengthAdjust="spacingAndGlyphs" textLength="250" x="739.5" y="23.6016">it.tidalwave.bluemarine2.ui.impl.javafx.role</text></a><!--MD5=[a351feba7c384bf1bb3b302f94fbd0af]
class it.tidalwave.ui.role.javafx--><rect fill="#FEFECE" filter="url(#fch74qfbqcuis)" height="24.1328" id="it.tidalwave.ui.role.javafx" style="stroke: #A80036; stroke-width: 1.5;" width="150" x="607.5" y="91"/><text fill="#000000" font-family="sans-serif" font-size="12" lengthAdjust="spacingAndGlyphs" textLength="144" x="610.5" y="107.6016">it.tidalwave.ui.role.javafx</text><!--MD5=[1c12421977ee68645972f39746b4053d]
class it.tidalwave.bluemarine2.model.audio--><rect fill="#FEFECE" filter="url(#fch74qfbqcuis)" height="24.1328" id="it.tidalwave.bluemarine2.model.audio" style="stroke: #A80036; stroke-width: 1.5;" width="224" x="792.5" y="91"/><text fill="#000000" font-family="sans-serif" font-size="12" lengthAdjust="spacingAndGlyphs" textLength="218" x="795.5" y="107.6016">it.tidalwave.bluemarine2.model.audio</text><!--MD5=[bf548c404fad9275f8b3952737178cdc]
class it.tidalwave.bluemarine2.model--><rect fill="#FEFECE" filter="url(#fch74qfbqcuis)" height="24.1328" id="it.tidalwave.bluemarine2.model" style="stroke: #A80036; stroke-width: 1.5;" width="188" x="2350.5" y="91"/><text fill="#000000" font-family="sans-serif" font-size="12" lengthAdjust="spacingAndGlyphs" textLength="182" x="2353.5" y="107.6016">it.tidalwave.bluemarine2.model</text><!--MD5=[f352c68d85b1fb61e9fe8ad79b253371]
class it.tidalwave.bluemarine2.model.impl--><rect fill="#FEFECE" filter="url(#fch74qfbqcuis)" height="24.1328" id="it.tidalwave.bluemarine2.model.impl" style="stroke: #A80036; stroke-width: 1.5;" width="217" x="7" y="91"/><text fill="#000000" font-family="sans-serif" font-size="12" lengthAdjust="spacingAndGlyphs" textLength="211" x="10" y="107.6016">it.tidalwave.bluemarine2.model.impl</text><!--MD5=[bb902d3a30764a1e708a34a91a64a2e2]
class it.tidalwave.role.ui--><rect fill="#FEFECE" filter="url(#fch74qfbqcuis)" height="24.1328" id="it.tidalwave.role.ui" style="stroke: #A80036; stroke-width: 1.5;" width="111" x="2204" y="91"/><text fill="#000000" font-family="sans-serif" font-size="12" lengthAdjust="spacingAndGlyphs" textLength="105" x="2207" y="107.6016">it.tidalwave.role.ui</text><!--MD5=[afb13d1c3b513e920cd871c9e2008b30]
class it.tidalwave.bluemarine2.model.impl.catalog.browser--><a href="http://blueMarine.tidalwave.it/bluemarine2-modules/it-tidalwave-bluemarine2-catalog/apidocs/it/tidalwave/bluemarine2/model/impl/catalog/browser/package-summary.html?is-external=true" target="_top" title="http://blueMarine.tidalwave.it/bluemarine2-modules/it-tidalwave-bluemarine2-catalog/apidocs/it/tidalwave/bluemarine2/model/impl/catalog/browser/package-summary.html?is-external=true" xlink:actuate="onRequest" xlink:href="http://blueMarine.tidalwave.it/bluemarine2-modules/it-tidalwave-bluemarine2-catalog/apidocs/it/tidalwave/bluemarine2/model/impl/catalog/browser/package-summary.html?is-external=true" xlink:show="new" xlink:title="http://blueMarine.tidalwave.it/bluemarine2-modules/it-tidalwave-bluemarine2-catalog/apidocs/it/tidalwave/bluemarine2/model/impl/catalog/browser/package-summary.html?is-external=true" xlink:type="simple"><rect codeLine="57" fill="#FEFECE" filter="url(#fch74qfbqcuis)" height="24.1328" id="it.tidalwave.bluemarine2.model.impl.catalog.browser" style="stroke: #A80036; stroke-width: 1.5;" width="313" x="259" y="91"/><text fill="#000000" font-family="sans-serif" font-size="12" lengthAdjust="spacingAndGlyphs" textLength="307" x="262" y="107.6016">it.tidalwave.bluemarine2.model.impl.catalog.browser</text></a><!--MD5=[5ae57f2a88f65a0b9ac2d5bdeecc174d]
class it.tidalwave.bluemarine2.ui.video.explorer.impl.javafx--><a href="it/tidalwave/bluemarine2/ui/video/explorer/impl/javafx/package-summary.html" target="_top" title="it/tidalwave/bluemarine2/ui/video/explorer/impl/javafx/package-summary.html" xlink:actuate="onRequest" xlink:href="it/tidalwave/bluemarine2/ui/video/explorer/impl/javafx/package-summary.html" xlink:show="new" xlink:title="it/tidalwave/bluemarine2/ui/video/explorer/impl/javafx/package-summary.html" xlink:type="simple"><rect codeLine="59" fill="#FEFECE" filter="url(#fch74qfbqcuis)" height="24.1328" id="it.tidalwave.bluemarine2.ui.video.explorer.impl.javafx" style="stroke: #A80036; stroke-width: 1.5;" width="318" x="1697.5" y="7"/><text fill="#000000" font-family="sans-serif" font-size="12" lengthAdjust="spacingAndGlyphs" textLength="312" x="1700.5" y="23.6016">it.tidalwave.bluemarine2.ui.video.explorer.impl.javafx</text></a><!--MD5=[181bf9c1e58f45dd5d3e550db9566eaa]
class it.tidalwave.bluemarine2.ui.video.explorer--><a href="http://blueMarine.tidalwave.it/bluemarine2-modules/it-tidalwave-bluemarine2-ui/apidocs/it/tidalwave/bluemarine2/ui/video/explorer/package-summary.html?is-external=true" target="_top" title="http://blueMarine.tidalwave.it/bluemarine2-modules/it-tidalwave-bluemarine2-ui/apidocs/it/tidalwave/bluemarine2/ui/video/explorer/package-summary.html?is-external=true" xlink:actuate="onRequest" xlink:href="http://blueMarine.tidalwave.it/bluemarine2-modules/it-tidalwave-bluemarine2-ui/apidocs/it/tidalwave/bluemarine2/ui/video/explorer/package-summary.html?is-external=true" xlink:show="new" xlink:title="http://blueMarine.tidalwave.it/bluemarine2-modules/it-tidalwave-bluemarine2-ui/apidocs/it/tidalwave/bluemarine2/ui/video/explorer/package-summary.html?is-external=true" xlink:type="simple"><rect codeLine="61" fill="#FEFECE" filter="url(#fch74qfbqcuis)" height="24.1328" id="it.tidalwave.bluemarine2.ui.video.explorer" style="stroke: #A80036; stroke-width: 1.5;" width="250" x="1164.5" y="91"/><text fill="#000000" font-family="sans-serif" font-size="12" lengthAdjust="spacingAndGlyphs" textLength="244" x="1167.5" y="107.6016">it.tidalwave.bluemarine2.ui.video.explorer</text></a><!--MD5=[a555bb117f7263c3ed3bcbb26e44ed7e]
class it.tidalwave.bluemarine2.ui.commons.flowcontroller--><a href="http://blueMarine.tidalwave.it/bluemarine2-modules/it-tidalwave-bluemarine2-ui/apidocs/it/tidalwave/bluemarine2/ui/commons/flowcontroller/package-summary.html?is-external=true" target="_top" title="http://blueMarine.tidalwave.it/bluemarine2-modules/it-tidalwave-bluemarine2-ui/apidocs/it/tidalwave/bluemarine2/ui/commons/flowcontroller/package-summary.html?is-external=true" xlink:actuate="onRequest" xlink:href="http://blueMarine.tidalwave.it/bluemarine2-modules/it-tidalwave-bluemarine2-ui/apidocs/it/tidalwave/bluemarine2/ui/commons/flowcontroller/package-summary.html?is-external=true" xlink:show="new" xlink:title="http://blueMarine.tidalwave.it/bluemarine2-modules/it-tidalwave-bluemarine2-ui/apidocs/it/tidalwave/bluemarine2/ui/commons/flowcontroller/package-summary.html?is-external=true" xlink:type="simple"><rect codeLine="63" fill="#FEFECE" filter="url(#fch74qfbqcuis)" height="24.1328" id="it.tidalwave.bluemarine2.ui.commons.flowcontroller" style="stroke: #A80036; stroke-width: 1.5;" width="302" x="1600.5" y="91"/><text fill="#000000" font-family="sans-serif" font-size="12" lengthAdjust="spacingAndGlyphs" textLength="296" x="1603.5" y="107.6016">it.tidalwave.bluemarine2.ui.commons.flowcontroller</text></a><!--MD5=[39ce548e8285b6489fd3eaf651f6f4b0]
class it.tidalwave.ui.javafx--><rect fill="#FEFECE" filter="url(#fch74qfbqcuis)" height="24.1328" id="it.tidalwave.ui.javafx" style="stroke: #A80036; stroke-width: 1.5;" width="124" x="2730.5" y="91"/><text fill="#000000" font-family="sans-serif" font-size="12" lengthAdjust="spacingAndGlyphs" textLength="118" x="2733.5" y="107.6016">it.tidalwave.ui.javafx</text><!--MD5=[459d06b7ae6b5440e350b46b4d31de22]
class it.tidalwave.bluemarine2.ui.mainscreen.impl.javafx--><a href="it/tidalwave/bluemarine2/ui/mainscreen/impl/javafx/package-summary.html" target="_top" title="it/tidalwave/bluemarine2/ui/mainscreen/impl/javafx/package-summary.html" xlink:actuate="onRequest" xlink:href="it/tidalwave/bluemarine2/ui/mainscreen/impl/javafx/package-summary.html" xlink:show="new" xlink:title="it/tidalwave/bluemarine2/ui/mainscreen/impl/javafx/package-summary.html" xlink:type="simple"><rect codeLine="65" fill="#FEFECE" filter="url(#fch74qfbqcuis)" height="24.1328" id="it.tidalwave.bluemarine2.ui.mainscreen.impl.javafx" style="stroke: #A80036; stroke-width: 1.5;" width="300" x="2109.5" y="7"/><text fill="#000000" font-family="sans-serif" font-size="12" lengthAdjust="spacingAndGlyphs" textLength="294" x="2112.5" y="23.6016">it.tidalwave.bluemarine2.ui.mainscreen.impl.javafx</text></a><!--MD5=[71d883928a2105fa74804859b454c443]
class it.tidalwave.bluemarine2.ui.mainscreen--><a href="http://blueMarine.tidalwave.it/bluemarine2-modules/it-tidalwave-bluemarine2-ui/apidocs/it/tidalwave/bluemarine2/ui/mainscreen/package-summary.html?is-external=true" target="_top" title="http://blueMarine.tidalwave.it/bluemarine2-modules/it-tidalwave-bluemarine2-ui/apidocs/it/tidalwave/bluemarine2/ui/mainscreen/package-summary.html?is-external=true" xlink:actuate="onRequest" xlink:href="http://blueMarine.tidalwave.it/bluemarine2-modules/it-tidalwave-bluemarine2-ui/apidocs/it/tidalwave/bluemarine2/ui/mainscreen/package-summary.html?is-external=true" xlink:show="new" xlink:title="http://blueMarine.tidalwave.it/bluemarine2-modules/it-tidalwave-bluemarine2-ui/apidocs/it/tidalwave/bluemarine2/ui/mainscreen/package-summary.html?is-external=true" xlink:type="simple"><rect codeLine="67" fill="#FEFECE" filter="url(#fch74qfbqcuis)" height="24.1328" id="it.tidalwave.bluemarine2.ui.mainscreen" style="stroke: #A80036; stroke-width: 1.5;" width="232" x="1937.5" y="91"/><text fill="#000000" font-family="sans-serif" font-size="12" lengthAdjust="spacingAndGlyphs" textLength="226" x="1940.5" y="107.6016">it.tidalwave.bluemarine2.ui.mainscreen</text></a><!--MD5=[5b5f346910bf9ca636b1ced9911f182e]
class it.tidalwave.role.ui.javafx--><rect fill="#FEFECE" filter="url(#fch74qfbqcuis)" height="24.1328" id="it.tidalwave.role.ui.javafx" style="stroke: #A80036; stroke-width: 1.5;" width="150" x="3327.5" y="91"/><text fill="#000000" font-family="sans-serif" font-size="12" lengthAdjust="spacingAndGlyphs" textLength="144" x="3330.5" y="107.6016">it.tidalwave.role.ui.javafx</text><!--MD5=[4ae8523300154015fc517524d6941dab]
class it.tidalwave.bluemarine2.ui.stillimage.explorer.impl.javafx--><a href="it/tidalwave/bluemarine2/ui/stillimage/explorer/impl/javafx/package-summary.html" target="_top" title="it/tidalwave/bluemarine2/ui/stillimage/explorer/impl/javafx/package-summary.html" xlink:actuate="onRequest" xlink:href="it/tidalwave/bluemarine2/ui/stillimage/explorer/impl/javafx/package-summary.html" xlink:show="new" xlink:title="it/tidalwave/bluemarine2/ui/stillimage/explorer/impl/javafx/package-summary.html" xlink:type="simple"><rect codeLine="69" fill="#FEFECE" filter="url(#fch74qfbqcuis)" height="24.1328" id="it.tidalwave.bluemarine2.ui.stillimage.explorer.impl.javafx" style="stroke: #A80036; stroke-width: 1.5;" width="341" x="2888" y="7"/><text fill="#000000" font-family="sans-serif" font-size="12" lengthAdjust="spacingAndGlyphs" textLength="335" x="2891" y="23.6016">it.tidalwave.bluemarine2.ui.stillimage.explorer.impl.javafx</text></a><!--MD5=[fe12834fac81c0d27ba8e05fe74e61cd]
class it.tidalwave.bluemarine2.ui.stillimage.explorer--><a href="http://blueMarine.tidalwave.it/bluemarine2-modules/it-tidalwave-bluemarine2-ui/apidocs/it/tidalwave/bluemarine2/ui/stillimage/explorer/package-summary.html?is-external=true" target="_top" title="http://blueMarine.tidalwave.it/bluemarine2-modules/it-tidalwave-bluemarine2-ui/apidocs/it/tidalwave/bluemarine2/ui/stillimage/explorer/package-summary.html?is-external=true" xlink:actuate="onRequest" xlink:href="http://blueMarine.tidalwave.it/bluemarine2-modules/it-tidalwave-bluemarine2-ui/apidocs/it/tidalwave/bluemarine2/ui/stillimage/explorer/package-summary.html?is-external=true" xlink:show="new" xlink:title="http://blueMarine.tidalwave.it/bluemarine2-modules/it-tidalwave-bluemarine2-ui/apidocs/it/tidalwave/bluemarine2/ui/stillimage/explorer/package-summary.html?is-external=true" xlink:type="simple"><rect codeLine="71" fill="#FEFECE" filter="url(#fch74qfbqcuis)" height="24.1328" id="it.tidalwave.bluemarine2.ui.stillimage.explorer" style="stroke: #A80036; stroke-width: 1.5;" width="273" x="3658" y="91"/><text fill="#000000" font-family="sans-serif" font-size="12" lengthAdjust="spacingAndGlyphs" textLength="267" x="3661" y="107.6016">it.tidalwave.bluemarine2.ui.stillimage.explorer</text></a><!--MD5=[0cc2627be21a2b3b79b0484d393ca625]
class it.tidalwave.bluemarine2.ui.commons.flowcontroller.impl.javafx--><a href="it/tidalwave/bluemarine2/ui/commons/flowcontroller/impl/javafx/package-summary.html" target="_top" title="it/tidalwave/bluemarine2/ui/commons/flowcontroller/impl/javafx/package-summary.html" xlink:actuate="onRequest" xlink:href="it/tidalwave/bluemarine2/ui/commons/flowcontroller/impl/javafx/package-summary.html" xlink:show="new" xlink:title="it/tidalwave/bluemarine2/ui/commons/flowcontroller/impl/javafx/package-summary.html" xlink:type="simple"><rect codeLine="73" fill="#FEFECE" filter="url(#fch74qfbqcuis)" height="24.1328" id="it.tidalwave.bluemarine2.ui.commons.flowcontroller.impl.javafx" style="stroke: #A80036; stroke-width: 1.5;" width="370" x="1027.5" y="7"/><text fill="#000000" font-family="sans-serif" font-size="12" lengthAdjust="spacingAndGlyphs" textLength="364" x="1030.5" y="23.6016">it.tidalwave.bluemarine2.ui.commons.flowcontroller.impl.javafx</text></a><!--MD5=[51eca4ee12f4ba6f95346ce012e75366]
class it.tidalwave.bluemarine2.ui.audio.renderer.impl.javafx--><a href="it/tidalwave/bluemarine2/ui/audio/renderer/impl/javafx/package-summary.html" target="_top" title="it/tidalwave/bluemarine2/ui/audio/renderer/impl/javafx/package-summary.html" xlink:actuate="onRequest" xlink:href="it/tidalwave/bluemarine2/ui/audio/renderer/impl/javafx/package-summary.html" xlink:show="new" xlink:title="it/tidalwave/bluemarine2/ui/audio/renderer/impl/javafx/package-summary.html" xlink:type="simple"><rect codeLine="75" fill="#FEFECE" filter="url(#fch74qfbqcuis)" height="24.1328" id="it.tidalwave.bluemarine2.ui.audio.renderer.impl.javafx" style="stroke: #A80036; stroke-width: 1.5;" width="321" x="3324" y="7"/><text fill="#000000" font-family="sans-serif" font-size="12" lengthAdjust="spacingAndGlyphs" textLength="315" x="3327" y="23.6016">it.tidalwave.bluemarine2.ui.audio.renderer.impl.javafx</text></a><!--MD5=[9d1c57f073a2a7ebcafe61ef1c4c87d7]
class it.tidalwave.bluemarine2.ui.audio.renderer--><a href="http://blueMarine.tidalwave.it/bluemarine2-modules/it-tidalwave-bluemarine2-ui/apidocs/it/tidalwave/bluemarine2/ui/audio/renderer/package-summary.html?is-external=true" target="_top" title="http://blueMarine.tidalwave.it/bluemarine2-modules/it-tidalwave-bluemarine2-ui/apidocs/it/tidalwave/bluemarine2/ui/audio/renderer/package-summary.html?is-external=true" xlink:actuate="onRequest" xlink:href="http://blueMarine.tidalwave.it/bluemarine2-modules/it-tidalwave-bluemarine2-ui/apidocs/it/tidalwave/bluemarine2/ui/audio/renderer/package-summary.html?is-external=true" xlink:show="new" xlink:title="http://blueMarine.tidalwave.it/bluemarine2-modules/it-tidalwave-bluemarine2-ui/apidocs/it/tidalwave/bluemarine2/ui/audio/renderer/package-summary.html?is-external=true" xlink:type="simple"><rect codeLine="77" fill="#FEFECE" filter="url(#fch74qfbqcuis)" height="24.1328" id="it.tidalwave.bluemarine2.ui.audio.renderer" style="stroke: #A80036; stroke-width: 1.5;" width="253" x="4217" y="91"/><text fill="#000000" font-family="sans-serif" font-size="12" lengthAdjust="spacingAndGlyphs" textLength="247" x="4220" y="107.6016">it.tidalwave.bluemarine2.ui.audio.renderer</text></a><!--MD5=[676cd9059b341e878ddebc0597340d7e]
class it.tidalwave.bluemarine2.ui.audio.renderer.spi--><a href="http://blueMarine.tidalwave.it/bluemarine2-modules/it-tidalwave-bluemarine2-ui/apidocs/it/tidalwave/bluemarine2/ui/audio/renderer/spi/package-summary.html?is-external=true" target="_top" title="http://blueMarine.tidalwave.it/bluemarine2-modules/it-tidalwave-bluemarine2-ui/apidocs/it/tidalwave/bluemarine2/ui/audio/renderer/spi/package-summary.html?is-external=true" xlink:actuate="onRequest" xlink:href="http://blueMarine.tidalwave.it/bluemarine2-modules/it-tidalwave-bluemarine2-ui/apidocs/it/tidalwave/bluemarine2/ui/audio/renderer/spi/package-summary.html?is-external=true" xlink:show="new" xlink:title="http://blueMarine.tidalwave.it/bluemarine2-modules/it-tidalwave-bluemarine2-ui/apidocs/it/tidalwave/bluemarine2/ui/audio/renderer/spi/package-summary.html?is-external=true" xlink:type="simple"><rect codeLine="79" fill="#FEFECE" filter="url(#fch74qfbqcuis)" height="24.1328" id="it.tidalwave.bluemarine2.ui.audio.renderer.spi" style="stroke: #A80036; stroke-width: 1.5;" width="274" x="4505.5" y="91"/><text fill="#000000" font-family="sans-serif" font-size="12" lengthAdjust="spacingAndGlyphs" textLength="268" x="4508.5" y="107.6016">it.tidalwave.bluemarine2.ui.audio.renderer.spi</text></a><!--MD5=[36792d821aa6176c072df68d5e1c68d8]
class javafx.util--><rect fill="#FEFECE" filter="url(#fch74qfbqcuis)" height="24.1328" id="javafx.util" style="stroke: #A80036; stroke-width: 1.5;" width="62" x="3966.5" y="91"/><text fill="#000000" font-family="sans-serif" font-size="12" lengthAdjust="spacingAndGlyphs" textLength="56" x="3969.5" y="107.6016">javafx.util</text><!--MD5=[16e30d1ab62912f417b40c138c1ad6b3]
class javafx.scene.media--><rect fill="#FEFECE" filter="url(#fch74qfbqcuis)" height="24.1328" id="javafx.scene.media" style="stroke: #A80036; stroke-width: 1.5;" width="118" x="4063.5" y="91"/><text fill="#000000" font-family="sans-serif" font-size="12" lengthAdjust="spacingAndGlyphs" textLength="112" x="4066.5" y="107.6016">javafx.scene.media</text><!--MD5=[2f6d9b015fbbbb11ef7c4efdf8a9c49b]
class javafx.scene.input--><rect fill="#FEFECE" filter="url(#fch74qfbqcuis)" height="24.1328" id="javafx.scene.input" style="stroke: #A80036; stroke-width: 1.5;" width="111" x="3512" y="91"/><text fill="#000000" font-family="sans-serif" font-size="12" lengthAdjust="spacingAndGlyphs" textLength="105" x="3515" y="107.6016">javafx.scene.input</text><!--MD5=[b2074531cb007d708ba2bd8917cb92d6]
class it.tidalwave.bluemarine2.ui.audio.explorer.impl.javafx--><a href="it/tidalwave/bluemarine2/ui/audio/explorer/impl/javafx/package-summary.html" target="_top" title="it/tidalwave/bluemarine2/ui/audio/explorer/impl/javafx/package-summary.html" xlink:actuate="onRequest" xlink:href="it/tidalwave/bluemarine2/ui/audio/explorer/impl/javafx/package-summary.html" xlink:show="new" xlink:title="it/tidalwave/bluemarine2/ui/audio/explorer/impl/javafx/package-summary.html" xlink:type="simple"><rect codeLine="81" fill="#FEFECE" filter="url(#fch74qfbqcuis)" height="24.1328" id="it.tidalwave.bluemarine2.ui.audio.explorer.impl.javafx" style="stroke: #A80036; stroke-width: 1.5;" width="319" x="2534" y="7"/><text fill="#000000" font-family="sans-serif" font-size="12" lengthAdjust="spacingAndGlyphs" textLength="313" x="2537" y="23.6016">it.tidalwave.bluemarine2.ui.audio.explorer.impl.javafx</text></a><!--MD5=[91c8d296828c566a692d3797252fb402]
class it.tidalwave.bluemarine2.ui.audio.explorer--><a href="http://blueMarine.tidalwave.it/bluemarine2-modules/it-tidalwave-bluemarine2-ui/apidocs/it/tidalwave/bluemarine2/ui/audio/explorer/package-summary.html?is-external=true" target="_top" title="http://blueMarine.tidalwave.it/bluemarine2-modules/it-tidalwave-bluemarine2-ui/apidocs/it/tidalwave/bluemarine2/ui/audio/explorer/package-summary.html?is-external=true" xlink:actuate="onRequest" xlink:href="http://blueMarine.tidalwave.it/bluemarine2-modules/it-tidalwave-bluemarine2-ui/apidocs/it/tidalwave/bluemarine2/ui/audio/explorer/package-summary.html?is-external=true" xlink:show="new" xlink:title="http://blueMarine.tidalwave.it/bluemarine2-modules/it-tidalwave-bluemarine2-ui/apidocs/it/tidalwave/bluemarine2/ui/audio/explorer/package-summary.html?is-external=true" xlink:type="simple"><rect codeLine="83" fill="#FEFECE" filter="url(#fch74qfbqcuis)" height="24.1328" id="it.tidalwave.bluemarine2.ui.audio.explorer" style="stroke: #A80036; stroke-width: 1.5;" width="251" x="3042" y="91"/><text fill="#000000" font-family="sans-serif" font-size="12" lengthAdjust="spacingAndGlyphs" textLength="245" x="3045" y="107.6016">it.tidalwave.bluemarine2.ui.audio.explorer</text></a><!--MD5=[7ab53c061002d918f07b87dc7b8a8dee]
class javafx.scene.image--><rect fill="#FEFECE" filter="url(#fch74qfbqcuis)" height="24.1328" id="javafx.scene.image" style="stroke: #A80036; stroke-width: 1.5;" width="117" x="2890" y="91"/><text fill="#000000" font-family="sans-serif" font-size="12" lengthAdjust="spacingAndGlyphs" textLength="111" x="2893" y="107.6016">javafx.scene.image</text><!--MD5=[aa10e5e20acd5d35b2969b3a53f8c2cc]
link it.tidalwave.bluemarine2.ui.impl.javafx to javafx.scene.control--><path codeLine="6" d="M1662.6729,29.6224 C1668.3616,30.0994 1673.9948,30.5613 1679.5,31 C2068.5122,62.0008 2167.5946,48.3277 2555.5,91 C2559.7618,91.4688 2564.146,91.9994 2568.5609,92.5699 " fill="none" id="it.tidalwave.bluemarine2.ui.impl.javafx-to-javafx.scene.control" style="stroke: #A80036; stroke-width: 1.0;"/><polygon fill="#A80036" points="2573.7523,93.2566,2565.3547,88.1106,2568.7955,92.6008,2564.3054,96.0415,2573.7523,93.2566" style="stroke: #A80036; stroke-width: 1.0;"/><!--MD5=[0a091aa321b252c024020c8bf1373565]
link it.tidalwave.bluemarine2.ui.impl.javafx to javafx.scene.layout--><path codeLine="7" d="M1541.769,31.0352 C1534.8779,45.5065 1523.2709,69.881 1515.4996,86.2009 " fill="none" id="it.tidalwave.bluemarine2.ui.impl.javafx-to-javafx.scene.layout" style="stroke: #A80036; stroke-width: 1.0;"/><polygon fill="#A80036" points="1513.2204,90.9872,1520.7013,84.5813,1515.3701,86.4729,1513.4785,81.1417,1513.2204,90.9872" style="stroke: #A80036; stroke-width: 1.0;"/><!--MD5=[a78144c041a661dc8798d1e7cc4d1c11]
link it.tidalwave.bluemarine2.ui.impl.javafx to javafx.scene--><path codeLine="8" d="M1476.3781,31.0306 C1396.111,44.7799 1261.7029,68.321 1146.5,91 C1142.6587,91.7562 1138.6742,92.5637 1134.6816,93.3887 " fill="none" id="it.tidalwave.bluemarine2.ui.impl.javafx-to-javafx.scene" style="stroke: #A80036; stroke-width: 1.0;"/><polygon fill="#A80036" points="1129.6299,94.4407,1139.2564,96.5217,1134.5249,93.4213,1137.6253,88.6898,1129.6299,94.4407" style="stroke: #A80036; stroke-width: 1.0;"/><!--MD5=[60bfa7994767fb4c95906050df660575]
link it.tidalwave.bluemarine2.ui.impl.javafx.role to it.tidalwave.ui.role.javafx--><path codeLine="9" d="M838.4238,31.0352 C805.3123,46.3174 748.2718,72.6438 713.1253,88.8653 " fill="none" id="it.tidalwave.bluemarine2.ui.impl.javafx.role-to-it.tidalwave.ui.role.javafx" style="stroke: #A80036; stroke-width: 1.0;"/><polygon fill="#A80036" points="708.5278,90.9872,718.3757,90.8473,713.0676,88.8918,715.0231,83.5837,708.5278,90.9872" style="stroke: #A80036; stroke-width: 1.0;"/><!--MD5=[9a56501ab42a559a0f4b2a9b4305103d]
link it.tidalwave.bluemarine2.ui.impl.javafx.role to it.tidalwave.bluemarine2.model.audio--><path codeLine="10" d="M870.231,31.0352 C877.1221,45.5065 888.7291,69.881 896.5004,86.2009 " fill="none" id="it.tidalwave.bluemarine2.ui.impl.javafx.role-to-it.tidalwave.bluemarine2.model.audio" style="stroke: #A80036; stroke-width: 1.0;"/><polygon fill="#A80036" points="898.7796,90.9872,898.5215,81.1417,896.6299,86.4729,891.2987,84.5813,898.7796,90.9872" style="stroke: #A80036; stroke-width: 1.0;"/><!--MD5=[652546fcedcdcec461aa74795fb3d671]
link it.tidalwave.bluemarine2.ui.impl.javafx.role to javafx.scene--><path codeLine="11" d="M896.8803,31.0352 C938.2486,46.411 1009.6957,72.9665 1053.2694,89.1621 " fill="none" id="it.tidalwave.bluemarine2.ui.impl.javafx.role-to-javafx.scene" style="stroke: #A80036; stroke-width: 1.0;"/><polygon fill="#A80036" points="1058.1798,90.9872,1051.1373,84.1022,1053.4931,89.2452,1048.3501,91.601,1058.1798,90.9872" style="stroke: #A80036; stroke-width: 1.0;"/><!--MD5=[6421bb0a6d4addce7662636386cf3907]
link it.tidalwave.bluemarine2.ui.impl.javafx.role to it.tidalwave.bluemarine2.model--><path codeLine="12" d="M992.5708,29.8593 C998.2908,30.2622 1003.9542,30.6449 1009.5,31 C1596.9014,68.6129 1745.5959,46.2927 2332.5,91 C2336.7045,91.3203 2340.9953,91.6717 2345.3281,92.0469 " fill="none" id="it.tidalwave.bluemarine2.ui.impl.javafx.role-to-it.tidalwave.bluemarine2.model" style="stroke: #A80036; stroke-width: 1.0;"/><polygon fill="#A80036" points="2350.431,92.4976,2341.8181,87.7209,2345.4504,92.0575,2341.1138,95.6898,2350.431,92.4976" style="stroke: #A80036; stroke-width: 1.0;"/><!--MD5=[467a5c762702501c428b4800031a0675]
link it.tidalwave.bluemarine2.ui.impl.javafx.role to it.tidalwave.bluemarine2.model.impl--><path codeLine="13" d="M757.1866,31.0352 C616.4703,46.8164 370.7412,74.3748 227.6606,90.4212 " fill="none" id="it.tidalwave.bluemarine2.ui.impl.javafx.role-to-it.tidalwave.bluemarine2.model.impl" style="stroke: #A80036; stroke-width: 1.0;"/><polygon fill="#A80036" points="222.6144,90.9872,232.0042,93.9589,227.5832,90.4298,231.1124,86.0088,222.6144,90.9872" style="stroke: #A80036; stroke-width: 1.0;"/><!--MD5=[e010a3507c8fcccae0dd8f9d31a2ea32]
link it.tidalwave.bluemarine2.ui.impl.javafx.role to it.tidalwave.role.ui--><path codeLine="14" d="M992.5734,29.8203 C998.2926,30.2337 1003.9552,30.6293 1009.5,31 C1532.1238,65.9379 1665.7013,35.0979 2186.5,91 C2190.4508,91.4241 2194.5129,91.9209 2198.6016,92.4667 " fill="none" id="it.tidalwave.bluemarine2.ui.impl.javafx.role-to-it.tidalwave.role.ui" style="stroke: #A80036; stroke-width: 1.0;"/><polygon fill="#A80036" points="2203.7885,93.1825,2195.4198,87.9896,2198.8354,92.4989,2194.3262,95.9145,2203.7885,93.1825" style="stroke: #A80036; stroke-width: 1.0;"/><!--MD5=[e1afb0b9f268ee013acc858a999090f4]
link it.tidalwave.bluemarine2.ui.impl.javafx.role to it.tidalwave.bluemarine2.model.impl.catalog.browser--><path codeLine="15" d="M800.1692,31.0352 C716.4815,46.6917 570.8334,73.9398 484.782,90.0386 " fill="none" id="it.tidalwave.bluemarine2.ui.impl.javafx.role-to-it.tidalwave.bluemarine2.model.impl.catalog.browser" style="stroke: #A80036; stroke-width: 1.0;"/><polygon fill="#A80036" points="479.7114,90.9872,489.2935,93.2637,484.6261,90.0676,487.8222,85.4002,479.7114,90.9872" style="stroke: #A80036; stroke-width: 1.0;"/><!--MD5=[a27343ef5e9c2104f834786d70dfa03d]
link it.tidalwave.bluemarine2.ui.video.explorer.impl.javafx to it.tidalwave.bluemarine2.ui.video.explorer--><path codeLine="16" d="M1775.2627,31.0352 C1669.1603,46.754 1484.1893,74.1571 1375.6946,90.2304 " fill="none" id="it.tidalwave.bluemarine2.ui.video.explorer.impl.javafx-to-it.tidalwave.bluemarine2.ui.video.explorer" style="stroke: #A80036; stroke-width: 1.0;"/><polygon fill="#A80036" points="1370.5866,90.9872,1380.0757,93.6249,1375.5326,90.2544,1378.9031,85.7113,1370.5866,90.9872" style="stroke: #A80036; stroke-width: 1.0;"/><!--MD5=[cf22770889600fdbc8aed86c4d61786d]
link it.tidalwave.bluemarine2.ui.video.explorer.impl.javafx to it.tidalwave.bluemarine2.ui.commons.flowcontroller--><path codeLine="17" d="M1841.4561,31.0352 C1822.7431,46.0055 1790.7827,71.5738 1770.4254,87.8597 " fill="none" id="it.tidalwave.bluemarine2.ui.video.explorer.impl.javafx-to-it.tidalwave.bluemarine2.ui.commons.flowcontroller" style="stroke: #A80036; stroke-width: 1.0;"/><polygon fill="#A80036" points="1766.516,90.9872,1776.0426,88.4886,1770.4204,87.8638,1771.0452,82.2416,1766.516,90.9872" style="stroke: #A80036; stroke-width: 1.0;"/><!--MD5=[013bb323c9425fa26c2153653eaece41]
link it.tidalwave.bluemarine2.ui.video.explorer.impl.javafx to it.tidalwave.ui.javafx--><path codeLine="18" d="M2015.7575,29.2884 C2187.8869,41.1332 2470.1277,62.6592 2712.5,91 C2716.6107,91.4807 2720.835,92.0097 2725.0924,92.5695 " fill="none" id="it.tidalwave.bluemarine2.ui.video.explorer.impl.javafx-to-it.tidalwave.ui.javafx" style="stroke: #A80036; stroke-width: 1.0;"/><polygon fill="#A80036" points="2730.1006,93.2399,2721.7109,88.0811,2725.1448,92.5765,2720.6494,96.0104,2730.1006,93.2399" style="stroke: #A80036; stroke-width: 1.0;"/><!--MD5=[edce6f9b3fb566c7b7b72c9997a787c0]
link it.tidalwave.bluemarine2.ui.mainscreen.impl.javafx to it.tidalwave.bluemarine2.ui.mainscreen--><path codeLine="19" d="M2229.9852,31.0352 C2192.3544,46.3798 2127.4176,72.8589 2087.6779,89.0634 " fill="none" id="it.tidalwave.bluemarine2.ui.mainscreen.impl.javafx-to-it.tidalwave.bluemarine2.ui.mainscreen" style="stroke: #A80036; stroke-width: 1.0;"/><polygon fill="#A80036" points="2082.96,90.9872,2092.8041,91.2928,2087.5899,89.0993,2089.7834,83.885,2082.96,90.9872" style="stroke: #A80036; stroke-width: 1.0;"/><!--MD5=[3869760a2d85d1a8297521004e4d1e67]
link it.tidalwave.bluemarine2.ui.mainscreen.impl.javafx to it.tidalwave.bluemarine2.ui.commons.flowcontroller--><path codeLine="20" d="M2186.716,31.0352 C2091.8428,46.7228 1926.5879,74.0485 1829.3049,90.1346 " fill="none" id="it.tidalwave.bluemarine2.ui.mainscreen.impl.javafx-to-it.tidalwave.bluemarine2.ui.commons.flowcontroller" style="stroke: #A80036; stroke-width: 1.0;"/><polygon fill="#A80036" points="1824.149,90.9872,1833.681,93.4654,1829.082,90.1715,1832.3759,85.5725,1824.149,90.9872" style="stroke: #A80036; stroke-width: 1.0;"/><!--MD5=[0ba47d7920bfcd0bb011b4d8eaf92c82]
link it.tidalwave.bluemarine2.ui.mainscreen.impl.javafx to it.tidalwave.ui.javafx--><path codeLine="21" d="M2335.8659,31.0352 C2440.3192,47.4968 2626.0843,76.7731 2725.4356,92.4308 " fill="none" id="it.tidalwave.bluemarine2.ui.mainscreen.impl.javafx-to-it.tidalwave.ui.javafx" style="stroke: #A80036; stroke-width: 1.0;"/><polygon fill="#A80036" points="2730.3926,93.212,2722.1252,87.8594,2725.4536,92.4334,2720.8795,95.7618,2730.3926,93.212" style="stroke: #A80036; stroke-width: 1.0;"/><!--MD5=[fea1313df36a1ce4dd983dd9f66ba828]
link it.tidalwave.bluemarine2.ui.mainscreen.impl.javafx to it.tidalwave.role.ui--><path codeLine="22" d="M2259.5,31.0352 C2259.5,45.3818 2259.5,69.4615 2259.5,85.777 " fill="none" id="it.tidalwave.bluemarine2.ui.mainscreen.impl.javafx-to-it.tidalwave.role.ui" style="stroke: #A80036; stroke-width: 1.0;"/><polygon fill="#A80036" points="2259.5,90.9872,2263.5,81.9872,2259.5,85.9872,2255.5,81.9872,2259.5,90.9872" style="stroke: #A80036; stroke-width: 1.0;"/><!--MD5=[ce793da7c4a4c4f3f30834510cf8d82c]
link it.tidalwave.bluemarine2.ui.mainscreen.impl.javafx to javafx.scene.layout--><path codeLine="23" d="M2126.9351,31.0154 C1990.2716,43.8906 1771.135,65.8961 1582.5,91 C1578.6399,91.5137 1574.6724,92.0686 1570.6735,92.6483 " fill="none" id="it.tidalwave.bluemarine2.ui.mainscreen.impl.javafx-to-javafx.scene.layout" style="stroke: #A80036; stroke-width: 1.0;"/><polygon fill="#A80036" points="1565.5973,93.3946,1575.0835,96.0427,1570.5441,92.6672,1573.9196,88.1278,1565.5973,93.3946" style="stroke: #A80036; stroke-width: 1.0;"/><!--MD5=[52e63945a2733328074ad686339f71e6]
link it.tidalwave.bluemarine2.ui.mainscreen.impl.javafx to javafx.scene.control--><path codeLine="24" d="M2313.2284,31.0352 C2382.845,46.6293 2503.7987,73.7229 2575.775,89.8456 " fill="none" id="it.tidalwave.bluemarine2.ui.mainscreen.impl.javafx-to-javafx.scene.control" style="stroke: #A80036; stroke-width: 1.0;"/><polygon fill="#A80036" points="2580.8713,90.9872,2572.9634,85.1166,2575.9922,89.8942,2571.2146,92.9231,2580.8713,90.9872" style="stroke: #A80036; stroke-width: 1.0;"/><!--MD5=[31a9f456c89dc959db6c58edf025ac37]
link it.tidalwave.bluemarine2.ui.mainscreen.impl.javafx to it.tidalwave.role.ui.javafx--><path codeLine="25" d="M2409.8554,26.3964 C2614.0771,37.1054 2990.4137,59.1911 3310.5,91 C3314.3318,91.3808 3318.2503,91.7951 3322.2058,92.2334 " fill="none" id="it.tidalwave.bluemarine2.ui.mainscreen.impl.javafx-to-it.tidalwave.role.ui.javafx" style="stroke: #A80036; stroke-width: 1.0;"/><polygon fill="#A80036" points="3327.2321,92.8006,3318.7374,87.8165,3322.2636,92.2399,3317.8403,95.7661,3327.2321,92.8006" style="stroke: #A80036; stroke-width: 1.0;"/><!--MD5=[b9e964f79e39b1e22487c79ac9be6199]
link it.tidalwave.bluemarine2.ui.stillimage.explorer.impl.javafx to it.tidalwave.bluemarine2.ui.stillimage.explorer--><path codeLine="26" d="M3163.9509,31.0352 C3302.0881,46.8008 3543.2118,74.3204 3683.8691,90.3736 " fill="none" id="it.tidalwave.bluemarine2.ui.stillimage.explorer.impl.javafx-to-it.tidalwave.bluemarine2.ui.stillimage.explorer" style="stroke: #A80036; stroke-width: 1.0;"/><polygon fill="#A80036" points="3689.2448,90.9872,3680.7566,85.9922,3684.2771,90.4201,3679.8492,93.9405,3689.2448,90.9872" style="stroke: #A80036; stroke-width: 1.0;"/><!--MD5=[bc64f6f2721151980b5fcfc87df6f942]
link it.tidalwave.bluemarine2.ui.stillimage.explorer.impl.javafx to it.tidalwave.bluemarine2.ui.commons.flowcontroller--><path codeLine="27" d="M2887.8886,29.8956 C2882.0215,30.2685 2876.2119,30.6375 2870.5,31 C2447.8432,57.8221 2342.0524,62.5796 1919.5,91 C1915.6024,91.2621 1911.6541,91.5296 1907.6709,91.8011 " fill="none" id="it.tidalwave.bluemarine2.ui.stillimage.explorer.impl.javafx-to-it.tidalwave.bluemarine2.ui.commons.flowcontroller" style="stroke: #A80036; stroke-width: 1.0;"/><polygon fill="#A80036" points="1902.6082,92.1471,1911.86,95.524,1907.5966,91.8061,1911.3144,87.5426,1902.6082,92.1471" style="stroke: #A80036; stroke-width: 1.0;"/><!--MD5=[ff412b31a5a6abba8286228e8fc14e1c]
link it.tidalwave.bluemarine2.ui.stillimage.explorer.impl.javafx to it.tidalwave.ui.javafx--><path codeLine="28" d="M3020.3887,31.0352 C2971.4023,46.5045 2886.5812,73.2902 2835.3875,89.4566 " fill="none" id="it.tidalwave.bluemarine2.ui.stillimage.explorer.impl.javafx-to-it.tidalwave.ui.javafx" style="stroke: #A80036; stroke-width: 1.0;"/><polygon fill="#A80036" points="2830.5406,90.9872,2840.3274,92.0912,2835.3085,89.4815,2837.9182,84.4626,2830.5406,90.9872" style="stroke: #A80036; stroke-width: 1.0;"/><!--MD5=[351f4911e8a0a897dc8d68d719524696]
link it.tidalwave.bluemarine2.ui.commons.flowcontroller.impl.javafx to it.tidalwave.bluemarine2.ui.commons.flowcontroller--><path codeLine="29" d="M1289.7256,31.0352 C1390.4883,46.7384 1566.0762,74.1028 1669.2548,90.1826 " fill="none" id="it.tidalwave.bluemarine2.ui.commons.flowcontroller.impl.javafx-to-it.tidalwave.bluemarine2.ui.commons.flowcontroller" style="stroke: #A80036; stroke-width: 1.0;"/><polygon fill="#A80036" points="1674.4177,90.9872,1666.1411,85.6489,1669.4773,90.2172,1664.9091,93.5535,1674.4177,90.9872" style="stroke: #A80036; stroke-width: 1.0;"/><!--MD5=[5d37a8034636272f91f2d57e52477c13]
link it.tidalwave.bluemarine2.ui.commons.flowcontroller.impl.javafx to javafx.scene--><path codeLine="30" d="M1195.0204,31.0352 C1173.1871,46.0679 1135.8331,71.7871 1112.1946,88.0628 " fill="none" id="it.tidalwave.bluemarine2.ui.commons.flowcontroller.impl.javafx-to-javafx.scene" style="stroke: #A80036; stroke-width: 1.0;"/><polygon fill="#A80036" points="1107.9472,90.9872,1117.6284,89.1778,1112.0654,88.1517,1113.0916,82.5887,1107.9472,90.9872" style="stroke: #A80036; stroke-width: 1.0;"/><!--MD5=[cae1ab208fd409dd3be0bfb794e03469]
link it.tidalwave.bluemarine2.ui.commons.flowcontroller.impl.javafx to javafx.scene.layout--><path codeLine="31" d="M1254.7663,31.0352 C1309.2028,46.5357 1403.5413,73.3982 1460.2797,89.5542 " fill="none" id="it.tidalwave.bluemarine2.ui.commons.flowcontroller.impl.javafx-to-javafx.scene.layout" style="stroke: #A80036; stroke-width: 1.0;"/><polygon fill="#A80036" points="1465.3121,90.9872,1457.7516,84.6754,1460.5032,89.6179,1455.5607,92.3696,1465.3121,90.9872" style="stroke: #A80036; stroke-width: 1.0;"/><!--MD5=[8f1d2c401f713981a54e350387de1486]
link it.tidalwave.bluemarine2.ui.audio.renderer.impl.javafx to it.tidalwave.bluemarine2.ui.audio.renderer--><path codeLine="32" d="M3607.5738,31.0352 C3769.1154,46.832 4051.3305,74.4293 4215.3534,90.4688 " fill="none" id="it.tidalwave.bluemarine2.ui.audio.renderer.impl.javafx-to-it.tidalwave.bluemarine2.ui.audio.renderer" style="stroke: #A80036; stroke-width: 1.0;"/><polygon fill="#A80036" points="4220.6545,90.9872,4212.0866,86.1301,4215.6782,90.5005,4211.3079,94.0921,4220.6545,90.9872" style="stroke: #A80036; stroke-width: 1.0;"/><!--MD5=[3d04b7612c0bb0b978836e86382f1a0d]
link it.tidalwave.bluemarine2.ui.audio.renderer.impl.javafx to it.tidalwave.ui.javafx--><path codeLine="33" d="M3373.2498,31.0134 C3250.5078,44.5182 3047.1975,67.6274 2872.5,91 C2868.3979,91.5488 2864.1801,92.1303 2859.9276,92.7296 " fill="none" id="it.tidalwave.bluemarine2.ui.audio.renderer.impl.javafx-to-it.tidalwave.ui.javafx" style="stroke: #A80036; stroke-width: 1.0;"/><polygon fill="#A80036" points="2854.9246,93.4405,2864.3979,96.1343,2859.8749,92.7369,2863.2722,88.2139,2854.9246,93.4405" style="stroke: #A80036; stroke-width: 1.0;"/><!--MD5=[16ce3c07830a9dff43453b9c0bc4dc47]
link it.tidalwave.bluemarine2.ui.audio.renderer.impl.javafx to it.tidalwave.bluemarine2.ui.audio.renderer.spi--><path codeLine="34" d="M3645.2055,30.2576 C3843.3008,44.1987 4190.2307,68.8233 4487.5,91 C4491.6593,91.3103 4495.8812,91.6268 4500.1431,91.9478 " fill="none" id="it.tidalwave.bluemarine2.ui.audio.renderer.impl.javafx-to-it.tidalwave.bluemarine2.ui.audio.renderer.spi" style="stroke: #A80036; stroke-width: 1.0;"/><polygon fill="#A80036" points="4505.1631,92.3264,4496.4895,87.6607,4500.1773,91.9503,4495.8877,95.638,4505.1631,92.3264" style="stroke: #A80036; stroke-width: 1.0;"/><!--MD5=[4894e2adae8d60c8059c785e15028b1c]
link it.tidalwave.bluemarine2.ui.audio.renderer.impl.javafx to javafx.util--><path codeLine="35" d="M3577.3517,31.008 C3671.3197,43.7226 3820.5929,65.4635 3948.5,91 C3952.6978,91.8381 3957.0787,92.7936 3961.4199,93.791 " fill="none" id="it.tidalwave.bluemarine2.ui.audio.renderer.impl.javafx-to-javafx.util" style="stroke: #A80036; stroke-width: 1.0;"/><polygon fill="#A80036" points="3966.4845,94.9768,3958.6336,89.0301,3961.6162,93.8368,3956.8095,96.8194,3966.4845,94.9768" style="stroke: #A80036; stroke-width: 1.0;"/><!--MD5=[a43c91007ebb68d5206913d13c431a18]
link it.tidalwave.bluemarine2.ui.audio.renderer.impl.javafx to javafx.scene.media--><path codeLine="36" d="M3585.3803,31.0245 C3697.956,44.6525 3885.4633,67.9761 4046.5,91 C4050.3121,91.545 4054.2293,92.1195 4058.1798,92.7098 " fill="none" id="it.tidalwave.bluemarine2.ui.audio.renderer.impl.javafx-to-javafx.scene.media" style="stroke: #A80036; stroke-width: 1.0;"/><polygon fill="#A80036" points="4063.196,93.465,4054.892,88.1694,4058.2517,92.7204,4053.7007,96.0802,4063.196,93.465" style="stroke: #A80036; stroke-width: 1.0;"/><!--MD5=[05a30bc9efbcf11bba8d24a27d58fc9e]
link it.tidalwave.bluemarine2.ui.audio.renderer.impl.javafx to it.tidalwave.bluemarine2.model--><path codeLine="37" d="M3323.8526,30.029 C3138.7262,43.0716 2825.422,66.1665 2556.5,91 C2552.3012,91.3877 2548.0151,91.7953 2543.6862,92.2166 " fill="none" id="it.tidalwave.bluemarine2.ui.audio.renderer.impl.javafx-to-it.tidalwave.bluemarine2.model" style="stroke: #A80036; stroke-width: 1.0;"/><polygon fill="#A80036" points="2538.5875,92.7171,2547.9353,95.8185,2543.5636,92.2285,2547.1536,87.8568,2538.5875,92.7171" style="stroke: #A80036; stroke-width: 1.0;"/><!--MD5=[587794b830976fb74c038753f9419f12]
link it.tidalwave.bluemarine2.ui.audio.renderer.impl.javafx to javafx.scene.control--><path codeLine="38" d="M3325.9986,31.0016 C3169.7276,43.4893 2924.2487,64.861 2712.5,91 C2708.58,91.4839 2704.5538,92.011 2700.4949,92.5654 " fill="none" id="it.tidalwave.bluemarine2.ui.audio.renderer.impl.javafx-to-javafx.scene.control" style="stroke: #A80036; stroke-width: 1.0;"/><polygon fill="#A80036" points="2695.3418,93.2811,2704.8065,96.0049,2700.2943,92.5932,2703.7059,88.081,2695.3418,93.2811" style="stroke: #A80036; stroke-width: 1.0;"/><!--MD5=[9507f8a2a44b995837eabb6bed64943f]
link it.tidalwave.bluemarine2.ui.audio.renderer.impl.javafx to it.tidalwave.role.ui.javafx--><path codeLine="39" d="M3472.7514,31.0352 C3458.381,45.756 3434.007,70.7245 3418.0822,87.0377 " fill="none" id="it.tidalwave.bluemarine2.ui.audio.renderer.impl.javafx-to-it.tidalwave.role.ui.javafx" style="stroke: #A80036; stroke-width: 1.0;"/><polygon fill="#A80036" points="3414.2268,90.9872,3423.376,87.3412,3417.7195,87.4094,3417.6514,81.7529,3414.2268,90.9872" style="stroke: #A80036; stroke-width: 1.0;"/><!--MD5=[0d4e742484edcc48e83121246b32f4c5]
link it.tidalwave.bluemarine2.ui.audio.renderer.impl.javafx to javafx.scene.input--><path codeLine="40" d="M3496.3919,31.0352 C3510.9375,45.756 3535.6087,70.7245 3551.7278,87.0377 " fill="none" id="it.tidalwave.bluemarine2.ui.audio.renderer.impl.javafx-to-javafx.scene.input" style="stroke: #A80036; stroke-width: 1.0;"/><polygon fill="#A80036" points="3555.6302,90.9872,3552.1499,81.7738,3552.1159,87.4305,3546.4592,87.3966,3555.6302,90.9872" style="stroke: #A80036; stroke-width: 1.0;"/><!--MD5=[02b67b2fa39a3ff94cf4af9b93d43e60]
link it.tidalwave.bluemarine2.ui.audio.renderer.impl.javafx to it.tidalwave.role.ui--><path codeLine="41" d="M3323.9944,27.0309 C3053.9263,40.8802 2519.7969,69.807 2332.5,91 C2328.5517,91.4468 2324.4915,91.9608 2320.4042,92.5193 " fill="none" id="it.tidalwave.bluemarine2.ui.audio.renderer.impl.javafx-to-it.tidalwave.role.ui" style="stroke: #A80036; stroke-width: 1.0;"/><polygon fill="#A80036" points="2315.2188,93.2489,2324.6884,95.9558,2320.17,92.5522,2323.5736,88.0339,2315.2188,93.2489" style="stroke: #A80036; stroke-width: 1.0;"/><!--MD5=[5b1f8d1538ec9da42b0e873aea6e3c32]
link it.tidalwave.bluemarine2.ui.audio.explorer.impl.javafx to it.tidalwave.bluemarine2.ui.audio.explorer--><path codeLine="42" d="M2761.4126,31.0352 C2849.8481,46.7073 3003.8241,73.9941 3094.6317,90.0866 " fill="none" id="it.tidalwave.bluemarine2.ui.audio.explorer.impl.javafx-to-it.tidalwave.bluemarine2.ui.audio.explorer" style="stroke: #A80036; stroke-width: 1.0;"/><polygon fill="#A80036" points="3099.7133,90.9872,3091.5495,85.478,3094.79,90.1146,3090.1534,93.3552,3099.7133,90.9872" style="stroke: #A80036; stroke-width: 1.0;"/><!--MD5=[7b0d5e2831bfdba0edd1ef8669ee44ed]
link it.tidalwave.bluemarine2.ui.audio.explorer.impl.javafx to it.tidalwave.bluemarine2.ui.commons.flowcontroller--><path codeLine="43" d="M2558.5344,31.0352 C2381.1216,46.8554 2070.9833,74.511 1891.2305,90.54 " fill="none" id="it.tidalwave.bluemarine2.ui.audio.explorer.impl.javafx-to-it.tidalwave.bluemarine2.ui.commons.flowcontroller" style="stroke: #A80036; stroke-width: 1.0;"/><polygon fill="#A80036" points="1886.2153,90.9872,1895.5351,94.1717,1891.1955,90.5429,1894.8243,86.2033,1886.2153,90.9872" style="stroke: #A80036; stroke-width: 1.0;"/><!--MD5=[e160a1e4a17129bd3f9ad02ce8444ac3]
link it.tidalwave.bluemarine2.ui.audio.explorer.impl.javafx to it.tidalwave.ui.javafx--><path codeLine="44" d="M2707.6843,31.0352 C2725.1809,45.8808 2754.9606,71.1484 2774.1739,87.4506 " fill="none" id="it.tidalwave.bluemarine2.ui.audio.explorer.impl.javafx-to-it.tidalwave.ui.javafx" style="stroke: #A80036; stroke-width: 1.0;"/><polygon fill="#A80036" points="2778.342,90.9872,2774.0675,82.1143,2774.5295,87.7523,2768.8915,88.2143,2778.342,90.9872" style="stroke: #A80036; stroke-width: 1.0;"/><!--MD5=[ba8dd3262bea474cfb49ece5def47d03]
link it.tidalwave.bluemarine2.ui.audio.explorer.impl.javafx to javafx.scene.control--><path codeLine="45" d="M2685.0467,31.0352 C2674.7947,45.6313 2657.4664,70.302 2646.0042,86.6211 " fill="none" id="it.tidalwave.bluemarine2.ui.audio.explorer.impl.javafx-to-javafx.scene.control" style="stroke: #A80036; stroke-width: 1.0;"/><polygon fill="#A80036" points="2642.9376,90.9872,2651.3838,85.9215,2645.8115,86.8956,2644.8373,81.3233,2642.9376,90.9872" style="stroke: #A80036; stroke-width: 1.0;"/><!--MD5=[2244d6cecfb71ea6cb4d90e70207411f]
link it.tidalwave.bluemarine2.ui.audio.explorer.impl.javafx to javafx.scene.layout--><path codeLine="46" d="M2533.7544,27.4966 C2271.7856,41.7435 1762.0369,70.8645 1582.5,91 C1578.6301,91.434 1574.6551,91.9276 1570.6506,92.4612 " fill="none" id="it.tidalwave.bluemarine2.ui.audio.explorer.impl.javafx-to-javafx.scene.layout" style="stroke: #A80036; stroke-width: 1.0;"/><polygon fill="#A80036" points="1565.5682,93.157,1575.0277,95.8988,1570.522,92.4786,1573.9422,87.9728,1565.5682,93.157" style="stroke: #A80036; stroke-width: 1.0;"/><!--MD5=[1e8d46e9c29dfa9051d12c531eeafdc3]
link it.tidalwave.bluemarine2.ui.audio.explorer.impl.javafx to javafx.scene.image--><path codeLine="47" d="M2730.0353,31.0352 C2776.9012,46.4733 2857.9817,73.1822 2907.0888,89.3587 " fill="none" id="it.tidalwave.bluemarine2.ui.audio.explorer.impl.javafx-to-javafx.scene.image" style="stroke: #A80036; stroke-width: 1.0;"/><polygon fill="#A80036" points="2912.0325,90.9872,2904.7359,84.3721,2907.2835,89.4228,2902.2328,91.9704,2912.0325,90.9872" style="stroke: #A80036; stroke-width: 1.0;"/><!--MD5=[ab3428513b3a374b9efc22631fe63454]
link it.tidalwave.bluemarine2.ui.audio.explorer.impl.javafx to it.tidalwave.role.ui.javafx--><path codeLine="48" d="M2800.2818,31.0168 C2923.3412,44.9684 3131.6244,68.8984 3310.5,91 C3314.3216,91.4722 3318.2318,91.9608 3322.1807,92.4588 " fill="none" id="it.tidalwave.bluemarine2.ui.audio.explorer.impl.javafx-to-it.tidalwave.role.ui.javafx" style="stroke: #A80036; stroke-width: 1.0;"/><polygon fill="#A80036" points="3327.1994,93.0939,3318.7728,87.9957,3322.239,92.4662,3317.7684,95.9324,3327.1994,93.0939" style="stroke: #A80036; stroke-width: 1.0;"/><!--MD5=[0ce6cd81989e392b58358b15286f0338]
link it.tidalwave.bluemarine2.ui.audio.explorer.impl.javafx to it.tidalwave.role.ui--><path codeLine="49" d="M2631.3184,31.0352 C2548.4087,47.0822 2402.5838,75.3064 2320.3528,91.222 " fill="none" id="it.tidalwave.bluemarine2.ui.audio.explorer.impl.javafx-to-it.tidalwave.role.ui" style="stroke: #A80036; stroke-width: 1.0;"/><polygon fill="#A80036" points="2315.0297,92.2523,2324.6258,94.4691,2319.9386,91.3022,2323.1056,86.6149,2315.0297,92.2523" style="stroke: #A80036; stroke-width: 1.0;"/><!--MD5=[5fbdbe1bc38cc8c2761c9fbeda292dce]
link it.tidalwave.bluemarine2.ui.audio.explorer.impl.javafx to javafx.scene.input--><path codeLine="50" d="M2853.2796,29.7698 C3015.4189,41.5375 3273.464,62.5716 3495.5,91 C3499.1295,91.4647 3502.8563,91.9772 3506.6122,92.5209 " fill="none" id="it.tidalwave.bluemarine2.ui.audio.explorer.impl.javafx-to-javafx.scene.input" style="stroke: #A80036; stroke-width: 1.0;"/><polygon fill="#A80036" points="3511.7455,93.28,3503.4275,88.0065,3506.7993,92.5486,3502.2572,95.9204,3511.7455,93.28" style="stroke: #A80036; stroke-width: 1.0;"/><text fill="#888888" font-family="sans-serif" font-size="10" lengthAdjust="spacingAndGlyphs" textLength="188" x="2296.25" y="137.8008">UMLDoclet 2.0.12, PlantUML 1.2020.16</text><!--MD5=[6f1c8395541d0d3a052e836698715510]
@startuml
    set namespaceSeparator none
    hide circle
    hide empty fields
    hide empty methods

    it.tidalwave.bluemarine2.ui.impl.javafx - -> javafx.scene.control
    it.tidalwave.bluemarine2.ui.impl.javafx - -> javafx.scene.layout
    it.tidalwave.bluemarine2.ui.impl.javafx - -> javafx.scene
    it.tidalwave.bluemarine2.ui.impl.javafx.role - -> it.tidalwave.ui.role.javafx
    it.tidalwave.bluemarine2.ui.impl.javafx.role - -> it.tidalwave.bluemarine2.model.audio
    it.tidalwave.bluemarine2.ui.impl.javafx.role - -> javafx.scene
    it.tidalwave.bluemarine2.ui.impl.javafx.role - -> it.tidalwave.bluemarine2.model
    it.tidalwave.bluemarine2.ui.impl.javafx.role - -> it.tidalwave.bluemarine2.model.impl
    it.tidalwave.bluemarine2.ui.impl.javafx.role - -> it.tidalwave.role.ui
    it.tidalwave.bluemarine2.ui.impl.javafx.role - -> it.tidalwave.bluemarine2.model.impl.catalog.browser
    it.tidalwave.bluemarine2.ui.video.explorer.impl.javafx - -> it.tidalwave.bluemarine2.ui.video.explorer
    it.tidalwave.bluemarine2.ui.video.explorer.impl.javafx - -> it.tidalwave.bluemarine2.ui.commons.flowcontroller
    it.tidalwave.bluemarine2.ui.video.explorer.impl.javafx - -> it.tidalwave.ui.javafx
    it.tidalwave.bluemarine2.ui.mainscreen.impl.javafx - -> it.tidalwave.bluemarine2.ui.mainscreen
    it.tidalwave.bluemarine2.ui.mainscreen.impl.javafx - -> it.tidalwave.bluemarine2.ui.commons.flowcontroller
    it.tidalwave.bluemarine2.ui.mainscreen.impl.javafx - -> it.tidalwave.ui.javafx
    it.tidalwave.bluemarine2.ui.mainscreen.impl.javafx - -> it.tidalwave.role.ui
    it.tidalwave.bluemarine2.ui.mainscreen.impl.javafx - -> javafx.scene.layout
    it.tidalwave.bluemarine2.ui.mainscreen.impl.javafx - -> javafx.scene.control
    it.tidalwave.bluemarine2.ui.mainscreen.impl.javafx - -> it.tidalwave.role.ui.javafx
    it.tidalwave.bluemarine2.ui.stillimage.explorer.impl.javafx - -> it.tidalwave.bluemarine2.ui.stillimage.explorer
    it.tidalwave.bluemarine2.ui.stillimage.explorer.impl.javafx - -> it.tidalwave.bluemarine2.ui.commons.flowcontroller
    it.tidalwave.bluemarine2.ui.stillimage.explorer.impl.javafx - -> it.tidalwave.ui.javafx
    it.tidalwave.bluemarine2.ui.commons.flowcontroller.impl.javafx - -> it.tidalwave.bluemarine2.ui.commons.flowcontroller
    it.tidalwave.bluemarine2.ui.commons.flowcontroller.impl.javafx - -> javafx.scene
    it.tidalwave.bluemarine2.ui.commons.flowcontroller.impl.javafx - -> javafx.scene.layout
    it.tidalwave.bluemarine2.ui.audio.renderer.impl.javafx - -> it.tidalwave.bluemarine2.ui.audio.renderer
    it.tidalwave.bluemarine2.ui.audio.renderer.impl.javafx - -> it.tidalwave.ui.javafx
    it.tidalwave.bluemarine2.ui.audio.renderer.impl.javafx - -> it.tidalwave.bluemarine2.ui.audio.renderer.spi
    it.tidalwave.bluemarine2.ui.audio.renderer.impl.javafx - -> javafx.util
    it.tidalwave.bluemarine2.ui.audio.renderer.impl.javafx - -> javafx.scene.media
    it.tidalwave.bluemarine2.ui.audio.renderer.impl.javafx - -> it.tidalwave.bluemarine2.model
    it.tidalwave.bluemarine2.ui.audio.renderer.impl.javafx - -> javafx.scene.control
    it.tidalwave.bluemarine2.ui.audio.renderer.impl.javafx - -> it.tidalwave.role.ui.javafx
    it.tidalwave.bluemarine2.ui.audio.renderer.impl.javafx - -> javafx.scene.input
    it.tidalwave.bluemarine2.ui.audio.renderer.impl.javafx - -> it.tidalwave.role.ui
    it.tidalwave.bluemarine2.ui.audio.explorer.impl.javafx - -> it.tidalwave.bluemarine2.ui.audio.explorer
    it.tidalwave.bluemarine2.ui.audio.explorer.impl.javafx - -> it.tidalwave.bluemarine2.ui.commons.flowcontroller
    it.tidalwave.bluemarine2.ui.audio.explorer.impl.javafx - -> it.tidalwave.ui.javafx
    it.tidalwave.bluemarine2.ui.audio.explorer.impl.javafx - -> javafx.scene.control
    it.tidalwave.bluemarine2.ui.audio.explorer.impl.javafx - -> javafx.scene.layout
    it.tidalwave.bluemarine2.ui.audio.explorer.impl.javafx - -> javafx.scene.image
    it.tidalwave.bluemarine2.ui.audio.explorer.impl.javafx - -> it.tidalwave.role.ui.javafx
    it.tidalwave.bluemarine2.ui.audio.explorer.impl.javafx - -> it.tidalwave.role.ui
    it.tidalwave.bluemarine2.ui.audio.explorer.impl.javafx - -> javafx.scene.input

    ' Package links
    class "it.tidalwave.bluemarine2.ui.impl.javafx" [[it/tidalwave/bluemarine2/ui/impl/javafx/package-summary.html]] {
    }
    class "it.tidalwave.bluemarine2.ui.impl.javafx.role" [[it/tidalwave/bluemarine2/ui/impl/javafx/role/package-summary.html]] {
    }
    class "it.tidalwave.bluemarine2.model.impl.catalog.browser" [[http://blueMarine.tidalwave.it/bluemarine2-modules/it-tidalwave-bluemarine2-catalog/apidocs/it/tidalwave/bluemarine2/model/impl/catalog/browser/package-summary.html?is-external=true]] {
    }
    class "it.tidalwave.bluemarine2.ui.video.explorer.impl.javafx" [[it/tidalwave/bluemarine2/ui/video/explorer/impl/javafx/package-summary.html]] {
    }
    class "it.tidalwave.bluemarine2.ui.video.explorer" [[http://blueMarine.tidalwave.it/bluemarine2-modules/it-tidalwave-bluemarine2-ui/apidocs/it/tidalwave/bluemarine2/ui/video/explorer/package-summary.html?is-external=true]] {
    }
    class "it.tidalwave.bluemarine2.ui.commons.flowcontroller" [[http://blueMarine.tidalwave.it/bluemarine2-modules/it-tidalwave-bluemarine2-ui/apidocs/it/tidalwave/bluemarine2/ui/commons/flowcontroller/package-summary.html?is-external=true]] {
    }
    class "it.tidalwave.bluemarine2.ui.mainscreen.impl.javafx" [[it/tidalwave/bluemarine2/ui/mainscreen/impl/javafx/package-summary.html]] {
    }
    class "it.tidalwave.bluemarine2.ui.mainscreen" [[http://blueMarine.tidalwave.it/bluemarine2-modules/it-tidalwave-bluemarine2-ui/apidocs/it/tidalwave/bluemarine2/ui/mainscreen/package-summary.html?is-external=true]] {
    }
    class "it.tidalwave.bluemarine2.ui.stillimage.explorer.impl.javafx" [[it/tidalwave/bluemarine2/ui/stillimage/explorer/impl/javafx/package-summary.html]] {
    }
    class "it.tidalwave.bluemarine2.ui.stillimage.explorer" [[http://blueMarine.tidalwave.it/bluemarine2-modules/it-tidalwave-bluemarine2-ui/apidocs/it/tidalwave/bluemarine2/ui/stillimage/explorer/package-summary.html?is-external=true]] {
    }
    class "it.tidalwave.bluemarine2.ui.commons.flowcontroller.impl.javafx" [[it/tidalwave/bluemarine2/ui/commons/flowcontroller/impl/javafx/package-summary.html]] {
    }
    class "it.tidalwave.bluemarine2.ui.audio.renderer.impl.javafx" [[it/tidalwave/bluemarine2/ui/audio/renderer/impl/javafx/package-summary.html]] {
    }
    class "it.tidalwave.bluemarine2.ui.audio.renderer" [[http://blueMarine.tidalwave.it/bluemarine2-modules/it-tidalwave-bluemarine2-ui/apidocs/it/tidalwave/bluemarine2/ui/audio/renderer/package-summary.html?is-external=true]] {
    }
    class "it.tidalwave.bluemarine2.ui.audio.renderer.spi" [[http://blueMarine.tidalwave.it/bluemarine2-modules/it-tidalwave-bluemarine2-ui/apidocs/it/tidalwave/bluemarine2/ui/audio/renderer/spi/package-summary.html?is-external=true]] {
    }
    class "it.tidalwave.bluemarine2.ui.audio.explorer.impl.javafx" [[it/tidalwave/bluemarine2/ui/audio/explorer/impl/javafx/package-summary.html]] {
    }
    class "it.tidalwave.bluemarine2.ui.audio.explorer" [[http://blueMarine.tidalwave.it/bluemarine2-modules/it-tidalwave-bluemarine2-ui/apidocs/it/tidalwave/bluemarine2/ui/audio/explorer/package-summary.html?is-external=true]] {
    }

    center footer UMLDoclet 2.0.12, PlantUML 1.2020.16
@enduml

@startuml
    set namespaceSeparator none
    hide circle
    hide empty fields
    hide empty methods

    it.tidalwave.bluemarine2.ui.impl.javafx - -> javafx.scene.control
    it.tidalwave.bluemarine2.ui.impl.javafx - -> javafx.scene.layout
    it.tidalwave.bluemarine2.ui.impl.javafx - -> javafx.scene
    it.tidalwave.bluemarine2.ui.impl.javafx.role - -> it.tidalwave.ui.role.javafx
    it.tidalwave.bluemarine2.ui.impl.javafx.role - -> it.tidalwave.bluemarine2.model.audio
    it.tidalwave.bluemarine2.ui.impl.javafx.role - -> javafx.scene
    it.tidalwave.bluemarine2.ui.impl.javafx.role - -> it.tidalwave.bluemarine2.model
    it.tidalwave.bluemarine2.ui.impl.javafx.role - -> it.tidalwave.bluemarine2.model.impl
    it.tidalwave.bluemarine2.ui.impl.javafx.role - -> it.tidalwave.role.ui
    it.tidalwave.bluemarine2.ui.impl.javafx.role - -> it.tidalwave.bluemarine2.model.impl.catalog.browser
    it.tidalwave.bluemarine2.ui.video.explorer.impl.javafx - -> it.tidalwave.bluemarine2.ui.video.explorer
    it.tidalwave.bluemarine2.ui.video.explorer.impl.javafx - -> it.tidalwave.bluemarine2.ui.commons.flowcontroller
    it.tidalwave.bluemarine2.ui.video.explorer.impl.javafx - -> it.tidalwave.ui.javafx
    it.tidalwave.bluemarine2.ui.mainscreen.impl.javafx - -> it.tidalwave.bluemarine2.ui.mainscreen
    it.tidalwave.bluemarine2.ui.mainscreen.impl.javafx - -> it.tidalwave.bluemarine2.ui.commons.flowcontroller
    it.tidalwave.bluemarine2.ui.mainscreen.impl.javafx - -> it.tidalwave.ui.javafx
    it.tidalwave.bluemarine2.ui.mainscreen.impl.javafx - -> it.tidalwave.role.ui
    it.tidalwave.bluemarine2.ui.mainscreen.impl.javafx - -> javafx.scene.layout
    it.tidalwave.bluemarine2.ui.mainscreen.impl.javafx - -> javafx.scene.control
    it.tidalwave.bluemarine2.ui.mainscreen.impl.javafx - -> it.tidalwave.role.ui.javafx
    it.tidalwave.bluemarine2.ui.stillimage.explorer.impl.javafx - -> it.tidalwave.bluemarine2.ui.stillimage.explorer
    it.tidalwave.bluemarine2.ui.stillimage.explorer.impl.javafx - -> it.tidalwave.bluemarine2.ui.commons.flowcontroller
    it.tidalwave.bluemarine2.ui.stillimage.explorer.impl.javafx - -> it.tidalwave.ui.javafx
    it.tidalwave.bluemarine2.ui.commons.flowcontroller.impl.javafx - -> it.tidalwave.bluemarine2.ui.commons.flowcontroller
    it.tidalwave.bluemarine2.ui.commons.flowcontroller.impl.javafx - -> javafx.scene
    it.tidalwave.bluemarine2.ui.commons.flowcontroller.impl.javafx - -> javafx.scene.layout
    it.tidalwave.bluemarine2.ui.audio.renderer.impl.javafx - -> it.tidalwave.bluemarine2.ui.audio.renderer
    it.tidalwave.bluemarine2.ui.audio.renderer.impl.javafx - -> it.tidalwave.ui.javafx
    it.tidalwave.bluemarine2.ui.audio.renderer.impl.javafx - -> it.tidalwave.bluemarine2.ui.audio.renderer.spi
    it.tidalwave.bluemarine2.ui.audio.renderer.impl.javafx - -> javafx.util
    it.tidalwave.bluemarine2.ui.audio.renderer.impl.javafx - -> javafx.scene.media
    it.tidalwave.bluemarine2.ui.audio.renderer.impl.javafx - -> it.tidalwave.bluemarine2.model
    it.tidalwave.bluemarine2.ui.audio.renderer.impl.javafx - -> javafx.scene.control
    it.tidalwave.bluemarine2.ui.audio.renderer.impl.javafx - -> it.tidalwave.role.ui.javafx
    it.tidalwave.bluemarine2.ui.audio.renderer.impl.javafx - -> javafx.scene.input
    it.tidalwave.bluemarine2.ui.audio.renderer.impl.javafx - -> it.tidalwave.role.ui
    it.tidalwave.bluemarine2.ui.audio.explorer.impl.javafx - -> it.tidalwave.bluemarine2.ui.audio.explorer
    it.tidalwave.bluemarine2.ui.audio.explorer.impl.javafx - -> it.tidalwave.bluemarine2.ui.commons.flowcontroller
    it.tidalwave.bluemarine2.ui.audio.explorer.impl.javafx - -> it.tidalwave.ui.javafx
    it.tidalwave.bluemarine2.ui.audio.explorer.impl.javafx - -> javafx.scene.control
    it.tidalwave.bluemarine2.ui.audio.explorer.impl.javafx - -> javafx.scene.layout
    it.tidalwave.bluemarine2.ui.audio.explorer.impl.javafx - -> javafx.scene.image
    it.tidalwave.bluemarine2.ui.audio.explorer.impl.javafx - -> it.tidalwave.role.ui.javafx
    it.tidalwave.bluemarine2.ui.audio.explorer.impl.javafx - -> it.tidalwave.role.ui
    it.tidalwave.bluemarine2.ui.audio.explorer.impl.javafx - -> javafx.scene.input

    class "it.tidalwave.bluemarine2.ui.impl.javafx" [[it/tidalwave/bluemarine2/ui/impl/javafx/package-summary.html]] {
    }
    class "it.tidalwave.bluemarine2.ui.impl.javafx.role" [[it/tidalwave/bluemarine2/ui/impl/javafx/role/package-summary.html]] {
    }
    class "it.tidalwave.bluemarine2.model.impl.catalog.browser" [[http://blueMarine.tidalwave.it/bluemarine2-modules/it-tidalwave-bluemarine2-catalog/apidocs/it/tidalwave/bluemarine2/model/impl/catalog/browser/package-summary.html?is-external=true]] {
    }
    class "it.tidalwave.bluemarine2.ui.video.explorer.impl.javafx" [[it/tidalwave/bluemarine2/ui/video/explorer/impl/javafx/package-summary.html]] {
    }
    class "it.tidalwave.bluemarine2.ui.video.explorer" [[http://blueMarine.tidalwave.it/bluemarine2-modules/it-tidalwave-bluemarine2-ui/apidocs/it/tidalwave/bluemarine2/ui/video/explorer/package-summary.html?is-external=true]] {
    }
    class "it.tidalwave.bluemarine2.ui.commons.flowcontroller" [[http://blueMarine.tidalwave.it/bluemarine2-modules/it-tidalwave-bluemarine2-ui/apidocs/it/tidalwave/bluemarine2/ui/commons/flowcontroller/package-summary.html?is-external=true]] {
    }
    class "it.tidalwave.bluemarine2.ui.mainscreen.impl.javafx" [[it/tidalwave/bluemarine2/ui/mainscreen/impl/javafx/package-summary.html]] {
    }
    class "it.tidalwave.bluemarine2.ui.mainscreen" [[http://blueMarine.tidalwave.it/bluemarine2-modules/it-tidalwave-bluemarine2-ui/apidocs/it/tidalwave/bluemarine2/ui/mainscreen/package-summary.html?is-external=true]] {
    }
    class "it.tidalwave.bluemarine2.ui.stillimage.explorer.impl.javafx" [[it/tidalwave/bluemarine2/ui/stillimage/explorer/impl/javafx/package-summary.html]] {
    }
    class "it.tidalwave.bluemarine2.ui.stillimage.explorer" [[http://blueMarine.tidalwave.it/bluemarine2-modules/it-tidalwave-bluemarine2-ui/apidocs/it/tidalwave/bluemarine2/ui/stillimage/explorer/package-summary.html?is-external=true]] {
    }
    class "it.tidalwave.bluemarine2.ui.commons.flowcontroller.impl.javafx" [[it/tidalwave/bluemarine2/ui/commons/flowcontroller/impl/javafx/package-summary.html]] {
    }
    class "it.tidalwave.bluemarine2.ui.audio.renderer.impl.javafx" [[it/tidalwave/bluemarine2/ui/audio/renderer/impl/javafx/package-summary.html]] {
    }
    class "it.tidalwave.bluemarine2.ui.audio.renderer" [[http://blueMarine.tidalwave.it/bluemarine2-modules/it-tidalwave-bluemarine2-ui/apidocs/it/tidalwave/bluemarine2/ui/audio/renderer/package-summary.html?is-external=true]] {
    }
    class "it.tidalwave.bluemarine2.ui.audio.renderer.spi" [[http://blueMarine.tidalwave.it/bluemarine2-modules/it-tidalwave-bluemarine2-ui/apidocs/it/tidalwave/bluemarine2/ui/audio/renderer/spi/package-summary.html?is-external=true]] {
    }
    class "it.tidalwave.bluemarine2.ui.audio.explorer.impl.javafx" [[it/tidalwave/bluemarine2/ui/audio/explorer/impl/javafx/package-summary.html]] {
    }
    class "it.tidalwave.bluemarine2.ui.audio.explorer" [[http://blueMarine.tidalwave.it/bluemarine2-modules/it-tidalwave-bluemarine2-ui/apidocs/it/tidalwave/bluemarine2/ui/audio/explorer/package-summary.html?is-external=true]] {
    }

    center footer UMLDoclet 2.0.12, PlantUML 1.2020.16
@enduml

PlantUML version 1.2020.16(Sun Aug 23 22:20:43 CEST 2020)
(APACHE source distribution)
Java Runtime: OpenJDK Runtime Environment
JVM: OpenJDK 64-Bit Server VM
Default Encoding: UTF-8
Language: en
Country: GB
--></g></svg>