<?xml version="1.0" encoding="UTF-8" standalone="no"?><svg xmlns="http://www.w3.org/2000/svg" xmlns:xlink="http://www.w3.org/1999/xlink" contentScriptType="application/ecmascript" contentStyleType="text/css" height="390px" preserveAspectRatio="none" style="width:538px;height:390px;" version="1.1" viewBox="0 0 538 390" width="538px" zoomAndPan="magnify"><defs><filter height="300%" id="f1wnzsv43tf1tr" width="300%" x="-1" y="-1"><feGaussianBlur result="blurOut" stdDeviation="2.0"/><feColorMatrix in="blurOut" result="blurOut2" type="matrix" values="0 0 0 0 0 0 0 0 0 0 0 0 0 0 0 0 0 0 .4 0"/><feOffset dx="4.0" dy="4.0" in="blurOut2" result="blurOut3"/><feBlend in="SourceGraphic" in2="blurOut3" mode="normal"/></filter></defs><g><!--MD5=[739e9bb822fe15eb97bc3207575fcd8d]
cluster it.tidalwave.northernwind.core.model--><polygon fill="#FFFFFF" filter="url(#f1wnzsv43tf1tr)" points="16,6,286,6,293,28.4883,516,28.4883,516,361,16,361,16,6" style="stroke: #000000; stroke-width: 1.5;"/><line style="stroke: #000000; stroke-width: 1.5;" x1="16" x2="293" y1="28.4883" y2="28.4883"/><text fill="#000000" font-family="sans-serif" font-size="14" font-weight="bold" lengthAdjust="spacingAndGlyphs" textLength="264" x="20" y="21.5352">it.tidalwave.northernwind.core.model</text><!--MD5=[5d1d8ea76bb93caeaa9388020d2b9961]
class it.tidalwave.northernwind.core.model.ResourcePathTest--><a href="ResourcePathTest.html" target="_top" title="ResourcePathTest.html" xlink:actuate="onRequest" xlink:href="ResourcePathTest.html" xlink:show="new" xlink:title="ResourcePathTest.html" xlink:type="simple"><rect codeLine="3" fill="#FEFECE" filter="url(#f1wnzsv43tf1tr)" height="320.0566" id="it.tidalwave.northernwind.core.model.ResourcePathTest" style="stroke: #A80036; stroke-width: 1.5;" width="484" x="24" y="33"/><ellipse cx="210.25" cy="49" fill="#ADD1B2" rx="11" ry="11" style="stroke: #A80036; stroke-width: 1.0;"/><path d="M212.7231,55.1431 Q212.1421,55.4419 211.5029,55.5913 Q210.8638,55.7407 210.1582,55.7407 Q207.6514,55.7407 206.3315,54.0889 Q205.0117,52.437 205.0117,49.3159 Q205.0117,46.1865 206.3315,44.5347 Q207.6514,42.8828 210.1582,42.8828 Q210.8638,42.8828 211.5112,43.0322 Q212.1587,43.1816 212.7231,43.4805 L212.7231,46.2031 Q212.0923,45.6221 211.4988,45.3523 Q210.9053,45.0825 210.2744,45.0825 Q208.9297,45.0825 208.2449,46.1492 Q207.5601,47.2158 207.5601,49.3159 Q207.5601,51.4077 208.2449,52.4744 Q208.9297,53.541 210.2744,53.541 Q210.9053,53.541 211.4988,53.2712 Q212.0923,53.0015 212.7231,52.4204 Z "/><text fill="#000000" font-family="sans-serif" font-size="12" lengthAdjust="spacingAndGlyphs" textLength="103" x="230.75" y="53.5352">ResourcePathTest</text><line style="stroke: #A80036; stroke-width: 1.5;" x1="25" x2="507" y1="65" y2="65"/><line style="stroke: #A80036; stroke-width: 1.5;" x1="25" x2="507" y1="73" y2="73"/><ellipse cx="35" cy="84" fill="#84BE84" rx="3" ry="3" style="stroke: #038048; stroke-width: 1.0;"/><text fill="#000000" font-family="sans-serif" font-size="11" lengthAdjust="spacingAndGlyphs" textLength="243" x="44" y="87.6348">must_properly_create_an_empty_path(): void</text><ellipse cx="35" cy="96.9551" fill="#84BE84" rx="3" ry="3" style="stroke: #038048; stroke-width: 1.0;"/><text fill="#000000" font-family="sans-serif" font-size="11" lengthAdjust="spacingAndGlyphs" textLength="184" x="44" y="100.5898">must_reject_null_segments(): void</text><ellipse cx="35" cy="109.9102" fill="#84BE84" rx="3" ry="3" style="stroke: #038048; stroke-width: 1.0;"/><text fill="#000000" font-family="sans-serif" font-size="11" lengthAdjust="spacingAndGlyphs" textLength="197" x="44" y="113.5449">must_reject_empty_segments(): void</text><ellipse cx="35" cy="122.8652" fill="#84BE84" rx="3" ry="3" style="stroke: #038048; stroke-width: 1.0;"/><text fill="#000000" font-family="sans-serif" font-size="11" lengthAdjust="spacingAndGlyphs" textLength="255" x="44" y="126.5">must_reject_segments_containing_slash(): void</text><ellipse cx="35" cy="135.8203" fill="#84BE84" rx="3" ry="3" style="stroke: #038048; stroke-width: 1.0;"/><text fill="#000000" font-family="sans-serif" font-size="11" lengthAdjust="spacingAndGlyphs" textLength="458" x="44" y="139.4551">must_properly_create_an_empty_path_from_string(String, String, List&lt;String&gt;): void</text><ellipse cx="35" cy="148.7754" fill="#84BE84" rx="3" ry="3" style="stroke: #038048; stroke-width: 1.0;"/><text fill="#000000" font-family="sans-serif" font-size="11" lengthAdjust="spacingAndGlyphs" textLength="209" x="44" y="152.4102">must_reject_invalid_paths(String): void</text><ellipse cx="35" cy="161.7305" fill="#84BE84" rx="3" ry="3" style="stroke: #038048; stroke-width: 1.0;"/><text fill="#000000" font-family="sans-serif" font-size="11" lengthAdjust="spacingAndGlyphs" textLength="326" x="44" y="165.3652">must_properly_compute_asString(List&lt;String&gt;, String): void</text><ellipse cx="35" cy="174.6855" fill="#84BE84" rx="3" ry="3" style="stroke: #038048; stroke-width: 1.0;"/><text fill="#000000" font-family="sans-serif" font-size="11" lengthAdjust="spacingAndGlyphs" textLength="358" x="44" y="178.3203">must_properly_compute_relative_paths(String, String, String): void</text><ellipse cx="35" cy="187.6406" fill="#84BE84" rx="3" ry="3" style="stroke: #038048; stroke-width: 1.0;"/><text fill="#000000" font-family="sans-serif" font-size="11" lengthAdjust="spacingAndGlyphs" textLength="330" x="44" y="191.2754">must_properly_reject_non_relative_paths(String, String): void</text><ellipse cx="35" cy="200.5957" fill="#84BE84" rx="3" ry="3" style="stroke: #038048; stroke-width: 1.0;"/><text fill="#000000" font-family="sans-serif" font-size="11" lengthAdjust="spacingAndGlyphs" textLength="374" x="44" y="204.2305">must_properly_compute_leading_segment(String, String, String): void</text><ellipse cx="35" cy="213.5508" fill="#84BE84" rx="3" ry="3" style="stroke: #038048; stroke-width: 1.0;"/><text fill="#000000" font-family="sans-serif" font-size="11" lengthAdjust="spacingAndGlyphs" textLength="373" x="44" y="217.1855">must_properly_compute_trailing_segment(String, String, String): void</text><ellipse cx="35" cy="226.5059" fill="#84BE84" rx="3" ry="3" style="stroke: #038048; stroke-width: 1.0;"/><text fill="#000000" font-family="sans-serif" font-size="11" lengthAdjust="spacingAndGlyphs" textLength="368" x="44" y="230.1406">must_properly_compute_without_leading(String, String, String): void</text><ellipse cx="35" cy="239.4609" fill="#84BE84" rx="3" ry="3" style="stroke: #038048; stroke-width: 1.0;"/><text fill="#000000" font-family="sans-serif" font-size="11" lengthAdjust="spacingAndGlyphs" textLength="367" x="44" y="243.0957">must_properly_compute_without_trailing(String, String, String): void</text><ellipse cx="35" cy="252.416" fill="#84BE84" rx="3" ry="3" style="stroke: #038048; stroke-width: 1.0;"/><text fill="#000000" font-family="sans-serif" font-size="11" lengthAdjust="spacingAndGlyphs" textLength="348" x="44" y="256.0508">must_properly_compute_startsWith(String, String, boolean): void</text><ellipse cx="35" cy="265.3711" fill="#84BE84" rx="3" ry="3" style="stroke: #038048; stroke-width: 1.0;"/><text fill="#000000" font-family="sans-serif" font-size="11" lengthAdjust="spacingAndGlyphs" textLength="338" x="44" y="269.0059">must_properly_append_path(String, String, String, String): void</text><ellipse cx="35" cy="278.3262" fill="#84BE84" rx="3" ry="3" style="stroke: #038048; stroke-width: 1.0;"/><text fill="#000000" font-family="sans-serif" font-size="11" lengthAdjust="spacingAndGlyphs" textLength="346" x="44" y="281.9609">must_properly_append_string(String, String, String, String): void</text><ellipse cx="35" cy="291.2813" fill="#84BE84" rx="3" ry="3" style="stroke: #038048; stroke-width: 1.0;"/><text fill="#000000" font-family="sans-serif" font-size="11" lengthAdjust="spacingAndGlyphs" textLength="343" x="44" y="294.916">must_properly_prepend_path(String, String, String, String): void</text><ellipse cx="35" cy="304.2363" fill="#84BE84" rx="3" ry="3" style="stroke: #038048; stroke-width: 1.0;"/><text fill="#000000" font-family="sans-serif" font-size="11" lengthAdjust="spacingAndGlyphs" textLength="351" x="44" y="307.8711">must_properly_prepend_string(String, String, String, String): void</text><ellipse cx="35" cy="317.1914" fill="#84BE84" rx="3" ry="3" style="stroke: #038048; stroke-width: 1.0;"/><text fill="#000000" font-family="sans-serif" font-size="11" lengthAdjust="spacingAndGlyphs" textLength="356" x="44" y="320.8262">must_properly_count_segments(String, String, List&lt;String&gt;): void</text><ellipse cx="35" cy="330.1465" fill="#84BE84" rx="3" ry="3" style="stroke: #038048; stroke-width: 1.0;"/><text fill="#000000" font-family="sans-serif" font-size="11" lengthAdjust="spacingAndGlyphs" textLength="298" x="44" y="333.7813">must_properly_compute_extension(String, String): void</text><ellipse cx="35" cy="343.1016" fill="#84BE84" rx="3" ry="3" style="stroke: #038048; stroke-width: 1.0;"/><text fill="#000000" font-family="sans-serif" font-size="11" lengthAdjust="spacingAndGlyphs" textLength="252" x="44" y="346.7363">must_properly_url_decode(String, String): void</text></a><text fill="#888888" font-family="sans-serif" font-size="10" lengthAdjust="spacingAndGlyphs" textLength="188" x="166" y="376.668">UMLDoclet 2.0.12, PlantUML 1.2020.16</text><!--MD5=[b31c57684ad9f8b75594a3df631b7696]
@startuml
    namespace it.tidalwave.northernwind.core.model {

        class ResourcePathTest [[ResourcePathTest.html]] {
            +must_properly_create_an_empty_path(): void
            +must_reject_null_segments(): void
            +must_reject_empty_segments(): void
            +must_reject_segments_containing_slash(): void
            +must_properly_create_an_empty_path_from_string(String, String, List<String>): void
            +must_reject_invalid_paths(String): void
            +must_properly_compute_asString(List<String>, String): void
            +must_properly_compute_relative_paths(String, String, String): void
            +must_properly_reject_non_relative_paths(String, String): void
            +must_properly_compute_leading_segment(String, String, String): void
            +must_properly_compute_trailing_segment(String, String, String): void
            +must_properly_compute_without_leading(String, String, String): void
            +must_properly_compute_without_trailing(String, String, String): void
            +must_properly_compute_startsWith(String, String, boolean): void
            +must_properly_append_path(String, String, String, String): void
            +must_properly_append_string(String, String, String, String): void
            +must_properly_prepend_path(String, String, String, String): void
            +must_properly_prepend_string(String, String, String, String): void
            +must_properly_count_segments(String, String, List<String>): void
            +must_properly_compute_extension(String, String): void
            +must_properly_url_decode(String, String): void
        }

    }

    center footer UMLDoclet 2.0.12, PlantUML 1.2020.16
@enduml

PlantUML version 1.2020.16(Sun Aug 23 22:20:43 CEST 2020)
(APACHE source distribution)
Java Runtime: OpenJDK Runtime Environment
JVM: OpenJDK 64-Bit Server VM
Default Encoding: UTF-8
Language: en
Country: GB
--></g></svg>