<?xml version="1.0" encoding="UTF-8" standalone="no"?><svg xmlns="http://www.w3.org/2000/svg" xmlns:xlink="http://www.w3.org/1999/xlink" contentScriptType="application/ecmascript" contentStyleType="text/css" height="412px" preserveAspectRatio="none" style="width:827px;height:412px;" version="1.1" viewBox="0 0 827 412" width="827px" zoomAndPan="magnify"><defs><filter height="300%" id="foxwahtkvnkw8" width="300%" x="-1" y="-1"><feGaussianBlur result="blurOut" stdDeviation="2.0"/><feColorMatrix in="blurOut" result="blurOut2" type="matrix" values="0 0 0 0 0 0 0 0 0 0 0 0 0 0 0 0 0 0 .4 0"/><feOffset dx="4.0" dy="4.0" in="blurOut2" result="blurOut3"/><feBlend in="SourceGraphic" in2="blurOut3" mode="normal"/></filter></defs><g><!--MD5=[fa1e0c81c2ab22925b4a52fddb063778]
cluster it.tidalwave.northernwind.frontend.media.impl.interpolator--><polygon fill="#FFFFFF" filter="url(#foxwahtkvnkw8)" points="16,6,442,6,449,28.4883,805,28.4883,805,383,16,383,16,6" style="stroke: #000000; stroke-width: 1.5;"/><line style="stroke: #000000; stroke-width: 1.5;" x1="16" x2="449" y1="28.4883" y2="28.4883"/><text fill="#000000" font-family="sans-serif" font-size="14" font-weight="bold" lengthAdjust="spacingAndGlyphs" textLength="420" x="20" y="21.5352">it.tidalwave.northernwind.frontend.media.impl.interpolator</text><!--MD5=[9ba4a2f8a3292d0586e653d5ce9417cd]
class it.tidalwave.northernwind.frontend.media.impl.interpolator.ScanningMetadataInterpolatorFactory--><a href="ScanningMetadataInterpolatorFactory.html" target="_top" title="ScanningMetadataInterpolatorFactory.html" xlink:actuate="onRequest" xlink:href="ScanningMetadataInterpolatorFactory.html" xlink:show="new" xlink:title="ScanningMetadataInterpolatorFactory.html" xlink:type="simple"><rect codeLine="3" fill="#FEFECE" filter="url(#foxwahtkvnkw8)" height="60.9551" id="it.tidalwave.northernwind.frontend.media.impl.interpolator.ScanningMetadataInterpolatorFactory" style="stroke: #A80036; stroke-width: 1.5;" width="244" x="553" y="180"/><ellipse cx="568" cy="196" fill="#ADD1B2" rx="11" ry="11" style="stroke: #A80036; stroke-width: 1.0;"/><path d="M570.4731,202.1431 Q569.8921,202.4419 569.2529,202.5913 Q568.6138,202.7407 567.9082,202.7407 Q565.4014,202.7407 564.0815,201.0889 Q562.7617,199.437 562.7617,196.3159 Q562.7617,193.1865 564.0815,191.5347 Q565.4014,189.8828 567.9082,189.8828 Q568.6138,189.8828 569.2612,190.0322 Q569.9087,190.1816 570.4731,190.4805 L570.4731,193.2031 Q569.8423,192.6221 569.2488,192.3523 Q568.6553,192.0825 568.0244,192.0825 Q566.6797,192.0825 565.9949,193.1492 Q565.3101,194.2158 565.3101,196.3159 Q565.3101,198.4077 565.9949,199.4744 Q566.6797,200.541 568.0244,200.541 Q568.6553,200.541 569.2488,200.2712 Q569.8423,200.0015 570.4731,199.4204 Z "/><text fill="#000000" font-family="sans-serif" font-size="12" lengthAdjust="spacingAndGlyphs" textLength="212" x="582" y="200.5352">ScanningMetadataInterpolatorFactory</text><line style="stroke: #A80036; stroke-width: 1.5;" x1="554" x2="796" y1="212" y2="212"/><line style="stroke: #A80036; stroke-width: 1.5;" x1="554" x2="796" y1="220" y2="220"/><ellipse cx="564" cy="231" fill="#84BE84" rx="3" ry="3" style="stroke: #038048; stroke-width: 1.0;"/><text fill="#000000" font-family="sans-serif" font-size="11" lengthAdjust="spacingAndGlyphs" textLength="81" x="573" y="234.6348">initialize(): void</text></a><!--MD5=[d1c1bd65b7fe1c413d039bc759eca31c]
class it.tidalwave.northernwind.frontend.media.impl.interpolator.MetadataInterpolatorFactory--><a href="MetadataInterpolatorFactory.html" target="_top" title="MetadataInterpolatorFactory.html" xlink:actuate="onRequest" xlink:href="MetadataInterpolatorFactory.html" xlink:show="new" xlink:title="MetadataInterpolatorFactory.html" xlink:type="simple"><rect codeLine="7" fill="#FEFECE" filter="url(#foxwahtkvnkw8)" height="60.9551" id="it.tidalwave.northernwind.frontend.media.impl.interpolator.MetadataInterpolatorFactory" style="stroke: #A80036; stroke-width: 1.5;" width="311" x="485.5" y="39.5"/><ellipse cx="555.75" cy="55.5" fill="#B4A7E5" rx="11" ry="11" style="stroke: #A80036; stroke-width: 1.0;"/><path d="M552.1777,51.7651 L552.1777,49.6069 L559.5571,49.6069 L559.5571,51.7651 L557.0918,51.7651 L557.0918,59.8418 L559.5571,59.8418 L559.5571,62 L552.1777,62 L552.1777,59.8418 L554.6431,59.8418 L554.6431,51.7651 Z "/><text fill="#000000" font-family="sans-serif" font-size="12" font-style="italic" lengthAdjust="spacingAndGlyphs" textLength="162" x="576.25" y="60.0352">MetadataInterpolatorFactory</text><line style="stroke: #A80036; stroke-width: 1.5;" x1="486.5" x2="795.5" y1="71.5" y2="71.5"/><line style="stroke: #A80036; stroke-width: 1.5;" x1="486.5" x2="795.5" y1="79.5" y2="79.5"/><ellipse cx="496.5" cy="90.5" fill="#84BE84" rx="3" ry="3" style="stroke: #038048; stroke-width: 1.0;"/><text fill="#000000" font-family="sans-serif" font-size="11" font-style="italic" lengthAdjust="spacingAndGlyphs" textLength="285" x="505.5" y="94.1348">getInterpolators(): Collection&lt;MetadataInterpolator&gt;</text></a><!--MD5=[a9cceb3f10539941cee691554e2891db]
class it.tidalwave.northernwind.frontend.media.impl.interpolator.ShootingDataInterpolator--><a href="ShootingDataInterpolator.html" target="_top" title="ShootingDataInterpolator.html" xlink:actuate="onRequest" xlink:href="ShootingDataInterpolator.html" xlink:show="new" xlink:title="ShootingDataInterpolator.html" xlink:type="simple"><rect codeLine="11" fill="#FEFECE" filter="url(#foxwahtkvnkw8)" height="60.9551" id="it.tidalwave.northernwind.frontend.media.impl.interpolator.ShootingDataInterpolator" style="stroke: #A80036; stroke-width: 1.5;" width="211" x="35.5" y="314"/><ellipse cx="67.15" cy="330" fill="#ADD1B2" rx="11" ry="11" style="stroke: #A80036; stroke-width: 1.0;"/><path d="M69.6231,336.1431 Q69.0421,336.4419 68.4029,336.5913 Q67.7638,336.7407 67.0582,336.7407 Q64.5514,336.7407 63.2315,335.0889 Q61.9117,333.437 61.9117,330.3159 Q61.9117,327.1865 63.2315,325.5347 Q64.5514,323.8828 67.0582,323.8828 Q67.7638,323.8828 68.4112,324.0322 Q69.0587,324.1816 69.6231,324.4805 L69.6231,327.2031 Q68.9923,326.6221 68.3988,326.3523 Q67.8053,326.0825 67.1744,326.0825 Q65.8297,326.0825 65.1449,327.1492 Q64.4601,328.2158 64.4601,330.3159 Q64.4601,332.4077 65.1449,333.4744 Q65.8297,334.541 67.1744,334.541 Q67.8053,334.541 68.3988,334.2712 Q68.9923,334.0015 69.6231,333.4204 Z "/><text fill="#000000" font-family="sans-serif" font-size="12" lengthAdjust="spacingAndGlyphs" textLength="142" x="84.85" y="334.5352">ShootingDataInterpolator</text><line style="stroke: #A80036; stroke-width: 1.5;" x1="36.5" x2="245.5" y1="346" y2="346"/><line style="stroke: #A80036; stroke-width: 1.5;" x1="36.5" x2="245.5" y1="354" y2="354"/><ellipse cx="46.5" cy="365" fill="#84BE84" rx="3" ry="3" style="stroke: #038048; stroke-width: 1.0;"/><text fill="#000000" font-family="sans-serif" font-size="11" lengthAdjust="spacingAndGlyphs" textLength="185" x="55.5" y="368.6348">interpolate(String, Context): String</text></a><!--MD5=[997fceec911359e4d74a0843976dd956]
class it.tidalwave.northernwind.frontend.media.impl.interpolator.MetadataInterpolatorSupport--><a href="MetadataInterpolatorSupport.html" target="_top" title="MetadataInterpolatorSupport.html" xlink:actuate="onRequest" xlink:href="MetadataInterpolatorSupport.html" xlink:show="new" xlink:title="MetadataInterpolatorSupport.html" xlink:type="simple"><rect codeLine="15" fill="#FEFECE" filter="url(#foxwahtkvnkw8)" height="86.8652" id="it.tidalwave.northernwind.frontend.media.impl.interpolator.MetadataInterpolatorSupport" style="stroke: #A80036; stroke-width: 1.5;" width="257" x="24.5" y="167"/><ellipse cx="66.05" cy="183" fill="#A9DCDF" rx="11" ry="11" style="stroke: #A80036; stroke-width: 1.0;"/><path d="M65.9133,178.3481 L64.7595,183.4199 L67.0754,183.4199 Z M64.4191,176.1069 L67.4157,176.1069 L70.7609,188.5 L68.3122,188.5 L67.5485,185.437 L64.2697,185.437 L63.5227,188.5 L61.0739,188.5 Z "/><text fill="#000000" font-family="sans-serif" font-size="12" font-style="italic" lengthAdjust="spacingAndGlyphs" textLength="166" x="85.95" y="187.5352">MetadataInterpolatorSupport</text><line style="stroke: #A80036; stroke-width: 1.5;" x1="25.5" x2="280.5" y1="199" y2="199"/><polygon fill="none" points="35.5,205,39.5,209,35.5,213,31.5,209" style="stroke: #B38D22; stroke-width: 1.0;"/><text fill="#000000" font-family="sans-serif" font-size="11" lengthAdjust="spacingAndGlyphs" textLength="72" x="44.5" y="213.6348">macro: String</text><line style="stroke: #A80036; stroke-width: 1.5;" x1="25.5" x2="280.5" y1="219.9551" y2="219.9551"/><polygon fill="#FFFF44" points="35.5,225.9551,39.5,229.9551,35.5,233.9551,31.5,229.9551" style="stroke: #B38D22; stroke-width: 1.0;"/><text fill="#000000" font-family="sans-serif" font-size="11" lengthAdjust="spacingAndGlyphs" text-decoration="underline" textLength="131" x="44.5" y="234.5898">formatted(String): String</text><polygon fill="#FFFF44" points="35.5,238.9102,39.5,242.9102,35.5,246.9102,31.5,242.9102" style="stroke: #B38D22; stroke-width: 1.0;"/><text fill="#000000" font-family="sans-serif" font-size="11" lengthAdjust="spacingAndGlyphs" text-decoration="underline" textLength="231" x="44.5" y="247.5449">lookup(Map&lt;String, String&gt;, String): String</text></a><!--MD5=[81cb70aa29908fbce2fff591398aedcd]
class it.tidalwave.northernwind.frontend.media.impl.interpolator.MetadataInterpolator--><a href="MetadataInterpolator.html" target="_top" title="MetadataInterpolator.html" xlink:actuate="onRequest" xlink:href="MetadataInterpolator.html" xlink:show="new" xlink:title="MetadataInterpolator.html" xlink:type="simple"><rect codeLine="21" fill="#FEFECE" filter="url(#foxwahtkvnkw8)" height="73.9102" id="it.tidalwave.northernwind.frontend.media.impl.interpolator.MetadataInterpolator" style="stroke: #A80036; stroke-width: 1.5;" width="211" x="143.5" y="33"/><ellipse cx="184.6" cy="49" fill="#B4A7E5" rx="11" ry="11" style="stroke: #A80036; stroke-width: 1.0;"/><path d="M181.0277,45.2651 L181.0277,43.1069 L188.4071,43.1069 L188.4071,45.2651 L185.9418,45.2651 L185.9418,53.3418 L188.4071,53.3418 L188.4071,55.5 L181.0277,55.5 L181.0277,53.3418 L183.4931,53.3418 L183.4931,45.2651 Z "/><text fill="#000000" font-family="sans-serif" font-size="12" font-style="italic" lengthAdjust="spacingAndGlyphs" textLength="121" x="204.4" y="53.5352">MetadataInterpolator</text><line style="stroke: #A80036; stroke-width: 1.5;" x1="144.5" x2="353.5" y1="65" y2="65"/><line style="stroke: #A80036; stroke-width: 1.5;" x1="144.5" x2="353.5" y1="73" y2="73"/><ellipse cx="154.5" cy="84" fill="#84BE84" rx="3" ry="3" style="stroke: #038048; stroke-width: 1.0;"/><text fill="#000000" font-family="sans-serif" font-size="11" font-style="italic" lengthAdjust="spacingAndGlyphs" textLength="96" x="163.5" y="87.6348">getMacro(): String</text><ellipse cx="154.5" cy="96.9551" fill="#84BE84" rx="3" ry="3" style="stroke: #038048; stroke-width: 1.0;"/><text fill="#000000" font-family="sans-serif" font-size="11" font-style="italic" lengthAdjust="spacingAndGlyphs" textLength="185" x="163.5" y="100.5898">interpolate(String, Context): String</text></a><!--MD5=[ae1abbd1978a227e2ebe6d7946e151c3]
class it.tidalwave.northernwind.frontend.media.impl.interpolator.MetadataInterpolator.Context--><a href="MetadataInterpolator.Context.html" target="_top" title="MetadataInterpolator.Context.html" xlink:actuate="onRequest" xlink:href="MetadataInterpolator.Context.html" xlink:show="new" xlink:title="MetadataInterpolator.Context.html" xlink:type="simple"><rect codeLine="26" fill="#FEFECE" filter="url(#foxwahtkvnkw8)" height="48" id="it.tidalwave.northernwind.frontend.media.impl.interpolator.MetadataInterpolator.Context" style="stroke: #A80036; stroke-width: 1.5;" width="201" x="316.5" y="186.5"/><ellipse cx="331.5" cy="202.5" fill="#ADD1B2" rx="11" ry="11" style="stroke: #A80036; stroke-width: 1.0;"/><path d="M333.9731,208.6431 Q333.3921,208.9419 332.7529,209.0913 Q332.1138,209.2407 331.4082,209.2407 Q328.9014,209.2407 327.5815,207.5889 Q326.2617,205.937 326.2617,202.8159 Q326.2617,199.6865 327.5815,198.0347 Q328.9014,196.3828 331.4082,196.3828 Q332.1138,196.3828 332.7612,196.5322 Q333.4087,196.6816 333.9731,196.9805 L333.9731,199.7031 Q333.3423,199.1221 332.7488,198.8523 Q332.1553,198.5825 331.5244,198.5825 Q330.1797,198.5825 329.4949,199.6492 Q328.8101,200.7158 328.8101,202.8159 Q328.8101,204.9077 329.4949,205.9744 Q330.1797,207.041 331.5244,207.041 Q332.1553,207.041 332.7488,206.7712 Q333.3423,206.5015 333.9731,205.9204 Z "/><text fill="#000000" font-family="sans-serif" font-size="12" lengthAdjust="spacingAndGlyphs" textLength="169" x="345.5" y="207.0352">MetadataInterpolator.Context</text><line style="stroke: #A80036; stroke-width: 1.5;" x1="317.5" x2="516.5" y1="218.5" y2="218.5"/><line style="stroke: #A80036; stroke-width: 1.5;" x1="317.5" x2="516.5" y1="226.5" y2="226.5"/></a><!--MD5=[6a9d8e5d923d4a85179850772db2b7a5]
class it.tidalwave.northernwind.frontend.media.impl.interpolator.XmpDcTitleInterpolator--><a href="XmpDcTitleInterpolator.html" target="_top" title="XmpDcTitleInterpolator.html" xlink:actuate="onRequest" xlink:href="XmpDcTitleInterpolator.html" xlink:show="new" xlink:title="XmpDcTitleInterpolator.html" xlink:type="simple"><rect codeLine="29" fill="#FEFECE" filter="url(#foxwahtkvnkw8)" height="60.9551" id="it.tidalwave.northernwind.frontend.media.impl.interpolator.XmpDcTitleInterpolator" style="stroke: #A80036; stroke-width: 1.5;" width="211" x="281.5" y="314"/><ellipse cx="316.75" cy="330" fill="#ADD1B2" rx="11" ry="11" style="stroke: #A80036; stroke-width: 1.0;"/><path d="M319.2231,336.1431 Q318.6421,336.4419 318.0029,336.5913 Q317.3638,336.7407 316.6582,336.7407 Q314.1514,336.7407 312.8315,335.0889 Q311.5117,333.437 311.5117,330.3159 Q311.5117,327.1865 312.8315,325.5347 Q314.1514,323.8828 316.6582,323.8828 Q317.3638,323.8828 318.0112,324.0322 Q318.6587,324.1816 319.2231,324.4805 L319.2231,327.2031 Q318.5923,326.6221 317.9988,326.3523 Q317.4053,326.0825 316.7744,326.0825 Q315.4297,326.0825 314.7449,327.1492 Q314.0601,328.2158 314.0601,330.3159 Q314.0601,332.4077 314.7449,333.4744 Q315.4297,334.541 316.7744,334.541 Q317.4053,334.541 317.9988,334.2712 Q318.5923,334.0015 319.2231,333.4204 Z "/><text fill="#000000" font-family="sans-serif" font-size="12" lengthAdjust="spacingAndGlyphs" textLength="134" x="335.25" y="334.5352">XmpDcTitleInterpolator</text><line style="stroke: #A80036; stroke-width: 1.5;" x1="282.5" x2="491.5" y1="346" y2="346"/><line style="stroke: #A80036; stroke-width: 1.5;" x1="282.5" x2="491.5" y1="354" y2="354"/><ellipse cx="292.5" cy="365" fill="#84BE84" rx="3" ry="3" style="stroke: #038048; stroke-width: 1.0;"/><text fill="#000000" font-family="sans-serif" font-size="11" lengthAdjust="spacingAndGlyphs" textLength="185" x="301.5" y="368.6348">interpolate(String, Context): String</text></a><!--MD5=[07a73a15818d6909bb3b1c1f3522d5d0]
reverse link it.tidalwave.northernwind.frontend.media.impl.interpolator.MetadataInterpolatorFactory to it.tidalwave.northernwind.frontend.media.impl.interpolator.ScanningMetadataInterpolatorFactory--><path codeLine="33" d="M653.1914,120.379 C657.9928,140.2201 663.3518,162.3655 667.556,179.7386 " fill="none" id="it.tidalwave.northernwind.frontend.media.impl.interpolator.MetadataInterpolatorFactory-backto-it.tidalwave.northernwind.frontend.media.impl.interpolator.ScanningMetadataInterpolatorFactory" style="stroke: #A80036; stroke-width: 1.0; stroke-dasharray: 7.0,7.0;"/><polygon fill="none" points="646.362,121.9187,648.4614,100.8333,659.9692,118.6258,646.362,121.9187" style="stroke: #A80036; stroke-width: 1.0;"/><!--MD5=[c71c9a8fea1f0884904f3fcf35c6b9c5]
reverse link it.tidalwave.northernwind.frontend.media.impl.interpolator.MetadataInterpolatorSupport to it.tidalwave.northernwind.frontend.media.impl.interpolator.ShootingDataInterpolator--><path codeLine="34" d="M147.316,273.9713 C146.0696,287.8896 144.8049,302.0116 143.738,313.9257 " fill="none" id="it.tidalwave.northernwind.frontend.media.impl.interpolator.MetadataInterpolatorSupport-backto-it.tidalwave.northernwind.frontend.media.impl.interpolator.ShootingDataInterpolator" style="stroke: #A80036; stroke-width: 1.0;"/><polygon fill="none" points="140.3478,273.3018,149.1039,254.006,154.292,274.5506,140.3478,273.3018" style="stroke: #A80036; stroke-width: 1.0;"/><!--MD5=[0458a973ec7bed5e77b9b3848950f5f2]
reverse link it.tidalwave.northernwind.frontend.media.impl.interpolator.MetadataInterpolator to it.tidalwave.northernwind.frontend.media.impl.interpolator.MetadataInterpolatorSupport--><path codeLine="35" d="M212.1412,123.9444 C202.4536,138.1226 192.1252,153.2387 182.8554,166.8053 " fill="none" id="it.tidalwave.northernwind.frontend.media.impl.interpolator.MetadataInterpolator-backto-it.tidalwave.northernwind.frontend.media.impl.interpolator.MetadataInterpolatorSupport" style="stroke: #A80036; stroke-width: 1.0; stroke-dasharray: 7.0,7.0;"/><polygon fill="none" points="206.4629,119.8468,223.5258,107.2825,218.0223,127.745,206.4629,119.8468" style="stroke: #A80036; stroke-width: 1.0;"/><!--MD5=[ca21b2457743e7730b467068390a88f5]
reverse link it.tidalwave.northernwind.frontend.media.impl.interpolator.MetadataInterpolator to it.tidalwave.northernwind.frontend.media.impl.interpolator.MetadataInterpolator.Context--><path codeLine="36" d="M305.171,116.9764 C332.9687,140.2239 365.3504,167.3049 388.0929,186.3247 " fill="none" id="it.tidalwave.northernwind.frontend.media.impl.interpolator.MetadataInterpolator-backto-it.tidalwave.northernwind.frontend.media.impl.interpolator.MetadataInterpolator.Context" style="stroke: #A80036; stroke-width: 1.0;"/><ellipse cx="299.7166" cy="112.4148" fill="#FFFFFF" rx="8" ry="8" style="stroke: #A80036; stroke-width: 1.0;"/><line style="stroke: #A80036; stroke-width: 1.0;" x1="305.8533" x2="293.5798" y1="117.547" y2="107.2825"/><line style="stroke: #A80036; stroke-width: 1.0;" x1="294.5843" x2="304.8488" y1="118.5515" y2="106.278"/><!--MD5=[f04b928703947844bbac4cd9125dc70c]
reverse link it.tidalwave.northernwind.frontend.media.impl.interpolator.MetadataInterpolatorSupport to it.tidalwave.northernwind.frontend.media.impl.interpolator.XmpDcTitleInterpolator--><path codeLine="37" d="M246.5746,264.0855 C276.1672,281.0316 307.8444,299.1716 333.609,313.9257 " fill="none" id="it.tidalwave.northernwind.frontend.media.impl.interpolator.MetadataInterpolatorSupport-backto-it.tidalwave.northernwind.frontend.media.impl.interpolator.XmpDcTitleInterpolator" style="stroke: #A80036; stroke-width: 1.0;"/><polygon fill="none" points="242.8503,270.0193,228.9731,254.006,249.8074,257.8703,242.8503,270.0193" style="stroke: #A80036; stroke-width: 1.0;"/><text fill="#888888" font-family="sans-serif" font-size="10" lengthAdjust="spacingAndGlyphs" textLength="188" x="310.5" y="398.668">UMLDoclet 2.0.12, PlantUML 1.2020.16</text><!--MD5=[2d6219a285bf03593ee2ce3230f9cb15]
@startuml
    namespace it.tidalwave.northernwind.frontend.media.impl.interpolator {

        class ScanningMetadataInterpolatorFactory [[ScanningMetadataInterpolatorFactory.html]] {
            +initialize(): void
        }

        interface MetadataInterpolatorFactory [[MetadataInterpolatorFactory.html]] {
            {abstract} +getInterpolators(): Collection<MetadataInterpolator>
        }

        class ShootingDataInterpolator [[ShootingDataInterpolator.html]] {
            +interpolate(String, Context): String
        }

        abstract class MetadataInterpolatorSupport [[MetadataInterpolatorSupport.html]] {
            #macro: String
            {static} #formatted(String): String
            {static} #lookup(Map<String, String>, String): String
        }

        interface MetadataInterpolator [[MetadataInterpolator.html]] {
            {abstract} +getMacro(): String
            {abstract} +interpolate(String, Context): String
        }

        class it.tidalwave.northernwind.frontend.media.impl.interpolator.MetadataInterpolator.Context [[MetadataInterpolator.Context.html]] {
        }

        class XmpDcTitleInterpolator [[XmpDcTitleInterpolator.html]] {
            +interpolate(String, Context): String
        }

        MetadataInterpolatorFactory <|.. ScanningMetadataInterpolatorFactory
        MetadataInterpolatorSupport <|- - ShootingDataInterpolator
        MetadataInterpolator <|.. MetadataInterpolatorSupport
        MetadataInterpolator +- - it.tidalwave.northernwind.frontend.media.impl.interpolator.MetadataInterpolator.Context
        MetadataInterpolatorSupport <|- - XmpDcTitleInterpolator
    }

    center footer UMLDoclet 2.0.12, PlantUML 1.2020.16
@enduml

PlantUML version 1.2020.16(Sun Aug 23 22:20:43 CEST 2020)
(APACHE source distribution)
Java Runtime: OpenJDK Runtime Environment
JVM: OpenJDK 64-Bit Server VM
Default Encoding: UTF-8
Language: en
Country: GB
--></g></svg>