<?xml version="1.0" encoding="UTF-8" standalone="no"?><svg xmlns="http://www.w3.org/2000/svg" xmlns:xlink="http://www.w3.org/1999/xlink" contentScriptType="application/ecmascript" contentStyleType="text/css" height="146px" preserveAspectRatio="none" style="width:485px;height:146px;" version="1.1" viewBox="0 0 485 146" width="485px" zoomAndPan="magnify"><defs><filter height="300%" id="f12qwnx1rng85u" width="300%" x="-1" y="-1"><feGaussianBlur result="blurOut" stdDeviation="2.0"/><feColorMatrix in="blurOut" result="blurOut2" type="matrix" values="0 0 0 0 0 0 0 0 0 0 0 0 0 0 0 0 0 0 .4 0"/><feOffset dx="4.0" dy="4.0" in="blurOut2" result="blurOut3"/><feBlend in="SourceGraphic" in2="blurOut3" mode="normal"/></filter></defs><g><!--MD5=[38688d9ab7fb6e4df29b7d1920abd853]
cluster it.tidalwave.thesefoolishthings.examples.dci.marshal.xstream--><polygon fill="#FFFFFF" filter="url(#f12qwnx1rng85u)" points="16,6,453,6,460,28.0986,463,28.0986,463,118,16,118,16,6" style="stroke: #000000; stroke-width: 1.5;"/><line style="stroke: #000000; stroke-width: 1.5;" x1="16" x2="460" y1="28.0986" y2="28.0986"/><text fill="#000000" font-family="sans-serif" font-size="14" font-weight="bold" lengthAdjust="spacingAndGlyphs" textLength="431" x="20" y="21.1318">it.tidalwave.thesefoolishthings.examples.dci.marshal.xstream</text><!--MD5=[bcf0f428d83486bd67b5df2dafe08a5b]
class it.tidalwave.thesefoolishthings.examples.dci.marshal.xstream.DciMarshalXStreamExampleTest--><a href="DciMarshalXStreamExampleTest.html" target="_top" title="DciMarshalXStreamExampleTest.html" xlink:actuate="onRequest" xlink:href="DciMarshalXStreamExampleTest.html" xlink:show="new" xlink:title="DciMarshalXStreamExampleTest.html" xlink:type="simple"><rect codeLine="3" fill="#FEFECE" filter="url(#f12qwnx1rng85u)" height="60.6489" id="it.tidalwave.thesefoolishthings.examples.dci.marshal.xstream.DciMarshalXStreamExampleTest" style="stroke: #A80036; stroke-width: 1.5;" width="213" x="132.5" y="41"/><ellipse cx="147.5" cy="57" fill="#ADD1B2" rx="11" ry="11" style="stroke: #A80036; stroke-width: 1.0;"/><path d="M145.4063,56.8438 Q145.4063,58.7188 145.9844,59.7344 Q146.5625,60.7344 147.7188,60.7344 Q149.0625,60.7344 149.7188,58.7188 L151.9844,59.1406 Q150.875,62.6719 147.7031,62.6719 Q145.3594,62.6719 144.1406,61.1875 Q142.9219,59.7031 142.9219,56.8438 Q142.9219,51.125 147.625,51.125 Q149.1719,51.125 150.2031,51.9375 Q151.25,52.75 151.75,54.3594 L149.4844,54.9063 Q149.25,54.0313 148.7656,53.5469 Q148.2813,53.0469 147.6563,53.0469 Q145.4063,53.0469 145.4063,56.8438 Z "/><text fill="#000000" font-family="sans-serif" font-size="12" lengthAdjust="spacingAndGlyphs" textLength="181" x="161.5" y="61.3564">DciMarshalXStreamExampleTest</text><line style="stroke: #A80036; stroke-width: 1.5;" x1="133.5" x2="344.5" y1="73" y2="73"/><line style="stroke: #A80036; stroke-width: 1.5;" x1="133.5" x2="344.5" y1="81" y2="81"/><ellipse cx="143.5" cy="92" fill="#84BE84" rx="3" ry="3" style="stroke: #038048; stroke-width: 1.0;"/><text fill="#000000" font-family="sans-serif" font-size="11" lengthAdjust="spacingAndGlyphs" textLength="112" x="152.5" y="95.3179">must_not_crash(): void</text></a><text fill="#888888" font-family="sans-serif" font-size="10" lengthAdjust="spacingAndGlyphs" textLength="190" x="138.5" y="133.3799">UMLDoclet 2.0.12, PlantUML 1.2020.16</text><!--MD5=[ba730b2fb7cdf6b71d977eda1785e8ec]
@startuml
    namespace it.tidalwave.thesefoolishthings.examples.dci.marshal.xstream {

        class DciMarshalXStreamExampleTest [[DciMarshalXStreamExampleTest.html]] {
            +must_not_crash(): void
        }

    }

    center footer UMLDoclet 2.0.12, PlantUML 1.2020.16
@enduml

PlantUML version 1.2020.16(Sun Aug 23 22:20:43 CEST 2020)
(APACHE source distribution)
Java Runtime: OpenJDK Runtime Environment
JVM: OpenJDK 64-Bit Server VM
Default Encoding: UTF-8
Language: en
Country: US
--></g></svg>