<?xml version="1.0" encoding="UTF-8" standalone="no"?><svg xmlns="http://www.w3.org/2000/svg" xmlns:xlink="http://www.w3.org/1999/xlink" contentScriptType="application/ecmascript" contentStyleType="text/css" height="229px" preserveAspectRatio="none" style="width:412px;height:229px;" version="1.1" viewBox="0 0 412 229" width="412px" zoomAndPan="magnify"><defs><filter height="300%" id="fw11v6m4z4r8p" width="300%" x="-1" y="-1"><feGaussianBlur result="blurOut" stdDeviation="2.0"/><feColorMatrix in="blurOut" result="blurOut2" type="matrix" values="0 0 0 0 0 0 0 0 0 0 0 0 0 0 0 0 0 0 .4 0"/><feOffset dx="4.0" dy="4.0" in="blurOut2" result="blurOut3"/><feBlend in="SourceGraphic" in2="blurOut3" mode="normal"/></filter></defs><g><!--MD5=[4309f9841cf9fc2cf337b1e548886f2e]
class it.tidalwave.northernwind.frontend.ui.spi.ViewAndControllerLayoutBuilder--><a href="ViewAndControllerLayoutBuilder.html" target="_top" title="ViewAndControllerLayoutBuilder.html" xlink:actuate="onRequest" xlink:href="ViewAndControllerLayoutBuilder.html" xlink:show="new" xlink:title="ViewAndControllerLayoutBuilder.html" xlink:type="simple"><rect codeLine="5" fill="#FEFECE" filter="url(#fw11v6m4z4r8p)" height="85.1309" id="it.tidalwave.northernwind.frontend.ui.spi.ViewAndControllerLayoutBuilder" style="stroke: #A80036; stroke-width: 1.5;" width="377" x="11.5" y="108"/><ellipse cx="84.25" cy="127.1328" fill="#ADD1B2" rx="11" ry="11" style="stroke: #A80036; stroke-width: 1.0;"/><path d="M86.7231,133.2759 Q86.1421,133.5747 85.5029,133.7241 Q84.8638,133.8735 84.1582,133.8735 Q81.6514,133.8735 80.3315,132.2217 Q79.0117,130.5698 79.0117,127.4487 Q79.0117,124.3193 80.3315,122.6675 Q81.6514,121.0156 84.1582,121.0156 Q84.8638,121.0156 85.5112,121.165 Q86.1587,121.3145 86.7231,121.6133 L86.7231,124.3359 Q86.0923,123.7549 85.4988,123.4851 Q84.9053,123.2153 84.2744,123.2153 Q82.9297,123.2153 82.2449,124.282 Q81.5601,125.3486 81.5601,127.4487 Q81.5601,129.5405 82.2449,130.6072 Q82.9297,131.6738 84.2744,131.6738 Q84.9053,131.6738 85.4988,131.4041 Q86.0923,131.1343 86.7231,130.5532 Z "/><text fill="#000000" font-family="sans-serif" font-size="14" lengthAdjust="spacingAndGlyphs" textLength="223" x="104.75" y="126.5352">ViewAndControllerLayoutBuilder</text><text fill="#000000" font-family="sans-serif" font-size="10" lengthAdjust="spacingAndGlyphs" textLength="199" x="116.75" y="139.1563">it.tidalwave.northernwind.frontend.ui.spi</text><line style="stroke: #A80036; stroke-width: 1.5;" x1="12.5" x2="387.5" y1="146.2656" y2="146.2656"/><ellipse cx="22.5" cy="157.2656" fill="#84BE84" rx="3" ry="3" style="stroke: #038048; stroke-width: 1.0;"/><text fill="#000000" font-family="sans-serif" font-size="11" lengthAdjust="spacingAndGlyphs" textLength="95" x="31.5" y="160.9004">visit(Layout): void</text><ellipse cx="22.5" cy="170.2207" fill="#84BE84" rx="3" ry="3" style="stroke: #038048; stroke-width: 1.0;"/><text fill="#000000" font-family="sans-serif" font-size="11" lengthAdjust="spacingAndGlyphs" textLength="298" x="31.5" y="173.8555">getValue(): Optional&lt;ViewAndControllerLayoutBuilder&gt;</text><ellipse cx="22.5" cy="183.1758" fill="#84BE84" rx="3" ry="3" style="stroke: #038048; stroke-width: 1.0;"/><text fill="#000000" font-family="sans-serif" font-size="11" lengthAdjust="spacingAndGlyphs" textLength="351" x="31.5" y="186.8105">getViewAndControllerFor(Layout): Optional&lt;ViewAndController&gt;</text></a><!--MD5=[96fda046302279efd0df60a539f9f1f0]
class it.tidalwave.role.Composite.Visitor--><rect codeLine="11" fill="#FEFECE" filter="url(#fw11v6m4z4r8p)" height="38.2656" id="it.tidalwave.role.Composite.Visitor" style="stroke: #A80036; stroke-width: 1.5;" width="386" x="7" y="10"/><ellipse cx="22" cy="29.1328" fill="#B4A7E5" rx="11" ry="11" style="stroke: #A80036; stroke-width: 1.0;"/><path d="M18.4277,25.3979 L18.4277,23.2397 L25.8071,23.2397 L25.8071,25.3979 L23.3418,25.3979 L23.3418,33.4746 L25.8071,33.4746 L25.8071,35.6328 L18.4277,35.6328 L18.4277,33.4746 L20.8931,33.4746 L20.8931,25.3979 Z "/><text fill="#000000" font-family="sans-serif" font-size="14" font-style="italic" lengthAdjust="spacingAndGlyphs" textLength="122" x="36" y="28.5352">Composite.Visitor</text><text fill="#000000" font-family="sans-serif" font-size="10" font-style="italic" lengthAdjust="spacingAndGlyphs" textLength="79" x="57.5" y="41.1563">it.tidalwave.role</text><rect fill="#FFFFFF" height="16.1328" style="stroke: #000000; stroke-width: 1.0; stroke-dasharray: 2.0,2.0;" width="230" x="166" y="7"/><text fill="#000000" font-family="sans-serif" font-size="12" font-style="italic" lengthAdjust="spacingAndGlyphs" textLength="228" x="167" y="19.6016">Layout, ViewAndControllerLayoutBuilder</text><!--MD5=[ff54506c8ce066036cab800b871124a5]
reverse link it.tidalwave.role.Composite.Visitor to it.tidalwave.northernwind.frontend.ui.spi.ViewAndControllerLayoutBuilder--><path codeLine="13" d="M200,68.3291 C200,80.9819 200,95.0566 200,107.9312 " fill="none" id="it.tidalwave.role.Composite.Visitor-backto-it.tidalwave.northernwind.frontend.ui.spi.ViewAndControllerLayoutBuilder" style="stroke: #A80036; stroke-width: 1.0; stroke-dasharray: 7.0,7.0;"/><polygon fill="none" points="193.0001,68.2521,200,48.252,207.0001,68.252,193.0001,68.2521" style="stroke: #A80036; stroke-width: 1.0;"/><text fill="#888888" font-family="sans-serif" font-size="10" lengthAdjust="spacingAndGlyphs" textLength="188" x="103" y="215.7988">UMLDoclet 2.0.12, PlantUML 1.2020.16</text><!--MD5=[1f5e2c1f36fe5e090fb3bcf851e6660b]
@startuml
    set namespaceSeparator none
    hide empty fields
    hide empty methods

    class "<size:14>ViewAndControllerLayoutBuilder\n<size:10>it.tidalwave.northernwind.frontend.ui.spi" as it.tidalwave.northernwind.frontend.ui.spi.ViewAndControllerLayoutBuilder [[ViewAndControllerLayoutBuilder.html]] {
        +visit(Layout): void
        +getValue(): Optional<ViewAndControllerLayoutBuilder>
        +getViewAndControllerFor(Layout): Optional<ViewAndController>
    }

    interface "<size:14>Composite.Visitor\n<size:10>it.tidalwave.role" as it.tidalwave.role.Composite.Visitor<Layout, ViewAndControllerLayoutBuilder>

    it.tidalwave.role.Composite.Visitor <|.. it.tidalwave.northernwind.frontend.ui.spi.ViewAndControllerLayoutBuilder

    center footer UMLDoclet 2.0.12, PlantUML 1.2020.16
@enduml

PlantUML version 1.2020.16(Sun Aug 23 22:20:43 CEST 2020)
(APACHE source distribution)
Java Runtime: OpenJDK Runtime Environment
JVM: OpenJDK 64-Bit Server VM
Default Encoding: UTF-8
Language: en
Country: GB
--></g></svg>