<?xml version="1.0" encoding="UTF-8" standalone="no"?><svg xmlns="http://www.w3.org/2000/svg" xmlns:xlink="http://www.w3.org/1999/xlink" contentScriptType="application/ecmascript" contentStyleType="text/css" height="130px" preserveAspectRatio="none" style="width:242px;height:130px;" version="1.1" viewBox="0 0 242 130" width="242px" zoomAndPan="magnify"><defs><filter height="300%" id="f1d03c5hl6hfq2" width="300%" x="-1" y="-1"><feGaussianBlur result="blurOut" stdDeviation="2.0"/><feColorMatrix in="blurOut" result="blurOut2" type="matrix" values="0 0 0 0 0 0 0 0 0 0 0 0 0 0 0 0 0 0 .4 0"/><feOffset dx="4.0" dy="4.0" in="blurOut2" result="blurOut3"/><feBlend in="SourceGraphic" in2="blurOut3" mode="normal"/></filter></defs><g><!--MD5=[3683186ba72b865f2f77afb0a8282e4a]
class it.tidalwave.role.spring.RoleSpringConfiguration--><a href="RoleSpringConfiguration.html" target="_top" title="RoleSpringConfiguration.html" xlink:actuate="onRequest" xlink:href="RoleSpringConfiguration.html" xlink:show="new" xlink:title="RoleSpringConfiguration.html" xlink:type="simple"><rect codeLine="5" fill="#FEFECE" filter="url(#f1d03c5hl6hfq2)" height="93.1309" id="it.tidalwave.role.spring.RoleSpringConfiguration" style="stroke: #A80036; stroke-width: 1.5;" width="216" x="7" y="7"/><ellipse cx="27.85" cy="26.1328" fill="#ADD1B2" rx="11" ry="11" style="stroke: #A80036; stroke-width: 1.0;"/><path d="M30.3231,32.2759 Q29.7421,32.5747 29.1029,32.7241 Q28.4638,32.8735 27.7582,32.8735 Q25.2514,32.8735 23.9315,31.2217 Q22.6117,29.5698 22.6117,26.4487 Q22.6117,23.3193 23.9315,21.6675 Q25.2514,20.0156 27.7582,20.0156 Q28.4638,20.0156 29.1112,20.165 Q29.7587,20.3145 30.3231,20.6133 L30.3231,23.3359 Q29.6923,22.7549 29.0988,22.4851 Q28.5053,22.2153 27.8744,22.2153 Q26.5297,22.2153 25.8449,23.282 Q25.1601,24.3486 25.1601,26.4487 Q25.1601,28.5405 25.8449,29.6072 Q26.5297,30.6738 27.8744,30.6738 Q28.5053,30.6738 29.0988,30.4041 Q29.6923,30.1343 30.3231,29.5532 Z "/><text fill="#000000" font-family="sans-serif" font-size="14" lengthAdjust="spacingAndGlyphs" textLength="171" x="43.15" y="25.5352">RoleSpringConfiguration</text><text fill="#000000" font-family="sans-serif" font-size="10" lengthAdjust="spacingAndGlyphs" textLength="112" x="72.65" y="38.1563">it.tidalwave.role.spring</text><line style="stroke: #A80036; stroke-width: 1.5;" x1="8" x2="222" y1="45.2656" y2="45.2656"/><ellipse cx="18" cy="56.2656" fill="none" rx="3" ry="3" style="stroke: #038048; stroke-width: 1.0;"/><text fill="#000000" font-family="sans-serif" font-size="11" lengthAdjust="spacingAndGlyphs" text-decoration="underline" textLength="72" x="27" y="59.9004">BEANS: String</text><line style="stroke: #A80036; stroke-width: 1.5;" x1="8" x2="222" y1="66.2207" y2="66.2207"/><ellipse cx="18" cy="77.2207" fill="#84BE84" rx="3" ry="3" style="stroke: #038048; stroke-width: 1.0;"/><text fill="#000000" font-family="sans-serif" font-size="11" lengthAdjust="spacingAndGlyphs" textLength="150" x="27" y="80.8555">roleManager(): RoleManager</text><ellipse cx="18" cy="90.1758" fill="#84BE84" rx="3" ry="3" style="stroke: #038048; stroke-width: 1.0;"/><text fill="#000000" font-family="sans-serif" font-size="11" lengthAdjust="spacingAndGlyphs" textLength="190" x="27" y="93.8105">contextManager(): ContextManager</text></a><text fill="#888888" font-family="sans-serif" font-size="10" lengthAdjust="spacingAndGlyphs" textLength="188" x="21" y="116.7988">UMLDoclet 2.0.12, PlantUML 1.2020.16</text><!--MD5=[5f0dcf3dce75f82a1d7f986f6292c577]
@startuml
    set namespaceSeparator none
    hide empty fields
    hide empty methods

    class "<size:14>RoleSpringConfiguration\n<size:10>it.tidalwave.role.spring" as it.tidalwave.role.spring.RoleSpringConfiguration [[RoleSpringConfiguration.html]] {
        {static} +BEANS: String
        +roleManager(): RoleManager
        +contextManager(): ContextManager
    }

    center footer UMLDoclet 2.0.12, PlantUML 1.2020.16
@enduml

PlantUML version 1.2020.16(Sun Aug 23 22:20:43 CEST 2020)
(APACHE source distribution)
Java Runtime: OpenJDK Runtime Environment
JVM: OpenJDK 64-Bit Server VM
Default Encoding: UTF-8
Language: en
Country: GB
--></g></svg>