<?xml version="1.0" encoding="UTF-8" standalone="no"?><svg xmlns="http://www.w3.org/2000/svg" xmlns:xlink="http://www.w3.org/1999/xlink" contentScriptType="application/ecmascript" contentStyleType="text/css" height="311px" preserveAspectRatio="none" style="width:360px;height:311px;" version="1.1" viewBox="0 0 360 311" width="360px" zoomAndPan="magnify"><defs><filter height="300%" id="fwn53ecthi2z8" width="300%" x="-1" y="-1"><feGaussianBlur result="blurOut" stdDeviation="2.0"/><feColorMatrix in="blurOut" result="blurOut2" type="matrix" values="0 0 0 0 0 0 0 0 0 0 0 0 0 0 0 0 0 0 .4 0"/><feOffset dx="4.0" dy="4.0" in="blurOut2" result="blurOut3"/><feBlend in="SourceGraphic" in2="blurOut3" mode="normal"/></filter></defs><g><!--MD5=[96f181f1e7052bccee7d3fe3d1061377]
class it.tidalwave.messagebus.spi.ReflectionUtils.MethodProcessor--><a href="ReflectionUtils.MethodProcessor.html" target="_top" title="ReflectionUtils.MethodProcessor.html" xlink:actuate="onRequest" xlink:href="ReflectionUtils.MethodProcessor.html" xlink:show="new" xlink:title="ReflectionUtils.MethodProcessor.html" xlink:type="simple"><rect codeLine="5" fill="#FEFECE" filter="url(#fwn53ecthi2z8)" height="72.1758" id="it.tidalwave.messagebus.spi.ReflectionUtils.MethodProcessor" style="stroke: #A80036; stroke-width: 1.5;" width="253" x="47.5" y="105"/><ellipse cx="62.5" cy="124.1328" fill="#B4A7E5" rx="11" ry="11" style="stroke: #A80036; stroke-width: 1.0;"/><path d="M58.9277,120.3979 L58.9277,118.2397 L66.3071,118.2397 L66.3071,120.3979 L63.8418,120.3979 L63.8418,128.4746 L66.3071,128.4746 L66.3071,130.6328 L58.9277,130.6328 L58.9277,128.4746 L61.3931,128.4746 L61.3931,120.3979 Z "/><text fill="#000000" font-family="sans-serif" font-size="14" font-style="italic" lengthAdjust="spacingAndGlyphs" textLength="221" x="76.5" y="123.5352">ReflectionUtils.MethodProcessor</text><text fill="#000000" font-family="sans-serif" font-size="10" font-style="italic" lengthAdjust="spacingAndGlyphs" textLength="137" x="118.5" y="136.1563">it.tidalwave.messagebus.spi</text><line style="stroke: #A80036; stroke-width: 1.5;" x1="48.5" x2="299.5" y1="143.2656" y2="143.2656"/><ellipse cx="58.5" cy="154.2656" fill="#84BE84" rx="3" ry="3" style="stroke: #038048; stroke-width: 1.0;"/><text fill="#000000" font-family="sans-serif" font-size="11" font-style="italic" lengthAdjust="spacingAndGlyphs" textLength="151" x="67.5" y="157.9004">filter(Class&lt;?&gt;): FilterResult</text><ellipse cx="58.5" cy="167.2207" fill="#84BE84" rx="3" ry="3" style="stroke: #038048; stroke-width: 1.0;"/><text fill="#000000" font-family="sans-serif" font-size="11" font-style="italic" lengthAdjust="spacingAndGlyphs" textLength="120" x="67.5" y="170.8555">process(Method): void</text></a><!--MD5=[84dfc94921fc2aa4c43b60c35529c8c2]
class it.tidalwave.messagebus.spi.ReflectionUtils--><a href="ReflectionUtils.html" target="_top" title="ReflectionUtils.html" xlink:actuate="onRequest" xlink:href="ReflectionUtils.html" xlink:show="new" xlink:title="ReflectionUtils.html" xlink:type="simple"><rect codeLine="10" fill="#FEFECE" filter="url(#fwn53ecthi2z8)" height="38.2656" id="it.tidalwave.messagebus.spi.ReflectionUtils" style="stroke: #A80036; stroke-width: 1.5;" width="169" x="89.5" y="7"/><ellipse cx="104.5" cy="26.1328" fill="#ADD1B2" rx="11" ry="11" style="stroke: #A80036; stroke-width: 1.0;"/><path d="M106.9731,32.2759 Q106.3921,32.5747 105.7529,32.7241 Q105.1138,32.8735 104.4082,32.8735 Q101.9014,32.8735 100.5815,31.2217 Q99.2617,29.5698 99.2617,26.4487 Q99.2617,23.3193 100.5815,21.6675 Q101.9014,20.0156 104.4082,20.0156 Q105.1138,20.0156 105.7612,20.165 Q106.4087,20.3145 106.9731,20.6133 L106.9731,23.3359 Q106.3423,22.7549 105.7488,22.4851 Q105.1553,22.2153 104.5244,22.2153 Q103.1797,22.2153 102.4949,23.282 Q101.8101,24.3486 101.8101,26.4487 Q101.8101,28.5405 102.4949,29.6072 Q103.1797,30.6738 104.5244,30.6738 Q105.1553,30.6738 105.7488,30.4041 Q106.3423,30.1343 106.9731,29.5532 Z "/><text fill="#000000" font-family="sans-serif" font-size="14" lengthAdjust="spacingAndGlyphs" textLength="98" x="138" y="25.5352">ReflectionUtils</text><text fill="#000000" font-family="sans-serif" font-size="10" lengthAdjust="spacingAndGlyphs" textLength="137" x="118.5" y="38.1563">it.tidalwave.messagebus.spi</text></a><!--MD5=[898c3fa715c9537c42935eb6b026b52f]
class it.tidalwave.messagebus.spi.ReflectionUtils.MethodProcessor.FilterResult--><a href="ReflectionUtils.MethodProcessor.FilterResult.html" target="_top" title="ReflectionUtils.MethodProcessor.FilterResult.html" xlink:actuate="onRequest" xlink:href="ReflectionUtils.MethodProcessor.FilterResult.html" xlink:show="new" xlink:title="ReflectionUtils.MethodProcessor.FilterResult.html" xlink:type="simple"><rect codeLine="11" fill="#FEFECE" filter="url(#fwn53ecthi2z8)" height="38.2656" id="it.tidalwave.messagebus.spi.ReflectionUtils.MethodProcessor.FilterResult" style="stroke: #A80036; stroke-width: 1.5;" width="334" x="7" y="237"/><ellipse cx="22" cy="256.1328" fill="#EB937F" rx="11" ry="11" style="stroke: #A80036; stroke-width: 1.0;"/><path d="M25.6143,262.6328 L17.8945,262.6328 L17.8945,250.2397 L25.6143,250.2397 L25.6143,252.3979 L20.3433,252.3979 L20.3433,255.0708 L25.1162,255.0708 L25.1162,257.229 L20.3433,257.229 L20.3433,260.4746 L25.6143,260.4746 Z "/><text fill="#000000" font-family="sans-serif" font-size="14" lengthAdjust="spacingAndGlyphs" textLength="302" x="36" y="255.5352">ReflectionUtils.MethodProcessor.FilterResult</text><text fill="#000000" font-family="sans-serif" font-size="10" lengthAdjust="spacingAndGlyphs" textLength="137" x="118.5" y="268.1563">it.tidalwave.messagebus.spi</text></a><!--MD5=[a0f2abbf64cec9c1acc031284cf37c90]
reverse link it.tidalwave.messagebus.spi.ReflectionUtils to it.tidalwave.messagebus.spi.ReflectionUtils.MethodProcessor--><path codeLine="13" d="M174,60.4665 C174,74.5047 174,90.7372 174,104.935 " fill="none" id="it.tidalwave.messagebus.spi.ReflectionUtils-backto-it.tidalwave.messagebus.spi.ReflectionUtils.MethodProcessor" style="stroke: #A80036; stroke-width: 1.0;"/><ellipse cx="174" cy="53.2484" fill="#FFFFFF" rx="8" ry="8" style="stroke: #A80036; stroke-width: 1.0;"/><line style="stroke: #A80036; stroke-width: 1.0;" x1="174" x2="174" y1="61.2484" y2="45.2484"/><line style="stroke: #A80036; stroke-width: 1.0;" x1="166" x2="182" y1="53.2484" y2="53.2484"/><!--MD5=[69890097a5209350340d5591db699472]
reverse link it.tidalwave.messagebus.spi.ReflectionUtils.MethodProcessor to it.tidalwave.messagebus.spi.ReflectionUtils.MethodProcessor.FilterResult--><path codeLine="14" d="M174,192.4527 C174,208.2168 174,224.5939 174,236.7739 " fill="none" id="it.tidalwave.messagebus.spi.ReflectionUtils.MethodProcessor-backto-it.tidalwave.messagebus.spi.ReflectionUtils.MethodProcessor.FilterResult" style="stroke: #A80036; stroke-width: 1.0;"/><ellipse cx="174" cy="185.0712" fill="#FFFFFF" rx="8" ry="8" style="stroke: #A80036; stroke-width: 1.0;"/><line style="stroke: #A80036; stroke-width: 1.0;" x1="174" x2="174" y1="193.0712" y2="177.0712"/><line style="stroke: #A80036; stroke-width: 1.0;" x1="166" x2="182" y1="185.0712" y2="185.0712"/><text fill="#888888" font-family="sans-serif" font-size="10" lengthAdjust="spacingAndGlyphs" textLength="188" x="77" y="297.9336">UMLDoclet 2.0.12, PlantUML 1.2020.16</text><!--MD5=[7b97956f8e9c0407db78740c9437421e]
@startuml
    set namespaceSeparator none
    hide empty fields
    hide empty methods

    interface "<size:14>ReflectionUtils.MethodProcessor\n<size:10>it.tidalwave.messagebus.spi" as it.tidalwave.messagebus.spi.ReflectionUtils.MethodProcessor [[ReflectionUtils.MethodProcessor.html]] {
        {abstract} +filter(Class<?>): FilterResult
        {abstract} +process(Method): void
    }

    class "<size:14>ReflectionUtils\n<size:10>it.tidalwave.messagebus.spi" as it.tidalwave.messagebus.spi.ReflectionUtils [[ReflectionUtils.html]]
    enum "<size:14>ReflectionUtils.MethodProcessor.FilterResult\n<size:10>it.tidalwave.messagebus.spi" as it.tidalwave.messagebus.spi.ReflectionUtils.MethodProcessor.FilterResult [[ReflectionUtils.MethodProcessor.FilterResult.html]]

    it.tidalwave.messagebus.spi.ReflectionUtils +- - it.tidalwave.messagebus.spi.ReflectionUtils.MethodProcessor
    it.tidalwave.messagebus.spi.ReflectionUtils.MethodProcessor +- - it.tidalwave.messagebus.spi.ReflectionUtils.MethodProcessor.FilterResult

    center footer UMLDoclet 2.0.12, PlantUML 1.2020.16
@enduml

PlantUML version 1.2020.16(Sun Aug 23 22:20:43 CEST 2020)
(APACHE source distribution)
Java Runtime: OpenJDK Runtime Environment
JVM: OpenJDK 64-Bit Server VM
Default Encoding: UTF-8
Language: en
Country: GB
--></g></svg>