@startuml
    set namespaceSeparator none
    hide empty fields
    hide empty methods

    class "<size:14>OwnerRoleFactoryProvider.Inner\n<size:10>it.tidalwave.role.spi" as it.tidalwave.role.spi.OwnerRoleFactoryProvider.Inner [[OwnerRoleFactoryProvider.Inner.html]] {
    }

    interface "<size:14>OwnerRoleFactoryProvider\n<size:10>it.tidalwave.role.spi" as it.tidalwave.role.spi.OwnerRoleFactoryProvider [[OwnerRoleFactoryProvider.html]] {
        {abstract} +createRoleFactory(Object): OwnerRoleFactory
    }

    it.tidalwave.role.spi.OwnerRoleFactoryProvider +-- it.tidalwave.role.spi.OwnerRoleFactoryProvider.Inner

    center footer UMLDoclet 2.0.12, PlantUML 1.2020.16
@enduml
