@startuml
    set namespaceSeparator none
    hide empty fields
    hide empty methods

    interface "<size:14>BreadCrumbViewController\n<size:10>it.tidalwave.northernwind.frontend.ui.component.breadcrumb" as it.tidalwave.northernwind.frontend.ui.component.breadcrumb.BreadCrumbViewController [[BreadCrumbViewController.html]]

    interface "<size:14>ViewController\n<size:10>it.tidalwave.northernwind.frontend.ui" as it.tidalwave.northernwind.frontend.ui.ViewController [[../../ViewController.html]]

    it.tidalwave.northernwind.frontend.ui.ViewController <|-- it.tidalwave.northernwind.frontend.ui.component.breadcrumb.BreadCrumbViewController

    center footer UMLDoclet 2.0.12, PlantUML 1.2020.16
@enduml
