<?xml version="1.0" encoding="UTF-8" standalone="no"?><svg xmlns="http://www.w3.org/2000/svg" xmlns:xlink="http://www.w3.org/1999/xlink" contentScriptType="application/ecmascript" contentStyleType="text/css" height="332px" preserveAspectRatio="none" style="width:1072px;height:332px;" version="1.1" viewBox="0 0 1072 332" width="1072px" zoomAndPan="magnify"><defs><filter height="300%" id="ft7xio03xxayi" width="300%" x="-1" y="-1"><feGaussianBlur result="blurOut" stdDeviation="2.0"/><feColorMatrix in="blurOut" result="blurOut2" type="matrix" values="0 0 0 0 0 0 0 0 0 0 0 0 0 0 0 0 0 0 .4 0"/><feOffset dx="4.0" dy="4.0" in="blurOut2" result="blurOut3"/><feBlend in="SourceGraphic" in2="blurOut3" mode="normal"/></filter></defs><g><!--MD5=[0a9c56bb243fd106a89f6d54cf92d5a0]
cluster it.tidalwave.role.io.spi--><polygon fill="#FFFFFF" filter="url(#ft7xio03xxayi)" points="16,167,176,167,183,189.0986,1033,189.0986,1033,304,16,304,16,167" style="stroke: #000000; stroke-width: 1.5;"/><line style="stroke: #000000; stroke-width: 1.5;" x1="16" x2="183" y1="189.0986" y2="189.0986"/><text fill="#000000" font-family="sans-serif" font-size="14" font-weight="bold" lengthAdjust="spacingAndGlyphs" textLength="154" x="20" y="182.1318">it.tidalwave.role.io.spi</text><!--MD5=[f624c859ad0e1eb814b90c4c4550318d]
cluster it.tidalwave.role.io--><polygon fill="#FFFFFF" filter="url(#ft7xio03xxayi)" points="37,6,172,6,179,28.0986,1050,28.0986,1050,143,37,143,37,6" style="stroke: #000000; stroke-width: 1.5;"/><line style="stroke: #000000; stroke-width: 1.5;" x1="37" x2="179" y1="28.0986" y2="28.0986"/><text fill="#000000" font-family="sans-serif" font-size="14" font-weight="bold" lengthAdjust="spacingAndGlyphs" textLength="129" x="41" y="21.1318">it.tidalwave.role.io</text><!--MD5=[a8117865731c8fd1d2f59289dec388a0]
class it.tidalwave.role.io.spi.PathBinaryReadable--><a href="PathBinaryReadable.html" target="_top" title="PathBinaryReadable.html" xlink:actuate="onRequest" xlink:href="PathBinaryReadable.html" xlink:show="new" xlink:title="PathBinaryReadable.html" xlink:type="simple"><rect codeLine="3" fill="#FEFECE" filter="url(#ft7xio03xxayi)" height="73.2979" id="it.tidalwave.role.io.spi.PathBinaryReadable" style="stroke: #A80036; stroke-width: 1.5;" width="224" x="793" y="208.5"/><ellipse cx="844.25" cy="224.5" fill="#ADD1B2" rx="11" ry="11" style="stroke: #A80036; stroke-width: 1.0;"/><path d="M842.1563,224.3438 Q842.1563,226.2188 842.7344,227.2344 Q843.3125,228.2344 844.4688,228.2344 Q845.8125,228.2344 846.4688,226.2188 L848.7344,226.6406 Q847.625,230.1719 844.4531,230.1719 Q842.1094,230.1719 840.8906,228.6875 Q839.6719,227.2031 839.6719,224.3438 Q839.6719,218.625 844.375,218.625 Q845.9219,218.625 846.9531,219.4375 Q848,220.25 848.5,221.8594 L846.2344,222.4063 Q846,221.5313 845.5156,221.0469 Q845.0313,220.5469 844.4063,220.5469 Q842.1563,220.5469 842.1563,224.3438 Z "/><text fill="#000000" font-family="sans-serif" font-size="12" lengthAdjust="spacingAndGlyphs" textLength="113" x="864.75" y="228.8564">PathBinaryReadable</text><line style="stroke: #A80036; stroke-width: 1.5;" x1="794" x2="1016" y1="240.5" y2="240.5"/><line style="stroke: #A80036; stroke-width: 1.5;" x1="794" x2="1016" y1="248.5" y2="248.5"/><ellipse cx="804" cy="259.5" fill="#84BE84" rx="3" ry="3" style="stroke: #038048; stroke-width: 1.0;"/><text fill="#000000" font-family="sans-serif" font-size="11" lengthAdjust="spacingAndGlyphs" textLength="198" x="813" y="262.8179">PathBinaryReadable(Path, OpenOption...)</text><ellipse cx="804" cy="272.1489" fill="#84BE84" rx="3" ry="3" style="stroke: #038048; stroke-width: 1.0;"/><text fill="#000000" font-family="sans-serif" font-size="11" lengthAdjust="spacingAndGlyphs" textLength="129" x="813" y="275.4668">openStream(): InputStream</text></a><!--MD5=[e4111fc71140aecc9c3bcf95285f773b]
class it.tidalwave.role.io.spi.PathBinaryWritable--><a href="PathBinaryWritable.html" target="_top" title="PathBinaryWritable.html" xlink:actuate="onRequest" xlink:href="PathBinaryWritable.html" xlink:show="new" xlink:title="PathBinaryWritable.html" xlink:type="simple"><rect codeLine="8" fill="#FEFECE" filter="url(#ft7xio03xxayi)" height="73.2979" id="it.tidalwave.role.io.spi.PathBinaryWritable" style="stroke: #A80036; stroke-width: 1.5;" width="218" x="540" y="208.5"/><ellipse cx="592.75" cy="224.5" fill="#ADD1B2" rx="11" ry="11" style="stroke: #A80036; stroke-width: 1.0;"/><path d="M590.6563,224.3438 Q590.6563,226.2188 591.2344,227.2344 Q591.8125,228.2344 592.9688,228.2344 Q594.3125,228.2344 594.9688,226.2188 L597.2344,226.6406 Q596.125,230.1719 592.9531,230.1719 Q590.6094,230.1719 589.3906,228.6875 Q588.1719,227.2031 588.1719,224.3438 Q588.1719,218.625 592.875,218.625 Q594.4219,218.625 595.4531,219.4375 Q596.5,220.25 597,221.8594 L594.7344,222.4063 Q594.5,221.5313 594.0156,221.0469 Q593.5313,220.5469 592.9063,220.5469 Q590.6563,220.5469 590.6563,224.3438 Z "/><text fill="#000000" font-family="sans-serif" font-size="12" lengthAdjust="spacingAndGlyphs" textLength="104" x="613.25" y="228.8564">PathBinaryWritable</text><line style="stroke: #A80036; stroke-width: 1.5;" x1="541" x2="757" y1="240.5" y2="240.5"/><line style="stroke: #A80036; stroke-width: 1.5;" x1="541" x2="757" y1="248.5" y2="248.5"/><ellipse cx="551" cy="259.5" fill="#84BE84" rx="3" ry="3" style="stroke: #038048; stroke-width: 1.0;"/><text fill="#000000" font-family="sans-serif" font-size="11" lengthAdjust="spacingAndGlyphs" textLength="192" x="560" y="262.8179">PathBinaryWritable(Path, OpenOption...)</text><ellipse cx="551" cy="272.1489" fill="#84BE84" rx="3" ry="3" style="stroke: #038048; stroke-width: 1.0;"/><text fill="#000000" font-family="sans-serif" font-size="11" lengthAdjust="spacingAndGlyphs" textLength="138" x="560" y="275.4668">openStream(): OutputStream</text></a><!--MD5=[7f9ab407da7ae9e1ffbab84f7a9ebaa6]
class it.tidalwave.role.io.spi.PathTextReadable--><a href="PathTextReadable.html" target="_top" title="PathTextReadable.html" xlink:actuate="onRequest" xlink:href="PathTextReadable.html" xlink:show="new" xlink:title="PathTextReadable.html" xlink:type="simple"><rect codeLine="13" fill="#FEFECE" filter="url(#ft7xio03xxayi)" height="85.9468" id="it.tidalwave.role.io.spi.PathTextReadable" style="stroke: #A80036; stroke-width: 1.5;" width="186" x="319" y="202"/><ellipse cx="357.85" cy="218" fill="#ADD1B2" rx="11" ry="11" style="stroke: #A80036; stroke-width: 1.0;"/><path d="M355.7563,217.8438 Q355.7563,219.7188 356.3344,220.7344 Q356.9125,221.7344 358.0688,221.7344 Q359.4125,221.7344 360.0688,219.7188 L362.3344,220.1406 Q361.225,223.6719 358.0531,223.6719 Q355.7094,223.6719 354.4906,222.1875 Q353.2719,220.7031 353.2719,217.8438 Q353.2719,212.125 357.975,212.125 Q359.5219,212.125 360.5531,212.9375 Q361.6,213.75 362.1,215.3594 L359.8344,215.9063 Q359.6,215.0313 359.1156,214.5469 Q358.6313,214.0469 358.0063,214.0469 Q355.7563,214.0469 355.7563,217.8438 Z "/><text fill="#000000" font-family="sans-serif" font-size="12" lengthAdjust="spacingAndGlyphs" textLength="101" x="377.15" y="222.3564">PathTextReadable</text><line style="stroke: #A80036; stroke-width: 1.5;" x1="320" x2="504" y1="234" y2="234"/><line style="stroke: #A80036; stroke-width: 1.5;" x1="320" x2="504" y1="242" y2="242"/><ellipse cx="330" cy="253" fill="#84BE84" rx="3" ry="3" style="stroke: #038048; stroke-width: 1.0;"/><text fill="#000000" font-family="sans-serif" font-size="11" lengthAdjust="spacingAndGlyphs" textLength="116" x="339" y="256.3179">PathTextReadable(Path)</text><ellipse cx="330" cy="265.6489" fill="#84BE84" rx="3" ry="3" style="stroke: #038048; stroke-width: 1.0;"/><text fill="#000000" font-family="sans-serif" font-size="11" lengthAdjust="spacingAndGlyphs" textLength="160" x="339" y="268.9668">PathTextReadable(Path, Charset)</text><ellipse cx="330" cy="278.2979" fill="#84BE84" rx="3" ry="3" style="stroke: #038048; stroke-width: 1.0;"/><text fill="#000000" font-family="sans-serif" font-size="11" lengthAdjust="spacingAndGlyphs" textLength="108" x="339" y="281.6157">openReader(): Reader</text></a><!--MD5=[d89805a4c83c052fe314d3dfd64620d2]
class it.tidalwave.role.io.spi.PathTextWritable--><a href="PathTextWritable.html" target="_top" title="PathTextWritable.html" xlink:actuate="onRequest" xlink:href="PathTextWritable.html" xlink:show="new" xlink:title="PathTextWritable.html" xlink:type="simple"><rect codeLine="19" fill="#FEFECE" filter="url(#ft7xio03xxayi)" height="85.9468" id="it.tidalwave.role.io.spi.PathTextWritable" style="stroke: #A80036; stroke-width: 1.5;" width="252" x="32" y="202"/><ellipse cx="107.75" cy="218" fill="#ADD1B2" rx="11" ry="11" style="stroke: #A80036; stroke-width: 1.0;"/><path d="M105.6563,217.8438 Q105.6563,219.7188 106.2344,220.7344 Q106.8125,221.7344 107.9688,221.7344 Q109.3125,221.7344 109.9688,219.7188 L112.2344,220.1406 Q111.125,223.6719 107.9531,223.6719 Q105.6094,223.6719 104.3906,222.1875 Q103.1719,220.7031 103.1719,217.8438 Q103.1719,212.125 107.875,212.125 Q109.4219,212.125 110.4531,212.9375 Q111.5,213.75 112,215.3594 L109.7344,215.9063 Q109.5,215.0313 109.0156,214.5469 Q108.5313,214.0469 107.9063,214.0469 Q105.6563,214.0469 105.6563,217.8438 Z "/><text fill="#000000" font-family="sans-serif" font-size="12" lengthAdjust="spacingAndGlyphs" textLength="92" x="128.25" y="222.3564">PathTextWritable</text><line style="stroke: #A80036; stroke-width: 1.5;" x1="33" x2="283" y1="234" y2="234"/><line style="stroke: #A80036; stroke-width: 1.5;" x1="33" x2="283" y1="242" y2="242"/><ellipse cx="43" cy="253" fill="#84BE84" rx="3" ry="3" style="stroke: #038048; stroke-width: 1.0;"/><text fill="#000000" font-family="sans-serif" font-size="11" lengthAdjust="spacingAndGlyphs" textLength="110" x="52" y="256.3179">PathTextWritable(Path)</text><ellipse cx="43" cy="265.6489" fill="#84BE84" rx="3" ry="3" style="stroke: #038048; stroke-width: 1.0;"/><text fill="#000000" font-family="sans-serif" font-size="11" lengthAdjust="spacingAndGlyphs" textLength="226" x="52" y="268.9668">PathTextWritable(Path, Charset, OpenOption...)</text><ellipse cx="43" cy="278.2979" fill="#84BE84" rx="3" ry="3" style="stroke: #038048; stroke-width: 1.0;"/><text fill="#000000" font-family="sans-serif" font-size="11" lengthAdjust="spacingAndGlyphs" textLength="96" x="52" y="281.6157">openWriter(): Writer</text></a><!--MD5=[01447793620d16fc257dd6b841f56ccc]
class it.tidalwave.role.io.BinaryReadable--><a href="../BinaryReadable.html" target="_top" title="../BinaryReadable.html" xlink:actuate="onRequest" xlink:href="../BinaryReadable.html" xlink:show="new" xlink:title="../BinaryReadable.html" xlink:type="simple"><rect codeLine="32" fill="#FEFECE" filter="url(#ft7xio03xxayi)" height="85.9468" id="it.tidalwave.role.io.BinaryReadable" style="stroke: #A80036; stroke-width: 1.5;" width="235" x="798.5" y="41"/><ellipse cx="866.75" cy="57" fill="#B4A7E5" rx="11" ry="11" style="stroke: #A80036; stroke-width: 1.0;"/><path d="M863.0469,51.2969 L870.6563,51.2969 L870.6563,53.1875 L868.0781,53.1875 L868.0781,60.6094 L870.6563,60.6094 L870.6563,62.5 L863.0469,62.5 L863.0469,60.6094 L865.6406,60.6094 L865.6406,53.1875 L863.0469,53.1875 L863.0469,51.2969 Z "/><text fill="#000000" font-family="sans-serif" font-size="12" font-style="italic" lengthAdjust="spacingAndGlyphs" textLength="90" x="887.25" y="61.3564">BinaryReadable</text><line style="stroke: #A80036; stroke-width: 1.5;" x1="799.5" x2="1032.5" y1="73" y2="73"/><ellipse cx="809.5" cy="84" fill="none" rx="3" ry="3" style="stroke: #038048; stroke-width: 1.0;"/><text fill="#000000" font-family="sans-serif" font-size="11" lengthAdjust="spacingAndGlyphs" text-decoration="underline" textLength="209" x="818.5" y="87.3179">_BinaryReadable_: Class&lt;BinaryReadable&gt;</text><ellipse cx="809.5" cy="96.6489" fill="none" rx="3" ry="3" style="stroke: #038048; stroke-width: 1.0;"/><text fill="#000000" font-family="sans-serif" font-size="11" lengthAdjust="spacingAndGlyphs" text-decoration="underline" textLength="128" x="818.5" y="99.9668">DEFAULT: BinaryReadable</text><line style="stroke: #A80036; stroke-width: 1.5;" x1="799.5" x2="1032.5" y1="106.2979" y2="106.2979"/><ellipse cx="809.5" cy="117.2979" fill="#84BE84" rx="3" ry="3" style="stroke: #038048; stroke-width: 1.0;"/><text fill="#000000" font-family="sans-serif" font-size="11" font-style="italic" lengthAdjust="spacingAndGlyphs" textLength="132" x="818.5" y="120.6157">openStream(): InputStream</text></a><!--MD5=[020cd9ae4c403ec9331e5e76009ca2a8]
class it.tidalwave.role.io.BinaryWritable--><a href="../BinaryWritable.html" target="_top" title="../BinaryWritable.html" xlink:actuate="onRequest" xlink:href="../BinaryWritable.html" xlink:show="new" xlink:title="../BinaryWritable.html" xlink:type="simple"><rect codeLine="37" fill="#FEFECE" filter="url(#ft7xio03xxayi)" height="85.9468" id="it.tidalwave.role.io.BinaryWritable" style="stroke: #A80036; stroke-width: 1.5;" width="223" x="540.5" y="41"/><ellipse cx="607.25" cy="57" fill="#B4A7E5" rx="11" ry="11" style="stroke: #A80036; stroke-width: 1.0;"/><path d="M603.5469,51.2969 L611.1563,51.2969 L611.1563,53.1875 L608.5781,53.1875 L608.5781,60.6094 L611.1563,60.6094 L611.1563,62.5 L603.5469,62.5 L603.5469,60.6094 L606.1406,60.6094 L606.1406,53.1875 L603.5469,53.1875 L603.5469,51.2969 Z "/><text fill="#000000" font-family="sans-serif" font-size="12" font-style="italic" lengthAdjust="spacingAndGlyphs" textLength="81" x="627.75" y="61.3564">BinaryWritable</text><line style="stroke: #A80036; stroke-width: 1.5;" x1="541.5" x2="762.5" y1="73" y2="73"/><ellipse cx="551.5" cy="84" fill="none" rx="3" ry="3" style="stroke: #038048; stroke-width: 1.0;"/><text fill="#000000" font-family="sans-serif" font-size="11" lengthAdjust="spacingAndGlyphs" text-decoration="underline" textLength="197" x="560.5" y="87.3179">_BinaryWritable_: Class&lt;BinaryWritable&gt;</text><ellipse cx="551.5" cy="96.6489" fill="none" rx="3" ry="3" style="stroke: #038048; stroke-width: 1.0;"/><text fill="#000000" font-family="sans-serif" font-size="11" lengthAdjust="spacingAndGlyphs" text-decoration="underline" textLength="122" x="560.5" y="99.9668">DEFAULT: BinaryWritable</text><line style="stroke: #A80036; stroke-width: 1.5;" x1="541.5" x2="762.5" y1="106.2979" y2="106.2979"/><ellipse cx="551.5" cy="117.2979" fill="#84BE84" rx="3" ry="3" style="stroke: #038048; stroke-width: 1.0;"/><text fill="#000000" font-family="sans-serif" font-size="11" font-style="italic" lengthAdjust="spacingAndGlyphs" textLength="141" x="560.5" y="120.6157">openStream(): OutputStream</text></a><!--MD5=[0e5e728ae99ecbb96a97ddc8125ef291]
class it.tidalwave.role.io.TextReadable--><a href="../TextReadable.html" target="_top" title="../TextReadable.html" xlink:actuate="onRequest" xlink:href="../TextReadable.html" xlink:show="new" xlink:title="../TextReadable.html" xlink:type="simple"><rect codeLine="42" fill="#FEFECE" filter="url(#ft7xio03xxayi)" height="85.9468" id="it.tidalwave.role.io.TextReadable" style="stroke: #A80036; stroke-width: 1.5;" width="215" x="290.5" y="41"/><ellipse cx="354.75" cy="57" fill="#B4A7E5" rx="11" ry="11" style="stroke: #A80036; stroke-width: 1.0;"/><path d="M351.0469,51.2969 L358.6563,51.2969 L358.6563,53.1875 L356.0781,53.1875 L356.0781,60.6094 L358.6563,60.6094 L358.6563,62.5 L351.0469,62.5 L351.0469,60.6094 L353.6406,60.6094 L353.6406,53.1875 L351.0469,53.1875 L351.0469,51.2969 Z "/><text fill="#000000" font-family="sans-serif" font-size="12" font-style="italic" lengthAdjust="spacingAndGlyphs" textLength="78" x="375.25" y="61.3564">TextReadable</text><line style="stroke: #A80036; stroke-width: 1.5;" x1="291.5" x2="504.5" y1="73" y2="73"/><ellipse cx="301.5" cy="84" fill="none" rx="3" ry="3" style="stroke: #038048; stroke-width: 1.0;"/><text fill="#000000" font-family="sans-serif" font-size="11" lengthAdjust="spacingAndGlyphs" text-decoration="underline" textLength="189" x="310.5" y="87.3179">_TextReadable_: Class&lt;TextReadable&gt;</text><ellipse cx="301.5" cy="96.6489" fill="none" rx="3" ry="3" style="stroke: #038048; stroke-width: 1.0;"/><text fill="#000000" font-family="sans-serif" font-size="11" lengthAdjust="spacingAndGlyphs" text-decoration="underline" textLength="118" x="310.5" y="99.9668">DEFAULT: TextReadable</text><line style="stroke: #A80036; stroke-width: 1.5;" x1="291.5" x2="504.5" y1="106.2979" y2="106.2979"/><ellipse cx="301.5" cy="117.2979" fill="#84BE84" rx="3" ry="3" style="stroke: #038048; stroke-width: 1.0;"/><text fill="#000000" font-family="sans-serif" font-size="11" font-style="italic" lengthAdjust="spacingAndGlyphs" textLength="110" x="310.5" y="120.6157">openReader(): Reader</text></a><!--MD5=[655d2c25539f643bdbdf98b39fed2e00]
class it.tidalwave.role.io.TextWritable--><a href="../TextWritable.html" target="_top" title="../TextWritable.html" xlink:actuate="onRequest" xlink:href="../TextWritable.html" xlink:show="new" xlink:title="../TextWritable.html" xlink:type="simple"><rect codeLine="47" fill="#FEFECE" filter="url(#ft7xio03xxayi)" height="85.9468" id="it.tidalwave.role.io.TextWritable" style="stroke: #A80036; stroke-width: 1.5;" width="203" x="52.5" y="41"/><ellipse cx="115.25" cy="57" fill="#B4A7E5" rx="11" ry="11" style="stroke: #A80036; stroke-width: 1.0;"/><path d="M111.5469,51.2969 L119.1563,51.2969 L119.1563,53.1875 L116.5781,53.1875 L116.5781,60.6094 L119.1563,60.6094 L119.1563,62.5 L111.5469,62.5 L111.5469,60.6094 L114.1406,60.6094 L114.1406,53.1875 L111.5469,53.1875 L111.5469,51.2969 Z "/><text fill="#000000" font-family="sans-serif" font-size="12" font-style="italic" lengthAdjust="spacingAndGlyphs" textLength="69" x="135.75" y="61.3564">TextWritable</text><line style="stroke: #A80036; stroke-width: 1.5;" x1="53.5" x2="254.5" y1="73" y2="73"/><ellipse cx="63.5" cy="84" fill="none" rx="3" ry="3" style="stroke: #038048; stroke-width: 1.0;"/><text fill="#000000" font-family="sans-serif" font-size="11" lengthAdjust="spacingAndGlyphs" text-decoration="underline" textLength="177" x="72.5" y="87.3179">_TextWritable_: Class&lt;TextWritable&gt;</text><ellipse cx="63.5" cy="96.6489" fill="none" rx="3" ry="3" style="stroke: #038048; stroke-width: 1.0;"/><text fill="#000000" font-family="sans-serif" font-size="11" lengthAdjust="spacingAndGlyphs" text-decoration="underline" textLength="112" x="72.5" y="99.9668">DEFAULT: TextWritable</text><line style="stroke: #A80036; stroke-width: 1.5;" x1="53.5" x2="254.5" y1="106.2979" y2="106.2979"/><ellipse cx="63.5" cy="117.2979" fill="#84BE84" rx="3" ry="3" style="stroke: #038048; stroke-width: 1.0;"/><text fill="#000000" font-family="sans-serif" font-size="11" font-style="italic" lengthAdjust="spacingAndGlyphs" textLength="100" x="72.5" y="120.6157">openWriter(): Writer</text></a><!--MD5=[5e27cb56b7f5453edad00bd96b51fe14]
reverse link it.tidalwave.role.io.BinaryReadable to it.tidalwave.role.io.spi.PathBinaryReadable--><path codeLine="25" d="M911.7,147.17 C910.26,167.92 908.71,190.32 907.47,208.35 " fill="none" id="it.tidalwave.role.io.BinaryReadable-backto-it.tidalwave.role.io.spi.PathBinaryReadable" style="stroke: #A80036; stroke-width: 1.0; stroke-dasharray: 7.0,7.0;"/><polygon fill="none" points="904.72,146.66,913.08,127.19,918.68,147.63,904.72,146.66" style="stroke: #A80036; stroke-width: 1.0;"/><!--MD5=[d396f12d2f80eabab93184221bb011d6]
reverse link it.tidalwave.role.io.BinaryWritable to it.tidalwave.role.io.spi.PathBinaryWritable--><path codeLine="26" d="M650.82,147.49 C650.43,168.15 650.01,190.42 649.67,208.35 " fill="none" id="it.tidalwave.role.io.BinaryWritable-backto-it.tidalwave.role.io.spi.PathBinaryWritable" style="stroke: #A80036; stroke-width: 1.0; stroke-dasharray: 7.0,7.0;"/><polygon fill="none" points="643.83,147.06,651.2,127.19,657.83,147.32,643.83,147.06" style="stroke: #A80036; stroke-width: 1.0;"/><!--MD5=[e1ae905890a91eeae3fb62a67bddab0c]
reverse link it.tidalwave.role.io.TextReadable to it.tidalwave.role.io.spi.PathTextReadable--><path codeLine="27" d="M403.47,147.13 C405.09,165.48 406.82,185.12 408.29,201.89 " fill="none" id="it.tidalwave.role.io.TextReadable-backto-it.tidalwave.role.io.spi.PathTextReadable" style="stroke: #A80036; stroke-width: 1.0; stroke-dasharray: 7.0,7.0;"/><polygon fill="none" points="396.5,147.73,401.71,127.19,410.44,146.5,396.5,147.73" style="stroke: #A80036; stroke-width: 1.0;"/><!--MD5=[c94a8ea55b3acc11deaeb74db4bd4f5e]
reverse link it.tidalwave.role.io.TextWritable to it.tidalwave.role.io.spi.PathTextWritable--><path codeLine="28" d="M155.57,147.43 C156.03,165.69 156.52,185.21 156.94,201.89 " fill="none" id="it.tidalwave.role.io.TextWritable-backto-it.tidalwave.role.io.spi.PathTextWritable" style="stroke: #A80036; stroke-width: 1.0; stroke-dasharray: 7.0,7.0;"/><polygon fill="none" points="148.57,147.36,155.06,127.19,162.56,147.01,148.57,147.36" style="stroke: #A80036; stroke-width: 1.0;"/><text fill="#888888" font-family="sans-serif" font-size="10" lengthAdjust="spacingAndGlyphs" textLength="190" x="432" y="319.3799">UMLDoclet 2.0.12, PlantUML 1.2020.16</text><!--MD5=[b45220e0095e7722d3e6eb6299e31a74]
@startuml
    namespace it.tidalwave.role.io.spi {

        class PathBinaryReadable [[PathBinaryReadable.html]] {
            +PathBinaryReadable(Path, OpenOption...)
            +openStream(): InputStream
        }

        class PathBinaryWritable [[PathBinaryWritable.html]] {
            +PathBinaryWritable(Path, OpenOption...)
            +openStream(): OutputStream
        }

        class PathTextReadable [[PathTextReadable.html]] {
            +PathTextReadable(Path)
            +PathTextReadable(Path, Charset)
            +openReader(): Reader
        }

        class PathTextWritable [[PathTextWritable.html]] {
            +PathTextWritable(Path)
            +PathTextWritable(Path, Charset, OpenOption...)
            +openWriter(): Writer
        }

        it.tidalwave.role.io.BinaryReadable <|.. PathBinaryReadable
        it.tidalwave.role.io.BinaryWritable <|.. PathBinaryWritable
        it.tidalwave.role.io.TextReadable <|.. PathTextReadable
        it.tidalwave.role.io.TextWritable <|.. PathTextWritable
    }

    namespace it.tidalwave.role.io {
        interface BinaryReadable [[../BinaryReadable.html]] {
            {static} +_BinaryReadable_: Class<BinaryReadable>
            {static} +DEFAULT: BinaryReadable
            {abstract} +openStream(): InputStream
        }
        interface BinaryWritable [[../BinaryWritable.html]] {
            {static} +_BinaryWritable_: Class<BinaryWritable>
            {static} +DEFAULT: BinaryWritable
            {abstract} +openStream(): OutputStream
        }
        interface TextReadable [[../TextReadable.html]] {
            {static} +_TextReadable_: Class<TextReadable>
            {static} +DEFAULT: TextReadable
            {abstract} +openReader(): Reader
        }
        interface TextWritable [[../TextWritable.html]] {
            {static} +_TextWritable_: Class<TextWritable>
            {static} +DEFAULT: TextWritable
            {abstract} +openWriter(): Writer
        }
    }

    center footer UMLDoclet 2.0.12, PlantUML 1.2020.16
@enduml

PlantUML version 1.2020.16(Sun Aug 23 22:20:43 CEST 2020)
(APACHE source distribution)
Java Runtime: OpenJDK Runtime Environment
JVM: OpenJDK 64-Bit Server VM
Default Encoding: UTF-8
Language: en
Country: US
--></g></svg>