@startuml
    set namespaceSeparator none
    hide empty fields
    hide empty methods

    class "<size:14>JavaFXAddContentPresentation\n<size:10>it.tidalwave.northernwind.rca.ui.impl.javafx.contentmanager" as it.tidalwave.northernwind.rca.ui.impl.javafx.contentmanager.JavaFXAddContentPresentation [[JavaFXAddContentPresentation.html]] {
    }

    interface "<size:14>AddContentPresentation\n<size:10>it.tidalwave.northernwind.rca.ui.contentmanager" as it.tidalwave.northernwind.rca.ui.contentmanager.AddContentPresentation [[http://tidalwave.tidalwave.it/northernwind-rca/northernwind-rca-modules/it-tidalwave-northernwind-rca-ui-content-manager/apidocs/it/tidalwave/northernwind/rca/ui/contentmanager/AddContentPresentation.html?is-external=true]] {
        {abstract} +bind(Bindings): void
        {abstract} +showUp(UserNotificationWithFeedback): void
    }

    it.tidalwave.northernwind.rca.ui.contentmanager.AddContentPresentation <|.. it.tidalwave.northernwind.rca.ui.impl.javafx.contentmanager.JavaFXAddContentPresentation

    center footer UMLDoclet 2.0.12, PlantUML 1.2020.16
@enduml
