<?xml version="1.0" encoding="UTF-8" standalone="no"?><svg xmlns="http://www.w3.org/2000/svg" xmlns:xlink="http://www.w3.org/1999/xlink" contentScriptType="application/ecmascript" contentStyleType="text/css" height="151px" preserveAspectRatio="none" style="width:1478px;height:151px;" version="1.1" viewBox="0 0 1478 151" width="1478px" zoomAndPan="magnify"><defs><filter height="300%" id="fooej01v3mekz" width="300%" x="-1" y="-1"><feGaussianBlur result="blurOut" stdDeviation="2.0"/><feColorMatrix in="blurOut" result="blurOut2" type="matrix" values="0 0 0 0 0 0 0 0 0 0 0 0 0 0 0 0 0 0 .4 0"/><feOffset dx="4.0" dy="4.0" in="blurOut2" result="blurOut3"/><feBlend in="SourceGraphic" in2="blurOut3" mode="normal"/></filter></defs><g><!--MD5=[55d2d815d384bd46e9dfda5dfbb1bb0e]
class it.tidalwave.northernwind.frontend.springmvc--><a href="it/tidalwave/northernwind/frontend/springmvc/package-summary.html" target="_top" title="it/tidalwave/northernwind/frontend/springmvc/package-summary.html" xlink:actuate="onRequest" xlink:href="it/tidalwave/northernwind/frontend/springmvc/package-summary.html" xlink:show="new" xlink:title="it/tidalwave/northernwind/frontend/springmvc/package-summary.html" xlink:type="simple"><rect codeLine="15" fill="#FEFECE" filter="url(#fooej01v3mekz)" height="24.1328" id="it.tidalwave.northernwind.frontend.springmvc" style="stroke: #A80036; stroke-width: 1.5;" width="267" x="501" y="7"/><text fill="#000000" font-family="sans-serif" font-size="12" lengthAdjust="spacingAndGlyphs" textLength="261" x="504" y="23.6016">it.tidalwave.northernwind.frontend.springmvc</text></a><!--MD5=[eab912922769a7b3b3929a8233c890a5]
class it.tidalwave.northernwind.core.model.spi--><rect fill="#FEFECE" filter="url(#fooej01v3mekz)" height="24.1328" id="it.tidalwave.northernwind.core.model.spi" style="stroke: #A80036; stroke-width: 1.5;" width="241" x="7" y="91"/><text fill="#000000" font-family="sans-serif" font-size="12" lengthAdjust="spacingAndGlyphs" textLength="235" x="10" y="107.6016">it.tidalwave.northernwind.core.model.spi</text><!--MD5=[b38b3a8d6b00b78b55a3da79514951c5]
class org.slf4j--><rect fill="#FEFECE" filter="url(#fooej01v3mekz)" height="24.1328" id="org.slf4j" style="stroke: #A80036; stroke-width: 1.5;" width="54" x="283.5" y="91"/><text fill="#000000" font-family="sans-serif" font-size="12" lengthAdjust="spacingAndGlyphs" textLength="48" x="286.5" y="107.6016">org.slf4j</text><!--MD5=[7bc9775042c922e8298652e3d1b3fa38]
class org.aspectj.lang--><rect fill="#FEFECE" filter="url(#fooej01v3mekz)" height="24.1328" id="org.aspectj.lang" style="stroke: #A80036; stroke-width: 1.5;" width="99" x="373" y="91"/><text fill="#000000" font-family="sans-serif" font-size="12" lengthAdjust="spacingAndGlyphs" textLength="93" x="376" y="107.6016">org.aspectj.lang</text><!--MD5=[0e3a0bafe407c837ff49ffc26ac6c55d]
class org.springframework.beans.factory.aspectj--><rect fill="#FEFECE" filter="url(#fooej01v3mekz)" height="24.1328" id="org.springframework.beans.factory.aspectj" style="stroke: #A80036; stroke-width: 1.5;" width="255" x="507" y="91"/><text fill="#000000" font-family="sans-serif" font-size="12" lengthAdjust="spacingAndGlyphs" textLength="249" x="510" y="107.6016">org.springframework.beans.factory.aspectj</text><!--MD5=[bc5f19b0d2427a2b497e0877cefcb2cc]
class it.tidalwave.northernwind.frontend.ui--><rect fill="#FEFECE" filter="url(#fooej01v3mekz)" height="24.1328" id="it.tidalwave.northernwind.frontend.ui" style="stroke: #A80036; stroke-width: 1.5;" width="218" x="797.5" y="91"/><text fill="#000000" font-family="sans-serif" font-size="12" lengthAdjust="spacingAndGlyphs" textLength="212" x="800.5" y="107.6016">it.tidalwave.northernwind.frontend.ui</text><!--MD5=[0b3d1e905dead88dbdf65fd1cda455e2]
class it.tidalwave.northernwind.core.model--><rect fill="#FEFECE" filter="url(#fooej01v3mekz)" height="24.1328" id="it.tidalwave.northernwind.core.model" style="stroke: #A80036; stroke-width: 1.5;" width="220" x="1050.5" y="91"/><text fill="#000000" font-family="sans-serif" font-size="12" lengthAdjust="spacingAndGlyphs" textLength="214" x="1053.5" y="107.6016">it.tidalwave.northernwind.core.model</text><!--MD5=[19d458091a01a8a07d059d0c46bc383e]
class org.springframework.http--><rect fill="#FEFECE" filter="url(#fooej01v3mekz)" height="24.1328" id="org.springframework.http" style="stroke: #A80036; stroke-width: 1.5;" width="154" x="1305.5" y="91"/><text fill="#000000" font-family="sans-serif" font-size="12" lengthAdjust="spacingAndGlyphs" textLength="148" x="1308.5" y="107.6016">org.springframework.http</text><!--MD5=[a75124d0d880f295e292f622d038e9b1]
link it.tidalwave.northernwind.frontend.springmvc to it.tidalwave.northernwind.core.model.spi--><path codeLine="6" d="M561.8593,31.0352 C467.1728,46.7228 302.2433,74.0485 205.1517,90.1346 " fill="none" id="it.tidalwave.northernwind.frontend.springmvc-to-it.tidalwave.northernwind.core.model.spi" style="stroke: #A80036; stroke-width: 1.0;"/><polygon fill="#A80036" points="200.006,90.9872,209.5388,93.4623,204.9388,90.1699,208.2311,85.5699,200.006,90.9872" style="stroke: #A80036; stroke-width: 1.0;"/><!--MD5=[d64865bd79c84bdb37accf75d571a574]
link it.tidalwave.northernwind.frontend.springmvc to org.slf4j--><path codeLine="7" d="M587.0786,31.114 C531.542,45.3297 436.7898,69.6727 355.5,91 C351.3403,92.0913 346.9666,93.2472 342.6474,94.3936 " fill="none" id="it.tidalwave.northernwind.frontend.springmvc-to-org.slf4j" style="stroke: #A80036; stroke-width: 1.0;"/><polygon fill="#A80036" points="337.6182,95.7307,347.3439,97.2837,342.4503,94.4459,345.2881,89.5523,337.6182,95.7307" style="stroke: #A80036; stroke-width: 1.0;"/><!--MD5=[c1bd4c4e2fd151178491fdd40b01d64b]
link it.tidalwave.northernwind.frontend.springmvc to org.aspectj.lang--><path codeLine="8" d="M604.1256,31.0352 C565.3987,46.3798 498.5705,72.8589 457.6734,89.0634 " fill="none" id="it.tidalwave.northernwind.frontend.springmvc-to-org.aspectj.lang" style="stroke: #A80036; stroke-width: 1.0;"/><polygon fill="#A80036" points="452.8181,90.9872,462.6587,91.3903,457.4664,89.1452,459.7116,83.953,452.8181,90.9872" style="stroke: #A80036; stroke-width: 1.0;"/><!--MD5=[7e690ea556a660f98fdc4e3ae7250dcf]
link it.tidalwave.northernwind.frontend.springmvc to org.springframework.beans.factory.aspectj--><path codeLine="9" d="M634.5,31.0352 C634.5,45.3818 634.5,69.4615 634.5,85.777 " fill="none" id="it.tidalwave.northernwind.frontend.springmvc-to-org.springframework.beans.factory.aspectj" style="stroke: #A80036; stroke-width: 1.0;"/><polygon fill="#A80036" points="634.5,90.9872,638.5,81.9872,634.5,85.9872,630.5,81.9872,634.5,90.9872" style="stroke: #A80036; stroke-width: 1.0;"/><!--MD5=[b5356562ca3b946adf7bca0ecc3ee7d2]
link it.tidalwave.northernwind.frontend.springmvc to it.tidalwave.northernwind.frontend.ui--><path codeLine="10" d="M673.471,31.0352 C723.5623,46.5045 810.2967,73.2902 862.6451,89.4566 " fill="none" id="it.tidalwave.northernwind.frontend.springmvc-to-it.tidalwave.northernwind.frontend.ui" style="stroke: #A80036; stroke-width: 1.0;"/><polygon fill="#A80036" points="867.6013,90.9872,860.1824,84.5095,862.824,89.5118,857.8217,92.1533,867.6013,90.9872" style="stroke: #A80036; stroke-width: 1.0;"/><!--MD5=[d673a76ec531802d1ae8870c7da03f28]
link it.tidalwave.northernwind.frontend.springmvc to it.tidalwave.northernwind.core.model--><path codeLine="11" d="M709.863,31.0352 C808.1955,46.7384 979.5484,74.1028 1080.2384,90.1826 " fill="none" id="it.tidalwave.northernwind.frontend.springmvc-to-it.tidalwave.northernwind.core.model" style="stroke: #A80036; stroke-width: 1.0;"/><polygon fill="#A80036" points="1085.2768,90.9872,1077.0203,85.6178,1080.3394,90.1986,1075.7586,93.5177,1085.2768,90.9872" style="stroke: #A80036; stroke-width: 1.0;"/><!--MD5=[bc2a27362acbfb30f6a8a5237c87675e]
link it.tidalwave.northernwind.frontend.springmvc to org.springframework.http--><path codeLine="12" d="M749.1648,31.016 C879.7987,44.8466 1099.6405,68.5509 1288.5,91 C1292.3481,91.4574 1296.2839,91.9322 1300.2586,92.4174 " fill="none" id="it.tidalwave.northernwind.frontend.springmvc-to-org.springframework.http" style="stroke: #A80036; stroke-width: 1.0;"/><polygon fill="#A80036" points="1305.3104,93.037,1296.8643,87.9711,1300.3476,92.4283,1295.8904,95.9116,1305.3104,93.037" style="stroke: #A80036; stroke-width: 1.0;"/><text fill="#888888" font-family="sans-serif" font-size="10" lengthAdjust="spacingAndGlyphs" textLength="188" x="636.25" y="137.8008">UMLDoclet 2.0.12, PlantUML 1.2020.16</text><!--MD5=[259a2c0e05acc92c7b9d91fd30c663c1]
@startuml
    set namespaceSeparator none
    hide circle
    hide empty fields
    hide empty methods

    it.tidalwave.northernwind.frontend.springmvc - -> it.tidalwave.northernwind.core.model.spi
    it.tidalwave.northernwind.frontend.springmvc - -> org.slf4j
    it.tidalwave.northernwind.frontend.springmvc - -> org.aspectj.lang
    it.tidalwave.northernwind.frontend.springmvc - -> org.springframework.beans.factory.aspectj
    it.tidalwave.northernwind.frontend.springmvc - -> it.tidalwave.northernwind.frontend.ui
    it.tidalwave.northernwind.frontend.springmvc - -> it.tidalwave.northernwind.core.model
    it.tidalwave.northernwind.frontend.springmvc - -> org.springframework.http

    ' Package links
    class "it.tidalwave.northernwind.frontend.springmvc" [[it/tidalwave/northernwind/frontend/springmvc/package-summary.html]] {
    }

    center footer UMLDoclet 2.0.12, PlantUML 1.2020.16
@enduml

@startuml
    set namespaceSeparator none
    hide circle
    hide empty fields
    hide empty methods

    it.tidalwave.northernwind.frontend.springmvc - -> it.tidalwave.northernwind.core.model.spi
    it.tidalwave.northernwind.frontend.springmvc - -> org.slf4j
    it.tidalwave.northernwind.frontend.springmvc - -> org.aspectj.lang
    it.tidalwave.northernwind.frontend.springmvc - -> org.springframework.beans.factory.aspectj
    it.tidalwave.northernwind.frontend.springmvc - -> it.tidalwave.northernwind.frontend.ui
    it.tidalwave.northernwind.frontend.springmvc - -> it.tidalwave.northernwind.core.model
    it.tidalwave.northernwind.frontend.springmvc - -> org.springframework.http

    class "it.tidalwave.northernwind.frontend.springmvc" [[it/tidalwave/northernwind/frontend/springmvc/package-summary.html]] {
    }

    center footer UMLDoclet 2.0.12, PlantUML 1.2020.16
@enduml

PlantUML version 1.2020.16(Sun Aug 23 22:20:43 CEST 2020)
(APACHE source distribution)
Java Runtime: OpenJDK Runtime Environment
JVM: OpenJDK 64-Bit Server VM
Default Encoding: UTF-8
Language: en
Country: GB
--></g></svg>