@startuml
    ' Copyright to this UML and generated images belongs to the author of the corresponding Java sources.

    ' This UML was generated by UMLDoclet (C) Copyright 2016-2024 Talsma ICT.
    ' UMLDoclet 2.2.1 is licensed under the Apache License, version 2.0
    ' and contains parts of PlantUML 1.2024.7 (ASL) Copyright 2009-2024, Arnaud Roques.

    !pragma layout smetana
    set separator ::

    package it.tidalwave.role.ui.spi {

        class SimpleCompositePresentableTest [[SimpleCompositePresentableTest.html]] {
            +setup(): void
            +must_create_a_PresentationModel_containing_the_proper_children(): void
        }

        class SimpleCompositePresentableTest.MockDatum [[SimpleCompositePresentableTest.MockDatum.html]] {
            +MockDatum(String)
            +withChildren(MockDatum...): MockDatum
            +withChildren(List<MockDatum>): MockDatum
            +maybeAs(Class<? extends T>): Optional<T>
            +asMany(Class<? extends T>): Collection<T>
        }

        class DefaultUserActionProviderTest [[DefaultUserActionProviderTest.html]] {
            +setup(): void
            +must_return_no_actions(): void
            +must_return_no_default_action(): void
        }

    }

    package it.tidalwave.util {
        interface As [[https://tidalwave.bitbucket.io/thesefoolishthings/modules/it-tidalwave-util/apidocs/it/tidalwave/util/As.html?is-external=true]] {
            {static} +forObject(Object): As
            {static} +forObject(Object, Object): As
            {static} +forObject(Object, Collection<Object>): As
            +as(Class<? extends T>): T
            {abstract} +maybeAs(Class<? extends T>): Optional<T>
            {abstract} +asMany(Class<? extends T>): Collection<T>
            {static} +type(Class<?>): Type<T>
            +as(Type<? extends T>): T
            +maybeAs(Type<? extends T>): Optional<T>
            +asMany(Type<? extends T>): Collection<T>
        }
    }

    package it.tidalwave.role {
        interface Identifiable [[../../../../../../apidocs/it/tidalwave/role/Identifiable.html]] {
            {static} +_Identifiable_: Class<Identifiable>
            {abstract} +getId(): Id
            {static} +of(Id): Identifiable
        }
    }

    it.tidalwave.util::As <|.. it.tidalwave.role.ui.spi::SimpleCompositePresentableTest.MockDatum
    it.tidalwave.role::Identifiable <|.. it.tidalwave.role.ui.spi::SimpleCompositePresentableTest.MockDatum
    it.tidalwave.role.ui.spi::SimpleCompositePresentableTest +-- it.tidalwave.role.ui.spi::SimpleCompositePresentableTest.MockDatum

    <style>
        footer {
            HyperLinkColor #8
            HyperLinkUnderlineThickness 0
        }
    </style>
    footer \n[[https://github.com/talsma-ict/umldoclet UMLDoclet 2.2.1]]
    ' Generated 2024-12-19T00:14:56.473317+01:00[Europe/Rome]
@enduml
