@startuml
    set namespaceSeparator none
    hide empty fields
    hide empty methods

    interface "<size:14>StructureEditorPresentationControl\n<size:10>it.tidalwave.northernwind.rca.ui.structureeditor" as it.tidalwave.northernwind.rca.ui.structureeditor.StructureEditorPresentationControl [[StructureEditorPresentationControl.html]]

    center footer UMLDoclet 2.0.12, PlantUML 1.2020.16
@enduml
