<?xml version="1.0" encoding="UTF-8" standalone="no"?><svg xmlns="http://www.w3.org/2000/svg" xmlns:xlink="http://www.w3.org/1999/xlink" contentScriptType="application/ecmascript" contentStyleType="text/css" height="386px" preserveAspectRatio="none" style="width:985px;height:386px;" version="1.1" viewBox="0 0 985 386" width="985px" zoomAndPan="magnify"><defs/><g><text fill="#000000" font-family="sans-serif" font-size="12" lengthAdjust="spacingAndGlyphs" textLength="126" x="5" y="16.6016">An error has occured!</text><text fill="#000000" font-family="sans-serif" font-size="12" font-style="italic" lengthAdjust="spacingAndGlyphs" textLength="241" x="5" y="30.7344">Our job is not to remember... remember?</text><text fill="#000000" font-family="sans-serif" font-size="12" lengthAdjust="spacingAndGlyphs" textLength="0" x="9" y="44.8672"/><text fill="#000000" font-family="sans-serif" font-size="12" lengthAdjust="spacingAndGlyphs" textLength="244" x="5" y="59">Diagram size: 25 lines / 1153 characters.</text><text fill="#000000" font-family="sans-serif" font-size="12" lengthAdjust="spacingAndGlyphs" textLength="0" x="9" y="73.1328"/><text fill="#000000" font-family="sans-serif" font-size="12" lengthAdjust="spacingAndGlyphs" textLength="261" x="5" y="87.2656">For some reason, dot/GraphViz has crashed.</text><text fill="#000000" font-family="sans-serif" font-size="12" lengthAdjust="spacingAndGlyphs" textLength="307" x="5" y="101.3984">This has been generated with PlantUML (1.2020.16).</text><text fill="#000000" font-family="sans-serif" font-size="12" lengthAdjust="spacingAndGlyphs" textLength="321" x="5" y="115.5313">This version of PlantUML is 884 days old, so you should</text><text fill="#000000" font-family="sans-serif" font-size="12" lengthAdjust="spacingAndGlyphs" textLength="332" x="13" y="129.6641">consider upgrading from https://plantuml.com/download</text><text fill="#000000" font-family="sans-serif" font-size="12" lengthAdjust="spacingAndGlyphs" textLength="0" x="9" y="143.7969"/><text fill="#000000" font-family="sans-serif" font-size="12" lengthAdjust="spacingAndGlyphs" textLength="261" x="5" y="157.9297">Java Runtime: OpenJDK Runtime Environment</text><text fill="#000000" font-family="sans-serif" font-size="12" lengthAdjust="spacingAndGlyphs" textLength="185" x="5" y="172.0625">JVM: OpenJDK 64-Bit Server VM</text><text fill="#000000" font-family="sans-serif" font-size="12" lengthAdjust="spacingAndGlyphs" textLength="142" x="5" y="186.1953">Default Encoding: UTF-8</text><text fill="#000000" font-family="sans-serif" font-size="12" lengthAdjust="spacingAndGlyphs" textLength="77" x="5" y="200.3281">Language: en</text><text fill="#000000" font-family="sans-serif" font-size="12" lengthAdjust="spacingAndGlyphs" textLength="68" x="5" y="214.4609">Country: GB</text><text fill="#000000" font-family="sans-serif" font-size="12" lengthAdjust="spacingAndGlyphs" textLength="0" x="9" y="228.5938"/><text fill="#000000" font-family="sans-serif" font-size="12" lengthAdjust="spacingAndGlyphs" textLength="167" x="5" y="242.7266">PLANTUML_LIMIT_SIZE: 4096</text><text fill="#000000" font-family="sans-serif" font-size="12" lengthAdjust="spacingAndGlyphs" textLength="0" x="9" y="256.8594"/><text fill="#000000" font-family="sans-serif" font-size="12" lengthAdjust="spacingAndGlyphs" textLength="904" x="5" y="270.9922">Default dot version: docker: Cannot connect to the Docker daemon at unix:///var/run/docker.sock. Is the docker daemon running?. See 'docker run --help'.</text><text fill="#000000" font-family="sans-serif" font-size="12" lengthAdjust="spacingAndGlyphs" textLength="0" x="9" y="285.125"/><text fill="#000000" font-family="sans-serif" font-size="12" lengthAdjust="spacingAndGlyphs" textLength="467" x="5" y="299.2578">Please go to https://plantuml.com/graphviz-dot to check your GraphViz version.</text><text fill="#000000" font-family="sans-serif" font-size="12" lengthAdjust="spacingAndGlyphs" textLength="0" x="9" y="313.3906"/><text fill="#000000" font-family="sans-serif" font-size="12" lengthAdjust="spacingAndGlyphs" textLength="275" x="5" y="327.5234">You should send this diagram and this image to</text><text fill="#000000" font-family="sans-serif" font-size="12" font-weight="bold" lengthAdjust="spacingAndGlyphs" textLength="130" x="284" y="327.5234">plantuml@gmail.com</text><text fill="#000000" font-family="sans-serif" font-size="12" lengthAdjust="spacingAndGlyphs" textLength="12" x="418" y="327.5234">or</text><text fill="#000000" font-family="sans-serif" font-size="12" lengthAdjust="spacingAndGlyphs" textLength="40" x="5" y="341.6563">post to</text><text fill="#000000" font-family="sans-serif" font-size="12" font-weight="bold" lengthAdjust="spacingAndGlyphs" textLength="157" x="49" y="341.6563">https://plantuml.com/qa</text><text fill="#000000" font-family="sans-serif" font-size="12" lengthAdjust="spacingAndGlyphs" textLength="105" x="210" y="341.6563">to solve this issue.</text><text fill="#000000" font-family="sans-serif" font-size="12" lengthAdjust="spacingAndGlyphs" textLength="375" x="5" y="355.7891">You can try to turn arround this issue by simplifing your diagram.</text><image height="32" width="37" x="938" xlink:href="data:image/png;base64,iVBORw0KGgoAAAANSUhEUgAAACUAAAAgCAYAAACVU7GwAAAB3UlEQVR4Xt2WsU4CQRCGj4rEhIoXoKcg4SWuJPFJqHgJOnrjM0B4ChssbDQUNgYLKyQRTpORXzMH/Lezu2dyh/onf3LF7sy3s3NzlyR/XbOZSJq+S7st0mgcnCQbWa02wusr1XD4cQLRbJ4RCpVRgFbr+/nYtUNpdXBVAGKo2isFICQG0K+AGo+3pYAqh1ossvzKLCALar1+qwaq2z0AWVCAuEjupdO5kcHg9st4vrreCV6MWGM95y8IC0NVAgwgXFXh6oWMNuEYBaFKCmIBzecPZiBO6jMOxvsLwsmx2AJCz0wmd95AnNhyr/fsjZML96tQrqZGz/AeFid3GYfjfaZ0UDKQVsl3bSoGYJd+Q/GRZSgNhl7i9S4xBBvjhvd4hSZXKA4WC4V1lqNef5ZCqX9Sqf0i3JHbl2lUjBPp9bkMqJheKICQt6NRMMaJ+H+JHRoHEEO4vJtOg3Fy6TS3HHOFDGA5Wy6DsXIxCDs0hTm5z7zXlK+v1L5pzIl9ft0H4/1OPT75+wrWYYqPKTc/EpXxS78fBxZTLZcBikMhRiYiseb8TmEhJ4xxpX+ekP59lnHlUFBoRLBrgYLKVKw2KFVM89cOBSEh4JCcgc4GdSz0G76VgMQwVfPc+nf6BM7TeK7eGJBTAAAAAElFTkSuQmCC" y="6"/><text fill="#888888" font-family="sans-serif" font-size="10" lengthAdjust="spacingAndGlyphs" textLength="188" x="396.5" y="372.9883">UMLDoclet 2.0.12, PlantUML 1.2020.16</text><!--MD5=[03eb4978a64098581b24cb7eafdc9a4a]
@startuml
    set namespaceSeparator none
    hide empty fields
    hide empty methods

    interface "<size:14>Invoice\n<size:10>it.tidalwave.accounting.model" as it.tidalwave.accounting.model.Invoice [[Invoice.html]] {
        {abstract} +findJobEvents(): Finder<JobEvent>
        {abstract} +toBuilder(): Builder
    }

    interface "<size:14>Identifiable\n<size:10>it.tidalwave.role" as it.tidalwave.role.Identifiable {
        {abstract} +getId(): Id
    }
    interface "<size:14>As\n<size:10>it.tidalwave.util" as it.tidalwave.util.As {
        {abstract} +maybeAs(Class<? extends T>): Optional<T>
        {abstract} +asMany(Class<? extends T>): Collection<T>
    }
    class "<size:14>Invoice.Builder\n<size:10>it.tidalwave.accounting.model" as it.tidalwave.accounting.model.Invoice.Builder [[Invoice.Builder.html]]

    it.tidalwave.role.Identifiable <|- - it.tidalwave.accounting.model.Invoice
    it.tidalwave.util.As <|- - it.tidalwave.accounting.model.Invoice
    it.tidalwave.accounting.model.Invoice +- - it.tidalwave.accounting.model.Invoice.Builder

    center footer UMLDoclet 2.0.12, PlantUML 1.2020.16
@enduml

PlantUML version 1.2020.16(Sun Aug 23 22:20:43 CEST 2020)
(APACHE source distribution)
Java Runtime: OpenJDK Runtime Environment
JVM: OpenJDK 64-Bit Server VM
Default Encoding: UTF-8
Language: en
Country: GB
--></g></svg>