<?xml version="1.0" encoding="UTF-8" standalone="no"?><svg xmlns="http://www.w3.org/2000/svg" xmlns:xlink="http://www.w3.org/1999/xlink" contentScriptType="application/ecmascript" contentStyleType="text/css" height="265px" preserveAspectRatio="none" style="width:403px;height:265px;" version="1.1" viewBox="0 0 403 265" width="403px" zoomAndPan="magnify"><defs><filter height="300%" id="f12fyjtbkd27ll" width="300%" x="-1" y="-1"><feGaussianBlur result="blurOut" stdDeviation="2.0"/><feColorMatrix in="blurOut" result="blurOut2" type="matrix" values="0 0 0 0 0 0 0 0 0 0 0 0 0 0 0 0 0 0 .4 0"/><feOffset dx="4.0" dy="4.0" in="blurOut2" result="blurOut3"/><feBlend in="SourceGraphic" in2="blurOut3" mode="normal"/></filter></defs><g><!--MD5=[859fd73016417971a6aeff98195b10ff]
cluster it.tidalwave.northernwind.frontend.ui.springmvc--><polygon fill="#FFFFFF" filter="url(#f12fyjtbkd27ll)" points="22,140,371,140,378,162.4883,381,162.4883,381,236,22,236,22,140" style="stroke: #000000; stroke-width: 1.5;"/><line style="stroke: #000000; stroke-width: 1.5;" x1="22" x2="378" y1="162.4883" y2="162.4883"/><text fill="#000000" font-family="sans-serif" font-size="14" font-weight="bold" lengthAdjust="spacingAndGlyphs" textLength="343" x="26" y="155.5352">it.tidalwave.northernwind.frontend.ui.springmvc</text><!--MD5=[90c2144f63705a3044483f7c3d43505d]
cluster it.tidalwave.northernwind.frontend.ui--><polygon fill="#FFFFFF" filter="url(#f12fyjtbkd27ll)" points="16,6,287,6,294,28.4883,297,28.4883,297,115,16,115,16,6" style="stroke: #000000; stroke-width: 1.5;"/><line style="stroke: #000000; stroke-width: 1.5;" x1="16" x2="294" y1="28.4883" y2="28.4883"/><text fill="#000000" font-family="sans-serif" font-size="14" font-weight="bold" lengthAdjust="spacingAndGlyphs" textLength="265" x="20" y="21.5352">it.tidalwave.northernwind.frontend.ui</text><!--MD5=[1998d5b10c2ac4b03fe01912a72a6c71]
class it.tidalwave.northernwind.frontend.ui.springmvc.SpringMvcSiteView--><a href="SpringMvcSiteView.html" target="_top" title="SpringMvcSiteView.html" xlink:actuate="onRequest" xlink:href="SpringMvcSiteView.html" xlink:show="new" xlink:title="SpringMvcSiteView.html" xlink:type="simple"><rect codeLine="3" fill="#FEFECE" filter="url(#f12fyjtbkd27ll)" height="60.9551" id="it.tidalwave.northernwind.frontend.ui.springmvc.SpringMvcSiteView" style="stroke: #A80036; stroke-width: 1.5;" width="242" x="35" y="167"/><ellipse cx="99.25" cy="183" fill="#ADD1B2" rx="11" ry="11" style="stroke: #A80036; stroke-width: 1.0;"/><path d="M101.7231,189.1431 Q101.1421,189.4419 100.5029,189.5913 Q99.8638,189.7407 99.1582,189.7407 Q96.6514,189.7407 95.3315,188.0889 Q94.0117,186.437 94.0117,183.3159 Q94.0117,180.1865 95.3315,178.5347 Q96.6514,176.8828 99.1582,176.8828 Q99.8638,176.8828 100.5112,177.0322 Q101.1587,177.1816 101.7231,177.4805 L101.7231,180.2031 Q101.0923,179.6221 100.4988,179.3523 Q99.9053,179.0825 99.2744,179.0825 Q97.9297,179.0825 97.2449,180.1492 Q96.5601,181.2158 96.5601,183.3159 Q96.5601,185.4077 97.2449,186.4744 Q97.9297,187.541 99.2744,187.541 Q99.9053,187.541 100.4988,187.2712 Q101.0923,187.0015 101.7231,186.4204 Z "/><text fill="#000000" font-family="sans-serif" font-size="12" lengthAdjust="spacingAndGlyphs" textLength="105" x="119.75" y="187.5352">SpringMvcSiteView</text><line style="stroke: #A80036; stroke-width: 1.5;" x1="36" x2="276" y1="199" y2="199"/><line style="stroke: #A80036; stroke-width: 1.5;" x1="36" x2="276" y1="207" y2="207"/><ellipse cx="46" cy="218" fill="#84BE84" rx="3" ry="3" style="stroke: #038048; stroke-width: 1.0;"/><text fill="#000000" font-family="sans-serif" font-size="11" lengthAdjust="spacingAndGlyphs" textLength="216" x="55" y="221.6348">renderSiteNode(Request, SiteNode): void</text></a><!--MD5=[f7be8ab85e619733495ff46b31b124a8]
class it.tidalwave.northernwind.frontend.ui.SiteView--><rect codeLine="11" fill="#FEFECE" filter="url(#f12fyjtbkd27ll)" height="73.9102" id="it.tidalwave.northernwind.frontend.ui.SiteView" style="stroke: #A80036; stroke-width: 1.5;" width="242" x="35" y="33"/><ellipse cx="128.25" cy="49" fill="#B4A7E5" rx="11" ry="11" style="stroke: #A80036; stroke-width: 1.0;"/><path d="M124.6777,45.2651 L124.6777,43.1069 L132.0571,43.1069 L132.0571,45.2651 L129.5918,45.2651 L129.5918,53.3418 L132.0571,53.3418 L132.0571,55.5 L124.6777,55.5 L124.6777,53.3418 L127.1431,53.3418 L127.1431,45.2651 Z "/><text fill="#000000" font-family="sans-serif" font-size="12" font-style="italic" lengthAdjust="spacingAndGlyphs" textLength="47" x="148.75" y="53.5352">SiteView</text><line style="stroke: #A80036; stroke-width: 1.5;" x1="36" x2="276" y1="65" y2="65"/><ellipse cx="46" cy="76" fill="none" rx="3" ry="3" style="stroke: #038048; stroke-width: 1.0;"/><text fill="#000000" font-family="sans-serif" font-size="11" lengthAdjust="spacingAndGlyphs" text-decoration="underline" textLength="55" x="55" y="79.6348">NW: String</text><line style="stroke: #A80036; stroke-width: 1.5;" x1="36" x2="276" y1="85.9551" y2="85.9551"/><ellipse cx="46" cy="96.9551" fill="#84BE84" rx="3" ry="3" style="stroke: #038048; stroke-width: 1.0;"/><text fill="#000000" font-family="sans-serif" font-size="11" font-style="italic" lengthAdjust="spacingAndGlyphs" textLength="216" x="55" y="100.5898">renderSiteNode(Request, SiteNode): void</text><!--MD5=[e62eb617be49ac6c67093f53e37ff84e]
reverse link it.tidalwave.northernwind.frontend.ui.SiteView to it.tidalwave.northernwind.frontend.ui.springmvc.SpringMvcSiteView--><path codeLine="7" d="M156,127.2952 C156,140.9403 156,154.9839 156,166.8909 " fill="none" id="it.tidalwave.northernwind.frontend.ui.SiteView-backto-it.tidalwave.northernwind.frontend.ui.springmvc.SpringMvcSiteView" style="stroke: #A80036; stroke-width: 1.0; stroke-dasharray: 7.0,7.0;"/><polygon fill="none" points="149.0001,127.2211,156,107.221,163.0001,127.221,149.0001,127.2211" style="stroke: #A80036; stroke-width: 1.0;"/><text fill="#888888" font-family="sans-serif" font-size="10" lengthAdjust="spacingAndGlyphs" textLength="188" x="98.5" y="251.668">UMLDoclet 2.0.12, PlantUML 1.2020.16</text><!--MD5=[6399752743e87813ade1f627190dc7cc]
@startuml
    namespace it.tidalwave.northernwind.frontend.ui.springmvc {

        class SpringMvcSiteView [[SpringMvcSiteView.html]] {
            +renderSiteNode(Request, SiteNode): void
        }

        it.tidalwave.northernwind.frontend.ui.SiteView <|.. SpringMvcSiteView
    }

    namespace it.tidalwave.northernwind.frontend.ui {
        interface SiteView {
            {static} +NW: String
            {abstract} +renderSiteNode(Request, SiteNode): void
        }
    }

    center footer UMLDoclet 2.0.12, PlantUML 1.2020.16
@enduml

PlantUML version 1.2020.16(Sun Aug 23 22:20:43 CEST 2020)
(APACHE source distribution)
Java Runtime: OpenJDK Runtime Environment
JVM: OpenJDK 64-Bit Server VM
Default Encoding: UTF-8
Language: en
Country: GB
--></g></svg>