<?xml version="1.0" encoding="UTF-8" standalone="no"?><svg xmlns="http://www.w3.org/2000/svg" xmlns:xlink="http://www.w3.org/1999/xlink" contentScriptType="application/ecmascript" contentStyleType="text/css" height="369px" preserveAspectRatio="none" style="width:1410px;height:369px;" version="1.1" viewBox="0 0 1410 369" width="1410px" zoomAndPan="magnify"><defs><filter height="300%" id="f6aejjj67ujcs" width="300%" x="-1" y="-1"><feGaussianBlur result="blurOut" stdDeviation="2.0"/><feColorMatrix in="blurOut" result="blurOut2" type="matrix" values="0 0 0 0 0 0 0 0 0 0 0 0 0 0 0 0 0 0 .4 0"/><feOffset dx="4.0" dy="4.0" in="blurOut2" result="blurOut3"/><feBlend in="SourceGraphic" in2="blurOut3" mode="normal"/></filter></defs><g><!--MD5=[38b3814731105f305820aec4b802ac6f]
cluster it.tidalwave.northernwind.frontend.media.impl--><polygon fill="#FFFFFF" filter="url(#f6aejjj67ujcs)" points="16,6,353,6,360,28.4883,1388,28.4883,1388,340,16,340,16,6" style="stroke: #000000; stroke-width: 1.5;"/><line style="stroke: #000000; stroke-width: 1.5;" x1="16" x2="360" y1="28.4883" y2="28.4883"/><text fill="#000000" font-family="sans-serif" font-size="14" font-weight="bold" lengthAdjust="spacingAndGlyphs" textLength="331" x="20" y="21.5352">it.tidalwave.northernwind.frontend.media.impl</text><!--MD5=[8d044e6ce9cff6bfd77a89deee629ca0]
class it.tidalwave.northernwind.frontend.media.impl.ScanningMetadataInterpolatorFactoryTest--><a href="ScanningMetadataInterpolatorFactoryTest.html" target="_top" title="ScanningMetadataInterpolatorFactoryTest.html" xlink:actuate="onRequest" xlink:href="ScanningMetadataInterpolatorFactoryTest.html" xlink:show="new" xlink:title="ScanningMetadataInterpolatorFactoryTest.html" xlink:type="simple"><rect codeLine="3" fill="#FEFECE" filter="url(#f6aejjj67ujcs)" height="73.9102" id="it.tidalwave.northernwind.frontend.media.impl.ScanningMetadataInterpolatorFactoryTest" style="stroke: #A80036; stroke-width: 1.5;" width="269" x="24.5" y="52.5"/><ellipse cx="39.5" cy="68.5" fill="#ADD1B2" rx="11" ry="11" style="stroke: #A80036; stroke-width: 1.0;"/><path d="M41.9731,74.6431 Q41.3921,74.9419 40.7529,75.0913 Q40.1138,75.2407 39.4082,75.2407 Q36.9014,75.2407 35.5815,73.5889 Q34.2617,71.937 34.2617,68.8159 Q34.2617,65.6865 35.5815,64.0347 Q36.9014,62.3828 39.4082,62.3828 Q40.1138,62.3828 40.7612,62.5322 Q41.4087,62.6816 41.9731,62.9805 L41.9731,65.7031 Q41.3423,65.1221 40.7488,64.8523 Q40.1553,64.5825 39.5244,64.5825 Q38.1797,64.5825 37.4949,65.6492 Q36.8101,66.7158 36.8101,68.8159 Q36.8101,70.9077 37.4949,71.9744 Q38.1797,73.041 39.5244,73.041 Q40.1553,73.041 40.7488,72.7712 Q41.3423,72.5015 41.9731,71.9204 Z "/><text fill="#000000" font-family="sans-serif" font-size="12" lengthAdjust="spacingAndGlyphs" textLength="237" x="53.5" y="73.0352">ScanningMetadataInterpolatorFactoryTest</text><line style="stroke: #A80036; stroke-width: 1.5;" x1="25.5" x2="292.5" y1="84.5" y2="84.5"/><line style="stroke: #A80036; stroke-width: 1.5;" x1="25.5" x2="292.5" y1="92.5" y2="92.5"/><ellipse cx="35.5" cy="103.5" fill="#84BE84" rx="3" ry="3" style="stroke: #038048; stroke-width: 1.0;"/><text fill="#000000" font-family="sans-serif" font-size="11" lengthAdjust="spacingAndGlyphs" textLength="67" x="44.5" y="107.1348">setup(): void</text><ellipse cx="35.5" cy="116.4551" fill="#84BE84" rx="3" ry="3" style="stroke: #038048; stroke-width: 1.0;"/><text fill="#000000" font-family="sans-serif" font-size="11" lengthAdjust="spacingAndGlyphs" textLength="208" x="44.5" y="120.0898">must_find_all_the_interpolators(): void</text></a><!--MD5=[1d9f23d7d2fb656cfe52f802cb30feae]
class it.tidalwave.northernwind.frontend.media.impl.EmbeddedMediaMetadataProviderTest--><a href="EmbeddedMediaMetadataProviderTest.html" target="_top" title="EmbeddedMediaMetadataProviderTest.html" xlink:actuate="onRequest" xlink:href="EmbeddedMediaMetadataProviderTest.html" xlink:show="new" xlink:title="EmbeddedMediaMetadataProviderTest.html" xlink:type="simple"><rect codeLine="8" fill="#FEFECE" filter="url(#f6aejjj67ujcs)" height="99.8203" id="it.tidalwave.northernwind.frontend.media.impl.EmbeddedMediaMetadataProviderTest" style="stroke: #A80036; stroke-width: 1.5;" width="404" x="329" y="39.5"/><ellipse cx="413.75" cy="55.5" fill="#ADD1B2" rx="11" ry="11" style="stroke: #A80036; stroke-width: 1.0;"/><path d="M416.2231,61.6431 Q415.6421,61.9419 415.0029,62.0913 Q414.3638,62.2407 413.6582,62.2407 Q411.1514,62.2407 409.8315,60.5889 Q408.5117,58.937 408.5117,55.8159 Q408.5117,52.6865 409.8315,51.0347 Q411.1514,49.3828 413.6582,49.3828 Q414.3638,49.3828 415.0112,49.5322 Q415.6587,49.6816 416.2231,49.9805 L416.2231,52.7031 Q415.5923,52.1221 414.9988,51.8523 Q414.4053,51.5825 413.7744,51.5825 Q412.4297,51.5825 411.7449,52.6492 Q411.0601,53.7158 411.0601,55.8159 Q411.0601,57.9077 411.7449,58.9744 Q412.4297,60.041 413.7744,60.041 Q414.4053,60.041 414.9988,59.7712 Q415.5923,59.5015 416.2231,58.9204 Z "/><text fill="#000000" font-family="sans-serif" font-size="12" lengthAdjust="spacingAndGlyphs" textLength="226" x="434.25" y="60.0352">EmbeddedMediaMetadataProviderTest</text><line style="stroke: #A80036; stroke-width: 1.5;" x1="330" x2="732" y1="71.5" y2="71.5"/><line style="stroke: #A80036; stroke-width: 1.5;" x1="330" x2="732" y1="79.5" y2="79.5"/><ellipse cx="340" cy="90.5" fill="#84BE84" rx="3" ry="3" style="stroke: #038048; stroke-width: 1.0;"/><text fill="#000000" font-family="sans-serif" font-size="11" lengthAdjust="spacingAndGlyphs" textLength="67" x="349" y="94.1348">setup(): void</text><ellipse cx="340" cy="103.4551" fill="#84BE84" rx="3" ry="3" style="stroke: #038048; stroke-width: 1.0;"/><text fill="#000000" font-family="sans-serif" font-size="11" lengthAdjust="spacingAndGlyphs" textLength="378" x="349" y="107.0898">must_return_the_interpolated_string_when_metadata_is_found(): void</text><ellipse cx="340" cy="116.4102" fill="#84BE84" rx="3" ry="3" style="stroke: #038048; stroke-width: 1.0;"/><text fill="#000000" font-family="sans-serif" font-size="11" lengthAdjust="spacingAndGlyphs" textLength="315" x="349" y="120.0449">must_return_empty_string_when_media_not_found(): void</text><ellipse cx="340" cy="129.3652" fill="#84BE84" rx="3" ry="3" style="stroke: #038048; stroke-width: 1.0;"/><text fill="#000000" font-family="sans-serif" font-size="11" lengthAdjust="spacingAndGlyphs" textLength="265" x="349" y="133">must_return_empty_string_when_io_error(): void</text></a><!--MD5=[bad8892982a730835e354de2cc865493]
class it.tidalwave.northernwind.frontend.media.impl.DefaultMetadataCacheTest--><a href="DefaultMetadataCacheTest.html" target="_top" title="DefaultMetadataCacheTest.html" xlink:actuate="onRequest" xlink:href="DefaultMetadataCacheTest.html" xlink:show="new" xlink:title="DefaultMetadataCacheTest.html" xlink:type="simple"><rect codeLine="15" fill="#FEFECE" filter="url(#f6aejjj67ujcs)" height="112.7754" id="it.tidalwave.northernwind.frontend.media.impl.DefaultMetadataCacheTest" style="stroke: #A80036; stroke-width: 1.5;" width="611" x="768.5" y="33"/><ellipse cx="992.25" cy="49" fill="#ADD1B2" rx="11" ry="11" style="stroke: #A80036; stroke-width: 1.0;"/><path d="M994.7231,55.1431 Q994.1421,55.4419 993.5029,55.5913 Q992.8638,55.7407 992.1582,55.7407 Q989.6514,55.7407 988.3315,54.0889 Q987.0117,52.437 987.0117,49.3159 Q987.0117,46.1865 988.3315,44.5347 Q989.6514,42.8828 992.1582,42.8828 Q992.8638,42.8828 993.5112,43.0322 Q994.1587,43.1816 994.7231,43.4805 L994.7231,46.2031 Q994.0923,45.6221 993.4988,45.3523 Q992.9053,45.0825 992.2744,45.0825 Q990.9297,45.0825 990.2449,46.1492 Q989.5601,47.2158 989.5601,49.3159 Q989.5601,51.4077 990.2449,52.4744 Q990.9297,53.541 992.2744,53.541 Q992.9053,53.541 993.4988,53.2712 Q994.0923,53.0015 994.7231,52.4204 Z "/><text fill="#000000" font-family="sans-serif" font-size="12" lengthAdjust="spacingAndGlyphs" textLength="155" x="1012.75" y="53.5352">DefaultMetadataCacheTest</text><line style="stroke: #A80036; stroke-width: 1.5;" x1="769.5" x2="1378.5" y1="65" y2="65"/><line style="stroke: #A80036; stroke-width: 1.5;" x1="769.5" x2="1378.5" y1="73" y2="73"/><ellipse cx="779.5" cy="84" fill="#84BE84" rx="3" ry="3" style="stroke: #038048; stroke-width: 1.0;"/><text fill="#000000" font-family="sans-serif" font-size="11" lengthAdjust="spacingAndGlyphs" textLength="67" x="788.5" y="87.6348">setup(): void</text><ellipse cx="779.5" cy="96.9551" fill="#84BE84" rx="3" ry="3" style="stroke: #038048; stroke-width: 1.0;"/><text fill="#000000" font-family="sans-serif" font-size="11" lengthAdjust="spacingAndGlyphs" textLength="313" x="788.5" y="100.5898">must_correctly_load_metadata_when_not_in_cache(): void</text><ellipse cx="779.5" cy="109.9102" fill="#84BE84" rx="3" ry="3" style="stroke: #038048; stroke-width: 1.0;"/><text fill="#000000" font-family="sans-serif" font-size="11" lengthAdjust="spacingAndGlyphs" textLength="554" x="788.5" y="113.5449">must_cache_the_same_instance_within_expiration_time_without_checking_for_file_modification(): void</text><ellipse cx="779.5" cy="122.8652" fill="#84BE84" rx="3" ry="3" style="stroke: #038048; stroke-width: 1.0;"/><text fill="#000000" font-family="sans-serif" font-size="11" lengthAdjust="spacingAndGlyphs" textLength="585" x="788.5" y="126.5">must_check_file_modification_after_expiration_time_and_still_keep_in_cache_when_no_modifications(): void</text><ellipse cx="779.5" cy="135.8203" fill="#84BE84" rx="3" ry="3" style="stroke: #038048; stroke-width: 1.0;"/><text fill="#000000" font-family="sans-serif" font-size="11" lengthAdjust="spacingAndGlyphs" textLength="445" x="788.5" y="139.4551">must_reload_metadata_after_expiration_time_when_file_has_been_changed(): void</text></a><!--MD5=[187dbfda96b5aec44c85a07a0a74855d]
class it.tidalwave.northernwind.frontend.media.impl.DefaultMetadataProviderTest--><a href="DefaultMetadataProviderTest.html" target="_top" title="DefaultMetadataProviderTest.html" xlink:actuate="onRequest" xlink:href="DefaultMetadataProviderTest.html" xlink:show="new" xlink:title="DefaultMetadataProviderTest.html" xlink:type="simple"><rect codeLine="23" fill="#FEFECE" filter="url(#f6aejjj67ujcs)" height="60.9551" id="it.tidalwave.northernwind.frontend.media.impl.DefaultMetadataProviderTest" style="stroke: #A80036; stroke-width: 1.5;" width="227" x="45.5" y="238.5"/><ellipse cx="72.65" cy="254.5" fill="#ADD1B2" rx="11" ry="11" style="stroke: #A80036; stroke-width: 1.0;"/><path d="M75.1231,260.6431 Q74.5421,260.9419 73.9029,261.0913 Q73.2638,261.2407 72.5582,261.2407 Q70.0514,261.2407 68.7315,259.5889 Q67.4117,257.937 67.4117,254.8159 Q67.4117,251.6865 68.7315,250.0347 Q70.0514,248.3828 72.5582,248.3828 Q73.2638,248.3828 73.9112,248.5322 Q74.5587,248.6816 75.1231,248.9805 L75.1231,251.7031 Q74.4923,251.1221 73.8988,250.8523 Q73.3053,250.5825 72.6744,250.5825 Q71.3297,250.5825 70.6449,251.6492 Q69.9601,252.7158 69.9601,254.8159 Q69.9601,256.9077 70.6449,257.9744 Q71.3297,259.041 72.6744,259.041 Q73.3053,259.041 73.8988,258.7712 Q74.4923,258.5015 75.1231,257.9204 Z "/><text fill="#000000" font-family="sans-serif" font-size="12" lengthAdjust="spacingAndGlyphs" textLength="168" x="89.35" y="259.0352">DefaultMetadataProviderTest</text><line style="stroke: #A80036; stroke-width: 1.5;" x1="46.5" x2="271.5" y1="270.5" y2="270.5"/><line style="stroke: #A80036; stroke-width: 1.5;" x1="46.5" x2="271.5" y1="278.5" y2="278.5"/><ellipse cx="56.5" cy="289.5" fill="#84BE84" rx="3" ry="3" style="stroke: #038048; stroke-width: 1.0;"/><text fill="#000000" font-family="sans-serif" font-size="11" lengthAdjust="spacingAndGlyphs" textLength="201" x="65.5" y="293.1348">must_properly_read_metadata(): void</text></a><!--MD5=[2073666c5a75ed22e974d38baa407468]
class it.tidalwave.northernwind.frontend.media.impl.DefaultMetadataTest--><a href="DefaultMetadataTest.html" target="_top" title="DefaultMetadataTest.html" xlink:actuate="onRequest" xlink:href="DefaultMetadataTest.html" xlink:show="new" xlink:title="DefaultMetadataTest.html" xlink:type="simple"><rect codeLine="27" fill="#FEFECE" filter="url(#f6aejjj67ujcs)" height="125.7305" id="it.tidalwave.northernwind.frontend.media.impl.DefaultMetadataTest" style="stroke: #A80036; stroke-width: 1.5;" width="483" x="307.5" y="206"/><ellipse cx="484.75" cy="222" fill="#ADD1B2" rx="11" ry="11" style="stroke: #A80036; stroke-width: 1.0;"/><path d="M487.2231,228.1431 Q486.6421,228.4419 486.0029,228.5913 Q485.3638,228.7407 484.6582,228.7407 Q482.1514,228.7407 480.8315,227.0889 Q479.5117,225.437 479.5117,222.3159 Q479.5117,219.1865 480.8315,217.5347 Q482.1514,215.8828 484.6582,215.8828 Q485.3638,215.8828 486.0112,216.0322 Q486.6587,216.1816 487.2231,216.4805 L487.2231,219.2031 Q486.5923,218.6221 485.9988,218.3523 Q485.4053,218.0825 484.7744,218.0825 Q483.4297,218.0825 482.7449,219.1492 Q482.0601,220.2158 482.0601,222.3159 Q482.0601,224.4077 482.7449,225.4744 Q483.4297,226.541 484.7744,226.541 Q485.4053,226.541 485.9988,226.2712 Q486.5923,226.0015 487.2231,225.4204 Z "/><text fill="#000000" font-family="sans-serif" font-size="12" lengthAdjust="spacingAndGlyphs" textLength="120" x="505.25" y="226.5352">DefaultMetadataTest</text><line style="stroke: #A80036; stroke-width: 1.5;" x1="308.5" x2="789.5" y1="238" y2="238"/><line style="stroke: #A80036; stroke-width: 1.5;" x1="308.5" x2="789.5" y1="246" y2="246"/><ellipse cx="318.5" cy="257" fill="#84BE84" rx="3" ry="3" style="stroke: #038048; stroke-width: 1.0;"/><text fill="#000000" font-family="sans-serif" font-size="11" lengthAdjust="spacingAndGlyphs" textLength="116" x="327.5" y="260.6348">setupCommon(): void</text><ellipse cx="318.5" cy="269.9551" fill="#84BE84" rx="3" ry="3" style="stroke: #038048; stroke-width: 1.0;"/><text fill="#000000" font-family="sans-serif" font-size="11" lengthAdjust="spacingAndGlyphs" textLength="67" x="327.5" y="273.5898">setup(): void</text><ellipse cx="318.5" cy="282.9102" fill="#84BE84" rx="3" ry="3" style="stroke: #038048; stroke-width: 1.0;"/><text fill="#000000" font-family="sans-serif" font-size="11" lengthAdjust="spacingAndGlyphs" textLength="457" x="327.5" y="286.5449">must_properly_interpolate_metadata_string(MetadataTestBuilder, String, String): void</text><ellipse cx="318.5" cy="295.8652" fill="#84BE84" rx="3" ry="3" style="stroke: #038048; stroke-width: 1.0;"/><text fill="#000000" font-family="sans-serif" font-size="11" lengthAdjust="spacingAndGlyphs" textLength="296" x="327.5" y="299.5">must_properly_interpolate_metadata_from_JPEG(): void</text><ellipse cx="318.5" cy="308.8203" fill="#84BE84" rx="3" ry="3" style="stroke: #038048; stroke-width: 1.0;"/><text fill="#000000" font-family="sans-serif" font-size="11" lengthAdjust="spacingAndGlyphs" textLength="422" x="327.5" y="312.4551">must_properly_interpolate_metadata_from_StoppingDown_test_set(Path): void</text><polygon fill="#FFFF44" points="318.5,316.7754,322.5,320.7754,318.5,324.7754,314.5,320.7754" style="stroke: #B38D22; stroke-width: 1.0;"/><text fill="#000000" font-family="sans-serif" font-size="11" lengthAdjust="spacingAndGlyphs" text-decoration="underline" textLength="266" x="327.5" y="325.4102">testSet_StoppingDown_100_20230116(): Object[]</text></a><!--MD5=[b404d9fe408d03587af883ba929d2673]
link it.tidalwave.northernwind.frontend.media.impl.ScanningMetadataInterpolatorFactoryTest to it.tidalwave.northernwind.frontend.media.impl.EmbeddedMediaMetadataProviderTest--><!--MD5=[24b9deb8003955e96005a39da2020cf0]
link it.tidalwave.northernwind.frontend.media.impl.EmbeddedMediaMetadataProviderTest to it.tidalwave.northernwind.frontend.media.impl.DefaultMetadataCacheTest--><!--MD5=[5081c489daf6a96473040cb39bae293a]
link it.tidalwave.northernwind.frontend.media.impl.ScanningMetadataInterpolatorFactoryTest to it.tidalwave.northernwind.frontend.media.impl.DefaultMetadataProviderTest--><!--MD5=[07f1c5c134c5823d8898727a29e13507]
link it.tidalwave.northernwind.frontend.media.impl.DefaultMetadataProviderTest to it.tidalwave.northernwind.frontend.media.impl.DefaultMetadataTest--><text fill="#888888" font-family="sans-serif" font-size="10" lengthAdjust="spacingAndGlyphs" textLength="188" x="602" y="355.668">UMLDoclet 2.0.12, PlantUML 1.2020.16</text><!--MD5=[5183014707f6f0e0ee072043f44f9676]
@startuml
    namespace it.tidalwave.northernwind.frontend.media.impl {

        class ScanningMetadataInterpolatorFactoryTest [[ScanningMetadataInterpolatorFactoryTest.html]] {
            +setup(): void
            +must_find_all_the_interpolators(): void
        }

        class EmbeddedMediaMetadataProviderTest [[EmbeddedMediaMetadataProviderTest.html]] {
            +setup(): void
            +must_return_the_interpolated_string_when_metadata_is_found(): void
            +must_return_empty_string_when_media_not_found(): void
            +must_return_empty_string_when_io_error(): void
        }

        class DefaultMetadataCacheTest [[DefaultMetadataCacheTest.html]] {
            +setup(): void
            +must_correctly_load_metadata_when_not_in_cache(): void
            +must_cache_the_same_instance_within_expiration_time_without_checking_for_file_modification(): void
            +must_check_file_modification_after_expiration_time_and_still_keep_in_cache_when_no_modifications(): void
            +must_reload_metadata_after_expiration_time_when_file_has_been_changed(): void
        }

        class DefaultMetadataProviderTest [[DefaultMetadataProviderTest.html]] {
            +must_properly_read_metadata(): void
        }

        class DefaultMetadataTest [[DefaultMetadataTest.html]] {
            +setupCommon(): void
            +setup(): void
            +must_properly_interpolate_metadata_string(MetadataTestBuilder, String, String): void
            +must_properly_interpolate_metadata_from_JPEG(): void
            +must_properly_interpolate_metadata_from_StoppingDown_test_set(Path): void
            {static} #testSet_StoppingDown_100_20230116(): Object[]
        }

    }

    center footer UMLDoclet 2.0.12, PlantUML 1.2020.16
@enduml

PlantUML version 1.2020.16(Sun Aug 23 22:20:43 CEST 2020)
(APACHE source distribution)
Java Runtime: OpenJDK Runtime Environment
JVM: OpenJDK 64-Bit Server VM
Default Encoding: UTF-8
Language: en
Country: GB
--></g></svg>