@startuml
    set namespaceSeparator none
    hide empty fields
    hide empty methods

    class "<size:14>SimpleCompositePresentableTest\n<size:10>it.tidalwave.role.ui.spi" as it.tidalwave.role.ui.spi.SimpleCompositePresentableTest [[SimpleCompositePresentableTest.html]] {
        +setup(): void
        +must_create_a_PresentationModel_containing_the_proper_children(): void
    }
    class "<size:14>SimpleCompositePresentableTest.MockDatum\n<size:10>it.tidalwave.role.ui.spi" as it.tidalwave.role.ui.spi.SimpleCompositePresentableTest.MockDatum [[SimpleCompositePresentableTest.MockDatum.html]]

    it.tidalwave.role.ui.spi.SimpleCompositePresentableTest +-- it.tidalwave.role.ui.spi.SimpleCompositePresentableTest.MockDatum

    center footer UMLDoclet 2.0.12, PlantUML 1.2020.16
@enduml
