GROUP,PACKAGE,CLASS,INSTRUCTION_MISSED,INSTRUCTION_COVERED,BRANCH_MISSED,BRANCH_COVERED,LINE_MISSED,LINE_COVERED,COMPLEXITY_MISSED,COMPLEXITY_COVERED,METHOD_MISSED,METHOD_COVERED
NorthernWind :: Core :: Default Marshalling/it-tidalwave-northernwind-core,it.tidalwave.northernwind.core.model.spi,ResponseBuilderSupport,36,351,5,18,7,69,8,29,3,22
NorthernWind :: Core :: Default Marshalling/it-tidalwave-northernwind-core,it.tidalwave.northernwind.core.model.spi,DecoratedResourceFileSupport,99,0,8,0,13,0,14,0,10,0
NorthernWind :: Core :: Default Marshalling/it-tidalwave-northernwind-core,it.tidalwave.northernwind.core.model.spi,ResourceSupport,51,0,0,0,7,0,8,0,8,0
NorthernWind :: Core :: Default Marshalling/it-tidalwave-northernwind-core,it.tidalwave.northernwind.core.model.spi,ContentSupport,74,0,0,0,6,0,12,0,12,0
NorthernWind :: Core :: Default Marshalling/it-tidalwave-northernwind-core,it.tidalwave.northernwind.core.model.spi,RequestHolder,22,0,0,0,7,0,4,0,4,0
NorthernWind :: Core :: Default Marshalling/it-tidalwave-northernwind-core,it.tidalwave.northernwind.core.model.spi,ModelFactorySupport,84,0,0,0,16,0,16,0,16,0
NorthernWind :: Core :: Default Marshalling/it-tidalwave-northernwind-core,it.tidalwave.northernwind.core.model.spi,ResourceFileFinderSupport,119,0,0,0,24,0,12,0,12,0
NorthernWind :: Core :: Default Marshalling/it-tidalwave-northernwind-core,it.tidalwave.northernwind.core.model.spi,MediaSupport,78,0,0,0,6,0,13,0,13,0
NorthernWind :: Core :: Default Marshalling/it-tidalwave-northernwind-core,it.tidalwave.northernwind.core.model.spi,SiteNodeSupport,75,0,0,0,6,0,13,0,13,0
NorthernWind :: Core :: Default Marshalling/it-tidalwave-northernwind-core,it.tidalwave.northernwind.core.model.spi,ResponseHolder,6,11,0,0,3,3,2,2,2,2
NorthernWind :: Core :: Default Marshalling/it-tidalwave-northernwind-core,it.tidalwave.northernwind.frontend.ui.spi,ViewAndControllerLayoutBuilder,105,0,0,0,19,0,8,0,8,0
NorthernWind :: Core :: Default Marshalling/it-tidalwave-northernwind-core,it.tidalwave.northernwind.frontend.ui.spi,ViewAndControllerLayoutBuilder.new ViewController() {...},3,0,0,0,1,0,1,0,1,0
NorthernWind :: Core :: Default Marshalling/it-tidalwave-northernwind-core,it.tidalwave.northernwind.frontend.ui.spi,VirtualSiteNode,95,0,0,0,11,0,15,0,15,0
NorthernWind :: Core :: Default Marshalling/it-tidalwave-northernwind-core,it.tidalwave.northernwind.frontend.ui.spi,NodeViewRenderer,73,0,2,0,19,0,6,0,5,0
NorthernWind :: Core :: Default Marshalling/it-tidalwave-northernwind-core,it.tidalwave.northernwind.frontend.ui.spi,DefaultRenderContext,29,0,0,0,3,0,4,0,4,0
NorthernWind :: Core :: Default Marshalling/it-tidalwave-northernwind-core,it.tidalwave.northernwind.frontend.ui,RenderContext,16,0,0,0,4,0,3,0,3,0
NorthernWind :: Core :: Default Marshalling/it-tidalwave-northernwind-core,it.tidalwave.northernwind.frontend.ui,ViewController,5,0,0,0,4,0,4,0,4,0
NorthernWind :: Core :: Default Marshalling/it-tidalwave-northernwind-core,it.tidalwave.northernwind.frontend.ui,Layout.Builder,99,0,4,0,9,0,12,0,10,0
NorthernWind :: Core :: Default Marshalling/it-tidalwave-northernwind-core,it.tidalwave.northernwind.frontend.ui,ViewFactory.ViewAndController,36,0,0,0,5,0,5,0,5,0
NorthernWind :: Core :: Default Marshalling/it-tidalwave-northernwind-core,it.tidalwave.northernwind.util,UrlEncoding,4,4,0,0,1,1,1,1,1,1
NorthernWind :: Core :: Default Marshalling/it-tidalwave-northernwind-core,it.tidalwave.northernwind.util,CollectionFunctions,44,26,4,2,6,4,4,2,2,1
NorthernWind :: Core :: Default Marshalling/it-tidalwave-northernwind-core,it.tidalwave.northernwind.core.model,ResourceProperties.Builder,171,0,6,0,13,0,17,0,14,0
NorthernWind :: Core :: Default Marshalling/it-tidalwave-northernwind-core,it.tidalwave.northernwind.core.model,SiteNode,11,0,0,0,3,0,1,0,1,0
NorthernWind :: Core :: Default Marshalling/it-tidalwave-northernwind-core,it.tidalwave.northernwind.core.model,Site.Builder,345,0,16,0,21,0,30,0,22,0
NorthernWind :: Core :: Default Marshalling/it-tidalwave-northernwind-core,it.tidalwave.northernwind.core.model,ResourcePath,86,266,16,24,7,40,15,33,6,22
NorthernWind :: Core :: Default Marshalling/it-tidalwave-northernwind-core,it.tidalwave.northernwind.core.model,Content.new Key() {...},4,0,0,0,1,0,1,0,1,0
NorthernWind :: Core :: Default Marshalling/it-tidalwave-northernwind-core,it.tidalwave.northernwind.core.model,Media,3,0,0,0,1,0,1,0,1,0
NorthernWind :: Core :: Default Marshalling/it-tidalwave-northernwind-core,it.tidalwave.northernwind.core.model,SiteProvider,3,0,0,0,1,0,1,0,1,0
NorthernWind :: Core :: Default Marshalling/it-tidalwave-northernwind-core,it.tidalwave.northernwind.core.model,Resource,21,0,0,0,5,0,3,0,3,0
NorthernWind :: Core :: Default Marshalling/it-tidalwave-northernwind-core,it.tidalwave.northernwind.core.model,Content.Builder,72,0,2,0,7,0,9,0,8,0
NorthernWind :: Core :: Default Marshalling/it-tidalwave-northernwind-core,it.tidalwave.northernwind.core.model,ResourceProperties.PropertyResolver.new ResourceProperties.PropertyResolver() {...},9,0,0,0,2,0,2,0,2,0
NorthernWind :: Core :: Default Marshalling/it-tidalwave-northernwind-core,it.tidalwave.northernwind.core.model,Template,8,0,0,0,1,0,1,0,1,0
NorthernWind :: Core :: Default Marshalling/it-tidalwave-northernwind-core,it.tidalwave.northernwind.core.model,SiteFinder,10,0,0,0,2,0,2,0,2,0
NorthernWind :: Core :: Default Marshalling/it-tidalwave-northernwind-core,it.tidalwave.northernwind.core.model,Content,44,0,0,0,11,0,1,0,1,0
NorthernWind :: Core :: Default Marshalling/it-tidalwave-northernwind-core,it.tidalwave.northernwind.core.model,HttpStatusException,69,42,6,0,10,9,9,5,6,5
NorthernWind :: Core :: Default Marshalling/it-tidalwave-northernwind-core,it.tidalwave.northernwind.core.model,ResourceFileSystemChangedEvent,29,0,0,0,3,0,4,0,4,0
NorthernWind :: Core :: Default Marshalling/it-tidalwave-northernwind-core,it.tidalwave.northernwind.core.model,Template.Aggregate,57,0,0,0,10,0,9,0,9,0
NorthernWind :: Core :: Default Marshalling/it-tidalwave-northernwind-core,it.tidalwave.northernwind.core.model,RequestProcessor.Status,24,0,0,0,2,0,1,0,1,0
NorthernWind :: Core :: Default Marshalling/it-tidalwave-northernwind-core,it.tidalwave.northernwind.core.model,Template.Aggregates,71,0,0,0,13,0,11,0,11,0
NorthernWind :: Core :: Default Marshalling/it-tidalwave-northernwind-core,it.tidalwave.northernwind.core.model,ResourceProperties,12,0,0,0,1,0,2,0,2,0
NorthernWind :: Core :: Default Marshalling/it-tidalwave-northernwind-core,it.tidalwave.northernwind.core.model,Media.Builder,72,0,2,0,7,0,9,0,8,0
NorthernWind :: Core :: Default Marshalling/it-tidalwave-northernwind-core,it.tidalwave.northernwind.core.model,Resource.Builder,72,0,2,0,7,0,9,0,8,0
NorthernWind :: Core :: Default Marshalling/it-tidalwave-northernwind-core,it.tidalwave.northernwind.core.model,ResourceProperties.PropertyResolver,5,0,0,0,1,0,1,0,1,0
