<?xml version="1.0" encoding="UTF-8" standalone="no"?><svg xmlns="http://www.w3.org/2000/svg" xmlns:xlink="http://www.w3.org/1999/xlink" contentScriptType="application/ecmascript" contentStyleType="text/css" height="247px" preserveAspectRatio="none" style="width:296px;height:247px;" version="1.1" viewBox="0 0 296 247" width="296px" zoomAndPan="magnify"><defs><filter height="300%" id="foq81cvci5jja" width="300%" x="-1" y="-1"><feGaussianBlur result="blurOut" stdDeviation="2.0"/><feColorMatrix in="blurOut" result="blurOut2" type="matrix" values="0 0 0 0 0 0 0 0 0 0 0 0 0 0 0 0 0 0 .4 0"/><feOffset dx="4.0" dy="4.0" in="blurOut2" result="blurOut3"/><feBlend in="SourceGraphic" in2="blurOut3" mode="normal"/></filter></defs><g><!--MD5=[3524ccc2f3bbcf0d7b37c2974be7421a]
class it.tidalwave.messagebus.spi.RoundRobinAsyncMessageDelivery--><a href="RoundRobinAsyncMessageDelivery.html" target="_top" title="RoundRobinAsyncMessageDelivery.html" xlink:actuate="onRequest" xlink:href="RoundRobinAsyncMessageDelivery.html" xlink:show="new" xlink:title="RoundRobinAsyncMessageDelivery.html" xlink:type="simple"><rect codeLine="5" fill="#FEFECE" filter="url(#foq81cvci5jja)" height="72.1758" id="it.tidalwave.messagebus.spi.RoundRobinAsyncMessageDelivery" style="stroke: #A80036; stroke-width: 1.5;" width="270" x="7" y="139"/><ellipse cx="22" cy="158.1328" fill="#ADD1B2" rx="11" ry="11" style="stroke: #A80036; stroke-width: 1.0;"/><path d="M24.4731,164.2759 Q23.8921,164.5747 23.2529,164.7241 Q22.6138,164.8735 21.9082,164.8735 Q19.4014,164.8735 18.0815,163.2217 Q16.7617,161.5698 16.7617,158.4487 Q16.7617,155.3193 18.0815,153.6675 Q19.4014,152.0156 21.9082,152.0156 Q22.6138,152.0156 23.2612,152.165 Q23.9087,152.3145 24.4731,152.6133 L24.4731,155.3359 Q23.8423,154.7549 23.2488,154.4851 Q22.6553,154.2153 22.0244,154.2153 Q20.6797,154.2153 19.9949,155.282 Q19.3101,156.3486 19.3101,158.4487 Q19.3101,160.5405 19.9949,161.6072 Q20.6797,162.6738 22.0244,162.6738 Q22.6553,162.6738 23.2488,162.4041 Q23.8423,162.1343 24.4731,161.5532 Z "/><text fill="#000000" font-family="sans-serif" font-size="14" lengthAdjust="spacingAndGlyphs" textLength="238" x="36" y="157.5352">RoundRobinAsyncMessageDelivery</text><text fill="#000000" font-family="sans-serif" font-size="10" lengthAdjust="spacingAndGlyphs" textLength="137" x="86.5" y="170.1563">it.tidalwave.messagebus.spi</text><line style="stroke: #A80036; stroke-width: 1.5;" x1="8" x2="276" y1="177.2656" y2="177.2656"/><ellipse cx="18" cy="188.2656" fill="#84BE84" rx="3" ry="3" style="stroke: #038048; stroke-width: 1.0;"/><text fill="#000000" font-family="sans-serif" font-size="11" lengthAdjust="spacingAndGlyphs" textLength="181" x="27" y="191.9004">initialize(SimpleMessageBus): void</text><ellipse cx="18" cy="201.2207" fill="#84BE84" rx="3" ry="3" style="stroke: #038048; stroke-width: 1.0;"/><text fill="#000000" font-family="sans-serif" font-size="11" lengthAdjust="spacingAndGlyphs" textLength="238" x="27" y="204.8555">deliverMessage(Class&lt;TOPIC&gt;, TOPIC): void</text></a><!--MD5=[55195224b75f480a85f2daf3351a70a8]
class it.tidalwave.messagebus.spi.MessageDelivery--><a href="MessageDelivery.html" target="_top" title="MessageDelivery.html" xlink:actuate="onRequest" xlink:href="MessageDelivery.html" xlink:show="new" xlink:title="MessageDelivery.html" xlink:type="simple"><rect codeLine="10" fill="#FEFECE" filter="url(#foq81cvci5jja)" height="72.1758" id="it.tidalwave.messagebus.spi.MessageDelivery" style="stroke: #A80036; stroke-width: 1.5;" width="264" x="10" y="7"/><ellipse cx="69.25" cy="26.1328" fill="#B4A7E5" rx="11" ry="11" style="stroke: #A80036; stroke-width: 1.0;"/><path d="M65.6777,22.3979 L65.6777,20.2397 L73.0571,20.2397 L73.0571,22.3979 L70.5918,22.3979 L70.5918,30.4746 L73.0571,30.4746 L73.0571,32.6328 L65.6777,32.6328 L65.6777,30.4746 L68.1431,30.4746 L68.1431,22.3979 Z "/><text fill="#000000" font-family="sans-serif" font-size="14" font-style="italic" lengthAdjust="spacingAndGlyphs" textLength="113" x="101.75" y="25.5352">MessageDelivery</text><text fill="#000000" font-family="sans-serif" font-size="10" font-style="italic" lengthAdjust="spacingAndGlyphs" textLength="137" x="89.75" y="38.1563">it.tidalwave.messagebus.spi</text><line style="stroke: #A80036; stroke-width: 1.5;" x1="11" x2="273" y1="45.2656" y2="45.2656"/><ellipse cx="21" cy="56.2656" fill="#84BE84" rx="3" ry="3" style="stroke: #038048; stroke-width: 1.0;"/><text fill="#000000" font-family="sans-serif" font-size="11" font-style="italic" lengthAdjust="spacingAndGlyphs" textLength="181" x="30" y="59.9004">initialize(SimpleMessageBus): void</text><ellipse cx="21" cy="69.2207" fill="#84BE84" rx="3" ry="3" style="stroke: #038048; stroke-width: 1.0;"/><text fill="#000000" font-family="sans-serif" font-size="11" font-style="italic" lengthAdjust="spacingAndGlyphs" textLength="238" x="30" y="72.8555">deliverMessage(Class&lt;TOPIC&gt;, TOPIC): void</text></a><!--MD5=[7e6ed0c7eb87aa512bb8556ca06f71f5]
reverse link it.tidalwave.messagebus.spi.MessageDelivery to it.tidalwave.messagebus.spi.RoundRobinAsyncMessageDelivery--><path codeLine="15" d="M142,99.3792 C142,112.7962 142,126.7553 142,138.974 " fill="none" id="it.tidalwave.messagebus.spi.MessageDelivery-backto-it.tidalwave.messagebus.spi.RoundRobinAsyncMessageDelivery" style="stroke: #A80036; stroke-width: 1.0; stroke-dasharray: 7.0,7.0;"/><polygon fill="none" points="135.0001,99.0696,142,79.0696,149.0001,99.0695,135.0001,99.0696" style="stroke: #A80036; stroke-width: 1.0;"/><text fill="#888888" font-family="sans-serif" font-size="10" lengthAdjust="spacingAndGlyphs" textLength="188" x="45" y="233.8438">UMLDoclet 2.0.12, PlantUML 1.2020.16</text><!--MD5=[2668e0457737cac049c50f90ca1224f3]
@startuml
    set namespaceSeparator none
    hide empty fields
    hide empty methods

    class "<size:14>RoundRobinAsyncMessageDelivery\n<size:10>it.tidalwave.messagebus.spi" as it.tidalwave.messagebus.spi.RoundRobinAsyncMessageDelivery [[RoundRobinAsyncMessageDelivery.html]] {
        +initialize(SimpleMessageBus): void
        +deliverMessage(Class<TOPIC>, TOPIC): void
    }

    interface "<size:14>MessageDelivery\n<size:10>it.tidalwave.messagebus.spi" as it.tidalwave.messagebus.spi.MessageDelivery [[MessageDelivery.html]] {
        {abstract} +initialize(SimpleMessageBus): void
        {abstract} +deliverMessage(Class<TOPIC>, TOPIC): void
    }

    it.tidalwave.messagebus.spi.MessageDelivery <|.. it.tidalwave.messagebus.spi.RoundRobinAsyncMessageDelivery

    center footer UMLDoclet 2.0.12, PlantUML 1.2020.16
@enduml

PlantUML version 1.2020.16(Sun Aug 23 22:20:43 CEST 2020)
(APACHE source distribution)
Java Runtime: OpenJDK Runtime Environment
JVM: OpenJDK 64-Bit Server VM
Default Encoding: UTF-8
Language: en
Country: GB
--></g></svg>