<?xml version="1.0" encoding="UTF-8" standalone="no"?><svg xmlns="http://www.w3.org/2000/svg" xmlns:xlink="http://www.w3.org/1999/xlink" contentScriptType="application/ecmascript" contentStyleType="text/css" height="75px" preserveAspectRatio="none" style="width:200px;height:75px;" version="1.1" viewBox="0 0 200 75" width="200px" zoomAndPan="magnify"><defs><filter height="300%" id="f1k6saqrmbecmg" width="300%" x="-1" y="-1"><feGaussianBlur result="blurOut" stdDeviation="2.0"/><feColorMatrix in="blurOut" result="blurOut2" type="matrix" values="0 0 0 0 0 0 0 0 0 0 0 0 0 0 0 0 0 0 .4 0"/><feOffset dx="4.0" dy="4.0" in="blurOut2" result="blurOut3"/><feBlend in="SourceGraphic" in2="blurOut3" mode="normal"/></filter></defs><g><!--MD5=[b429921e9968af36bb0badaab7b32fa2]
class it.tidalwave.dci.annotation.DciContext--><a href="DciContext.html" target="_top" title="DciContext.html" xlink:actuate="onRequest" xlink:href="DciContext.html" xlink:show="new" xlink:title="DciContext.html" xlink:type="simple"><rect codeLine="5" fill="#FEFECE" filter="url(#f1k6saqrmbecmg)" height="38.2656" id="it.tidalwave.dci.annotation.DciContext" style="stroke: #A80036; stroke-width: 1.5;" width="162" x="13" y="7"/><ellipse cx="28" cy="26.1328" fill="#E3664A" rx="11" ry="11" style="stroke: #A80036; stroke-width: 1.0;"/><path d="M30.5767,26.3589 Q30.5767,25.4209 30.1533,24.8896 Q29.73,24.3584 28.9912,24.3584 Q28.2524,24.3584 27.8333,24.8896 Q27.4141,25.4209 27.4141,26.3589 Q27.4141,27.3052 27.8333,27.8364 Q28.2524,28.3677 28.9912,28.3677 Q29.73,28.3677 30.1533,27.8364 Q30.5767,27.3052 30.5767,26.3589 Z M32.1206,29.7622 L30.4937,29.7622 L30.4937,29.0815 Q30.1782,29.5215 29.7507,29.7249 Q29.3232,29.9282 28.7256,29.9282 Q27.3643,29.9282 26.53,28.9487 Q25.6958,27.9692 25.6958,26.3589 Q25.6958,24.7568 26.5259,23.7815 Q27.356,22.8062 28.7256,22.8062 Q29.3149,22.8062 29.7632,23.0095 Q30.2114,23.2129 30.4937,23.603 L30.4937,23.2627 Q30.4937,22.1338 29.8752,21.5195 Q29.2568,20.9053 28.1113,20.9053 Q26.3848,20.9053 25.2932,22.4243 Q24.2017,23.9434 24.2017,26.3755 Q24.2017,28.9238 25.4634,30.4304 Q26.7251,31.937 28.8252,31.937 Q29.4893,31.937 30.1118,31.7419 Q30.7344,31.5469 31.3071,31.1567 L32.0708,32.6177 Q31.3984,33.0742 30.6057,33.3025 Q29.813,33.5308 28.9082,33.5308 Q26.0029,33.5308 24.2764,31.5967 Q22.5498,29.6626 22.5498,26.3755 Q22.5498,23.1631 24.1021,21.2332 Q25.6543,19.3032 28.2109,19.3032 Q30.0205,19.3032 31.0706,20.3948 Q32.1206,21.4863 32.1206,23.3706 Z "/><text fill="#000000" font-family="sans-serif" font-size="14" lengthAdjust="spacingAndGlyphs" textLength="76" x="69" y="25.5352">DciContext</text><text fill="#000000" font-family="sans-serif" font-size="10" lengthAdjust="spacingAndGlyphs" textLength="130" x="42" y="38.1563">it.tidalwave.dci.annotation</text></a><text fill="#888888" font-family="sans-serif" font-size="10" lengthAdjust="spacingAndGlyphs" textLength="188" x="0" y="61.9336">UMLDoclet 2.0.12, PlantUML 1.2020.16</text><!--MD5=[79ed39ff9e51a588a301348b597e3cc3]
@startuml
    set namespaceSeparator none
    hide empty fields
    hide empty methods

    annotation "<size:14>DciContext\n<size:10>it.tidalwave.dci.annotation" as it.tidalwave.dci.annotation.DciContext [[DciContext.html]]

    center footer UMLDoclet 2.0.12, PlantUML 1.2020.16
@enduml

PlantUML version 1.2020.16(Sun Aug 23 22:20:43 CEST 2020)
(APACHE source distribution)
Java Runtime: OpenJDK Runtime Environment
JVM: OpenJDK 64-Bit Server VM
Default Encoding: UTF-8
Language: en
Country: GB
--></g></svg>