<?xml version="1.0" encoding="UTF-8" standalone="no"?><svg xmlns="http://www.w3.org/2000/svg" xmlns:xlink="http://www.w3.org/1999/xlink" contentScriptType="application/ecmascript" contentStyleType="text/css" height="226px" preserveAspectRatio="none" style="width:258px;height:226px;" version="1.1" viewBox="0 0 258 226" width="258px" zoomAndPan="magnify"><defs><filter height="300%" id="fq7k9fet98y4n" width="300%" x="-1" y="-1"><feGaussianBlur result="blurOut" stdDeviation="2.0"/><feColorMatrix in="blurOut" result="blurOut2" type="matrix" values="0 0 0 0 0 0 0 0 0 0 0 0 0 0 0 0 0 0 .4 0"/><feOffset dx="4.0" dy="4.0" in="blurOut2" result="blurOut3"/><feBlend in="SourceGraphic" in2="blurOut3" mode="normal"/></filter></defs><g><!--MD5=[5e11b9670f38e388e2ea5fedb9214007]
cluster it.tidalwave.dci.annotation--><polygon fill="#FFFFFF" filter="url(#fq7k9fet98y4n)" points="16,6,210,6,217,28.4883,236,28.4883,236,197,16,197,16,6" style="stroke: #000000; stroke-width: 1.5;"/><line style="stroke: #000000; stroke-width: 1.5;" x1="16" x2="217" y1="28.4883" y2="28.4883"/><text fill="#000000" font-family="sans-serif" font-size="14" font-weight="bold" lengthAdjust="spacingAndGlyphs" textLength="188" x="20" y="21.5352">it.tidalwave.dci.annotation</text><!--MD5=[394d6b3ebf5afb29891ea4b302132b0a]
class it.tidalwave.dci.annotation.DciRole--><a href="DciRole.html" target="_top" title="DciRole.html" xlink:actuate="onRequest" xlink:href="DciRole.html" xlink:show="new" xlink:title="DciRole.html" xlink:type="simple"><rect codeLine="3" fill="#FEFECE" filter="url(#fq7k9fet98y4n)" height="48" id="it.tidalwave.dci.annotation.DciRole" style="stroke: #A80036; stroke-width: 1.5;" width="75" x="153.5" y="33"/><ellipse cx="168.5" cy="49" fill="#E3664A" rx="11" ry="11" style="stroke: #A80036; stroke-width: 1.0;"/><path d="M171.0767,49.2261 Q171.0767,48.2881 170.6533,47.7568 Q170.23,47.2256 169.4912,47.2256 Q168.7524,47.2256 168.3333,47.7568 Q167.9141,48.2881 167.9141,49.2261 Q167.9141,50.1724 168.3333,50.7036 Q168.7524,51.2349 169.4912,51.2349 Q170.23,51.2349 170.6533,50.7036 Q171.0767,50.1724 171.0767,49.2261 Z M172.6206,52.6294 L170.9937,52.6294 L170.9937,51.9487 Q170.6782,52.3887 170.2507,52.592 Q169.8232,52.7954 169.2256,52.7954 Q167.8643,52.7954 167.03,51.8159 Q166.1958,50.8364 166.1958,49.2261 Q166.1958,47.624 167.0259,46.6487 Q167.856,45.6733 169.2256,45.6733 Q169.8149,45.6733 170.2632,45.8767 Q170.7114,46.0801 170.9937,46.4702 L170.9937,46.1299 Q170.9937,45.001 170.3752,44.3867 Q169.7568,43.7725 168.6113,43.7725 Q166.8848,43.7725 165.7932,45.2915 Q164.7017,46.8105 164.7017,49.2427 Q164.7017,51.791 165.9634,53.2976 Q167.2251,54.8042 169.3252,54.8042 Q169.9893,54.8042 170.6118,54.6091 Q171.2344,54.4141 171.8071,54.0239 L172.5708,55.4849 Q171.8984,55.9414 171.1057,56.1697 Q170.313,56.3979 169.4082,56.3979 Q166.5029,56.3979 164.7764,54.4639 Q163.0498,52.5298 163.0498,49.2427 Q163.0498,46.0303 164.6021,44.1003 Q166.1543,42.1704 168.7109,42.1704 Q170.5205,42.1704 171.5706,43.262 Q172.6206,44.3535 172.6206,46.2378 Z "/><text fill="#000000" font-family="sans-serif" font-size="12" lengthAdjust="spacingAndGlyphs" textLength="43" x="182.5" y="53.5352">DciRole</text><line style="stroke: #A80036; stroke-width: 1.5;" x1="154.5" x2="227.5" y1="65" y2="65"/><line style="stroke: #A80036; stroke-width: 1.5;" x1="154.5" x2="227.5" y1="73" y2="73"/></a><!--MD5=[b9232632a6b1657c6eae5effab8da929]
class it.tidalwave.dci.annotation.DciRole.NoContext--><a href="DciRole.NoContext.html" target="_top" title="DciRole.NoContext.html" xlink:actuate="onRequest" xlink:href="DciRole.NoContext.html" xlink:show="new" xlink:title="DciRole.NoContext.html" xlink:type="simple"><rect codeLine="5" fill="#FEFECE" filter="url(#fq7k9fet98y4n)" height="48" id="it.tidalwave.dci.annotation.DciRole.NoContext" style="stroke: #A80036; stroke-width: 1.5;" width="139" x="88.5" y="141"/><ellipse cx="103.5" cy="157" fill="#ADD1B2" rx="11" ry="11" style="stroke: #A80036; stroke-width: 1.0;"/><path d="M105.9731,163.1431 Q105.3921,163.4419 104.7529,163.5913 Q104.1138,163.7407 103.4082,163.7407 Q100.9014,163.7407 99.5815,162.0889 Q98.2617,160.437 98.2617,157.3159 Q98.2617,154.1865 99.5815,152.5347 Q100.9014,150.8828 103.4082,150.8828 Q104.1138,150.8828 104.7612,151.0322 Q105.4087,151.1816 105.9731,151.4805 L105.9731,154.2031 Q105.3423,153.6221 104.7488,153.3523 Q104.1553,153.0825 103.5244,153.0825 Q102.1797,153.0825 101.4949,154.1492 Q100.8101,155.2158 100.8101,157.3159 Q100.8101,159.4077 101.4949,160.4744 Q102.1797,161.541 103.5244,161.541 Q104.1553,161.541 104.7488,161.2712 Q105.3423,161.0015 105.9731,160.4204 Z "/><text fill="#000000" font-family="sans-serif" font-size="12" lengthAdjust="spacingAndGlyphs" textLength="107" x="117.5" y="161.5352">DciRole.NoContext</text><line style="stroke: #A80036; stroke-width: 1.5;" x1="89.5" x2="226.5" y1="173" y2="173"/><line style="stroke: #A80036; stroke-width: 1.5;" x1="89.5" x2="226.5" y1="181" y2="181"/></a><!--MD5=[b429921e9968af36bb0badaab7b32fa2]
class it.tidalwave.dci.annotation.DciContext--><a href="DciContext.html" target="_top" title="DciContext.html" xlink:actuate="onRequest" xlink:href="DciContext.html" xlink:show="new" xlink:title="DciContext.html" xlink:type="simple"><rect codeLine="7" fill="#FEFECE" filter="url(#fq7k9fet98y4n)" height="48" id="it.tidalwave.dci.annotation.DciContext" style="stroke: #A80036; stroke-width: 1.5;" width="94" x="24" y="33"/><ellipse cx="39" cy="49" fill="#E3664A" rx="11" ry="11" style="stroke: #A80036; stroke-width: 1.0;"/><path d="M41.5767,49.2261 Q41.5767,48.2881 41.1533,47.7568 Q40.73,47.2256 39.9912,47.2256 Q39.2524,47.2256 38.8333,47.7568 Q38.4141,48.2881 38.4141,49.2261 Q38.4141,50.1724 38.8333,50.7036 Q39.2524,51.2349 39.9912,51.2349 Q40.73,51.2349 41.1533,50.7036 Q41.5767,50.1724 41.5767,49.2261 Z M43.1206,52.6294 L41.4937,52.6294 L41.4937,51.9487 Q41.1782,52.3887 40.7507,52.592 Q40.3232,52.7954 39.7256,52.7954 Q38.3643,52.7954 37.53,51.8159 Q36.6958,50.8364 36.6958,49.2261 Q36.6958,47.624 37.5259,46.6487 Q38.356,45.6733 39.7256,45.6733 Q40.3149,45.6733 40.7632,45.8767 Q41.2114,46.0801 41.4937,46.4702 L41.4937,46.1299 Q41.4937,45.001 40.8752,44.3867 Q40.2568,43.7725 39.1113,43.7725 Q37.3848,43.7725 36.2932,45.2915 Q35.2017,46.8105 35.2017,49.2427 Q35.2017,51.791 36.4634,53.2976 Q37.7251,54.8042 39.8252,54.8042 Q40.4893,54.8042 41.1118,54.6091 Q41.7344,54.4141 42.3071,54.0239 L43.0708,55.4849 Q42.3984,55.9414 41.6057,56.1697 Q40.813,56.3979 39.9082,56.3979 Q37.0029,56.3979 35.2764,54.4639 Q33.5498,52.5298 33.5498,49.2427 Q33.5498,46.0303 35.1021,44.1003 Q36.6543,42.1704 39.2109,42.1704 Q41.0205,42.1704 42.0706,43.262 Q43.1206,44.3535 43.1206,46.2378 Z "/><text fill="#000000" font-family="sans-serif" font-size="12" lengthAdjust="spacingAndGlyphs" textLength="62" x="53" y="53.5352">DciContext</text><line style="stroke: #A80036; stroke-width: 1.5;" x1="25" x2="117" y1="65" y2="65"/><line style="stroke: #A80036; stroke-width: 1.5;" x1="25" x2="117" y1="73" y2="73"/></a><!--MD5=[7d9fcb98389f6ffdce63b793cc661ca0]
reverse link it.tidalwave.dci.annotation.DciRole to it.tidalwave.dci.annotation.DciRole.NoContext--><path codeLine="9" d="M179.0746,96.0285 C174.4975,111.0081 169.4105,127.6566 165.3811,140.8436 " fill="none" id="it.tidalwave.dci.annotation.DciRole-backto-it.tidalwave.dci.annotation.DciRole.NoContext" style="stroke: #A80036; stroke-width: 1.0;"/><ellipse cx="181.2564" cy="88.8881" fill="#FFFFFF" rx="8" ry="8" style="stroke: #A80036; stroke-width: 1.0;"/><line style="stroke: #A80036; stroke-width: 1.0;" x1="178.9186" x2="183.5942" y1="96.5389" y2="81.2373"/><line style="stroke: #A80036; stroke-width: 1.0;" x1="173.6056" x2="188.9072" y1="86.5503" y2="91.2259"/><text fill="#888888" font-family="sans-serif" font-size="10" lengthAdjust="spacingAndGlyphs" textLength="188" x="26" y="212.668">UMLDoclet 2.0.12, PlantUML 1.2020.16</text><!--MD5=[4a01c24193ff63ac2f6a408a32cbfcef]
@startuml
    namespace it.tidalwave.dci.annotation {

        annotation DciRole [[DciRole.html]]

        class it.tidalwave.dci.annotation.DciRole.NoContext [[DciRole.NoContext.html]]

        annotation DciContext [[DciContext.html]]

        DciRole +- - it.tidalwave.dci.annotation.DciRole.NoContext
    }

    center footer UMLDoclet 2.0.12, PlantUML 1.2020.16
@enduml

PlantUML version 1.2020.16(Sun Aug 23 22:20:43 CEST 2020)
(APACHE source distribution)
Java Runtime: OpenJDK Runtime Environment
JVM: OpenJDK 64-Bit Server VM
Default Encoding: UTF-8
Language: en
Country: GB
--></g></svg>