<?xml version="1.0" encoding="UTF-8" standalone="no"?><svg xmlns="http://www.w3.org/2000/svg" xmlns:xlink="http://www.w3.org/1999/xlink" contentScriptType="application/ecmascript" contentStyleType="text/css" height="484px" preserveAspectRatio="none" style="width:2345px;height:484px;" version="1.1" viewBox="0 0 2345 484" width="2345px" zoomAndPan="magnify"><defs><filter height="300%" id="ftitwczkq8gjl" width="300%" x="-1" y="-1"><feGaussianBlur result="blurOut" stdDeviation="2.0"/><feColorMatrix in="blurOut" result="blurOut2" type="matrix" values="0 0 0 0 0 0 0 0 0 0 0 0 0 0 0 0 0 0 .4 0"/><feOffset dx="4.0" dy="4.0" in="blurOut2" result="blurOut3"/><feBlend in="SourceGraphic" in2="blurOut3" mode="normal"/></filter></defs><g><!--MD5=[18327e9ecbefea3fbaea7e141faec2cd]
cluster it.tidalwave.northernwind.core.model.spi--><polygon fill="#FFFFFF" filter="url(#ftitwczkq8gjl)" points="16,133,311,133,318,155.4883,2248,155.4883,2248,455,16,455,16,133" style="stroke: #000000; stroke-width: 1.5;"/><line style="stroke: #000000; stroke-width: 1.5;" x1="16" x2="318" y1="155.4883" y2="155.4883"/><text fill="#000000" font-family="sans-serif" font-size="14" font-weight="bold" lengthAdjust="spacingAndGlyphs" textLength="289" x="20" y="148.5352">it.tidalwave.northernwind.core.model.spi</text><!--MD5=[739e9bb822fe15eb97bc3207575fcd8d]
cluster it.tidalwave.northernwind.core.model--><polygon fill="#FFFFFF" filter="url(#ftitwczkq8gjl)" points="940,6,1210,6,1217,28.4883,1220,28.4883,1220,102,940,102,940,6" style="stroke: #000000; stroke-width: 1.5;"/><line style="stroke: #000000; stroke-width: 1.5;" x1="940" x2="1217" y1="28.4883" y2="28.4883"/><text fill="#000000" font-family="sans-serif" font-size="14" font-weight="bold" lengthAdjust="spacingAndGlyphs" textLength="264" x="944" y="21.5352">it.tidalwave.northernwind.core.model</text><!--MD5=[24be3ad7a17332867270a0d7b2226eba]
class it.tidalwave.northernwind.core.model.spi.DefaultLibraryRequestProcessor--><a href="DefaultLibraryRequestProcessor.html" target="_top" title="DefaultLibraryRequestProcessor.html" xlink:actuate="onRequest" xlink:href="DefaultLibraryRequestProcessor.html" xlink:show="new" xlink:title="DefaultLibraryRequestProcessor.html" xlink:type="simple"><rect codeLine="3" fill="#FEFECE" filter="url(#ftitwczkq8gjl)" height="60.9551" id="it.tidalwave.northernwind.core.model.spi.DefaultLibraryRequestProcessor" style="stroke: #A80036; stroke-width: 1.5;" width="216" x="195" y="160"/><ellipse cx="210" cy="176" fill="#ADD1B2" rx="11" ry="11" style="stroke: #A80036; stroke-width: 1.0;"/><path d="M212.4731,182.1431 Q211.8921,182.4419 211.2529,182.5913 Q210.6138,182.7407 209.9082,182.7407 Q207.4014,182.7407 206.0815,181.0889 Q204.7617,179.437 204.7617,176.3159 Q204.7617,173.1865 206.0815,171.5347 Q207.4014,169.8828 209.9082,169.8828 Q210.6138,169.8828 211.2612,170.0322 Q211.9087,170.1816 212.4731,170.4805 L212.4731,173.2031 Q211.8423,172.6221 211.2488,172.3523 Q210.6553,172.0825 210.0244,172.0825 Q208.6797,172.0825 207.9949,173.1492 Q207.3101,174.2158 207.3101,176.3159 Q207.3101,178.4077 207.9949,179.4744 Q208.6797,180.541 210.0244,180.541 Q210.6553,180.541 211.2488,180.2712 Q211.8423,180.0015 212.4731,179.4204 Z "/><text fill="#000000" font-family="sans-serif" font-size="12" lengthAdjust="spacingAndGlyphs" textLength="184" x="224" y="180.5352">DefaultLibraryRequestProcessor</text><line style="stroke: #A80036; stroke-width: 1.5;" x1="196" x2="410" y1="192" y2="192"/><line style="stroke: #A80036; stroke-width: 1.5;" x1="196" x2="410" y1="200" y2="200"/><ellipse cx="206" cy="211" fill="#84BE84" rx="3" ry="3" style="stroke: #038048; stroke-width: 1.0;"/><text fill="#000000" font-family="sans-serif" font-size="11" lengthAdjust="spacingAndGlyphs" textLength="133" x="215" y="214.6348">process(Request): Status</text></a><!--MD5=[d648976fef9fcdc669b3cf16a722a341]
class it.tidalwave.northernwind.core.model.spi.ParameterLanguageOverrideRequestProcessor--><a href="ParameterLanguageOverrideRequestProcessor.html" target="_top" title="ParameterLanguageOverrideRequestProcessor.html" xlink:actuate="onRequest" xlink:href="ParameterLanguageOverrideRequestProcessor.html" xlink:show="new" xlink:title="ParameterLanguageOverrideRequestProcessor.html" xlink:type="simple"><rect codeLine="7" fill="#FEFECE" filter="url(#ftitwczkq8gjl)" height="86.8652" id="it.tidalwave.northernwind.core.model.spi.ParameterLanguageOverrideRequestProcessor" style="stroke: #A80036; stroke-width: 1.5;" width="300" x="1853" y="360"/><ellipse cx="1868" cy="376" fill="#ADD1B2" rx="11" ry="11" style="stroke: #A80036; stroke-width: 1.0;"/><path d="M1870.4731,382.1431 Q1869.8921,382.4419 1869.2529,382.5913 Q1868.6138,382.7407 1867.9082,382.7407 Q1865.4014,382.7407 1864.0815,381.0889 Q1862.7617,379.437 1862.7617,376.3159 Q1862.7617,373.1865 1864.0815,371.5347 Q1865.4014,369.8828 1867.9082,369.8828 Q1868.6138,369.8828 1869.2612,370.0322 Q1869.9087,370.1816 1870.4731,370.4805 L1870.4731,373.2031 Q1869.8423,372.6221 1869.2488,372.3523 Q1868.6553,372.0825 1868.0244,372.0825 Q1866.6797,372.0825 1865.9949,373.1492 Q1865.3101,374.2158 1865.3101,376.3159 Q1865.3101,378.4077 1865.9949,379.4744 Q1866.6797,380.541 1868.0244,380.541 Q1868.6553,380.541 1869.2488,380.2712 Q1869.8423,380.0015 1870.4731,379.4204 Z "/><text fill="#000000" font-family="sans-serif" font-size="12" lengthAdjust="spacingAndGlyphs" textLength="268" x="1882" y="380.5352">ParameterLanguageOverrideRequestProcessor</text><line style="stroke: #A80036; stroke-width: 1.5;" x1="1854" x2="2152" y1="392" y2="392"/><line style="stroke: #A80036; stroke-width: 1.5;" x1="1854" x2="2152" y1="400" y2="400"/><ellipse cx="1864" cy="411" fill="#84BE84" rx="3" ry="3" style="stroke: #038048; stroke-width: 1.0;"/><text fill="#000000" font-family="sans-serif" font-size="11" lengthAdjust="spacingAndGlyphs" textLength="133" x="1873" y="414.6348">process(Request): Status</text><ellipse cx="1864" cy="423.9551" fill="#84BE84" rx="3" ry="3" style="stroke: #038048; stroke-width: 1.0;"/><text fill="#000000" font-family="sans-serif" font-size="11" lengthAdjust="spacingAndGlyphs" textLength="210" x="1873" y="427.5898">getParameterValue(): Optional&lt;String&gt;</text><ellipse cx="1864" cy="436.9102" fill="#84BE84" rx="3" ry="3" style="stroke: #038048; stroke-width: 1.0;"/><text fill="#000000" font-family="sans-serif" font-size="11" lengthAdjust="spacingAndGlyphs" textLength="107" x="1873" y="440.5449">requestReset(): void</text></a><!--MD5=[ed12fceee3d022166bde8c75075ecff6]
class it.tidalwave.northernwind.core.model.spi.DefaultRedirectProcessor--><a href="DefaultRedirectProcessor.html" target="_top" title="DefaultRedirectProcessor.html" xlink:actuate="onRequest" xlink:href="DefaultRedirectProcessor.html" xlink:show="new" xlink:title="DefaultRedirectProcessor.html" xlink:type="simple"><rect codeLine="13" fill="#FEFECE" filter="url(#ftitwczkq8gjl)" height="60.9551" id="it.tidalwave.northernwind.core.model.spi.DefaultRedirectProcessor" style="stroke: #A80036; stroke-width: 1.5;" width="177" x="446.5" y="160"/><ellipse cx="461.5" cy="176" fill="#ADD1B2" rx="11" ry="11" style="stroke: #A80036; stroke-width: 1.0;"/><path d="M463.9731,182.1431 Q463.3921,182.4419 462.7529,182.5913 Q462.1138,182.7407 461.4082,182.7407 Q458.9014,182.7407 457.5815,181.0889 Q456.2617,179.437 456.2617,176.3159 Q456.2617,173.1865 457.5815,171.5347 Q458.9014,169.8828 461.4082,169.8828 Q462.1138,169.8828 462.7612,170.0322 Q463.4087,170.1816 463.9731,170.4805 L463.9731,173.2031 Q463.3423,172.6221 462.7488,172.3523 Q462.1553,172.0825 461.5244,172.0825 Q460.1797,172.0825 459.4949,173.1492 Q458.8101,174.2158 458.8101,176.3159 Q458.8101,178.4077 459.4949,179.4744 Q460.1797,180.541 461.5244,180.541 Q462.1553,180.541 462.7488,180.2712 Q463.3423,180.0015 463.9731,179.4204 Z "/><text fill="#000000" font-family="sans-serif" font-size="12" lengthAdjust="spacingAndGlyphs" textLength="145" x="475.5" y="180.5352">DefaultRedirectProcessor</text><line style="stroke: #A80036; stroke-width: 1.5;" x1="447.5" x2="622.5" y1="192" y2="192"/><line style="stroke: #A80036; stroke-width: 1.5;" x1="447.5" x2="622.5" y1="200" y2="200"/><ellipse cx="457.5" cy="211" fill="#84BE84" rx="3" ry="3" style="stroke: #038048; stroke-width: 1.0;"/><text fill="#000000" font-family="sans-serif" font-size="11" lengthAdjust="spacingAndGlyphs" textLength="133" x="466.5" y="214.6348">process(Request): Status</text></a><!--MD5=[3839a56eacbf6f2c731672b0d0bacd7e]
class it.tidalwave.northernwind.core.model.spi.AvailabilityEnforcerRequestProcessor--><a href="AvailabilityEnforcerRequestProcessor.html" target="_top" title="AvailabilityEnforcerRequestProcessor.html" xlink:actuate="onRequest" xlink:href="AvailabilityEnforcerRequestProcessor.html" xlink:show="new" xlink:title="AvailabilityEnforcerRequestProcessor.html" xlink:type="simple"><rect codeLine="17" fill="#FEFECE" filter="url(#ftitwczkq8gjl)" height="60.9551" id="it.tidalwave.northernwind.core.model.spi.AvailabilityEnforcerRequestProcessor" style="stroke: #A80036; stroke-width: 1.5;" width="244" x="659" y="160"/><ellipse cx="674" cy="176" fill="#ADD1B2" rx="11" ry="11" style="stroke: #A80036; stroke-width: 1.0;"/><path d="M676.4731,182.1431 Q675.8921,182.4419 675.2529,182.5913 Q674.6138,182.7407 673.9082,182.7407 Q671.4014,182.7407 670.0815,181.0889 Q668.7617,179.437 668.7617,176.3159 Q668.7617,173.1865 670.0815,171.5347 Q671.4014,169.8828 673.9082,169.8828 Q674.6138,169.8828 675.2612,170.0322 Q675.9087,170.1816 676.4731,170.4805 L676.4731,173.2031 Q675.8423,172.6221 675.2488,172.3523 Q674.6553,172.0825 674.0244,172.0825 Q672.6797,172.0825 671.9949,173.1492 Q671.3101,174.2158 671.3101,176.3159 Q671.3101,178.4077 671.9949,179.4744 Q672.6797,180.541 674.0244,180.541 Q674.6553,180.541 675.2488,180.2712 Q675.8423,180.0015 676.4731,179.4204 Z "/><text fill="#000000" font-family="sans-serif" font-size="12" lengthAdjust="spacingAndGlyphs" textLength="212" x="688" y="180.5352">AvailabilityEnforcerRequestProcessor</text><line style="stroke: #A80036; stroke-width: 1.5;" x1="660" x2="902" y1="192" y2="192"/><line style="stroke: #A80036; stroke-width: 1.5;" x1="660" x2="902" y1="200" y2="200"/><ellipse cx="670" cy="211" fill="#84BE84" rx="3" ry="3" style="stroke: #038048; stroke-width: 1.0;"/><text fill="#000000" font-family="sans-serif" font-size="11" lengthAdjust="spacingAndGlyphs" textLength="133" x="679" y="214.6348">process(Request): Status</text></a><!--MD5=[52200d0f1cb8c365db953ec2a32c5486]
class it.tidalwave.northernwind.core.model.spi.SiteResetterOnFileSystemChange--><a href="SiteResetterOnFileSystemChange.html" target="_top" title="SiteResetterOnFileSystemChange.html" xlink:actuate="onRequest" xlink:href="SiteResetterOnFileSystemChange.html" xlink:show="new" xlink:title="SiteResetterOnFileSystemChange.html" xlink:type="simple"><rect codeLine="21" fill="#FEFECE" filter="url(#ftitwczkq8gjl)" height="48" id="it.tidalwave.northernwind.core.model.spi.SiteResetterOnFileSystemChange" style="stroke: #A80036; stroke-width: 1.5;" width="218" x="1257" y="166.5"/><ellipse cx="1272" cy="182.5" fill="#ADD1B2" rx="11" ry="11" style="stroke: #A80036; stroke-width: 1.0;"/><path d="M1274.4731,188.6431 Q1273.8921,188.9419 1273.2529,189.0913 Q1272.6138,189.2407 1271.9082,189.2407 Q1269.4014,189.2407 1268.0815,187.5889 Q1266.7617,185.937 1266.7617,182.8159 Q1266.7617,179.6865 1268.0815,178.0347 Q1269.4014,176.3828 1271.9082,176.3828 Q1272.6138,176.3828 1273.2612,176.5322 Q1273.9087,176.6816 1274.4731,176.9805 L1274.4731,179.7031 Q1273.8423,179.1221 1273.2488,178.8523 Q1272.6553,178.5825 1272.0244,178.5825 Q1270.6797,178.5825 1269.9949,179.6492 Q1269.3101,180.7158 1269.3101,182.8159 Q1269.3101,184.9077 1269.9949,185.9744 Q1270.6797,187.041 1272.0244,187.041 Q1272.6553,187.041 1273.2488,186.7712 Q1273.8423,186.5015 1274.4731,185.9204 Z "/><text fill="#000000" font-family="sans-serif" font-size="12" lengthAdjust="spacingAndGlyphs" textLength="186" x="1286" y="187.0352">SiteResetterOnFileSystemChange</text><line style="stroke: #A80036; stroke-width: 1.5;" x1="1258" x2="1474" y1="198.5" y2="198.5"/><line style="stroke: #A80036; stroke-width: 1.5;" x1="1258" x2="1474" y1="206.5" y2="206.5"/></a><!--MD5=[758643997da01cad976f8387630ac0c8]
class it.tidalwave.northernwind.core.model.spi.HeaderLanguageOverrideRequestProcessor--><a href="HeaderLanguageOverrideRequestProcessor.html" target="_top" title="HeaderLanguageOverrideRequestProcessor.html" xlink:actuate="onRequest" xlink:href="HeaderLanguageOverrideRequestProcessor.html" xlink:show="new" xlink:title="HeaderLanguageOverrideRequestProcessor.html" xlink:type="simple"><rect codeLine="24" fill="#FEFECE" filter="url(#ftitwczkq8gjl)" height="60.9551" id="it.tidalwave.northernwind.core.model.spi.HeaderLanguageOverrideRequestProcessor" style="stroke: #A80036; stroke-width: 1.5;" width="283" x="938.5" y="160"/><ellipse cx="953.5" cy="176" fill="#ADD1B2" rx="11" ry="11" style="stroke: #A80036; stroke-width: 1.0;"/><path d="M955.9731,182.1431 Q955.3921,182.4419 954.7529,182.5913 Q954.1138,182.7407 953.4082,182.7407 Q950.9014,182.7407 949.5815,181.0889 Q948.2617,179.437 948.2617,176.3159 Q948.2617,173.1865 949.5815,171.5347 Q950.9014,169.8828 953.4082,169.8828 Q954.1138,169.8828 954.7612,170.0322 Q955.4087,170.1816 955.9731,170.4805 L955.9731,173.2031 Q955.3423,172.6221 954.7488,172.3523 Q954.1553,172.0825 953.5244,172.0825 Q952.1797,172.0825 951.4949,173.1492 Q950.8101,174.2158 950.8101,176.3159 Q950.8101,178.4077 951.4949,179.4744 Q952.1797,180.541 953.5244,180.541 Q954.1553,180.541 954.7488,180.2712 Q955.3423,180.0015 955.9731,179.4204 Z "/><text fill="#000000" font-family="sans-serif" font-size="12" lengthAdjust="spacingAndGlyphs" textLength="251" x="967.5" y="180.5352">HeaderLanguageOverrideRequestProcessor</text><line style="stroke: #A80036; stroke-width: 1.5;" x1="939.5" x2="1220.5" y1="192" y2="192"/><line style="stroke: #A80036; stroke-width: 1.5;" x1="939.5" x2="1220.5" y1="200" y2="200"/><ellipse cx="949.5" cy="211" fill="#84BE84" rx="3" ry="3" style="stroke: #038048; stroke-width: 1.0;"/><text fill="#000000" font-family="sans-serif" font-size="11" lengthAdjust="spacingAndGlyphs" textLength="133" x="958.5" y="214.6348">process(Request): Status</text></a><!--MD5=[7a20ad32942a1e6881be05ac2a98b763]
class it.tidalwave.northernwind.core.model.spi.DefaultMediaRequestProcessor--><a href="DefaultMediaRequestProcessor.html" target="_top" title="DefaultMediaRequestProcessor.html" xlink:actuate="onRequest" xlink:href="DefaultMediaRequestProcessor.html" xlink:show="new" xlink:title="DefaultMediaRequestProcessor.html" xlink:type="simple"><rect codeLine="28" fill="#FEFECE" filter="url(#ftitwczkq8gjl)" height="60.9551" id="it.tidalwave.northernwind.core.model.spi.DefaultMediaRequestProcessor" style="stroke: #A80036; stroke-width: 1.5;" width="300" x="1510" y="160"/><ellipse cx="1525" cy="176" fill="#ADD1B2" rx="11" ry="11" style="stroke: #A80036; stroke-width: 1.0;"/><path d="M1527.4731,182.1431 Q1526.8921,182.4419 1526.2529,182.5913 Q1525.6138,182.7407 1524.9082,182.7407 Q1522.4014,182.7407 1521.0815,181.0889 Q1519.7617,179.437 1519.7617,176.3159 Q1519.7617,173.1865 1521.0815,171.5347 Q1522.4014,169.8828 1524.9082,169.8828 Q1525.6138,169.8828 1526.2612,170.0322 Q1526.9087,170.1816 1527.4731,170.4805 L1527.4731,173.2031 Q1526.8423,172.6221 1526.2488,172.3523 Q1525.6553,172.0825 1525.0244,172.0825 Q1523.6797,172.0825 1522.9949,173.1492 Q1522.3101,174.2158 1522.3101,176.3159 Q1522.3101,178.4077 1522.9949,179.4744 Q1523.6797,180.541 1525.0244,180.541 Q1525.6553,180.541 1526.2488,180.2712 Q1526.8423,180.0015 1527.4731,179.4204 Z "/><text fill="#000000" font-family="sans-serif" font-size="12" lengthAdjust="spacingAndGlyphs" textLength="179" x="1539" y="180.5352">DefaultMediaRequestProcessor</text><rect fill="#FFFFFF" height="16.1328" style="stroke: #000000; stroke-width: 1.0; stroke-dasharray: 2.0,2.0;" width="87" x="1726" y="157"/><text fill="#000000" font-family="sans-serif" font-size="12" font-style="italic" lengthAdjust="spacingAndGlyphs" textLength="85" x="1727" y="169.6016">ResponseType</text><line style="stroke: #A80036; stroke-width: 1.5;" x1="1511" x2="1809" y1="192" y2="192"/><line style="stroke: #A80036; stroke-width: 1.5;" x1="1511" x2="1809" y1="200" y2="200"/><ellipse cx="1521" cy="211" fill="#84BE84" rx="3" ry="3" style="stroke: #038048; stroke-width: 1.0;"/><text fill="#000000" font-family="sans-serif" font-size="11" lengthAdjust="spacingAndGlyphs" textLength="133" x="1530" y="214.6348">process(Request): Status</text></a><!--MD5=[12decd794f2bec6e4c4d7754c649134c]
class it.tidalwave.northernwind.core.model.spi.ParameterLanguageOverrideLinkPostProcessor--><a href="ParameterLanguageOverrideLinkPostProcessor.html" target="_top" title="ParameterLanguageOverrideLinkPostProcessor.html" xlink:actuate="onRequest" xlink:href="ParameterLanguageOverrideLinkPostProcessor.html" xlink:show="new" xlink:title="ParameterLanguageOverrideLinkPostProcessor.html" xlink:type="simple"><rect codeLine="32" fill="#FEFECE" filter="url(#ftitwczkq8gjl)" height="73.9102" id="it.tidalwave.northernwind.core.model.spi.ParameterLanguageOverrideLinkPostProcessor" style="stroke: #A80036; stroke-width: 1.5;" width="300" x="24" y="366.5"/><ellipse cx="39" cy="382.5" fill="#ADD1B2" rx="11" ry="11" style="stroke: #A80036; stroke-width: 1.0;"/><path d="M41.4731,388.6431 Q40.8921,388.9419 40.2529,389.0913 Q39.6138,389.2407 38.9082,389.2407 Q36.4014,389.2407 35.0815,387.5889 Q33.7617,385.937 33.7617,382.8159 Q33.7617,379.6865 35.0815,378.0347 Q36.4014,376.3828 38.9082,376.3828 Q39.6138,376.3828 40.2612,376.5322 Q40.9087,376.6816 41.4731,376.9805 L41.4731,379.7031 Q40.8423,379.1221 40.2488,378.8523 Q39.6553,378.5825 39.0244,378.5825 Q37.6797,378.5825 36.9949,379.6492 Q36.3101,380.7158 36.3101,382.8159 Q36.3101,384.9077 36.9949,385.9744 Q37.6797,387.041 39.0244,387.041 Q39.6553,387.041 40.2488,386.7712 Q40.8423,386.5015 41.4731,385.9204 Z "/><text fill="#000000" font-family="sans-serif" font-size="12" lengthAdjust="spacingAndGlyphs" textLength="268" x="53" y="387.0352">ParameterLanguageOverrideLinkPostProcessor</text><line style="stroke: #A80036; stroke-width: 1.5;" x1="25" x2="323" y1="398.5" y2="398.5"/><line style="stroke: #A80036; stroke-width: 1.5;" x1="25" x2="323" y1="406.5" y2="406.5"/><ellipse cx="35" cy="417.5" fill="#84BE84" rx="3" ry="3" style="stroke: #038048; stroke-width: 1.0;"/><text fill="#000000" font-family="sans-serif" font-size="11" lengthAdjust="spacingAndGlyphs" textLength="144" x="44" y="421.1348">postProcess(String): String</text><ellipse cx="35" cy="430.4551" fill="#84BE84" rx="3" ry="3" style="stroke: #038048; stroke-width: 1.0;"/><text fill="#000000" font-family="sans-serif" font-size="11" lengthAdjust="spacingAndGlyphs" textLength="182" x="44" y="434.0898">postProcess(String, String): String</text></a><!--MD5=[a29e324dd3b1e20ead440950f9c0d051]
class it.tidalwave.northernwind.core.model.spi.DefaultContentRequestProcessor--><a href="DefaultContentRequestProcessor.html" target="_top" title="DefaultContentRequestProcessor.html" xlink:actuate="onRequest" xlink:href="DefaultContentRequestProcessor.html" xlink:show="new" xlink:title="DefaultContentRequestProcessor.html" xlink:type="simple"><rect codeLine="37" fill="#FEFECE" filter="url(#ftitwczkq8gjl)" height="60.9551" id="it.tidalwave.northernwind.core.model.spi.DefaultContentRequestProcessor" style="stroke: #A80036; stroke-width: 1.5;" width="220" x="2020" y="160"/><ellipse cx="2035" cy="176" fill="#ADD1B2" rx="11" ry="11" style="stroke: #A80036; stroke-width: 1.0;"/><path d="M2037.4731,182.1431 Q2036.8921,182.4419 2036.2529,182.5913 Q2035.6138,182.7407 2034.9082,182.7407 Q2032.4014,182.7407 2031.0815,181.0889 Q2029.7617,179.437 2029.7617,176.3159 Q2029.7617,173.1865 2031.0815,171.5347 Q2032.4014,169.8828 2034.9082,169.8828 Q2035.6138,169.8828 2036.2612,170.0322 Q2036.9087,170.1816 2037.4731,170.4805 L2037.4731,173.2031 Q2036.8423,172.6221 2036.2488,172.3523 Q2035.6553,172.0825 2035.0244,172.0825 Q2033.6797,172.0825 2032.9949,173.1492 Q2032.3101,174.2158 2032.3101,176.3159 Q2032.3101,178.4077 2032.9949,179.4744 Q2033.6797,180.541 2035.0244,180.541 Q2035.6553,180.541 2036.2488,180.2712 Q2036.8423,180.0015 2037.4731,179.4204 Z "/><text fill="#000000" font-family="sans-serif" font-size="12" lengthAdjust="spacingAndGlyphs" textLength="188" x="2049" y="180.5352">DefaultContentRequestProcessor</text><line style="stroke: #A80036; stroke-width: 1.5;" x1="2021" x2="2239" y1="192" y2="192"/><line style="stroke: #A80036; stroke-width: 1.5;" x1="2021" x2="2239" y1="200" y2="200"/><ellipse cx="2031" cy="211" fill="#84BE84" rx="3" ry="3" style="stroke: #038048; stroke-width: 1.0;"/><text fill="#000000" font-family="sans-serif" font-size="11" lengthAdjust="spacingAndGlyphs" textLength="133" x="2040" y="214.6348">process(Request): Status</text></a><!--MD5=[a43b82c5fe40b442c78467e8f3f1c9ce]
class it.tidalwave.northernwind.core.model.spi.RequestResettable--><rect fill="#FEFECE" filter="url(#ftitwczkq8gjl)" height="48" id="it.tidalwave.northernwind.core.model.spi.RequestResettable" style="stroke: #A80036; stroke-width: 1.5;" width="140" x="1845" y="166.5"/><ellipse cx="1860" cy="182.5" fill="#ADD1B2" rx="11" ry="11" style="stroke: #A80036; stroke-width: 1.0;"/><path d="M1862.4731,188.6431 Q1861.8921,188.9419 1861.2529,189.0913 Q1860.6138,189.2407 1859.9082,189.2407 Q1857.4014,189.2407 1856.0815,187.5889 Q1854.7617,185.937 1854.7617,182.8159 Q1854.7617,179.6865 1856.0815,178.0347 Q1857.4014,176.3828 1859.9082,176.3828 Q1860.6138,176.3828 1861.2612,176.5322 Q1861.9087,176.6816 1862.4731,176.9805 L1862.4731,179.7031 Q1861.8423,179.1221 1861.2488,178.8523 Q1860.6553,178.5825 1860.0244,178.5825 Q1858.6797,178.5825 1857.9949,179.6492 Q1857.3101,180.7158 1857.3101,182.8159 Q1857.3101,184.9077 1857.9949,185.9744 Q1858.6797,187.041 1860.0244,187.041 Q1860.6553,187.041 1861.2488,186.7712 Q1861.8423,186.5015 1862.4731,185.9204 Z "/><text fill="#000000" font-family="sans-serif" font-size="12" lengthAdjust="spacingAndGlyphs" textLength="108" x="1874" y="187.0352">RequestResettable</text><line style="stroke: #A80036; stroke-width: 1.5;" x1="1846" x2="1984" y1="198.5" y2="198.5"/><line style="stroke: #A80036; stroke-width: 1.5;" x1="1846" x2="1984" y1="206.5" y2="206.5"/><!--MD5=[40fa8e8d596728519911a142bf0dc624]
class it.tidalwave.northernwind.core.model.spi.ResponseHolder--><rect fill="#FEFECE" filter="url(#ftitwczkq8gjl)" height="48" id="it.tidalwave.northernwind.core.model.spi.ResponseHolder" style="stroke: #A80036; stroke-width: 1.5;" width="127" x="1596.5" y="379.5"/><ellipse cx="1611.5" cy="395.5" fill="#ADD1B2" rx="11" ry="11" style="stroke: #A80036; stroke-width: 1.0;"/><path d="M1613.9731,401.6431 Q1613.3921,401.9419 1612.7529,402.0913 Q1612.1138,402.2407 1611.4082,402.2407 Q1608.9014,402.2407 1607.5815,400.5889 Q1606.2617,398.937 1606.2617,395.8159 Q1606.2617,392.6865 1607.5815,391.0347 Q1608.9014,389.3828 1611.4082,389.3828 Q1612.1138,389.3828 1612.7612,389.5322 Q1613.4087,389.6816 1613.9731,389.9805 L1613.9731,392.7031 Q1613.3423,392.1221 1612.7488,391.8523 Q1612.1553,391.5825 1611.5244,391.5825 Q1610.1797,391.5825 1609.4949,392.6492 Q1608.8101,393.7158 1608.8101,395.8159 Q1608.8101,397.9077 1609.4949,398.9744 Q1610.1797,400.041 1611.5244,400.041 Q1612.1553,400.041 1612.7488,399.7712 Q1613.3423,399.5015 1613.9731,398.9204 Z "/><text fill="#000000" font-family="sans-serif" font-size="12" lengthAdjust="spacingAndGlyphs" textLength="95" x="1625.5" y="400.0352">ResponseHolder</text><line style="stroke: #A80036; stroke-width: 1.5;" x1="1597.5" x2="1722.5" y1="411.5" y2="411.5"/><line style="stroke: #A80036; stroke-width: 1.5;" x1="1597.5" x2="1722.5" y1="419.5" y2="419.5"/><!--MD5=[47cc8e5d96668fd7fb3d4fbf4a9189ca]
class it.tidalwave.northernwind.core.model.spi.LinkPostProcessor--><rect fill="#FEFECE" filter="url(#ftitwczkq8gjl)" height="48" id="it.tidalwave.northernwind.core.model.spi.LinkPostProcessor" style="stroke: #A80036; stroke-width: 1.5;" width="135" x="24.5" y="166.5"/><ellipse cx="39.5" cy="182.5" fill="#ADD1B2" rx="11" ry="11" style="stroke: #A80036; stroke-width: 1.0;"/><path d="M41.9731,188.6431 Q41.3921,188.9419 40.7529,189.0913 Q40.1138,189.2407 39.4082,189.2407 Q36.9014,189.2407 35.5815,187.5889 Q34.2617,185.937 34.2617,182.8159 Q34.2617,179.6865 35.5815,178.0347 Q36.9014,176.3828 39.4082,176.3828 Q40.1138,176.3828 40.7612,176.5322 Q41.4087,176.6816 41.9731,176.9805 L41.9731,179.7031 Q41.3423,179.1221 40.7488,178.8523 Q40.1553,178.5825 39.5244,178.5825 Q38.1797,178.5825 37.4949,179.6492 Q36.8101,180.7158 36.8101,182.8159 Q36.8101,184.9077 37.4949,185.9744 Q38.1797,187.041 39.5244,187.041 Q40.1553,187.041 40.7488,186.7712 Q41.3423,186.5015 41.9731,185.9204 Z "/><text fill="#000000" font-family="sans-serif" font-size="12" lengthAdjust="spacingAndGlyphs" textLength="103" x="53.5" y="187.0352">LinkPostProcessor</text><line style="stroke: #A80036; stroke-width: 1.5;" x1="25.5" x2="158.5" y1="198.5" y2="198.5"/><line style="stroke: #A80036; stroke-width: 1.5;" x1="25.5" x2="158.5" y1="206.5" y2="206.5"/><!--MD5=[704de6b8ed38b98894edd2778e035021]
class it.tidalwave.northernwind.core.model.RequestProcessor--><rect codeLine="54" fill="#FEFECE" filter="url(#ftitwczkq8gjl)" height="60.9551" id="it.tidalwave.northernwind.core.model.RequestProcessor" style="stroke: #A80036; stroke-width: 1.5;" width="159" x="1000.5" y="33"/><ellipse cx="1026.3" cy="49" fill="#B4A7E5" rx="11" ry="11" style="stroke: #A80036; stroke-width: 1.0;"/><path d="M1022.7277,45.2651 L1022.7277,43.1069 L1030.1071,43.1069 L1030.1071,45.2651 L1027.6418,45.2651 L1027.6418,53.3418 L1030.1071,53.3418 L1030.1071,55.5 L1022.7277,55.5 L1022.7277,53.3418 L1025.1931,53.3418 L1025.1931,45.2651 Z "/><text fill="#000000" font-family="sans-serif" font-size="12" font-style="italic" lengthAdjust="spacingAndGlyphs" textLength="103" x="1042.7" y="53.5352">RequestProcessor</text><line style="stroke: #A80036; stroke-width: 1.5;" x1="1001.5" x2="1158.5" y1="65" y2="65"/><line style="stroke: #A80036; stroke-width: 1.5;" x1="1001.5" x2="1158.5" y1="73" y2="73"/><ellipse cx="1011.5" cy="84" fill="#84BE84" rx="3" ry="3" style="stroke: #038048; stroke-width: 1.0;"/><text fill="#000000" font-family="sans-serif" font-size="11" font-style="italic" lengthAdjust="spacingAndGlyphs" textLength="133" x="1020.5" y="87.6348">process(Request): Status</text><!--MD5=[bf679d0bd4f9278aa700ab4743d8dad6]
reverse link it.tidalwave.northernwind.core.model.RequestProcessor to it.tidalwave.northernwind.core.model.spi.DefaultLibraryRequestProcessor--><path codeLine="41" d="M980.2114,70.2187 C824.2886,81.3804 530.2457,105.2802 429,133 C405.4605,139.4448 380.7799,149.8181 359.5635,159.9916 " fill="none" id="it.tidalwave.northernwind.core.model.RequestProcessor-backto-it.tidalwave.northernwind.core.model.spi.DefaultLibraryRequestProcessor" style="stroke: #A80036; stroke-width: 1.0; stroke-dasharray: 7.0,7.0;"/><polygon fill="none" points="979.9036,63.2231,1000.348,68.7931,980.8923,77.1881,979.9036,63.2231" style="stroke: #A80036; stroke-width: 1.0;"/><!--MD5=[e3dd3b442619d68b7b3420b0a910e2d5]
reverse link it.tidalwave.northernwind.core.model.RequestProcessor to it.tidalwave.northernwind.core.model.spi.ParameterLanguageOverrideRequestProcessor--><path codeLine="42" d="M1180.1944,65.7145 C1458.2036,72.3442 2221.2577,94.0261 2258,133 C2333.4835,213.0682 2195.3086,306.4706 2094.5921,359.9292 " fill="none" id="it.tidalwave.northernwind.core.model.RequestProcessor-backto-it.tidalwave.northernwind.core.model.spi.ParameterLanguageOverrideRequestProcessor" style="stroke: #A80036; stroke-width: 1.0; stroke-dasharray: 7.0,7.0;"/><polygon fill="none" points="1179.6937,72.7048,1159.864,65.236,1180.0232,58.7086,1179.6937,72.7048" style="stroke: #A80036; stroke-width: 1.0;"/><!--MD5=[3ba4012e6a62a94013195233fe424fe4]
reverse link it.tidalwave.northernwind.core.model.spi.RequestResettable to it.tidalwave.northernwind.core.model.spi.ParameterLanguageOverrideRequestProcessor--><path codeLine="43" d="M1932.5801,233.0517 C1947.7427,269.7523 1969.5527,322.5423 1984.8726,359.6235 " fill="none" id="it.tidalwave.northernwind.core.model.spi.RequestResettable-backto-it.tidalwave.northernwind.core.model.spi.ParameterLanguageOverrideRequestProcessor" style="stroke: #A80036; stroke-width: 1.0; stroke-dasharray: 7.0,7.0;"/><polygon fill="none" points="1926.0909,235.6772,1924.9237,214.5198,1939.0301,230.3314,1926.0909,235.6772" style="stroke: #A80036; stroke-width: 1.0;"/><!--MD5=[f263e2fc0bdd14ffd16052cd9f08391b]
reverse link it.tidalwave.northernwind.core.model.RequestProcessor to it.tidalwave.northernwind.core.model.spi.DefaultRedirectProcessor--><path codeLine="44" d="M980.2016,69.7742 C889.9173,77.6737 754.3051,95.1297 642,133 C622.0168,139.7385 601.3186,149.9864 583.5131,159.9737 " fill="none" id="it.tidalwave.northernwind.core.model.RequestProcessor-backto-it.tidalwave.northernwind.core.model.spi.DefaultRedirectProcessor" style="stroke: #A80036; stroke-width: 1.0; stroke-dasharray: 7.0,7.0;"/><polygon fill="none" points="979.6502,62.796,1000.1603,68.1191,980.8072,76.7481,979.6502,62.796" style="stroke: #A80036; stroke-width: 1.0;"/><!--MD5=[a07a6643cd4fab8b4f0ff0c2dcf32787]
reverse link it.tidalwave.northernwind.core.model.RequestProcessor to it.tidalwave.northernwind.core.model.spi.AvailabilityEnforcerRequestProcessor--><path codeLine="45" d="M989.4753,101.9503 C945.707,120.5408 893.9073,142.5427 852.8914,159.9642 " fill="none" id="it.tidalwave.northernwind.core.model.RequestProcessor-backto-it.tidalwave.northernwind.core.model.spi.AvailabilityEnforcerRequestProcessor" style="stroke: #A80036; stroke-width: 1.0; stroke-dasharray: 7.0,7.0;"/><polygon fill="none" points="986.8566,95.4573,1008.0016,94.0813,992.3299,108.3431,986.8566,95.4573" style="stroke: #A80036; stroke-width: 1.0;"/><!--MD5=[9a12bc32fe33c473fcb5320de09ee06e]
reverse link it.tidalwave.northernwind.core.model.RequestProcessor to it.tidalwave.northernwind.core.model.spi.HeaderLanguageOverrideRequestProcessor--><path codeLine="46" d="M1080,114.4479 C1080,129.7333 1080,146.0293 1080,159.5998 " fill="none" id="it.tidalwave.northernwind.core.model.RequestProcessor-backto-it.tidalwave.northernwind.core.model.spi.HeaderLanguageOverrideRequestProcessor" style="stroke: #A80036; stroke-width: 1.0; stroke-dasharray: 7.0,7.0;"/><polygon fill="none" points="1073.0001,114.2432,1080,94.2432,1087.0001,114.2431,1073.0001,114.2432" style="stroke: #A80036; stroke-width: 1.0;"/><!--MD5=[cd136abd8d5c963ad97af7c1754b8757]
reverse link it.tidalwave.northernwind.core.model.RequestProcessor to it.tidalwave.northernwind.core.model.spi.DefaultMediaRequestProcessor--><path codeLine="47" d="M1179.6053,75.5712 C1263.8573,86.8954 1387.3803,106.1255 1493,133 C1521.8251,140.3344 1552.7824,150.366 1580.1176,159.9978 " fill="none" id="it.tidalwave.northernwind.core.model.RequestProcessor-backto-it.tidalwave.northernwind.core.model.spi.DefaultMediaRequestProcessor" style="stroke: #A80036; stroke-width: 1.0; stroke-dasharray: 7.0,7.0;"/><polygon fill="none" points="1178.5104,82.4875,1159.5979,72.9314,1180.3417,68.6077,1178.5104,82.4875" style="stroke: #A80036; stroke-width: 1.0;"/><!--MD5=[4467c7d46d93a52c63cc64aa0bd1216e]
link it.tidalwave.northernwind.core.model.spi.DefaultMediaRequestProcessor to it.tidalwave.northernwind.core.model.spi.ResponseHolder--><path codeLine="48" d="M1660,221.0177 C1660,261.8608 1660,333.8135 1660,374.0867 " fill="none" id="it.tidalwave.northernwind.core.model.spi.DefaultMediaRequestProcessor-to-it.tidalwave.northernwind.core.model.spi.ResponseHolder" style="stroke: #A80036; stroke-width: 1.0;"/><polygon fill="#A80036" points="1660,379.314,1664,370.314,1660,374.314,1656,370.314,1660,379.314" style="stroke: #A80036; stroke-width: 1.0;"/><text fill="#000000" font-family="sans-serif" font-size="13" lengthAdjust="spacingAndGlyphs" textLength="99" x="1661" y="295.5684">responseHolder</text><!--MD5=[95a40583fdcf378de77f46718e6e00c0]
reverse link it.tidalwave.northernwind.core.model.spi.LinkPostProcessor to it.tidalwave.northernwind.core.model.spi.ParameterLanguageOverrideLinkPostProcessor--><path codeLine="49" d="M108.4848,233.3203 C123.4925,272.3037 145.4255,329.2761 159.7064,366.3716 " fill="none" id="it.tidalwave.northernwind.core.model.spi.LinkPostProcessor-backto-it.tidalwave.northernwind.core.model.spi.ParameterLanguageOverrideLinkPostProcessor" style="stroke: #A80036; stroke-width: 1.0; stroke-dasharray: 7.0,7.0;"/><polygon fill="none" points="101.8999,235.6994,101.247,214.5198,114.9652,230.6695,101.8999,235.6994" style="stroke: #A80036; stroke-width: 1.0;"/><!--MD5=[4c56b93653b554ff3373274e0d0ae2ef]
reverse link it.tidalwave.northernwind.core.model.RequestProcessor to it.tidalwave.northernwind.core.model.spi.DefaultContentRequestProcessor--><path codeLine="50" d="M1180.0898,66.6309 C1385.8015,73.7855 1849.6522,93.8194 2003,133 C2027.0361,139.1413 2052.1843,149.5827 2073.7007,159.8963 " fill="none" id="it.tidalwave.northernwind.core.model.RequestProcessor-backto-it.tidalwave.northernwind.core.model.spi.DefaultContentRequestProcessor" style="stroke: #A80036; stroke-width: 1.0; stroke-dasharray: 7.0,7.0;"/><polygon fill="none" points="1179.5811,73.6177,1159.8317,65.9391,1180.059,59.6259,1179.5811,73.6177" style="stroke: #A80036; stroke-width: 1.0;"/><text fill="#888888" font-family="sans-serif" font-size="10" lengthAdjust="spacingAndGlyphs" textLength="188" x="1069.7418" y="470.668">UMLDoclet 2.0.12, PlantUML 1.2020.16</text><!--MD5=[10fd08aaf3fb0b3349cc4a1c0d3ebf2e]
@startuml
    namespace it.tidalwave.northernwind.core.model.spi {

        class DefaultLibraryRequestProcessor [[DefaultLibraryRequestProcessor.html]] {
            +process(Request): Status
        }

        class ParameterLanguageOverrideRequestProcessor [[ParameterLanguageOverrideRequestProcessor.html]] {
            +process(Request): Status
            +getParameterValue(): Optional<String>
            +requestReset(): void
        }

        class DefaultRedirectProcessor [[DefaultRedirectProcessor.html]] {
            +process(Request): Status
        }

        class AvailabilityEnforcerRequestProcessor [[AvailabilityEnforcerRequestProcessor.html]] {
            +process(Request): Status
        }

        class SiteResetterOnFileSystemChange [[SiteResetterOnFileSystemChange.html]] {
        }

        class HeaderLanguageOverrideRequestProcessor [[HeaderLanguageOverrideRequestProcessor.html]] {
            +process(Request): Status
        }

        class DefaultMediaRequestProcessor<ResponseType> [[DefaultMediaRequestProcessor.html]] {
            +process(Request): Status
        }

        class ParameterLanguageOverrideLinkPostProcessor [[ParameterLanguageOverrideLinkPostProcessor.html]] {
            +postProcess(String): String
            +postProcess(String, String): String
        }

        class DefaultContentRequestProcessor [[DefaultContentRequestProcessor.html]] {
            +process(Request): Status
        }

        it.tidalwave.northernwind.core.model.RequestProcessor <|.. DefaultLibraryRequestProcessor
        it.tidalwave.northernwind.core.model.RequestProcessor <|.. ParameterLanguageOverrideRequestProcessor
        RequestResettable <|.. ParameterLanguageOverrideRequestProcessor
        it.tidalwave.northernwind.core.model.RequestProcessor <|.. DefaultRedirectProcessor
        it.tidalwave.northernwind.core.model.RequestProcessor <|.. AvailabilityEnforcerRequestProcessor
        it.tidalwave.northernwind.core.model.RequestProcessor <|.. HeaderLanguageOverrideRequestProcessor
        it.tidalwave.northernwind.core.model.RequestProcessor <|.. DefaultMediaRequestProcessor
        DefaultMediaRequestProcessor - -> ResponseHolder: responseHolder
        LinkPostProcessor <|.. ParameterLanguageOverrideLinkPostProcessor
        it.tidalwave.northernwind.core.model.RequestProcessor <|.. DefaultContentRequestProcessor
    }

    namespace it.tidalwave.northernwind.core.model {
        interface RequestProcessor {
            {abstract} +process(Request): Status
        }
    }

    center footer UMLDoclet 2.0.12, PlantUML 1.2020.16
@enduml

PlantUML version 1.2020.16(Sun Aug 23 22:20:43 CEST 2020)
(APACHE source distribution)
Java Runtime: OpenJDK Runtime Environment
JVM: OpenJDK 64-Bit Server VM
Default Encoding: UTF-8
Language: en
Country: GB
--></g></svg>