<?xml version="1.0" encoding="UTF-8" standalone="no"?><svg xmlns="http://www.w3.org/2000/svg" xmlns:xlink="http://www.w3.org/1999/xlink" contentScriptType="application/ecmascript" contentStyleType="text/css" height="388px" preserveAspectRatio="none" style="width:1726px;height:388px;" version="1.1" viewBox="0 0 1726 388" width="1726px" zoomAndPan="magnify"><defs><filter height="300%" id="fp07nzdu6qvhc" width="300%" x="-1" y="-1"><feGaussianBlur result="blurOut" stdDeviation="2.0"/><feColorMatrix in="blurOut" result="blurOut2" type="matrix" values="0 0 0 0 0 0 0 0 0 0 0 0 0 0 0 0 0 0 .4 0"/><feOffset dx="4.0" dy="4.0" in="blurOut2" result="blurOut3"/><feBlend in="SourceGraphic" in2="blurOut3" mode="normal"/></filter></defs><g><!--MD5=[a70ee3ac80eee6dd29f137b5d9529290]
cluster it.tidalwave.northernwind.frontend.ui.spi--><polygon fill="#FFFFFF" filter="url(#fp07nzdu6qvhc)" points="16,198,312,198,319,220.4883,1632,220.4883,1632,359,16,359,16,198" style="stroke: #000000; stroke-width: 1.5;"/><line style="stroke: #000000; stroke-width: 1.5;" x1="16" x2="319" y1="220.4883" y2="220.4883"/><text fill="#000000" font-family="sans-serif" font-size="14" font-weight="bold" lengthAdjust="spacingAndGlyphs" textLength="290" x="20" y="213.5352">it.tidalwave.northernwind.frontend.ui.spi</text><!--MD5=[60b45cd5b5ff4aa4048d68cb57ef70a5]
cluster it.tidalwave.role.Composite--><polygon fill="#FFFFFF" filter="url(#fp07nzdu6qvhc)" points="331,19,532,19,539,41.4883,542,41.4883,542,154,331,154,331,19" style="stroke: #000000; stroke-width: 1.5;"/><line style="stroke: #000000; stroke-width: 1.5;" x1="331" x2="539" y1="41.4883" y2="41.4883"/><text fill="#000000" font-family="sans-serif" font-size="14" font-weight="bold" lengthAdjust="spacingAndGlyphs" textLength="195" x="335" y="34.5352">it.tidalwave.role.Composite</text><!--MD5=[739e9bb822fe15eb97bc3207575fcd8d]
cluster it.tidalwave.northernwind.core.model--><polygon fill="#FFFFFF" filter="url(#fp07nzdu6qvhc)" points="1131,6,1401,6,1408,28.4883,1411,28.4883,1411,167,1131,167,1131,6" style="stroke: #000000; stroke-width: 1.5;"/><line style="stroke: #000000; stroke-width: 1.5;" x1="1131" x2="1408" y1="28.4883" y2="28.4883"/><text fill="#000000" font-family="sans-serif" font-size="14" font-weight="bold" lengthAdjust="spacingAndGlyphs" textLength="264" x="1135" y="21.5352">it.tidalwave.northernwind.core.model</text><!--MD5=[90c2144f63705a3044483f7c3d43505d]
cluster it.tidalwave.northernwind.frontend.ui--><polygon fill="#FFFFFF" filter="url(#fp07nzdu6qvhc)" points="1423,12.5,1694,12.5,1701,34.9883,1704,34.9883,1704,160.5,1423,160.5,1423,12.5" style="stroke: #000000; stroke-width: 1.5;"/><line style="stroke: #000000; stroke-width: 1.5;" x1="1423" x2="1701" y1="34.9883" y2="34.9883"/><text fill="#000000" font-family="sans-serif" font-size="14" font-weight="bold" lengthAdjust="spacingAndGlyphs" textLength="265" x="1427" y="28.0352">it.tidalwave.northernwind.frontend.ui</text><!--MD5=[4309f9841cf9fc2cf337b1e548886f2e]
class it.tidalwave.northernwind.frontend.ui.spi.ViewAndControllerLayoutBuilder--><a href="ViewAndControllerLayoutBuilder.html" target="_top" title="ViewAndControllerLayoutBuilder.html" xlink:actuate="onRequest" xlink:href="ViewAndControllerLayoutBuilder.html" xlink:show="new" xlink:title="ViewAndControllerLayoutBuilder.html" xlink:type="simple"><rect codeLine="3" fill="#FEFECE" filter="url(#fp07nzdu6qvhc)" height="73.9102" id="it.tidalwave.northernwind.frontend.ui.spi.ViewAndControllerLayoutBuilder" style="stroke: #A80036; stroke-width: 1.5;" width="377" x="24.5" y="251"/><ellipse cx="117.25" cy="267" fill="#ADD1B2" rx="11" ry="11" style="stroke: #A80036; stroke-width: 1.0;"/><path d="M119.7231,273.1431 Q119.1421,273.4419 118.5029,273.5913 Q117.8638,273.7407 117.1582,273.7407 Q114.6514,273.7407 113.3315,272.0889 Q112.0117,270.437 112.0117,267.3159 Q112.0117,264.1865 113.3315,262.5347 Q114.6514,260.8828 117.1582,260.8828 Q117.8638,260.8828 118.5112,261.0322 Q119.1587,261.1816 119.7231,261.4805 L119.7231,264.2031 Q119.0923,263.6221 118.4988,263.3523 Q117.9053,263.0825 117.2744,263.0825 Q115.9297,263.0825 115.2449,264.1492 Q114.5601,265.2158 114.5601,267.3159 Q114.5601,269.4077 115.2449,270.4744 Q115.9297,271.541 117.2744,271.541 Q117.9053,271.541 118.4988,271.2712 Q119.0923,271.0015 119.7231,270.4204 Z "/><text fill="#000000" font-family="sans-serif" font-size="12" lengthAdjust="spacingAndGlyphs" textLength="183" x="137.75" y="271.5352">ViewAndControllerLayoutBuilder</text><line style="stroke: #A80036; stroke-width: 1.5;" x1="25.5" x2="400.5" y1="283" y2="283"/><line style="stroke: #A80036; stroke-width: 1.5;" x1="25.5" x2="400.5" y1="291" y2="291"/><ellipse cx="35.5" cy="302" fill="#84BE84" rx="3" ry="3" style="stroke: #038048; stroke-width: 1.0;"/><text fill="#000000" font-family="sans-serif" font-size="11" lengthAdjust="spacingAndGlyphs" textLength="95" x="44.5" y="305.6348">visit(Layout): void</text><ellipse cx="35.5" cy="314.9551" fill="#84BE84" rx="3" ry="3" style="stroke: #038048; stroke-width: 1.0;"/><text fill="#000000" font-family="sans-serif" font-size="11" lengthAdjust="spacingAndGlyphs" textLength="351" x="44.5" y="318.5898">getViewAndControllerFor(Layout): Optional&lt;ViewAndController&gt;</text></a><!--MD5=[4192c39f8b1f990e1faa0800b547829d]
class it.tidalwave.northernwind.frontend.ui.spi.VirtualSiteNode--><a href="VirtualSiteNode.html" target="_top" title="VirtualSiteNode.html" xlink:actuate="onRequest" xlink:href="VirtualSiteNode.html" xlink:show="new" xlink:title="VirtualSiteNode.html" xlink:type="simple"><rect codeLine="8" fill="#FEFECE" filter="url(#fp07nzdu6qvhc)" height="125.7305" id="it.tidalwave.northernwind.frontend.ui.spi.VirtualSiteNode" style="stroke: #A80036; stroke-width: 1.5;" width="252" x="1178" y="225"/><ellipse cx="1255.75" cy="241" fill="#ADD1B2" rx="11" ry="11" style="stroke: #A80036; stroke-width: 1.0;"/><path d="M1258.2231,247.1431 Q1257.6421,247.4419 1257.0029,247.5913 Q1256.3638,247.7407 1255.6582,247.7407 Q1253.1514,247.7407 1251.8315,246.0889 Q1250.5117,244.437 1250.5117,241.3159 Q1250.5117,238.1865 1251.8315,236.5347 Q1253.1514,234.8828 1255.6582,234.8828 Q1256.3638,234.8828 1257.0112,235.0322 Q1257.6587,235.1816 1258.2231,235.4805 L1258.2231,238.2031 Q1257.5923,237.6221 1256.9988,237.3523 Q1256.4053,237.0825 1255.7744,237.0825 Q1254.4297,237.0825 1253.7449,238.1492 Q1253.0601,239.2158 1253.0601,241.3159 Q1253.0601,243.4077 1253.7449,244.4744 Q1254.4297,245.541 1255.7744,245.541 Q1256.4053,245.541 1256.9988,245.2712 Q1257.5923,245.0015 1258.2231,244.4204 Z "/><text fill="#000000" font-family="sans-serif" font-size="12" lengthAdjust="spacingAndGlyphs" textLength="88" x="1276.25" y="245.5352">VirtualSiteNode</text><line style="stroke: #A80036; stroke-width: 1.5;" x1="1179" x2="1429" y1="257" y2="257"/><line style="stroke: #A80036; stroke-width: 1.5;" x1="1179" x2="1429" y1="265" y2="265"/><ellipse cx="1189" cy="276" fill="#84BE84" rx="3" ry="3" style="stroke: #038048; stroke-width: 1.0;"/><text fill="#000000" font-family="sans-serif" font-size="11" lengthAdjust="spacingAndGlyphs" textLength="69" x="1198" y="279.6348">getSite(): Site</text><ellipse cx="1189" cy="288.9551" fill="#84BE84" rx="3" ry="3" style="stroke: #038048; stroke-width: 1.0;"/><text fill="#000000" font-family="sans-serif" font-size="11" lengthAdjust="spacingAndGlyphs" textLength="103" x="1198" y="292.5898">getLayout(): Layout</text><ellipse cx="1189" cy="301.9102" fill="#84BE84" rx="3" ry="3" style="stroke: #038048; stroke-width: 1.0;"/><text fill="#000000" font-family="sans-serif" font-size="11" lengthAdjust="spacingAndGlyphs" textLength="117" x="1198" y="305.5449">getFile(): ResourceFile</text><ellipse cx="1189" cy="314.8652" fill="#84BE84" rx="3" ry="3" style="stroke: #038048; stroke-width: 1.0;"/><text fill="#000000" font-family="sans-serif" font-size="11" lengthAdjust="spacingAndGlyphs" textLength="226" x="1198" y="318.5">getPropertyGroup(Id): ResourceProperties</text><ellipse cx="1189" cy="327.8203" fill="#84BE84" rx="3" ry="3" style="stroke: #038048; stroke-width: 1.0;"/><text fill="#000000" font-family="sans-serif" font-size="11" lengthAdjust="spacingAndGlyphs" textLength="129" x="1198" y="331.4551">isPlaceHolder(): boolean</text><ellipse cx="1189" cy="340.7754" fill="#84BE84" rx="3" ry="3" style="stroke: #038048; stroke-width: 1.0;"/><text fill="#000000" font-family="sans-serif" font-size="11" lengthAdjust="spacingAndGlyphs" textLength="180" x="1198" y="344.4102">findChildren(): Finder&lt;SiteNode&gt;</text></a><!--MD5=[8bae9c5db476746114b52e8cb58d9089]
class it.tidalwave.northernwind.frontend.ui.spi.NodeViewRenderer--><a href="NodeViewRenderer.html" target="_top" title="NodeViewRenderer.html" xlink:actuate="onRequest" xlink:href="NodeViewRenderer.html" xlink:show="new" xlink:title="NodeViewRenderer.html" xlink:type="simple"><rect codeLine="17" fill="#FEFECE" filter="url(#fp07nzdu6qvhc)" height="86.8652" id="it.tidalwave.northernwind.frontend.ui.spi.NodeViewRenderer" style="stroke: #A80036; stroke-width: 1.5;" width="643" x="499.5" y="244.5"/><ellipse cx="754.75" cy="260.5" fill="#ADD1B2" rx="11" ry="11" style="stroke: #A80036; stroke-width: 1.0;"/><path d="M757.2231,266.6431 Q756.6421,266.9419 756.0029,267.0913 Q755.3638,267.2407 754.6582,267.2407 Q752.1514,267.2407 750.8315,265.5889 Q749.5117,263.937 749.5117,260.8159 Q749.5117,257.6865 750.8315,256.0347 Q752.1514,254.3828 754.6582,254.3828 Q755.3638,254.3828 756.0112,254.5322 Q756.6587,254.6816 757.2231,254.9805 L757.2231,257.7031 Q756.5923,257.1221 755.9988,256.8523 Q755.4053,256.5825 754.7744,256.5825 Q753.4297,256.5825 752.7449,257.6492 Q752.0601,258.7158 752.0601,260.8159 Q752.0601,262.9077 752.7449,263.9744 Q753.4297,265.041 754.7744,265.041 Q755.4053,265.041 755.9988,264.7712 Q756.5923,264.5015 757.2231,263.9204 Z "/><text fill="#000000" font-family="sans-serif" font-size="12" lengthAdjust="spacingAndGlyphs" textLength="112" x="775.25" y="265.0352">NodeViewRenderer</text><rect fill="#FFFFFF" height="16.1328" style="stroke: #000000; stroke-width: 1.0; stroke-dasharray: 2.0,2.0;" width="10" x="1135.5" y="241.5"/><text fill="#000000" font-family="sans-serif" font-size="12" font-style="italic" lengthAdjust="spacingAndGlyphs" textLength="8" x="1136.5" y="254.1016">T</text><line style="stroke: #A80036; stroke-width: 1.5;" x1="500.5" x2="1141.5" y1="276.5" y2="276.5"/><line style="stroke: #A80036; stroke-width: 1.5;" x1="500.5" x2="1141.5" y1="284.5" y2="284.5"/><ellipse cx="510.5" cy="295.5" fill="#84BE84" rx="3" ry="3" style="stroke: #038048; stroke-width: 1.0;"/><text fill="#000000" font-family="sans-serif" font-size="11" lengthAdjust="spacingAndGlyphs" textLength="617" x="519.5" y="299.1348">NodeViewRenderer(Request, RequestContext, ViewAndControllerLayoutBuilder, BiConsumer&lt;? super T, ? super T&gt;)</text><ellipse cx="510.5" cy="308.4551" fill="#84BE84" rx="3" ry="3" style="stroke: #038048; stroke-width: 1.0;"/><text fill="#000000" font-family="sans-serif" font-size="11" lengthAdjust="spacingAndGlyphs" textLength="114" x="519.5" y="312.0898">preVisit(Layout): void</text><ellipse cx="510.5" cy="321.4102" fill="#84BE84" rx="3" ry="3" style="stroke: #038048; stroke-width: 1.0;"/><text fill="#000000" font-family="sans-serif" font-size="11" lengthAdjust="spacingAndGlyphs" textLength="120" x="519.5" y="325.0449">postVisit(Layout): void</text></a><!--MD5=[f0030b94b93e428b59aaff5f631ac5a3]
class it.tidalwave.northernwind.frontend.ui.spi.DefaultRenderContext--><a href="DefaultRenderContext.html" target="_top" title="DefaultRenderContext.html" xlink:actuate="onRequest" xlink:href="DefaultRenderContext.html" xlink:show="new" xlink:title="DefaultRenderContext.html" xlink:type="simple"><rect codeLine="23" fill="#FEFECE" filter="url(#fp07nzdu6qvhc)" height="48" id="it.tidalwave.northernwind.frontend.ui.spi.DefaultRenderContext" style="stroke: #A80036; stroke-width: 1.5;" width="159" x="1465.5" y="264"/><ellipse cx="1480.5" cy="280" fill="#ADD1B2" rx="11" ry="11" style="stroke: #A80036; stroke-width: 1.0;"/><path d="M1482.9731,286.1431 Q1482.3921,286.4419 1481.7529,286.5913 Q1481.1138,286.7407 1480.4082,286.7407 Q1477.9014,286.7407 1476.5815,285.0889 Q1475.2617,283.437 1475.2617,280.3159 Q1475.2617,277.1865 1476.5815,275.5347 Q1477.9014,273.8828 1480.4082,273.8828 Q1481.1138,273.8828 1481.7612,274.0322 Q1482.4087,274.1816 1482.9731,274.4805 L1482.9731,277.2031 Q1482.3423,276.6221 1481.7488,276.3523 Q1481.1553,276.0825 1480.5244,276.0825 Q1479.1797,276.0825 1478.4949,277.1492 Q1477.8101,278.2158 1477.8101,280.3159 Q1477.8101,282.4077 1478.4949,283.4744 Q1479.1797,284.541 1480.5244,284.541 Q1481.1553,284.541 1481.7488,284.2712 Q1482.3423,284.0015 1482.9731,283.4204 Z "/><text fill="#000000" font-family="sans-serif" font-size="12" lengthAdjust="spacingAndGlyphs" textLength="127" x="1494.5" y="284.5352">DefaultRenderContext</text><line style="stroke: #A80036; stroke-width: 1.5;" x1="1466.5" x2="1623.5" y1="296" y2="296"/><line style="stroke: #A80036; stroke-width: 1.5;" x1="1466.5" x2="1623.5" y1="304" y2="304"/></a><!--MD5=[96fda046302279efd0df60a539f9f1f0]
class it.tidalwave.role.Composite.Visitor--><rect codeLine="34" fill="#FEFECE" filter="url(#fp07nzdu6qvhc)" height="99.8203" id="it.tidalwave.role.Composite.Visitor" style="stroke: #A80036; stroke-width: 1.5;" width="157" x="367.5" y="46"/><ellipse cx="409.95" cy="62" fill="#B4A7E5" rx="11" ry="11" style="stroke: #A80036; stroke-width: 1.0;"/><path d="M406.3777,58.2651 L406.3777,56.1069 L413.7571,56.1069 L413.7571,58.2651 L411.2918,58.2651 L411.2918,66.3418 L413.7571,66.3418 L413.7571,68.5 L406.3777,68.5 L406.3777,66.3418 L408.8431,66.3418 L408.8431,58.2651 Z "/><text fill="#000000" font-family="sans-serif" font-size="12" font-style="italic" lengthAdjust="spacingAndGlyphs" textLength="36" x="430.05" y="66.5352">Visitor</text><rect fill="#FFFFFF" height="16.1328" style="stroke: #000000; stroke-width: 1.0; stroke-dasharray: 2.0,2.0;" width="26" x="501.5" y="43"/><text fill="#000000" font-family="sans-serif" font-size="12" font-style="italic" lengthAdjust="spacingAndGlyphs" textLength="24" x="502.5" y="55.6016">T, R</text><line style="stroke: #A80036; stroke-width: 1.5;" x1="368.5" x2="523.5" y1="78" y2="78"/><line style="stroke: #A80036; stroke-width: 1.5;" x1="368.5" x2="523.5" y1="86" y2="86"/><ellipse cx="378.5" cy="97" fill="#84BE84" rx="3" ry="3" style="stroke: #038048; stroke-width: 1.0;"/><text fill="#000000" font-family="sans-serif" font-size="11" lengthAdjust="spacingAndGlyphs" textLength="85" x="387.5" y="100.6348">preVisit(T): void</text><ellipse cx="378.5" cy="109.9551" fill="#84BE84" rx="3" ry="3" style="stroke: #038048; stroke-width: 1.0;"/><text fill="#000000" font-family="sans-serif" font-size="11" lengthAdjust="spacingAndGlyphs" textLength="66" x="387.5" y="113.5898">visit(T): void</text><ellipse cx="378.5" cy="122.9102" fill="#84BE84" rx="3" ry="3" style="stroke: #038048; stroke-width: 1.0;"/><text fill="#000000" font-family="sans-serif" font-size="11" lengthAdjust="spacingAndGlyphs" textLength="91" x="387.5" y="126.5449">postVisit(T): void</text><ellipse cx="378.5" cy="135.8652" fill="#84BE84" rx="3" ry="3" style="stroke: #038048; stroke-width: 1.0;"/><text fill="#000000" font-family="sans-serif" font-size="11" lengthAdjust="spacingAndGlyphs" textLength="131" x="387.5" y="139.5">getValue(): Optional&lt;R&gt;</text><!--MD5=[9353c56aec044b035235af0105a34174]
class it.tidalwave.northernwind.core.model.SiteNode--><a href="../../../core/model/SiteNode.html" target="_top" title="../../../core/model/SiteNode.html" xlink:actuate="onRequest" xlink:href="../../../core/model/SiteNode.html" xlink:show="new" xlink:title="../../../core/model/SiteNode.html" xlink:type="simple"><rect codeLine="43" fill="#FEFECE" filter="url(#fp07nzdu6qvhc)" height="125.7305" id="it.tidalwave.northernwind.core.model.SiteNode" style="stroke: #A80036; stroke-width: 1.5;" width="261" x="1140.5" y="33"/><ellipse cx="1241.25" cy="49" fill="#B4A7E5" rx="11" ry="11" style="stroke: #A80036; stroke-width: 1.0;"/><path d="M1237.6777,45.2651 L1237.6777,43.1069 L1245.0571,43.1069 L1245.0571,45.2651 L1242.5918,45.2651 L1242.5918,53.3418 L1245.0571,53.3418 L1245.0571,55.5 L1237.6777,55.5 L1237.6777,53.3418 L1240.1431,53.3418 L1240.1431,45.2651 Z "/><text fill="#000000" font-family="sans-serif" font-size="12" font-style="italic" lengthAdjust="spacingAndGlyphs" textLength="51" x="1261.75" y="53.5352">SiteNode</text><line style="stroke: #A80036; stroke-width: 1.5;" x1="1141.5" x2="1400.5" y1="65" y2="65"/><ellipse cx="1151.5" cy="76" fill="none" rx="3" ry="3" style="stroke: #038048; stroke-width: 1.0;"/><text fill="#000000" font-family="sans-serif" font-size="11" lengthAdjust="spacingAndGlyphs" text-decoration="underline" textLength="159" x="1160.5" y="79.6348">_SiteNode_: Class&lt;SiteNode&gt;</text><ellipse cx="1151.5" cy="88.9551" fill="none" rx="3" ry="3" style="stroke: #038048; stroke-width: 1.0;"/><text fill="#000000" font-family="sans-serif" font-size="11" lengthAdjust="spacingAndGlyphs" text-decoration="underline" textLength="194" x="1160.5" y="92.5898">P_NAVIGATION_LABEL: Key&lt;String&gt;</text><ellipse cx="1151.5" cy="101.9102" fill="none" rx="3" ry="3" style="stroke: #038048; stroke-width: 1.0;"/><text fill="#000000" font-family="sans-serif" font-size="11" lengthAdjust="spacingAndGlyphs" text-decoration="underline" textLength="235" x="1160.5" y="105.5449">P_MANAGES_PATH_PARAMS: Key&lt;Boolean&gt;</text><line style="stroke: #A80036; stroke-width: 1.5;" x1="1141.5" x2="1400.5" y1="111.8652" y2="111.8652"/><ellipse cx="1151.5" cy="122.8652" fill="#84BE84" rx="3" ry="3" style="stroke: #038048; stroke-width: 1.0;"/><text fill="#000000" font-family="sans-serif" font-size="11" font-style="italic" lengthAdjust="spacingAndGlyphs" textLength="69" x="1160.5" y="126.5">getSite(): Site</text><ellipse cx="1151.5" cy="135.8203" fill="#84BE84" rx="3" ry="3" style="stroke: #038048; stroke-width: 1.0;"/><text fill="#000000" font-family="sans-serif" font-size="11" font-style="italic" lengthAdjust="spacingAndGlyphs" textLength="103" x="1160.5" y="139.4551">getLayout(): Layout</text><ellipse cx="1151.5" cy="148.7754" fill="#84BE84" rx="3" ry="3" style="stroke: #038048; stroke-width: 1.0;"/><text fill="#000000" font-family="sans-serif" font-size="11" font-style="italic" lengthAdjust="spacingAndGlyphs" textLength="161" x="1160.5" y="152.4102">getRelativeUri(): ResourcePath</text></a><!--MD5=[daa72ce8d1c746de5fc9e51335728674]
class it.tidalwave.northernwind.frontend.ui.RenderContext--><a href="../RenderContext.html" target="_top" title="../RenderContext.html" xlink:actuate="onRequest" xlink:href="../RenderContext.html" xlink:show="new" xlink:title="../RenderContext.html" xlink:type="simple"><rect codeLine="54" fill="#FEFECE" filter="url(#fp07nzdu6qvhc)" height="112.7754" id="it.tidalwave.northernwind.frontend.ui.RenderContext" style="stroke: #A80036; stroke-width: 1.5;" width="256" x="1437" y="39.5"/><ellipse cx="1517.75" cy="55.5" fill="#B4A7E5" rx="11" ry="11" style="stroke: #A80036; stroke-width: 1.0;"/><path d="M1514.1777,51.7651 L1514.1777,49.6069 L1521.5571,49.6069 L1521.5571,51.7651 L1519.0918,51.7651 L1519.0918,59.8418 L1521.5571,59.8418 L1521.5571,62 L1514.1777,62 L1514.1777,59.8418 L1516.6431,59.8418 L1516.6431,51.7651 Z "/><text fill="#000000" font-family="sans-serif" font-size="12" font-style="italic" lengthAdjust="spacingAndGlyphs" textLength="86" x="1538.25" y="60.0352">RenderContext</text><line style="stroke: #A80036; stroke-width: 1.5;" x1="1438" x2="1692" y1="71.5" y2="71.5"/><line style="stroke: #A80036; stroke-width: 1.5;" x1="1438" x2="1692" y1="79.5" y2="79.5"/><ellipse cx="1448" cy="90.5" fill="#84BE84" rx="3" ry="3" style="stroke: #038048; stroke-width: 1.0;"/><text fill="#000000" font-family="sans-serif" font-size="11" font-style="italic" lengthAdjust="spacingAndGlyphs" textLength="117" x="1457" y="94.1348">getRequest(): Request</text><ellipse cx="1448" cy="103.4551" fill="#84BE84" rx="3" ry="3" style="stroke: #038048; stroke-width: 1.0;"/><text fill="#000000" font-family="sans-serif" font-size="11" font-style="italic" lengthAdjust="spacingAndGlyphs" textLength="203" x="1457" y="107.0898">getRequestContext(): RequestContext</text><ellipse cx="1448" cy="116.4102" fill="#84BE84" rx="3" ry="3" style="stroke: #038048; stroke-width: 1.0;"/><text fill="#000000" font-family="sans-serif" font-size="11" lengthAdjust="spacingAndGlyphs" textLength="230" x="1457" y="120.0449">setDynamicNodeProperty(Key&lt;T&gt;, T): void</text><ellipse cx="1448" cy="129.3652" fill="#84BE84" rx="3" ry="3" style="stroke: #038048; stroke-width: 1.0;"/><text fill="#000000" font-family="sans-serif" font-size="11" lengthAdjust="spacingAndGlyphs" textLength="225" x="1457" y="133">getQueryParam(String): Optional&lt;String&gt;</text><ellipse cx="1448" cy="142.3203" fill="#84BE84" rx="3" ry="3" style="stroke: #038048; stroke-width: 1.0;"/><text fill="#000000" font-family="sans-serif" font-size="11" lengthAdjust="spacingAndGlyphs" textLength="213" x="1457" y="145.9551">getPathParams(SiteNode): ResourcePath</text></a><polygon fill="#FFFFFF" filter="url(#fp07nzdu6qvhc)" points="189,69.5,309,69.5,316,91.9883,323,91.9883,323,122.4766,189,122.4766,189,69.5" style="stroke: #000000; stroke-width: 1.5;"/><line style="stroke: #000000; stroke-width: 1.5;" x1="189" x2="316" y1="91.9883" y2="91.9883"/><text fill="#000000" font-family="sans-serif" font-size="14" font-weight="bold" lengthAdjust="spacingAndGlyphs" textLength="114" x="193" y="85.0352">it.tidalwave.role</text><!--MD5=[ff54506c8ce066036cab800b871124a5]
reverse link it.tidalwave.role.Composite.Visitor to it.tidalwave.northernwind.frontend.ui.spi.ViewAndControllerLayoutBuilder--><path codeLine="26" d="M369.1973,159.2881 C332.3918,189.6171 289.5822,224.8936 258.0979,250.8378 " fill="none" id="it.tidalwave.role.Composite.Visitor-backto-it.tidalwave.northernwind.frontend.ui.spi.ViewAndControllerLayoutBuilder" style="stroke: #A80036; stroke-width: 1.0; stroke-dasharray: 7.0,7.0;"/><polygon fill="none" points="365.1999,153.5116,385.0863,146.195,374.1031,164.316,365.1999,153.5116" style="stroke: #A80036; stroke-width: 1.0;"/><!--MD5=[ff6befd3af7c594b76ef6c6687d3d7eb]
link it.tidalwave.northernwind.frontend.ui.spi.ViewAndControllerLayoutBuilder to it.tidalwave.northernwind.frontend.ui.spi.ViewAndControllerLayoutBuilder--><path codeLine="27" d="M401.7343,272.4852 C422.8444,275.4114 436.5,280.583 436.5,288 C436.5,294.7796 425.0906,299.6832 407.0077,302.7107 " fill="none" id="it.tidalwave.northernwind.frontend.ui.spi.ViewAndControllerLayoutBuilder-to-it.tidalwave.northernwind.frontend.ui.spi.ViewAndControllerLayoutBuilder" style="stroke: #A80036; stroke-width: 1.0;"/><polygon fill="#A80036" points="401.7343,303.5148,411.2345,306.1121,406.6771,302.7609,410.0283,298.2036,401.7343,303.5148" style="stroke: #A80036; stroke-width: 1.0;"/><text fill="#000000" font-family="sans-serif" font-size="13" lengthAdjust="spacingAndGlyphs" textLength="33" x="442.5" y="293.0684">value</text><text fill="#000000" font-family="sans-serif" font-size="13" lengthAdjust="spacingAndGlyphs" textLength="24" x="409.5755" y="301.4041">0..1</text><!--MD5=[905cc077ef13f3f10203d693b1aa5b79]
reverse link it.tidalwave.northernwind.core.model.SiteNode to it.tidalwave.northernwind.frontend.ui.spi.VirtualSiteNode--><path codeLine="28" d="M1285.257,178.9501 C1287.8999,194.3269 1290.6211,210.1589 1293.1423,224.8282 " fill="none" id="it.tidalwave.northernwind.core.model.SiteNode-backto-it.tidalwave.northernwind.frontend.ui.spi.VirtualSiteNode" style="stroke: #A80036; stroke-width: 1.0; stroke-dasharray: 7.0,7.0;"/><polygon fill="none" points="1278.3402,180.0307,1281.8511,159.1339,1292.1379,177.6591,1278.3402,180.0307" style="stroke: #A80036; stroke-width: 1.0;"/><!--MD5=[d95031d1c8a2192f23cb445cbec9efc0]
reverse link it.tidalwave.role.Composite.Visitor to it.tidalwave.northernwind.frontend.ui.spi.NodeViewRenderer--><path codeLine="29" d="M542.608,145.4633 C602.4012,176.0774 678.4618,215.0204 735.9653,244.4622 " fill="none" id="it.tidalwave.role.Composite.Visitor-backto-it.tidalwave.northernwind.frontend.ui.spi.NodeViewRenderer" style="stroke: #A80036; stroke-width: 1.0; stroke-dasharray: 7.0,7.0;"/><polygon fill="none" points="539.2244,151.5951,524.6123,136.2495,545.6048,139.1335,539.2244,151.5951" style="stroke: #A80036; stroke-width: 1.0;"/><!--MD5=[7d689a064c0b1d195d4b6b2c99da3adc]
reverse link it.tidalwave.northernwind.frontend.ui.RenderContext to it.tidalwave.northernwind.frontend.ui.spi.DefaultRenderContext--><path codeLine="30" d="M1556.9963,172.8351 C1553.6035,205.4065 1549.891,241.0462 1547.5083,263.9199 " fill="none" id="it.tidalwave.northernwind.frontend.ui.RenderContext-backto-it.tidalwave.northernwind.frontend.ui.spi.DefaultRenderContext" style="stroke: #A80036; stroke-width: 1.0; stroke-dasharray: 7.0,7.0;"/><polygon fill="none" points="1550.073,171.735,1559.1075,152.5679,1563.9976,173.1855,1550.073,171.735" style="stroke: #A80036; stroke-width: 1.0;"/><text fill="#888888" font-family="sans-serif" font-size="10" lengthAdjust="spacingAndGlyphs" textLength="188" x="760" y="374.668">UMLDoclet 2.0.12, PlantUML 1.2020.16</text><!--MD5=[c337d259c013d7d5d2f266fe1bcf9427]
@startuml
    namespace it.tidalwave.northernwind.frontend.ui.spi {

        class ViewAndControllerLayoutBuilder [[ViewAndControllerLayoutBuilder.html]] {
            +visit(Layout): void
            +getViewAndControllerFor(Layout): Optional<ViewAndController>
        }

        class VirtualSiteNode [[VirtualSiteNode.html]] {
            +getSite(): Site
            +getLayout(): Layout
            +getFile(): ResourceFile
            +getPropertyGroup(Id): ResourceProperties
            +isPlaceHolder(): boolean
            +findChildren(): Finder<SiteNode>
        }

        class NodeViewRenderer<T> [[NodeViewRenderer.html]] {
            +NodeViewRenderer(Request, RequestContext, ViewAndControllerLayoutBuilder, BiConsumer<? super T, ? super T>)
            +preVisit(Layout): void
            +postVisit(Layout): void
        }

        class DefaultRenderContext [[DefaultRenderContext.html]] {
        }

        it.tidalwave.role.Composite.Visitor <|.. ViewAndControllerLayoutBuilder
        ViewAndControllerLayoutBuilder - -> "0..1" ViewAndControllerLayoutBuilder: value
        it.tidalwave.northernwind.core.model.SiteNode <|.. VirtualSiteNode
        it.tidalwave.role.Composite.Visitor <|.. NodeViewRenderer
        it.tidalwave.northernwind.frontend.ui.RenderContext <|.. DefaultRenderContext
    }

    namespace it.tidalwave.role {
        interface it.tidalwave.role.Composite.Visitor<T, R> {
            +preVisit(T): void
            +visit(T): void
            +postVisit(T): void
            +getValue(): Optional<R>
        }
    }

    namespace it.tidalwave.northernwind.core.model {
        interface SiteNode [[../../../core/model/SiteNode.html]] {
            {static} +_SiteNode_: Class<SiteNode>
            {static} +P_NAVIGATION_LABEL: Key<String>
            {static} +P_MANAGES_PATH_PARAMS: Key<Boolean>
            {abstract} +getSite(): Site
            {abstract} +getLayout(): Layout
            {abstract} +getRelativeUri(): ResourcePath
        }
    }

    namespace it.tidalwave.northernwind.frontend.ui {
        interface RenderContext [[../RenderContext.html]] {
            {abstract} +getRequest(): Request
            {abstract} +getRequestContext(): RequestContext
            +setDynamicNodeProperty(Key<T>, T): void
            +getQueryParam(String): Optional<String>
            +getPathParams(SiteNode): ResourcePath
        }
    }

    center footer UMLDoclet 2.0.12, PlantUML 1.2020.16
@enduml

PlantUML version 1.2020.16(Sun Aug 23 22:20:43 CEST 2020)
(APACHE source distribution)
Java Runtime: OpenJDK Runtime Environment
JVM: OpenJDK 64-Bit Server VM
Default Encoding: UTF-8
Language: en
Country: GB
--></g></svg>