<?xml version="1.0" encoding="UTF-8" standalone="no"?><svg xmlns="http://www.w3.org/2000/svg" xmlns:xlink="http://www.w3.org/1999/xlink" contentScriptType="application/ecmascript" contentStyleType="text/css" height="212px" preserveAspectRatio="none" style="width:549px;height:212px;" version="1.1" viewBox="0 0 549 212" width="549px" zoomAndPan="magnify"><defs><filter height="300%" id="f6659pkgy76dm" width="300%" x="-1" y="-1"><feGaussianBlur result="blurOut" stdDeviation="2.0"/><feColorMatrix in="blurOut" result="blurOut2" type="matrix" values="0 0 0 0 0 0 0 0 0 0 0 0 0 0 0 0 0 0 .4 0"/><feOffset dx="4.0" dy="4.0" in="blurOut2" result="blurOut3"/><feBlend in="SourceGraphic" in2="blurOut3" mode="normal"/></filter></defs><g><!--MD5=[aa005d1faba97d9bdd111b2083c30d5a]
class it.tidalwave.util.CollectionUtils--><a href="CollectionUtils.html" target="_top" title="CollectionUtils.html" xlink:actuate="onRequest" xlink:href="CollectionUtils.html" xlink:show="new" xlink:title="CollectionUtils.html" xlink:type="simple"><rect codeLine="5" fill="#FEFECE" filter="url(#f6659pkgy76dm)" height="175.8164" id="it.tidalwave.util.CollectionUtils" style="stroke: #A80036; stroke-width: 1.5;" width="523" x="7" y="7"/><ellipse cx="214.75" cy="26.1328" fill="#ADD1B2" rx="11" ry="11" style="stroke: #A80036; stroke-width: 1.0;"/><path d="M217.2231,32.2759 Q216.6421,32.5747 216.0029,32.7241 Q215.3638,32.8735 214.6582,32.8735 Q212.1514,32.8735 210.8315,31.2217 Q209.5117,29.5698 209.5117,26.4487 Q209.5117,23.3193 210.8315,21.6675 Q212.1514,20.0156 214.6582,20.0156 Q215.3638,20.0156 216.0112,20.165 Q216.6587,20.3145 217.2231,20.6133 L217.2231,23.3359 Q216.5923,22.7549 215.9988,22.4851 Q215.4053,22.2153 214.7744,22.2153 Q213.4297,22.2153 212.7449,23.282 Q212.0601,24.3486 212.0601,26.4487 Q212.0601,28.5405 212.7449,29.6072 Q213.4297,30.6738 214.7744,30.6738 Q215.4053,30.6738 215.9988,30.4041 Q216.5923,30.1343 217.2231,29.5532 Z "/><text fill="#000000" font-family="sans-serif" font-size="14" lengthAdjust="spacingAndGlyphs" textLength="99" x="235.25" y="25.5352">CollectionUtils</text><text fill="#000000" font-family="sans-serif" font-size="10" lengthAdjust="spacingAndGlyphs" textLength="76" x="246.75" y="38.1563">it.tidalwave.util</text><line style="stroke: #A80036; stroke-width: 1.5;" x1="8" x2="529" y1="45.2656" y2="45.2656"/><ellipse cx="18" cy="56.2656" fill="#84BE84" rx="3" ry="3" style="stroke: #038048; stroke-width: 1.0;"/><text fill="#000000" font-family="sans-serif" font-size="11" lengthAdjust="spacingAndGlyphs" text-decoration="underline" textLength="205" x="27" y="59.9004">concat(List&lt;? extends T&gt;, T): List&lt;T&gt;</text><ellipse cx="18" cy="69.2207" fill="#84BE84" rx="3" ry="3" style="stroke: #038048; stroke-width: 1.0;"/><text fill="#000000" font-family="sans-serif" font-size="11" lengthAdjust="spacingAndGlyphs" text-decoration="underline" textLength="250" x="27" y="72.8555">concatAll(Collection&lt;? extends T&gt;...): List&lt;T&gt;</text><ellipse cx="18" cy="82.1758" fill="#84BE84" rx="3" ry="3" style="stroke: #038048; stroke-width: 1.0;"/><text fill="#000000" font-family="sans-serif" font-size="11" lengthAdjust="spacingAndGlyphs" text-decoration="underline" textLength="203" x="27" y="85.8105">reversed(List&lt;? extends T&gt;): List&lt;T&gt;</text><ellipse cx="18" cy="95.1309" fill="#84BE84" rx="3" ry="3" style="stroke: #038048; stroke-width: 1.0;"/><text fill="#000000" font-family="sans-serif" font-size="11" lengthAdjust="spacingAndGlyphs" text-decoration="underline" textLength="497" x="27" y="98.7656">sorted(List&lt;? extends Comparable&lt;? super T&gt;&gt;): List&lt;T extends Comparable&lt;? super T&gt;&gt;</text><ellipse cx="18" cy="108.0859" fill="#84BE84" rx="3" ry="3" style="stroke: #038048; stroke-width: 1.0;"/><text fill="#000000" font-family="sans-serif" font-size="11" lengthAdjust="spacingAndGlyphs" text-decoration="underline" textLength="329" x="27" y="111.7207">sorted(List&lt;? extends T&gt;, Comparator&lt;? super T&gt;): List&lt;T&gt;</text><ellipse cx="18" cy="121.041" fill="#84BE84" rx="3" ry="3" style="stroke: #038048; stroke-width: 1.0;"/><text fill="#000000" font-family="sans-serif" font-size="11" lengthAdjust="spacingAndGlyphs" text-decoration="underline" textLength="254" x="27" y="124.6758">optionalHead(List&lt;? extends T&gt;): Optional&lt;T&gt;</text><ellipse cx="18" cy="133.9961" fill="#84BE84" rx="3" ry="3" style="stroke: #038048; stroke-width: 1.0;"/><text fill="#000000" font-family="sans-serif" font-size="11" lengthAdjust="spacingAndGlyphs" text-decoration="underline" textLength="145" x="27" y="137.6309">head(List&lt;? extends T&gt;): T</text><ellipse cx="18" cy="146.9512" fill="#84BE84" rx="3" ry="3" style="stroke: #038048; stroke-width: 1.0;"/><text fill="#000000" font-family="sans-serif" font-size="11" lengthAdjust="spacingAndGlyphs" text-decoration="underline" textLength="172" x="27" y="150.5859">tail(List&lt;? extends T&gt;): List&lt;T&gt;</text><ellipse cx="18" cy="159.9063" fill="#84BE84" rx="3" ry="3" style="stroke: #038048; stroke-width: 1.0;"/><text fill="#000000" font-family="sans-serif" font-size="11" lengthAdjust="spacingAndGlyphs" text-decoration="underline" textLength="257" x="27" y="163.541">safeSubList(List&lt;? extends T&gt;, int, int): List&lt;T&gt;</text><ellipse cx="18" cy="172.8613" fill="#84BE84" rx="3" ry="3" style="stroke: #038048; stroke-width: 1.0;"/><text fill="#000000" font-family="sans-serif" font-size="11" lengthAdjust="spacingAndGlyphs" text-decoration="underline" textLength="245" x="27" y="176.4961">split(List&lt;? extends T&gt;, int...): List&lt;List&lt;T&gt;&gt;</text></a><text fill="#888888" font-family="sans-serif" font-size="10" lengthAdjust="spacingAndGlyphs" textLength="188" x="174.5" y="199.4844">UMLDoclet 2.0.12, PlantUML 1.2020.16</text><!--MD5=[4343a0bf8fcb33e71526298674a49fac]
@startuml
    set namespaceSeparator none
    hide empty fields
    hide empty methods

    class "<size:14>CollectionUtils\n<size:10>it.tidalwave.util" as it.tidalwave.util.CollectionUtils [[CollectionUtils.html]] {
        {static} +concat(List<? extends T>, T): List<T>
        {static} +concatAll(Collection<? extends T>...): List<T>
        {static} +reversed(List<? extends T>): List<T>
        {static} +sorted(List<? extends Comparable<? super T>>): List<T extends Comparable<? super T>>
        {static} +sorted(List<? extends T>, Comparator<? super T>): List<T>
        {static} +optionalHead(List<? extends T>): Optional<T>
        {static} +head(List<? extends T>): T
        {static} +tail(List<? extends T>): List<T>
        {static} +safeSubList(List<? extends T>, int, int): List<T>
        {static} +split(List<? extends T>, int...): List<List<T>>
    }

    center footer UMLDoclet 2.0.12, PlantUML 1.2020.16
@enduml

PlantUML version 1.2020.16(Sun Aug 23 22:20:43 CEST 2020)
(APACHE source distribution)
Java Runtime: OpenJDK Runtime Environment
JVM: OpenJDK 64-Bit Server VM
Default Encoding: UTF-8
Language: en
Country: GB
--></g></svg>