@startuml
    set namespaceSeparator none
    hide empty fields
    hide empty methods

    abstract class "<size:14>DefaultCalendarViewController\n<size:10>it.tidalwave.northernwind.frontend.ui.component.calendar" as it.tidalwave.northernwind.frontend.ui.component.calendar.DefaultCalendarViewController [[DefaultCalendarViewController.html]] {
        #requestLocaleManager: RequestLocaleManager
        +prepareRendering(RenderContext): void
        +renderView(RenderContext): void
        {abstract} #render(Optional<String>, int, int, int, SortedMap<Integer, List<Entry>>, int): void
        #getViewProperties(): ResourceProperties
        #createYearLink(int): String
    }

    interface "<size:14>CalendarViewController\n<size:10>it.tidalwave.northernwind.frontend.ui.component.calendar" as it.tidalwave.northernwind.frontend.ui.component.calendar.CalendarViewController [[CalendarViewController.html]]
    class "<size:14>DefaultCalendarViewController.Entry\n<size:10>it.tidalwave.northernwind.frontend.ui.component.calendar" as it.tidalwave.northernwind.frontend.ui.component.calendar.DefaultCalendarViewController.Entry [[DefaultCalendarViewController.Entry.html]]

    it.tidalwave.northernwind.frontend.ui.component.calendar.CalendarViewController <|.. it.tidalwave.northernwind.frontend.ui.component.calendar.DefaultCalendarViewController
    it.tidalwave.northernwind.frontend.ui.component.calendar.DefaultCalendarViewController +-- it.tidalwave.northernwind.frontend.ui.component.calendar.DefaultCalendarViewController.Entry

    center footer UMLDoclet 2.0.12, PlantUML 1.2020.16
@enduml
