@startuml
    set namespaceSeparator none
    hide empty fields
    hide empty methods

    interface "<size:14>ProcessExecutor\n<size:10>it.tidalwave.util" as it.tidalwave.util.ProcessExecutor [[ProcessExecutor.html]] {
        {abstract} +withArguments(String...): ProcessExecutor
        {abstract} +withArgument(String): ProcessExecutor
        {abstract} +start(): ProcessExecutor
        {abstract} +stop(): void
        {abstract} +waitForCompletion(): ProcessExecutor
        {abstract} +send(String): ProcessExecutor
        {abstract} +getStdout(): ConsoleOutput
        {abstract} +getStderr(): ConsoleOutput
    }
    interface "<size:14>ProcessExecutor.ConsoleOutput\n<size:10>it.tidalwave.util" as it.tidalwave.util.ProcessExecutor.ConsoleOutput [[ProcessExecutor.ConsoleOutput.html]]

    it.tidalwave.util.ProcessExecutor +-- it.tidalwave.util.ProcessExecutor.ConsoleOutput

    center footer UMLDoclet 2.0.12, PlantUML 1.2020.16
@enduml
