@startuml
    set namespaceSeparator none
    hide empty fields
    hide empty methods

    class "<size:14>StreamUtils\n<size:10>it.tidalwave.util" as it.tidalwave.util.StreamUtils [[StreamUtils.html]] {
        {static} +zip(Stream<? extends A>, Stream<? extends B>): Stream<Pair<A, B>>
        {static} +zip(Stream<? extends A>, Stream<? extends B>, BiFunction<? super A, ? super B, ? extends R>): Stream<R>
        {static} +randomLocalDateTimeStream(long, LocalDateTime, LocalDateTime): Stream<LocalDateTime>
    }

    center footer UMLDoclet 2.0.12, PlantUML 1.2020.16
@enduml
