<?xml version="1.0" encoding="UTF-8" standalone="no"?><svg xmlns="http://www.w3.org/2000/svg" xmlns:xlink="http://www.w3.org/1999/xlink" contentScriptType="application/ecmascript" contentStyleType="text/css" height="246px" preserveAspectRatio="none" style="width:338px;height:246px;" version="1.1" viewBox="0 0 338 246" width="338px" zoomAndPan="magnify"><defs><filter height="300%" id="f1fno8203jvbkj" width="300%" x="-1" y="-1"><feGaussianBlur result="blurOut" stdDeviation="2.0"/><feColorMatrix in="blurOut" result="blurOut2" type="matrix" values="0 0 0 0 0 0 0 0 0 0 0 0 0 0 0 0 0 0 .4 0"/><feOffset dx="4.0" dy="4.0" in="blurOut2" result="blurOut3"/><feBlend in="SourceGraphic" in2="blurOut3" mode="normal"/></filter></defs><g><!--MD5=[dca90d46fa7b2791e22583f1557db3d7]
class it.tidalwave.util.PreferencesHandler--><a href="PreferencesHandler.html" target="_top" title="PreferencesHandler.html" xlink:actuate="onRequest" xlink:href="PreferencesHandler.html" xlink:show="new" xlink:title="PreferencesHandler.html" xlink:type="simple"><rect codeLine="5" fill="#FEFECE" filter="url(#f1fno8203jvbkj)" height="209.7266" id="it.tidalwave.util.PreferencesHandler" style="stroke: #A80036; stroke-width: 1.5;" width="312" x="7" y="7"/><ellipse cx="91.75" cy="26.1328" fill="#B4A7E5" rx="11" ry="11" style="stroke: #A80036; stroke-width: 1.0;"/><path d="M88.1777,22.3979 L88.1777,20.2397 L95.5571,20.2397 L95.5571,22.3979 L93.0918,22.3979 L93.0918,30.4746 L95.5571,30.4746 L95.5571,32.6328 L88.1777,32.6328 L88.1777,30.4746 L90.6431,30.4746 L90.6431,22.3979 Z "/><text fill="#000000" font-family="sans-serif" font-size="14" font-style="italic" lengthAdjust="spacingAndGlyphs" textLength="134" x="112.25" y="25.5352">PreferencesHandler</text><text fill="#000000" font-family="sans-serif" font-size="10" font-style="italic" lengthAdjust="spacingAndGlyphs" textLength="76" x="141.25" y="38.1563">it.tidalwave.util</text><line style="stroke: #A80036; stroke-width: 1.5;" x1="8" x2="318" y1="45.2656" y2="45.2656"/><ellipse cx="18" cy="56.2656" fill="none" rx="3" ry="3" style="stroke: #038048; stroke-width: 1.0;"/><text fill="#000000" font-family="sans-serif" font-size="11" lengthAdjust="spacingAndGlyphs" text-decoration="underline" textLength="129" x="27" y="59.9004">PROP_APP_NAME: String</text><ellipse cx="18" cy="69.2207" fill="none" rx="3" ry="3" style="stroke: #038048; stroke-width: 1.0;"/><text fill="#000000" font-family="sans-serif" font-size="11" lengthAdjust="spacingAndGlyphs" text-decoration="underline" textLength="113" x="27" y="72.8555">__BASE_NAME: String</text><ellipse cx="18" cy="82.1758" fill="none" rx="3" ry="3" style="stroke: #038048; stroke-width: 1.0;"/><text fill="#000000" font-family="sans-serif" font-size="11" lengthAdjust="spacingAndGlyphs" text-decoration="underline" textLength="286" x="27" y="85.8105">__INSTANCE: AtomicReference&lt;PreferencesHandler&gt;</text><ellipse cx="18" cy="95.1309" fill="none" rx="3" ry="3" style="stroke: #038048; stroke-width: 1.0;"/><text fill="#000000" font-family="sans-serif" font-size="11" lengthAdjust="spacingAndGlyphs" text-decoration="underline" textLength="173" x="27" y="98.7656">KEY_INITIAL_SIZE: Key&lt;Double&gt;</text><ellipse cx="18" cy="108.0859" fill="none" rx="3" ry="3" style="stroke: #038048; stroke-width: 1.0;"/><text fill="#000000" font-family="sans-serif" font-size="11" lengthAdjust="spacingAndGlyphs" text-decoration="underline" textLength="184" x="27" y="111.7207">KEY_FULL_SCREEN: Key&lt;Boolean&gt;</text><line style="stroke: #A80036; stroke-width: 1.5;" x1="8" x2="318" y1="118.041" y2="118.041"/><ellipse cx="18" cy="129.041" fill="#84BE84" rx="3" ry="3" style="stroke: #038048; stroke-width: 1.0;"/><text fill="#000000" font-family="sans-serif" font-size="11" font-style="italic" lengthAdjust="spacingAndGlyphs" textLength="110" x="27" y="132.6758">getAppFolder(): Path</text><ellipse cx="18" cy="141.9961" fill="#84BE84" rx="3" ry="3" style="stroke: #038048; stroke-width: 1.0;"/><text fill="#000000" font-family="sans-serif" font-size="11" font-style="italic" lengthAdjust="spacingAndGlyphs" textLength="108" x="27" y="145.6309">getLogFolder(): Path</text><ellipse cx="18" cy="154.9512" fill="#84BE84" rx="3" ry="3" style="stroke: #038048; stroke-width: 1.0;"/><text fill="#000000" font-family="sans-serif" font-size="11" lengthAdjust="spacingAndGlyphs" text-decoration="underline" textLength="137" x="27" y="158.5859">setAppName(String): void</text><ellipse cx="18" cy="167.9063" fill="#84BE84" rx="3" ry="3" style="stroke: #038048; stroke-width: 1.0;"/><text fill="#000000" font-family="sans-serif" font-size="11" font-style="italic" lengthAdjust="spacingAndGlyphs" textLength="192" x="27" y="171.541">getProperty(Key&lt;T&gt;): Optional&lt;T&gt;</text><ellipse cx="18" cy="180.8613" fill="#84BE84" rx="3" ry="3" style="stroke: #038048; stroke-width: 1.0;"/><text fill="#000000" font-family="sans-serif" font-size="11" font-style="italic" lengthAdjust="spacingAndGlyphs" textLength="156" x="27" y="184.4961">setProperty(Key&lt;T&gt;, T): void</text><ellipse cx="18" cy="193.8164" fill="#84BE84" rx="3" ry="3" style="stroke: #038048; stroke-width: 1.0;"/><text fill="#000000" font-family="sans-serif" font-size="11" font-style="italic" lengthAdjust="spacingAndGlyphs" textLength="194" x="27" y="197.4512">setDefaultProperty(Key&lt;T&gt;, T): void</text><ellipse cx="18" cy="206.7715" fill="#84BE84" rx="3" ry="3" style="stroke: #038048; stroke-width: 1.0;"/><text fill="#000000" font-family="sans-serif" font-size="11" lengthAdjust="spacingAndGlyphs" text-decoration="underline" textLength="181" x="27" y="210.4063">getInstance(): PreferencesHandler</text></a><text fill="#888888" font-family="sans-serif" font-size="10" lengthAdjust="spacingAndGlyphs" textLength="188" x="69" y="233.3945">UMLDoclet 2.0.12, PlantUML 1.2020.16</text><!--MD5=[781a6bbaf22c134f1a20c38efb6f3917]
@startuml
    set namespaceSeparator none
    hide empty fields
    hide empty methods

    interface "<size:14>PreferencesHandler\n<size:10>it.tidalwave.util" as it.tidalwave.util.PreferencesHandler [[PreferencesHandler.html]] {
        {static} +PROP_APP_NAME: String
        {static} +__BASE_NAME: String
        {static} +__INSTANCE: AtomicReference<PreferencesHandler>
        {static} +KEY_INITIAL_SIZE: Key<Double>
        {static} +KEY_FULL_SCREEN: Key<Boolean>
        {abstract} +getAppFolder(): Path
        {abstract} +getLogFolder(): Path
        {static} +setAppName(String): void
        {abstract} +getProperty(Key<T>): Optional<T>
        {abstract} +setProperty(Key<T>, T): void
        {abstract} +setDefaultProperty(Key<T>, T): void
        {static} +getInstance(): PreferencesHandler
    }

    center footer UMLDoclet 2.0.12, PlantUML 1.2020.16
@enduml

PlantUML version 1.2020.16(Sun Aug 23 22:20:43 CEST 2020)
(APACHE source distribution)
Java Runtime: OpenJDK Runtime Environment
JVM: OpenJDK 64-Bit Server VM
Default Encoding: UTF-8
Language: en
Country: GB
--></g></svg>