<?xml version="1.0" encoding="UTF-8" standalone="no"?><svg xmlns="http://www.w3.org/2000/svg" xmlns:xlink="http://www.w3.org/1999/xlink" contentScriptType="application/ecmascript" contentStyleType="text/css" height="213px" preserveAspectRatio="none" style="width:1000px;height:213px;" version="1.1" viewBox="0 0 1000 213" width="1000px" zoomAndPan="magnify"><defs><filter height="300%" id="f1vuri3p084iwj" width="300%" x="-1" y="-1"><feGaussianBlur result="blurOut" stdDeviation="2.0"/><feColorMatrix in="blurOut" result="blurOut2" type="matrix" values="0 0 0 0 0 0 0 0 0 0 0 0 0 0 0 0 0 0 .4 0"/><feOffset dx="4.0" dy="4.0" in="blurOut2" result="blurOut3"/><feBlend in="SourceGraphic" in2="blurOut3" mode="normal"/></filter></defs><g><!--MD5=[8db2d60cc4892d9666b47f49b0914d23]
class it.tidalwave.image.metadata.WangAnnotations--><a href="WangAnnotations.html" target="_top" title="WangAnnotations.html" xlink:actuate="onRequest" xlink:href="WangAnnotations.html" xlink:show="new" xlink:title="WangAnnotations.html" xlink:type="simple"><rect codeLine="5" fill="#FEFECE" filter="url(#f1vuri3p084iwj)" height="72.1758" id="it.tidalwave.image.metadata.WangAnnotations" style="stroke: #A80036; stroke-width: 1.5;" width="173" x="413.5" y="7"/><ellipse cx="428.95" cy="26.1328" fill="#ADD1B2" rx="11" ry="11" style="stroke: #A80036; stroke-width: 1.0;"/><path d="M431.4231,32.2759 Q430.8421,32.5747 430.2029,32.7241 Q429.5638,32.8735 428.8582,32.8735 Q426.3514,32.8735 425.0315,31.2217 Q423.7117,29.5698 423.7117,26.4487 Q423.7117,23.3193 425.0315,21.6675 Q426.3514,20.0156 428.8582,20.0156 Q429.5638,20.0156 430.2112,20.165 Q430.8587,20.3145 431.4231,20.6133 L431.4231,23.3359 Q430.7923,22.7549 430.1988,22.4851 Q429.6053,22.2153 428.9744,22.2153 Q427.6297,22.2153 426.9449,23.282 Q426.2601,24.3486 426.2601,26.4487 Q426.2601,28.5405 426.9449,29.6072 Q427.6297,30.6738 428.9744,30.6738 Q429.6053,30.6738 430.1988,30.4041 Q430.7923,30.1343 431.4231,29.5532 Z "/><text fill="#000000" font-family="sans-serif" font-size="14" lengthAdjust="spacingAndGlyphs" textLength="122" x="452.05" y="25.5352">WangAnnotations</text><text fill="#000000" font-family="sans-serif" font-size="10" lengthAdjust="spacingAndGlyphs" textLength="140" x="443.05" y="38.1563">it.tidalwave.image.metadata</text><line style="stroke: #A80036; stroke-width: 1.5;" x1="414.5" x2="585.5" y1="45.2656" y2="45.2656"/><ellipse cx="424.5" cy="56.2656" fill="#84BE84" rx="3" ry="3" style="stroke: #038048; stroke-width: 1.0;"/><text fill="#000000" font-family="sans-serif" font-size="11" lengthAdjust="spacingAndGlyphs" textLength="134" x="433.5" y="59.9004">WangAnnotations(byte[])</text><ellipse cx="424.5" cy="69.2207" fill="#84BE84" rx="3" ry="3" style="stroke: #038048; stroke-width: 1.0;"/><text fill="#000000" font-family="sans-serif" font-size="11" lengthAdjust="spacingAndGlyphs" textLength="147" x="433.5" y="72.8555">render(EditableImage): void</text></a><!--MD5=[5d3e322f9402568ffb999750b24a71d8]
class it.tidalwave.image.metadata.WangAnnotations.Attributes--><a href="WangAnnotations.Attributes.html" target="_top" title="WangAnnotations.Attributes.html" xlink:actuate="onRequest" xlink:href="WangAnnotations.Attributes.html" xlink:show="new" xlink:title="WangAnnotations.Attributes.html" xlink:type="simple"><rect codeLine="9" fill="#FEFECE" filter="url(#f1vuri3p084iwj)" height="38.2656" id="it.tidalwave.image.metadata.WangAnnotations.Attributes" style="stroke: #A80036; stroke-width: 1.5;" width="226" x="7" y="139"/><ellipse cx="22" cy="158.1328" fill="#ADD1B2" rx="11" ry="11" style="stroke: #A80036; stroke-width: 1.0;"/><path d="M24.4731,164.2759 Q23.8921,164.5747 23.2529,164.7241 Q22.6138,164.8735 21.9082,164.8735 Q19.4014,164.8735 18.0815,163.2217 Q16.7617,161.5698 16.7617,158.4487 Q16.7617,155.3193 18.0815,153.6675 Q19.4014,152.0156 21.9082,152.0156 Q22.6138,152.0156 23.2612,152.165 Q23.9087,152.3145 24.4731,152.6133 L24.4731,155.3359 Q23.8423,154.7549 23.2488,154.4851 Q22.6553,154.2153 22.0244,154.2153 Q20.6797,154.2153 19.9949,155.282 Q19.3101,156.3486 19.3101,158.4487 Q19.3101,160.5405 19.9949,161.6072 Q20.6797,162.6738 22.0244,162.6738 Q22.6553,162.6738 23.2488,162.4041 Q23.8423,162.1343 24.4731,161.5532 Z "/><text fill="#000000" font-family="sans-serif" font-size="14" lengthAdjust="spacingAndGlyphs" textLength="194" x="36" y="157.5352">WangAnnotations.Attributes</text><text fill="#000000" font-family="sans-serif" font-size="10" lengthAdjust="spacingAndGlyphs" textLength="140" x="63" y="170.1563">it.tidalwave.image.metadata</text></a><!--MD5=[7e4b48282eda49816f9dea1893753dc9]
class it.tidalwave.image.metadata.WangAnnotations.Internal--><a href="WangAnnotations.Internal.html" target="_top" title="WangAnnotations.Internal.html" xlink:actuate="onRequest" xlink:href="WangAnnotations.Internal.html" xlink:show="new" xlink:title="WangAnnotations.Internal.html" xlink:type="simple"><rect codeLine="10" fill="#FEFECE" filter="url(#f1vuri3p084iwj)" height="38.2656" id="it.tidalwave.image.metadata.WangAnnotations.Internal" style="stroke: #A80036; stroke-width: 1.5;" width="211" x="268.5" y="139"/><ellipse cx="283.5" cy="158.1328" fill="#A9DCDF" rx="11" ry="11" style="stroke: #A80036; stroke-width: 1.0;"/><path d="M283.3633,153.481 L282.2095,158.5527 L284.5254,158.5527 Z M281.8691,151.2397 L284.8657,151.2397 L288.2109,163.6328 L285.7622,163.6328 L284.9985,160.5698 L281.7197,160.5698 L280.9727,163.6328 L278.5239,163.6328 Z "/><text fill="#000000" font-family="sans-serif" font-size="14" font-style="italic" lengthAdjust="spacingAndGlyphs" textLength="179" x="297.5" y="157.5352">WangAnnotations.Internal</text><text fill="#000000" font-family="sans-serif" font-size="10" font-style="italic" lengthAdjust="spacingAndGlyphs" textLength="140" x="317" y="170.1563">it.tidalwave.image.metadata</text></a><!--MD5=[44855f1631fbce20ce498403d4001642]
class it.tidalwave.image.metadata.WangAnnotations.OiAnText--><a href="WangAnnotations.OiAnText.html" target="_top" title="WangAnnotations.OiAnText.html" xlink:actuate="onRequest" xlink:href="WangAnnotations.OiAnText.html" xlink:show="new" xlink:title="WangAnnotations.OiAnText.html" xlink:type="simple"><rect codeLine="11" fill="#FEFECE" filter="url(#f1vuri3p084iwj)" height="38.2656" id="it.tidalwave.image.metadata.WangAnnotations.OiAnText" style="stroke: #A80036; stroke-width: 1.5;" width="223" x="514.5" y="139"/><ellipse cx="529.5" cy="158.1328" fill="#ADD1B2" rx="11" ry="11" style="stroke: #A80036; stroke-width: 1.0;"/><path d="M531.9731,164.2759 Q531.3921,164.5747 530.7529,164.7241 Q530.1138,164.8735 529.4082,164.8735 Q526.9014,164.8735 525.5815,163.2217 Q524.2617,161.5698 524.2617,158.4487 Q524.2617,155.3193 525.5815,153.6675 Q526.9014,152.0156 529.4082,152.0156 Q530.1138,152.0156 530.7612,152.165 Q531.4087,152.3145 531.9731,152.6133 L531.9731,155.3359 Q531.3423,154.7549 530.7488,154.4851 Q530.1553,154.2153 529.5244,154.2153 Q528.1797,154.2153 527.4949,155.282 Q526.8101,156.3486 526.8101,158.4487 Q526.8101,160.5405 527.4949,161.6072 Q528.1797,162.6738 529.5244,162.6738 Q530.1553,162.6738 530.7488,162.4041 Q531.3423,162.1343 531.9731,161.5532 Z "/><text fill="#000000" font-family="sans-serif" font-size="14" lengthAdjust="spacingAndGlyphs" textLength="191" x="543.5" y="157.5352">WangAnnotations.OiAnText</text><text fill="#000000" font-family="sans-serif" font-size="10" lengthAdjust="spacingAndGlyphs" textLength="140" x="569" y="170.1563">it.tidalwave.image.metadata</text></a><!--MD5=[bd45fbb4e6f036b08bdc14807dd922de]
class it.tidalwave.image.metadata.WangAnnotations.OiHilite--><a href="WangAnnotations.OiHilite.html" target="_top" title="WangAnnotations.OiHilite.html" xlink:actuate="onRequest" xlink:href="WangAnnotations.OiHilite.html" xlink:show="new" xlink:title="WangAnnotations.OiHilite.html" xlink:type="simple"><rect codeLine="12" fill="#FEFECE" filter="url(#f1vuri3p084iwj)" height="38.2656" id="it.tidalwave.image.metadata.WangAnnotations.OiHilite" style="stroke: #A80036; stroke-width: 1.5;" width="208" x="773" y="139"/><ellipse cx="788" cy="158.1328" fill="#ADD1B2" rx="11" ry="11" style="stroke: #A80036; stroke-width: 1.0;"/><path d="M790.4731,164.2759 Q789.8921,164.5747 789.2529,164.7241 Q788.6138,164.8735 787.9082,164.8735 Q785.4014,164.8735 784.0815,163.2217 Q782.7617,161.5698 782.7617,158.4487 Q782.7617,155.3193 784.0815,153.6675 Q785.4014,152.0156 787.9082,152.0156 Q788.6138,152.0156 789.2612,152.165 Q789.9087,152.3145 790.4731,152.6133 L790.4731,155.3359 Q789.8423,154.7549 789.2488,154.4851 Q788.6553,154.2153 788.0244,154.2153 Q786.6797,154.2153 785.9949,155.282 Q785.3101,156.3486 785.3101,158.4487 Q785.3101,160.5405 785.9949,161.6072 Q786.6797,162.6738 788.0244,162.6738 Q788.6553,162.6738 789.2488,162.4041 Q789.8423,162.1343 790.4731,161.5532 Z "/><text fill="#000000" font-family="sans-serif" font-size="14" lengthAdjust="spacingAndGlyphs" textLength="176" x="802" y="157.5352">WangAnnotations.OiHilite</text><text fill="#000000" font-family="sans-serif" font-size="10" lengthAdjust="spacingAndGlyphs" textLength="140" x="820" y="170.1563">it.tidalwave.image.metadata</text></a><!--MD5=[55de1567e63aa6488a0911f6f715b150]
reverse link it.tidalwave.image.metadata.WangAnnotations to it.tidalwave.image.metadata.WangAnnotations.Attributes--><path codeLine="14" d="M398.5397,73.7051 C329.9573,94.4603 241.5514,121.2147 182.9345,138.954 " fill="none" id="it.tidalwave.image.metadata.WangAnnotations-backto-it.tidalwave.image.metadata.WangAnnotations.Attributes" style="stroke: #A80036; stroke-width: 1.0;"/><ellipse cx="405.6396" cy="71.5565" fill="#FFFFFF" rx="8" ry="8" style="stroke: #A80036; stroke-width: 1.0;"/><line style="stroke: #A80036; stroke-width: 1.0;" x1="397.9826" x2="413.2966" y1="73.8739" y2="69.2392"/><line style="stroke: #A80036; stroke-width: 1.0;" x1="403.3222" x2="407.9569" y1="63.8995" y2="79.2136"/><!--MD5=[d33c4f3333dd0bb10e8ee2dbebe37c48]
reverse link it.tidalwave.image.metadata.WangAnnotations to it.tidalwave.image.metadata.WangAnnotations.Internal--><path codeLine="15" d="M449.262,89.3085 C430.3339,106.5841 409.8697,125.2618 395.0652,138.7739 " fill="none" id="it.tidalwave.image.metadata.WangAnnotations-backto-it.tidalwave.image.metadata.WangAnnotations.Internal" style="stroke: #A80036; stroke-width: 1.0;"/><ellipse cx="454.5696" cy="84.4643" fill="#FFFFFF" rx="8" ry="8" style="stroke: #A80036; stroke-width: 1.0;"/><line style="stroke: #A80036; stroke-width: 1.0;" x1="448.6607" x2="460.4785" y1="89.8573" y2="79.0712"/><line style="stroke: #A80036; stroke-width: 1.0;" x1="449.1766" x2="459.9627" y1="78.5554" y2="90.3731"/><!--MD5=[cbbf40f63203e8d8c38b48c6e864b94a]
reverse link it.tidalwave.image.metadata.WangAnnotations to it.tidalwave.image.metadata.WangAnnotations.OiAnText--><path codeLine="16" d="M550.738,89.3085 C569.6661,106.5841 590.1303,125.2618 604.9348,138.7739 " fill="none" id="it.tidalwave.image.metadata.WangAnnotations-backto-it.tidalwave.image.metadata.WangAnnotations.OiAnText" style="stroke: #A80036; stroke-width: 1.0;"/><ellipse cx="545.4304" cy="84.4643" fill="#FFFFFF" rx="8" ry="8" style="stroke: #A80036; stroke-width: 1.0;"/><line style="stroke: #A80036; stroke-width: 1.0;" x1="551.3393" x2="539.5215" y1="89.8573" y2="79.0712"/><line style="stroke: #A80036; stroke-width: 1.0;" x1="540.0373" x2="550.8234" y1="90.3731" y2="78.5554"/><!--MD5=[2da9fac1839652162ad1772017a07abf]
reverse link it.tidalwave.image.metadata.WangAnnotations to it.tidalwave.image.metadata.WangAnnotations.OiHilite--><path codeLine="17" d="M601.585,73.9875 C669.5039,94.7054 756.6969,121.3028 814.5875,138.9617 " fill="none" id="it.tidalwave.image.metadata.WangAnnotations-backto-it.tidalwave.image.metadata.WangAnnotations.OiHilite" style="stroke: #A80036; stroke-width: 1.0;"/><ellipse cx="594.6167" cy="71.8619" fill="#FFFFFF" rx="8" ry="8" style="stroke: #A80036; stroke-width: 1.0;"/><line style="stroke: #A80036; stroke-width: 1.0;" x1="602.2686" x2="586.9648" y1="74.196" y2="69.5277"/><line style="stroke: #A80036; stroke-width: 1.0;" x1="592.2826" x2="596.9509" y1="79.5138" y2="64.2099"/><text fill="#888888" font-family="sans-serif" font-size="10" lengthAdjust="spacingAndGlyphs" textLength="188" x="397" y="199.9336">UMLDoclet 2.0.12, PlantUML 1.2020.16</text><!--MD5=[3f61bb78f8cf928d4bad6baaa64f7353]
@startuml
    set namespaceSeparator none
    hide empty fields
    hide empty methods

    class "<size:14>WangAnnotations\n<size:10>it.tidalwave.image.metadata" as it.tidalwave.image.metadata.WangAnnotations [[WangAnnotations.html]] {
        +WangAnnotations(byte[])
        +render(EditableImage): void
    }
    class "<size:14>WangAnnotations.Attributes\n<size:10>it.tidalwave.image.metadata" as it.tidalwave.image.metadata.WangAnnotations.Attributes [[WangAnnotations.Attributes.html]]
    abstract class "<size:14>WangAnnotations.Internal\n<size:10>it.tidalwave.image.metadata" as it.tidalwave.image.metadata.WangAnnotations.Internal [[WangAnnotations.Internal.html]]
    class "<size:14>WangAnnotations.OiAnText\n<size:10>it.tidalwave.image.metadata" as it.tidalwave.image.metadata.WangAnnotations.OiAnText [[WangAnnotations.OiAnText.html]]
    class "<size:14>WangAnnotations.OiHilite\n<size:10>it.tidalwave.image.metadata" as it.tidalwave.image.metadata.WangAnnotations.OiHilite [[WangAnnotations.OiHilite.html]]

    it.tidalwave.image.metadata.WangAnnotations +- - it.tidalwave.image.metadata.WangAnnotations.Attributes
    it.tidalwave.image.metadata.WangAnnotations +- - it.tidalwave.image.metadata.WangAnnotations.Internal
    it.tidalwave.image.metadata.WangAnnotations +- - it.tidalwave.image.metadata.WangAnnotations.OiAnText
    it.tidalwave.image.metadata.WangAnnotations +- - it.tidalwave.image.metadata.WangAnnotations.OiHilite

    center footer UMLDoclet 2.0.12, PlantUML 1.2020.16
@enduml

PlantUML version 1.2020.16(Sun Aug 23 22:20:43 CEST 2020)
(APACHE source distribution)
Java Runtime: OpenJDK Runtime Environment
JVM: OpenJDK 64-Bit Server VM
Default Encoding: UTF-8
Language: en
Country: GB
--></g></svg>