<?xml version="1.0" encoding="UTF-8" standalone="no"?><svg xmlns="http://www.w3.org/2000/svg" xmlns:xlink="http://www.w3.org/1999/xlink" contentScriptType="application/ecmascript" contentStyleType="text/css" height="200px" preserveAspectRatio="none" style="width:781px;height:200px;" version="1.1" viewBox="0 0 781 200" width="781px" zoomAndPan="magnify"><defs><filter height="300%" id="f6wlhpbr7yvv5" width="300%" x="-1" y="-1"><feGaussianBlur result="blurOut" stdDeviation="2.0"/><feColorMatrix in="blurOut" result="blurOut2" type="matrix" values="0 0 0 0 0 0 0 0 0 0 0 0 0 0 0 0 0 0 .4 0"/><feOffset dx="4.0" dy="4.0" in="blurOut2" result="blurOut3"/><feBlend in="SourceGraphic" in2="blurOut3" mode="normal"/></filter></defs><g><!--MD5=[2b89d90af2e158f5f5ce1faa766e8601]
class it.tidalwave.northernwind.frontend.ui.component.gallery.htmltemplate.HtmlTemplateGalleryView--><a href="HtmlTemplateGalleryView.html" target="_top" title="HtmlTemplateGalleryView.html" xlink:actuate="onRequest" xlink:href="HtmlTemplateGalleryView.html" xlink:show="new" xlink:title="HtmlTemplateGalleryView.html" xlink:type="simple"><rect codeLine="5" fill="#FEFECE" filter="url(#f6wlhpbr7yvv5)" height="59.2207" id="it.tidalwave.northernwind.frontend.ui.component.gallery.htmltemplate.HtmlTemplateGalleryView" style="stroke: #A80036; stroke-width: 1.5;" width="376" x="222.5" y="105"/><ellipse cx="237.5" cy="124.1328" fill="#ADD1B2" rx="11" ry="11" style="stroke: #A80036; stroke-width: 1.0;"/><path d="M239.9731,130.2759 Q239.3921,130.5747 238.7529,130.7241 Q238.1138,130.8735 237.4082,130.8735 Q234.9014,130.8735 233.5815,129.2217 Q232.2617,127.5698 232.2617,124.4487 Q232.2617,121.3193 233.5815,119.6675 Q234.9014,118.0156 237.4082,118.0156 Q238.1138,118.0156 238.7612,118.165 Q239.4087,118.3145 239.9731,118.6133 L239.9731,121.3359 Q239.3423,120.7549 238.7488,120.4851 Q238.1553,120.2153 237.5244,120.2153 Q236.1797,120.2153 235.4949,121.282 Q234.8101,122.3486 234.8101,124.4487 Q234.8101,126.5405 235.4949,127.6072 Q236.1797,128.6738 237.5244,128.6738 Q238.1553,128.6738 238.7488,128.4041 Q239.3423,128.1343 239.9731,127.5532 Z "/><text fill="#000000" font-family="sans-serif" font-size="14" lengthAdjust="spacingAndGlyphs" textLength="175" x="336" y="123.5352">HtmlTemplateGalleryView</text><text fill="#000000" font-family="sans-serif" font-size="10" lengthAdjust="spacingAndGlyphs" textLength="344" x="251.5" y="136.1563">it.tidalwave.northernwind.frontend.ui.component.gallery.htmltemplate</text><line style="stroke: #A80036; stroke-width: 1.5;" x1="223.5" x2="597.5" y1="143.2656" y2="143.2656"/><ellipse cx="233.5" cy="154.2656" fill="#84BE84" rx="3" ry="3" style="stroke: #038048; stroke-width: 1.0;"/><text fill="#000000" font-family="sans-serif" font-size="11" lengthAdjust="spacingAndGlyphs" textLength="153" x="242.5" y="157.9004">HtmlTemplateGalleryView(Id)</text></a><!--MD5=[1626f5e6f181681297ebdae76ce237ee]
class it.tidalwave.northernwind.frontend.ui.component.nodecontainer.htmltemplate.HtmlTemplateNodeContainerView_2--><a href="../../nodecontainer/htmltemplate/HtmlTemplateNodeContainerView_2.html" target="_top" title="../../nodecontainer/htmltemplate/HtmlTemplateNodeContainerView_2.html" xlink:actuate="onRequest" xlink:href="../../nodecontainer/htmltemplate/HtmlTemplateNodeContainerView_2.html" xlink:show="new" xlink:title="../../nodecontainer/htmltemplate/HtmlTemplateNodeContainerView_2.html" xlink:type="simple"><rect codeLine="9" fill="#FEFECE" filter="url(#f6wlhpbr7yvv5)" height="38.2656" id="it.tidalwave.northernwind.frontend.ui.component.nodecontainer.htmltemplate.HtmlTemplateNodeContainerView_2" style="stroke: #A80036; stroke-width: 1.5;" width="413" x="7" y="7"/><ellipse cx="22" cy="26.1328" fill="#ADD1B2" rx="11" ry="11" style="stroke: #A80036; stroke-width: 1.0;"/><path d="M24.4731,32.2759 Q23.8921,32.5747 23.2529,32.7241 Q22.6138,32.8735 21.9082,32.8735 Q19.4014,32.8735 18.0815,31.2217 Q16.7617,29.5698 16.7617,26.4487 Q16.7617,23.3193 18.0815,21.6675 Q19.4014,20.0156 21.9082,20.0156 Q22.6138,20.0156 23.2612,20.165 Q23.9087,20.3145 24.4731,20.6133 L24.4731,23.3359 Q23.8423,22.7549 23.2488,22.4851 Q22.6553,22.2153 22.0244,22.2153 Q20.6797,22.2153 19.9949,23.282 Q19.3101,24.3486 19.3101,26.4487 Q19.3101,28.5405 19.9949,29.6072 Q20.6797,30.6738 22.0244,30.6738 Q22.6553,30.6738 23.2488,30.4041 Q23.8423,30.1343 24.4731,29.5532 Z "/><text fill="#000000" font-family="sans-serif" font-size="14" lengthAdjust="spacingAndGlyphs" textLength="248" x="102.5" y="25.5352">HtmlTemplateNodeContainerView_2</text><text fill="#000000" font-family="sans-serif" font-size="10" lengthAdjust="spacingAndGlyphs" textLength="381" x="36" y="38.1563">it.tidalwave.northernwind.frontend.ui.component.nodecontainer.htmltemplate</text></a><!--MD5=[41d7a0f20573fd3dcb944da664068423]
class it.tidalwave.northernwind.frontend.ui.component.gallery.GalleryView--><a href="http://tidalwave.tidalwave.it/northernwind/it-tidalwave-northernwind-modules/it-tidalwave-northernwind-frontend-components/apidocs/it/tidalwave/northernwind/frontend/ui/component/gallery/GalleryView.html?is-external=true" target="_top" title="http://tidalwave.tidalwave.it/northernwind/it-tidalwave-northernwind-modules/it-tidalwave-northernwind-frontend-components/apidocs/it/tidalwave/northernwind/frontend/ui/component/gallery/GalleryView.html?is-external=true" xlink:actuate="onRequest" xlink:href="http://tidalwave.tidalwave.it/northernwind/it-tidalwave-northernwind-modules/it-tidalwave-northernwind-frontend-components/apidocs/it/tidalwave/northernwind/frontend/ui/component/gallery/GalleryView.html?is-external=true" xlink:show="new" xlink:title="http://tidalwave.tidalwave.it/northernwind/it-tidalwave-northernwind-modules/it-tidalwave-northernwind-frontend-components/apidocs/it/tidalwave/northernwind/frontend/ui/component/gallery/GalleryView.html?is-external=true" xlink:type="simple"><rect codeLine="10" fill="#FEFECE" filter="url(#f6wlhpbr7yvv5)" height="38.2656" id="it.tidalwave.northernwind.frontend.ui.component.gallery.GalleryView" style="stroke: #A80036; stroke-width: 1.5;" width="307" x="455" y="7"/><ellipse cx="470" cy="26.1328" fill="#B4A7E5" rx="11" ry="11" style="stroke: #A80036; stroke-width: 1.0;"/><path d="M466.4277,22.3979 L466.4277,20.2397 L473.8071,20.2397 L473.8071,22.3979 L471.3418,22.3979 L471.3418,30.4746 L473.8071,30.4746 L473.8071,32.6328 L466.4277,32.6328 L466.4277,30.4746 L468.8931,30.4746 L468.8931,22.3979 Z "/><text fill="#000000" font-family="sans-serif" font-size="14" font-style="italic" lengthAdjust="spacingAndGlyphs" textLength="79" x="582" y="25.5352">GalleryView</text><text fill="#000000" font-family="sans-serif" font-size="10" font-style="italic" lengthAdjust="spacingAndGlyphs" textLength="275" x="484" y="38.1563">it.tidalwave.northernwind.frontend.ui.component.gallery</text></a><!--MD5=[5df035e1823b2a63d28046eebbbeed2b]
reverse link it.tidalwave.northernwind.frontend.ui.component.nodecontainer.htmltemplate.HtmlTemplateNodeContainerView_2 to it.tidalwave.northernwind.frontend.ui.component.gallery.htmltemplate.HtmlTemplateGalleryView--><path codeLine="12" d="M266.0726,54.9549 C294.1187,70.4017 328.5653,89.3736 356.7828,104.9146 " fill="none" id="it.tidalwave.northernwind.frontend.ui.component.nodecontainer.htmltemplate.HtmlTemplateNodeContainerView_2-backto-it.tidalwave.northernwind.frontend.ui.component.gallery.htmltemplate.HtmlTemplateGalleryView" style="stroke: #A80036; stroke-width: 1.0;"/><polygon fill="none" points="262.4078,60.9281,248.2662,45.1479,269.1619,48.665,262.4078,60.9281" style="stroke: #A80036; stroke-width: 1.0;"/><!--MD5=[96c549a85547434438a71b12b1af7c4b]
reverse link it.tidalwave.northernwind.frontend.ui.component.gallery.GalleryView to it.tidalwave.northernwind.frontend.ui.component.gallery.htmltemplate.HtmlTemplateGalleryView--><path codeLine="13" d="M555.6606,54.9549 C527.4721,70.4017 492.8506,89.3736 464.4899,104.9146 " fill="none" id="it.tidalwave.northernwind.frontend.ui.component.gallery.GalleryView-backto-it.tidalwave.northernwind.frontend.ui.component.gallery.htmltemplate.HtmlTemplateGalleryView" style="stroke: #A80036; stroke-width: 1.0; stroke-dasharray: 7.0,7.0;"/><polygon fill="none" points="552.6542,48.6203,573.5574,45.1479,559.382,60.8978,552.6542,48.6203" style="stroke: #A80036; stroke-width: 1.0;"/><text fill="#888888" font-family="sans-serif" font-size="10" lengthAdjust="spacingAndGlyphs" textLength="188" x="287.5" y="186.8887">UMLDoclet 2.0.12, PlantUML 1.2020.16</text><!--MD5=[65880db4b4c9f015fd98b28a5a12e04e]
@startuml
    set namespaceSeparator none
    hide empty fields
    hide empty methods

    class "<size:14>HtmlTemplateGalleryView\n<size:10>it.tidalwave.northernwind.frontend.ui.component.gallery.htmltemplate" as it.tidalwave.northernwind.frontend.ui.component.gallery.htmltemplate.HtmlTemplateGalleryView [[HtmlTemplateGalleryView.html]] {
        +HtmlTemplateGalleryView(Id)
    }

    class "<size:14>HtmlTemplateNodeContainerView_2\n<size:10>it.tidalwave.northernwind.frontend.ui.component.nodecontainer.htmltemplate" as it.tidalwave.northernwind.frontend.ui.component.nodecontainer.htmltemplate.HtmlTemplateNodeContainerView_2 [[../../nodecontainer/htmltemplate/HtmlTemplateNodeContainerView_2.html]]
    interface "<size:14>GalleryView\n<size:10>it.tidalwave.northernwind.frontend.ui.component.gallery" as it.tidalwave.northernwind.frontend.ui.component.gallery.GalleryView [[http://tidalwave.tidalwave.it/northernwind/it-tidalwave-northernwind-modules/it-tidalwave-northernwind-frontend-components/apidocs/it/tidalwave/northernwind/frontend/ui/component/gallery/GalleryView.html?is-external=true]]

    it.tidalwave.northernwind.frontend.ui.component.nodecontainer.htmltemplate.HtmlTemplateNodeContainerView_2 <|- - it.tidalwave.northernwind.frontend.ui.component.gallery.htmltemplate.HtmlTemplateGalleryView
    it.tidalwave.northernwind.frontend.ui.component.gallery.GalleryView <|.. it.tidalwave.northernwind.frontend.ui.component.gallery.htmltemplate.HtmlTemplateGalleryView

    center footer UMLDoclet 2.0.12, PlantUML 1.2020.16
@enduml

PlantUML version 1.2020.16(Sun Aug 23 22:20:43 CEST 2020)
(APACHE source distribution)
Java Runtime: OpenJDK Runtime Environment
JVM: OpenJDK 64-Bit Server VM
Default Encoding: UTF-8
Language: en
Country: GB
--></g></svg>