GROUP,PACKAGE,CLASS,INSTRUCTION_MISSED,INSTRUCTION_COVERED,BRANCH_MISSED,BRANCH_COVERED,LINE_MISSED,LINE_COVERED,COMPLEXITY_MISSED,COMPLEXITY_COVERED,METHOD_MISSED,METHOD_COVERED
blueHour :: UI :: Hourly Report/it-tidalwave-accounting-model,it.tidalwave.accounting.model.spi.util,DurationFormat,26,0,0,0,4,0,2,0,2,0
blueHour :: UI :: Hourly Report/it-tidalwave-accounting-model,it.tidalwave.accounting.model.spi.util,Formatters,22,0,0,0,7,0,2,0,2,0
blueHour :: UI :: Hourly Report/it-tidalwave-accounting-model,it.tidalwave.accounting.model.spi.util,MoneyFormat,40,0,0,0,8,0,3,0,3,0
blueHour :: UI :: Hourly Report/it-tidalwave-accounting-model,it.tidalwave.accounting.model,Project.Builder,38,0,0,0,9,0,4,0,4,0
blueHour :: UI :: Hourly Report/it-tidalwave-accounting-model,it.tidalwave.accounting.model,Invoice.Builder.Callback,4,0,0,0,1,0,2,0,2,0
blueHour :: UI :: Hourly Report/it-tidalwave-accounting-model,it.tidalwave.accounting.model,HourlyReportGenerator,3,0,0,0,1,0,1,0,1,0
blueHour :: UI :: Hourly Report/it-tidalwave-accounting-model,it.tidalwave.accounting.model,Invoice.Builder,34,0,0,0,8,0,4,0,4,0
blueHour :: UI :: Hourly Report/it-tidalwave-accounting-model,it.tidalwave.accounting.model,JobEvent.Type,15,0,0,0,1,0,1,0,1,0
blueHour :: UI :: Hourly Report/it-tidalwave-accounting-model,it.tidalwave.accounting.model,Project.Builder.Callback,4,0,0,0,1,0,2,0,2,0
blueHour :: UI :: Hourly Report/it-tidalwave-accounting-model,it.tidalwave.accounting.model,HourlyReport,3,0,0,0,1,0,1,0,1,0
blueHour :: UI :: Hourly Report/it-tidalwave-accounting-model,it.tidalwave.accounting.model,Project.Status,15,0,0,0,1,0,1,0,1,0
blueHour :: UI :: Hourly Report/it-tidalwave-accounting-model,it.tidalwave.accounting.model,Customer,4,0,0,0,1,0,1,0,1,0
blueHour :: UI :: Hourly Report/it-tidalwave-accounting-model,it.tidalwave.accounting.model,Customer.Builder,30,0,0,0,8,0,4,0,4,0
blueHour :: UI :: Hourly Report/it-tidalwave-accounting-model,it.tidalwave.accounting.model,JobEventRegistry,3,0,0,0,1,0,1,0,1,0
blueHour :: UI :: Hourly Report/it-tidalwave-accounting-model,it.tidalwave.accounting.model,Customer.Builder.Callback,4,0,0,0,1,0,2,0,2,0
blueHour :: UI :: Hourly Report/it-tidalwave-accounting-model,it.tidalwave.accounting.model,Project,4,0,0,0,1,0,1,0,1,0
blueHour :: UI :: Hourly Report/it-tidalwave-accounting-model,it.tidalwave.accounting.model,JobEvent.Builder,19,0,0,0,3,0,2,0,2,0
blueHour :: UI :: Hourly Report/it-tidalwave-accounting-model,it.tidalwave.accounting.model,ProjectRegistry,3,0,0,0,1,0,1,0,1,0
blueHour :: UI :: Hourly Report/it-tidalwave-accounting-model,it.tidalwave.accounting.model,JobEvent,4,0,0,0,1,0,1,0,1,0
blueHour :: UI :: Hourly Report/it-tidalwave-accounting-model,it.tidalwave.accounting.model,Accounting,16,0,0,0,4,0,1,0,1,0
blueHour :: UI :: Hourly Report/it-tidalwave-accounting-model,it.tidalwave.accounting.model.types,Address.Builder,0,5,0,0,0,1,0,1,0,1
blueHour :: UI :: Hourly Report/it-tidalwave-accounting-model,it.tidalwave.accounting.model.types,Money,68,100,1,7,9,19,5,14,4,11
blueHour :: UI :: Hourly Report/it-tidalwave-accounting-model,it.tidalwave.accounting.model.types,Address,0,36,0,0,0,9,0,3,0,3
blueHour :: UI :: Hourly Report/it-tidalwave-accounting-model,it.tidalwave.accounting.model.spi,ObjectFactory,16,0,0,0,4,0,1,0,1,0
blueHour :: UI :: Hourly Report/it-tidalwave-accounting-model,it.tidalwave.accounting.model.impl,DefaultHourlyReportGenerator,252,0,4,0,33,0,6,0,4,0
blueHour :: UI :: Hourly Report/it-tidalwave-accounting-ui-commons,it.tidalwave.accounting.commons,Styleables,9,0,0,0,1,0,1,0,1,0
blueHour :: UI :: Hourly Report/it-tidalwave-accounting-ui-commons,it.tidalwave.accounting.commons,ImportRequest,3,0,0,0,1,0,1,0,1,0
blueHour :: UI :: Hourly Report/it-tidalwave-accounting-ui-commons,it.tidalwave.accounting.role,Loadable,3,0,0,0,1,0,1,0,1,0
blueHour :: UI :: Hourly Report/it-tidalwave-accounting-ui-commons,it.tidalwave.accounting.role,LoadableSaveableAccounting,53,0,0,0,11,0,4,0,4,0
blueHour :: UI :: Hourly Report/it-tidalwave-accounting-ui-commons,it.tidalwave.accounting.role,Saveable,3,0,0,0,1,0,1,0,1,0
blueHour :: UI :: Hourly Report/it-tidalwave-accounting-ui-commons,it.tidalwave.role.ui.spi,MessageSendingUserAction,26,0,0,0,3,0,3,0,3,0
blueHour :: UI :: Hourly Report/it-tidalwave-accounting-ui-commons,it.tidalwave.role.ui.spi,DefaultUserActionProvider2,11,0,0,0,3,0,3,0,3,0
