@startuml
    set namespaceSeparator none
    hide empty fields
    hide empty methods

    class "<size:14>DefaultHtmlTextWithTitleViewController.TextWithTitle\n<size:10>it.tidalwave.northernwind.frontend.ui.component.htmltextwithtitle" as it.tidalwave.northernwind.frontend.ui.component.htmltextwithtitle.DefaultHtmlTextWithTitleViewController.TextWithTitle [[DefaultHtmlTextWithTitleViewController.TextWithTitle.html]] {
        +title: Optional<String>
        +text: Optional<String>
        +level: int
    }

    abstract class "<size:14>DefaultHtmlTextWithTitleViewController\n<size:10>it.tidalwave.northernwind.frontend.ui.component.htmltextwithtitle" as it.tidalwave.northernwind.frontend.ui.component.htmltextwithtitle.DefaultHtmlTextWithTitleViewController [[DefaultHtmlTextWithTitleViewController.html]] {
        {abstract} #render(List<? extends TextWithTitle>): void
    }

    it.tidalwave.northernwind.frontend.ui.component.htmltextwithtitle.DefaultHtmlTextWithTitleViewController +-- it.tidalwave.northernwind.frontend.ui.component.htmltextwithtitle.DefaultHtmlTextWithTitleViewController.TextWithTitle

    center footer UMLDoclet 2.0.12, PlantUML 1.2020.16
@enduml
