@startuml
    set namespaceSeparator none
    hide empty fields
    hide empty methods

    interface "<size:14>CustomerSpi\n<size:10>it.tidalwave.accounting.model.spi" as it.tidalwave.accounting.model.spi.CustomerSpi [[CustomerSpi.html]] {
        {abstract} +getName(): String
    }

    interface "<size:14>Customer\n<size:10>it.tidalwave.accounting.model" as it.tidalwave.accounting.model.Customer [[../Customer.html]] {
        {abstract} +findProjects(): ProjectFinder
        {abstract} +toBuilder(): Builder
    }

    it.tidalwave.accounting.model.Customer <|-- it.tidalwave.accounting.model.spi.CustomerSpi

    center footer UMLDoclet 2.0.12, PlantUML 1.2020.16
@enduml
