<?xml version="1.0" encoding="UTF-8" standalone="no"?><svg xmlns="http://www.w3.org/2000/svg" xmlns:xlink="http://www.w3.org/1999/xlink" contentScriptType="application/ecmascript" contentStyleType="text/css" height="273px" preserveAspectRatio="none" style="width:221px;height:273px;" version="1.1" viewBox="0 0 221 273" width="221px" zoomAndPan="magnify"><defs><filter height="300%" id="f11p0av2gwx4wv" width="300%" x="-1" y="-1"><feGaussianBlur result="blurOut" stdDeviation="2.0"/><feColorMatrix in="blurOut" result="blurOut2" type="matrix" values="0 0 0 0 0 0 0 0 0 0 0 0 0 0 0 0 0 0 .4 0"/><feOffset dx="4.0" dy="4.0" in="blurOut2" result="blurOut3"/><feBlend in="SourceGraphic" in2="blurOut3" mode="normal"/></filter></defs><g><!--MD5=[df64a6f2c9e22b2c9eca5a083844ca31]
class it.tidalwave.accounting.model.spi.FlatJobEventSpi--><a href="FlatJobEventSpi.html" target="_top" title="FlatJobEventSpi.html" xlink:actuate="onRequest" xlink:href="FlatJobEventSpi.html" xlink:show="new" xlink:title="FlatJobEventSpi.html" xlink:type="simple"><rect codeLine="5" fill="#FEFECE" filter="url(#f11p0av2gwx4wv)" height="59.2207" id="it.tidalwave.accounting.model.spi.FlatJobEventSpi" style="stroke: #A80036; stroke-width: 1.5;" width="195" x="7" y="178"/><ellipse cx="22" cy="197.1328" fill="#B4A7E5" rx="11" ry="11" style="stroke: #A80036; stroke-width: 1.0;"/><path d="M18.4277,193.3979 L18.4277,191.2397 L25.8071,191.2397 L25.8071,193.3979 L23.3418,193.3979 L23.3418,201.4746 L25.8071,201.4746 L25.8071,203.6328 L18.4277,203.6328 L18.4277,201.4746 L20.8931,201.4746 L20.8931,193.3979 Z "/><text fill="#000000" font-family="sans-serif" font-size="14" font-style="italic" lengthAdjust="spacingAndGlyphs" textLength="105" x="65" y="196.5352">FlatJobEventSpi</text><text fill="#000000" font-family="sans-serif" font-size="10" font-style="italic" lengthAdjust="spacingAndGlyphs" textLength="163" x="36" y="209.1563">it.tidalwave.accounting.model.spi</text><line style="stroke: #A80036; stroke-width: 1.5;" x1="8" x2="201" y1="216.2656" y2="216.2656"/><ellipse cx="18" cy="227.2656" fill="#84BE84" rx="3" ry="3" style="stroke: #038048; stroke-width: 1.0;"/><text fill="#000000" font-family="sans-serif" font-size="11" font-style="italic" lengthAdjust="spacingAndGlyphs" textLength="107" x="27" y="230.9004">getDate(): LocalDate</text></a><!--MD5=[f9ef5e9a1ac86371d8abe53610151a6e]
class it.tidalwave.accounting.model.spi.JobEventSpi--><a href="JobEventSpi.html" target="_top" title="JobEventSpi.html" xlink:actuate="onRequest" xlink:href="JobEventSpi.html" xlink:show="new" xlink:title="JobEventSpi.html" xlink:type="simple"><rect codeLine="9" fill="#FEFECE" filter="url(#f11p0av2gwx4wv)" height="111.041" id="it.tidalwave.accounting.model.spi.JobEventSpi" style="stroke: #A80036; stroke-width: 1.5;" width="195" x="7" y="7"/><ellipse cx="22" cy="26.1328" fill="#B4A7E5" rx="11" ry="11" style="stroke: #A80036; stroke-width: 1.0;"/><path d="M18.4277,22.3979 L18.4277,20.2397 L25.8071,20.2397 L25.8071,22.3979 L23.3418,22.3979 L23.3418,30.4746 L25.8071,30.4746 L25.8071,32.6328 L18.4277,32.6328 L18.4277,30.4746 L20.8931,30.4746 L20.8931,22.3979 Z "/><text fill="#000000" font-family="sans-serif" font-size="14" font-style="italic" lengthAdjust="spacingAndGlyphs" textLength="80" x="77.5" y="25.5352">JobEventSpi</text><text fill="#000000" font-family="sans-serif" font-size="10" font-style="italic" lengthAdjust="spacingAndGlyphs" textLength="163" x="36" y="38.1563">it.tidalwave.accounting.model.spi</text><line style="stroke: #A80036; stroke-width: 1.5;" x1="8" x2="201" y1="45.2656" y2="45.2656"/><ellipse cx="18" cy="56.2656" fill="#84BE84" rx="3" ry="3" style="stroke: #038048; stroke-width: 1.0;"/><text fill="#000000" font-family="sans-serif" font-size="11" font-style="italic" lengthAdjust="spacingAndGlyphs" textLength="93" x="27" y="59.9004">getName(): String</text><ellipse cx="18" cy="69.2207" fill="#84BE84" rx="3" ry="3" style="stroke: #038048; stroke-width: 1.0;"/><text fill="#000000" font-family="sans-serif" font-size="11" font-style="italic" lengthAdjust="spacingAndGlyphs" textLength="125" x="27" y="72.8555">getDescription(): String</text><ellipse cx="18" cy="82.1758" fill="#84BE84" rx="3" ry="3" style="stroke: #038048; stroke-width: 1.0;"/><text fill="#000000" font-family="sans-serif" font-size="11" font-style="italic" lengthAdjust="spacingAndGlyphs" textLength="125" x="27" y="85.8105">getDuration(): Duration</text><ellipse cx="18" cy="95.1309" fill="#84BE84" rx="3" ry="3" style="stroke: #038048; stroke-width: 1.0;"/><text fill="#000000" font-family="sans-serif" font-size="11" font-style="italic" lengthAdjust="spacingAndGlyphs" textLength="113" x="27" y="98.7656">getEarnings(): Money</text><ellipse cx="18" cy="108.0859" fill="#84BE84" rx="3" ry="3" style="stroke: #038048; stroke-width: 1.0;"/><text fill="#000000" font-family="sans-serif" font-size="11" font-style="italic" lengthAdjust="spacingAndGlyphs" textLength="159" x="27" y="111.7207">getDateTime(): LocalDateTime</text></a><!--MD5=[2229a8a3f343e73888a62f5cfea0f8a4]
reverse link it.tidalwave.accounting.model.spi.JobEventSpi to it.tidalwave.accounting.model.spi.FlatJobEventSpi--><path codeLine="17" d="M104.5,138.475 C104.5,152.4313 104.5,166.2154 104.5,177.7524 " fill="none" id="it.tidalwave.accounting.model.spi.JobEventSpi-backto-it.tidalwave.accounting.model.spi.FlatJobEventSpi" style="stroke: #A80036; stroke-width: 1.0;"/><polygon fill="none" points="97.5001,138.1461,104.5,118.1461,111.5001,138.1461,97.5001,138.1461" style="stroke: #A80036; stroke-width: 1.0;"/><text fill="#888888" font-family="sans-serif" font-size="10" lengthAdjust="spacingAndGlyphs" textLength="188" x="7.5" y="259.8887">UMLDoclet 2.0.12, PlantUML 1.2020.16</text><!--MD5=[1fbbc0469e88ffafb7997fc38732600d]
@startuml
    set namespaceSeparator none
    hide empty fields
    hide empty methods

    interface "<size:14>FlatJobEventSpi\n<size:10>it.tidalwave.accounting.model.spi" as it.tidalwave.accounting.model.spi.FlatJobEventSpi [[FlatJobEventSpi.html]] {
        {abstract} +getDate(): LocalDate
    }

    interface "<size:14>JobEventSpi\n<size:10>it.tidalwave.accounting.model.spi" as it.tidalwave.accounting.model.spi.JobEventSpi [[JobEventSpi.html]] {
        {abstract} +getName(): String
        {abstract} +getDescription(): String
        {abstract} +getDuration(): Duration
        {abstract} +getEarnings(): Money
        {abstract} +getDateTime(): LocalDateTime
    }

    it.tidalwave.accounting.model.spi.JobEventSpi <|- - it.tidalwave.accounting.model.spi.FlatJobEventSpi

    center footer UMLDoclet 2.0.12, PlantUML 1.2020.16
@enduml

PlantUML version 1.2020.16(Sun Aug 23 22:20:43 CEST 2020)
(APACHE source distribution)
Java Runtime: OpenJDK Runtime Environment
JVM: OpenJDK 64-Bit Server VM
Default Encoding: UTF-8
Language: en
Country: GB
--></g></svg>