@startuml
    set namespaceSeparator none
    hide empty fields
    hide empty methods

    interface "<size:14>InvoiceSpi\n<size:10>it.tidalwave.accounting.model.spi" as it.tidalwave.accounting.model.spi.InvoiceSpi [[InvoiceSpi.html]] {
        {abstract} +getNumber(): String
        {abstract} +getProject(): Project
        {abstract} +getEarnings(): Money
        {abstract} +getTax(): Money
    }

    interface "<size:14>Invoice\n<size:10>it.tidalwave.accounting.model" as it.tidalwave.accounting.model.Invoice [[../Invoice.html]] {
        {abstract} +findJobEvents(): Finder<JobEvent>
        {abstract} +toBuilder(): Builder
    }

    it.tidalwave.accounting.model.Invoice <|-- it.tidalwave.accounting.model.spi.InvoiceSpi

    center footer UMLDoclet 2.0.12, PlantUML 1.2020.16
@enduml
