@startuml
    set namespaceSeparator none
    hide empty fields
    hide empty methods

    class "<size:14>SpringMvcResponseHolder\n<size:10>it.tidalwave.northernwind.frontend.springmvc" as it.tidalwave.northernwind.frontend.springmvc.SpringMvcResponseHolder [[SpringMvcResponseHolder.html]] {
        +response(): SpringMvcResponseBuilder
    }

    abstract class "<size:14>ResponseHolder\n<size:10>it.tidalwave.northernwind.core.model.spi" as it.tidalwave.northernwind.core.model.spi.ResponseHolder<ResponseEntity<?>> {
        {abstract} +response(): ResponseBuilder<RESPONSE_TYPE>
    }

    it.tidalwave.northernwind.core.model.spi.ResponseHolder <|-- it.tidalwave.northernwind.frontend.springmvc.SpringMvcResponseHolder

    center footer UMLDoclet 2.0.12, PlantUML 1.2020.16
@enduml
