@startuml
    set namespaceSeparator none
    hide empty fields
    hide empty methods

    class "<size:14>HtmlTemplateHorizontalMenuView\n<size:10>it.tidalwave.northernwind.frontend.ui.component.menu.htmltemplate" as it.tidalwave.northernwind.frontend.ui.component.menu.htmltemplate.HtmlTemplateHorizontalMenuView [[HtmlTemplateHorizontalMenuView.html]] {
        +HtmlTemplateHorizontalMenuView(Id)
    }

    class "<size:14>HtmlHolder\n<size:10>it.tidalwave.northernwind.frontend.ui.component.htmltemplate" as it.tidalwave.northernwind.frontend.ui.component.htmltemplate.HtmlHolder [[../../htmltemplate/HtmlHolder.html]]
    interface "<size:14>MenuView\n<size:10>it.tidalwave.northernwind.frontend.ui.component.menu" as it.tidalwave.northernwind.frontend.ui.component.menu.MenuView [[http://tidalwave.tidalwave.it/northernwind/it-tidalwave-northernwind-modules/it-tidalwave-northernwind-frontend-components/apidocs/it/tidalwave/northernwind/frontend/ui/component/menu/MenuView.html?is-external=true]] {
        {abstract} +addLink(String, String): void
        {abstract} +setTitle(String): void
        {abstract} +setTemplate(String): void
    }

    it.tidalwave.northernwind.frontend.ui.component.htmltemplate.HtmlHolder <|-- it.tidalwave.northernwind.frontend.ui.component.menu.htmltemplate.HtmlTemplateHorizontalMenuView
    it.tidalwave.northernwind.frontend.ui.component.menu.MenuView <|.. it.tidalwave.northernwind.frontend.ui.component.menu.htmltemplate.HtmlTemplateHorizontalMenuView

    center footer UMLDoclet 2.0.12, PlantUML 1.2020.16
@enduml
