<?xml version="1.0" encoding="UTF-8" standalone="no"?><svg xmlns="http://www.w3.org/2000/svg" xmlns:xlink="http://www.w3.org/1999/xlink" contentScriptType="application/ecmascript" contentStyleType="text/css" height="221px" preserveAspectRatio="none" style="width:245px;height:221px;" version="1.1" viewBox="0 0 245 221" width="245px" zoomAndPan="magnify"><defs><filter height="300%" id="f164gkso4x9pbe" width="300%" x="-1" y="-1"><feGaussianBlur result="blurOut" stdDeviation="2.0"/><feColorMatrix in="blurOut" result="blurOut2" type="matrix" values="0 0 0 0 0 0 0 0 0 0 0 0 0 0 0 0 0 0 .4 0"/><feOffset dx="4.0" dy="4.0" in="blurOut2" result="blurOut3"/><feBlend in="SourceGraphic" in2="blurOut3" mode="normal"/></filter></defs><g><!--MD5=[f5fa7713bef1d191769471dcf7db3249]
class it.tidalwave.util.asexamples.Datum2RenderableRole--><a href="Datum2RenderableRole.html" target="_top" title="Datum2RenderableRole.html" xlink:actuate="onRequest" xlink:href="Datum2RenderableRole.html" xlink:show="new" xlink:title="Datum2RenderableRole.html" xlink:type="simple"><rect codeLine="5" fill="#FEFECE" filter="url(#f164gkso4x9pbe)" height="59.2207" id="it.tidalwave.util.asexamples.Datum2RenderableRole" style="stroke: #A80036; stroke-width: 1.5;" width="219" x="7" y="126"/><ellipse cx="33.25" cy="145.1328" fill="#ADD1B2" rx="11" ry="11" style="stroke: #A80036; stroke-width: 1.0;"/><path d="M35.7231,151.2759 Q35.1421,151.5747 34.5029,151.7241 Q33.8638,151.8735 33.1582,151.8735 Q30.6514,151.8735 29.3315,150.2217 Q28.0117,148.5698 28.0117,145.4487 Q28.0117,142.3193 29.3315,140.6675 Q30.6514,139.0156 33.1582,139.0156 Q33.8638,139.0156 34.5112,139.165 Q35.1587,139.3145 35.7231,139.6133 L35.7231,142.3359 Q35.0923,141.7549 34.4988,141.4851 Q33.9053,141.2153 33.2744,141.2153 Q31.9297,141.2153 31.2449,142.282 Q30.5601,143.3486 30.5601,145.4487 Q30.5601,147.5405 31.2449,148.6072 Q31.9297,149.6738 33.2744,149.6738 Q33.9053,149.6738 34.4988,149.4041 Q35.0923,149.1343 35.7231,148.5532 Z "/><text fill="#000000" font-family="sans-serif" font-size="14" lengthAdjust="spacingAndGlyphs" textLength="162" x="49.75" y="144.5352">Datum2RenderableRole</text><text fill="#000000" font-family="sans-serif" font-size="10" lengthAdjust="spacingAndGlyphs" textLength="137" x="62.25" y="157.1563">it.tidalwave.util.asexamples</text><line style="stroke: #A80036; stroke-width: 1.5;" x1="8" x2="225" y1="164.2656" y2="164.2656"/><ellipse cx="18" cy="175.2656" fill="#84BE84" rx="3" ry="3" style="stroke: #038048; stroke-width: 1.0;"/><text fill="#000000" font-family="sans-serif" font-size="11" lengthAdjust="spacingAndGlyphs" textLength="193" x="27" y="178.9004">renderTo(Consumer&lt;String&gt;): void</text></a><!--MD5=[9ab27992b74df4ed8a34f4d1a0f944d5]
class it.tidalwave.util.asexamples.Renderable--><a href="Renderable.html" target="_top" title="Renderable.html" xlink:actuate="onRequest" xlink:href="Renderable.html" xlink:show="new" xlink:title="Renderable.html" xlink:type="simple"><rect codeLine="9" fill="#FEFECE" filter="url(#f164gkso4x9pbe)" height="59.2207" id="it.tidalwave.util.asexamples.Renderable" style="stroke: #A80036; stroke-width: 1.5;" width="219" x="7" y="7"/><ellipse cx="44.5" cy="26.1328" fill="#B4A7E5" rx="11" ry="11" style="stroke: #A80036; stroke-width: 1.0;"/><path d="M40.9277,22.3979 L40.9277,20.2397 L48.3071,20.2397 L48.3071,22.3979 L45.8418,22.3979 L45.8418,30.4746 L48.3071,30.4746 L48.3071,32.6328 L40.9277,32.6328 L40.9277,30.4746 L43.3931,30.4746 L43.3931,22.3979 Z "/><text fill="#000000" font-family="sans-serif" font-size="14" font-style="italic" lengthAdjust="spacingAndGlyphs" textLength="78" x="93" y="25.5352">Renderable</text><text fill="#000000" font-family="sans-serif" font-size="10" font-style="italic" lengthAdjust="spacingAndGlyphs" textLength="137" x="63.5" y="38.1563">it.tidalwave.util.asexamples</text><line style="stroke: #A80036; stroke-width: 1.5;" x1="8" x2="225" y1="45.2656" y2="45.2656"/><ellipse cx="18" cy="56.2656" fill="#84BE84" rx="3" ry="3" style="stroke: #038048; stroke-width: 1.0;"/><text fill="#000000" font-family="sans-serif" font-size="11" font-style="italic" lengthAdjust="spacingAndGlyphs" textLength="193" x="27" y="59.9004">renderTo(Consumer&lt;String&gt;): void</text></a><!--MD5=[9c98c4e84ae2584c4f2a984a5f63d6b1]
reverse link it.tidalwave.util.asexamples.Renderable to it.tidalwave.util.asexamples.Datum2RenderableRole--><path codeLine="13" d="M116.5,86.3288 C116.5,99.7348 116.5,113.8139 116.5,125.7447 " fill="none" id="it.tidalwave.util.asexamples.Renderable-backto-it.tidalwave.util.asexamples.Datum2RenderableRole" style="stroke: #A80036; stroke-width: 1.0; stroke-dasharray: 7.0,7.0;"/><polygon fill="none" points="109.5001,86.2218,116.5,66.2218,123.5001,86.2217,109.5001,86.2218" style="stroke: #A80036; stroke-width: 1.0;"/><text fill="#888888" font-family="sans-serif" font-size="10" lengthAdjust="spacingAndGlyphs" textLength="188" x="19.5" y="207.8887">UMLDoclet 2.0.12, PlantUML 1.2020.16</text><!--MD5=[25bc6ac4f1a77a732544dda1095a0df9]
@startuml
    set namespaceSeparator none
    hide empty fields
    hide empty methods

    class "<size:14>Datum2RenderableRole\n<size:10>it.tidalwave.util.asexamples" as it.tidalwave.util.asexamples.Datum2RenderableRole [[Datum2RenderableRole.html]] {
        +renderTo(Consumer<String>): void
    }

    interface "<size:14>Renderable\n<size:10>it.tidalwave.util.asexamples" as it.tidalwave.util.asexamples.Renderable [[Renderable.html]] {
        {abstract} +renderTo(Consumer<String>): void
    }

    it.tidalwave.util.asexamples.Renderable <|.. it.tidalwave.util.asexamples.Datum2RenderableRole

    center footer UMLDoclet 2.0.12, PlantUML 1.2020.16
@enduml

PlantUML version 1.2020.16(Sun Aug 23 22:20:43 CEST 2020)
(APACHE source distribution)
Java Runtime: OpenJDK Runtime Environment
JVM: OpenJDK 64-Bit Server VM
Default Encoding: UTF-8
Language: en
Country: GB
--></g></svg>