@startuml
    set namespaceSeparator none
    hide empty fields
    hide empty methods

    class "<size:14>NorthernWindContextLoaderListener\n<size:10>it.tidalwave.northernwind.frontend.util" as it.tidalwave.northernwind.frontend.util.NorthernWindContextLoaderListener [[NorthernWindContextLoaderListener.html]] {
        {static} +ATTRIBUTE_BOOT_THROWABLE: String
        +contextInitialized(ServletContextEvent): void
        +contextDestroyed(ServletContextEvent): void
    }

    class "<size:14>ContextLoaderListener\n<size:10>org.springframework.web.context" as org.springframework.web.context.ContextLoaderListener

    org.springframework.web.context.ContextLoaderListener <|-- it.tidalwave.northernwind.frontend.util.NorthernWindContextLoaderListener

    center footer UMLDoclet 2.0.12, PlantUML 1.2020.16
@enduml
