@startuml
    namespace it.tidalwave.thesefoolishthings.examples.dci.marshal.xstream {

        class DciMarshalXStreamExampleTest [[DciMarshalXStreamExampleTest.html]] {
            +must_not_crash(): void
        }

    }

    center footer UMLDoclet 2.0.12, PlantUML 1.2020.16
@enduml
