<?xml version="1.0" encoding="UTF-8" standalone="no"?><svg xmlns="http://www.w3.org/2000/svg" xmlns:xlink="http://www.w3.org/1999/xlink" contentScriptType="application/ecmascript" contentStyleType="text/css" height="299px" preserveAspectRatio="none" style="width:649px;height:299px;" version="1.1" viewBox="0 0 649 299" width="649px" zoomAndPan="magnify"><defs><filter height="300%" id="fjmygn3shkpub" width="300%" x="-1" y="-1"><feGaussianBlur result="blurOut" stdDeviation="2.0"/><feColorMatrix in="blurOut" result="blurOut2" type="matrix" values="0 0 0 0 0 0 0 0 0 0 0 0 0 0 0 0 0 0 .4 0"/><feOffset dx="4.0" dy="4.0" in="blurOut2" result="blurOut3"/><feBlend in="SourceGraphic" in2="blurOut3" mode="normal"/></filter></defs><g><!--MD5=[96999b363a5a073b5bf3b4e9cb24e4d8]
class it.tidalwave.role.ContextManager.Binder--><a href="ContextManager.Binder.html" target="_top" title="ContextManager.Binder.html" xlink:actuate="onRequest" xlink:href="ContextManager.Binder.html" xlink:show="new" xlink:title="ContextManager.Binder.html" xlink:type="simple"><rect codeLine="5" fill="#FEFECE" filter="url(#fjmygn3shkpub)" height="59.2207" id="it.tidalwave.role.ContextManager.Binder" style="stroke: #A80036; stroke-width: 1.5;" width="195" x="139.5" y="204"/><ellipse cx="154.5" cy="223.1328" fill="#ADD1B2" rx="11" ry="11" style="stroke: #A80036; stroke-width: 1.0;"/><path d="M156.9731,229.2759 Q156.3921,229.5747 155.7529,229.7241 Q155.1138,229.8735 154.4082,229.8735 Q151.9014,229.8735 150.5815,228.2217 Q149.2617,226.5698 149.2617,223.4487 Q149.2617,220.3193 150.5815,218.6675 Q151.9014,217.0156 154.4082,217.0156 Q155.1138,217.0156 155.7612,217.165 Q156.4087,217.3145 156.9731,217.6133 L156.9731,220.3359 Q156.3423,219.7549 155.7488,219.4851 Q155.1553,219.2153 154.5244,219.2153 Q153.1797,219.2153 152.4949,220.282 Q151.8101,221.3486 151.8101,223.4487 Q151.8101,225.5405 152.4949,226.6072 Q153.1797,227.6738 154.5244,227.6738 Q155.1553,227.6738 155.7488,227.4041 Q156.3423,227.1343 156.9731,226.5532 Z "/><text fill="#000000" font-family="sans-serif" font-size="14" lengthAdjust="spacingAndGlyphs" textLength="163" x="168.5" y="222.5352">ContextManager.Binder</text><text fill="#000000" font-family="sans-serif" font-size="10" lengthAdjust="spacingAndGlyphs" textLength="79" x="210.5" y="235.1563">it.tidalwave.role</text><line style="stroke: #A80036; stroke-width: 1.5;" x1="140.5" x2="333.5" y1="242.2656" y2="242.2656"/><ellipse cx="150.5" cy="253.2656" fill="#84BE84" rx="3" ry="3" style="stroke: #038048; stroke-width: 1.0;"/><text fill="#000000" font-family="sans-serif" font-size="11" lengthAdjust="spacingAndGlyphs" textLength="65" x="159.5" y="256.9004">close(): void</text></a><!--MD5=[d9a338895fcb7cd0ffc5af645c326d7f]
class java.lang.AutoCloseable--><rect codeLine="9" fill="#FEFECE" filter="url(#fjmygn3shkpub)" height="59.2207" id="java.lang.AutoCloseable" style="stroke: #A80036; stroke-width: 1.5;" width="132" x="7" y="46"/><ellipse cx="22" cy="65.1328" fill="#B4A7E5" rx="11" ry="11" style="stroke: #A80036; stroke-width: 1.0;"/><path d="M18.4277,61.3979 L18.4277,59.2397 L25.8071,59.2397 L25.8071,61.3979 L23.3418,61.3979 L23.3418,69.4746 L25.8071,69.4746 L25.8071,71.6328 L18.4277,71.6328 L18.4277,69.4746 L20.8931,69.4746 L20.8931,61.3979 Z "/><text fill="#000000" font-family="sans-serif" font-size="14" font-style="italic" lengthAdjust="spacingAndGlyphs" textLength="100" x="36" y="64.5352">AutoCloseable</text><text fill="#000000" font-family="sans-serif" font-size="10" font-style="italic" lengthAdjust="spacingAndGlyphs" textLength="44" x="64" y="77.1563">java.lang</text><line style="stroke: #A80036; stroke-width: 1.5;" x1="8" x2="138" y1="84.2656" y2="84.2656"/><ellipse cx="18" cy="95.2656" fill="#84BE84" rx="3" ry="3" style="stroke: #038048; stroke-width: 1.0;"/><text fill="#000000" font-family="sans-serif" font-size="11" font-style="italic" lengthAdjust="spacingAndGlyphs" textLength="65" x="27" y="98.9004">close(): void</text><!--MD5=[1cffb8c88bcf61fc476fe06494225e45]
class it.tidalwave.role.ContextManager--><a href="ContextManager.html" target="_top" title="ContextManager.html" xlink:actuate="onRequest" xlink:href="ContextManager.html" xlink:show="new" xlink:title="ContextManager.html" xlink:type="simple"><rect codeLine="12" fill="#FEFECE" filter="url(#fjmygn3shkpub)" height="136.9512" id="it.tidalwave.role.ContextManager" style="stroke: #A80036; stroke-width: 1.5;" width="456" x="174" y="7"/><ellipse cx="340.25" cy="26.1328" fill="#B4A7E5" rx="11" ry="11" style="stroke: #A80036; stroke-width: 1.0;"/><path d="M336.6777,22.3979 L336.6777,20.2397 L344.0571,20.2397 L344.0571,22.3979 L341.5918,22.3979 L341.5918,30.4746 L344.0571,30.4746 L344.0571,32.6328 L336.6777,32.6328 L336.6777,30.4746 L339.1431,30.4746 L339.1431,22.3979 Z "/><text fill="#000000" font-family="sans-serif" font-size="14" font-style="italic" lengthAdjust="spacingAndGlyphs" textLength="115" x="360.75" y="25.5352">ContextManager</text><text fill="#000000" font-family="sans-serif" font-size="10" font-style="italic" lengthAdjust="spacingAndGlyphs" textLength="79" x="378.75" y="38.1563">it.tidalwave.role</text><line style="stroke: #A80036; stroke-width: 1.5;" x1="175" x2="629" y1="45.2656" y2="45.2656"/><ellipse cx="185" cy="56.2656" fill="#84BE84" rx="3" ry="3" style="stroke: #038048; stroke-width: 1.0;"/><text fill="#000000" font-family="sans-serif" font-size="11" font-style="italic" lengthAdjust="spacingAndGlyphs" textLength="152" x="194" y="59.9004">getContexts(): List&lt;Object&gt;</text><ellipse cx="185" cy="69.2207" fill="#84BE84" rx="3" ry="3" style="stroke: #038048; stroke-width: 1.0;"/><text fill="#000000" font-family="sans-serif" font-size="11" font-style="italic" lengthAdjust="spacingAndGlyphs" textLength="178" x="194" y="72.8555">findContextOfType(Class&lt;T&gt;): T</text><ellipse cx="185" cy="82.1758" fill="#84BE84" rx="3" ry="3" style="stroke: #038048; stroke-width: 1.0;"/><text fill="#000000" font-family="sans-serif" font-size="11" font-style="italic" lengthAdjust="spacingAndGlyphs" textLength="169" x="194" y="85.8105">addGlobalContext(Object): void</text><ellipse cx="185" cy="95.1309" fill="#84BE84" rx="3" ry="3" style="stroke: #038048; stroke-width: 1.0;"/><text fill="#000000" font-family="sans-serif" font-size="11" font-style="italic" lengthAdjust="spacingAndGlyphs" textLength="189" x="194" y="98.7656">removeGlobalContext(Object): void</text><ellipse cx="185" cy="108.0859" fill="#84BE84" rx="3" ry="3" style="stroke: #038048; stroke-width: 1.0;"/><text fill="#000000" font-family="sans-serif" font-size="11" font-style="italic" lengthAdjust="spacingAndGlyphs" textLength="163" x="194" y="111.7207">addLocalContext(Object): void</text><ellipse cx="185" cy="121.041" fill="#84BE84" rx="3" ry="3" style="stroke: #038048; stroke-width: 1.0;"/><text fill="#000000" font-family="sans-serif" font-size="11" font-style="italic" lengthAdjust="spacingAndGlyphs" textLength="183" x="194" y="124.6758">removeLocalContext(Object): void</text><ellipse cx="185" cy="133.9961" fill="#84BE84" rx="3" ry="3" style="stroke: #038048; stroke-width: 1.0;"/><text fill="#000000" font-family="sans-serif" font-size="11" font-style="italic" lengthAdjust="spacingAndGlyphs" textLength="430" x="194" y="137.6309">runEWithContexts(SupplierWithException&lt;T, E extends Throwable&gt;, Object...): T</text></a><!--MD5=[9e91ba43d3724a5d945df56f6197fabd]
reverse link java.lang.AutoCloseable to it.tidalwave.role.ContextManager.Binder--><path codeLine="22" d="M118.5442,119.378 C146.5146,146.3251 181.5906,180.1177 206.2912,203.9147 " fill="none" id="java.lang.AutoCloseable-backto-it.tidalwave.role.ContextManager.Binder" style="stroke: #A80036; stroke-width: 1.0; stroke-dasharray: 7.0,7.0;"/><polygon fill="none" points="113.3936,124.1359,103.8471,105.2186,123.107,114.0537,113.3936,124.1359" style="stroke: #A80036; stroke-width: 1.0;"/><!--MD5=[f73d092b56b543061b5537e14ac30e8e]
reverse link it.tidalwave.role.ContextManager to it.tidalwave.role.ContextManager.Binder--><path codeLine="23" d="M319.1131,154.8705 C300.9146,172.2969 282.7413,189.6993 268.1352,203.6857 " fill="none" id="it.tidalwave.role.ContextManager-backto-it.tidalwave.role.ContextManager.Binder" style="stroke: #A80036; stroke-width: 1.0;"/><ellipse cx="324.3305" cy="149.8745" fill="#FFFFFF" rx="8" ry="8" style="stroke: #A80036; stroke-width: 1.0;"/><line style="stroke: #A80036; stroke-width: 1.0;" x1="318.5524" x2="330.1086" y1="155.4075" y2="144.3415"/><line style="stroke: #A80036; stroke-width: 1.0;" x1="318.7975" x2="329.8635" y1="144.0964" y2="155.6526"/><text fill="#888888" font-family="sans-serif" font-size="10" lengthAdjust="spacingAndGlyphs" textLength="188" x="221.5" y="285.8887">UMLDoclet 2.0.12, PlantUML 1.2020.16</text><!--MD5=[0d74ea67daed4b34263bd7f5572b4aca]
@startuml
    set namespaceSeparator none
    hide empty fields
    hide empty methods

    class "<size:14>ContextManager.Binder\n<size:10>it.tidalwave.role" as it.tidalwave.role.ContextManager.Binder [[ContextManager.Binder.html]] {
        +close(): void
    }

    interface "<size:14>AutoCloseable\n<size:10>java.lang" as java.lang.AutoCloseable {
        {abstract} +close(): void
    }
    interface "<size:14>ContextManager\n<size:10>it.tidalwave.role" as it.tidalwave.role.ContextManager [[ContextManager.html]] {
        {abstract} +getContexts(): List<Object>
        {abstract} +findContextOfType(Class<T>): T
        {abstract} +addGlobalContext(Object): void
        {abstract} +removeGlobalContext(Object): void
        {abstract} +addLocalContext(Object): void
        {abstract} +removeLocalContext(Object): void
        {abstract} +runEWithContexts(SupplierWithException<T, E extends Throwable>, Object...): T
    }

    java.lang.AutoCloseable <|.. it.tidalwave.role.ContextManager.Binder
    it.tidalwave.role.ContextManager +- - it.tidalwave.role.ContextManager.Binder

    center footer UMLDoclet 2.0.12, PlantUML 1.2020.16
@enduml

PlantUML version 1.2020.16(Sun Aug 23 22:20:43 CEST 2020)
(APACHE source distribution)
Java Runtime: OpenJDK Runtime Environment
JVM: OpenJDK 64-Bit Server VM
Default Encoding: UTF-8
Language: en
Country: GB
--></g></svg>