@startuml
    set namespaceSeparator none
    hide empty fields
    hide empty methods

    interface "<size:14>Unmarshallable\n<size:10>it.tidalwave.role.io" as it.tidalwave.role.io.Unmarshallable [[Unmarshallable.html]] {
        {static} +_Unmarshallable_: Class<Unmarshallable>
        {abstract} +unmarshal(InputStream): T
    }

    center footer UMLDoclet 2.0.12, PlantUML 1.2020.16
@enduml
