@startuml
    set namespaceSeparator none
    hide empty fields
    hide empty methods

    class "<size:14>DefaultContextManagerTest\n<size:10>it.tidalwave.role.spi" as it.tidalwave.role.spi.DefaultContextManagerTest [[DefaultContextManagerTest.html]] {
        +setup(): void
        +must_start_with_no_contexts(): void
        +must_properly_add_and_retrieve_global_contexts(): void
        +must_properly_add_and_retrieve_global_contexts_in_order(): void
        +must_properly_remove_and_retrieve_global_contexts(): void
        +must_properly_add_and_retrieve_local_contexts(): void
        +must_properly_add_and_retrieve_local_contexts_in_order(): void
        +must_properly_remove_and_retrieve_local_contexts(): void
        +must_prioritize_global_contexts(): void
        +must_confine_local_contexts_in_their_thread(): void
        +runWithContexts_must_temporarily_associate_local_contexts(): void
        +must_properly_remove_local_contexts(): void
        +must_properly_remove_local_contexts_when_exception_throw(): void
        +must_properly_remove_local_contexts_with_runnable(): void
        +must_properly_remove_local_contexts_with_supplier(): void
    }

    center footer UMLDoclet 2.0.12, PlantUML 1.2020.16
@enduml
