@startuml
    set namespaceSeparator none
    hide empty fields
    hide empty methods

    interface "<size:14>RenderContext\n<size:10>it.tidalwave.northernwind.frontend.ui" as it.tidalwave.northernwind.frontend.ui.RenderContext [[RenderContext.html]] {
        {abstract} +getRequest(): Request
        {abstract} +getRequestContext(): RequestContext
        +setDynamicNodeProperty(Key<T>, T): void
        +getQueryParam(String): Optional<String>
        +getPathParams(SiteNode): ResourcePath
    }

    center footer UMLDoclet 2.0.12, PlantUML 1.2020.16
@enduml
