<?xml version="1.0" encoding="UTF-8" standalone="no"?><svg xmlns="http://www.w3.org/2000/svg" xmlns:xlink="http://www.w3.org/1999/xlink" contentScriptType="application/ecmascript" contentStyleType="text/css" height="221px" preserveAspectRatio="none" style="width:259px;height:221px;" version="1.1" viewBox="0 0 259 221" width="259px" zoomAndPan="magnify"><defs><filter height="300%" id="fqya8oui41av1" width="300%" x="-1" y="-1"><feGaussianBlur result="blurOut" stdDeviation="2.0"/><feColorMatrix in="blurOut" result="blurOut2" type="matrix" values="0 0 0 0 0 0 0 0 0 0 0 0 0 0 0 0 0 0 .4 0"/><feOffset dx="4.0" dy="4.0" in="blurOut2" result="blurOut3"/><feBlend in="SourceGraphic" in2="blurOut3" mode="normal"/></filter></defs><g><!--MD5=[a824b429b0fa3d6606476f41410152cb]
class it.tidalwave.northernwind.core.model.spi.MediaSupport--><a href="MediaSupport.html" target="_top" title="MediaSupport.html" xlink:actuate="onRequest" xlink:href="MediaSupport.html" xlink:show="new" xlink:title="MediaSupport.html" xlink:type="simple"><rect codeLine="5" fill="#FEFECE" filter="url(#fqya8oui41av1)" height="80.1758" id="it.tidalwave.northernwind.core.model.spi.MediaSupport" style="stroke: #A80036; stroke-width: 1.5;" width="231" x="9" y="105"/><ellipse cx="24" cy="124.1328" fill="#A9DCDF" rx="11" ry="11" style="stroke: #A80036; stroke-width: 1.0;"/><path d="M23.8633,119.481 L22.7095,124.5527 L25.0254,124.5527 Z M22.3691,117.2397 L25.3657,117.2397 L28.7109,129.6328 L26.2622,129.6328 L25.4985,126.5698 L22.2197,126.5698 L21.4727,129.6328 L19.0239,129.6328 Z "/><text fill="#000000" font-family="sans-serif" font-size="14" font-style="italic" lengthAdjust="spacingAndGlyphs" textLength="96" x="89.5" y="123.5352">MediaSupport</text><text fill="#000000" font-family="sans-serif" font-size="10" font-style="italic" lengthAdjust="spacingAndGlyphs" textLength="199" x="38" y="136.1563">it.tidalwave.northernwind.core.model.spi</text><line style="stroke: #A80036; stroke-width: 1.5;" x1="10" x2="239" y1="143.2656" y2="143.2656"/><polygon fill="none" points="20,149.2656,24,153.2656,20,157.2656,16,153.2656" style="stroke: #B38D22; stroke-width: 1.0;"/><text fill="#000000" font-family="sans-serif" font-size="11" lengthAdjust="spacingAndGlyphs" textLength="151" x="29" y="157.9004">modelFactory: ModelFactory</text><line style="stroke: #A80036; stroke-width: 1.5;" x1="10" x2="239" y1="164.2207" y2="164.2207"/><ellipse cx="20" cy="175.2207" fill="#84BE84" rx="3" ry="3" style="stroke: #038048; stroke-width: 1.0;"/><text fill="#000000" font-family="sans-serif" font-size="11" lengthAdjust="spacingAndGlyphs" textLength="119" x="29" y="178.8555">MediaSupport(Builder)</text></a><!--MD5=[6eea26b945e2dd14359b5ae933ea0137]
class it.tidalwave.northernwind.core.model.Media--><a href="../Media.html" target="_top" title="../Media.html" xlink:actuate="onRequest" xlink:href="../Media.html" xlink:show="new" xlink:title="../Media.html" xlink:type="simple"><rect codeLine="10" fill="#FEFECE" filter="url(#fqya8oui41av1)" height="38.2656" id="it.tidalwave.northernwind.core.model.Media" style="stroke: #A80036; stroke-width: 1.5;" width="214" x="17.5" y="7"/><ellipse cx="32.5" cy="26.1328" fill="#B4A7E5" rx="11" ry="11" style="stroke: #A80036; stroke-width: 1.0;"/><path d="M28.9277,22.3979 L28.9277,20.2397 L36.3071,20.2397 L36.3071,22.3979 L33.8418,22.3979 L33.8418,30.4746 L36.3071,30.4746 L36.3071,32.6328 L28.9277,32.6328 L28.9277,30.4746 L31.3931,30.4746 L31.3931,22.3979 Z "/><text fill="#000000" font-family="sans-serif" font-size="14" font-style="italic" lengthAdjust="spacingAndGlyphs" textLength="41" x="117" y="25.5352">Media</text><text fill="#000000" font-family="sans-serif" font-size="10" font-style="italic" lengthAdjust="spacingAndGlyphs" textLength="182" x="46.5" y="38.1563">it.tidalwave.northernwind.core.model</text></a><!--MD5=[6eef2a1c51782ed41d0d51f339d30d32]
reverse link it.tidalwave.northernwind.core.model.Media to it.tidalwave.northernwind.core.model.spi.MediaSupport--><path codeLine="12" d="M124.5,65.2438 C124.5,77.9166 124.5,91.9816 124.5,104.7276 " fill="none" id="it.tidalwave.northernwind.core.model.Media-backto-it.tidalwave.northernwind.core.model.spi.MediaSupport" style="stroke: #A80036; stroke-width: 1.0; stroke-dasharray: 7.0,7.0;"/><polygon fill="none" points="117.5001,65.1194,124.5,45.1194,131.5001,65.1194,117.5001,65.1194" style="stroke: #A80036; stroke-width: 1.0;"/><text fill="#888888" font-family="sans-serif" font-size="10" lengthAdjust="spacingAndGlyphs" textLength="188" x="26.5" y="207.8438">UMLDoclet 2.0.12, PlantUML 1.2020.16</text><!--MD5=[4d81c638421b776f7b89c111d020c5fe]
@startuml
    set namespaceSeparator none
    hide empty fields
    hide empty methods

    abstract class "<size:14>MediaSupport\n<size:10>it.tidalwave.northernwind.core.model.spi" as it.tidalwave.northernwind.core.model.spi.MediaSupport [[MediaSupport.html]] {
        #modelFactory: ModelFactory
        +MediaSupport(Builder)
    }

    interface "<size:14>Media\n<size:10>it.tidalwave.northernwind.core.model" as it.tidalwave.northernwind.core.model.Media [[../Media.html]]

    it.tidalwave.northernwind.core.model.Media <|.. it.tidalwave.northernwind.core.model.spi.MediaSupport

    center footer UMLDoclet 2.0.12, PlantUML 1.2020.16
@enduml

PlantUML version 1.2020.16(Sun Aug 23 22:20:43 CEST 2020)
(APACHE source distribution)
Java Runtime: OpenJDK Runtime Environment
JVM: OpenJDK 64-Bit Server VM
Default Encoding: UTF-8
Language: en
Country: GB
--></g></svg>