<?xml version="1.0" encoding="UTF-8" standalone="no"?><svg xmlns="http://www.w3.org/2000/svg" xmlns:xlink="http://www.w3.org/1999/xlink" contentScriptType="application/ecmascript" contentStyleType="text/css" height="350px" preserveAspectRatio="none" style="width:326px;height:350px;" version="1.1" viewBox="0 0 326 350" width="326px" zoomAndPan="magnify"><defs><filter height="300%" id="f1ak4srm3xrezi" width="300%" x="-1" y="-1"><feGaussianBlur result="blurOut" stdDeviation="2.0"/><feColorMatrix in="blurOut" result="blurOut2" type="matrix" values="0 0 0 0 0 0 0 0 0 0 0 0 0 0 0 0 0 0 .4 0"/><feOffset dx="4.0" dy="4.0" in="blurOut2" result="blurOut3"/><feBlend in="SourceGraphic" in2="blurOut3" mode="normal"/></filter></defs><g><!--MD5=[2066f5e4f9e86067563118c84e227d5c]
class it.tidalwave.cec.CecUserControlEvent.UserControlCode--><a href="CecUserControlEvent.UserControlCode.html" target="_top" title="CecUserControlEvent.UserControlCode.html" xlink:actuate="onRequest" xlink:href="CecUserControlEvent.UserControlCode.html" xlink:show="new" xlink:title="CecUserControlEvent.UserControlCode.html" xlink:type="simple"><rect codeLine="5" fill="#FEFECE" filter="url(#f1ak4srm3xrezi)" height="209.7266" id="it.tidalwave.cec.CecUserControlEvent.UserControlCode" style="stroke: #A80036; stroke-width: 1.5;" width="300" x="7" y="105"/><ellipse cx="22" cy="124.1328" fill="#EB937F" rx="11" ry="11" style="stroke: #A80036; stroke-width: 1.0;"/><path d="M25.6143,130.6328 L17.8945,130.6328 L17.8945,118.2397 L25.6143,118.2397 L25.6143,120.3979 L20.3433,120.3979 L20.3433,123.0708 L25.1162,123.0708 L25.1162,125.229 L20.3433,125.229 L20.3433,128.4746 L25.6143,128.4746 Z "/><text fill="#000000" font-family="sans-serif" font-size="14" lengthAdjust="spacingAndGlyphs" textLength="268" x="36" y="123.5352">CecUserControlEvent.UserControlCode</text><text fill="#000000" font-family="sans-serif" font-size="10" lengthAdjust="spacingAndGlyphs" textLength="76" x="132" y="136.1563">it.tidalwave.cec</text><line style="stroke: #A80036; stroke-width: 1.5;" x1="8" x2="306" y1="143.2656" y2="143.2656"/><ellipse cx="18" cy="154.2656" fill="none" rx="3" ry="3" style="stroke: #038048; stroke-width: 1.0;"/><text fill="#000000" font-family="sans-serif" font-size="11" lengthAdjust="spacingAndGlyphs" text-decoration="underline" textLength="39" x="27" y="157.9004">SELECT</text><ellipse cx="18" cy="167.2207" fill="none" rx="3" ry="3" style="stroke: #038048; stroke-width: 1.0;"/><text fill="#000000" font-family="sans-serif" font-size="11" lengthAdjust="spacingAndGlyphs" text-decoration="underline" textLength="14" x="27" y="170.8555">UP</text><ellipse cx="18" cy="180.1758" fill="none" rx="3" ry="3" style="stroke: #038048; stroke-width: 1.0;"/><text fill="#000000" font-family="sans-serif" font-size="11" lengthAdjust="spacingAndGlyphs" text-decoration="underline" textLength="34" x="27" y="183.8105">DOWN</text><ellipse cx="18" cy="193.1309" fill="none" rx="3" ry="3" style="stroke: #038048; stroke-width: 1.0;"/><text fill="#000000" font-family="sans-serif" font-size="11" lengthAdjust="spacingAndGlyphs" text-decoration="underline" textLength="25" x="27" y="196.7656">LEFT</text><ellipse cx="18" cy="206.0859" fill="none" rx="3" ry="3" style="stroke: #038048; stroke-width: 1.0;"/><text fill="#000000" font-family="sans-serif" font-size="11" lengthAdjust="spacingAndGlyphs" text-decoration="underline" textLength="33" x="27" y="209.7207">RIGHT</text><ellipse cx="18" cy="219.041" fill="none" rx="3" ry="3" style="stroke: #038048; stroke-width: 1.0;"/><text fill="#000000" font-family="sans-serif" font-size="11" lengthAdjust="spacingAndGlyphs" text-decoration="underline" textLength="23" x="27" y="222.6758">EXIT</text><ellipse cx="18" cy="231.9961" fill="none" rx="3" ry="3" style="stroke: #038048; stroke-width: 1.0;"/><text fill="#000000" font-family="sans-serif" font-size="11" lengthAdjust="spacingAndGlyphs" text-decoration="underline" textLength="27" x="27" y="235.6309">PLAY</text><ellipse cx="18" cy="244.9512" fill="none" rx="3" ry="3" style="stroke: #038048; stroke-width: 1.0;"/><text fill="#000000" font-family="sans-serif" font-size="11" lengthAdjust="spacingAndGlyphs" text-decoration="underline" textLength="28" x="27" y="248.5859">STOP</text><ellipse cx="18" cy="257.9063" fill="none" rx="3" ry="3" style="stroke: #038048; stroke-width: 1.0;"/><text fill="#000000" font-family="sans-serif" font-size="11" lengthAdjust="spacingAndGlyphs" text-decoration="underline" textLength="34" x="27" y="261.541">PAUSE</text><ellipse cx="18" cy="270.8613" fill="none" rx="3" ry="3" style="stroke: #038048; stroke-width: 1.0;"/><text fill="#000000" font-family="sans-serif" font-size="11" lengthAdjust="spacingAndGlyphs" text-decoration="underline" textLength="87" x="27" y="274.4961">FAST_FORWARD</text><ellipse cx="18" cy="283.8164" fill="none" rx="3" ry="3" style="stroke: #038048; stroke-width: 1.0;"/><text fill="#000000" font-family="sans-serif" font-size="11" lengthAdjust="spacingAndGlyphs" text-decoration="underline" textLength="41" x="27" y="287.4512">REWIND</text><line style="stroke: #A80036; stroke-width: 1.5;" x1="8" x2="306" y1="293.7715" y2="293.7715"/><ellipse cx="18" cy="304.7715" fill="#84BE84" rx="3" ry="3" style="stroke: #038048; stroke-width: 1.0;"/><text fill="#000000" font-family="sans-serif" font-size="11" lengthAdjust="spacingAndGlyphs" text-decoration="underline" textLength="166" x="27" y="308.4063">forCode(int): UserControlCode</text></a><!--MD5=[456279bdf5d82574391c9821606d5686]
class it.tidalwave.cec.CecUserControlEvent--><a href="CecUserControlEvent.html" target="_top" title="CecUserControlEvent.html" xlink:actuate="onRequest" xlink:href="CecUserControlEvent.html" xlink:show="new" xlink:title="CecUserControlEvent.html" xlink:type="simple"><rect codeLine="20" fill="#FEFECE" filter="url(#f1ak4srm3xrezi)" height="38.2656" id="it.tidalwave.cec.CecUserControlEvent" style="stroke: #A80036; stroke-width: 1.5;" width="177" x="68.5" y="7"/><ellipse cx="83.5" cy="26.1328" fill="#ADD1B2" rx="11" ry="11" style="stroke: #A80036; stroke-width: 1.0;"/><path d="M85.9731,32.2759 Q85.3921,32.5747 84.7529,32.7241 Q84.1138,32.8735 83.4082,32.8735 Q80.9014,32.8735 79.5815,31.2217 Q78.2617,29.5698 78.2617,26.4487 Q78.2617,23.3193 79.5815,21.6675 Q80.9014,20.0156 83.4082,20.0156 Q84.1138,20.0156 84.7612,20.165 Q85.4087,20.3145 85.9731,20.6133 L85.9731,23.3359 Q85.3423,22.7549 84.7488,22.4851 Q84.1553,22.2153 83.5244,22.2153 Q82.1797,22.2153 81.4949,23.282 Q80.8101,24.3486 80.8101,26.4487 Q80.8101,28.5405 81.4949,29.6072 Q82.1797,30.6738 83.5244,30.6738 Q84.1553,30.6738 84.7488,30.4041 Q85.3423,30.1343 85.9731,29.5532 Z "/><text fill="#000000" font-family="sans-serif" font-size="14" lengthAdjust="spacingAndGlyphs" textLength="145" x="97.5" y="25.5352">CecUserControlEvent</text><text fill="#000000" font-family="sans-serif" font-size="10" lengthAdjust="spacingAndGlyphs" textLength="76" x="132" y="38.1563">it.tidalwave.cec</text></a><!--MD5=[bd895488506b96766ff557f3156f610d]
reverse link it.tidalwave.cec.CecUserControlEvent to it.tidalwave.cec.CecUserControlEvent.UserControlCode--><path codeLine="22" d="M157,60.6895 C157,73.582 157,88.97 157,104.8928 " fill="none" id="it.tidalwave.cec.CecUserControlEvent-backto-it.tidalwave.cec.CecUserControlEvent.UserControlCode" style="stroke: #A80036; stroke-width: 1.0;"/><ellipse cx="157.0001" cy="53.3435" fill="#FFFFFF" rx="8" ry="8" style="stroke: #A80036; stroke-width: 1.0;"/><line style="stroke: #A80036; stroke-width: 1.0;" x1="157.0002" x2="157" y1="61.3435" y2="45.3435"/><line style="stroke: #A80036; stroke-width: 1.0;" x1="149.0001" x2="165.0001" y1="53.3436" y2="53.3434"/><text fill="#888888" font-family="sans-serif" font-size="10" lengthAdjust="spacingAndGlyphs" textLength="188" x="60" y="337.3945">UMLDoclet 2.0.12, PlantUML 1.2020.16</text><!--MD5=[960459d02da8f237a9a529470d887d31]
@startuml
    set namespaceSeparator none
    hide empty fields
    hide empty methods

    enum "<size:14>CecUserControlEvent.UserControlCode\n<size:10>it.tidalwave.cec" as it.tidalwave.cec.CecUserControlEvent.UserControlCode [[CecUserControlEvent.UserControlCode.html]] {
        {static} +SELECT
        {static} +UP
        {static} +DOWN
        {static} +LEFT
        {static} +RIGHT
        {static} +EXIT
        {static} +PLAY
        {static} +STOP
        {static} +PAUSE
        {static} +FAST_FORWARD
        {static} +REWIND
        {static} +forCode(int): UserControlCode
    }

    class "<size:14>CecUserControlEvent\n<size:10>it.tidalwave.cec" as it.tidalwave.cec.CecUserControlEvent [[CecUserControlEvent.html]]

    it.tidalwave.cec.CecUserControlEvent +- - it.tidalwave.cec.CecUserControlEvent.UserControlCode

    center footer UMLDoclet 2.0.12, PlantUML 1.2020.16
@enduml

PlantUML version 1.2020.16(Sun Aug 23 22:20:43 CEST 2020)
(APACHE source distribution)
Java Runtime: OpenJDK Runtime Environment
JVM: OpenJDK 64-Bit Server VM
Default Encoding: UTF-8
Language: en
Country: GB
--></g></svg>