<?xml version="1.0" encoding="UTF-8" standalone="no"?><svg xmlns="http://www.w3.org/2000/svg" xmlns:xlink="http://www.w3.org/1999/xlink" contentScriptType="application/ecmascript" contentStyleType="text/css" height="211px" preserveAspectRatio="none" style="width:202px;height:211px;" version="1.1" viewBox="0 0 202 211" width="202px" zoomAndPan="magnify"><defs><filter height="300%" id="f1tuyu20gsd8vb" width="300%" x="-1" y="-1"><feGaussianBlur result="blurOut" stdDeviation="2.0"/><feColorMatrix in="blurOut" result="blurOut2" type="matrix" values="0 0 0 0 0 0 0 0 0 0 0 0 0 0 0 0 0 0 .4 0"/><feOffset dx="4.0" dy="4.0" in="blurOut2" result="blurOut3"/><feBlend in="SourceGraphic" in2="blurOut3" mode="normal"/></filter></defs><g><!--MD5=[fc4dd266602c707bb5f6723c5d1c04b2]
class it.tidalwave.util.DuplicateException--><a href="DuplicateException.html" target="_top" title="DuplicateException.html" xlink:actuate="onRequest" xlink:href="DuplicateException.html" xlink:show="new" xlink:title="DuplicateException.html" xlink:type="simple"><rect codeLine="5" fill="#FEFECE" filter="url(#f1tuyu20gsd8vb)" height="70.8955" id="it.tidalwave.util.DuplicateException" style="stroke: #A80036; stroke-width: 1.5;" width="153" x="21.5" y="105"/><ellipse cx="36.95" cy="123.7988" fill="#ADD1B2" rx="11" ry="11" style="stroke: #A80036; stroke-width: 1.0;"/><path d="M34.8563,123.6426 Q34.8563,125.5176 35.4344,126.5332 Q36.0125,127.5332 37.1688,127.5332 Q38.5125,127.5332 39.1688,125.5176 L41.4344,125.9395 Q40.325,129.4707 37.1531,129.4707 Q34.8094,129.4707 33.5906,127.9863 Q32.3719,126.502 32.3719,123.6426 Q32.3719,117.9238 37.075,117.9238 Q38.6219,117.9238 39.6531,118.7363 Q40.7,119.5488 41.2,121.1582 L38.9344,121.7051 Q38.7,120.8301 38.2156,120.3457 Q37.7313,119.8457 37.1063,119.8457 Q34.8563,119.8457 34.8563,123.6426 Z "/><text fill="#000000" font-family="sans-serif" font-size="14" lengthAdjust="spacingAndGlyphs" textLength="120" x="51.05" y="123.1318">DuplicateException</text><text fill="#000000" font-family="sans-serif" font-size="10" lengthAdjust="spacingAndGlyphs" textLength="72" x="75.05" y="135.4785">it.tidalwave.util</text><line style="stroke: #A80036; stroke-width: 1.5;" x1="22.5" x2="173.5" y1="142.5977" y2="142.5977"/><ellipse cx="32.5" cy="153.5977" fill="#84BE84" rx="3" ry="3" style="stroke: #038048; stroke-width: 1.0;"/><text fill="#000000" font-family="sans-serif" font-size="11" lengthAdjust="spacingAndGlyphs" textLength="99" x="41.5" y="156.9155">DuplicateException()</text><ellipse cx="32.5" cy="166.2466" fill="#84BE84" rx="3" ry="3" style="stroke: #038048; stroke-width: 1.0;"/><text fill="#000000" font-family="sans-serif" font-size="11" lengthAdjust="spacingAndGlyphs" textLength="127" x="41.5" y="169.5645">DuplicateException(String)</text></a><!--MD5=[46c05dfe24a0851e179497c4631d3ff2]
class java.lang.Exception--><rect codeLine="10" fill="#FEFECE" filter="url(#f1tuyu20gsd8vb)" height="37.5977" id="java.lang.Exception" style="stroke: #A80036; stroke-width: 1.5;" width="93" x="51.5" y="7"/><ellipse cx="66.5" cy="25.7988" fill="#ADD1B2" rx="11" ry="11" style="stroke: #A80036; stroke-width: 1.0;"/><path d="M64.4063,25.6426 Q64.4063,27.5176 64.9844,28.5332 Q65.5625,29.5332 66.7188,29.5332 Q68.0625,29.5332 68.7188,27.5176 L70.9844,27.9395 Q69.875,31.4707 66.7031,31.4707 Q64.3594,31.4707 63.1406,29.9863 Q61.9219,28.502 61.9219,25.6426 Q61.9219,19.9238 66.625,19.9238 Q68.1719,19.9238 69.2031,20.7363 Q70.25,21.5488 70.75,23.1582 L68.4844,23.7051 Q68.25,22.8301 67.7656,22.3457 Q67.2813,21.8457 66.6563,21.8457 Q64.4063,21.8457 64.4063,25.6426 Z "/><text fill="#000000" font-family="sans-serif" font-size="14" lengthAdjust="spacingAndGlyphs" textLength="61" x="80.5" y="25.1318">Exception</text><text fill="#000000" font-family="sans-serif" font-size="10" lengthAdjust="spacingAndGlyphs" textLength="44" x="89" y="37.4785">java.lang</text><!--MD5=[2bc2f99b298764bf7994f44f74cfe692]
reverse link java.lang.Exception to it.tidalwave.util.DuplicateException--><path codeLine="12" d="M98,65.3 C98,78.06 98,92.19 98,104.67 " fill="none" id="java.lang.Exception-backto-it.tidalwave.util.DuplicateException" style="stroke: #A80036; stroke-width: 1.0;"/><polygon fill="none" points="91,65.08,98,45.08,105,65.08,91,65.08" style="stroke: #A80036; stroke-width: 1.0;"/><text fill="#888888" font-family="sans-serif" font-size="10" lengthAdjust="spacingAndGlyphs" textLength="190" x="0" y="198.2754">UMLDoclet 2.0.12, PlantUML 1.2020.16</text><!--MD5=[ff5ad8b235fb84a74f3505ad4a0bbe09]
@startuml
    set namespaceSeparator none
    hide empty fields
    hide empty methods

    class "<size:14>DuplicateException\n<size:10>it.tidalwave.util" as it.tidalwave.util.DuplicateException [[DuplicateException.html]] {
        +DuplicateException()
        +DuplicateException(String)
    }

    class "<size:14>Exception\n<size:10>java.lang" as java.lang.Exception

    java.lang.Exception <|- - it.tidalwave.util.DuplicateException

    center footer UMLDoclet 2.0.12, PlantUML 1.2020.16
@enduml

PlantUML version 1.2020.16(Sun Aug 23 22:20:43 CEST 2020)
(APACHE source distribution)
Java Runtime: OpenJDK Runtime Environment
JVM: OpenJDK 64-Bit Server VM
Default Encoding: UTF-8
Language: en
Country: US
--></g></svg>