<?xml version="1.0" encoding="UTF-8" standalone="no"?><svg xmlns="http://www.w3.org/2000/svg" xmlns:xlink="http://www.w3.org/1999/xlink" contentScriptType="application/ecmascript" contentStyleType="text/css" height="287px" preserveAspectRatio="none" style="width:462px;height:287px;" version="1.1" viewBox="0 0 462 287" width="462px" zoomAndPan="magnify"><defs><filter height="300%" id="f14vk8dx0kmom6" width="300%" x="-1" y="-1"><feGaussianBlur result="blurOut" stdDeviation="2.0"/><feColorMatrix in="blurOut" result="blurOut2" type="matrix" values="0 0 0 0 0 0 0 0 0 0 0 0 0 0 0 0 0 0 .4 0"/><feOffset dx="4.0" dy="4.0" in="blurOut2" result="blurOut3"/><feBlend in="SourceGraphic" in2="blurOut3" mode="normal"/></filter></defs><g><!--MD5=[5cc06edb1a700366e6f59c1736e380e6]
class it.tidalwave.util.NotFoundException--><a href="NotFoundException.html" target="_top" title="NotFoundException.html" xlink:actuate="onRequest" xlink:href="NotFoundException.html" xlink:show="new" xlink:title="NotFoundException.html" xlink:type="simple"><rect codeLine="5" fill="#FEFECE" filter="url(#f14vk8dx0kmom6)" height="146.7891" id="it.tidalwave.util.NotFoundException" style="stroke: #A80036; stroke-width: 1.5;" width="436" x="7" y="105"/><ellipse cx="159.25" cy="123.7988" fill="#ADD1B2" rx="11" ry="11" style="stroke: #A80036; stroke-width: 1.0;"/><path d="M157.1563,123.6426 Q157.1563,125.5176 157.7344,126.5332 Q158.3125,127.5332 159.4688,127.5332 Q160.8125,127.5332 161.4688,125.5176 L163.7344,125.9395 Q162.625,129.4707 159.4531,129.4707 Q157.1094,129.4707 155.8906,127.9863 Q154.6719,126.502 154.6719,123.6426 Q154.6719,117.9238 159.375,117.9238 Q160.9219,117.9238 161.9531,118.7363 Q163,119.5488 163.5,121.1582 L161.2344,121.7051 Q161,120.8301 160.5156,120.3457 Q160.0313,119.8457 159.4063,119.8457 Q157.1563,119.8457 157.1563,123.6426 Z "/><text fill="#000000" font-family="sans-serif" font-size="14" lengthAdjust="spacingAndGlyphs" textLength="123" x="179.75" y="123.1318">NotFoundException</text><text fill="#000000" font-family="sans-serif" font-size="10" lengthAdjust="spacingAndGlyphs" textLength="72" x="205.25" y="135.4785">it.tidalwave.util</text><line style="stroke: #A80036; stroke-width: 1.5;" x1="8" x2="442" y1="142.5977" y2="142.5977"/><ellipse cx="18" cy="153.5977" fill="#84BE84" rx="3" ry="3" style="stroke: #038048; stroke-width: 1.0;"/><text fill="#000000" font-family="sans-serif" font-size="11" lengthAdjust="spacingAndGlyphs" textLength="101" x="27" y="156.9155">NotFoundException()</text><ellipse cx="18" cy="166.2466" fill="#84BE84" rx="3" ry="3" style="stroke: #038048; stroke-width: 1.0;"/><text fill="#000000" font-family="sans-serif" font-size="11" lengthAdjust="spacingAndGlyphs" textLength="129" x="27" y="169.5645">NotFoundException(String)</text><ellipse cx="18" cy="178.8955" fill="#84BE84" rx="3" ry="3" style="stroke: #038048; stroke-width: 1.0;"/><text fill="#000000" font-family="sans-serif" font-size="11" lengthAdjust="spacingAndGlyphs" textLength="153" x="27" y="182.2134">NotFoundException(Throwable)</text><ellipse cx="18" cy="191.5444" fill="#84BE84" rx="3" ry="3" style="stroke: #038048; stroke-width: 1.0;"/><text fill="#000000" font-family="sans-serif" font-size="11" lengthAdjust="spacingAndGlyphs" textLength="187" x="27" y="194.8623">NotFoundException(String, Throwable)</text><ellipse cx="18" cy="204.1934" fill="#84BE84" rx="3" ry="3" style="stroke: #038048; stroke-width: 1.0;"/><text fill="#000000" font-family="sans-serif" font-size="11" lengthAdjust="spacingAndGlyphs" text-decoration="underline" textLength="134" x="27" y="207.5112">throwWhenNull(T, String): T</text><ellipse cx="18" cy="216.8423" fill="#84BE84" rx="3" ry="3" style="stroke: #038048; stroke-width: 1.0;"/><text fill="#000000" font-family="sans-serif" font-size="11" lengthAdjust="spacingAndGlyphs" text-decoration="underline" textLength="180" x="27" y="220.1602">throwWhenNull(T, String, Object...): T</text><ellipse cx="18" cy="229.4912" fill="#84BE84" rx="3" ry="3" style="stroke: #038048; stroke-width: 1.0;"/><text fill="#000000" font-family="sans-serif" font-size="11" lengthAdjust="spacingAndGlyphs" text-decoration="underline" textLength="364" x="27" y="232.8091">throwWhenEmpty(T extends Collection&lt;?&gt;, String): T extends Collection&lt;?&gt;</text><ellipse cx="18" cy="242.1401" fill="#84BE84" rx="3" ry="3" style="stroke: #038048; stroke-width: 1.0;"/><text fill="#000000" font-family="sans-serif" font-size="11" lengthAdjust="spacingAndGlyphs" text-decoration="underline" textLength="410" x="27" y="245.458">throwWhenEmpty(T extends Collection&lt;?&gt;, String, Object...): T extends Collection&lt;?&gt;</text></a><!--MD5=[46c05dfe24a0851e179497c4631d3ff2]
class java.lang.Exception--><rect codeLine="16" fill="#FEFECE" filter="url(#f14vk8dx0kmom6)" height="37.5977" id="java.lang.Exception" style="stroke: #A80036; stroke-width: 1.5;" width="93" x="178.5" y="7"/><ellipse cx="193.5" cy="25.7988" fill="#ADD1B2" rx="11" ry="11" style="stroke: #A80036; stroke-width: 1.0;"/><path d="M191.4063,25.6426 Q191.4063,27.5176 191.9844,28.5332 Q192.5625,29.5332 193.7188,29.5332 Q195.0625,29.5332 195.7188,27.5176 L197.9844,27.9395 Q196.875,31.4707 193.7031,31.4707 Q191.3594,31.4707 190.1406,29.9863 Q188.9219,28.502 188.9219,25.6426 Q188.9219,19.9238 193.625,19.9238 Q195.1719,19.9238 196.2031,20.7363 Q197.25,21.5488 197.75,23.1582 L195.4844,23.7051 Q195.25,22.8301 194.7656,22.3457 Q194.2813,21.8457 193.6563,21.8457 Q191.4063,21.8457 191.4063,25.6426 Z "/><text fill="#000000" font-family="sans-serif" font-size="14" lengthAdjust="spacingAndGlyphs" textLength="61" x="207.5" y="25.1318">Exception</text><text fill="#000000" font-family="sans-serif" font-size="10" lengthAdjust="spacingAndGlyphs" textLength="44" x="216" y="37.4785">java.lang</text><!--MD5=[a871297de4c939cd895b5186b73ca2a5]
reverse link java.lang.Exception to it.tidalwave.util.NotFoundException--><path codeLine="18" d="M225,65.31 C225,77.44 225,91.26 225,104.96 " fill="none" id="java.lang.Exception-backto-it.tidalwave.util.NotFoundException" style="stroke: #A80036; stroke-width: 1.0;"/><polygon fill="none" points="218,65.15,225,45.15,232,65.15,218,65.15" style="stroke: #A80036; stroke-width: 1.0;"/><text fill="#888888" font-family="sans-serif" font-size="10" lengthAdjust="spacingAndGlyphs" textLength="190" x="127" y="274.1689">UMLDoclet 2.0.12, PlantUML 1.2020.16</text><!--MD5=[bd8719f2743c9c48239dd9f0dccb5b92]
@startuml
    set namespaceSeparator none
    hide empty fields
    hide empty methods

    class "<size:14>NotFoundException\n<size:10>it.tidalwave.util" as it.tidalwave.util.NotFoundException [[NotFoundException.html]] {
        +NotFoundException()
        +NotFoundException(String)
        +NotFoundException(Throwable)
        +NotFoundException(String, Throwable)
        {static} +throwWhenNull(T, String): T
        {static} +throwWhenNull(T, String, Object...): T
        {static} +throwWhenEmpty(T extends Collection<?>, String): T extends Collection<?>
        {static} +throwWhenEmpty(T extends Collection<?>, String, Object...): T extends Collection<?>
    }

    class "<size:14>Exception\n<size:10>java.lang" as java.lang.Exception

    java.lang.Exception <|- - it.tidalwave.util.NotFoundException

    center footer UMLDoclet 2.0.12, PlantUML 1.2020.16
@enduml

PlantUML version 1.2020.16(Sun Aug 23 22:20:43 CEST 2020)
(APACHE source distribution)
Java Runtime: OpenJDK Runtime Environment
JVM: OpenJDK 64-Bit Server VM
Default Encoding: UTF-8
Language: en
Country: US
--></g></svg>