@startuml
    set namespaceSeparator none
    hide empty fields
    hide empty methods

    class "<size:14>PersonFinderTest\n<size:10>it.tidalwave.thesefoolishthings.examples.inmemoryfinderexample" as it.tidalwave.thesefoolishthings.examples.inmemoryfinderexample.PersonFinderTest [[PersonFinderTest.html]] {
        +setup(): void
        +testAllPersons(): void
        +testAllPersonsSortedByFirstName(): void
        +testAllPersonsSortedByLastNameDescending(): void
        +testPersonRange(): void
    }

    center footer UMLDoclet 2.0.12, PlantUML 1.2020.16
@enduml
