@startuml
    set namespaceSeparator none
    hide empty fields
    hide empty methods

    class "<size:14>DefaultNodeContainerViewController\n<size:10>it.tidalwave.northernwind.frontend.ui.component.nodecontainer" as it.tidalwave.northernwind.frontend.ui.component.nodecontainer.DefaultNodeContainerViewController [[DefaultNodeContainerViewController.html]] {
        +renderView(RenderContext): void
        #getViewProperties(): ResourceProperties
        #computeInlinedScriptsSection(): String
    }

    interface "<size:14>NodeContainerViewController\n<size:10>it.tidalwave.northernwind.frontend.ui.component.nodecontainer" as it.tidalwave.northernwind.frontend.ui.component.nodecontainer.NodeContainerViewController [[NodeContainerViewController.html]]

    it.tidalwave.northernwind.frontend.ui.component.nodecontainer.NodeContainerViewController <|.. it.tidalwave.northernwind.frontend.ui.component.nodecontainer.DefaultNodeContainerViewController

    center footer UMLDoclet 2.0.12, PlantUML 1.2020.16
@enduml
