@startuml
    set namespaceSeparator none
    hide empty fields
    hide empty methods

    interface "<size:14>RequestLocaleManager\n<size:10>it.tidalwave.northernwind.core.model" as it.tidalwave.northernwind.core.model.RequestLocaleManager [[RequestLocaleManager.html]] {
        {abstract} +setLocale(Locale): boolean
        {abstract} +getLocales(): List<Locale>
        {abstract} +getLocaleSuffixes(): List<String>
        {abstract} +getDateTimeFormatter(): DateTimeFormatter
    }

    center footer UMLDoclet 2.0.12, PlantUML 1.2020.16
@enduml
