<?xml version="1.0" encoding="UTF-8" standalone="no"?><svg xmlns="http://www.w3.org/2000/svg" xmlns:xlink="http://www.w3.org/1999/xlink" contentScriptType="application/ecmascript" contentStyleType="text/css" height="151px" preserveAspectRatio="none" style="width:791px;height:151px;" version="1.1" viewBox="0 0 791 151" width="791px" zoomAndPan="magnify"><defs><filter height="300%" id="fl05yqpdpaga" width="300%" x="-1" y="-1"><feGaussianBlur result="blurOut" stdDeviation="2.0"/><feColorMatrix in="blurOut" result="blurOut2" type="matrix" values="0 0 0 0 0 0 0 0 0 0 0 0 0 0 0 0 0 0 .4 0"/><feOffset dx="4.0" dy="4.0" in="blurOut2" result="blurOut3"/><feBlend in="SourceGraphic" in2="blurOut3" mode="normal"/></filter></defs><g><!--MD5=[fb40727c7ae5cc697b5afe9e5d8bcd0e]
class it.tidalwave.actor--><a href="it/tidalwave/actor/package-summary.html" target="_top" title="it/tidalwave/actor/package-summary.html" xlink:actuate="onRequest" xlink:href="it/tidalwave/actor/package-summary.html" xlink:show="new" xlink:title="it/tidalwave/actor/package-summary.html" xlink:type="simple"><rect codeLine="14" fill="#FEFECE" filter="url(#fl05yqpdpaga)" height="24.1328" id="it.tidalwave.actor" style="stroke: #A80036; stroke-width: 1.5;" width="104" x="124" y="7"/><text fill="#000000" font-family="sans-serif" font-size="12" lengthAdjust="spacingAndGlyphs" textLength="98" x="127" y="23.6016">it.tidalwave.actor</text></a><!--MD5=[e2825e41240dc3ac7b156e1d527e9be0]
class it.tidalwave.util--><a href="https://tidalwave.bitbucket.io/thesefoolishthings/modules/it-tidalwave-util/apidocs/it/tidalwave/util/package-summary.html?is-external=true" target="_top" title="https://tidalwave.bitbucket.io/thesefoolishthings/modules/it-tidalwave-util/apidocs/it/tidalwave/util/package-summary.html?is-external=true" xlink:actuate="onRequest" xlink:href="https://tidalwave.bitbucket.io/thesefoolishthings/modules/it-tidalwave-util/apidocs/it/tidalwave/util/package-summary.html?is-external=true" xlink:show="new" xlink:title="https://tidalwave.bitbucket.io/thesefoolishthings/modules/it-tidalwave-util/apidocs/it/tidalwave/util/package-summary.html?is-external=true" xlink:type="simple"><rect codeLine="16" fill="#FEFECE" filter="url(#fl05yqpdpaga)" height="24.1328" id="it.tidalwave.util" style="stroke: #A80036; stroke-width: 1.5;" width="92" x="7" y="91"/><text fill="#000000" font-family="sans-serif" font-size="12" lengthAdjust="spacingAndGlyphs" textLength="86" x="10" y="107.6016">it.tidalwave.util</text></a><!--MD5=[fd274550d0bc626a8ac18f9d237be989]
class it.tidalwave.actor.impl--><rect fill="#FEFECE" filter="url(#fl05yqpdpaga)" height="24.1328" id="it.tidalwave.actor.impl" style="stroke: #A80036; stroke-width: 1.5;" width="133" x="253.5" y="91"/><text fill="#000000" font-family="sans-serif" font-size="12" lengthAdjust="spacingAndGlyphs" textLength="127" x="256.5" y="107.6016">it.tidalwave.actor.impl</text><!--MD5=[4f0e7aba6e9a934e374bd914b95ea6f4]
class org.joda.time--><rect fill="#FEFECE" filter="url(#fl05yqpdpaga)" height="24.1328" id="org.joda.time" style="stroke: #A80036; stroke-width: 1.5;" width="84" x="134" y="91"/><text fill="#000000" font-family="sans-serif" font-size="12" lengthAdjust="spacingAndGlyphs" textLength="78" x="137" y="107.6016">org.joda.time</text><!--MD5=[e1fbfc000f72a22818396d52583c6b14]
class it.tidalwave.actor.spi--><a href="it/tidalwave/actor/spi/package-summary.html" target="_top" title="it/tidalwave/actor/spi/package-summary.html" xlink:actuate="onRequest" xlink:href="it/tidalwave/actor/spi/package-summary.html" xlink:show="new" xlink:title="it/tidalwave/actor/spi/package-summary.html" xlink:type="simple"><rect codeLine="18" fill="#FEFECE" filter="url(#fl05yqpdpaga)" height="24.1328" id="it.tidalwave.actor.spi" style="stroke: #A80036; stroke-width: 1.5;" width="125" x="443.5" y="7"/><text fill="#000000" font-family="sans-serif" font-size="12" lengthAdjust="spacingAndGlyphs" textLength="119" x="446.5" y="23.6016">it.tidalwave.actor.spi</text></a><!--MD5=[0b7b9a7b09f7effd4adaa36049b589fe]
class it.tidalwave.actor.annotation--><a href="it/tidalwave/actor/annotation/package-summary.html" target="_top" title="it/tidalwave/actor/annotation/package-summary.html" xlink:actuate="onRequest" xlink:href="it/tidalwave/actor/annotation/package-summary.html" xlink:show="new" xlink:title="it/tidalwave/actor/annotation/package-summary.html" xlink:type="simple"><rect codeLine="20" fill="#FEFECE" filter="url(#fl05yqpdpaga)" height="24.1328" id="it.tidalwave.actor.annotation" style="stroke: #A80036; stroke-width: 1.5;" width="168" x="422" y="91"/><text fill="#000000" font-family="sans-serif" font-size="12" lengthAdjust="spacingAndGlyphs" textLength="162" x="425" y="107.6016">it.tidalwave.actor.annotation</text></a><!--MD5=[ead0fef28c9712d7c937cda4c73292f8]
class it.tidalwave.messagebus--><a href="https://tidalwave.bitbucket.io/thesefoolishthings/modules/it-tidalwave-messagebus/apidocs/it/tidalwave/messagebus/package-summary.html?is-external=true" target="_top" title="https://tidalwave.bitbucket.io/thesefoolishthings/modules/it-tidalwave-messagebus/apidocs/it/tidalwave/messagebus/package-summary.html?is-external=true" xlink:actuate="onRequest" xlink:href="https://tidalwave.bitbucket.io/thesefoolishthings/modules/it-tidalwave-messagebus/apidocs/it/tidalwave/messagebus/package-summary.html?is-external=true" xlink:show="new" xlink:title="https://tidalwave.bitbucket.io/thesefoolishthings/modules/it-tidalwave-messagebus/apidocs/it/tidalwave/messagebus/package-summary.html?is-external=true" xlink:type="simple"><rect codeLine="22" fill="#FEFECE" filter="url(#fl05yqpdpaga)" height="24.1328" id="it.tidalwave.messagebus" style="stroke: #A80036; stroke-width: 1.5;" width="147" x="625.5" y="91"/><text fill="#000000" font-family="sans-serif" font-size="12" lengthAdjust="spacingAndGlyphs" textLength="141" x="628.5" y="107.6016">it.tidalwave.messagebus</text></a><!--MD5=[c9e2ed7a4414199ae9426eb3be40da95]
link it.tidalwave.actor to it.tidalwave.util--><path codeLine="6" d="M158.3771,31.0352 C136.3649,46.0679 98.7046,71.7871 74.8724,88.0628 " fill="none" id="it.tidalwave.actor-to-it.tidalwave.util" style="stroke: #A80036; stroke-width: 1.0;"/><polygon fill="#A80036" points="70.5902,90.9872,80.2782,89.2147,74.7192,88.1674,75.7665,82.6083,70.5902,90.9872" style="stroke: #A80036; stroke-width: 1.0;"/><!--MD5=[74c4244ffb9096dce36f4375b9249af2]
link it.tidalwave.actor to it.tidalwave.actor.impl--><path codeLine="7" d="M196.6317,31.0352 C222.616,46.1926 267.2252,72.2147 295.0846,88.466 " fill="none" id="it.tidalwave.actor-to-it.tidalwave.actor.impl" style="stroke: #A80036; stroke-width: 1.0;"/><polygon fill="#A80036" points="299.4066,90.9872,293.6482,82.9972,295.0877,88.4678,289.6171,89.9073,299.4066,90.9872" style="stroke: #A80036; stroke-width: 1.0;"/><!--MD5=[35ed9653d2749b0510e65d6c75779a7e]
link it.tidalwave.actor to org.joda.time--><path codeLine="8" d="M176,31.0352 C176,45.3818 176,69.4615 176,85.777 " fill="none" id="it.tidalwave.actor-to-org.joda.time" style="stroke: #A80036; stroke-width: 1.0;"/><polygon fill="#A80036" points="176,90.9872,180,81.9872,176,85.9872,172,81.9872,176,90.9872" style="stroke: #A80036; stroke-width: 1.0;"/><!--MD5=[4689cd2bb707f13af7a151dfae93648a]
link it.tidalwave.actor.spi to it.tidalwave.actor.impl--><path codeLine="9" d="M479.3507,31.0352 C445.5115,46.3174 387.2174,72.6438 351.2984,88.8653 " fill="none" id="it.tidalwave.actor.spi-to-it.tidalwave.actor.impl" style="stroke: #A80036; stroke-width: 1.0;"/><polygon fill="#A80036" points="346.5998,90.9872,356.4485,90.9283,351.1566,88.9292,353.1557,83.6374,346.5998,90.9872" style="stroke: #A80036; stroke-width: 1.0;"/><!--MD5=[b6f19786a98154375b05b3938b7611ca]
link it.tidalwave.actor.spi to it.tidalwave.actor.annotation--><path codeLine="10" d="M506,31.0352 C506,45.3818 506,69.4615 506,85.777 " fill="none" id="it.tidalwave.actor.spi-to-it.tidalwave.actor.annotation" style="stroke: #A80036; stroke-width: 1.0;"/><polygon fill="#A80036" points="506,90.9872,510,81.9872,506,85.9872,502,81.9872,506,90.9872" style="stroke: #A80036; stroke-width: 1.0;"/><!--MD5=[4dfbfd84fc3778121e5e53ebf3e68d0d]
link it.tidalwave.actor.spi to it.tidalwave.messagebus--><path codeLine="11" d="M533.6522,31.0352 C568.765,46.3174 629.2529,72.6438 666.5238,88.8653 " fill="none" id="it.tidalwave.actor.spi-to-it.tidalwave.messagebus" style="stroke: #A80036; stroke-width: 1.0;"/><polygon fill="#A80036" points="671.3991,90.9872,664.7431,83.7279,666.8145,88.9918,661.5505,91.0632,671.3991,90.9872" style="stroke: #A80036; stroke-width: 1.0;"/><text fill="#888888" font-family="sans-serif" font-size="10" lengthAdjust="spacingAndGlyphs" textLength="188" x="292.75" y="137.8008">UMLDoclet 2.0.12, PlantUML 1.2020.16</text><!--MD5=[d06b41a9003b8507ee40087e79cfd481]
@startuml
    set namespaceSeparator none
    hide circle
    hide empty fields
    hide empty methods

    it.tidalwave.actor - -> it.tidalwave.util
    it.tidalwave.actor - -> it.tidalwave.actor.impl
    it.tidalwave.actor - -> org.joda.time
    it.tidalwave.actor.spi - -> it.tidalwave.actor.impl
    it.tidalwave.actor.spi - -> it.tidalwave.actor.annotation
    it.tidalwave.actor.spi - -> it.tidalwave.messagebus

    ' Package links
    class "it.tidalwave.actor" [[it/tidalwave/actor/package-summary.html]] {
    }
    class "it.tidalwave.util" [[https://tidalwave.bitbucket.io/thesefoolishthings/modules/it-tidalwave-util/apidocs/it/tidalwave/util/package-summary.html?is-external=true]] {
    }
    class "it.tidalwave.actor.spi" [[it/tidalwave/actor/spi/package-summary.html]] {
    }
    class "it.tidalwave.actor.annotation" [[it/tidalwave/actor/annotation/package-summary.html]] {
    }
    class "it.tidalwave.messagebus" [[https://tidalwave.bitbucket.io/thesefoolishthings/modules/it-tidalwave-messagebus/apidocs/it/tidalwave/messagebus/package-summary.html?is-external=true]] {
    }

    center footer UMLDoclet 2.0.12, PlantUML 1.2020.16
@enduml

@startuml
    set namespaceSeparator none
    hide circle
    hide empty fields
    hide empty methods

    it.tidalwave.actor - -> it.tidalwave.util
    it.tidalwave.actor - -> it.tidalwave.actor.impl
    it.tidalwave.actor - -> org.joda.time
    it.tidalwave.actor.spi - -> it.tidalwave.actor.impl
    it.tidalwave.actor.spi - -> it.tidalwave.actor.annotation
    it.tidalwave.actor.spi - -> it.tidalwave.messagebus

    class "it.tidalwave.actor" [[it/tidalwave/actor/package-summary.html]] {
    }
    class "it.tidalwave.util" [[https://tidalwave.bitbucket.io/thesefoolishthings/modules/it-tidalwave-util/apidocs/it/tidalwave/util/package-summary.html?is-external=true]] {
    }
    class "it.tidalwave.actor.spi" [[it/tidalwave/actor/spi/package-summary.html]] {
    }
    class "it.tidalwave.actor.annotation" [[it/tidalwave/actor/annotation/package-summary.html]] {
    }
    class "it.tidalwave.messagebus" [[https://tidalwave.bitbucket.io/thesefoolishthings/modules/it-tidalwave-messagebus/apidocs/it/tidalwave/messagebus/package-summary.html?is-external=true]] {
    }

    center footer UMLDoclet 2.0.12, PlantUML 1.2020.16
@enduml

PlantUML version 1.2020.16(Sun Aug 23 22:20:43 CEST 2020)
(APACHE source distribution)
Java Runtime: OpenJDK Runtime Environment
JVM: OpenJDK 64-Bit Server VM
Default Encoding: UTF-8
Language: en
Country: GB
--></g></svg>