<?xml version="1.0" encoding="UTF-8" standalone="no"?><svg xmlns="http://www.w3.org/2000/svg" xmlns:xlink="http://www.w3.org/1999/xlink" contentScriptType="application/ecmascript" contentStyleType="text/css" height="117px" preserveAspectRatio="none" style="width:251px;height:117px;" version="1.1" viewBox="0 0 251 117" width="251px" zoomAndPan="magnify"><defs><filter height="300%" id="f2rqdzmj92md6" width="300%" x="-1" y="-1"><feGaussianBlur result="blurOut" stdDeviation="2.0"/><feColorMatrix in="blurOut" result="blurOut2" type="matrix" values="0 0 0 0 0 0 0 0 0 0 0 0 0 0 0 0 0 0 .4 0"/><feOffset dx="4.0" dy="4.0" in="blurOut2" result="blurOut3"/><feBlend in="SourceGraphic" in2="blurOut3" mode="normal"/></filter></defs><g><!--MD5=[1d6daf24c31beaff6fb6a993bb7422e1]
class it.tidalwave.role.io.Marshallable--><a href="Marshallable.html" target="_top" title="Marshallable.html" xlink:actuate="onRequest" xlink:href="Marshallable.html" xlink:show="new" xlink:title="Marshallable.html" xlink:type="simple"><rect codeLine="5" fill="#FEFECE" filter="url(#f2rqdzmj92md6)" height="80.1758" id="it.tidalwave.role.io.Marshallable" style="stroke: #A80036; stroke-width: 1.5;" width="225" x="7" y="7"/><ellipse cx="69.75" cy="26.1328" fill="#B4A7E5" rx="11" ry="11" style="stroke: #A80036; stroke-width: 1.0;"/><path d="M66.1777,22.3979 L66.1777,20.2397 L73.5571,20.2397 L73.5571,22.3979 L71.0918,22.3979 L71.0918,30.4746 L73.5571,30.4746 L73.5571,32.6328 L66.1777,32.6328 L66.1777,30.4746 L68.6431,30.4746 L68.6431,22.3979 Z "/><text fill="#000000" font-family="sans-serif" font-size="14" font-style="italic" lengthAdjust="spacingAndGlyphs" textLength="87" x="92.25" y="25.5352">Marshallable</text><text fill="#000000" font-family="sans-serif" font-size="10" font-style="italic" lengthAdjust="spacingAndGlyphs" textLength="91" x="90.25" y="38.1563">it.tidalwave.role.io</text><line style="stroke: #A80036; stroke-width: 1.5;" x1="8" x2="231" y1="45.2656" y2="45.2656"/><ellipse cx="18" cy="56.2656" fill="none" rx="3" ry="3" style="stroke: #038048; stroke-width: 1.0;"/><text fill="#000000" font-family="sans-serif" font-size="11" lengthAdjust="spacingAndGlyphs" text-decoration="underline" textLength="199" x="27" y="59.9004">_Marshallable_: Class&lt;Marshallable&gt;</text><line style="stroke: #A80036; stroke-width: 1.5;" x1="8" x2="231" y1="66.2207" y2="66.2207"/><ellipse cx="18" cy="77.2207" fill="#84BE84" rx="3" ry="3" style="stroke: #038048; stroke-width: 1.0;"/><text fill="#000000" font-family="sans-serif" font-size="11" font-style="italic" lengthAdjust="spacingAndGlyphs" textLength="155" x="27" y="80.8555">marshal(OutputStream): void</text></a><text fill="#888888" font-family="sans-serif" font-size="10" lengthAdjust="spacingAndGlyphs" textLength="188" x="25.5" y="103.8438">UMLDoclet 2.0.12, PlantUML 1.2020.16</text><!--MD5=[d48a3330a0fe3bb51a126430f1f07b5f]
@startuml
    set namespaceSeparator none
    hide empty fields
    hide empty methods

    interface "<size:14>Marshallable\n<size:10>it.tidalwave.role.io" as it.tidalwave.role.io.Marshallable [[Marshallable.html]] {
        {static} +_Marshallable_: Class<Marshallable>
        {abstract} +marshal(OutputStream): void
    }

    center footer UMLDoclet 2.0.12, PlantUML 1.2020.16
@enduml

PlantUML version 1.2020.16(Sun Aug 23 22:20:43 CEST 2020)
(APACHE source distribution)
Java Runtime: OpenJDK Runtime Environment
JVM: OpenJDK 64-Bit Server VM
Default Encoding: UTF-8
Language: en
Country: GB
--></g></svg>