@startuml
    set namespaceSeparator none
    hide empty fields
    hide empty methods

    class "<size:14>LayeredFileSystemProvider\n<size:10>it.tidalwave.northernwind.frontend.filesystem.basic.layered" as it.tidalwave.northernwind.frontend.filesystem.basic.layered.LayeredFileSystemProvider [[LayeredFileSystemProvider.html]] {
        +getFileSystem(): ResourceFileSystem
    }

    interface "<size:14>ResourceFileSystemProvider\n<size:10>it.tidalwave.northernwind.core.model" as it.tidalwave.northernwind.core.model.ResourceFileSystemProvider [[http://tidalwave.it/projects/northernwind/it-tidalwave-northernwind-modules/it-tidalwave-northernwind-core/apidocs/it/tidalwave/northernwind/core/model/ResourceFileSystemProvider.html?is-external=true]] {
        {abstract} +getFileSystem(): ResourceFileSystem
    }

    it.tidalwave.northernwind.core.model.ResourceFileSystemProvider <|.. it.tidalwave.northernwind.frontend.filesystem.basic.layered.LayeredFileSystemProvider

    center footer UMLDoclet 2.0.12, PlantUML 1.2020.16
@enduml
