<?xml version="1.0" encoding="UTF-8" standalone="no"?><svg xmlns="http://www.w3.org/2000/svg" xmlns:xlink="http://www.w3.org/1999/xlink" contentScriptType="application/ecmascript" contentStyleType="text/css" height="151px" preserveAspectRatio="none" style="width:246px;height:151px;" version="1.1" viewBox="0 0 246 151" width="246px" zoomAndPan="magnify"><defs><filter height="300%" id="f1r5le8mzf961x" width="300%" x="-1" y="-1"><feGaussianBlur result="blurOut" stdDeviation="2.0"/><feColorMatrix in="blurOut" result="blurOut2" type="matrix" values="0 0 0 0 0 0 0 0 0 0 0 0 0 0 0 0 0 0 .4 0"/><feOffset dx="4.0" dy="4.0" in="blurOut2" result="blurOut3"/><feBlend in="SourceGraphic" in2="blurOut3" mode="normal"/></filter></defs><g><!--MD5=[d5b97ec7e4ffef82f674b13143c3e3ac]
class it.tidalwave.bluemarine2.downloader--><a href="it/tidalwave/bluemarine2/downloader/package-summary.html" target="_top" title="it/tidalwave/bluemarine2/downloader/package-summary.html" xlink:actuate="onRequest" xlink:href="it/tidalwave/bluemarine2/downloader/package-summary.html" xlink:show="new" xlink:title="it/tidalwave/bluemarine2/downloader/package-summary.html" xlink:type="simple"><rect codeLine="9" fill="#FEFECE" filter="url(#f1r5le8mzf961x)" height="24.1328" id="it.tidalwave.bluemarine2.downloader" style="stroke: #A80036; stroke-width: 1.5;" width="220" x="7" y="7"/><text fill="#000000" font-family="sans-serif" font-size="12" lengthAdjust="spacingAndGlyphs" textLength="214" x="10" y="23.6016">it.tidalwave.bluemarine2.downloader</text></a><!--MD5=[e2825e41240dc3ac7b156e1d527e9be0]
class it.tidalwave.util--><a href="http://blueMarine.tidalwave.it/bluemarine2-modules/it-tidalwave-bluemarine2-commons/apidocs/it/tidalwave/util/package-summary.html?is-external=true" target="_top" title="http://blueMarine.tidalwave.it/bluemarine2-modules/it-tidalwave-bluemarine2-commons/apidocs/it/tidalwave/util/package-summary.html?is-external=true" xlink:actuate="onRequest" xlink:href="http://blueMarine.tidalwave.it/bluemarine2-modules/it-tidalwave-bluemarine2-commons/apidocs/it/tidalwave/util/package-summary.html?is-external=true" xlink:show="new" xlink:title="http://blueMarine.tidalwave.it/bluemarine2-modules/it-tidalwave-bluemarine2-commons/apidocs/it/tidalwave/util/package-summary.html?is-external=true" xlink:type="simple"><rect codeLine="11" fill="#FEFECE" filter="url(#f1r5le8mzf961x)" height="24.1328" id="it.tidalwave.util" style="stroke: #A80036; stroke-width: 1.5;" width="92" x="71" y="91"/><text fill="#000000" font-family="sans-serif" font-size="12" lengthAdjust="spacingAndGlyphs" textLength="86" x="74" y="107.6016">it.tidalwave.util</text></a><!--MD5=[d09df2f18670d094526a5e680861942e]
link it.tidalwave.bluemarine2.downloader to it.tidalwave.util--><path codeLine="6" d="M117,31.0352 C117,45.3818 117,69.4615 117,85.777 " fill="none" id="it.tidalwave.bluemarine2.downloader-to-it.tidalwave.util" style="stroke: #A80036; stroke-width: 1.0;"/><polygon fill="#A80036" points="117,90.9872,121,81.9872,117,85.9872,113,81.9872,117,90.9872" style="stroke: #A80036; stroke-width: 1.0;"/><text fill="#888888" font-family="sans-serif" font-size="10" lengthAdjust="spacingAndGlyphs" textLength="188" x="20" y="137.8008">UMLDoclet 2.0.12, PlantUML 1.2020.16</text><!--MD5=[a003d6b1c4539ac30f89c9e3f251316e]
@startuml
    set namespaceSeparator none
    hide circle
    hide empty fields
    hide empty methods

    it.tidalwave.bluemarine2.downloader - -> it.tidalwave.util

    ' Package links
    class "it.tidalwave.bluemarine2.downloader" [[it/tidalwave/bluemarine2/downloader/package-summary.html]] {
    }
    class "it.tidalwave.util" [[http://blueMarine.tidalwave.it/bluemarine2-modules/it-tidalwave-bluemarine2-commons/apidocs/it/tidalwave/util/package-summary.html?is-external=true]] {
    }

    center footer UMLDoclet 2.0.12, PlantUML 1.2020.16
@enduml

@startuml
    set namespaceSeparator none
    hide circle
    hide empty fields
    hide empty methods

    it.tidalwave.bluemarine2.downloader - -> it.tidalwave.util

    class "it.tidalwave.bluemarine2.downloader" [[it/tidalwave/bluemarine2/downloader/package-summary.html]] {
    }
    class "it.tidalwave.util" [[http://blueMarine.tidalwave.it/bluemarine2-modules/it-tidalwave-bluemarine2-commons/apidocs/it/tidalwave/util/package-summary.html?is-external=true]] {
    }

    center footer UMLDoclet 2.0.12, PlantUML 1.2020.16
@enduml

PlantUML version 1.2020.16(Sun Aug 23 22:20:43 CEST 2020)
(APACHE source distribution)
Java Runtime: OpenJDK Runtime Environment
JVM: OpenJDK 64-Bit Server VM
Default Encoding: UTF-8
Language: en
Country: GB
--></g></svg>