<?xml version="1.0" encoding="UTF-8" standalone="no"?><svg xmlns="http://www.w3.org/2000/svg" xmlns:xlink="http://www.w3.org/1999/xlink" contentScriptType="application/ecmascript" contentStyleType="text/css" height="286px" preserveAspectRatio="none" style="width:321px;height:286px;" version="1.1" viewBox="0 0 321 286" width="321px" zoomAndPan="magnify"><defs><filter height="300%" id="f1w6cfkel5fafc" width="300%" x="-1" y="-1"><feGaussianBlur result="blurOut" stdDeviation="2.0"/><feColorMatrix in="blurOut" result="blurOut2" type="matrix" values="0 0 0 0 0 0 0 0 0 0 0 0 0 0 0 0 0 0 .4 0"/><feOffset dx="4.0" dy="4.0" in="blurOut2" result="blurOut3"/><feBlend in="SourceGraphic" in2="blurOut3" mode="normal"/></filter></defs><g><!--MD5=[09e290af549a957babf7a1bc7f5784f6]
class it.tidalwave.northernwind.frontend.filesystem.git.impl.GitWorkingDirectory--><a href="GitWorkingDirectory.html" target="_top" title="GitWorkingDirectory.html" xlink:actuate="onRequest" xlink:href="GitWorkingDirectory.html" xlink:show="new" xlink:title="GitWorkingDirectory.html" xlink:type="simple"><rect codeLine="5" fill="#FEFECE" filter="url(#f1w6cfkel5fafc)" height="123.9961" id="it.tidalwave.northernwind.frontend.filesystem.git.impl.GitWorkingDirectory" style="stroke: #A80036; stroke-width: 1.5;" width="295" x="7" y="126"/><ellipse cx="22" cy="145.1328" fill="#ADD1B2" rx="11" ry="11" style="stroke: #A80036; stroke-width: 1.0;"/><path d="M24.4731,151.2759 Q23.8921,151.5747 23.2529,151.7241 Q22.6138,151.8735 21.9082,151.8735 Q19.4014,151.8735 18.0815,150.2217 Q16.7617,148.5698 16.7617,145.4487 Q16.7617,142.3193 18.0815,140.6675 Q19.4014,139.0156 21.9082,139.0156 Q22.6138,139.0156 23.2612,139.165 Q23.9087,139.3145 24.4731,139.6133 L24.4731,142.3359 Q23.8423,141.7549 23.2488,141.4851 Q22.6553,141.2153 22.0244,141.2153 Q20.6797,141.2153 19.9949,142.282 Q19.3101,143.3486 19.3101,145.4487 Q19.3101,147.5405 19.9949,148.6072 Q20.6797,149.6738 22.0244,149.6738 Q22.6553,149.6738 23.2488,149.4041 Q23.8423,149.1343 24.4731,148.5532 Z "/><text fill="#000000" font-family="sans-serif" font-size="14" lengthAdjust="spacingAndGlyphs" textLength="138" x="98.5" y="144.5352">GitWorkingDirectory</text><text fill="#000000" font-family="sans-serif" font-size="10" lengthAdjust="spacingAndGlyphs" textLength="263" x="36" y="157.1563">it.tidalwave.northernwind.frontend.filesystem.git.impl</text><line style="stroke: #A80036; stroke-width: 1.5;" x1="8" x2="301" y1="164.2656" y2="164.2656"/><ellipse cx="18" cy="175.2656" fill="#84BE84" rx="3" ry="3" style="stroke: #038048; stroke-width: 1.0;"/><text fill="#000000" font-family="sans-serif" font-size="11" lengthAdjust="spacingAndGlyphs" textLength="140" x="27" y="178.9004">GitWorkingDirectory(Path)</text><ellipse cx="18" cy="188.2207" fill="#84BE84" rx="3" ry="3" style="stroke: #038048; stroke-width: 1.0;"/><text fill="#000000" font-family="sans-serif" font-size="11" lengthAdjust="spacingAndGlyphs" textLength="177" x="27" y="191.8555">getCurrentTag(): Optional&lt;Tag&gt;</text><ellipse cx="18" cy="201.1758" fill="#84BE84" rx="3" ry="3" style="stroke: #038048; stroke-width: 1.0;"/><text fill="#000000" font-family="sans-serif" font-size="11" lengthAdjust="spacingAndGlyphs" textLength="125" x="27" y="204.8105">listTags(): List&lt;String&gt;</text><ellipse cx="18" cy="214.1309" fill="#84BE84" rx="3" ry="3" style="stroke: #038048; stroke-width: 1.0;"/><text fill="#000000" font-family="sans-serif" font-size="11" lengthAdjust="spacingAndGlyphs" textLength="112" x="27" y="217.7656">cloneFrom(URI): void</text><ellipse cx="18" cy="227.0859" fill="#84BE84" rx="3" ry="3" style="stroke: #038048; stroke-width: 1.0;"/><text fill="#000000" font-family="sans-serif" font-size="11" lengthAdjust="spacingAndGlyphs" textLength="108" x="27" y="230.7207">checkOut(Tag): void</text><ellipse cx="18" cy="240.041" fill="#84BE84" rx="3" ry="3" style="stroke: #038048; stroke-width: 1.0;"/><text fill="#000000" font-family="sans-serif" font-size="11" lengthAdjust="spacingAndGlyphs" textLength="127" x="27" y="243.6758">fetchChangesets(): void</text></a><!--MD5=[72973e6735430aa90bb52677edd59f6c]
class it.tidalwave.northernwind.frontend.filesystem.scm.spi.ScmWorkingDirectorySupport--><a href="http://tidalwave.tidalwave.it/northernwind/it-tidalwave-northernwind-modules/it-tidalwave-northernwind-filesystem/it-tidalwave-northernwind-core-filesystem-scm/apidocs/it/tidalwave/northernwind/frontend/filesystem/scm/spi/ScmWorkingDirectorySupport.html?is-external=true" target="_top" title="http://tidalwave.tidalwave.it/northernwind/it-tidalwave-northernwind-modules/it-tidalwave-northernwind-filesystem/it-tidalwave-northernwind-core-filesystem-scm/apidocs/it/tidalwave/northernwind/frontend/filesystem/scm/spi/ScmWorkingDirectorySupport.html?is-external=true" xlink:actuate="onRequest" xlink:href="http://tidalwave.tidalwave.it/northernwind/it-tidalwave-northernwind-modules/it-tidalwave-northernwind-filesystem/it-tidalwave-northernwind-core-filesystem-scm/apidocs/it/tidalwave/northernwind/frontend/filesystem/scm/spi/ScmWorkingDirectorySupport.html?is-external=true" xlink:show="new" xlink:title="http://tidalwave.tidalwave.it/northernwind/it-tidalwave-northernwind-modules/it-tidalwave-northernwind-filesystem/it-tidalwave-northernwind-core-filesystem-scm/apidocs/it/tidalwave/northernwind/frontend/filesystem/scm/spi/ScmWorkingDirectorySupport.html?is-external=true" xlink:type="simple"><rect codeLine="14" fill="#FEFECE" filter="url(#f1w6cfkel5fafc)" height="59.2207" id="it.tidalwave.northernwind.frontend.filesystem.scm.spi.ScmWorkingDirectorySupport" style="stroke: #A80036; stroke-width: 1.5;" width="294" x="7.5" y="7"/><ellipse cx="22.5" cy="26.1328" fill="#A9DCDF" rx="11" ry="11" style="stroke: #A80036; stroke-width: 1.0;"/><path d="M22.3633,21.481 L21.2095,26.5527 L23.5254,26.5527 Z M20.8691,19.2397 L23.8657,19.2397 L27.2109,31.6328 L24.7622,31.6328 L23.9985,28.5698 L20.7197,28.5698 L19.9727,31.6328 L17.5239,31.6328 Z "/><text fill="#000000" font-family="sans-serif" font-size="14" font-style="italic" lengthAdjust="spacingAndGlyphs" textLength="202" x="66.5" y="25.5352">ScmWorkingDirectorySupport</text><text fill="#000000" font-family="sans-serif" font-size="10" font-style="italic" lengthAdjust="spacingAndGlyphs" textLength="262" x="36.5" y="38.1563">it.tidalwave.northernwind.frontend.filesystem.scm.spi</text><line style="stroke: #A80036; stroke-width: 1.5;" x1="8.5" x2="300.5" y1="45.2656" y2="45.2656"/><ellipse cx="18.5" cy="56.2656" fill="#84BE84" rx="3" ry="3" style="stroke: #038048; stroke-width: 1.0;"/><text fill="#000000" font-family="sans-serif" font-size="11" font-style="italic" lengthAdjust="spacingAndGlyphs" textLength="125" x="27.5" y="59.9004">listTags(): List&lt;String&gt;</text></a><!--MD5=[d7c8137bbf53ab92c57aec26d1710031]
reverse link it.tidalwave.northernwind.frontend.filesystem.scm.spi.ScmWorkingDirectorySupport to it.tidalwave.northernwind.frontend.filesystem.git.impl.GitWorkingDirectory--><path codeLine="18" d="M154.5,86.1087 C154.5,98.8216 154.5,112.6542 154.5,125.9096 " fill="none" id="it.tidalwave.northernwind.frontend.filesystem.scm.spi.ScmWorkingDirectorySupport-backto-it.tidalwave.northernwind.frontend.filesystem.git.impl.GitWorkingDirectory" style="stroke: #A80036; stroke-width: 1.0;"/><polygon fill="none" points="147.5001,86.0704,154.5,66.0704,161.5001,86.0703,147.5001,86.0704" style="stroke: #A80036; stroke-width: 1.0;"/><text fill="#888888" font-family="sans-serif" font-size="10" lengthAdjust="spacingAndGlyphs" textLength="188" x="57.5" y="272.6641">UMLDoclet 2.0.12, PlantUML 1.2020.16</text><!--MD5=[6c8e80016d68f4b77e68c0c09c322ae3]
@startuml
    set namespaceSeparator none
    hide empty fields
    hide empty methods

    class "<size:14>GitWorkingDirectory\n<size:10>it.tidalwave.northernwind.frontend.filesystem.git.impl" as it.tidalwave.northernwind.frontend.filesystem.git.impl.GitWorkingDirectory [[GitWorkingDirectory.html]] {
        +GitWorkingDirectory(Path)
        +getCurrentTag(): Optional<Tag>
        +listTags(): List<String>
        +cloneFrom(URI): void
        +checkOut(Tag): void
        +fetchChangesets(): void
    }

    abstract class "<size:14>ScmWorkingDirectorySupport\n<size:10>it.tidalwave.northernwind.frontend.filesystem.scm.spi" as it.tidalwave.northernwind.frontend.filesystem.scm.spi.ScmWorkingDirectorySupport [[http://tidalwave.tidalwave.it/northernwind/it-tidalwave-northernwind-modules/it-tidalwave-northernwind-filesystem/it-tidalwave-northernwind-core-filesystem-scm/apidocs/it/tidalwave/northernwind/frontend/filesystem/scm/spi/ScmWorkingDirectorySupport.html?is-external=true]] {
        {abstract} +listTags(): List<String>
    }

    it.tidalwave.northernwind.frontend.filesystem.scm.spi.ScmWorkingDirectorySupport <|- - it.tidalwave.northernwind.frontend.filesystem.git.impl.GitWorkingDirectory

    center footer UMLDoclet 2.0.12, PlantUML 1.2020.16
@enduml

PlantUML version 1.2020.16(Sun Aug 23 22:20:43 CEST 2020)
(APACHE source distribution)
Java Runtime: OpenJDK Runtime Environment
JVM: OpenJDK 64-Bit Server VM
Default Encoding: UTF-8
Language: en
Country: GB
--></g></svg>