@startuml
    set namespaceSeparator none
    hide empty fields
    hide empty methods

    class "<size:14>ClingContentDirectoryAdapterSystemIntegrationTest\n<size:10>it.tidalwave.bluemarine2.upnp.mediaserver.impl" as it.tidalwave.bluemarine2.upnp.mediaserver.impl.ClingContentDirectoryAdapterSystemIntegrationTest [[ClingContentDirectoryAdapterSystemIntegrationTest.html]] {
        +setup(): void
        +shutdown(): void
        +test_service_publishing(): void
        +test_sequence(String, String, String): void
    }

    class "<size:14>ClingTestSupport\n<size:10>it.tidalwave.bluemarine2.upnp.mediaserver.impl" as it.tidalwave.bluemarine2.upnp.mediaserver.impl.ClingTestSupport [[ClingTestSupport.html]]

    it.tidalwave.bluemarine2.upnp.mediaserver.impl.ClingTestSupport <|-- it.tidalwave.bluemarine2.upnp.mediaserver.impl.ClingContentDirectoryAdapterSystemIntegrationTest

    center footer UMLDoclet 2.0.12, PlantUML 1.2020.16
@enduml
