<?xml version="1.0" encoding="UTF-8" standalone="no"?><svg xmlns="http://www.w3.org/2000/svg" xmlns:xlink="http://www.w3.org/1999/xlink" contentScriptType="application/ecmascript" contentStyleType="text/css" height="436px" preserveAspectRatio="none" style="width:432px;height:436px;" version="1.1" viewBox="0 0 432 436" width="432px" zoomAndPan="magnify"><defs><filter height="300%" id="fsdzzfh9pw5kx" width="300%" x="-1" y="-1"><feGaussianBlur result="blurOut" stdDeviation="2.0"/><feColorMatrix in="blurOut" result="blurOut2" type="matrix" values="0 0 0 0 0 0 0 0 0 0 0 0 0 0 0 0 0 0 .4 0"/><feOffset dx="4.0" dy="4.0" in="blurOut2" result="blurOut3"/><feBlend in="SourceGraphic" in2="blurOut3" mode="normal"/></filter></defs><g><!--MD5=[fa2901d749da97d8ebb96e890f56c6f6]
class it.tidalwave.util.ui.UserNotificationWithFeedback--><a href="UserNotificationWithFeedback.html" target="_top" title="UserNotificationWithFeedback.html" xlink:actuate="onRequest" xlink:href="UserNotificationWithFeedback.html" xlink:show="new" xlink:title="UserNotificationWithFeedback.html" xlink:type="simple"><rect codeLine="5" fill="#FEFECE" filter="url(#fsdzzfh9pw5kx)" height="196.7715" id="it.tidalwave.util.ui.UserNotificationWithFeedback" style="stroke: #A80036; stroke-width: 1.5;" width="404" x="9" y="105"/><ellipse cx="104.25" cy="124.1328" fill="#ADD1B2" rx="11" ry="11" style="stroke: #A80036; stroke-width: 1.0;"/><path d="M106.7231,130.2759 Q106.1421,130.5747 105.5029,130.7241 Q104.8638,130.8735 104.1582,130.8735 Q101.6514,130.8735 100.3315,129.2217 Q99.0117,127.5698 99.0117,124.4487 Q99.0117,121.3193 100.3315,119.6675 Q101.6514,118.0156 104.1582,118.0156 Q104.8638,118.0156 105.5112,118.165 Q106.1587,118.3145 106.7231,118.6133 L106.7231,121.3359 Q106.0923,120.7549 105.4988,120.4851 Q104.9053,120.2153 104.2744,120.2153 Q102.9297,120.2153 102.2449,121.282 Q101.5601,122.3486 101.5601,124.4487 Q101.5601,126.5405 102.2449,127.6072 Q102.9297,128.6738 104.2744,128.6738 Q104.9053,128.6738 105.4988,128.4041 Q106.0923,128.1343 106.7231,127.5532 Z "/><text fill="#000000" font-family="sans-serif" font-size="14" lengthAdjust="spacingAndGlyphs" textLength="205" x="124.75" y="123.5352">UserNotificationWithFeedback</text><text fill="#000000" font-family="sans-serif" font-size="10" lengthAdjust="spacingAndGlyphs" textLength="88" x="183.25" y="136.1563">it.tidalwave.util.ui</text><line style="stroke: #A80036; stroke-width: 1.5;" x1="10" x2="412" y1="143.2656" y2="143.2656"/><polygon fill="none" points="20,149.2656,24,153.2656,20,157.2656,16,153.2656" style="stroke: #B38D22; stroke-width: 1.0;"/><text fill="#000000" font-family="sans-serif" font-size="11" lengthAdjust="spacingAndGlyphs" textLength="104" x="29" y="157.9004">feedback: Feedback</text><line style="stroke: #A80036; stroke-width: 1.5;" x1="10" x2="412" y1="164.2207" y2="164.2207"/><polygon fill="#FFFF44" points="20,170.2207,24,174.2207,20,178.2207,16,174.2207" style="stroke: #B38D22; stroke-width: 1.0;"/><text fill="#000000" font-family="sans-serif" font-size="11" lengthAdjust="spacingAndGlyphs" textLength="294" x="29" y="178.8555">UserNotificationWithFeedback(String, String, Feedback)</text><ellipse cx="20" cy="188.1758" fill="#84BE84" rx="3" ry="3" style="stroke: #038048; stroke-width: 1.0;"/><text fill="#000000" font-family="sans-serif" font-size="11" lengthAdjust="spacingAndGlyphs" text-decoration="underline" textLength="308" x="29" y="191.8105">notificationWithFeedback(): UserNotificationWithFeedback</text><ellipse cx="20" cy="201.1309" fill="#84BE84" rx="3" ry="3" style="stroke: #038048; stroke-width: 1.0;"/><text fill="#000000" font-family="sans-serif" font-size="11" lengthAdjust="spacingAndGlyphs" textLength="270" x="29" y="204.7656">withCaption(String): UserNotificationWithFeedback</text><ellipse cx="20" cy="214.0859" fill="#84BE84" rx="3" ry="3" style="stroke: #038048; stroke-width: 1.0;"/><text fill="#000000" font-family="sans-serif" font-size="11" lengthAdjust="spacingAndGlyphs" textLength="378" x="29" y="217.7207">withCaption(Class&lt;?&gt;, String, Object...): UserNotificationWithFeedback</text><ellipse cx="20" cy="227.041" fill="#84BE84" rx="3" ry="3" style="stroke: #038048; stroke-width: 1.0;"/><text fill="#000000" font-family="sans-serif" font-size="11" lengthAdjust="spacingAndGlyphs" textLength="252" x="29" y="230.6758">withText(String): UserNotificationWithFeedback</text><ellipse cx="20" cy="239.9961" fill="#84BE84" rx="3" ry="3" style="stroke: #038048; stroke-width: 1.0;"/><text fill="#000000" font-family="sans-serif" font-size="11" lengthAdjust="spacingAndGlyphs" textLength="360" x="29" y="243.6309">withText(Class&lt;?&gt;, String, Object...): UserNotificationWithFeedback</text><ellipse cx="20" cy="252.9512" fill="#84BE84" rx="3" ry="3" style="stroke: #038048; stroke-width: 1.0;"/><text fill="#000000" font-family="sans-serif" font-size="11" lengthAdjust="spacingAndGlyphs" textLength="296" x="29" y="256.5859">withFeedback(Feedback): UserNotificationWithFeedback</text><ellipse cx="20" cy="265.9063" fill="#84BE84" rx="3" ry="3" style="stroke: #038048; stroke-width: 1.0;"/><text fill="#000000" font-family="sans-serif" font-size="11" lengthAdjust="spacingAndGlyphs" textLength="79" x="29" y="269.541">confirm(): void</text><ellipse cx="20" cy="278.8613" fill="#84BE84" rx="3" ry="3" style="stroke: #038048; stroke-width: 1.0;"/><text fill="#000000" font-family="sans-serif" font-size="11" lengthAdjust="spacingAndGlyphs" textLength="71" x="29" y="282.4961">cancel(): void</text><ellipse cx="20" cy="291.8164" fill="#84BE84" rx="3" ry="3" style="stroke: #038048; stroke-width: 1.0;"/><text fill="#000000" font-family="sans-serif" font-size="11" lengthAdjust="spacingAndGlyphs" text-decoration="underline" textLength="112" x="29" y="295.4512">feedback(): Feedback</text></a><!--MD5=[405853c2c05d834d32f02653a26e66f7]
class it.tidalwave.util.ui.UserNotification--><a href="UserNotification.html" target="_top" title="UserNotification.html" xlink:actuate="onRequest" xlink:href="UserNotification.html" xlink:show="new" xlink:title="UserNotification.html" xlink:type="simple"><rect codeLine="19" fill="#FEFECE" filter="url(#fsdzzfh9pw5kx)" height="38.2656" id="it.tidalwave.util.ui.UserNotification" style="stroke: #A80036; stroke-width: 1.5;" width="142" x="140" y="7"/><ellipse cx="155" cy="26.1328" fill="#ADD1B2" rx="11" ry="11" style="stroke: #A80036; stroke-width: 1.0;"/><path d="M157.4731,32.2759 Q156.8921,32.5747 156.2529,32.7241 Q155.6138,32.8735 154.9082,32.8735 Q152.4014,32.8735 151.0815,31.2217 Q149.7617,29.5698 149.7617,26.4487 Q149.7617,23.3193 151.0815,21.6675 Q152.4014,20.0156 154.9082,20.0156 Q155.6138,20.0156 156.2612,20.165 Q156.9087,20.3145 157.4731,20.6133 L157.4731,23.3359 Q156.8423,22.7549 156.2488,22.4851 Q155.6553,22.2153 155.0244,22.2153 Q153.6797,22.2153 152.9949,23.282 Q152.3101,24.3486 152.3101,26.4487 Q152.3101,28.5405 152.9949,29.6072 Q153.6797,30.6738 155.0244,30.6738 Q155.6553,30.6738 156.2488,30.4041 Q156.8423,30.1343 157.4731,29.5532 Z "/><text fill="#000000" font-family="sans-serif" font-size="14" lengthAdjust="spacingAndGlyphs" textLength="110" x="169" y="25.5352">UserNotification</text><text fill="#000000" font-family="sans-serif" font-size="10" lengthAdjust="spacingAndGlyphs" textLength="88" x="180" y="38.1563">it.tidalwave.util.ui</text></a><!--MD5=[099cc9f03ebd143a245f56cced963dc9]
class it.tidalwave.util.ui.UserNotificationWithFeedback.Feedback--><a href="UserNotificationWithFeedback.Feedback.html" target="_top" title="UserNotificationWithFeedback.Feedback.html" xlink:actuate="onRequest" xlink:href="UserNotificationWithFeedback.Feedback.html" xlink:show="new" xlink:title="UserNotificationWithFeedback.Feedback.html" xlink:type="simple"><rect codeLine="20" fill="#FEFECE" filter="url(#fsdzzfh9pw5kx)" height="38.2656" id="it.tidalwave.util.ui.UserNotificationWithFeedback.Feedback" style="stroke: #A80036; stroke-width: 1.5;" width="306" x="58" y="362"/><ellipse cx="73" cy="381.1328" fill="#ADD1B2" rx="11" ry="11" style="stroke: #A80036; stroke-width: 1.0;"/><path d="M75.4731,387.2759 Q74.8921,387.5747 74.2529,387.7241 Q73.6138,387.8735 72.9082,387.8735 Q70.4014,387.8735 69.0815,386.2217 Q67.7617,384.5698 67.7617,381.4487 Q67.7617,378.3193 69.0815,376.6675 Q70.4014,375.0156 72.9082,375.0156 Q73.6138,375.0156 74.2612,375.165 Q74.9087,375.3145 75.4731,375.6133 L75.4731,378.3359 Q74.8423,377.7549 74.2488,377.4851 Q73.6553,377.2153 73.0244,377.2153 Q71.6797,377.2153 70.9949,378.282 Q70.3101,379.3486 70.3101,381.4487 Q70.3101,383.5405 70.9949,384.6072 Q71.6797,385.6738 73.0244,385.6738 Q73.6553,385.6738 74.2488,385.4041 Q74.8423,385.1343 75.4731,384.5532 Z "/><text fill="#000000" font-family="sans-serif" font-size="14" lengthAdjust="spacingAndGlyphs" textLength="274" x="87" y="380.5352">UserNotificationWithFeedback.Feedback</text><text fill="#000000" font-family="sans-serif" font-size="10" lengthAdjust="spacingAndGlyphs" textLength="88" x="180" y="393.1563">it.tidalwave.util.ui</text></a><!--MD5=[79245b6155c7366f425420f496baa196]
reverse link it.tidalwave.util.ui.UserNotification to it.tidalwave.util.ui.UserNotificationWithFeedback--><path codeLine="22" d="M211,65.6337 C211,77.4685 211,91.0042 211,104.8655 " fill="none" id="it.tidalwave.util.ui.UserNotification-backto-it.tidalwave.util.ui.UserNotificationWithFeedback" style="stroke: #A80036; stroke-width: 1.0;"/><polygon fill="none" points="204.0001,65.3335,211,45.3335,218.0001,65.3335,204.0001,65.3335" style="stroke: #A80036; stroke-width: 1.0;"/><!--MD5=[5ef9544a7d7815de219e1ee0010331ca]
reverse link it.tidalwave.util.ui.UserNotificationWithFeedback to it.tidalwave.util.ui.UserNotificationWithFeedback.Feedback--><path codeLine="23" d="M211,317.1575 C211,334.3563 211,350.1971 211,361.7975 " fill="none" id="it.tidalwave.util.ui.UserNotificationWithFeedback-backto-it.tidalwave.util.ui.UserNotificationWithFeedback.Feedback" style="stroke: #A80036; stroke-width: 1.0;"/><ellipse cx="211.0001" cy="310.1122" fill="#FFFFFF" rx="8" ry="8" style="stroke: #A80036; stroke-width: 1.0;"/><line style="stroke: #A80036; stroke-width: 1.0;" x1="211.0002" x2="211" y1="318.1122" y2="302.1122"/><line style="stroke: #A80036; stroke-width: 1.0;" x1="203.0001" x2="219.0001" y1="310.1123" y2="310.1121"/><text fill="#888888" font-family="sans-serif" font-size="10" lengthAdjust="spacingAndGlyphs" textLength="188" x="113" y="422.9336">UMLDoclet 2.0.12, PlantUML 1.2020.16</text><!--MD5=[3f18620a767f6d4ae615c45e2a85a89d]
@startuml
    set namespaceSeparator none
    hide empty fields
    hide empty methods

    class "<size:14>UserNotificationWithFeedback\n<size:10>it.tidalwave.util.ui" as it.tidalwave.util.ui.UserNotificationWithFeedback [[UserNotificationWithFeedback.html]] {
        #feedback: Feedback
        #UserNotificationWithFeedback(String, String, Feedback)
        {static} +notificationWithFeedback(): UserNotificationWithFeedback
        +withCaption(String): UserNotificationWithFeedback
        +withCaption(Class<?>, String, Object...): UserNotificationWithFeedback
        +withText(String): UserNotificationWithFeedback
        +withText(Class<?>, String, Object...): UserNotificationWithFeedback
        +withFeedback(Feedback): UserNotificationWithFeedback
        +confirm(): void
        +cancel(): void
        {static} +feedback(): Feedback
    }

    class "<size:14>UserNotification\n<size:10>it.tidalwave.util.ui" as it.tidalwave.util.ui.UserNotification [[UserNotification.html]]
    class "<size:14>UserNotificationWithFeedback.Feedback\n<size:10>it.tidalwave.util.ui" as it.tidalwave.util.ui.UserNotificationWithFeedback.Feedback [[UserNotificationWithFeedback.Feedback.html]]

    it.tidalwave.util.ui.UserNotification <|- - it.tidalwave.util.ui.UserNotificationWithFeedback
    it.tidalwave.util.ui.UserNotificationWithFeedback +- - it.tidalwave.util.ui.UserNotificationWithFeedback.Feedback

    center footer UMLDoclet 2.0.12, PlantUML 1.2020.16
@enduml

PlantUML version 1.2020.16(Sun Aug 23 22:20:43 CEST 2020)
(APACHE source distribution)
Java Runtime: OpenJDK Runtime Environment
JVM: OpenJDK 64-Bit Server VM
Default Encoding: UTF-8
Language: en
Country: GB
--></g></svg>