<?xml version="1.0" encoding="UTF-8" standalone="no"?><svg xmlns="http://www.w3.org/2000/svg" xmlns:xlink="http://www.w3.org/1999/xlink" contentScriptType="application/ecmascript" contentStyleType="text/css" height="349px" preserveAspectRatio="none" style="width:559px;height:349px;" version="1.1" viewBox="0 0 559 349" width="559px" zoomAndPan="magnify"><defs><filter height="300%" id="f1bfod11i4r4v4" width="300%" x="-1" y="-1"><feGaussianBlur result="blurOut" stdDeviation="2.0"/><feColorMatrix in="blurOut" result="blurOut2" type="matrix" values="0 0 0 0 0 0 0 0 0 0 0 0 0 0 0 0 0 0 .4 0"/><feOffset dx="4.0" dy="4.0" in="blurOut2" result="blurOut3"/><feBlend in="SourceGraphic" in2="blurOut3" mode="normal"/></filter></defs><g><!--MD5=[15fce7bd8b2fd89c5bb819645f8b7b39]
class it.tidalwave.role.ui.BoundProperty--><a href="BoundProperty.html" target="_top" title="BoundProperty.html" xlink:actuate="onRequest" xlink:href="BoundProperty.html" xlink:show="new" xlink:title="BoundProperty.html" xlink:type="simple"><rect codeLine="5" fill="#FEFECE" filter="url(#f1bfod11i4r4v4)" height="131.9961" id="it.tidalwave.role.ui.BoundProperty" style="stroke: #A80036; stroke-width: 1.5;" width="201" x="230" y="181"/><ellipse cx="269.75" cy="200.1328" fill="#ADD1B2" rx="11" ry="11" style="stroke: #A80036; stroke-width: 1.0;"/><path d="M272.2231,206.2759 Q271.6421,206.5747 271.0029,206.7241 Q270.3638,206.8735 269.6582,206.8735 Q267.1514,206.8735 265.8315,205.2217 Q264.5117,203.5698 264.5117,200.4487 Q264.5117,197.3193 265.8315,195.6675 Q267.1514,194.0156 269.6582,194.0156 Q270.3638,194.0156 271.0112,194.165 Q271.6587,194.3145 272.2231,194.6133 L272.2231,197.3359 Q271.5923,196.7549 270.9988,196.4851 Q270.4053,196.2153 269.7744,196.2153 Q268.4297,196.2153 267.7449,197.282 Q267.0601,198.3486 267.0601,200.4487 Q267.0601,202.5405 267.7449,203.6072 Q268.4297,204.6738 269.7744,204.6738 Q270.4053,204.6738 270.9988,204.4041 Q271.5923,204.1343 272.2231,203.5532 Z "/><text fill="#000000" font-family="sans-serif" font-size="14" lengthAdjust="spacingAndGlyphs" textLength="102" x="289.25" y="199.5352">BoundProperty</text><text fill="#000000" font-family="sans-serif" font-size="10" lengthAdjust="spacingAndGlyphs" textLength="91" x="294.75" y="212.1563">it.tidalwave.role.ui</text><rect fill="#FFFFFF" height="16.1328" style="stroke: #000000; stroke-width: 1.0; stroke-dasharray: 2.0,2.0;" width="10" x="424" y="178"/><text fill="#000000" font-family="sans-serif" font-size="12" font-style="italic" lengthAdjust="spacingAndGlyphs" textLength="8" x="425" y="190.6016">T</text><line style="stroke: #A80036; stroke-width: 1.5;" x1="231" x2="430" y1="219.2656" y2="219.2656"/><ellipse cx="241" cy="230.2656" fill="none" rx="3" ry="3" style="stroke: #038048; stroke-width: 1.0;"/><text fill="#000000" font-family="sans-serif" font-size="11" lengthAdjust="spacingAndGlyphs" text-decoration="underline" textLength="107" x="250" y="233.9004">PROP_VALUE: String</text><line style="stroke: #A80036; stroke-width: 1.5;" x1="231" x2="430" y1="240.2207" y2="240.2207"/><ellipse cx="241" cy="251.2207" fill="#84BE84" rx="3" ry="3" style="stroke: #038048; stroke-width: 1.0;"/><text fill="#000000" font-family="sans-serif" font-size="11" lengthAdjust="spacingAndGlyphs" text-decoration="underline" textLength="137" x="250" y="254.8555">of(T): BoundProperty&lt;T&gt;</text><ellipse cx="241" cy="264.1758" fill="#84BE84" rx="3" ry="3" style="stroke: #038048; stroke-width: 1.0;"/><text fill="#000000" font-family="sans-serif" font-size="11" lengthAdjust="spacingAndGlyphs" textLength="60" x="250" y="267.8105">set(T): void</text><ellipse cx="241" cy="277.1309" fill="#84BE84" rx="3" ry="3" style="stroke: #038048; stroke-width: 1.0;"/><text fill="#000000" font-family="sans-serif" font-size="11" lengthAdjust="spacingAndGlyphs" textLength="38" x="250" y="280.7656">get(): T</text><ellipse cx="241" cy="290.0859" fill="#84BE84" rx="3" ry="3" style="stroke: #038048; stroke-width: 1.0;"/><text fill="#000000" font-family="sans-serif" font-size="11" lengthAdjust="spacingAndGlyphs" textLength="175" x="250" y="293.7207">bind(ChangingSource&lt;T&gt;): void</text><ellipse cx="241" cy="303.041" fill="#84BE84" rx="3" ry="3" style="stroke: #038048; stroke-width: 1.0;"/><text fill="#000000" font-family="sans-serif" font-size="11" lengthAdjust="spacingAndGlyphs" textLength="89" x="250" y="306.6758">unbindAll(): void</text></a><!--MD5=[0a6bffe168313332e15e4fb53cf70a04]
class it.tidalwave.role.ui.ChangingSource--><a href="ChangingSource.html" target="_top" title="ChangingSource.html" xlink:actuate="onRequest" xlink:href="ChangingSource.html" xlink:show="new" xlink:title="ChangingSource.html" xlink:type="simple"><rect codeLine="14" fill="#FEFECE" filter="url(#f1bfod11i4r4v4)" height="111.041" id="it.tidalwave.role.ui.ChangingSource" style="stroke: #A80036; stroke-width: 1.5;" width="363" x="7" y="10"/><ellipse cx="121.25" cy="29.1328" fill="#B4A7E5" rx="11" ry="11" style="stroke: #A80036; stroke-width: 1.0;"/><path d="M117.6777,25.3979 L117.6777,23.2397 L125.0571,23.2397 L125.0571,25.3979 L122.5918,25.3979 L122.5918,33.4746 L125.0571,33.4746 L125.0571,35.6328 L117.6777,35.6328 L117.6777,33.4746 L120.1431,33.4746 L120.1431,25.3979 Z "/><text fill="#000000" font-family="sans-serif" font-size="14" font-style="italic" lengthAdjust="spacingAndGlyphs" textLength="114" x="141.75" y="28.5352">ChangingSource</text><text fill="#000000" font-family="sans-serif" font-size="10" font-style="italic" lengthAdjust="spacingAndGlyphs" textLength="91" x="153.25" y="41.1563">it.tidalwave.role.ui</text><rect fill="#FFFFFF" height="16.1328" style="stroke: #000000; stroke-width: 1.0; stroke-dasharray: 2.0,2.0;" width="10" x="363" y="7"/><text fill="#000000" font-family="sans-serif" font-size="12" font-style="italic" lengthAdjust="spacingAndGlyphs" textLength="8" x="364" y="19.6016">T</text><line style="stroke: #A80036; stroke-width: 1.5;" x1="8" x2="369" y1="48.2656" y2="48.2656"/><ellipse cx="18" cy="59.2656" fill="#84BE84" rx="3" ry="3" style="stroke: #038048; stroke-width: 1.0;"/><text fill="#000000" font-family="sans-serif" font-size="11" font-style="italic" lengthAdjust="spacingAndGlyphs" textLength="305" x="27" y="62.9004">getPropertyChangeListeners(): PropertyChangeListener[]</text><ellipse cx="18" cy="72.2207" fill="#84BE84" rx="3" ry="3" style="stroke: #038048; stroke-width: 1.0;"/><text fill="#000000" font-family="sans-serif" font-size="11" font-style="italic" lengthAdjust="spacingAndGlyphs" textLength="317" x="27" y="75.8555">addPropertyChangeListener(PropertyChangeListener): void</text><ellipse cx="18" cy="85.1758" fill="#84BE84" rx="3" ry="3" style="stroke: #038048; stroke-width: 1.0;"/><text fill="#000000" font-family="sans-serif" font-size="11" font-style="italic" lengthAdjust="spacingAndGlyphs" textLength="337" x="27" y="88.8105">removePropertyChangeListener(PropertyChangeListener): void</text><ellipse cx="18" cy="98.1309" fill="#84BE84" rx="3" ry="3" style="stroke: #038048; stroke-width: 1.0;"/><text fill="#000000" font-family="sans-serif" font-size="11" font-style="italic" lengthAdjust="spacingAndGlyphs" textLength="89" x="27" y="101.7656">unbindAll(): void</text><ellipse cx="18" cy="111.0859" fill="#84BE84" rx="3" ry="3" style="stroke: #038048; stroke-width: 1.0;"/><text fill="#000000" font-family="sans-serif" font-size="11" font-style="italic" lengthAdjust="spacingAndGlyphs" textLength="38" x="27" y="114.7207">get(): T</text></a><!--MD5=[3c2b4723d6d209f275040312ce0a6aa4]
class it.tidalwave.role.ui.Changeable--><a href="Changeable.html" target="_top" title="Changeable.html" xlink:actuate="onRequest" xlink:href="Changeable.html" xlink:show="new" xlink:title="Changeable.html" xlink:type="simple"><rect codeLine="21" fill="#FEFECE" filter="url(#f1bfod11i4r4v4)" height="59.2207" id="it.tidalwave.role.ui.Changeable" style="stroke: #A80036; stroke-width: 1.5;" width="135" x="405" y="36"/><ellipse cx="420" cy="55.1328" fill="#B4A7E5" rx="11" ry="11" style="stroke: #A80036; stroke-width: 1.0;"/><path d="M416.4277,51.3979 L416.4277,49.2397 L423.8071,49.2397 L423.8071,51.3979 L421.3418,51.3979 L421.3418,59.4746 L423.8071,59.4746 L423.8071,61.6328 L416.4277,61.6328 L416.4277,59.4746 L418.8931,59.4746 L418.8931,51.3979 Z "/><text fill="#000000" font-family="sans-serif" font-size="14" font-style="italic" lengthAdjust="spacingAndGlyphs" textLength="82" x="438.5" y="54.5352">Changeable</text><text fill="#000000" font-family="sans-serif" font-size="10" font-style="italic" lengthAdjust="spacingAndGlyphs" textLength="91" x="434" y="67.1563">it.tidalwave.role.ui</text><rect fill="#FFFFFF" height="16.1328" style="stroke: #000000; stroke-width: 1.0; stroke-dasharray: 2.0,2.0;" width="10" x="533" y="33"/><text fill="#000000" font-family="sans-serif" font-size="12" font-style="italic" lengthAdjust="spacingAndGlyphs" textLength="8" x="534" y="45.6016">T</text><line style="stroke: #A80036; stroke-width: 1.5;" x1="406" x2="539" y1="74.2656" y2="74.2656"/><ellipse cx="416" cy="85.2656" fill="#84BE84" rx="3" ry="3" style="stroke: #038048; stroke-width: 1.0;"/><text fill="#000000" font-family="sans-serif" font-size="11" font-style="italic" lengthAdjust="spacingAndGlyphs" textLength="60" x="425" y="88.9004">set(T): void</text></a><!--MD5=[1ee5185cc688422d7228fd8b0796db05]
reverse link it.tidalwave.role.ui.ChangingSource to it.tidalwave.role.ui.BoundProperty--><path codeLine="25" d="M244.6426,137.2597 C255.858,151.595 267.5913,166.592 278.654,180.732 " fill="none" id="it.tidalwave.role.ui.ChangingSource-backto-it.tidalwave.role.ui.BoundProperty" style="stroke: #A80036; stroke-width: 1.0; stroke-dasharray: 7.0,7.0;"/><polygon fill="none" points="239.074,141.5023,232.2634,121.437,250.1004,132.8756,239.074,141.5023" style="stroke: #A80036; stroke-width: 1.0;"/><!--MD5=[095f04708bd86e531a8273776bc092a9]
reverse link it.tidalwave.role.ui.Changeable to it.tidalwave.role.ui.BoundProperty--><path codeLine="26" d="M436.9388,110.9532 C420.3899,132.1056 400.3864,157.6734 382.2086,180.9077 " fill="none" id="it.tidalwave.role.ui.Changeable-backto-it.tidalwave.role.ui.BoundProperty" style="stroke: #A80036; stroke-width: 1.0; stroke-dasharray: 7.0,7.0;"/><polygon fill="none" points="431.5322,106.5037,449.3692,95.0651,442.5585,115.1304,431.5322,106.5037" style="stroke: #A80036; stroke-width: 1.0;"/><text fill="#888888" font-family="sans-serif" font-size="10" lengthAdjust="spacingAndGlyphs" textLength="188" x="176.5" y="335.6641">UMLDoclet 2.0.12, PlantUML 1.2020.16</text><!--MD5=[7ae2f59937612f11c2817002eb43e083]
@startuml
    set namespaceSeparator none
    hide empty fields
    hide empty methods

    class "<size:14>BoundProperty\n<size:10>it.tidalwave.role.ui" as it.tidalwave.role.ui.BoundProperty<T> [[BoundProperty.html]] {
        {static} +PROP_VALUE: String
        {static} +of(T): BoundProperty<T>
        +set(T): void
        +get(): T
        +bind(ChangingSource<T>): void
        +unbindAll(): void
    }

    interface "<size:14>ChangingSource\n<size:10>it.tidalwave.role.ui" as it.tidalwave.role.ui.ChangingSource<T> [[ChangingSource.html]] {
        {abstract} +getPropertyChangeListeners(): PropertyChangeListener[]
        {abstract} +addPropertyChangeListener(PropertyChangeListener): void
        {abstract} +removePropertyChangeListener(PropertyChangeListener): void
        {abstract} +unbindAll(): void
        {abstract} +get(): T
    }
    interface "<size:14>Changeable\n<size:10>it.tidalwave.role.ui" as it.tidalwave.role.ui.Changeable<T> [[Changeable.html]] {
        {abstract} +set(T): void
    }

    it.tidalwave.role.ui.ChangingSource <|.. it.tidalwave.role.ui.BoundProperty
    it.tidalwave.role.ui.Changeable <|.. it.tidalwave.role.ui.BoundProperty

    center footer UMLDoclet 2.0.12, PlantUML 1.2020.16
@enduml

PlantUML version 1.2020.16(Sun Aug 23 22:20:43 CEST 2020)
(APACHE source distribution)
Java Runtime: OpenJDK Runtime Environment
JVM: OpenJDK 64-Bit Server VM
Default Encoding: UTF-8
Language: en
Country: GB
--></g></svg>