GROUP,PACKAGE,CLASS,INSTRUCTION_MISSED,INSTRUCTION_COVERED,BRANCH_MISSED,BRANCH_COVERED,LINE_MISSED,LINE_COVERED,COMPLEXITY_MISSED,COMPLEXITY_COVERED,METHOD_MISSED,METHOD_COVERED
TheseFoolishThings :: Roles/it-tidalwave-util,it.tidalwave.util.thread,ThreadType,34,0,0,0,2,0,1,0,1,0
TheseFoolishThings :: Roles/it-tidalwave-util,it.tidalwave.util.thread,ThreadAssertions,25,0,6,0,5,0,6,0,3,0
TheseFoolishThings :: Roles/it-tidalwave-util,it.tidalwave.util.ui,UserNotification,61,0,0,0,8,0,9,0,9,0
TheseFoolishThings :: Roles/it-tidalwave-util,it.tidalwave.util.ui,UserNotificationWithFeedback.Feedback,67,0,8,0,11,0,11,0,7,0
TheseFoolishThings :: Roles/it-tidalwave-util,it.tidalwave.util.ui,UserNotificationWithFeedback,89,0,0,0,16,0,12,0,12,0
TheseFoolishThings :: Roles/it-tidalwave-util,it.tidalwave.util.spi,DefaultProcessExecutor,187,0,6,0,35,0,15,0,12,0
TheseFoolishThings :: Roles/it-tidalwave-util,it.tidalwave.util.spi,AsDelegateProvider.EmptyAsDelegateProvider,0,8,0,0,0,2,0,2,0,2
TheseFoolishThings :: Roles/it-tidalwave-util,it.tidalwave.util.spi,DefaultProcessExecutor.DefaultConsoleOutput,326,0,30,0,69,0,26,0,11,0
TheseFoolishThings :: Roles/it-tidalwave-util,it.tidalwave.util.spi,AsDelegateProvider.EmptyAsDelegateProvider.new AsDelegate() {...},0,10,0,0,0,2,0,2,0,2
TheseFoolishThings :: Roles/it-tidalwave-util,it.tidalwave.util.spi,AsDelegateProvider,0,8,0,0,0,3,0,2,0,2
TheseFoolishThings :: Roles/it-tidalwave-util,it.tidalwave.util.spi,FinderWithIdMapSupport,50,0,2,0,10,0,6,0,5,0
TheseFoolishThings :: Roles/it-tidalwave-util,it.tidalwave.util.spi,DefaultProcessExecutor.DefaultConsoleOutput.new Runnable() {...},37,0,4,0,9,0,4,0,2,0
TheseFoolishThings :: Roles/it-tidalwave-util,it.tidalwave.util.spi,ArrayListCollectorSupport,17,0,0,0,5,0,6,0,6,0
TheseFoolishThings :: Roles/it-tidalwave-util,it.tidalwave.util.spi,DefaultProcessExecutor.DefaultConsoleOutput.new Runnable() {...},19,0,0,0,6,0,2,0,2,0
TheseFoolishThings :: Roles/it-tidalwave-util,it.tidalwave.util.spi,AsDelegateProvider.Locator,22,15,2,0,7,7,2,4,1,4
TheseFoolishThings :: Roles/it-tidalwave-util,it.tidalwave.util.spi,HierarchicFinderSupport.Sorter,30,0,4,0,3,0,4,0,2,0
TheseFoolishThings :: Roles/it-tidalwave-util,it.tidalwave.util.spi,FinderWithIdSupport,75,0,2,0,13,0,10,0,9,0
TheseFoolishThings :: Roles/it-tidalwave-util,it.tidalwave.util.spi,SimpleFinderSupport,4,8,0,0,2,3,1,2,1,2
TheseFoolishThings :: Roles/it-tidalwave-util,it.tidalwave.util.spi,HierarchicFinderSupport,159,228,6,8,29,38,14,16,9,14
TheseFoolishThings :: Roles/it-tidalwave-util,it.tidalwave.util,Initializer.EmptyInitializer,5,0,0,0,2,0,2,0,2,0
TheseFoolishThings :: Roles/it-tidalwave-util,it.tidalwave.util,NamedCallback,39,0,4,0,4,0,7,0,5,0
TheseFoolishThings :: Roles/it-tidalwave-util,it.tidalwave.util,Finder.SortCriterion,8,0,0,0,3,0,2,0,2,0
TheseFoolishThings :: Roles/it-tidalwave-util,it.tidalwave.util,CollectionUtils,9,72,0,4,1,19,1,9,1,7
TheseFoolishThings :: Roles/it-tidalwave-util,it.tidalwave.util,Finder,58,21,2,0,13,4,11,4,10,4
TheseFoolishThings :: Roles/it-tidalwave-util,it.tidalwave.util,SimpleTask,3,0,0,0,1,0,1,0,1,0
TheseFoolishThings :: Roles/it-tidalwave-util,it.tidalwave.util,BundleUtilities,0,28,0,2,0,5,0,3,0,2
TheseFoolishThings :: Roles/it-tidalwave-util,it.tidalwave.util,Initializer,4,0,0,0,1,0,1,0,1,0
TheseFoolishThings :: Roles/it-tidalwave-util,it.tidalwave.util,Task,37,21,0,0,7,3,5,1,5,1
TheseFoolishThings :: Roles/it-tidalwave-util,it.tidalwave.util,Id,30,75,9,9,2,4,10,8,2,7
TheseFoolishThings :: Roles/it-tidalwave-util,it.tidalwave.util,ReflectionUtils,73,75,10,10,17,17,8,5,1,2
TheseFoolishThings :: Roles/it-tidalwave-util,it.tidalwave.util,As,27,28,2,0,4,4,5,5,4,5
TheseFoolishThings :: Roles/it-tidalwave-util,it.tidalwave.util,TypeSafeMultiMap,6,10,0,0,2,2,2,2,2,2
TheseFoolishThings :: Roles/it-tidalwave-util,it.tidalwave.util,Task.new Task() {...},11,0,0,0,3,0,2,0,2,0
TheseFoolishThings :: Roles/it-tidalwave-util,it.tidalwave.util,LazySupplier,5,35,1,3,0,9,1,6,0,5
TheseFoolishThings :: Roles/it-tidalwave-util,it.tidalwave.util,Callback,4,0,0,0,1,0,2,0,2,0
TheseFoolishThings :: Roles/it-tidalwave-util,it.tidalwave.util,DuplicateException,7,0,0,0,4,0,2,0,2,0
TheseFoolishThings :: Roles/it-tidalwave-util,it.tidalwave.util,Finder.InMemorySortCriterion,17,0,0,0,4,0,3,0,3,0
TheseFoolishThings :: Roles/it-tidalwave-util,it.tidalwave.util,Finder.SortDirection,37,0,0,0,3,0,3,0,3,0
TheseFoolishThings :: Roles/it-tidalwave-util,it.tidalwave.util,Pair,84,226,17,9,3,22,18,34,5,34
TheseFoolishThings :: Roles/it-tidalwave-util,it.tidalwave.util,TypeSafeMap,6,18,0,0,2,5,2,3,2,3
TheseFoolishThings :: Roles/it-tidalwave-util,it.tidalwave.util,NotFoundException,35,27,8,4,10,10,8,6,4,4
TheseFoolishThings :: Roles/it-tidalwave-util,it.tidalwave.util,Parameters,75,44,10,6,12,9,8,4,2,2
TheseFoolishThings :: Roles/it-tidalwave-util,it.tidalwave.util,Key,38,162,13,15,4,15,14,16,3,13
TheseFoolishThings :: Roles/it-tidalwave-util,it.tidalwave.util,Finder.InMemorySortCriterion.DefaultInMemorySortCriterion,136,0,26,0,3,0,20,0,7,0
TheseFoolishThings :: Roles/it-tidalwave-util,it.tidalwave.util,FunctionalCheckedExceptionWrappers,11,64,0,4,6,23,2,11,2,9
TheseFoolishThings :: Roles/it-tidalwave-util,it.tidalwave.util,LocalizedDateTimeFormatters,0,16,0,0,0,3,0,1,0,1
TheseFoolishThings :: Roles/it-tidalwave-util,it.tidalwave.util,StreamOperations,2,64,2,2,0,12,2,2,0,2
TheseFoolishThings :: Roles/it-tidalwave-util,it.tidalwave.util,Pair.Factory,0,29,0,0,0,4,0,3,0,3
TheseFoolishThings :: Roles/it-tidalwave-util,it.tidalwave.util,Triple,92,118,24,12,0,8,20,12,2,12
TheseFoolishThings :: Roles/it-tidalwave-util,it.tidalwave.util,As.Type,61,11,13,1,0,2,10,2,3,2
TheseFoolishThings :: Roles/it-tidalwave-util,it.tidalwave.util,TimeProvider.DefaultTimeProvider,0,5,0,0,0,2,0,2,0,2
TheseFoolishThings :: Roles/it-tidalwave-util,it.tidalwave.util,AsExtensions,36,0,0,0,8,0,8,0,8,0
TheseFoolishThings :: Roles/it-tidalwave-util,it.tidalwave.util,TimeProvider,3,33,1,1,1,7,2,4,1,4
TheseFoolishThings :: Roles/it-tidalwave-util,it.tidalwave.util,Task.new Task() {...},10,0,0,0,2,0,2,0,2,0
TheseFoolishThings :: Roles/it-tidalwave-util,it.tidalwave.util,StreamOperations.new Spliterators.AbstractSpliterator() {...},0,37,1,3,0,5,1,3,0,2
TheseFoolishThings :: Roles/it-tidalwave-util,it.tidalwave.util,Task.new Task() {...},11,0,0,0,3,0,2,0,2,0
TheseFoolishThings :: Roles/it-tidalwave-util,it.tidalwave.util,AsException,6,5,0,0,2,2,1,1,1,1
TheseFoolishThings :: Roles/it-tidalwave-util,it.tidalwave.util,ConcurrentHashMapWithOptionals,0,24,0,2,0,3,0,5,0,4
TheseFoolishThings :: Roles/it-tidalwave-util,it.tidalwave.util.impl,TypeSafeHashMultiMap,74,86,14,2,4,20,13,11,6,10
TheseFoolishThings :: Roles/it-tidalwave-util,it.tidalwave.util.impl,SupplierFinder,15,14,0,0,4,4,1,2,1,2
TheseFoolishThings :: Roles/it-tidalwave-util,it.tidalwave.util.impl,ArrayListFinder,0,31,0,0,0,8,0,3,0,3
TheseFoolishThings :: Roles/it-tidalwave-util,it.tidalwave.util.impl,TypeSafeHashMap,74,78,14,0,4,17,13,10,6,10
TheseFoolishThings :: Roles/it-tidalwave-util,it.tidalwave.util.impl,ProviderFinder,0,35,0,0,0,8,0,3,0,3
TheseFoolishThings :: Roles/it-tidalwave-util,it.tidalwave.util.impl,MappingFinder,0,39,0,0,0,10,0,3,0,3
TheseFoolishThings :: Roles/it-tidalwave-util,it.tidalwave.util.impl,DefaultAs,33,151,1,13,6,30,4,14,3,8
TheseFoolishThings :: Roles/it-tidalwave-util-test,it.tidalwave.util.test,MockTimeProvider,14,0,0,0,4,0,3,0,3,0
TheseFoolishThings :: Roles/it-tidalwave-util-test,it.tidalwave.util.test,MoreAnswers,10,11,1,1,1,3,2,2,1,2
TheseFoolishThings :: Roles/it-tidalwave-util-test,it.tidalwave.util.test,FileComparisonUtils,665,0,28,0,101,0,42,0,27,0
TheseFoolishThings :: Roles/it-tidalwave-util-test,it.tidalwave.util.test,TestLogger,100,198,10,8,27,46,11,10,4,8
