<?xml version="1.0" encoding="UTF-8" standalone="no"?><svg xmlns="http://www.w3.org/2000/svg" xmlns:xlink="http://www.w3.org/1999/xlink" contentScriptType="application/ecmascript" contentStyleType="text/css" height="144px" preserveAspectRatio="none" style="width:497px;height:144px;" version="1.1" viewBox="0 0 497 144" width="497px" zoomAndPan="magnify"><defs><filter height="300%" id="f106olppi28ewi" width="300%" x="-1" y="-1"><feGaussianBlur result="blurOut" stdDeviation="2.0"/><feColorMatrix in="blurOut" result="blurOut2" type="matrix" values="0 0 0 0 0 0 0 0 0 0 0 0 0 0 0 0 0 0 .4 0"/><feOffset dx="4.0" dy="4.0" in="blurOut2" result="blurOut3"/><feBlend in="SourceGraphic" in2="blurOut3" mode="normal"/></filter></defs><g><!--MD5=[2dbb6c677775bf37b93e547e2ab3e9d8]
cluster it.tidalwave.northernwind.profiling--><polygon fill="#FFFFFF" filter="url(#f106olppi28ewi)" points="16,6,271,6,278,28.4883,475,28.4883,475,115,16,115,16,6" style="stroke: #000000; stroke-width: 1.5;"/><line style="stroke: #000000; stroke-width: 1.5;" x1="16" x2="278" y1="28.4883" y2="28.4883"/><text fill="#000000" font-family="sans-serif" font-size="14" font-weight="bold" lengthAdjust="spacingAndGlyphs" textLength="249" x="20" y="21.5352">it.tidalwave.northernwind.profiling</text><!--MD5=[768331d491f18a2221c3fe3c3e67f7e2]
class it.tidalwave.northernwind.profiling.RequestProfilerAspect--><a href="RequestProfilerAspect.html" target="_top" title="RequestProfilerAspect.html" xlink:actuate="onRequest" xlink:href="RequestProfilerAspect.html" xlink:show="new" xlink:title="RequestProfilerAspect.html" xlink:type="simple"><rect codeLine="3" fill="#FEFECE" filter="url(#f106olppi28ewi)" height="60.9551" id="it.tidalwave.northernwind.profiling.RequestProfilerAspect" style="stroke: #A80036; stroke-width: 1.5;" width="216" x="251" y="39.5"/><ellipse cx="291.65" cy="55.5" fill="#ADD1B2" rx="11" ry="11" style="stroke: #A80036; stroke-width: 1.0;"/><path d="M294.1231,61.6431 Q293.5421,61.9419 292.9029,62.0913 Q292.2638,62.2407 291.5582,62.2407 Q289.0514,62.2407 287.7315,60.5889 Q286.4117,58.937 286.4117,55.8159 Q286.4117,52.6865 287.7315,51.0347 Q289.0514,49.3828 291.5582,49.3828 Q292.2638,49.3828 292.9112,49.5322 Q293.5587,49.6816 294.1231,49.9805 L294.1231,52.7031 Q293.4923,52.1221 292.8988,51.8523 Q292.3053,51.5825 291.6744,51.5825 Q290.3297,51.5825 289.6449,52.6492 Q288.9601,53.7158 288.9601,55.8159 Q288.9601,57.9077 289.6449,58.9744 Q290.3297,60.041 291.6744,60.041 Q292.3053,60.041 292.8988,59.7712 Q293.4923,59.5015 294.1231,58.9204 Z "/><text fill="#000000" font-family="sans-serif" font-size="12" lengthAdjust="spacingAndGlyphs" textLength="127" x="311.35" y="60.0352">RequestProfilerAspect</text><line style="stroke: #A80036; stroke-width: 1.5;" x1="252" x2="466" y1="71.5" y2="71.5"/><line style="stroke: #A80036; stroke-width: 1.5;" x1="252" x2="466" y1="79.5" y2="79.5"/><ellipse cx="262" cy="90.5" fill="#84BE84" rx="3" ry="3" style="stroke: #038048; stroke-width: 1.0;"/><text fill="#000000" font-family="sans-serif" font-size="11" lengthAdjust="spacingAndGlyphs" textLength="190" x="271" y="94.1348">advice(ProceedingJoinPoint): Object</text></a><!--MD5=[ed3f982284dfb58141301a9b5f1e92ed]
class it.tidalwave.northernwind.profiling.StatisticsCollector--><a href="StatisticsCollector.html" target="_top" title="StatisticsCollector.html" xlink:actuate="onRequest" xlink:href="StatisticsCollector.html" xlink:show="new" xlink:title="StatisticsCollector.html" xlink:type="simple"><rect codeLine="7" fill="#FEFECE" filter="url(#f106olppi28ewi)" height="73.9102" id="it.tidalwave.northernwind.profiling.StatisticsCollector" style="stroke: #A80036; stroke-width: 1.5;" width="192" x="24" y="33"/><ellipse cx="66.45" cy="49" fill="#B4A7E5" rx="11" ry="11" style="stroke: #A80036; stroke-width: 1.0;"/><path d="M62.8777,45.2651 L62.8777,43.1069 L70.2571,43.1069 L70.2571,45.2651 L67.7918,45.2651 L67.7918,53.3418 L70.2571,53.3418 L70.2571,55.5 L62.8777,55.5 L62.8777,53.3418 L65.3431,53.3418 L65.3431,45.2651 Z "/><text fill="#000000" font-family="sans-serif" font-size="12" font-style="italic" lengthAdjust="spacingAndGlyphs" textLength="99" x="86.55" y="53.5352">StatisticsCollector</text><line style="stroke: #A80036; stroke-width: 1.5;" x1="25" x2="215" y1="65" y2="65"/><line style="stroke: #A80036; stroke-width: 1.5;" x1="25" x2="215" y1="73" y2="73"/><ellipse cx="35" cy="84" fill="#84BE84" rx="3" ry="3" style="stroke: #038048; stroke-width: 1.0;"/><text fill="#000000" font-family="sans-serif" font-size="11" font-style="italic" lengthAdjust="spacingAndGlyphs" textLength="166" x="44" y="87.6348">onRequestBegin(Request): void</text><ellipse cx="35" cy="96.9551" fill="#84BE84" rx="3" ry="3" style="stroke: #038048; stroke-width: 1.0;"/><text fill="#000000" font-family="sans-serif" font-size="11" font-style="italic" lengthAdjust="spacingAndGlyphs" textLength="157" x="44" y="100.5898">onRequestEnd(Request): void</text></a><text fill="#888888" font-family="sans-serif" font-size="10" lengthAdjust="spacingAndGlyphs" textLength="188" x="145.5" y="130.668">UMLDoclet 2.0.12, PlantUML 1.2020.16</text><!--MD5=[f74f53734a33edff32dd35cb783f70cd]
@startuml
    namespace it.tidalwave.northernwind.profiling {

        class RequestProfilerAspect [[RequestProfilerAspect.html]] {
            +advice(ProceedingJoinPoint): Object
        }

        interface StatisticsCollector [[StatisticsCollector.html]] {
            {abstract} +onRequestBegin(Request): void
            {abstract} +onRequestEnd(Request): void
        }

    }

    center footer UMLDoclet 2.0.12, PlantUML 1.2020.16
@enduml

PlantUML version 1.2020.16(Sun Aug 23 22:20:43 CEST 2020)
(APACHE source distribution)
Java Runtime: OpenJDK Runtime Environment
JVM: OpenJDK 64-Bit Server VM
Default Encoding: UTF-8
Language: en
Country: GB
--></g></svg>