@startuml
    set namespaceSeparator none
    hide empty fields
    hide empty methods

    class "<size:14>SerializableImageModelHolder\n<size:10>it.tidalwave.image" as it.tidalwave.image.SerializableImageModelHolder [[SerializableImageModelHolder.html]] {
        +set(ImageModel): void
        +get(): ImageModel
    }

    abstract class "<size:14>ImageModelHolder\n<size:10>it.tidalwave.image" as it.tidalwave.image.ImageModelHolder [[ImageModelHolder.html]] {
        {abstract} +set(ImageModel): void
        {abstract} +get(): ImageModel
    }

    it.tidalwave.image.ImageModelHolder <|-- it.tidalwave.image.SerializableImageModelHolder

    center footer UMLDoclet 2.0.12, PlantUML 1.2020.16
@enduml
