@startuml
    set namespaceSeparator none
    hide circle
    hide empty fields
    hide empty methods

    it.tidalwave.northernwind.rca.ui.event --> it.tidalwave.northernwind.core.model
    it.tidalwave.northernwind.rca.ui.event --> it.tidalwave.northernwind.frontend.filesystem.basic
    it.tidalwave.northernwind.rca.util --> it.tidalwave.util
    it.tidalwave.northernwind.rca.util --> it.tidalwave.role.ui
    it.tidalwave.northernwind.rca.util --> it.tidalwave.northernwind.core.model
    it.tidalwave.northernwind.model.admin --> it.tidalwave.util
    it.tidalwave.northernwind.model.admin.role --> it.tidalwave.northernwind.core.model
    it.tidalwave.northernwind.model.admin.role --> it.tidalwave.role.io

    ' Package links
    class "it.tidalwave.northernwind.rca.ui.event" [[it/tidalwave/northernwind/rca/ui/event/package-summary.html]] {
    }
    class "it.tidalwave.northernwind.rca.util" [[it/tidalwave/northernwind/rca/util/package-summary.html]] {
    }
    class "it.tidalwave.northernwind.model.admin" [[it/tidalwave/northernwind/model/admin/package-summary.html]] {
    }
    class "it.tidalwave.northernwind.model.admin.role" [[it/tidalwave/northernwind/model/admin/role/package-summary.html]] {
    }

    center footer UMLDoclet 2.0.12, PlantUML 1.2020.16
@enduml
