@startuml
    set namespaceSeparator none
    hide empty fields
    hide empty methods

    class "<size:14>Bindings\n<size:10>it.tidalwave.thesefoolishthings.examples.dci.swing.swing" as it.tidalwave.thesefoolishthings.examples.dci.swing.swing.Bindings [[Bindings.html]] {
        {static} +bind(BindingGroup, Object, JList): void
        {static} +bind(BindingGroup, Object, JTable): void
    }

    center footer UMLDoclet 2.0.12, PlantUML 1.2020.16
@enduml
