@startuml
    set namespaceSeparator none
    hide empty fields
    hide empty methods

    interface "<size:14>UserAction\n<size:10>it.tidalwave.role.ui" as it.tidalwave.role.ui.UserAction [[UserAction.html]] {
        {static} +_UserAction_: Class<UserAction>
        {abstract} +actionPerformed(): void
        {abstract} +enabled(): BoundProperty<Boolean>
        {static} +of(Callback, Collection<Object>): UserAction
        {static} +of(Callback, Object): UserAction
        {static} +of(Callback): UserAction
    }

    interface "<size:14>As\n<size:10>it.tidalwave.util" as it.tidalwave.util.As [[https://tidalwave.bitbucket.io/thesefoolishthings/modules/it-tidalwave-util/apidocs/it/tidalwave/util/As.html?is-external=true]] {
        {abstract} +maybeAs(Class<? extends T>): Optional<T>
        {abstract} +asMany(Class<? extends T>): Collection<T>
    }

    it.tidalwave.util.As <|-- it.tidalwave.role.ui.UserAction

    center footer UMLDoclet 2.0.12, PlantUML 1.2020.16
@enduml
