@startuml
    namespace it.tidalwave.northernwind.frontend.ui.component.gallery.spi.loader {

        class SlideShowProPlayerGalleryLoader [[SlideShowProPlayerGalleryLoader.html]] {
            {static} +P_IMAGES: Key<String>
            +SlideShowProPlayerGalleryLoader(BeanFactory, ResourceProperties)
            +loadGallery(SiteNode): List<GalleryItem>
        }

        abstract class GalleryLoaderSupport [[GalleryLoaderSupport.html]] {
            #GalleryLoaderSupport(BeanFactory, ResourceProperties)
            +createItem(Id): GalleryItem
        }

        GalleryLoaderSupport <|-- SlideShowProPlayerGalleryLoader
        it.tidalwave.northernwind.frontend.ui.component.gallery.spi.GalleryLoader <|.. GalleryLoaderSupport
    }

    namespace it.tidalwave.northernwind.frontend.ui.component.gallery.spi {
        interface GalleryLoader {
            {abstract} +loadGallery(SiteNode): List<GalleryItem>
        }
    }

    center footer UMLDoclet 2.0.12, PlantUML 1.2020.16
@enduml
