<?xml version="1.0" encoding="UTF-8" standalone="no"?><svg xmlns="http://www.w3.org/2000/svg" xmlns:xlink="http://www.w3.org/1999/xlink" contentScriptType="application/ecmascript" contentStyleType="text/css" height="260px" preserveAspectRatio="none" style="width:766px;height:260px;" version="1.1" viewBox="0 0 766 260" width="766px" zoomAndPan="magnify"><defs><filter height="300%" id="f661prigyu5f" width="300%" x="-1" y="-1"><feGaussianBlur result="blurOut" stdDeviation="2.0"/><feColorMatrix in="blurOut" result="blurOut2" type="matrix" values="0 0 0 0 0 0 0 0 0 0 0 0 0 0 0 0 0 0 .4 0"/><feOffset dx="4.0" dy="4.0" in="blurOut2" result="blurOut3"/><feBlend in="SourceGraphic" in2="blurOut3" mode="normal"/></filter></defs><g><!--MD5=[7439c4a17a20c86491617d937167363c]
class it.tidalwave.northernwind.frontend.ui.component.blog.htmltemplate.HtmlTemplateBlogView--><a href="HtmlTemplateBlogView.html" target="_top" title="HtmlTemplateBlogView.html" xlink:actuate="onRequest" xlink:href="HtmlTemplateBlogView.html" xlink:show="new" xlink:title="HtmlTemplateBlogView.html" xlink:type="simple"><rect codeLine="5" fill="#FEFECE" filter="url(#f661prigyu5f)" height="98.0859" id="it.tidalwave.northernwind.frontend.ui.component.blog.htmltemplate.HtmlTemplateBlogView" style="stroke: #A80036; stroke-width: 1.5;" width="469" x="171.5" y="126"/><ellipse cx="235.75" cy="145.1328" fill="#ADD1B2" rx="11" ry="11" style="stroke: #A80036; stroke-width: 1.0;"/><path d="M238.2231,151.2759 Q237.6421,151.5747 237.0029,151.7241 Q236.3638,151.8735 235.6582,151.8735 Q233.1514,151.8735 231.8315,150.2217 Q230.5117,148.5698 230.5117,145.4487 Q230.5117,142.3193 231.8315,140.6675 Q233.1514,139.0156 235.6582,139.0156 Q236.3638,139.0156 237.0112,139.165 Q237.6587,139.3145 238.2231,139.6133 L238.2231,142.3359 Q237.5923,141.7549 236.9988,141.4851 Q236.4053,141.2153 235.7744,141.2153 Q234.4297,141.2153 233.7449,142.282 Q233.0601,143.3486 233.0601,145.4487 Q233.0601,147.5405 233.7449,148.6072 Q234.4297,149.6738 235.7744,149.6738 Q236.4053,149.6738 236.9988,149.4041 Q237.5923,149.1343 238.2231,148.5532 Z "/><text fill="#000000" font-family="sans-serif" font-size="14" lengthAdjust="spacingAndGlyphs" textLength="158" x="343.25" y="144.5352">HtmlTemplateBlogView</text><text fill="#000000" font-family="sans-serif" font-size="10" lengthAdjust="spacingAndGlyphs" textLength="332" x="256.25" y="157.1563">it.tidalwave.northernwind.frontend.ui.component.blog.htmltemplate</text><line style="stroke: #A80036; stroke-width: 1.5;" x1="172.5" x2="639.5" y1="164.2656" y2="164.2656"/><ellipse cx="182.5" cy="175.2656" fill="#84BE84" rx="3" ry="3" style="stroke: #038048; stroke-width: 1.0;"/><text fill="#000000" font-family="sans-serif" font-size="11" lengthAdjust="spacingAndGlyphs" textLength="164" x="191.5" y="178.9004">HtmlTemplateBlogView(Id, Site)</text><ellipse cx="182.5" cy="188.2207" fill="#84BE84" rx="3" ry="3" style="stroke: #038048; stroke-width: 1.0;"/><text fill="#000000" font-family="sans-serif" font-size="11" lengthAdjust="spacingAndGlyphs" textLength="108" x="191.5" y="191.8555">setTitle(String): void</text><ellipse cx="182.5" cy="201.1758" fill="#84BE84" rx="3" ry="3" style="stroke: #038048; stroke-width: 1.0;"/><text fill="#000000" font-family="sans-serif" font-size="11" lengthAdjust="spacingAndGlyphs" textLength="443" x="191.5" y="204.8105">renderPosts(Optional&lt;ResourcePath&gt;, Aggregates, Aggregates, Aggregates): void</text><ellipse cx="182.5" cy="214.1309" fill="#84BE84" rx="3" ry="3" style="stroke: #038048; stroke-width: 1.0;"/><text fill="#000000" font-family="sans-serif" font-size="11" lengthAdjust="spacingAndGlyphs" textLength="330" x="191.5" y="217.7656">renderTagCloud(Optional&lt;ResourcePath&gt;, Aggregates): void</text></a><!--MD5=[29faf4ef4f5626ea036e882b9bdb2503]
class it.tidalwave.northernwind.frontend.ui.component.htmlfragment.htmltemplate.HtmlTemplateHtmlFragmentView--><a href="../../htmlfragment/htmltemplate/HtmlTemplateHtmlFragmentView.html" target="_top" title="../../htmlfragment/htmltemplate/HtmlTemplateHtmlFragmentView.html" xlink:actuate="onRequest" xlink:href="../../htmlfragment/htmltemplate/HtmlTemplateHtmlFragmentView.html" xlink:show="new" xlink:title="../../htmlfragment/htmltemplate/HtmlTemplateHtmlFragmentView.html" xlink:type="simple"><rect codeLine="12" fill="#FEFECE" filter="url(#f661prigyu5f)" height="38.2656" id="it.tidalwave.northernwind.frontend.ui.component.htmlfragment.htmltemplate.HtmlTemplateHtmlFragmentView" style="stroke: #A80036; stroke-width: 1.5;" width="410" x="7" y="17.5"/><ellipse cx="22" cy="36.6328" fill="#ADD1B2" rx="11" ry="11" style="stroke: #A80036; stroke-width: 1.0;"/><path d="M24.4731,42.7759 Q23.8921,43.0747 23.2529,43.2241 Q22.6138,43.3735 21.9082,43.3735 Q19.4014,43.3735 18.0815,41.7217 Q16.7617,40.0698 16.7617,36.9487 Q16.7617,33.8193 18.0815,32.1675 Q19.4014,30.5156 21.9082,30.5156 Q22.6138,30.5156 23.2612,30.665 Q23.9087,30.8145 24.4731,31.1133 L24.4731,33.8359 Q23.8423,33.2549 23.2488,32.9851 Q22.6553,32.7153 22.0244,32.7153 Q20.6797,32.7153 19.9949,33.782 Q19.3101,34.8486 19.3101,36.9487 Q19.3101,39.0405 19.9949,40.1072 Q20.6797,41.1738 22.0244,41.1738 Q22.6553,41.1738 23.2488,40.9041 Q23.8423,40.6343 24.4731,40.0532 Z "/><text fill="#000000" font-family="sans-serif" font-size="14" lengthAdjust="spacingAndGlyphs" textLength="226" x="112" y="36.0352">HtmlTemplateHtmlFragmentView</text><text fill="#000000" font-family="sans-serif" font-size="10" lengthAdjust="spacingAndGlyphs" textLength="378" x="36" y="48.6563">it.tidalwave.northernwind.frontend.ui.component.htmlfragment.htmltemplate</text></a><!--MD5=[338fe56ad8fc8a3f207ba96532f48943]
class it.tidalwave.northernwind.frontend.ui.component.blog.BlogView--><a href="../BlogView.html" target="_top" title="../BlogView.html" xlink:actuate="onRequest" xlink:href="../BlogView.html" xlink:show="new" xlink:title="../BlogView.html" xlink:type="simple"><rect codeLine="13" fill="#FEFECE" filter="url(#f661prigyu5f)" height="59.2207" id="it.tidalwave.northernwind.frontend.ui.component.blog.BlogView" style="stroke: #A80036; stroke-width: 1.5;" width="295" x="452.5" y="7"/><ellipse cx="467.5" cy="26.1328" fill="#B4A7E5" rx="11" ry="11" style="stroke: #A80036; stroke-width: 1.0;"/><path d="M463.9277,22.3979 L463.9277,20.2397 L471.3071,20.2397 L471.3071,22.3979 L468.8418,22.3979 L468.8418,30.4746 L471.3071,30.4746 L471.3071,32.6328 L463.9277,32.6328 L463.9277,30.4746 L466.3931,30.4746 L466.3931,22.3979 Z "/><text fill="#000000" font-family="sans-serif" font-size="14" font-style="italic" lengthAdjust="spacingAndGlyphs" textLength="62" x="582" y="25.5352">BlogView</text><text fill="#000000" font-family="sans-serif" font-size="10" font-style="italic" lengthAdjust="spacingAndGlyphs" textLength="263" x="481.5" y="38.1563">it.tidalwave.northernwind.frontend.ui.component.blog</text><line style="stroke: #A80036; stroke-width: 1.5;" x1="453.5" x2="746.5" y1="45.2656" y2="45.2656"/><ellipse cx="463.5" cy="56.2656" fill="#84BE84" rx="3" ry="3" style="stroke: #038048; stroke-width: 1.0;"/><text fill="#000000" font-family="sans-serif" font-size="11" font-style="italic" lengthAdjust="spacingAndGlyphs" textLength="108" x="472.5" y="59.9004">setTitle(String): void</text></a><!--MD5=[f52cae5dd39a1e29ade14fda1bb196dd]
reverse link it.tidalwave.northernwind.frontend.ui.component.htmlfragment.htmltemplate.HtmlTemplateHtmlFragmentView to it.tidalwave.northernwind.frontend.ui.component.blog.htmltemplate.HtmlTemplateBlogView--><path codeLine="17" d="M255.5683,67.6042 C279.5779,84.7451 309.9357,106.418 337.0822,125.7984 " fill="none" id="it.tidalwave.northernwind.frontend.ui.component.htmlfragment.htmltemplate.HtmlTemplateHtmlFragmentView-backto-it.tidalwave.northernwind.frontend.ui.component.blog.htmltemplate.HtmlTemplateBlogView" style="stroke: #A80036; stroke-width: 1.0;"/><polygon fill="none" points="251.1851,73.0758,238.9749,55.7578,259.3197,61.6815,251.1851,73.0758" style="stroke: #A80036; stroke-width: 1.0;"/><!--MD5=[2331a7a84e9ec4078c35b46054cb8537]
reverse link it.tidalwave.northernwind.frontend.ui.component.blog.BlogView to it.tidalwave.northernwind.frontend.ui.component.blog.htmltemplate.HtmlTemplateBlogView--><path codeLine="18" d="M541.7985,78.0511 C520.6652,93.1385 496.59,110.3262 474.6392,125.9973 " fill="none" id="it.tidalwave.northernwind.frontend.ui.component.blog.BlogView-backto-it.tidalwave.northernwind.frontend.ui.component.blog.htmltemplate.HtmlTemplateBlogView" style="stroke: #A80036; stroke-width: 1.0; stroke-dasharray: 7.0,7.0;"/><polygon fill="none" points="538.0373,72.1354,558.3821,66.2117,546.1719,83.5297,538.0373,72.1354" style="stroke: #A80036; stroke-width: 1.0;"/><text fill="#888888" font-family="sans-serif" font-size="10" lengthAdjust="spacingAndGlyphs" textLength="188" x="280.25" y="246.7539">UMLDoclet 2.0.12, PlantUML 1.2020.16</text><!--MD5=[5f09ff72e213449658b5b01e8c34b5a9]
@startuml
    set namespaceSeparator none
    hide empty fields
    hide empty methods

    class "<size:14>HtmlTemplateBlogView\n<size:10>it.tidalwave.northernwind.frontend.ui.component.blog.htmltemplate" as it.tidalwave.northernwind.frontend.ui.component.blog.htmltemplate.HtmlTemplateBlogView [[HtmlTemplateBlogView.html]] {
        +HtmlTemplateBlogView(Id, Site)
        +setTitle(String): void
        +renderPosts(Optional<ResourcePath>, Aggregates, Aggregates, Aggregates): void
        +renderTagCloud(Optional<ResourcePath>, Aggregates): void
    }

    class "<size:14>HtmlTemplateHtmlFragmentView\n<size:10>it.tidalwave.northernwind.frontend.ui.component.htmlfragment.htmltemplate" as it.tidalwave.northernwind.frontend.ui.component.htmlfragment.htmltemplate.HtmlTemplateHtmlFragmentView [[../../htmlfragment/htmltemplate/HtmlTemplateHtmlFragmentView.html]]
    interface "<size:14>BlogView\n<size:10>it.tidalwave.northernwind.frontend.ui.component.blog" as it.tidalwave.northernwind.frontend.ui.component.blog.BlogView [[../BlogView.html]] {
        {abstract} +setTitle(String): void
    }

    it.tidalwave.northernwind.frontend.ui.component.htmlfragment.htmltemplate.HtmlTemplateHtmlFragmentView <|- - it.tidalwave.northernwind.frontend.ui.component.blog.htmltemplate.HtmlTemplateBlogView
    it.tidalwave.northernwind.frontend.ui.component.blog.BlogView <|.. it.tidalwave.northernwind.frontend.ui.component.blog.htmltemplate.HtmlTemplateBlogView

    center footer UMLDoclet 2.0.12, PlantUML 1.2020.16
@enduml

PlantUML version 1.2020.16(Sun Aug 23 22:20:43 CEST 2020)
(APACHE source distribution)
Java Runtime: OpenJDK Runtime Environment
JVM: OpenJDK 64-Bit Server VM
Default Encoding: UTF-8
Language: en
Country: GB
--></g></svg>