@startuml
    set namespaceSeparator none
    hide empty fields
    hide empty methods

    abstract class "<size:14>ImageModelCache\n<size:10>it.tidalwave.image" as it.tidalwave.image.ImageModelCache [[ImageModelCache.html]] {
        {static} +setDefault(Class<? extends ImageModelCache>): void
        {static} +getInstance(): ImageModelCache
        {abstract} +store(ImageModel): void
        {abstract} +update(ImageModel): void
        {abstract} +remove(Serializable, boolean): void
        {abstract} +retrieve(Serializable, boolean): ImageModel
        {abstract} +contains(Serializable): boolean
    }

    center footer UMLDoclet 2.0.12, PlantUML 1.2020.16
@enduml
