<?xml version="1.0" encoding="UTF-8" standalone="no"?><svg xmlns="http://www.w3.org/2000/svg" xmlns:xlink="http://www.w3.org/1999/xlink" contentScriptType="application/ecmascript" contentStyleType="text/css" height="449px" preserveAspectRatio="none" style="width:563px;height:449px;" version="1.1" viewBox="0 0 563 449" width="563px" zoomAndPan="magnify"><defs><filter height="300%" id="f1wk7fev7n2jn6" width="300%" x="-1" y="-1"><feGaussianBlur result="blurOut" stdDeviation="2.0"/><feColorMatrix in="blurOut" result="blurOut2" type="matrix" values="0 0 0 0 0 0 0 0 0 0 0 0 0 0 0 0 0 0 .4 0"/><feOffset dx="4.0" dy="4.0" in="blurOut2" result="blurOut3"/><feBlend in="SourceGraphic" in2="blurOut3" mode="normal"/></filter></defs><g><!--MD5=[b34db8396f2bda4350e9dc52a4e46846]
class it.tidalwave.northernwind.core.model.ResourceProperties--><a href="ResourceProperties.html" target="_top" title="ResourceProperties.html" xlink:actuate="onRequest" xlink:href="ResourceProperties.html" xlink:show="new" xlink:title="ResourceProperties.html" xlink:type="simple"><rect codeLine="5" fill="#FEFECE" filter="url(#f1wk7fev7n2jn6)" height="175.8164" id="it.tidalwave.northernwind.core.model.ResourceProperties" style="stroke: #A80036; stroke-width: 1.5;" width="327" x="95" y="139"/><ellipse cx="163.25" cy="158.1328" fill="#B4A7E5" rx="11" ry="11" style="stroke: #A80036; stroke-width: 1.0;"/><path d="M159.6777,154.3979 L159.6777,152.2397 L167.0571,152.2397 L167.0571,154.3979 L164.5918,154.3979 L164.5918,162.4746 L167.0571,162.4746 L167.0571,164.6328 L159.6777,164.6328 L159.6777,162.4746 L162.1431,162.4746 L162.1431,154.3979 Z "/><text fill="#000000" font-family="sans-serif" font-size="14" font-style="italic" lengthAdjust="spacingAndGlyphs" textLength="133" x="208.25" y="157.5352">ResourceProperties</text><text fill="#000000" font-family="sans-serif" font-size="10" font-style="italic" lengthAdjust="spacingAndGlyphs" textLength="182" x="183.75" y="170.1563">it.tidalwave.northernwind.core.model</text><line style="stroke: #A80036; stroke-width: 1.5;" x1="96" x2="421" y1="177.2656" y2="177.2656"/><ellipse cx="106" cy="188.2656" fill="#84BE84" rx="3" ry="3" style="stroke: #038048; stroke-width: 1.0;"/><text fill="#000000" font-family="sans-serif" font-size="11" font-style="italic" lengthAdjust="spacingAndGlyphs" textLength="246" x="115" y="191.9004">getProperty(Key&lt;? extends T&gt;): Optional&lt;T&gt;</text><ellipse cx="106" cy="201.2207" fill="#84BE84" rx="3" ry="3" style="stroke: #038048; stroke-width: 1.0;"/><text fill="#000000" font-family="sans-serif" font-size="11" lengthAdjust="spacingAndGlyphs" textLength="283" x="115" y="204.8555">getProperty(List&lt;? extends Key&lt;T&gt;&gt;): Optional&lt;T&gt;</text><ellipse cx="106" cy="214.1758" fill="#84BE84" rx="3" ry="3" style="stroke: #038048; stroke-width: 1.0;"/><text fill="#000000" font-family="sans-serif" font-size="11" font-style="italic" lengthAdjust="spacingAndGlyphs" textLength="180" x="115" y="217.8105">getGroup(Id): ResourceProperties</text><ellipse cx="106" cy="227.1309" fill="#84BE84" rx="3" ry="3" style="stroke: #038048; stroke-width: 1.0;"/><text fill="#000000" font-family="sans-serif" font-size="11" font-style="italic" lengthAdjust="spacingAndGlyphs" textLength="170" x="115" y="230.7656">getKeys(): Collection&lt;Key&lt;?&gt;&gt;</text><ellipse cx="106" cy="240.0859" fill="#84BE84" rx="3" ry="3" style="stroke: #038048; stroke-width: 1.0;"/><text fill="#000000" font-family="sans-serif" font-size="11" font-style="italic" lengthAdjust="spacingAndGlyphs" textLength="163" x="115" y="243.7207">getGroupIds(): Collection&lt;Id&gt;</text><ellipse cx="106" cy="253.041" fill="#84BE84" rx="3" ry="3" style="stroke: #038048; stroke-width: 1.0;"/><text fill="#000000" font-family="sans-serif" font-size="11" font-style="italic" lengthAdjust="spacingAndGlyphs" textLength="244" x="115" y="256.6758">withProperty(Key&lt;T&gt;, T): ResourceProperties</text><ellipse cx="106" cy="265.9961" fill="#84BE84" rx="3" ry="3" style="stroke: #038048; stroke-width: 1.0;"/><text fill="#000000" font-family="sans-serif" font-size="11" font-style="italic" lengthAdjust="spacingAndGlyphs" textLength="247" x="115" y="269.6309">withoutProperty(Key&lt;?&gt;): ResourceProperties</text><ellipse cx="106" cy="278.9512" fill="#84BE84" rx="3" ry="3" style="stroke: #038048; stroke-width: 1.0;"/><text fill="#000000" font-family="sans-serif" font-size="11" font-style="italic" lengthAdjust="spacingAndGlyphs" textLength="301" x="115" y="282.5859">withProperties(ResourceProperties): ResourceProperties</text><ellipse cx="106" cy="291.9063" fill="#84BE84" rx="3" ry="3" style="stroke: #038048; stroke-width: 1.0;"/><text fill="#000000" font-family="sans-serif" font-size="11" font-style="italic" lengthAdjust="spacingAndGlyphs" textLength="265" x="115" y="295.541">merged(ResourceProperties): ResourceProperties</text><ellipse cx="106" cy="304.8613" fill="#84BE84" rx="3" ry="3" style="stroke: #038048; stroke-width: 1.0;"/><text fill="#000000" font-family="sans-serif" font-size="11" font-style="italic" lengthAdjust="spacingAndGlyphs" textLength="161" x="115" y="308.4961">withId(Id): ResourceProperties</text></a><!--MD5=[dab04e1bf87902def4158d0914d2f9d5]
class it.tidalwave.util.As--><rect codeLine="18" fill="#FEFECE" filter="url(#f1wk7fev7n2jn6)" height="72.1758" id="it.tidalwave.util.As" style="stroke: #A80036; stroke-width: 1.5;" width="268" x="12.5" y="7"/><ellipse cx="104.25" cy="26.1328" fill="#B4A7E5" rx="11" ry="11" style="stroke: #A80036; stroke-width: 1.0;"/><path d="M100.6777,22.3979 L100.6777,20.2397 L108.0571,20.2397 L108.0571,22.3979 L105.5918,22.3979 L105.5918,30.4746 L108.0571,30.4746 L108.0571,32.6328 L100.6777,32.6328 L100.6777,30.4746 L103.1431,30.4746 L103.1431,22.3979 Z "/><text fill="#000000" font-family="sans-serif" font-size="14" font-style="italic" lengthAdjust="spacingAndGlyphs" textLength="17" x="154.25" y="25.5352">As</text><text fill="#000000" font-family="sans-serif" font-size="10" font-style="italic" lengthAdjust="spacingAndGlyphs" textLength="76" x="124.75" y="38.1563">it.tidalwave.util</text><line style="stroke: #A80036; stroke-width: 1.5;" x1="13.5" x2="279.5" y1="45.2656" y2="45.2656"/><ellipse cx="23.5" cy="56.2656" fill="#84BE84" rx="3" ry="3" style="stroke: #038048; stroke-width: 1.0;"/><text fill="#000000" font-family="sans-serif" font-size="11" font-style="italic" lengthAdjust="spacingAndGlyphs" textLength="242" x="32.5" y="59.9004">maybeAs(Class&lt;? extends T&gt;): Optional&lt;T&gt;</text><ellipse cx="23.5" cy="69.2207" fill="#84BE84" rx="3" ry="3" style="stroke: #038048; stroke-width: 1.0;"/><text fill="#000000" font-family="sans-serif" font-size="11" font-style="italic" lengthAdjust="spacingAndGlyphs" textLength="241" x="32.5" y="72.8555">asMany(Class&lt;? extends T&gt;): Collection&lt;T&gt;</text><!--MD5=[f40774d2c0efa8b70d7c747ac61cb911]
class it.tidalwave.role.Identifiable--><rect codeLine="22" fill="#FEFECE" filter="url(#f1wk7fev7n2jn6)" height="59.2207" id="it.tidalwave.role.Identifiable" style="stroke: #A80036; stroke-width: 1.5;" width="111" x="316" y="13.5"/><ellipse cx="331" cy="32.6328" fill="#B4A7E5" rx="11" ry="11" style="stroke: #A80036; stroke-width: 1.0;"/><path d="M327.4277,28.8979 L327.4277,26.7397 L334.8071,26.7397 L334.8071,28.8979 L332.3418,28.8979 L332.3418,36.9746 L334.8071,36.9746 L334.8071,39.1328 L327.4277,39.1328 L327.4277,36.9746 L329.8931,36.9746 L329.8931,28.8979 Z "/><text fill="#000000" font-family="sans-serif" font-size="14" font-style="italic" lengthAdjust="spacingAndGlyphs" textLength="77" x="346" y="32.0352">Identifiable</text><text fill="#000000" font-family="sans-serif" font-size="10" font-style="italic" lengthAdjust="spacingAndGlyphs" textLength="79" x="345" y="44.6563">it.tidalwave.role</text><line style="stroke: #A80036; stroke-width: 1.5;" x1="317" x2="426" y1="51.7656" y2="51.7656"/><ellipse cx="327" cy="62.7656" fill="#84BE84" rx="3" ry="3" style="stroke: #038048; stroke-width: 1.0;"/><text fill="#000000" font-family="sans-serif" font-size="11" font-style="italic" lengthAdjust="spacingAndGlyphs" textLength="51" x="336" y="66.4004">getId(): Id</text><!--MD5=[d1e54cfe461ee16742301058415f2983]
class it.tidalwave.northernwind.core.model.ResourceProperties.Builder--><a href="ResourceProperties.Builder.html" target="_top" title="ResourceProperties.Builder.html" xlink:actuate="onRequest" xlink:href="ResourceProperties.Builder.html" xlink:show="new" xlink:title="ResourceProperties.Builder.html" xlink:type="simple"><rect codeLine="25" fill="#FEFECE" filter="url(#f1wk7fev7n2jn6)" height="38.2656" id="it.tidalwave.northernwind.core.model.ResourceProperties.Builder" style="stroke: #A80036; stroke-width: 1.5;" width="217" x="7" y="375"/><ellipse cx="22" cy="394.1328" fill="#ADD1B2" rx="11" ry="11" style="stroke: #A80036; stroke-width: 1.0;"/><path d="M24.4731,400.2759 Q23.8921,400.5747 23.2529,400.7241 Q22.6138,400.8735 21.9082,400.8735 Q19.4014,400.8735 18.0815,399.2217 Q16.7617,397.5698 16.7617,394.4487 Q16.7617,391.3193 18.0815,389.6675 Q19.4014,388.0156 21.9082,388.0156 Q22.6138,388.0156 23.2612,388.165 Q23.9087,388.3145 24.4731,388.6133 L24.4731,391.3359 Q23.8423,390.7549 23.2488,390.4851 Q22.6553,390.2153 22.0244,390.2153 Q20.6797,390.2153 19.9949,391.282 Q19.3101,392.3486 19.3101,394.4487 Q19.3101,396.5405 19.9949,397.6072 Q20.6797,398.6738 22.0244,398.6738 Q22.6553,398.6738 23.2488,398.4041 Q23.8423,398.1343 24.4731,397.5532 Z "/><text fill="#000000" font-family="sans-serif" font-size="14" lengthAdjust="spacingAndGlyphs" textLength="185" x="36" y="393.5352">ResourceProperties.Builder</text><text fill="#000000" font-family="sans-serif" font-size="10" lengthAdjust="spacingAndGlyphs" textLength="182" x="37.5" y="406.1563">it.tidalwave.northernwind.core.model</text></a><!--MD5=[b3aaa89efdec9a0390c3e99207e5e6af]
class it.tidalwave.northernwind.core.model.ResourceProperties.PropertyResolver--><a href="ResourceProperties.PropertyResolver.html" target="_top" title="ResourceProperties.PropertyResolver.html" xlink:actuate="onRequest" xlink:href="ResourceProperties.PropertyResolver.html" xlink:show="new" xlink:title="ResourceProperties.PropertyResolver.html" xlink:type="simple"><rect codeLine="26" fill="#FEFECE" filter="url(#f1wk7fev7n2jn6)" height="38.2656" id="it.tidalwave.northernwind.core.model.ResourceProperties.PropertyResolver" style="stroke: #A80036; stroke-width: 1.5;" width="285" x="259" y="375"/><ellipse cx="274" cy="394.1328" fill="#B4A7E5" rx="11" ry="11" style="stroke: #A80036; stroke-width: 1.0;"/><path d="M270.4277,390.3979 L270.4277,388.2397 L277.8071,388.2397 L277.8071,390.3979 L275.3418,390.3979 L275.3418,398.4746 L277.8071,398.4746 L277.8071,400.6328 L270.4277,400.6328 L270.4277,398.4746 L272.8931,398.4746 L272.8931,390.3979 Z "/><text fill="#000000" font-family="sans-serif" font-size="14" font-style="italic" lengthAdjust="spacingAndGlyphs" textLength="253" x="288" y="393.5352">ResourceProperties.PropertyResolver</text><text fill="#000000" font-family="sans-serif" font-size="10" font-style="italic" lengthAdjust="spacingAndGlyphs" textLength="182" x="323.5" y="406.1563">it.tidalwave.northernwind.core.model</text></a><!--MD5=[a75c42285a6db5a63c2683edcd4772a3]
reverse link it.tidalwave.util.As to it.tidalwave.northernwind.core.model.ResourceProperties--><path codeLine="28" d="M179.0864,96.5347 C187.1778,109.8279 196.0647,124.4277 204.8731,138.8987 " fill="none" id="it.tidalwave.util.As-backto-it.tidalwave.northernwind.core.model.ResourceProperties" style="stroke: #A80036; stroke-width: 1.0;"/><polygon fill="none" points="173.0472,100.0761,168.6276,79.3525,185.006,92.7968,173.0472,100.0761" style="stroke: #A80036; stroke-width: 1.0;"/><!--MD5=[c0d37a2991c5ccbdf45eb4c06627c769]
reverse link it.tidalwave.role.Identifiable to it.tidalwave.northernwind.core.model.ResourceProperties--><path codeLine="29" d="M342.8717,89.6159 C333.6731,104.5943 323.1594,121.7139 312.7478,138.6673 " fill="none" id="it.tidalwave.role.Identifiable-backto-it.tidalwave.northernwind.core.model.ResourceProperties" style="stroke: #A80036; stroke-width: 1.0;"/><polygon fill="none" points="336.9132,85.9422,353.3446,72.5628,348.8431,93.2688,336.9132,85.9422" style="stroke: #A80036; stroke-width: 1.0;"/><!--MD5=[ab449eb8872cd3a2512a776160dc03c0]
reverse link it.tidalwave.northernwind.core.model.ResourceProperties to it.tidalwave.northernwind.core.model.ResourceProperties.Builder--><path codeLine="30" d="M172.9288,326.9327 C157.205,345.2956 142.4264,362.5545 131.7995,374.965 " fill="none" id="it.tidalwave.northernwind.core.model.ResourceProperties-backto-it.tidalwave.northernwind.core.model.ResourceProperties.Builder" style="stroke: #A80036; stroke-width: 1.0;"/><ellipse cx="177.6094" cy="321.4667" fill="#FFFFFF" rx="8" ry="8" style="stroke: #A80036; stroke-width: 1.0;"/><line style="stroke: #A80036; stroke-width: 1.0;" x1="172.406" x2="182.8127" y1="327.5433" y2="315.3901"/><line style="stroke: #A80036; stroke-width: 1.0;" x1="171.5327" x2="183.686" y1="316.2634" y2="326.6701"/><!--MD5=[101a2588b8fd5aecdf0c4bb887d1b225]
reverse link it.tidalwave.northernwind.core.model.ResourceProperties to it.tidalwave.northernwind.core.model.ResourceProperties.PropertyResolver--><path codeLine="31" d="M344.0712,326.9327 C359.795,345.2956 374.5736,362.5545 385.2005,374.965 " fill="none" id="it.tidalwave.northernwind.core.model.ResourceProperties-backto-it.tidalwave.northernwind.core.model.ResourceProperties.PropertyResolver" style="stroke: #A80036; stroke-width: 1.0;"/><ellipse cx="339.3906" cy="321.4667" fill="#FFFFFF" rx="8" ry="8" style="stroke: #A80036; stroke-width: 1.0;"/><line style="stroke: #A80036; stroke-width: 1.0;" x1="344.594" x2="334.1873" y1="327.5433" y2="315.3901"/><line style="stroke: #A80036; stroke-width: 1.0;" x1="333.314" x2="345.4673" y1="326.6701" y2="316.2634"/><text fill="#888888" font-family="sans-serif" font-size="10" lengthAdjust="spacingAndGlyphs" textLength="188" x="178.5" y="435.9336">UMLDoclet 2.0.12, PlantUML 1.2020.16</text><!--MD5=[977afb832508f43b183e8cecefa5a915]
@startuml
    set namespaceSeparator none
    hide empty fields
    hide empty methods

    interface "<size:14>ResourceProperties\n<size:10>it.tidalwave.northernwind.core.model" as it.tidalwave.northernwind.core.model.ResourceProperties [[ResourceProperties.html]] {
        {abstract} +getProperty(Key<? extends T>): Optional<T>
        +getProperty(List<? extends Key<T>>): Optional<T>
        {abstract} +getGroup(Id): ResourceProperties
        {abstract} +getKeys(): Collection<Key<?>>
        {abstract} +getGroupIds(): Collection<Id>
        {abstract} +withProperty(Key<T>, T): ResourceProperties
        {abstract} +withoutProperty(Key<?>): ResourceProperties
        {abstract} +withProperties(ResourceProperties): ResourceProperties
        {abstract} +merged(ResourceProperties): ResourceProperties
        {abstract} +withId(Id): ResourceProperties
    }

    interface "<size:14>As\n<size:10>it.tidalwave.util" as it.tidalwave.util.As {
        {abstract} +maybeAs(Class<? extends T>): Optional<T>
        {abstract} +asMany(Class<? extends T>): Collection<T>
    }
    interface "<size:14>Identifiable\n<size:10>it.tidalwave.role" as it.tidalwave.role.Identifiable {
        {abstract} +getId(): Id
    }
    class "<size:14>ResourceProperties.Builder\n<size:10>it.tidalwave.northernwind.core.model" as it.tidalwave.northernwind.core.model.ResourceProperties.Builder [[ResourceProperties.Builder.html]]
    interface "<size:14>ResourceProperties.PropertyResolver\n<size:10>it.tidalwave.northernwind.core.model" as it.tidalwave.northernwind.core.model.ResourceProperties.PropertyResolver [[ResourceProperties.PropertyResolver.html]]

    it.tidalwave.util.As <|- - it.tidalwave.northernwind.core.model.ResourceProperties
    it.tidalwave.role.Identifiable <|- - it.tidalwave.northernwind.core.model.ResourceProperties
    it.tidalwave.northernwind.core.model.ResourceProperties +- - it.tidalwave.northernwind.core.model.ResourceProperties.Builder
    it.tidalwave.northernwind.core.model.ResourceProperties +- - it.tidalwave.northernwind.core.model.ResourceProperties.PropertyResolver

    center footer UMLDoclet 2.0.12, PlantUML 1.2020.16
@enduml

PlantUML version 1.2020.16(Sun Aug 23 22:20:43 CEST 2020)
(APACHE source distribution)
Java Runtime: OpenJDK Runtime Environment
JVM: OpenJDK 64-Bit Server VM
Default Encoding: UTF-8
Language: en
Country: GB
--></g></svg>