<?xml version="1.0" encoding="UTF-8" standalone="no"?><svg xmlns="http://www.w3.org/2000/svg" xmlns:xlink="http://www.w3.org/1999/xlink" contentScriptType="application/ecmascript" contentStyleType="text/css" height="265px" preserveAspectRatio="none" style="width:1214px;height:265px;" version="1.1" viewBox="0 0 1214 265" width="1214px" zoomAndPan="magnify"><defs><filter height="300%" id="f10yrjcwtfq9d5" width="300%" x="-1" y="-1"><feGaussianBlur result="blurOut" stdDeviation="2.0"/><feColorMatrix in="blurOut" result="blurOut2" type="matrix" values="0 0 0 0 0 0 0 0 0 0 0 0 0 0 0 0 0 0 .4 0"/><feOffset dx="4.0" dy="4.0" in="blurOut2" result="blurOut3"/><feBlend in="SourceGraphic" in2="blurOut3" mode="normal"/></filter></defs><g><!--MD5=[e3961e0261a5a65b8d9d7ac05c9cd191]
cluster it.tidalwave.northernwind.frontend.ui.component.htmltextwithtitle.htmltemplate--><polygon fill="#FFFFFF" filter="url(#f10yrjcwtfq9d5)" points="165,127,747,127,754,149.4883,1192,149.4883,1192,236,165,236,165,127" style="stroke: #000000; stroke-width: 1.5;"/><line style="stroke: #000000; stroke-width: 1.5;" x1="165" x2="754" y1="149.4883" y2="149.4883"/><text fill="#000000" font-family="sans-serif" font-size="14" font-weight="bold" lengthAdjust="spacingAndGlyphs" textLength="576" x="169" y="142.5352">it.tidalwave.northernwind.frontend.ui.component.htmltextwithtitle.htmltemplate</text><!--MD5=[0fcfde57acc250398f6adb281ae0aab8]
cluster it.tidalwave.northernwind.frontend.ui.component.htmltemplate--><polygon fill="#FFFFFF" filter="url(#f10yrjcwtfq9d5)" points="16,12.5,471,12.5,478,34.9883,481,34.9883,481,95.5,16,95.5,16,12.5" style="stroke: #000000; stroke-width: 1.5;"/><line style="stroke: #000000; stroke-width: 1.5;" x1="16" x2="478" y1="34.9883" y2="34.9883"/><text fill="#000000" font-family="sans-serif" font-size="14" font-weight="bold" lengthAdjust="spacingAndGlyphs" textLength="449" x="20" y="28.0352">it.tidalwave.northernwind.frontend.ui.component.htmltemplate</text><!--MD5=[07a42571b673fa7383647b59d098c966]
cluster it.tidalwave.northernwind.frontend.ui.component.htmltextwithtitle--><polygon fill="#FFFFFF" filter="url(#f10yrjcwtfq9d5)" points="541,6,1022,6,1029,28.4883,1032,28.4883,1032,102,541,102,541,6" style="stroke: #000000; stroke-width: 1.5;"/><line style="stroke: #000000; stroke-width: 1.5;" x1="541" x2="1029" y1="28.4883" y2="28.4883"/><text fill="#000000" font-family="sans-serif" font-size="14" font-weight="bold" lengthAdjust="spacingAndGlyphs" textLength="475" x="545" y="21.5352">it.tidalwave.northernwind.frontend.ui.component.htmltextwithtitle</text><!--MD5=[7f18b4b71783b335fb0a32591c1c3e18]
class it.tidalwave.northernwind.frontend.ui.component.htmltextwithtitle.htmltemplate.HtmlTemplateHtmlTextWithTitleView--><a href="HtmlTemplateHtmlTextWithTitleView.html" target="_top" title="HtmlTemplateHtmlTextWithTitleView.html" xlink:actuate="onRequest" xlink:href="HtmlTemplateHtmlTextWithTitleView.html" xlink:show="new" xlink:title="HtmlTemplateHtmlTextWithTitleView.html" xlink:type="simple"><rect codeLine="3" fill="#FEFECE" filter="url(#f10yrjcwtfq9d5)" height="73.9102" id="it.tidalwave.northernwind.frontend.ui.component.htmltextwithtitle.htmltemplate.HtmlTemplateHtmlTextWithTitleView" style="stroke: #A80036; stroke-width: 1.5;" width="447" x="173.5" y="154"/><ellipse cx="287.25" cy="170" fill="#ADD1B2" rx="11" ry="11" style="stroke: #A80036; stroke-width: 1.0;"/><path d="M289.7231,176.1431 Q289.1421,176.4419 288.5029,176.5913 Q287.8638,176.7407 287.1582,176.7407 Q284.6514,176.7407 283.3315,175.0889 Q282.0117,173.437 282.0117,170.3159 Q282.0117,167.1865 283.3315,165.5347 Q284.6514,163.8828 287.1582,163.8828 Q287.8638,163.8828 288.5112,164.0322 Q289.1587,164.1816 289.7231,164.4805 L289.7231,167.2031 Q289.0923,166.6221 288.4988,166.3523 Q287.9053,166.0825 287.2744,166.0825 Q285.9297,166.0825 285.2449,167.1492 Q284.5601,168.2158 284.5601,170.3159 Q284.5601,172.4077 285.2449,173.4744 Q285.9297,174.541 287.2744,174.541 Q287.9053,174.541 288.4988,174.2712 Q289.0923,174.0015 289.7231,173.4204 Z "/><text fill="#000000" font-family="sans-serif" font-size="12" lengthAdjust="spacingAndGlyphs" textLength="211" x="307.75" y="174.5352">HtmlTemplateHtmlTextWithTitleView</text><line style="stroke: #A80036; stroke-width: 1.5;" x1="174.5" x2="619.5" y1="186" y2="186"/><line style="stroke: #A80036; stroke-width: 1.5;" x1="174.5" x2="619.5" y1="194" y2="194"/><ellipse cx="184.5" cy="205" fill="#84BE84" rx="3" ry="3" style="stroke: #038048; stroke-width: 1.0;"/><text fill="#000000" font-family="sans-serif" font-size="11" lengthAdjust="spacingAndGlyphs" textLength="236" x="193.5" y="208.6348">HtmlTemplateHtmlTextWithTitleView(Id, Site)</text><ellipse cx="184.5" cy="217.9551" fill="#84BE84" rx="3" ry="3" style="stroke: #038048; stroke-width: 1.0;"/><text fill="#000000" font-family="sans-serif" font-size="11" lengthAdjust="spacingAndGlyphs" textLength="421" x="193.5" y="221.5898">render(Optional&lt;ResourcePath&gt;, Optional&lt;ResourcePath&gt;, Aggregates): void</text></a><!--MD5=[f1a848941b60410096599ccf0dfbc467]
class it.tidalwave.northernwind.frontend.ui.component.htmltextwithtitle.htmltemplate.HtmlTemplateHtmlTextWithTitleViewController--><a href="HtmlTemplateHtmlTextWithTitleViewController.html" target="_top" title="HtmlTemplateHtmlTextWithTitleViewController.html" xlink:actuate="onRequest" xlink:href="HtmlTemplateHtmlTextWithTitleViewController.html" xlink:show="new" xlink:title="HtmlTemplateHtmlTextWithTitleViewController.html" xlink:type="simple"><rect codeLine="8" fill="#FEFECE" filter="url(#f10yrjcwtfq9d5)" height="73.9102" id="it.tidalwave.northernwind.frontend.ui.component.htmltextwithtitle.htmltemplate.HtmlTemplateHtmlTextWithTitleViewController" style="stroke: #A80036; stroke-width: 1.5;" width="528" x="656" y="154"/><ellipse cx="782.25" cy="170" fill="#ADD1B2" rx="11" ry="11" style="stroke: #A80036; stroke-width: 1.0;"/><path d="M784.7231,176.1431 Q784.1421,176.4419 783.5029,176.5913 Q782.8638,176.7407 782.1582,176.7407 Q779.6514,176.7407 778.3315,175.0889 Q777.0117,173.437 777.0117,170.3159 Q777.0117,167.1865 778.3315,165.5347 Q779.6514,163.8828 782.1582,163.8828 Q782.8638,163.8828 783.5112,164.0322 Q784.1587,164.1816 784.7231,164.4805 L784.7231,167.2031 Q784.0923,166.6221 783.4988,166.3523 Q782.9053,166.0825 782.2744,166.0825 Q780.9297,166.0825 780.2449,167.1492 Q779.5601,168.2158 779.5601,170.3159 Q779.5601,172.4077 780.2449,173.4744 Q780.9297,174.541 782.2744,174.541 Q782.9053,174.541 783.4988,174.2712 Q784.0923,174.0015 784.7231,173.4204 Z "/><text fill="#000000" font-family="sans-serif" font-size="12" lengthAdjust="spacingAndGlyphs" textLength="267" x="802.75" y="174.5352">HtmlTemplateHtmlTextWithTitleViewController</text><line style="stroke: #A80036; stroke-width: 1.5;" x1="657" x2="1183" y1="186" y2="186"/><line style="stroke: #A80036; stroke-width: 1.5;" x1="657" x2="1183" y1="194" y2="194"/><ellipse cx="667" cy="205" fill="#84BE84" rx="3" ry="3" style="stroke: #038048; stroke-width: 1.0;"/><text fill="#000000" font-family="sans-serif" font-size="11" lengthAdjust="spacingAndGlyphs" textLength="502" x="676" y="208.6348">HtmlTemplateHtmlTextWithTitleViewController(HtmlTemplateHtmlTextWithTitleView, SiteNode)</text><polygon fill="#FFFF44" points="667,212.9551,671,216.9551,667,220.9551,663,216.9551" style="stroke: #B38D22; stroke-width: 1.0;"/><text fill="#000000" font-family="sans-serif" font-size="11" lengthAdjust="spacingAndGlyphs" textLength="234" x="676" y="221.5898">render(List&lt;? extends TextWithTitle&gt;): void</text></a><!--MD5=[615a3a839e33691ecb1928340c5c0ee2]
class it.tidalwave.northernwind.frontend.ui.component.htmltemplate.HtmlHolder--><a href="../../htmltemplate/HtmlHolder.html" target="_top" title="../../htmltemplate/HtmlHolder.html" xlink:actuate="onRequest" xlink:href="../../htmltemplate/HtmlHolder.html" xlink:show="new" xlink:title="../../htmltemplate/HtmlHolder.html" xlink:type="simple"><rect codeLine="19" fill="#FEFECE" filter="url(#f10yrjcwtfq9d5)" height="48" id="it.tidalwave.northernwind.frontend.ui.component.htmltemplate.HtmlHolder" style="stroke: #A80036; stroke-width: 1.5;" width="98" x="348" y="39.5"/><ellipse cx="363" cy="55.5" fill="#ADD1B2" rx="11" ry="11" style="stroke: #A80036; stroke-width: 1.0;"/><path d="M365.4731,61.6431 Q364.8921,61.9419 364.2529,62.0913 Q363.6138,62.2407 362.9082,62.2407 Q360.4014,62.2407 359.0815,60.5889 Q357.7617,58.937 357.7617,55.8159 Q357.7617,52.6865 359.0815,51.0347 Q360.4014,49.3828 362.9082,49.3828 Q363.6138,49.3828 364.2612,49.5322 Q364.9087,49.6816 365.4731,49.9805 L365.4731,52.7031 Q364.8423,52.1221 364.2488,51.8523 Q363.6553,51.5825 363.0244,51.5825 Q361.6797,51.5825 360.9949,52.6492 Q360.3101,53.7158 360.3101,55.8159 Q360.3101,57.9077 360.9949,58.9744 Q361.6797,60.041 363.0244,60.041 Q363.6553,60.041 364.2488,59.7712 Q364.8423,59.5015 365.4731,58.9204 Z "/><text fill="#000000" font-family="sans-serif" font-size="12" lengthAdjust="spacingAndGlyphs" textLength="66" x="377" y="60.0352">HtmlHolder</text><line style="stroke: #A80036; stroke-width: 1.5;" x1="349" x2="445" y1="71.5" y2="71.5"/><line style="stroke: #A80036; stroke-width: 1.5;" x1="349" x2="445" y1="79.5" y2="79.5"/></a><!--MD5=[8e6cbe167d5f079ee267ea7043687618]
class it.tidalwave.northernwind.frontend.ui.component.htmltextwithtitle.HtmlTextWithTitleView--><a href="http://tidalwave.it/projects/northernwind/it-tidalwave-northernwind-modules/it-tidalwave-northernwind-frontend-components/apidocs/it/tidalwave/northernwind/frontend/ui/component/htmltextwithtitle/HtmlTextWithTitleView.html?is-external=true" target="_top" title="http://tidalwave.it/projects/northernwind/it-tidalwave-northernwind-modules/it-tidalwave-northernwind-frontend-components/apidocs/it/tidalwave/northernwind/frontend/ui/component/htmltextwithtitle/HtmlTextWithTitleView.html?is-external=true" xlink:actuate="onRequest" xlink:href="http://tidalwave.it/projects/northernwind/it-tidalwave-northernwind-modules/it-tidalwave-northernwind-frontend-components/apidocs/it/tidalwave/northernwind/frontend/ui/component/htmltextwithtitle/HtmlTextWithTitleView.html?is-external=true" xlink:show="new" xlink:title="http://tidalwave.it/projects/northernwind/it-tidalwave-northernwind-modules/it-tidalwave-northernwind-frontend-components/apidocs/it/tidalwave/northernwind/frontend/ui/component/htmltextwithtitle/HtmlTextWithTitleView.html?is-external=true" xlink:type="simple"><rect codeLine="23" fill="#FEFECE" filter="url(#f10yrjcwtfq9d5)" height="60.9551" id="it.tidalwave.northernwind.frontend.ui.component.htmltextwithtitle.HtmlTextWithTitleView" style="stroke: #A80036; stroke-width: 1.5;" width="170" x="549" y="33"/><ellipse cx="568.05" cy="49" fill="#B4A7E5" rx="11" ry="11" style="stroke: #A80036; stroke-width: 1.0;"/><path d="M564.4777,45.2651 L564.4777,43.1069 L571.8571,43.1069 L571.8571,45.2651 L569.3918,45.2651 L569.3918,53.3418 L571.8571,53.3418 L571.8571,55.5 L564.4777,55.5 L564.4777,53.3418 L566.9431,53.3418 L566.9431,45.2651 Z "/><text fill="#000000" font-family="sans-serif" font-size="12" font-style="italic" lengthAdjust="spacingAndGlyphs" textLength="129" x="582.95" y="53.5352">HtmlTextWithTitleView</text><line style="stroke: #A80036; stroke-width: 1.5;" x1="550" x2="718" y1="65" y2="65"/><line style="stroke: #A80036; stroke-width: 1.5;" x1="550" x2="718" y1="73" y2="73"/><ellipse cx="560" cy="84" fill="#84BE84" rx="3" ry="3" style="stroke: #038048; stroke-width: 1.0;"/><text fill="#000000" font-family="sans-serif" font-size="11" font-style="italic" lengthAdjust="spacingAndGlyphs" textLength="144" x="569" y="87.6348">setClassName(String): void</text></a><!--MD5=[ceabe3fdc6a2479515a12024e287d8d7]
class it.tidalwave.northernwind.frontend.ui.component.htmltextwithtitle.DefaultHtmlTextWithTitleViewController--><a href="http://tidalwave.it/projects/northernwind/it-tidalwave-northernwind-modules/it-tidalwave-northernwind-frontend-components/apidocs/it/tidalwave/northernwind/frontend/ui/component/htmltextwithtitle/DefaultHtmlTextWithTitleViewController.html?is-external=true" target="_top" title="http://tidalwave.it/projects/northernwind/it-tidalwave-northernwind-modules/it-tidalwave-northernwind-frontend-components/apidocs/it/tidalwave/northernwind/frontend/ui/component/htmltextwithtitle/DefaultHtmlTextWithTitleViewController.html?is-external=true" xlink:actuate="onRequest" xlink:href="http://tidalwave.it/projects/northernwind/it-tidalwave-northernwind-modules/it-tidalwave-northernwind-frontend-components/apidocs/it/tidalwave/northernwind/frontend/ui/component/htmltextwithtitle/DefaultHtmlTextWithTitleViewController.html?is-external=true" xlink:show="new" xlink:title="http://tidalwave.it/projects/northernwind/it-tidalwave-northernwind-modules/it-tidalwave-northernwind-frontend-components/apidocs/it/tidalwave/northernwind/frontend/ui/component/htmltextwithtitle/DefaultHtmlTextWithTitleViewController.html?is-external=true" xlink:type="simple"><rect codeLine="26" fill="#FEFECE" filter="url(#f10yrjcwtfq9d5)" height="60.9551" id="it.tidalwave.northernwind.frontend.ui.component.htmltextwithtitle.DefaultHtmlTextWithTitleViewController" style="stroke: #A80036; stroke-width: 1.5;" width="260" x="764" y="33"/><ellipse cx="779.9" cy="49" fill="#A9DCDF" rx="11" ry="11" style="stroke: #A80036; stroke-width: 1.0;"/><path d="M779.7633,44.3481 L778.6095,49.4199 L780.9254,49.4199 Z M778.2691,42.1069 L781.2657,42.1069 L784.6109,54.5 L782.1622,54.5 L781.3985,51.437 L778.1197,51.437 L777.3727,54.5 L774.9239,54.5 Z "/><text fill="#000000" font-family="sans-serif" font-size="12" font-style="italic" lengthAdjust="spacingAndGlyphs" textLength="226" x="794.1" y="53.5352">DefaultHtmlTextWithTitleViewController</text><line style="stroke: #A80036; stroke-width: 1.5;" x1="765" x2="1023" y1="65" y2="65"/><line style="stroke: #A80036; stroke-width: 1.5;" x1="765" x2="1023" y1="73" y2="73"/><polygon fill="#FFFF44" points="775,79,779,83,775,87,771,83" style="stroke: #B38D22; stroke-width: 1.0;"/><text fill="#000000" font-family="sans-serif" font-size="11" font-style="italic" lengthAdjust="spacingAndGlyphs" textLength="234" x="784" y="87.6348">render(List&lt;? extends TextWithTitle&gt;): void</text></a><!--MD5=[26b167a0df5bd7944f933c051a37db42]
reverse link it.tidalwave.northernwind.frontend.ui.component.htmltemplate.HtmlHolder to it.tidalwave.northernwind.frontend.ui.component.htmltextwithtitle.htmltemplate.HtmlTemplateHtmlTextWithTitleView--><path codeLine="13" d="M397,107.8377 C397,122.8199 397,139.3834 397,153.7589 " fill="none" id="it.tidalwave.northernwind.frontend.ui.component.htmltemplate.HtmlHolder-backto-it.tidalwave.northernwind.frontend.ui.component.htmltextwithtitle.htmltemplate.HtmlTemplateHtmlTextWithTitleView" style="stroke: #A80036; stroke-width: 1.0;"/><polygon fill="none" points="390.0001,107.7819,397,87.7819,404.0001,107.7818,390.0001,107.7819" style="stroke: #A80036; stroke-width: 1.0;"/><!--MD5=[e3856996d6bcdde1b3d5336fa18d4a7a]
reverse link it.tidalwave.northernwind.frontend.ui.component.htmltextwithtitle.HtmlTextWithTitleView to it.tidalwave.northernwind.frontend.ui.component.htmltextwithtitle.htmltemplate.HtmlTemplateHtmlTextWithTitleView--><path codeLine="14" d="M559.2809,103.697 C529.4212,119.7607 495.2461,138.1461 465.9831,153.8888 " fill="none" id="it.tidalwave.northernwind.frontend.ui.component.htmltextwithtitle.HtmlTextWithTitleView-backto-it.tidalwave.northernwind.frontend.ui.component.htmltextwithtitle.htmltemplate.HtmlTemplateHtmlTextWithTitleView" style="stroke: #A80036; stroke-width: 1.0; stroke-dasharray: 7.0,7.0;"/><polygon fill="none" points="556.3032,97.3503,577.2326,94.0394,562.936,109.6794,556.3032,97.3503" style="stroke: #A80036; stroke-width: 1.0;"/><!--MD5=[99eb60ff89fb999dbd661c6c7db51c21]
reverse link it.tidalwave.northernwind.frontend.ui.component.htmltextwithtitle.DefaultHtmlTextWithTitleViewController to it.tidalwave.northernwind.frontend.ui.component.htmltextwithtitle.htmltemplate.HtmlTemplateHtmlTextWithTitleViewController--><path codeLine="15" d="M904.2888,113.9546 C907.0058,127.2786 909.8882,141.4135 912.4322,153.8888 " fill="none" id="it.tidalwave.northernwind.frontend.ui.component.htmltextwithtitle.DefaultHtmlTextWithTitleViewController-backto-it.tidalwave.northernwind.frontend.ui.component.htmltextwithtitle.htmltemplate.HtmlTemplateHtmlTextWithTitleViewController" style="stroke: #A80036; stroke-width: 1.0;"/><polygon fill="none" points="897.3651,115.0348,900.2276,94.0394,911.0828,112.2374,897.3651,115.0348" style="stroke: #A80036; stroke-width: 1.0;"/><text fill="#888888" font-family="sans-serif" font-size="10" lengthAdjust="spacingAndGlyphs" textLength="188" x="504" y="251.668">UMLDoclet 2.0.12, PlantUML 1.2020.16</text><!--MD5=[deec72a98e41f3a38228ae2cb826f566]
@startuml
    namespace it.tidalwave.northernwind.frontend.ui.component.htmltextwithtitle.htmltemplate {

        class HtmlTemplateHtmlTextWithTitleView [[HtmlTemplateHtmlTextWithTitleView.html]] {
            +HtmlTemplateHtmlTextWithTitleView(Id, Site)
            +render(Optional<ResourcePath>, Optional<ResourcePath>, Aggregates): void
        }

        class HtmlTemplateHtmlTextWithTitleViewController [[HtmlTemplateHtmlTextWithTitleViewController.html]] {
            +HtmlTemplateHtmlTextWithTitleViewController(HtmlTemplateHtmlTextWithTitleView, SiteNode)
            #render(List<? extends TextWithTitle>): void
        }

        it.tidalwave.northernwind.frontend.ui.component.htmltemplate.HtmlHolder <|- - HtmlTemplateHtmlTextWithTitleView
        it.tidalwave.northernwind.frontend.ui.component.htmltextwithtitle.HtmlTextWithTitleView <|.. HtmlTemplateHtmlTextWithTitleView
        it.tidalwave.northernwind.frontend.ui.component.htmltextwithtitle.DefaultHtmlTextWithTitleViewController <|- - HtmlTemplateHtmlTextWithTitleViewController
    }

    namespace it.tidalwave.northernwind.frontend.ui.component.htmltemplate {
        class HtmlHolder [[../../htmltemplate/HtmlHolder.html]]
    }

    namespace it.tidalwave.northernwind.frontend.ui.component.htmltextwithtitle {
        interface HtmlTextWithTitleView [[http://tidalwave.it/projects/northernwind/it-tidalwave-northernwind-modules/it-tidalwave-northernwind-frontend-components/apidocs/it/tidalwave/northernwind/frontend/ui/component/htmltextwithtitle/HtmlTextWithTitleView.html?is-external=true]] {
            {abstract} +setClassName(String): void
        }
        abstract class DefaultHtmlTextWithTitleViewController [[http://tidalwave.it/projects/northernwind/it-tidalwave-northernwind-modules/it-tidalwave-northernwind-frontend-components/apidocs/it/tidalwave/northernwind/frontend/ui/component/htmltextwithtitle/DefaultHtmlTextWithTitleViewController.html?is-external=true]] {
            {abstract} #render(List<? extends TextWithTitle>): void
        }
    }

    center footer UMLDoclet 2.0.12, PlantUML 1.2020.16
@enduml

PlantUML version 1.2020.16(Sun Aug 23 22:20:43 CEST 2020)
(APACHE source distribution)
Java Runtime: OpenJDK Runtime Environment
JVM: OpenJDK 64-Bit Server VM
Default Encoding: UTF-8
Language: en
Country: GB
--></g></svg>