<?xml version="1.0" encoding="UTF-8" standalone="no"?><svg xmlns="http://www.w3.org/2000/svg" xmlns:xlink="http://www.w3.org/1999/xlink" contentScriptType="application/ecmascript" contentStyleType="text/css" height="250px" preserveAspectRatio="none" style="width:200px;height:250px;" version="1.1" viewBox="0 0 200 250" width="200px" zoomAndPan="magnify"><defs><filter height="300%" id="f16l51sxk02t94" width="300%" x="-1" y="-1"><feGaussianBlur result="blurOut" stdDeviation="2.0"/><feColorMatrix in="blurOut" result="blurOut2" type="matrix" values="0 0 0 0 0 0 0 0 0 0 0 0 0 0 0 0 0 0 .4 0"/><feOffset dx="4.0" dy="4.0" in="blurOut2" result="blurOut3"/><feBlend in="SourceGraphic" in2="blurOut3" mode="normal"/></filter></defs><g><!--MD5=[e411521bdfafc676d6d2da85d3c3d638]
class it.tidalwave.util.LazySupplier--><a href="LazySupplier.html" target="_top" title="LazySupplier.html" xlink:actuate="onRequest" xlink:href="LazySupplier.html" xlink:show="new" xlink:title="LazySupplier.html" xlink:type="simple"><rect codeLine="5" fill="#FEFECE" filter="url(#f16l51sxk02t94)" height="85.1309" id="it.tidalwave.util.LazySupplier" style="stroke: #A80036; stroke-width: 1.5;" width="131" x="31.5" y="129"/><ellipse cx="46.5" cy="148.1328" fill="#ADD1B2" rx="11" ry="11" style="stroke: #A80036; stroke-width: 1.0;"/><path d="M48.9731,154.2759 Q48.3921,154.5747 47.7529,154.7241 Q47.1138,154.8735 46.4082,154.8735 Q43.9014,154.8735 42.5815,153.2217 Q41.2617,151.5698 41.2617,148.4487 Q41.2617,145.3193 42.5815,143.6675 Q43.9014,142.0156 46.4082,142.0156 Q47.1138,142.0156 47.7612,142.165 Q48.4087,142.3145 48.9731,142.6133 L48.9731,145.3359 Q48.3423,144.7549 47.7488,144.4851 Q47.1553,144.2153 46.5244,144.2153 Q45.1797,144.2153 44.4949,145.282 Q43.8101,146.3486 43.8101,148.4487 Q43.8101,150.5405 44.4949,151.6072 Q45.1797,152.6738 46.5244,152.6738 Q47.1553,152.6738 47.7488,152.4041 Q48.3423,152.1343 48.9731,151.5532 Z "/><text fill="#000000" font-family="sans-serif" font-size="14" lengthAdjust="spacingAndGlyphs" textLength="87" x="60.5" y="147.5352">LazySupplier</text><text fill="#000000" font-family="sans-serif" font-size="10" lengthAdjust="spacingAndGlyphs" textLength="76" x="66" y="160.1563">it.tidalwave.util</text><rect fill="#FFFFFF" height="16.1328" style="stroke: #000000; stroke-width: 1.0; stroke-dasharray: 2.0,2.0;" width="10" x="155.5" y="126"/><text fill="#000000" font-family="sans-serif" font-size="12" font-style="italic" lengthAdjust="spacingAndGlyphs" textLength="8" x="156.5" y="138.6016">T</text><line style="stroke: #A80036; stroke-width: 1.5;" x1="32.5" x2="161.5" y1="167.2656" y2="167.2656"/><ellipse cx="42.5" cy="178.2656" fill="#84BE84" rx="3" ry="3" style="stroke: #038048; stroke-width: 1.0;"/><text fill="#000000" font-family="sans-serif" font-size="11" lengthAdjust="spacingAndGlyphs" textLength="38" x="51.5" y="181.9004">get(): T</text><ellipse cx="42.5" cy="191.2207" fill="#84BE84" rx="3" ry="3" style="stroke: #038048; stroke-width: 1.0;"/><text fill="#000000" font-family="sans-serif" font-size="11" lengthAdjust="spacingAndGlyphs" textLength="63" x="51.5" y="194.8555">clear(): void</text><ellipse cx="42.5" cy="204.1758" fill="#84BE84" rx="3" ry="3" style="stroke: #038048; stroke-width: 1.0;"/><text fill="#000000" font-family="sans-serif" font-size="11" lengthAdjust="spacingAndGlyphs" textLength="60" x="51.5" y="207.8105">set(T): void</text></a><!--MD5=[cf1fd0de2a1858d5ad59de04be6b324d]
class java.util.function.Supplier--><rect codeLine="11" fill="#FEFECE" filter="url(#f16l51sxk02t94)" height="59.2207" id="java.util.function.Supplier" style="stroke: #A80036; stroke-width: 1.5;" width="126" x="34" y="10"/><ellipse cx="49" cy="29.1328" fill="#B4A7E5" rx="11" ry="11" style="stroke: #A80036; stroke-width: 1.0;"/><path d="M45.4277,25.3979 L45.4277,23.2397 L52.8071,23.2397 L52.8071,25.3979 L50.3418,25.3979 L50.3418,33.4746 L52.8071,33.4746 L52.8071,35.6328 L45.4277,35.6328 L45.4277,33.4746 L47.8931,33.4746 L47.8931,25.3979 Z "/><text fill="#000000" font-family="sans-serif" font-size="14" font-style="italic" lengthAdjust="spacingAndGlyphs" textLength="57" x="75.5" y="28.5352">Supplier</text><text fill="#000000" font-family="sans-serif" font-size="10" font-style="italic" lengthAdjust="spacingAndGlyphs" textLength="82" x="63" y="41.1563">java.util.function</text><rect fill="#FFFFFF" height="16.1328" style="stroke: #000000; stroke-width: 1.0; stroke-dasharray: 2.0,2.0;" width="10" x="153" y="7"/><text fill="#000000" font-family="sans-serif" font-size="12" font-style="italic" lengthAdjust="spacingAndGlyphs" textLength="8" x="154" y="19.6016">T</text><line style="stroke: #A80036; stroke-width: 1.5;" x1="35" x2="159" y1="48.2656" y2="48.2656"/><ellipse cx="45" cy="59.2656" fill="#84BE84" rx="3" ry="3" style="stroke: #038048; stroke-width: 1.0;"/><text fill="#000000" font-family="sans-serif" font-size="11" font-style="italic" lengthAdjust="spacingAndGlyphs" textLength="38" x="54" y="62.9004">get(): T</text><!--MD5=[fee21bb6f2333afc1e77db7611aaa04f]
reverse link java.util.function.Supplier to it.tidalwave.util.LazySupplier--><path codeLine="15" d="M97,89.235 C97,102.3112 97,116.2958 97,128.9566 " fill="none" id="java.util.function.Supplier-backto-it.tidalwave.util.LazySupplier" style="stroke: #A80036; stroke-width: 1.0; stroke-dasharray: 7.0,7.0;"/><polygon fill="none" points="90.0001,89.1234,97,69.1234,104.0001,89.1233,90.0001,89.1234" style="stroke: #A80036; stroke-width: 1.0;"/><text fill="#888888" font-family="sans-serif" font-size="10" lengthAdjust="spacingAndGlyphs" textLength="188" x="0" y="236.7988">UMLDoclet 2.0.12, PlantUML 1.2020.16</text><!--MD5=[b3465a7b5bbf41bee8f3774586139159]
@startuml
    set namespaceSeparator none
    hide empty fields
    hide empty methods

    class "<size:14>LazySupplier\n<size:10>it.tidalwave.util" as it.tidalwave.util.LazySupplier<T> [[LazySupplier.html]] {
        +get(): T
        +clear(): void
        +set(T): void
    }

    interface "<size:14>Supplier\n<size:10>java.util.function" as java.util.function.Supplier<T> {
        {abstract} +get(): T
    }

    java.util.function.Supplier <|.. it.tidalwave.util.LazySupplier

    center footer UMLDoclet 2.0.12, PlantUML 1.2020.16
@enduml

PlantUML version 1.2020.16(Sun Aug 23 22:20:43 CEST 2020)
(APACHE source distribution)
Java Runtime: OpenJDK Runtime Environment
JVM: OpenJDK 64-Bit Server VM
Default Encoding: UTF-8
Language: en
Country: GB
--></g></svg>