<?xml version="1.0" encoding="UTF-8" standalone="no"?><svg xmlns="http://www.w3.org/2000/svg" xmlns:xlink="http://www.w3.org/1999/xlink" contentScriptType="application/ecmascript" contentStyleType="text/css" height="330px" preserveAspectRatio="none" style="width:396px;height:330px;" version="1.1" viewBox="0 0 396 330" width="396px" zoomAndPan="magnify"><defs><filter height="300%" id="fbmjnti4his2i" width="300%" x="-1" y="-1"><feGaussianBlur result="blurOut" stdDeviation="2.0"/><feColorMatrix in="blurOut" result="blurOut2" type="matrix" values="0 0 0 0 0 0 0 0 0 0 0 0 0 0 0 0 0 0 .4 0"/><feOffset dx="4.0" dy="4.0" in="blurOut2" result="blurOut3"/><feBlend in="SourceGraphic" in2="blurOut3" mode="normal"/></filter></defs><g><!--MD5=[19d5ac7f55142838276cf8c32452a585]
cluster it.tidalwave.bluemarine2.ui.audio.explorer--><polygon fill="#FFFFFF" filter="url(#fbmjnti4his2i)" points="16,6,320,6,327,28.4883,374,28.4883,374,301,16,301,16,6" style="stroke: #000000; stroke-width: 1.5;"/><line style="stroke: #000000; stroke-width: 1.5;" x1="16" x2="327" y1="28.4883" y2="28.4883"/><text fill="#000000" font-family="sans-serif" font-size="14" font-weight="bold" lengthAdjust="spacingAndGlyphs" textLength="298" x="20" y="21.5352">it.tidalwave.bluemarine2.ui.audio.explorer</text><!--MD5=[6081ab0a3be9be2c5281caf07d4110d3]
class it.tidalwave.bluemarine2.ui.audio.explorer.AudioExplorerPresentation--><a href="AudioExplorerPresentation.html" target="_top" title="AudioExplorerPresentation.html" xlink:actuate="onRequest" xlink:href="AudioExplorerPresentation.html" xlink:show="new" xlink:title="AudioExplorerPresentation.html" xlink:type="simple"><rect codeLine="3" fill="#FEFECE" filter="url(#fbmjnti4his2i)" height="151.6406" id="it.tidalwave.bluemarine2.ui.audio.explorer.AudioExplorerPresentation" style="stroke: #A80036; stroke-width: 1.5;" width="343" x="23.5" y="33"/><ellipse cx="114.25" cy="49" fill="#B4A7E5" rx="11" ry="11" style="stroke: #A80036; stroke-width: 1.0;"/><path d="M110.6777,45.2651 L110.6777,43.1069 L118.0571,43.1069 L118.0571,45.2651 L115.5918,45.2651 L115.5918,53.3418 L118.0571,53.3418 L118.0571,55.5 L110.6777,55.5 L110.6777,53.3418 L113.1431,53.3418 L113.1431,45.2651 Z "/><text fill="#000000" font-family="sans-serif" font-size="12" font-style="italic" lengthAdjust="spacingAndGlyphs" textLength="153" x="134.75" y="53.5352">AudioExplorerPresentation</text><line style="stroke: #A80036; stroke-width: 1.5;" x1="24.5" x2="365.5" y1="65" y2="65"/><line style="stroke: #A80036; stroke-width: 1.5;" x1="24.5" x2="365.5" y1="73" y2="73"/><ellipse cx="34.5" cy="84" fill="#84BE84" rx="3" ry="3" style="stroke: #038048; stroke-width: 1.0;"/><text fill="#000000" font-family="sans-serif" font-size="11" font-style="italic" lengthAdjust="spacingAndGlyphs" textLength="182" x="43.5" y="87.6348">bind(Properties, UserAction): void</text><ellipse cx="34.5" cy="96.9551" fill="#84BE84" rx="3" ry="3" style="stroke: #038048; stroke-width: 1.0;"/><text fill="#000000" font-family="sans-serif" font-size="11" font-style="italic" lengthAdjust="spacingAndGlyphs" textLength="115" x="43.5" y="100.5898">showUp(Object): void</text><ellipse cx="34.5" cy="109.9102" fill="#84BE84" rx="3" ry="3" style="stroke: #038048; stroke-width: 1.0;"/><text fill="#000000" font-family="sans-serif" font-size="11" font-style="italic" lengthAdjust="spacingAndGlyphs" textLength="232" x="43.5" y="113.5449">populateBrowsers(PresentationModel): void</text><ellipse cx="34.5" cy="122.8652" fill="#84BE84" rx="3" ry="3" style="stroke: #038048; stroke-width: 1.0;"/><text fill="#000000" font-family="sans-serif" font-size="11" font-style="italic" lengthAdjust="spacingAndGlyphs" textLength="317" x="43.5" y="126.5">populateItems(PresentationModel, Optional&lt;Object&gt;): void</text><ellipse cx="34.5" cy="135.8203" fill="#84BE84" rx="3" ry="3" style="stroke: #038048; stroke-width: 1.0;"/><text fill="#000000" font-family="sans-serif" font-size="11" font-style="italic" lengthAdjust="spacingAndGlyphs" textLength="141" x="43.5" y="139.4551">renderDetails(String): void</text><ellipse cx="34.5" cy="148.7754" fill="#84BE84" rx="3" ry="3" style="stroke: #038048; stroke-width: 1.0;"/><text fill="#000000" font-family="sans-serif" font-size="11" font-style="italic" lengthAdjust="spacingAndGlyphs" textLength="143" x="43.5" y="152.4102">focusOnMediaItems(): void</text><ellipse cx="34.5" cy="161.7305" fill="#84BE84" rx="3" ry="3" style="stroke: #038048; stroke-width: 1.0;"/><text fill="#000000" font-family="sans-serif" font-size="11" font-style="italic" lengthAdjust="spacingAndGlyphs" textLength="115" x="43.5" y="165.3652">getMemento(): Object</text><ellipse cx="34.5" cy="174.6855" fill="#84BE84" rx="3" ry="3" style="stroke: #038048; stroke-width: 1.0;"/><text fill="#000000" font-family="sans-serif" font-size="11" font-style="italic" lengthAdjust="spacingAndGlyphs" textLength="184" x="43.5" y="178.3203">setCoverArt(Optional&lt;URI&gt;): void</text></a><!--MD5=[8e460407125664c8dcfc0f439502fe21]
class it.tidalwave.bluemarine2.ui.audio.explorer.AudioExplorerPresentation.Properties--><a href="AudioExplorerPresentation.Properties.html" target="_top" title="AudioExplorerPresentation.Properties.html" xlink:actuate="onRequest" xlink:href="AudioExplorerPresentation.Properties.html" xlink:show="new" xlink:title="AudioExplorerPresentation.Properties.html" xlink:type="simple"><rect codeLine="14" fill="#FEFECE" filter="url(#fbmjnti4his2i)" height="48" id="it.tidalwave.bluemarine2.ui.audio.explorer.AudioExplorerPresentation.Properties" style="stroke: #A80036; stroke-width: 1.5;" width="248" x="71" y="245"/><ellipse cx="86" cy="261" fill="#ADD1B2" rx="11" ry="11" style="stroke: #A80036; stroke-width: 1.0;"/><path d="M88.4731,267.1431 Q87.8921,267.4419 87.2529,267.5913 Q86.6138,267.7407 85.9082,267.7407 Q83.4014,267.7407 82.0815,266.0889 Q80.7617,264.437 80.7617,261.3159 Q80.7617,258.1865 82.0815,256.5347 Q83.4014,254.8828 85.9082,254.8828 Q86.6138,254.8828 87.2612,255.0322 Q87.9087,255.1816 88.4731,255.4805 L88.4731,258.2031 Q87.8423,257.6221 87.2488,257.3523 Q86.6553,257.0825 86.0244,257.0825 Q84.6797,257.0825 83.9949,258.1492 Q83.3101,259.2158 83.3101,261.3159 Q83.3101,263.4077 83.9949,264.4744 Q84.6797,265.541 86.0244,265.541 Q86.6553,265.541 87.2488,265.2712 Q87.8423,265.0015 88.4731,264.4204 Z "/><text fill="#000000" font-family="sans-serif" font-size="12" lengthAdjust="spacingAndGlyphs" textLength="216" x="100" y="265.5352">AudioExplorerPresentation.Properties</text><line style="stroke: #A80036; stroke-width: 1.5;" x1="72" x2="318" y1="277" y2="277"/><line style="stroke: #A80036; stroke-width: 1.5;" x1="72" x2="318" y1="285" y2="285"/></a><!--MD5=[f56372a80dbd632005bfa30af6111208]
reverse link it.tidalwave.bluemarine2.ui.audio.explorer.AudioExplorerPresentation to it.tidalwave.bluemarine2.ui.audio.explorer.AudioExplorerPresentation.Properties--><path codeLine="17" d="M195,200.3971 C195,216.7783 195,232.5087 195,244.7646 " fill="none" id="it.tidalwave.bluemarine2.ui.audio.explorer.AudioExplorerPresentation-backto-it.tidalwave.bluemarine2.ui.audio.explorer.AudioExplorerPresentation.Properties" style="stroke: #A80036; stroke-width: 1.0;"/><ellipse cx="195.0001" cy="193.2512" fill="#FFFFFF" rx="8" ry="8" style="stroke: #A80036; stroke-width: 1.0;"/><line style="stroke: #A80036; stroke-width: 1.0;" x1="195.0002" x2="195" y1="201.2512" y2="185.2512"/><line style="stroke: #A80036; stroke-width: 1.0;" x1="187.0001" x2="203.0001" y1="193.2513" y2="193.2511"/><text fill="#888888" font-family="sans-serif" font-size="10" lengthAdjust="spacingAndGlyphs" textLength="188" x="95" y="316.668">UMLDoclet 2.0.12, PlantUML 1.2020.16</text><!--MD5=[b6374ee8cc420dab203042e165c0fda2]
@startuml
    namespace it.tidalwave.bluemarine2.ui.audio.explorer {

        interface AudioExplorerPresentation [[AudioExplorerPresentation.html]] {
            {abstract} +bind(Properties, UserAction): void
            {abstract} +showUp(Object): void
            {abstract} +populateBrowsers(PresentationModel): void
            {abstract} +populateItems(PresentationModel, Optional<Object>): void
            {abstract} +renderDetails(String): void
            {abstract} +focusOnMediaItems(): void
            {abstract} +getMemento(): Object
            {abstract} +setCoverArt(Optional<URI>): void
        }

        class it.tidalwave.bluemarine2.ui.audio.explorer.AudioExplorerPresentation.Properties [[AudioExplorerPresentation.Properties.html]] {
        }

        AudioExplorerPresentation +- - it.tidalwave.bluemarine2.ui.audio.explorer.AudioExplorerPresentation.Properties
    }

    center footer UMLDoclet 2.0.12, PlantUML 1.2020.16
@enduml

PlantUML version 1.2020.16(Sun Aug 23 22:20:43 CEST 2020)
(APACHE source distribution)
Java Runtime: OpenJDK Runtime Environment
JVM: OpenJDK 64-Bit Server VM
Default Encoding: UTF-8
Language: en
Country: GB
--></g></svg>