@startuml
    namespace it.tidalwave.thesefoolishthings.examples.dci.displayable.role {

        interface Renderable [[Renderable.html]] {
            {static} +_Renderable_: Class<Renderable>
            {abstract} +renderTo(String, Consumer<String>): void
        }

    }

    center footer UMLDoclet 2.0.12, PlantUML 1.2020.16
@enduml
