<?xml version="1.0" encoding="UTF-8" standalone="no"?><svg xmlns="http://www.w3.org/2000/svg" xmlns:xlink="http://www.w3.org/1999/xlink" contentScriptType="application/ecmascript" contentStyleType="text/css" height="257px" preserveAspectRatio="none" style="width:250px;height:257px;" version="1.1" viewBox="0 0 250 257" width="250px" zoomAndPan="magnify"><defs><filter height="300%" id="fowh53m49j0js" width="300%" x="-1" y="-1"><feGaussianBlur result="blurOut" stdDeviation="2.0"/><feColorMatrix in="blurOut" result="blurOut2" type="matrix" values="0 0 0 0 0 0 0 0 0 0 0 0 0 0 0 0 0 0 .4 0"/><feOffset dx="4.0" dy="4.0" in="blurOut2" result="blurOut3"/><feBlend in="SourceGraphic" in2="blurOut3" mode="normal"/></filter></defs><g><!--MD5=[33c6657d83bb240b06f77ba677e72097]
class it.tidalwave.messagebus.MessageBus.Listener--><a href="MessageBus.Listener.html" target="_top" title="MessageBus.Listener.html" xlink:actuate="onRequest" xlink:href="MessageBus.Listener.html" xlink:show="new" xlink:title="MessageBus.Listener.html" xlink:type="simple"><rect codeLine="5" fill="#FEFECE" filter="url(#fowh53m49j0js)" height="58.2466" id="it.tidalwave.messagebus.MessageBus.Listener" style="stroke: #A80036; stroke-width: 1.5;" width="180" x="29" y="163"/><ellipse cx="44" cy="181.7988" fill="#B4A7E5" rx="11" ry="11" style="stroke: #A80036; stroke-width: 1.0;"/><path d="M40.2969,176.0957 L47.9063,176.0957 L47.9063,177.9863 L45.3281,177.9863 L45.3281,185.4082 L47.9063,185.4082 L47.9063,187.2988 L40.2969,187.2988 L40.2969,185.4082 L42.8906,185.4082 L42.8906,177.9863 L40.2969,177.9863 L40.2969,176.0957 Z "/><text fill="#000000" font-family="sans-serif" font-size="14" font-style="italic" lengthAdjust="spacingAndGlyphs" textLength="137" x="58" y="181.1318">MessageBus.Listener</text><text fill="#000000" font-family="sans-serif" font-size="10" font-style="italic" lengthAdjust="spacingAndGlyphs" textLength="116" x="68.5" y="193.4785">it.tidalwave.messagebus</text><rect fill="#FFFFFF" height="15.7988" style="stroke: #000000; stroke-width: 1.0; stroke-dasharray: 2.0,2.0;" width="9" x="203" y="160"/><text fill="#000000" font-family="sans-serif" font-size="12" font-style="italic" lengthAdjust="spacingAndGlyphs" textLength="7" x="204" y="172.2559">T</text><line style="stroke: #A80036; stroke-width: 1.5;" x1="30" x2="208" y1="200.5977" y2="200.5977"/><ellipse cx="40" cy="211.5977" fill="#84BE84" rx="3" ry="3" style="stroke: #038048; stroke-width: 1.0;"/><text fill="#000000" font-family="sans-serif" font-size="11" font-style="italic" lengthAdjust="spacingAndGlyphs" textLength="67" x="49" y="214.9155">notify(T): void</text></a><!--MD5=[4b7502cfe6ab48c04fed4eeb9239f3a0]
class it.tidalwave.messagebus.MessageBus--><a href="MessageBus.html" target="_top" title="MessageBus.html" xlink:actuate="onRequest" xlink:href="MessageBus.html" xlink:show="new" xlink:title="MessageBus.html" xlink:type="simple"><rect codeLine="9" fill="#FEFECE" filter="url(#fowh53m49j0js)" height="96.1934" id="it.tidalwave.messagebus.MessageBus" style="stroke: #A80036; stroke-width: 1.5;" width="224" x="7" y="7"/><ellipse cx="56.75" cy="25.7988" fill="#B4A7E5" rx="11" ry="11" style="stroke: #A80036; stroke-width: 1.0;"/><path d="M53.0469,20.0957 L60.6563,20.0957 L60.6563,21.9863 L58.0781,21.9863 L58.0781,29.4082 L60.6563,29.4082 L60.6563,31.2988 L53.0469,31.2988 L53.0469,29.4082 L55.6406,29.4082 L55.6406,21.9863 L53.0469,21.9863 L53.0469,20.0957 Z "/><text fill="#000000" font-family="sans-serif" font-size="14" font-style="italic" lengthAdjust="spacingAndGlyphs" textLength="82" x="94.25" y="25.1318">MessageBus</text><text fill="#000000" font-family="sans-serif" font-size="10" font-style="italic" lengthAdjust="spacingAndGlyphs" textLength="116" x="77.25" y="37.4785">it.tidalwave.messagebus</text><line style="stroke: #A80036; stroke-width: 1.5;" x1="8" x2="230" y1="44.5977" y2="44.5977"/><ellipse cx="18" cy="55.5977" fill="#84BE84" rx="3" ry="3" style="stroke: #038048; stroke-width: 1.0;"/><text fill="#000000" font-family="sans-serif" font-size="11" font-style="italic" lengthAdjust="spacingAndGlyphs" textLength="78" x="27" y="58.9155">publish(T): void</text><ellipse cx="18" cy="68.2466" fill="#84BE84" rx="3" ry="3" style="stroke: #038048; stroke-width: 1.0;"/><text fill="#000000" font-family="sans-serif" font-size="11" font-style="italic" lengthAdjust="spacingAndGlyphs" textLength="132" x="27" y="71.5645">publish(Class&lt;T&gt;, T): void</text><ellipse cx="18" cy="80.8955" fill="#84BE84" rx="3" ry="3" style="stroke: #038048; stroke-width: 1.0;"/><text fill="#000000" font-family="sans-serif" font-size="11" font-style="italic" lengthAdjust="spacingAndGlyphs" textLength="198" x="27" y="84.2134">subscribe(Class&lt;T&gt;, Listener&lt;T&gt;): void</text><ellipse cx="18" cy="93.5444" fill="#84BE84" rx="3" ry="3" style="stroke: #038048; stroke-width: 1.0;"/><text fill="#000000" font-family="sans-serif" font-size="11" font-style="italic" lengthAdjust="spacingAndGlyphs" textLength="155" x="27" y="96.8623">unsubscribe(Listener&lt;?&gt;): void</text></a><!--MD5=[f16c43c247a984a766005974a4a0e313]
reverse link it.tidalwave.messagebus.MessageBus to it.tidalwave.messagebus.MessageBus.Listener--><path codeLine="16" d="M119,118.52 C119,134.07 119,149.97 119,162.9 " fill="none" id="it.tidalwave.messagebus.MessageBus-backto-it.tidalwave.messagebus.MessageBus.Listener" style="stroke: #A80036; stroke-width: 1.0;"/><ellipse cx="119" cy="111.22" fill="#FFFFFF" rx="8" ry="8" style="stroke: #A80036; stroke-width: 1.0;"/><line style="stroke: #A80036; stroke-width: 1.0;" x1="119" x2="119" y1="119.22" y2="103.22"/><line style="stroke: #A80036; stroke-width: 1.0;" x1="111" x2="127" y1="111.22" y2="111.22"/><text fill="#888888" font-family="sans-serif" font-size="10" lengthAdjust="spacingAndGlyphs" textLength="190" x="21" y="243.6265">UMLDoclet 2.0.12, PlantUML 1.2020.16</text><!--MD5=[516e848b4c6fd87ce23ba55d34938b64]
@startuml
    set namespaceSeparator none
    hide empty fields
    hide empty methods

    interface "<size:14>MessageBus.Listener\n<size:10>it.tidalwave.messagebus" as it.tidalwave.messagebus.MessageBus.Listener<T> [[MessageBus.Listener.html]] {
        {abstract} +notify(T): void
    }

    interface "<size:14>MessageBus\n<size:10>it.tidalwave.messagebus" as it.tidalwave.messagebus.MessageBus [[MessageBus.html]] {
        {abstract} +publish(T): void
        {abstract} +publish(Class<T>, T): void
        {abstract} +subscribe(Class<T>, Listener<T>): void
        {abstract} +unsubscribe(Listener<?>): void
    }

    it.tidalwave.messagebus.MessageBus +- - it.tidalwave.messagebus.MessageBus.Listener

    center footer UMLDoclet 2.0.12, PlantUML 1.2020.16
@enduml

PlantUML version 1.2020.16(Sun Aug 23 22:20:43 CEST 2020)
(APACHE source distribution)
Java Runtime: OpenJDK Runtime Environment
JVM: OpenJDK 64-Bit Server VM
Default Encoding: UTF-8
Language: en
Country: US
--></g></svg>