@startuml
    set namespaceSeparator none
    hide empty fields
    hide empty methods

    annotation "<size:14>OnDeactivate\n<size:10>it.tidalwave.bluemarine2.ui.commons" as it.tidalwave.bluemarine2.ui.commons.OnDeactivate [[OnDeactivate.html]]
    enum "<size:14>OnDeactivate.Result\n<size:10>it.tidalwave.bluemarine2.ui.commons" as it.tidalwave.bluemarine2.ui.commons.OnDeactivate.Result [[OnDeactivate.Result.html]]

    it.tidalwave.bluemarine2.ui.commons.OnDeactivate +-- it.tidalwave.bluemarine2.ui.commons.OnDeactivate.Result

    center footer UMLDoclet 2.0.12, PlantUML 1.2020.16
@enduml
