<?xml version="1.0" encoding="UTF-8" standalone="no"?><svg xmlns="http://www.w3.org/2000/svg" xmlns:xlink="http://www.w3.org/1999/xlink" contentScriptType="application/ecmascript" contentStyleType="text/css" height="156px" preserveAspectRatio="none" style="width:245px;height:156px;" version="1.1" viewBox="0 0 245 156" width="245px" zoomAndPan="magnify"><defs><filter height="300%" id="f5dxcflej2a83" width="300%" x="-1" y="-1"><feGaussianBlur result="blurOut" stdDeviation="2.0"/><feColorMatrix in="blurOut" result="blurOut2" type="matrix" values="0 0 0 0 0 0 0 0 0 0 0 0 0 0 0 0 0 0 .4 0"/><feOffset dx="4.0" dy="4.0" in="blurOut2" result="blurOut3"/><feBlend in="SourceGraphic" in2="blurOut3" mode="normal"/></filter></defs><g><!--MD5=[0762d15c24a55bd1cbb00db38c403561]
class it.tidalwave.northernwind.core.model.SiteProvider--><a href="SiteProvider.html" target="_top" title="SiteProvider.html" xlink:actuate="onRequest" xlink:href="SiteProvider.html" xlink:show="new" xlink:title="SiteProvider.html" xlink:type="simple"><rect codeLine="5" fill="#FEFECE" filter="url(#f5dxcflej2a83)" height="119.041" id="it.tidalwave.northernwind.core.model.SiteProvider" style="stroke: #A80036; stroke-width: 1.5;" width="219" x="7" y="7"/><ellipse cx="24.25" cy="26.1328" fill="#B4A7E5" rx="11" ry="11" style="stroke: #A80036; stroke-width: 1.0;"/><path d="M20.6777,22.3979 L20.6777,20.2397 L28.0571,20.2397 L28.0571,22.3979 L25.5918,22.3979 L25.5918,30.4746 L28.0571,30.4746 L28.0571,32.6328 L20.6777,32.6328 L20.6777,30.4746 L23.1431,30.4746 L23.1431,22.3979 Z "/><text fill="#000000" font-family="sans-serif" font-size="14" font-style="italic" lengthAdjust="spacingAndGlyphs" textLength="82" x="88.75" y="25.5352">SiteProvider</text><text fill="#000000" font-family="sans-serif" font-size="10" font-style="italic" lengthAdjust="spacingAndGlyphs" textLength="182" x="38.75" y="38.1563">it.tidalwave.northernwind.core.model</text><line style="stroke: #A80036; stroke-width: 1.5;" x1="8" x2="225" y1="45.2656" y2="45.2656"/><ellipse cx="18" cy="56.2656" fill="none" rx="3" ry="3" style="stroke: #038048; stroke-width: 1.0;"/><text fill="#000000" font-family="sans-serif" font-size="11" lengthAdjust="spacingAndGlyphs" text-decoration="underline" textLength="193" x="27" y="59.9004">_SiteProvider_: Class&lt;SiteProvider&gt;</text><line style="stroke: #A80036; stroke-width: 1.5;" x1="8" x2="225" y1="66.2207" y2="66.2207"/><ellipse cx="18" cy="77.2207" fill="#84BE84" rx="3" ry="3" style="stroke: #038048; stroke-width: 1.0;"/><text fill="#000000" font-family="sans-serif" font-size="11" font-style="italic" lengthAdjust="spacingAndGlyphs" textLength="69" x="27" y="80.8555">getSite(): Site</text><ellipse cx="18" cy="90.1758" fill="#84BE84" rx="3" ry="3" style="stroke: #038048; stroke-width: 1.0;"/><text fill="#000000" font-family="sans-serif" font-size="11" font-style="italic" lengthAdjust="spacingAndGlyphs" textLength="71" x="27" y="93.8105">reload(): void</text><ellipse cx="18" cy="103.1309" fill="#84BE84" rx="3" ry="3" style="stroke: #038048; stroke-width: 1.0;"/><text fill="#000000" font-family="sans-serif" font-size="11" font-style="italic" lengthAdjust="spacingAndGlyphs" textLength="133" x="27" y="106.7656">isSiteAvailable(): boolean</text><ellipse cx="18" cy="116.0859" fill="#84BE84" rx="3" ry="3" style="stroke: #038048; stroke-width: 1.0;"/><text fill="#000000" font-family="sans-serif" font-size="11" font-style="italic" lengthAdjust="spacingAndGlyphs" textLength="136" x="27" y="119.7207">getVersionString(): String</text></a><text fill="#888888" font-family="sans-serif" font-size="10" lengthAdjust="spacingAndGlyphs" textLength="188" x="22.5" y="142.709">UMLDoclet 2.0.12, PlantUML 1.2020.16</text><!--MD5=[48dcf8df5b3a5421af492ccc6f04110f]
@startuml
    set namespaceSeparator none
    hide empty fields
    hide empty methods

    interface "<size:14>SiteProvider\n<size:10>it.tidalwave.northernwind.core.model" as it.tidalwave.northernwind.core.model.SiteProvider [[SiteProvider.html]] {
        {static} +_SiteProvider_: Class<SiteProvider>
        {abstract} +getSite(): Site
        {abstract} +reload(): void
        {abstract} +isSiteAvailable(): boolean
        {abstract} +getVersionString(): String
    }

    center footer UMLDoclet 2.0.12, PlantUML 1.2020.16
@enduml

PlantUML version 1.2020.16(Sun Aug 23 22:20:43 CEST 2020)
(APACHE source distribution)
Java Runtime: OpenJDK Runtime Environment
JVM: OpenJDK 64-Bit Server VM
Default Encoding: UTF-8
Language: en
Country: GB
--></g></svg>