@startuml
    set namespaceSeparator none
    hide empty fields
    hide empty methods

    class "<size:14>LocalDateTimeAdapter\n<size:10>it.tidalwave.accounting.exporter.xml.impl.adapters" as it.tidalwave.accounting.exporter.xml.impl.adapters.LocalDateTimeAdapter [[LocalDateTimeAdapter.html]] {
        +unmarshal(String): LocalDateTime
        +marshal(LocalDateTime): String
    }

    abstract class "<size:14>XmlAdapter\n<size:10>javax.xml.bind.annotation.adapters" as javax.xml.bind.annotation.adapters.XmlAdapter<String, LocalDateTime> {
        {abstract} +unmarshal(String): LocalDateTime
        {abstract} +marshal(LocalDateTime): String
    }

    javax.xml.bind.annotation.adapters.XmlAdapter <|-- it.tidalwave.accounting.exporter.xml.impl.adapters.LocalDateTimeAdapter

    center footer UMLDoclet 2.0.12, PlantUML 1.2020.16
@enduml
