<?xml version="1.0" encoding="UTF-8" standalone="no"?><svg xmlns="http://www.w3.org/2000/svg" xmlns:xlink="http://www.w3.org/1999/xlink" contentScriptType="application/ecmascript" contentStyleType="text/css" height="213px" preserveAspectRatio="none" style="width:350px;height:213px;" version="1.1" viewBox="0 0 350 213" width="350px" zoomAndPan="magnify"><defs><filter height="300%" id="f1nn73kaqowv1n" width="300%" x="-1" y="-1"><feGaussianBlur result="blurOut" stdDeviation="2.0"/><feColorMatrix in="blurOut" result="blurOut2" type="matrix" values="0 0 0 0 0 0 0 0 0 0 0 0 0 0 0 0 0 0 .4 0"/><feOffset dx="4.0" dy="4.0" in="blurOut2" result="blurOut3"/><feBlend in="SourceGraphic" in2="blurOut3" mode="normal"/></filter></defs><g><!--MD5=[35d5f5f9b01d1896a4f998e2bf55c526]
class it.tidalwave.ui.javafx.JavaFXSafeProxyCreator.NodeAndDelegate--><a href="JavaFXSafeProxyCreator.NodeAndDelegate.html" target="_top" title="JavaFXSafeProxyCreator.NodeAndDelegate.html" xlink:actuate="onRequest" xlink:href="JavaFXSafeProxyCreator.NodeAndDelegate.html" xlink:show="new" xlink:title="JavaFXSafeProxyCreator.NodeAndDelegate.html" xlink:type="simple"><rect codeLine="5" fill="#FEFECE" filter="url(#f1nn73kaqowv1n)" height="72.1758" id="it.tidalwave.ui.javafx.JavaFXSafeProxyCreator.NodeAndDelegate" style="stroke: #A80036; stroke-width: 1.5;" width="324" x="7" y="105"/><ellipse cx="22" cy="124.1328" fill="#ADD1B2" rx="11" ry="11" style="stroke: #A80036; stroke-width: 1.0;"/><path d="M24.4731,130.2759 Q23.8921,130.5747 23.2529,130.7241 Q22.6138,130.8735 21.9082,130.8735 Q19.4014,130.8735 18.0815,129.2217 Q16.7617,127.5698 16.7617,124.4487 Q16.7617,121.3193 18.0815,119.6675 Q19.4014,118.0156 21.9082,118.0156 Q22.6138,118.0156 23.2612,118.165 Q23.9087,118.3145 24.4731,118.6133 L24.4731,121.3359 Q23.8423,120.7549 23.2488,120.4851 Q22.6553,120.2153 22.0244,120.2153 Q20.6797,120.2153 19.9949,121.282 Q19.3101,122.3486 19.3101,124.4487 Q19.3101,126.5405 19.9949,127.6072 Q20.6797,128.6738 22.0244,128.6738 Q22.6553,128.6738 23.2488,128.4041 Q23.8423,128.1343 24.4731,127.5532 Z "/><text fill="#000000" font-family="sans-serif" font-size="14" lengthAdjust="spacingAndGlyphs" textLength="292" x="36" y="123.5352">JavaFXSafeProxyCreator.NodeAndDelegate</text><text fill="#000000" font-family="sans-serif" font-size="10" lengthAdjust="spacingAndGlyphs" textLength="102" x="131" y="136.1563">it.tidalwave.ui.javafx</text><line style="stroke: #A80036; stroke-width: 1.5;" x1="8" x2="330" y1="143.2656" y2="143.2656"/><ellipse cx="18" cy="154.2656" fill="#84BE84" rx="3" ry="3" style="stroke: #038048; stroke-width: 1.0;"/><text fill="#000000" font-family="sans-serif" font-size="11" lengthAdjust="spacingAndGlyphs" textLength="84" x="27" y="157.9004">getDelegate(): T</text><ellipse cx="18" cy="167.2207" fill="#84BE84" rx="3" ry="3" style="stroke: #038048; stroke-width: 1.0;"/><text fill="#000000" font-family="sans-serif" font-size="11" lengthAdjust="spacingAndGlyphs" text-decoration="underline" textLength="225" x="27" y="170.8555">load(Class&lt;T&gt;, String): NodeAndDelegate</text></a><!--MD5=[e37891f8175e7b84ff9fcb42eb97ea99]
class it.tidalwave.ui.javafx.JavaFXSafeProxyCreator--><a href="JavaFXSafeProxyCreator.html" target="_top" title="JavaFXSafeProxyCreator.html" xlink:actuate="onRequest" xlink:href="JavaFXSafeProxyCreator.html" xlink:show="new" xlink:title="JavaFXSafeProxyCreator.html" xlink:type="simple"><rect codeLine="10" fill="#FEFECE" filter="url(#f1nn73kaqowv1n)" height="38.2656" id="it.tidalwave.ui.javafx.JavaFXSafeProxyCreator" style="stroke: #A80036; stroke-width: 1.5;" width="196" x="71" y="7"/><ellipse cx="86" cy="26.1328" fill="#ADD1B2" rx="11" ry="11" style="stroke: #A80036; stroke-width: 1.0;"/><path d="M88.4731,32.2759 Q87.8921,32.5747 87.2529,32.7241 Q86.6138,32.8735 85.9082,32.8735 Q83.4014,32.8735 82.0815,31.2217 Q80.7617,29.5698 80.7617,26.4487 Q80.7617,23.3193 82.0815,21.6675 Q83.4014,20.0156 85.9082,20.0156 Q86.6138,20.0156 87.2612,20.165 Q87.9087,20.3145 88.4731,20.6133 L88.4731,23.3359 Q87.8423,22.7549 87.2488,22.4851 Q86.6553,22.2153 86.0244,22.2153 Q84.6797,22.2153 83.9949,23.282 Q83.3101,24.3486 83.3101,26.4487 Q83.3101,28.5405 83.9949,29.6072 Q84.6797,30.6738 86.0244,30.6738 Q86.6553,30.6738 87.2488,30.4041 Q87.8423,30.1343 88.4731,29.5532 Z "/><text fill="#000000" font-family="sans-serif" font-size="14" lengthAdjust="spacingAndGlyphs" textLength="164" x="100" y="25.5352">JavaFXSafeProxyCreator</text><text fill="#000000" font-family="sans-serif" font-size="10" lengthAdjust="spacingAndGlyphs" textLength="102" x="131" y="38.1563">it.tidalwave.ui.javafx</text></a><!--MD5=[1ce23dcf562d7c17a3c31b46015922ac]
reverse link it.tidalwave.ui.javafx.JavaFXSafeProxyCreator to it.tidalwave.ui.javafx.JavaFXSafeProxyCreator.NodeAndDelegate--><path codeLine="12" d="M169,60.4665 C169,74.5047 169,90.7372 169,104.935 " fill="none" id="it.tidalwave.ui.javafx.JavaFXSafeProxyCreator-backto-it.tidalwave.ui.javafx.JavaFXSafeProxyCreator.NodeAndDelegate" style="stroke: #A80036; stroke-width: 1.0;"/><ellipse cx="169" cy="53.2484" fill="#FFFFFF" rx="8" ry="8" style="stroke: #A80036; stroke-width: 1.0;"/><line style="stroke: #A80036; stroke-width: 1.0;" x1="169" x2="169" y1="61.2484" y2="45.2484"/><line style="stroke: #A80036; stroke-width: 1.0;" x1="161" x2="177" y1="53.2484" y2="53.2484"/><text fill="#888888" font-family="sans-serif" font-size="10" lengthAdjust="spacingAndGlyphs" textLength="188" x="72" y="199.8438">UMLDoclet 2.0.12, PlantUML 1.2020.16</text><!--MD5=[e95c7d27d98b8e904601a8b3b12a874b]
@startuml
    set namespaceSeparator none
    hide empty fields
    hide empty methods

    class "<size:14>JavaFXSafeProxyCreator.NodeAndDelegate\n<size:10>it.tidalwave.ui.javafx" as it.tidalwave.ui.javafx.JavaFXSafeProxyCreator.NodeAndDelegate [[JavaFXSafeProxyCreator.NodeAndDelegate.html]] {
        +getDelegate(): T
        {static} +load(Class<T>, String): NodeAndDelegate
    }

    class "<size:14>JavaFXSafeProxyCreator\n<size:10>it.tidalwave.ui.javafx" as it.tidalwave.ui.javafx.JavaFXSafeProxyCreator [[JavaFXSafeProxyCreator.html]]

    it.tidalwave.ui.javafx.JavaFXSafeProxyCreator +- - it.tidalwave.ui.javafx.JavaFXSafeProxyCreator.NodeAndDelegate

    center footer UMLDoclet 2.0.12, PlantUML 1.2020.16
@enduml

PlantUML version 1.2020.16(Sun Aug 23 22:20:43 CEST 2020)
(APACHE source distribution)
Java Runtime: OpenJDK Runtime Environment
JVM: OpenJDK 64-Bit Server VM
Default Encoding: UTF-8
Language: en
Country: GB
--></g></svg>