<?xml version="1.0" encoding="UTF-8" standalone="no"?><svg xmlns="http://www.w3.org/2000/svg" xmlns:xlink="http://www.w3.org/1999/xlink" contentScriptType="application/ecmascript" contentStyleType="text/css" height="434px" preserveAspectRatio="none" style="width:1279px;height:434px;" version="1.1" viewBox="0 0 1279 434" width="1279px" zoomAndPan="magnify"><defs><filter height="300%" id="fbiguen7unaoz" width="300%" x="-1" y="-1"><feGaussianBlur result="blurOut" stdDeviation="2.0"/><feColorMatrix in="blurOut" result="blurOut2" type="matrix" values="0 0 0 0 0 0 0 0 0 0 0 0 0 0 0 0 0 0 .4 0"/><feOffset dx="4.0" dy="4.0" in="blurOut2" result="blurOut3"/><feBlend in="SourceGraphic" in2="blurOut3" mode="normal"/></filter></defs><g><!--MD5=[001f725cf3fc23245c397069277c3f28]
cluster it.tidalwave.role.ui.spi--><polygon fill="#FFFFFF" filter="url(#fbiguen7unaoz)" points="16,58,178,58,185,80.4883,725,80.4883,725,405,16,405,16,58" style="stroke: #000000; stroke-width: 1.5;"/><line style="stroke: #000000; stroke-width: 1.5;" x1="16" x2="185" y1="80.4883" y2="80.4883"/><text fill="#000000" font-family="sans-serif" font-size="14" font-weight="bold" lengthAdjust="spacingAndGlyphs" textLength="156" x="20" y="73.5352">it.tidalwave.role.ui.spi</text><!--MD5=[ab149ffdaace04607ca43f034ce9b9c0]
cluster it.tidalwave.util--><polygon fill="#FFFFFF" filter="url(#fbiguen7unaoz)" points="743,6,860,6,867,28.4883,1013,28.4883,1013,232,743,232,743,6" style="stroke: #000000; stroke-width: 1.5;"/><line style="stroke: #000000; stroke-width: 1.5;" x1="743" x2="867" y1="28.4883" y2="28.4883"/><text fill="#000000" font-family="sans-serif" font-size="14" font-weight="bold" lengthAdjust="spacingAndGlyphs" textLength="111" x="747" y="21.5352">it.tidalwave.util</text><!--MD5=[a7ca9ec2a63815c8336b48c8b310b176]
cluster it.tidalwave.role--><polygon fill="#FFFFFF" filter="url(#fbiguen7unaoz)" points="1031,58,1151,58,1158,80.4883,1257,80.4883,1257,180,1031,180,1031,58" style="stroke: #000000; stroke-width: 1.5;"/><line style="stroke: #000000; stroke-width: 1.5;" x1="1031" x2="1158" y1="80.4883" y2="80.4883"/><text fill="#000000" font-family="sans-serif" font-size="14" font-weight="bold" lengthAdjust="spacingAndGlyphs" textLength="114" x="1035" y="73.5352">it.tidalwave.role</text><!--MD5=[672fb7730e0daf777985cddf0156e763]
class it.tidalwave.role.ui.spi.SimpleCompositePresentableTest--><a href="SimpleCompositePresentableTest.html" target="_top" title="SimpleCompositePresentableTest.html" xlink:actuate="onRequest" xlink:href="SimpleCompositePresentableTest.html" xlink:show="new" xlink:title="SimpleCompositePresentableTest.html" xlink:type="simple"><rect codeLine="3" fill="#FEFECE" filter="url(#fbiguen7unaoz)" height="73.9102" id="it.tidalwave.role.ui.spi.SimpleCompositePresentableTest" style="stroke: #A80036; stroke-width: 1.5;" width="425" x="291.5" y="91.5"/><ellipse cx="403.75" cy="107.5" fill="#ADD1B2" rx="11" ry="11" style="stroke: #A80036; stroke-width: 1.0;"/><path d="M406.2231,113.6431 Q405.6421,113.9419 405.0029,114.0913 Q404.3638,114.2407 403.6582,114.2407 Q401.1514,114.2407 399.8315,112.5889 Q398.5117,110.937 398.5117,107.8159 Q398.5117,104.6865 399.8315,103.0347 Q401.1514,101.3828 403.6582,101.3828 Q404.3638,101.3828 405.0112,101.5322 Q405.6587,101.6816 406.2231,101.9805 L406.2231,104.7031 Q405.5923,104.1221 404.9988,103.8523 Q404.4053,103.5825 403.7744,103.5825 Q402.4297,103.5825 401.7449,104.6492 Q401.0601,105.7158 401.0601,107.8159 Q401.0601,109.9077 401.7449,110.9744 Q402.4297,112.041 403.7744,112.041 Q404.4053,112.041 404.9988,111.7712 Q405.5923,111.5015 406.2231,110.9204 Z "/><text fill="#000000" font-family="sans-serif" font-size="12" lengthAdjust="spacingAndGlyphs" textLength="192" x="424.25" y="112.0352">SimpleCompositePresentableTest</text><line style="stroke: #A80036; stroke-width: 1.5;" x1="292.5" x2="715.5" y1="123.5" y2="123.5"/><line style="stroke: #A80036; stroke-width: 1.5;" x1="292.5" x2="715.5" y1="131.5" y2="131.5"/><ellipse cx="302.5" cy="142.5" fill="#84BE84" rx="3" ry="3" style="stroke: #038048; stroke-width: 1.0;"/><text fill="#000000" font-family="sans-serif" font-size="11" lengthAdjust="spacingAndGlyphs" textLength="67" x="311.5" y="146.1348">setup(): void</text><ellipse cx="302.5" cy="155.4551" fill="#84BE84" rx="3" ry="3" style="stroke: #038048; stroke-width: 1.0;"/><text fill="#000000" font-family="sans-serif" font-size="11" lengthAdjust="spacingAndGlyphs" textLength="399" x="311.5" y="159.0898">must_create_a_PresentationModel_containing_the_proper_children(): void</text></a><!--MD5=[67ab1d27c13ba93a2dedf59a3417c5e2]
class it.tidalwave.role.ui.spi.SimpleCompositePresentableTest.MockDatum--><a href="SimpleCompositePresentableTest.MockDatum.html" target="_top" title="SimpleCompositePresentableTest.MockDatum.html" xlink:actuate="onRequest" xlink:href="SimpleCompositePresentableTest.MockDatum.html" xlink:show="new" xlink:title="SimpleCompositePresentableTest.MockDatum.html" xlink:type="simple"><rect codeLine="8" fill="#FEFECE" filter="url(#fbiguen7unaoz)" height="112.7754" id="it.tidalwave.role.ui.spi.SimpleCompositePresentableTest.MockDatum" style="stroke: #A80036; stroke-width: 1.5;" width="296" x="421" y="284"/><ellipse cx="436" cy="300" fill="#ADD1B2" rx="11" ry="11" style="stroke: #A80036; stroke-width: 1.0;"/><path d="M438.4731,306.1431 Q437.8921,306.4419 437.2529,306.5913 Q436.6138,306.7407 435.9082,306.7407 Q433.4014,306.7407 432.0815,305.0889 Q430.7617,303.437 430.7617,300.3159 Q430.7617,297.1865 432.0815,295.5347 Q433.4014,293.8828 435.9082,293.8828 Q436.6138,293.8828 437.2612,294.0322 Q437.9087,294.1816 438.4731,294.4805 L438.4731,297.2031 Q437.8423,296.6221 437.2488,296.3523 Q436.6553,296.0825 436.0244,296.0825 Q434.6797,296.0825 433.9949,297.1492 Q433.3101,298.2158 433.3101,300.3159 Q433.3101,302.4077 433.9949,303.4744 Q434.6797,304.541 436.0244,304.541 Q436.6553,304.541 437.2488,304.2712 Q437.8423,304.0015 438.4731,303.4204 Z "/><text fill="#000000" font-family="sans-serif" font-size="12" lengthAdjust="spacingAndGlyphs" textLength="264" x="450" y="304.5352">SimpleCompositePresentableTest.MockDatum</text><line style="stroke: #A80036; stroke-width: 1.5;" x1="422" x2="716" y1="316" y2="316"/><line style="stroke: #A80036; stroke-width: 1.5;" x1="422" x2="716" y1="324" y2="324"/><ellipse cx="432" cy="335" fill="#84BE84" rx="3" ry="3" style="stroke: #038048; stroke-width: 1.0;"/><text fill="#000000" font-family="sans-serif" font-size="11" lengthAdjust="spacingAndGlyphs" textLength="103" x="441" y="338.6348">MockDatum(String)</text><ellipse cx="432" cy="347.9551" fill="#84BE84" rx="3" ry="3" style="stroke: #038048; stroke-width: 1.0;"/><text fill="#000000" font-family="sans-serif" font-size="11" lengthAdjust="spacingAndGlyphs" textLength="217" x="441" y="351.5898">withChildren(MockDatum...): MockDatum</text><ellipse cx="432" cy="360.9102" fill="#84BE84" rx="3" ry="3" style="stroke: #038048; stroke-width: 1.0;"/><text fill="#000000" font-family="sans-serif" font-size="11" lengthAdjust="spacingAndGlyphs" textLength="245" x="441" y="364.5449">withChildren(List&lt;MockDatum&gt;): MockDatum</text><ellipse cx="432" cy="373.8652" fill="#84BE84" rx="3" ry="3" style="stroke: #038048; stroke-width: 1.0;"/><text fill="#000000" font-family="sans-serif" font-size="11" lengthAdjust="spacingAndGlyphs" textLength="188" x="441" y="377.5">maybeAs(Class&lt;T&gt;): Optional&lt;T&gt;</text><ellipse cx="432" cy="386.8203" fill="#84BE84" rx="3" ry="3" style="stroke: #038048; stroke-width: 1.0;"/><text fill="#000000" font-family="sans-serif" font-size="11" lengthAdjust="spacingAndGlyphs" textLength="187" x="441" y="390.4551">asMany(Class&lt;T&gt;): Collection&lt;T&gt;</text></a><!--MD5=[68a5406c2e7779f06627c3cde9d75137]
class it.tidalwave.role.ui.spi.DefaultUserActionProviderTest--><a href="DefaultUserActionProviderTest.html" target="_top" title="DefaultUserActionProviderTest.html" xlink:actuate="onRequest" xlink:href="DefaultUserActionProviderTest.html" xlink:show="new" xlink:title="DefaultUserActionProviderTest.html" xlink:type="simple"><rect codeLine="16" fill="#FEFECE" filter="url(#fbiguen7unaoz)" height="86.8652" id="it.tidalwave.role.ui.spi.DefaultUserActionProviderTest" style="stroke: #A80036; stroke-width: 1.5;" width="232" x="24" y="85"/><ellipse cx="50.25" cy="101" fill="#ADD1B2" rx="11" ry="11" style="stroke: #A80036; stroke-width: 1.0;"/><path d="M52.7231,107.1431 Q52.1421,107.4419 51.5029,107.5913 Q50.8638,107.7407 50.1582,107.7407 Q47.6514,107.7407 46.3315,106.0889 Q45.0117,104.437 45.0117,101.3159 Q45.0117,98.1865 46.3315,96.5347 Q47.6514,94.8828 50.1582,94.8828 Q50.8638,94.8828 51.5112,95.0322 Q52.1587,95.1816 52.7231,95.4805 L52.7231,98.2031 Q52.0923,97.6221 51.4988,97.3523 Q50.9053,97.0825 50.2744,97.0825 Q48.9297,97.0825 48.2449,98.1492 Q47.5601,99.2158 47.5601,101.3159 Q47.5601,103.4077 48.2449,104.4744 Q48.9297,105.541 50.2744,105.541 Q50.9053,105.541 51.4988,105.2712 Q52.0923,105.0015 52.7231,104.4204 Z "/><text fill="#000000" font-family="sans-serif" font-size="12" lengthAdjust="spacingAndGlyphs" textLength="175" x="66.75" y="105.5352">DefaultUserActionProviderTest</text><line style="stroke: #A80036; stroke-width: 1.5;" x1="25" x2="255" y1="117" y2="117"/><line style="stroke: #A80036; stroke-width: 1.5;" x1="25" x2="255" y1="125" y2="125"/><ellipse cx="35" cy="136" fill="#84BE84" rx="3" ry="3" style="stroke: #038048; stroke-width: 1.0;"/><text fill="#000000" font-family="sans-serif" font-size="11" lengthAdjust="spacingAndGlyphs" textLength="67" x="44" y="139.6348">setup(): void</text><ellipse cx="35" cy="148.9551" fill="#84BE84" rx="3" ry="3" style="stroke: #038048; stroke-width: 1.0;"/><text fill="#000000" font-family="sans-serif" font-size="11" lengthAdjust="spacingAndGlyphs" textLength="169" x="44" y="152.5898">must_return_no_actions(): void</text><ellipse cx="35" cy="161.9102" fill="#84BE84" rx="3" ry="3" style="stroke: #038048; stroke-width: 1.0;"/><text fill="#000000" font-family="sans-serif" font-size="11" lengthAdjust="spacingAndGlyphs" textLength="206" x="44" y="165.5449">must_return_no_default_action(): void</text></a><!--MD5=[dab04e1bf87902def4158d0914d2f9d5]
class it.tidalwave.util.As--><a href="http://tidalwave.it/projects/thesefoolishthings/modules/it-tidalwave-util/apidocs/it/tidalwave/util/As.html?is-external=true" target="_top" title="http://tidalwave.it/projects/thesefoolishthings/modules/it-tidalwave-util/apidocs/it/tidalwave/util/As.html?is-external=true" xlink:actuate="onRequest" xlink:href="http://tidalwave.it/projects/thesefoolishthings/modules/it-tidalwave-util/apidocs/it/tidalwave/util/As.html?is-external=true" xlink:show="new" xlink:title="http://tidalwave.it/projects/thesefoolishthings/modules/it-tidalwave-util/apidocs/it/tidalwave/util/As.html?is-external=true" xlink:type="simple"><rect codeLine="28" fill="#FEFECE" filter="url(#fbiguen7unaoz)" height="190.5059" id="it.tidalwave.util.As" style="stroke: #A80036; stroke-width: 1.5;" width="253" x="751.5" y="33"/><ellipse cx="866.75" cy="49" fill="#B4A7E5" rx="11" ry="11" style="stroke: #A80036; stroke-width: 1.0;"/><path d="M863.1777,45.2651 L863.1777,43.1069 L870.5571,43.1069 L870.5571,45.2651 L868.0918,45.2651 L868.0918,53.3418 L870.5571,53.3418 L870.5571,55.5 L863.1777,55.5 L863.1777,53.3418 L865.6431,53.3418 L865.6431,45.2651 Z "/><text fill="#000000" font-family="sans-serif" font-size="12" font-style="italic" lengthAdjust="spacingAndGlyphs" textLength="14" x="887.25" y="53.5352">As</text><line style="stroke: #A80036; stroke-width: 1.5;" x1="752.5" x2="1003.5" y1="65" y2="65"/><line style="stroke: #A80036; stroke-width: 1.5;" x1="752.5" x2="1003.5" y1="73" y2="73"/><ellipse cx="762.5" cy="84" fill="#84BE84" rx="3" ry="3" style="stroke: #038048; stroke-width: 1.0;"/><text fill="#000000" font-family="sans-serif" font-size="11" lengthAdjust="spacingAndGlyphs" text-decoration="underline" textLength="114" x="771.5" y="87.6348">forObject(Object): As</text><ellipse cx="762.5" cy="96.9551" fill="#84BE84" rx="3" ry="3" style="stroke: #038048; stroke-width: 1.0;"/><text fill="#000000" font-family="sans-serif" font-size="11" lengthAdjust="spacingAndGlyphs" text-decoration="underline" textLength="155" x="771.5" y="100.5898">forObject(Object, Object): As</text><ellipse cx="762.5" cy="109.9102" fill="#84BE84" rx="3" ry="3" style="stroke: #038048; stroke-width: 1.0;"/><text fill="#000000" font-family="sans-serif" font-size="11" lengthAdjust="spacingAndGlyphs" text-decoration="underline" textLength="227" x="771.5" y="113.5449">forObject(Object, Collection&lt;Object&gt;): As</text><ellipse cx="762.5" cy="122.8652" fill="#84BE84" rx="3" ry="3" style="stroke: #038048; stroke-width: 1.0;"/><text fill="#000000" font-family="sans-serif" font-size="11" lengthAdjust="spacingAndGlyphs" textLength="87" x="771.5" y="126.5">as(Class&lt;T&gt;): T</text><ellipse cx="762.5" cy="135.8203" fill="#84BE84" rx="3" ry="3" style="stroke: #038048; stroke-width: 1.0;"/><text fill="#000000" font-family="sans-serif" font-size="11" lengthAdjust="spacingAndGlyphs" text-decoration="line-through" textLength="12" x="771.5" y="139.4551">as</text><text fill="#000000" font-family="sans-serif" font-size="11" lengthAdjust="spacingAndGlyphs" textLength="212" x="783.5" y="139.4551">(Class&lt;T&gt;, NotFoundBehaviour&lt;T&gt;): T</text><ellipse cx="762.5" cy="148.7754" fill="#84BE84" rx="3" ry="3" style="stroke: #038048; stroke-width: 1.0;"/><text fill="#000000" font-family="sans-serif" font-size="11" font-style="italic" lengthAdjust="spacingAndGlyphs" textLength="188" x="771.5" y="152.4102">maybeAs(Class&lt;T&gt;): Optional&lt;T&gt;</text><ellipse cx="762.5" cy="161.7305" fill="#84BE84" rx="3" ry="3" style="stroke: #038048; stroke-width: 1.0;"/><text fill="#000000" font-family="sans-serif" font-size="11" font-style="italic" lengthAdjust="spacingAndGlyphs" textLength="187" x="771.5" y="165.3652">asMany(Class&lt;T&gt;): Collection&lt;T&gt;</text><ellipse cx="762.5" cy="174.6855" fill="#84BE84" rx="3" ry="3" style="stroke: #038048; stroke-width: 1.0;"/><text fill="#000000" font-family="sans-serif" font-size="11" lengthAdjust="spacingAndGlyphs" text-decoration="underline" textLength="140" x="771.5" y="178.3203">type(Class&lt;?&gt;): Type&lt;T&gt;</text><ellipse cx="762.5" cy="187.6406" fill="#84BE84" rx="3" ry="3" style="stroke: #038048; stroke-width: 1.0;"/><text fill="#000000" font-family="sans-serif" font-size="11" lengthAdjust="spacingAndGlyphs" textLength="84" x="771.5" y="191.2754">as(Type&lt;T&gt;): T</text><ellipse cx="762.5" cy="200.5957" fill="#84BE84" rx="3" ry="3" style="stroke: #038048; stroke-width: 1.0;"/><text fill="#000000" font-family="sans-serif" font-size="11" lengthAdjust="spacingAndGlyphs" textLength="185" x="771.5" y="204.2305">maybeAs(Type&lt;T&gt;): Optional&lt;T&gt;</text><ellipse cx="762.5" cy="213.5508" fill="#84BE84" rx="3" ry="3" style="stroke: #038048; stroke-width: 1.0;"/><text fill="#000000" font-family="sans-serif" font-size="11" lengthAdjust="spacingAndGlyphs" textLength="184" x="771.5" y="217.1855">asMany(Type&lt;T&gt;): Collection&lt;T&gt;</text></a><!--MD5=[f40774d2c0efa8b70d7c747ac61cb911]
class it.tidalwave.role.Identifiable--><a href="../../../../../../apidocs/it/tidalwave/role/Identifiable.html" target="_top" title="../../../../../../apidocs/it/tidalwave/role/Identifiable.html" xlink:actuate="onRequest" xlink:href="../../../../../../apidocs/it/tidalwave/role/Identifiable.html" xlink:show="new" xlink:title="../../../../../../apidocs/it/tidalwave/role/Identifiable.html" xlink:type="simple"><rect codeLine="44" fill="#FEFECE" filter="url(#fbiguen7unaoz)" height="86.8652" id="it.tidalwave.role.Identifiable" style="stroke: #A80036; stroke-width: 1.5;" width="209" x="1039.5" y="85"/><ellipse cx="1107.75" cy="101" fill="#B4A7E5" rx="11" ry="11" style="stroke: #A80036; stroke-width: 1.0;"/><path d="M1104.1777,97.2651 L1104.1777,95.1069 L1111.5571,95.1069 L1111.5571,97.2651 L1109.0918,97.2651 L1109.0918,105.3418 L1111.5571,105.3418 L1111.5571,107.5 L1104.1777,107.5 L1104.1777,105.3418 L1106.6431,105.3418 L1106.6431,97.2651 Z "/><text fill="#000000" font-family="sans-serif" font-size="12" font-style="italic" lengthAdjust="spacingAndGlyphs" textLength="64" x="1128.25" y="105.5352">Identifiable</text><line style="stroke: #A80036; stroke-width: 1.5;" x1="1040.5" x2="1247.5" y1="117" y2="117"/><ellipse cx="1050.5" cy="128" fill="none" rx="3" ry="3" style="stroke: #038048; stroke-width: 1.0;"/><text fill="#000000" font-family="sans-serif" font-size="11" lengthAdjust="spacingAndGlyphs" text-decoration="underline" textLength="183" x="1059.5" y="131.6348">_Identifiable_: Class&lt;Identifiable&gt;</text><line style="stroke: #A80036; stroke-width: 1.5;" x1="1040.5" x2="1247.5" y1="137.9551" y2="137.9551"/><ellipse cx="1050.5" cy="148.9551" fill="#84BE84" rx="3" ry="3" style="stroke: #038048; stroke-width: 1.0;"/><text fill="#000000" font-family="sans-serif" font-size="11" font-style="italic" lengthAdjust="spacingAndGlyphs" textLength="51" x="1059.5" y="152.5898">getId(): Id</text><ellipse cx="1050.5" cy="161.9102" fill="#84BE84" rx="3" ry="3" style="stroke: #038048; stroke-width: 1.0;"/><text fill="#000000" font-family="sans-serif" font-size="11" lengthAdjust="spacingAndGlyphs" text-decoration="underline" textLength="94" x="1059.5" y="165.5449">of(Id): Identifiable</text></a><!--MD5=[7fb28350d1aab3fcfbf7716ac2bfe678]
reverse link it.tidalwave.util.As to it.tidalwave.role.ui.spi.SimpleCompositePresentableTest.MockDatum--><path codeLine="22" d="M734.6878,230.839 C734.1241,231.227 733.5615,231.614 733,232 C708.1015,249.1145 680.8182,267.3629 655.7747,283.9157 " fill="none" id="it.tidalwave.util.As-backto-it.tidalwave.role.ui.spi.SimpleCompositePresentableTest.MockDatum" style="stroke: #A80036; stroke-width: 1.0; stroke-dasharray: 7.0,7.0;"/><polygon fill="none" points="730.8363,224.9915,751.2628,219.3558,738.8092,236.4995,730.8363,224.9915" style="stroke: #A80036; stroke-width: 1.0;"/><!--MD5=[d75188f7a30386963d25538b7bc76c62]
reverse link it.tidalwave.role.Identifiable to it.tidalwave.role.ui.spi.SimpleCompositePresentableTest.MockDatum--><path codeLine="23" d="M1087.3776,185.5962 C1067.7474,202.6869 1044.6879,220.0402 1021,232 C925.8171,280.0569 808.4839,307.4097 717.2188,322.6286 " fill="none" id="it.tidalwave.role.Identifiable-backto-it.tidalwave.role.ui.spi.SimpleCompositePresentableTest.MockDatum" style="stroke: #A80036; stroke-width: 1.0; stroke-dasharray: 7.0,7.0;"/><polygon fill="none" points="1082.8083,180.2903,1102.3319,172.0543,1092.2057,190.6677,1082.8083,180.2903" style="stroke: #A80036; stroke-width: 1.0;"/><!--MD5=[d7b1687e978af51454c1a2c187641482]
reverse link it.tidalwave.role.ui.spi.SimpleCompositePresentableTest to it.tidalwave.role.ui.spi.SimpleCompositePresentableTest.MockDatum--><path codeLine="24" d="M519.9547,180.537 C529.5636,211.8765 541.8037,251.7983 551.6522,283.9196 " fill="none" id="it.tidalwave.role.ui.spi.SimpleCompositePresentableTest-backto-it.tidalwave.role.ui.spi.SimpleCompositePresentableTest.MockDatum" style="stroke: #A80036; stroke-width: 1.0;"/><ellipse cx="517.8162" cy="173.5618" fill="#FFFFFF" rx="8" ry="8" style="stroke: #A80036; stroke-width: 1.0;"/><line style="stroke: #A80036; stroke-width: 1.0;" x1="520.1614" x2="515.4711" y1="181.2104" y2="165.9133"/><line style="stroke: #A80036; stroke-width: 1.0;" x1="510.1677" x2="525.4648" y1="175.907" y2="171.2167"/><text fill="#888888" font-family="sans-serif" font-size="10" lengthAdjust="spacingAndGlyphs" textLength="188" x="536.5" y="420.668">UMLDoclet 2.0.12, PlantUML 1.2020.16</text><!--MD5=[d9fd69eb4e49dd1a5efd6b3c0a62d9e1]
@startuml
    namespace it.tidalwave.role.ui.spi {

        class SimpleCompositePresentableTest [[SimpleCompositePresentableTest.html]] {
            +setup(): void
            +must_create_a_PresentationModel_containing_the_proper_children(): void
        }

        class it.tidalwave.role.ui.spi.SimpleCompositePresentableTest.MockDatum [[SimpleCompositePresentableTest.MockDatum.html]] {
            +MockDatum(String)
            +withChildren(MockDatum...): MockDatum
            +withChildren(List<MockDatum>): MockDatum
            +maybeAs(Class<T>): Optional<T>
            +asMany(Class<T>): Collection<T>
        }

        class DefaultUserActionProviderTest [[DefaultUserActionProviderTest.html]] {
            +setup(): void
            +must_return_no_actions(): void
            +must_return_no_default_action(): void
        }

        it.tidalwave.util.As <|.. it.tidalwave.role.ui.spi.SimpleCompositePresentableTest.MockDatum
        it.tidalwave.role.Identifiable <|.. it.tidalwave.role.ui.spi.SimpleCompositePresentableTest.MockDatum
        SimpleCompositePresentableTest +- - it.tidalwave.role.ui.spi.SimpleCompositePresentableTest.MockDatum
    }

    namespace it.tidalwave.util {
        interface As [[http://tidalwave.it/projects/thesefoolishthings/modules/it-tidalwave-util/apidocs/it/tidalwave/util/As.html?is-external=true]] {
            {static} +forObject(Object): As
            {static} +forObject(Object, Object): As
            {static} +forObject(Object, Collection<Object>): As
            +as(Class<T>): T
            +- -as- -(Class<T>, NotFoundBehaviour<T>): T
            {abstract} +maybeAs(Class<T>): Optional<T>
            {abstract} +asMany(Class<T>): Collection<T>
            {static} +type(Class<?>): Type<T>
            +as(Type<T>): T
            +maybeAs(Type<T>): Optional<T>
            +asMany(Type<T>): Collection<T>
        }
    }

    namespace it.tidalwave.role {
        interface Identifiable [[../../../../../../apidocs/it/tidalwave/role/Identifiable.html]] {
            {static} +_Identifiable_: Class<Identifiable>
            {abstract} +getId(): Id
            {static} +of(Id): Identifiable
        }
    }

    center footer UMLDoclet 2.0.12, PlantUML 1.2020.16
@enduml

PlantUML version 1.2020.16(Sun Aug 23 22:20:43 CEST 2020)
(APACHE source distribution)
Java Runtime: OpenJDK Runtime Environment
JVM: OpenJDK 64-Bit Server VM
Default Encoding: UTF-8
Language: en
Country: GB
--></g></svg>