GROUP,PACKAGE,CLASS,INSTRUCTION_MISSED,INSTRUCTION_COVERED,BRANCH_MISSED,BRANCH_COVERED,LINE_MISSED,LINE_COVERED,COMPLEXITY_MISSED,COMPLEXITY_COVERED,METHOD_MISSED,METHOD_COVERED
NorthernWind :: Filesystems :: Basic,it.tidalwave.northernwind.frontend.filesystem.impl,ResourceFileSystemNetBeansPlatform,36,52,0,4,1,12,7,5,7,3
NorthernWind :: Filesystems :: Basic,it.tidalwave.northernwind.frontend.filesystem.impl,ResourceFileNetBeansPlatform,352,156,16,14,14,19,78,11,64,10
NorthernWind :: Filesystems :: Basic,it.tidalwave.northernwind.frontend.filesystem.basic,LocalCopyFileSystemProvider,191,0,12,0,39,0,18,0,12,0
NorthernWind :: Filesystems :: Basic,it.tidalwave.northernwind.frontend.filesystem.basic,ZipFileSystemProvider.new TimerTask() {...},100,0,6,0,20,0,5,0,2,0
NorthernWind :: Filesystems :: Basic,it.tidalwave.northernwind.frontend.filesystem.basic,ZipFileSystemProvider,110,0,4,0,17,0,10,0,8,0
NorthernWind :: Filesystems :: Basic,it.tidalwave.northernwind.frontend.filesystem.basic,LocalCopyFileSystemProvider.new MessageBus.Listener() {...},35,0,2,0,10,0,3,0,2,0
NorthernWind :: Filesystems :: Basic,it.tidalwave.northernwind.frontend.filesystem.basic,LocalFileSystemProvider,20,47,1,3,4,10,3,4,2,3
NorthernWind :: Filesystems :: Basic,it.tidalwave.northernwind.frontend.filesystem.basic.layered,DecoratorResourceFolder,109,117,7,11,7,27,21,11,16,7
NorthernWind :: Filesystems :: Basic,it.tidalwave.northernwind.frontend.filesystem.basic.layered,LayeredFileSystemProvider,10,35,1,1,1,6,4,4,3,4
NorthernWind :: Filesystems :: Basic,it.tidalwave.northernwind.frontend.filesystem.basic.layered,LayeredResourceFileSystem,51,114,5,7,7,26,11,6,6,5
NorthernWind :: Filesystems :: Basic,it.tidalwave.northernwind.frontend.filesystem.basic.layered,DelegateZipFileSystemsDiscoverer,92,0,8,0,20,0,11,0,7,0
NorthernWind :: Filesystems :: Basic,it.tidalwave.northernwind.frontend.filesystem.basic.layered,DecoratorResourceFile,68,25,0,0,0,5,15,5,15,5
