<?xml version="1.0" encoding="UTF-8" standalone="no"?><svg xmlns="http://www.w3.org/2000/svg" xmlns:xlink="http://www.w3.org/1999/xlink" contentScriptType="application/ecmascript" contentStyleType="text/css" height="265px" preserveAspectRatio="none" style="width:1215px;height:265px;" version="1.1" viewBox="0 0 1215 265" width="1215px" zoomAndPan="magnify"><defs><filter height="300%" id="f18owl5sfub3dj" width="300%" x="-1" y="-1"><feGaussianBlur result="blurOut" stdDeviation="2.0"/><feColorMatrix in="blurOut" result="blurOut2" type="matrix" values="0 0 0 0 0 0 0 0 0 0 0 0 0 0 0 0 0 0 .4 0"/><feOffset dx="4.0" dy="4.0" in="blurOut2" result="blurOut3"/><feBlend in="SourceGraphic" in2="blurOut3" mode="normal"/></filter></defs><g><!--MD5=[e3961e0261a5a65b8d9d7ac05c9cd191]
cluster it.tidalwave.northernwind.frontend.ui.component.htmltextwithtitle.htmltemplate--><polygon fill="#FFFFFF" filter="url(#f18owl5sfub3dj)" points="166,127,748,127,755,149.4883,1193,149.4883,1193,236,166,236,166,127" style="stroke: #000000; stroke-width: 1.5;"/><line style="stroke: #000000; stroke-width: 1.5;" x1="166" x2="755" y1="149.4883" y2="149.4883"/><text fill="#000000" font-family="sans-serif" font-size="14" font-weight="bold" lengthAdjust="spacingAndGlyphs" textLength="576" x="170" y="142.5352">it.tidalwave.northernwind.frontend.ui.component.htmltextwithtitle.htmltemplate</text><!--MD5=[0fcfde57acc250398f6adb281ae0aab8]
cluster it.tidalwave.northernwind.frontend.ui.component.htmltemplate--><polygon fill="#FFFFFF" filter="url(#f18owl5sfub3dj)" points="16,12.5,471,12.5,478,34.9883,481,34.9883,481,95.5,16,95.5,16,12.5" style="stroke: #000000; stroke-width: 1.5;"/><line style="stroke: #000000; stroke-width: 1.5;" x1="16" x2="478" y1="34.9883" y2="34.9883"/><text fill="#000000" font-family="sans-serif" font-size="14" font-weight="bold" lengthAdjust="spacingAndGlyphs" textLength="449" x="20" y="28.0352">it.tidalwave.northernwind.frontend.ui.component.htmltemplate</text><!--MD5=[07a42571b673fa7383647b59d098c966]
cluster it.tidalwave.northernwind.frontend.ui.component.htmltextwithtitle--><polygon fill="#FFFFFF" filter="url(#f18owl5sfub3dj)" points="541,6,1022,6,1029,28.4883,1032,28.4883,1032,102,541,102,541,6" style="stroke: #000000; stroke-width: 1.5;"/><line style="stroke: #000000; stroke-width: 1.5;" x1="541" x2="1029" y1="28.4883" y2="28.4883"/><text fill="#000000" font-family="sans-serif" font-size="14" font-weight="bold" lengthAdjust="spacingAndGlyphs" textLength="475" x="545" y="21.5352">it.tidalwave.northernwind.frontend.ui.component.htmltextwithtitle</text><!--MD5=[7f18b4b71783b335fb0a32591c1c3e18]
class it.tidalwave.northernwind.frontend.ui.component.htmltextwithtitle.htmltemplate.HtmlTemplateHtmlTextWithTitleView--><a href="HtmlTemplateHtmlTextWithTitleView.html" target="_top" title="HtmlTemplateHtmlTextWithTitleView.html" xlink:actuate="onRequest" xlink:href="HtmlTemplateHtmlTextWithTitleView.html" xlink:show="new" xlink:title="HtmlTemplateHtmlTextWithTitleView.html" xlink:type="simple"><rect codeLine="3" fill="#FEFECE" filter="url(#f18owl5sfub3dj)" height="73.9102" id="it.tidalwave.northernwind.frontend.ui.component.htmltextwithtitle.htmltemplate.HtmlTemplateHtmlTextWithTitleView" style="stroke: #A80036; stroke-width: 1.5;" width="447" x="174.5" y="154"/><ellipse cx="288.25" cy="170" fill="#ADD1B2" rx="11" ry="11" style="stroke: #A80036; stroke-width: 1.0;"/><path d="M290.7231,176.1431 Q290.1421,176.4419 289.5029,176.5913 Q288.8638,176.7407 288.1582,176.7407 Q285.6514,176.7407 284.3315,175.0889 Q283.0117,173.437 283.0117,170.3159 Q283.0117,167.1865 284.3315,165.5347 Q285.6514,163.8828 288.1582,163.8828 Q288.8638,163.8828 289.5112,164.0322 Q290.1587,164.1816 290.7231,164.4805 L290.7231,167.2031 Q290.0923,166.6221 289.4988,166.3523 Q288.9053,166.0825 288.2744,166.0825 Q286.9297,166.0825 286.2449,167.1492 Q285.5601,168.2158 285.5601,170.3159 Q285.5601,172.4077 286.2449,173.4744 Q286.9297,174.541 288.2744,174.541 Q288.9053,174.541 289.4988,174.2712 Q290.0923,174.0015 290.7231,173.4204 Z "/><text fill="#000000" font-family="sans-serif" font-size="12" lengthAdjust="spacingAndGlyphs" textLength="211" x="308.75" y="174.5352">HtmlTemplateHtmlTextWithTitleView</text><line style="stroke: #A80036; stroke-width: 1.5;" x1="175.5" x2="620.5" y1="186" y2="186"/><line style="stroke: #A80036; stroke-width: 1.5;" x1="175.5" x2="620.5" y1="194" y2="194"/><ellipse cx="185.5" cy="205" fill="#84BE84" rx="3" ry="3" style="stroke: #038048; stroke-width: 1.0;"/><text fill="#000000" font-family="sans-serif" font-size="11" lengthAdjust="spacingAndGlyphs" textLength="236" x="194.5" y="208.6348">HtmlTemplateHtmlTextWithTitleView(Id, Site)</text><ellipse cx="185.5" cy="217.9551" fill="#84BE84" rx="3" ry="3" style="stroke: #038048; stroke-width: 1.0;"/><text fill="#000000" font-family="sans-serif" font-size="11" lengthAdjust="spacingAndGlyphs" textLength="421" x="194.5" y="221.5898">render(Optional&lt;ResourcePath&gt;, Optional&lt;ResourcePath&gt;, Aggregates): void</text></a><!--MD5=[f1a848941b60410096599ccf0dfbc467]
class it.tidalwave.northernwind.frontend.ui.component.htmltextwithtitle.htmltemplate.HtmlTemplateHtmlTextWithTitleViewController--><a href="HtmlTemplateHtmlTextWithTitleViewController.html" target="_top" title="HtmlTemplateHtmlTextWithTitleViewController.html" xlink:actuate="onRequest" xlink:href="HtmlTemplateHtmlTextWithTitleViewController.html" xlink:show="new" xlink:title="HtmlTemplateHtmlTextWithTitleViewController.html" xlink:type="simple"><rect codeLine="8" fill="#FEFECE" filter="url(#f18owl5sfub3dj)" height="73.9102" id="it.tidalwave.northernwind.frontend.ui.component.htmltextwithtitle.htmltemplate.HtmlTemplateHtmlTextWithTitleViewController" style="stroke: #A80036; stroke-width: 1.5;" width="528" x="657" y="154"/><ellipse cx="783.25" cy="170" fill="#ADD1B2" rx="11" ry="11" style="stroke: #A80036; stroke-width: 1.0;"/><path d="M785.7231,176.1431 Q785.1421,176.4419 784.5029,176.5913 Q783.8638,176.7407 783.1582,176.7407 Q780.6514,176.7407 779.3315,175.0889 Q778.0117,173.437 778.0117,170.3159 Q778.0117,167.1865 779.3315,165.5347 Q780.6514,163.8828 783.1582,163.8828 Q783.8638,163.8828 784.5112,164.0322 Q785.1587,164.1816 785.7231,164.4805 L785.7231,167.2031 Q785.0923,166.6221 784.4988,166.3523 Q783.9053,166.0825 783.2744,166.0825 Q781.9297,166.0825 781.2449,167.1492 Q780.5601,168.2158 780.5601,170.3159 Q780.5601,172.4077 781.2449,173.4744 Q781.9297,174.541 783.2744,174.541 Q783.9053,174.541 784.4988,174.2712 Q785.0923,174.0015 785.7231,173.4204 Z "/><text fill="#000000" font-family="sans-serif" font-size="12" lengthAdjust="spacingAndGlyphs" textLength="267" x="803.75" y="174.5352">HtmlTemplateHtmlTextWithTitleViewController</text><line style="stroke: #A80036; stroke-width: 1.5;" x1="658" x2="1184" y1="186" y2="186"/><line style="stroke: #A80036; stroke-width: 1.5;" x1="658" x2="1184" y1="194" y2="194"/><ellipse cx="668" cy="205" fill="#84BE84" rx="3" ry="3" style="stroke: #038048; stroke-width: 1.0;"/><text fill="#000000" font-family="sans-serif" font-size="11" lengthAdjust="spacingAndGlyphs" textLength="502" x="677" y="208.6348">HtmlTemplateHtmlTextWithTitleViewController(HtmlTemplateHtmlTextWithTitleView, SiteNode)</text><polygon fill="#FFFF44" points="668,212.9551,672,216.9551,668,220.9551,664,216.9551" style="stroke: #B38D22; stroke-width: 1.0;"/><text fill="#000000" font-family="sans-serif" font-size="11" lengthAdjust="spacingAndGlyphs" textLength="180" x="677" y="221.5898">render(List&lt;TextWithTitle&gt;): void</text></a><!--MD5=[615a3a839e33691ecb1928340c5c0ee2]
class it.tidalwave.northernwind.frontend.ui.component.htmltemplate.HtmlHolder--><a href="../../htmltemplate/HtmlHolder.html" target="_top" title="../../htmltemplate/HtmlHolder.html" xlink:actuate="onRequest" xlink:href="../../htmltemplate/HtmlHolder.html" xlink:show="new" xlink:title="../../htmltemplate/HtmlHolder.html" xlink:type="simple"><rect codeLine="19" fill="#FEFECE" filter="url(#f18owl5sfub3dj)" height="48" id="it.tidalwave.northernwind.frontend.ui.component.htmltemplate.HtmlHolder" style="stroke: #A80036; stroke-width: 1.5;" width="98" x="349" y="39.5"/><ellipse cx="364" cy="55.5" fill="#ADD1B2" rx="11" ry="11" style="stroke: #A80036; stroke-width: 1.0;"/><path d="M366.4731,61.6431 Q365.8921,61.9419 365.2529,62.0913 Q364.6138,62.2407 363.9082,62.2407 Q361.4014,62.2407 360.0815,60.5889 Q358.7617,58.937 358.7617,55.8159 Q358.7617,52.6865 360.0815,51.0347 Q361.4014,49.3828 363.9082,49.3828 Q364.6138,49.3828 365.2612,49.5322 Q365.9087,49.6816 366.4731,49.9805 L366.4731,52.7031 Q365.8423,52.1221 365.2488,51.8523 Q364.6553,51.5825 364.0244,51.5825 Q362.6797,51.5825 361.9949,52.6492 Q361.3101,53.7158 361.3101,55.8159 Q361.3101,57.9077 361.9949,58.9744 Q362.6797,60.041 364.0244,60.041 Q364.6553,60.041 365.2488,59.7712 Q365.8423,59.5015 366.4731,58.9204 Z "/><text fill="#000000" font-family="sans-serif" font-size="12" lengthAdjust="spacingAndGlyphs" textLength="66" x="378" y="60.0352">HtmlHolder</text><line style="stroke: #A80036; stroke-width: 1.5;" x1="350" x2="446" y1="71.5" y2="71.5"/><line style="stroke: #A80036; stroke-width: 1.5;" x1="350" x2="446" y1="79.5" y2="79.5"/></a><!--MD5=[8e6cbe167d5f079ee267ea7043687618]
class it.tidalwave.northernwind.frontend.ui.component.htmltextwithtitle.HtmlTextWithTitleView--><a href="http://tidalwave.it/projects/northernwind/it-tidalwave-northernwind-modules/it-tidalwave-northernwind-frontend-components/apidocs/it/tidalwave/northernwind/frontend/ui/component/htmltextwithtitle/HtmlTextWithTitleView.html?is-external=true" target="_top" title="http://tidalwave.it/projects/northernwind/it-tidalwave-northernwind-modules/it-tidalwave-northernwind-frontend-components/apidocs/it/tidalwave/northernwind/frontend/ui/component/htmltextwithtitle/HtmlTextWithTitleView.html?is-external=true" xlink:actuate="onRequest" xlink:href="http://tidalwave.it/projects/northernwind/it-tidalwave-northernwind-modules/it-tidalwave-northernwind-frontend-components/apidocs/it/tidalwave/northernwind/frontend/ui/component/htmltextwithtitle/HtmlTextWithTitleView.html?is-external=true" xlink:show="new" xlink:title="http://tidalwave.it/projects/northernwind/it-tidalwave-northernwind-modules/it-tidalwave-northernwind-frontend-components/apidocs/it/tidalwave/northernwind/frontend/ui/component/htmltextwithtitle/HtmlTextWithTitleView.html?is-external=true" xlink:type="simple"><rect codeLine="23" fill="#FEFECE" filter="url(#f18owl5sfub3dj)" height="60.9551" id="it.tidalwave.northernwind.frontend.ui.component.htmltextwithtitle.HtmlTextWithTitleView" style="stroke: #A80036; stroke-width: 1.5;" width="170" x="549" y="33"/><ellipse cx="568.05" cy="49" fill="#B4A7E5" rx="11" ry="11" style="stroke: #A80036; stroke-width: 1.0;"/><path d="M564.4777,45.2651 L564.4777,43.1069 L571.8571,43.1069 L571.8571,45.2651 L569.3918,45.2651 L569.3918,53.3418 L571.8571,53.3418 L571.8571,55.5 L564.4777,55.5 L564.4777,53.3418 L566.9431,53.3418 L566.9431,45.2651 Z "/><text fill="#000000" font-family="sans-serif" font-size="12" font-style="italic" lengthAdjust="spacingAndGlyphs" textLength="129" x="582.95" y="53.5352">HtmlTextWithTitleView</text><line style="stroke: #A80036; stroke-width: 1.5;" x1="550" x2="718" y1="65" y2="65"/><line style="stroke: #A80036; stroke-width: 1.5;" x1="550" x2="718" y1="73" y2="73"/><ellipse cx="560" cy="84" fill="#84BE84" rx="3" ry="3" style="stroke: #038048; stroke-width: 1.0;"/><text fill="#000000" font-family="sans-serif" font-size="11" font-style="italic" lengthAdjust="spacingAndGlyphs" textLength="144" x="569" y="87.6348">setClassName(String): void</text></a><!--MD5=[ceabe3fdc6a2479515a12024e287d8d7]
class it.tidalwave.northernwind.frontend.ui.component.htmltextwithtitle.DefaultHtmlTextWithTitleViewController--><a href="http://tidalwave.it/projects/northernwind/it-tidalwave-northernwind-modules/it-tidalwave-northernwind-frontend-components/apidocs/it/tidalwave/northernwind/frontend/ui/component/htmltextwithtitle/DefaultHtmlTextWithTitleViewController.html?is-external=true" target="_top" title="http://tidalwave.it/projects/northernwind/it-tidalwave-northernwind-modules/it-tidalwave-northernwind-frontend-components/apidocs/it/tidalwave/northernwind/frontend/ui/component/htmltextwithtitle/DefaultHtmlTextWithTitleViewController.html?is-external=true" xlink:actuate="onRequest" xlink:href="http://tidalwave.it/projects/northernwind/it-tidalwave-northernwind-modules/it-tidalwave-northernwind-frontend-components/apidocs/it/tidalwave/northernwind/frontend/ui/component/htmltextwithtitle/DefaultHtmlTextWithTitleViewController.html?is-external=true" xlink:show="new" xlink:title="http://tidalwave.it/projects/northernwind/it-tidalwave-northernwind-modules/it-tidalwave-northernwind-frontend-components/apidocs/it/tidalwave/northernwind/frontend/ui/component/htmltextwithtitle/DefaultHtmlTextWithTitleViewController.html?is-external=true" xlink:type="simple"><rect codeLine="26" fill="#FEFECE" filter="url(#f18owl5sfub3dj)" height="60.9551" id="it.tidalwave.northernwind.frontend.ui.component.htmltextwithtitle.DefaultHtmlTextWithTitleViewController" style="stroke: #A80036; stroke-width: 1.5;" width="258" x="766" y="33"/><ellipse cx="781" cy="49" fill="#A9DCDF" rx="11" ry="11" style="stroke: #A80036; stroke-width: 1.0;"/><path d="M780.8633,44.3481 L779.7095,49.4199 L782.0254,49.4199 Z M779.3691,42.1069 L782.3657,42.1069 L785.7109,54.5 L783.2622,54.5 L782.4985,51.437 L779.2197,51.437 L778.4727,54.5 L776.0239,54.5 Z "/><text fill="#000000" font-family="sans-serif" font-size="12" font-style="italic" lengthAdjust="spacingAndGlyphs" textLength="226" x="795" y="53.5352">DefaultHtmlTextWithTitleViewController</text><line style="stroke: #A80036; stroke-width: 1.5;" x1="767" x2="1023" y1="65" y2="65"/><line style="stroke: #A80036; stroke-width: 1.5;" x1="767" x2="1023" y1="73" y2="73"/><polygon fill="#FFFF44" points="777,79,781,83,777,87,773,83" style="stroke: #B38D22; stroke-width: 1.0;"/><text fill="#000000" font-family="sans-serif" font-size="11" font-style="italic" lengthAdjust="spacingAndGlyphs" textLength="180" x="786" y="87.6348">render(List&lt;TextWithTitle&gt;): void</text></a><!--MD5=[26b167a0df5bd7944f933c051a37db42]
reverse link it.tidalwave.northernwind.frontend.ui.component.htmltemplate.HtmlHolder to it.tidalwave.northernwind.frontend.ui.component.htmltextwithtitle.htmltemplate.HtmlTemplateHtmlTextWithTitleView--><path codeLine="13" d="M398,107.8377 C398,122.8199 398,139.3834 398,153.7589 " fill="none" id="it.tidalwave.northernwind.frontend.ui.component.htmltemplate.HtmlHolder-backto-it.tidalwave.northernwind.frontend.ui.component.htmltextwithtitle.htmltemplate.HtmlTemplateHtmlTextWithTitleView" style="stroke: #A80036; stroke-width: 1.0;"/><polygon fill="none" points="391.0001,107.7819,398,87.7819,405.0001,107.7818,391.0001,107.7819" style="stroke: #A80036; stroke-width: 1.0;"/><!--MD5=[e3856996d6bcdde1b3d5336fa18d4a7a]
reverse link it.tidalwave.northernwind.frontend.ui.component.htmltextwithtitle.HtmlTextWithTitleView to it.tidalwave.northernwind.frontend.ui.component.htmltextwithtitle.htmltemplate.HtmlTemplateHtmlTextWithTitleView--><path codeLine="14" d="M559.5962,103.697 C529.8625,119.7607 495.8315,138.1461 466.692,153.8888 " fill="none" id="it.tidalwave.northernwind.frontend.ui.component.htmltextwithtitle.HtmlTextWithTitleView-backto-it.tidalwave.northernwind.frontend.ui.component.htmltextwithtitle.htmltemplate.HtmlTemplateHtmlTextWithTitleView" style="stroke: #A80036; stroke-width: 1.0; stroke-dasharray: 7.0,7.0;"/><polygon fill="none" points="556.5486,97.3872,577.4721,94.0394,563.2031,109.7046,556.5486,97.3872" style="stroke: #A80036; stroke-width: 1.0;"/><!--MD5=[99eb60ff89fb999dbd661c6c7db51c21]
reverse link it.tidalwave.northernwind.frontend.ui.component.htmltextwithtitle.DefaultHtmlTextWithTitleViewController to it.tidalwave.northernwind.frontend.ui.component.htmltextwithtitle.htmltemplate.HtmlTemplateHtmlTextWithTitleViewController--><path codeLine="15" d="M905.2888,113.9546 C908.0058,127.2786 910.8882,141.4135 913.4322,153.8888 " fill="none" id="it.tidalwave.northernwind.frontend.ui.component.htmltextwithtitle.DefaultHtmlTextWithTitleViewController-backto-it.tidalwave.northernwind.frontend.ui.component.htmltextwithtitle.htmltemplate.HtmlTemplateHtmlTextWithTitleViewController" style="stroke: #A80036; stroke-width: 1.0;"/><polygon fill="none" points="898.3651,115.0348,901.2276,94.0394,912.0828,112.2374,898.3651,115.0348" style="stroke: #A80036; stroke-width: 1.0;"/><text fill="#888888" font-family="sans-serif" font-size="10" lengthAdjust="spacingAndGlyphs" textLength="188" x="504.5" y="251.668">UMLDoclet 2.0.12, PlantUML 1.2020.16</text><!--MD5=[b6b0105a908ae0f3479052ddfb6e8386]
@startuml
    namespace it.tidalwave.northernwind.frontend.ui.component.htmltextwithtitle.htmltemplate {

        class HtmlTemplateHtmlTextWithTitleView [[HtmlTemplateHtmlTextWithTitleView.html]] {
            +HtmlTemplateHtmlTextWithTitleView(Id, Site)
            +render(Optional<ResourcePath>, Optional<ResourcePath>, Aggregates): void
        }

        class HtmlTemplateHtmlTextWithTitleViewController [[HtmlTemplateHtmlTextWithTitleViewController.html]] {
            +HtmlTemplateHtmlTextWithTitleViewController(HtmlTemplateHtmlTextWithTitleView, SiteNode)
            #render(List<TextWithTitle>): void
        }

        it.tidalwave.northernwind.frontend.ui.component.htmltemplate.HtmlHolder <|- - HtmlTemplateHtmlTextWithTitleView
        it.tidalwave.northernwind.frontend.ui.component.htmltextwithtitle.HtmlTextWithTitleView <|.. HtmlTemplateHtmlTextWithTitleView
        it.tidalwave.northernwind.frontend.ui.component.htmltextwithtitle.DefaultHtmlTextWithTitleViewController <|- - HtmlTemplateHtmlTextWithTitleViewController
    }

    namespace it.tidalwave.northernwind.frontend.ui.component.htmltemplate {
        class HtmlHolder [[../../htmltemplate/HtmlHolder.html]]
    }

    namespace it.tidalwave.northernwind.frontend.ui.component.htmltextwithtitle {
        interface HtmlTextWithTitleView [[http://tidalwave.it/projects/northernwind/it-tidalwave-northernwind-modules/it-tidalwave-northernwind-frontend-components/apidocs/it/tidalwave/northernwind/frontend/ui/component/htmltextwithtitle/HtmlTextWithTitleView.html?is-external=true]] {
            {abstract} +setClassName(String): void
        }
        abstract class DefaultHtmlTextWithTitleViewController [[http://tidalwave.it/projects/northernwind/it-tidalwave-northernwind-modules/it-tidalwave-northernwind-frontend-components/apidocs/it/tidalwave/northernwind/frontend/ui/component/htmltextwithtitle/DefaultHtmlTextWithTitleViewController.html?is-external=true]] {
            {abstract} #render(List<TextWithTitle>): void
        }
    }

    center footer UMLDoclet 2.0.12, PlantUML 1.2020.16
@enduml

PlantUML version 1.2020.16(Sun Aug 23 22:20:43 CEST 2020)
(APACHE source distribution)
Java Runtime: OpenJDK Runtime Environment
JVM: OpenJDK 64-Bit Server VM
Default Encoding: UTF-8
Language: en
Country: GB
--></g></svg>