<?xml version="1.0" encoding="UTF-8" standalone="no"?><svg xmlns="http://www.w3.org/2000/svg" xmlns:xlink="http://www.w3.org/1999/xlink" contentScriptType="application/ecmascript" contentStyleType="text/css" height="109px" preserveAspectRatio="none" style="width:296px;height:109px;" version="1.1" viewBox="0 0 296 109" width="296px" zoomAndPan="magnify"><defs><filter height="300%" id="f1jxkpj8m1k198" width="300%" x="-1" y="-1"><feGaussianBlur result="blurOut" stdDeviation="2.0"/><feColorMatrix in="blurOut" result="blurOut2" type="matrix" values="0 0 0 0 0 0 0 0 0 0 0 0 0 0 0 0 0 0 .4 0"/><feOffset dx="4.0" dy="4.0" in="blurOut2" result="blurOut3"/><feBlend in="SourceGraphic" in2="blurOut3" mode="normal"/></filter></defs><g><!--MD5=[3a41efbd5dbd55804c6018cde2d17354]
class it.tidalwave.northernwind.rca.ui.event.SiteNodeSelectedEvent--><a href="SiteNodeSelectedEvent.html" target="_top" title="SiteNodeSelectedEvent.html" xlink:actuate="onRequest" xlink:href="SiteNodeSelectedEvent.html" xlink:show="new" xlink:title="SiteNodeSelectedEvent.html" xlink:type="simple"><rect codeLine="5" fill="#FEFECE" filter="url(#f1jxkpj8m1k198)" height="72.1758" id="it.tidalwave.northernwind.rca.ui.event.SiteNodeSelectedEvent" style="stroke: #A80036; stroke-width: 1.5;" width="270" x="7" y="7"/><ellipse cx="45.85" cy="26.1328" fill="#ADD1B2" rx="11" ry="11" style="stroke: #A80036; stroke-width: 1.0;"/><path d="M48.3231,32.2759 Q47.7421,32.5747 47.1029,32.7241 Q46.4638,32.8735 45.7582,32.8735 Q43.2514,32.8735 41.9315,31.2217 Q40.6117,29.5698 40.6117,26.4487 Q40.6117,23.3193 41.9315,21.6675 Q43.2514,20.0156 45.7582,20.0156 Q46.4638,20.0156 47.1112,20.165 Q47.7587,20.3145 48.3231,20.6133 L48.3231,23.3359 Q47.6923,22.7549 47.0988,22.4851 Q46.5053,22.2153 45.8744,22.2153 Q44.5297,22.2153 43.8449,23.282 Q43.1601,24.3486 43.1601,26.4487 Q43.1601,28.5405 43.8449,29.6072 Q44.5297,30.6738 45.8744,30.6738 Q46.5053,30.6738 47.0988,30.4041 Q47.6923,30.1343 48.3231,29.5532 Z "/><text fill="#000000" font-family="sans-serif" font-size="14" lengthAdjust="spacingAndGlyphs" textLength="155" x="80.15" y="25.5352">SiteNodeSelectedEvent</text><text fill="#000000" font-family="sans-serif" font-size="10" lengthAdjust="spacingAndGlyphs" textLength="185" x="65.15" y="38.1563">it.tidalwave.northernwind.rca.ui.event</text><line style="stroke: #A80036; stroke-width: 1.5;" x1="8" x2="276" y1="45.2656" y2="45.2656"/><ellipse cx="18" cy="56.2656" fill="#84BE84" rx="3" ry="3" style="stroke: #038048; stroke-width: 1.0;"/><text fill="#000000" font-family="sans-serif" font-size="11" lengthAdjust="spacingAndGlyphs" text-decoration="underline" textLength="244" x="27" y="59.9004">emptySelectionEvent(): SiteNodeSelectedEvent</text><ellipse cx="18" cy="69.2207" fill="#84BE84" rx="3" ry="3" style="stroke: #038048; stroke-width: 1.0;"/><text fill="#000000" font-family="sans-serif" font-size="11" lengthAdjust="spacingAndGlyphs" text-decoration="underline" textLength="192" x="27" y="72.8555">of(SiteNode): SiteNodeSelectedEvent</text></a><text fill="#888888" font-family="sans-serif" font-size="10" lengthAdjust="spacingAndGlyphs" textLength="188" x="48" y="95.8438">UMLDoclet 2.0.12, PlantUML 1.2020.16</text><!--MD5=[84e98fe46e18c1ff5bde32a08b008418]
@startuml
    set namespaceSeparator none
    hide empty fields
    hide empty methods

    class "<size:14>SiteNodeSelectedEvent\n<size:10>it.tidalwave.northernwind.rca.ui.event" as it.tidalwave.northernwind.rca.ui.event.SiteNodeSelectedEvent [[SiteNodeSelectedEvent.html]] {
        {static} +emptySelectionEvent(): SiteNodeSelectedEvent
        {static} +of(SiteNode): SiteNodeSelectedEvent
    }

    center footer UMLDoclet 2.0.12, PlantUML 1.2020.16
@enduml

PlantUML version 1.2020.16(Sun Aug 23 22:20:43 CEST 2020)
(APACHE source distribution)
Java Runtime: OpenJDK Runtime Environment
JVM: OpenJDK 64-Bit Server VM
Default Encoding: UTF-8
Language: en
Country: GB
--></g></svg>