@startuml
    set namespaceSeparator none
    hide empty fields
    hide empty methods

    class "<size:14>RestResponse\n<size:10>it.tidalwave.bluemarine2.rest" as it.tidalwave.bluemarine2.rest.RestResponse<T> [[RestResponse.html]] {
        {static} +empty(): RestResponse<X>
        +get(): T
        +isPresent(): boolean
        +map(Function<? super T, ? extends U>): Optional<​U>
        +flatMap(Function<? super T, Optional<​U>>): Optional<​U>
        +ifPresent(Consumer<? super T>): void
    }

    center footer UMLDoclet 2.0.12, PlantUML 1.2020.16
@enduml
