<?xml version="1.0" encoding="UTF-8" standalone="no"?><svg xmlns="http://www.w3.org/2000/svg" xmlns:xlink="http://www.w3.org/1999/xlink" contentScriptType="application/ecmascript" contentStyleType="text/css" height="161px" preserveAspectRatio="none" style="width:369px;height:161px;" version="1.1" viewBox="0 0 369 161" width="369px" zoomAndPan="magnify"><defs><filter height="300%" id="fvxi6hrsg9aqf" width="300%" x="-1" y="-1"><feGaussianBlur result="blurOut" stdDeviation="2.0"/><feColorMatrix in="blurOut" result="blurOut2" type="matrix" values="0 0 0 0 0 0 0 0 0 0 0 0 0 0 0 0 0 0 .4 0"/><feOffset dx="4.0" dy="4.0" in="blurOut2" result="blurOut3"/><feBlend in="SourceGraphic" in2="blurOut3" mode="normal"/></filter></defs><g><!--MD5=[d57471236d177d0304d381958e85412a]
class it.tidalwave.bluemarine2.rest.RestResponse--><a href="RestResponse.html" target="_top" title="RestResponse.html" xlink:actuate="onRequest" xlink:href="RestResponse.html" xlink:show="new" xlink:title="RestResponse.html" xlink:type="simple"><rect codeLine="5" fill="#FEFECE" filter="url(#fvxi6hrsg9aqf)" height="123.9961" id="it.tidalwave.bluemarine2.rest.RestResponse" style="stroke: #A80036; stroke-width: 1.5;" width="343" x="7" y="7"/><ellipse cx="96.75" cy="26.1328" fill="#ADD1B2" rx="11" ry="11" style="stroke: #A80036; stroke-width: 1.0;"/><path d="M99.2231,32.2759 Q98.6421,32.5747 98.0029,32.7241 Q97.3638,32.8735 96.6582,32.8735 Q94.1514,32.8735 92.8315,31.2217 Q91.5117,29.5698 91.5117,26.4487 Q91.5117,23.3193 92.8315,21.6675 Q94.1514,20.0156 96.6582,20.0156 Q97.3638,20.0156 98.0112,20.165 Q98.6587,20.3145 99.2231,20.6133 L99.2231,23.3359 Q98.5923,22.7549 97.9988,22.4851 Q97.4053,22.2153 96.7744,22.2153 Q95.4297,22.2153 94.7449,23.282 Q94.0601,24.3486 94.0601,26.4487 Q94.0601,28.5405 94.7449,29.6072 Q95.4297,30.6738 96.7744,30.6738 Q97.4053,30.6738 97.9988,30.4041 Q98.5923,30.1343 99.2231,29.5532 Z "/><text fill="#000000" font-family="sans-serif" font-size="14" lengthAdjust="spacingAndGlyphs" textLength="95" x="141.25" y="25.5352">RestResponse</text><text fill="#000000" font-family="sans-serif" font-size="10" lengthAdjust="spacingAndGlyphs" textLength="143" x="117.25" y="38.1563">it.tidalwave.bluemarine2.rest</text><rect fill="#FFFFFF" height="16.1328" style="stroke: #000000; stroke-width: 1.0; stroke-dasharray: 2.0,2.0;" width="10" x="343" y="4"/><text fill="#000000" font-family="sans-serif" font-size="12" font-style="italic" lengthAdjust="spacingAndGlyphs" textLength="8" x="344" y="16.6016">T</text><line style="stroke: #A80036; stroke-width: 1.5;" x1="8" x2="349" y1="45.2656" y2="45.2656"/><ellipse cx="18" cy="56.2656" fill="#84BE84" rx="3" ry="3" style="stroke: #038048; stroke-width: 1.0;"/><text fill="#000000" font-family="sans-serif" font-size="11" lengthAdjust="spacingAndGlyphs" text-decoration="underline" textLength="147" x="27" y="59.9004">empty(): RestResponse&lt;X&gt;</text><ellipse cx="18" cy="69.2207" fill="#84BE84" rx="3" ry="3" style="stroke: #038048; stroke-width: 1.0;"/><text fill="#000000" font-family="sans-serif" font-size="11" lengthAdjust="spacingAndGlyphs" textLength="38" x="27" y="72.8555">get(): T</text><ellipse cx="18" cy="82.1758" fill="#84BE84" rx="3" ry="3" style="stroke: #038048; stroke-width: 1.0;"/><text fill="#000000" font-family="sans-serif" font-size="11" lengthAdjust="spacingAndGlyphs" textLength="106" x="27" y="85.8105">isPresent(): boolean</text><ellipse cx="18" cy="95.1309" fill="#84BE84" rx="3" ry="3" style="stroke: #038048; stroke-width: 1.0;"/><text fill="#000000" font-family="sans-serif" font-size="11" lengthAdjust="spacingAndGlyphs" textLength="291" x="27" y="98.7656">map(Function&lt;? super T, ? extends U&gt;): Optional&lt;​U&gt;</text><ellipse cx="18" cy="108.0859" fill="#84BE84" rx="3" ry="3" style="stroke: #038048; stroke-width: 1.0;"/><text fill="#000000" font-family="sans-serif" font-size="11" lengthAdjust="spacingAndGlyphs" textLength="317" x="27" y="111.7207">flatMap(Function&lt;? super T, Optional&lt;​U&gt;&gt;): Optional&lt;​U&gt;</text><ellipse cx="18" cy="121.041" fill="#84BE84" rx="3" ry="3" style="stroke: #038048; stroke-width: 1.0;"/><text fill="#000000" font-family="sans-serif" font-size="11" lengthAdjust="spacingAndGlyphs" textLength="207" x="27" y="124.6758">ifPresent(Consumer&lt;? super T&gt;): void</text></a><text fill="#888888" font-family="sans-serif" font-size="10" lengthAdjust="spacingAndGlyphs" textLength="188" x="84.5" y="147.6641">UMLDoclet 2.0.12, PlantUML 1.2020.16</text><!--MD5=[8cb243ea7ab4a5ecd73c55d5f7b8d84c]
@startuml
    set namespaceSeparator none
    hide empty fields
    hide empty methods

    class "<size:14>RestResponse\n<size:10>it.tidalwave.bluemarine2.rest" as it.tidalwave.bluemarine2.rest.RestResponse<T> [[RestResponse.html]] {
        {static} +empty(): RestResponse<X>
        +get(): T
        +isPresent(): boolean
        +map(Function<? super T, ? extends U>): Optional<​U>
        +flatMap(Function<? super T, Optional<​U>>): Optional<​U>
        +ifPresent(Consumer<? super T>): void
    }

    center footer UMLDoclet 2.0.12, PlantUML 1.2020.16
@enduml

PlantUML version 1.2020.16(Sun Aug 23 22:20:43 CEST 2020)
(APACHE source distribution)
Java Runtime: OpenJDK Runtime Environment
JVM: OpenJDK 64-Bit Server VM
Default Encoding: UTF-8
Language: en
Country: GB
--></g></svg>