<?xml version="1.0" encoding="UTF-8" standalone="no"?><svg xmlns="http://www.w3.org/2000/svg" xmlns:xlink="http://www.w3.org/1999/xlink" contentScriptType="application/ecmascript" contentStyleType="text/css" height="151px" preserveAspectRatio="none" style="width:1226px;height:151px;" version="1.1" viewBox="0 0 1226 151" width="1226px" zoomAndPan="magnify"><defs><filter height="300%" id="f1dji1kcivlxd9" width="300%" x="-1" y="-1"><feGaussianBlur result="blurOut" stdDeviation="2.0"/><feColorMatrix in="blurOut" result="blurOut2" type="matrix" values="0 0 0 0 0 0 0 0 0 0 0 0 0 0 0 0 0 0 .4 0"/><feOffset dx="4.0" dy="4.0" in="blurOut2" result="blurOut3"/><feBlend in="SourceGraphic" in2="blurOut3" mode="normal"/></filter></defs><g><!--MD5=[a37dc99b5e1b5dfcf24e4b18856408f9]
class it.tidalwave.northernwind.frontend.filesystem.basic.layered--><a href="it/tidalwave/northernwind/frontend/filesystem/basic/layered/package-summary.html" target="_top" title="it/tidalwave/northernwind/frontend/filesystem/basic/layered/package-summary.html" xlink:actuate="onRequest" xlink:href="it/tidalwave/northernwind/frontend/filesystem/basic/layered/package-summary.html" xlink:show="new" xlink:title="it/tidalwave/northernwind/frontend/filesystem/basic/layered/package-summary.html" xlink:type="simple"><rect codeLine="14" fill="#FEFECE" filter="url(#f1dji1kcivlxd9)" height="24.1328" id="it.tidalwave.northernwind.frontend.filesystem.basic.layered" style="stroke: #A80036; stroke-width: 1.5;" width="346" x="499" y="7"/><text fill="#000000" font-family="sans-serif" font-size="12" lengthAdjust="spacingAndGlyphs" textLength="340" x="502" y="23.6016">it.tidalwave.northernwind.frontend.filesystem.basic.layered</text></a><!--MD5=[0b3d1e905dead88dbdf65fd1cda455e2]
class it.tidalwave.northernwind.core.model--><a href="http://tidalwave.it/projects/northernwind/it-tidalwave-northernwind-modules/it-tidalwave-northernwind-core/apidocs/it/tidalwave/northernwind/core/model/package-summary.html?is-external=true" target="_top" title="http://tidalwave.it/projects/northernwind/it-tidalwave-northernwind-modules/it-tidalwave-northernwind-core/apidocs/it/tidalwave/northernwind/core/model/package-summary.html?is-external=true" xlink:actuate="onRequest" xlink:href="http://tidalwave.it/projects/northernwind/it-tidalwave-northernwind-modules/it-tidalwave-northernwind-core/apidocs/it/tidalwave/northernwind/core/model/package-summary.html?is-external=true" xlink:show="new" xlink:title="http://tidalwave.it/projects/northernwind/it-tidalwave-northernwind-modules/it-tidalwave-northernwind-core/apidocs/it/tidalwave/northernwind/core/model/package-summary.html?is-external=true" xlink:type="simple"><rect codeLine="16" fill="#FEFECE" filter="url(#f1dji1kcivlxd9)" height="24.1328" id="it.tidalwave.northernwind.core.model" style="stroke: #A80036; stroke-width: 1.5;" width="220" x="7" y="91"/><text fill="#000000" font-family="sans-serif" font-size="12" lengthAdjust="spacingAndGlyphs" textLength="214" x="10" y="107.6016">it.tidalwave.northernwind.core.model</text></a><!--MD5=[eab912922769a7b3b3929a8233c890a5]
class it.tidalwave.northernwind.core.model.spi--><a href="http://tidalwave.it/projects/northernwind/it-tidalwave-northernwind-modules/it-tidalwave-northernwind-core/apidocs/it/tidalwave/northernwind/core/model/spi/package-summary.html?is-external=true" target="_top" title="http://tidalwave.it/projects/northernwind/it-tidalwave-northernwind-modules/it-tidalwave-northernwind-core/apidocs/it/tidalwave/northernwind/core/model/spi/package-summary.html?is-external=true" xlink:actuate="onRequest" xlink:href="http://tidalwave.it/projects/northernwind/it-tidalwave-northernwind-modules/it-tidalwave-northernwind-core/apidocs/it/tidalwave/northernwind/core/model/spi/package-summary.html?is-external=true" xlink:show="new" xlink:title="http://tidalwave.it/projects/northernwind/it-tidalwave-northernwind-modules/it-tidalwave-northernwind-core/apidocs/it/tidalwave/northernwind/core/model/spi/package-summary.html?is-external=true" xlink:type="simple"><rect codeLine="18" fill="#FEFECE" filter="url(#f1dji1kcivlxd9)" height="24.1328" id="it.tidalwave.northernwind.core.model.spi" style="stroke: #A80036; stroke-width: 1.5;" width="241" x="262.5" y="91"/><text fill="#000000" font-family="sans-serif" font-size="12" lengthAdjust="spacingAndGlyphs" textLength="235" x="265.5" y="107.6016">it.tidalwave.northernwind.core.model.spi</text></a><!--MD5=[b38b3a8d6b00b78b55a3da79514951c5]
class org.slf4j--><rect fill="#FEFECE" filter="url(#f1dji1kcivlxd9)" height="24.1328" id="org.slf4j" style="stroke: #A80036; stroke-width: 1.5;" width="54" x="539" y="91"/><text fill="#000000" font-family="sans-serif" font-size="12" lengthAdjust="spacingAndGlyphs" textLength="48" x="542" y="107.6016">org.slf4j</text><!--MD5=[bea6c212e3019e1848557b247e064c6d]
class it.tidalwave.northernwind.frontend.filesystem.basic--><a href="../apidocs/it/tidalwave/northernwind/frontend/filesystem/basic/package-summary.html" target="_top" title="../apidocs/it/tidalwave/northernwind/frontend/filesystem/basic/package-summary.html" xlink:actuate="onRequest" xlink:href="../apidocs/it/tidalwave/northernwind/frontend/filesystem/basic/package-summary.html" xlink:show="new" xlink:title="../apidocs/it/tidalwave/northernwind/frontend/filesystem/basic/package-summary.html" xlink:type="simple"><rect codeLine="20" fill="#FEFECE" filter="url(#f1dji1kcivlxd9)" height="24.1328" id="it.tidalwave.northernwind.frontend.filesystem.basic" style="stroke: #A80036; stroke-width: 1.5;" width="299" x="628.5" y="91"/><text fill="#000000" font-family="sans-serif" font-size="12" lengthAdjust="spacingAndGlyphs" textLength="293" x="631.5" y="107.6016">it.tidalwave.northernwind.frontend.filesystem.basic</text></a><!--MD5=[e2825e41240dc3ac7b156e1d527e9be0]
class it.tidalwave.util--><rect fill="#FEFECE" filter="url(#f1dji1kcivlxd9)" height="24.1328" id="it.tidalwave.util" style="stroke: #A80036; stroke-width: 1.5;" width="92" x="963" y="91"/><text fill="#000000" font-family="sans-serif" font-size="12" lengthAdjust="spacingAndGlyphs" textLength="86" x="966" y="107.6016">it.tidalwave.util</text><!--MD5=[d9317916ce7225acc881890ef8f18090]
class it.tidalwave.util.test--><rect fill="#FEFECE" filter="url(#f1dji1kcivlxd9)" height="24.1328" id="it.tidalwave.util.test" style="stroke: #A80036; stroke-width: 1.5;" width="117" x="1090.5" y="91"/><text fill="#000000" font-family="sans-serif" font-size="12" lengthAdjust="spacingAndGlyphs" textLength="111" x="1093.5" y="107.6016">it.tidalwave.util.test</text><!--MD5=[24857e495a11a99aff1d60aca77c650f]
link it.tidalwave.northernwind.frontend.filesystem.basic.layered to it.tidalwave.northernwind.core.model--><path codeLine="6" d="M592.482,31.0352 C488.6251,46.754 307.5688,74.1571 201.3703,90.2304 " fill="none" id="it.tidalwave.northernwind.frontend.filesystem.basic.layered-to-it.tidalwave.northernwind.core.model" style="stroke: #A80036; stroke-width: 1.0;"/><polygon fill="#A80036" points="196.3705,90.9872,205.8679,93.5949,201.3142,90.2388,204.6703,85.6851,196.3705,90.9872" style="stroke: #A80036; stroke-width: 1.0;"/><!--MD5=[1814b688c48f60d3a84483311a98ff66]
link it.tidalwave.northernwind.frontend.filesystem.basic.layered to it.tidalwave.northernwind.core.model.spi--><path codeLine="7" d="M630.5933,31.0352 C577.264,46.5357 484.8443,73.3982 429.2599,89.5542 " fill="none" id="it.tidalwave.northernwind.frontend.filesystem.basic.layered-to-it.tidalwave.northernwind.core.model.spi" style="stroke: #A80036; stroke-width: 1.0;"/><polygon fill="#A80036" points="424.3298,90.9872,434.0886,92.3162,429.1311,89.5916,431.8557,84.6341,424.3298,90.9872" style="stroke: #A80036; stroke-width: 1.0;"/><!--MD5=[f696c2f95b888c86a92513119cd3636e]
link it.tidalwave.northernwind.frontend.filesystem.basic.layered to org.slf4j--><path codeLine="8" d="M656.8128,31.0352 C637.9216,46.0055 605.6568,71.5738 585.1057,87.8597 " fill="none" id="it.tidalwave.northernwind.frontend.filesystem.basic.layered-to-org.slf4j" style="stroke: #A80036; stroke-width: 1.0;"/><polygon fill="#A80036" points="581.159,90.9872,590.697,88.5324,585.0777,87.8818,585.7283,82.2625,581.159,90.9872" style="stroke: #A80036; stroke-width: 1.0;"/><!--MD5=[95df2e2bb58f5d578567992ea6b0c175]
link it.tidalwave.northernwind.frontend.filesystem.basic.layered to it.tidalwave.northernwind.frontend.filesystem.basic--><path codeLine="9" d="M687.1872,31.0352 C706.0784,46.0055 738.3432,71.5738 758.8943,87.8597 " fill="none" id="it.tidalwave.northernwind.frontend.filesystem.basic.layered-to-it.tidalwave.northernwind.frontend.filesystem.basic" style="stroke: #A80036; stroke-width: 1.0;"/><polygon fill="#A80036" points="762.841,90.9872,758.2717,82.2625,758.9223,87.8818,753.303,88.5324,762.841,90.9872" style="stroke: #A80036; stroke-width: 1.0;"/><!--MD5=[41d06a096fddced7fdeb5dd8af73cd27]
link it.tidalwave.northernwind.frontend.filesystem.basic.layered to it.tidalwave.util--><path codeLine="10" d="M720.2839,31.0352 C783.4304,46.7749 893.5778,74.2301 958.0268,90.2945 " fill="none" id="it.tidalwave.northernwind.frontend.filesystem.basic.layered-to-it.tidalwave.util" style="stroke: #A80036; stroke-width: 1.0;"/><polygon fill="#A80036" points="962.9692,91.5265,955.204,85.4683,958.1177,90.3171,953.2689,93.2308,962.9692,91.5265" style="stroke: #A80036; stroke-width: 1.0;"/><!--MD5=[a972aab4917fac27df1cdf81730a0987]
link it.tidalwave.northernwind.frontend.filesystem.basic.layered to it.tidalwave.util.test--><path codeLine="11" d="M740.3425,31.0352 C832.498,47.2638 995.3763,75.9468 1085.1595,91.7576 " fill="none" id="it.tidalwave.northernwind.frontend.filesystem.basic.layered-to-it.tidalwave.util.test" style="stroke: #A80036; stroke-width: 1.0;"/><polygon fill="#A80036" points="1090.1723,92.6404,1082.0024,87.1402,1085.2481,91.7733,1080.615,95.0189,1090.1723,92.6404" style="stroke: #A80036; stroke-width: 1.0;"/><text fill="#888888" font-family="sans-serif" font-size="10" lengthAdjust="spacingAndGlyphs" textLength="188" x="510.25" y="137.8008">UMLDoclet 2.0.12, PlantUML 1.2020.16</text><!--MD5=[1f7c30ae3fe488259a0bd0fc9b1fd086]
@startuml
    set namespaceSeparator none
    hide circle
    hide empty fields
    hide empty methods

    it.tidalwave.northernwind.frontend.filesystem.basic.layered - -> it.tidalwave.northernwind.core.model
    it.tidalwave.northernwind.frontend.filesystem.basic.layered - -> it.tidalwave.northernwind.core.model.spi
    it.tidalwave.northernwind.frontend.filesystem.basic.layered - -> org.slf4j
    it.tidalwave.northernwind.frontend.filesystem.basic.layered - -> it.tidalwave.northernwind.frontend.filesystem.basic
    it.tidalwave.northernwind.frontend.filesystem.basic.layered - -> it.tidalwave.util
    it.tidalwave.northernwind.frontend.filesystem.basic.layered - -> it.tidalwave.util.test

    ' Package links
    class "it.tidalwave.northernwind.frontend.filesystem.basic.layered" [[it/tidalwave/northernwind/frontend/filesystem/basic/layered/package-summary.html]] {
    }
    class "it.tidalwave.northernwind.core.model" [[http://tidalwave.it/projects/northernwind/it-tidalwave-northernwind-modules/it-tidalwave-northernwind-core/apidocs/it/tidalwave/northernwind/core/model/package-summary.html?is-external=true]] {
    }
    class "it.tidalwave.northernwind.core.model.spi" [[http://tidalwave.it/projects/northernwind/it-tidalwave-northernwind-modules/it-tidalwave-northernwind-core/apidocs/it/tidalwave/northernwind/core/model/spi/package-summary.html?is-external=true]] {
    }
    class "it.tidalwave.northernwind.frontend.filesystem.basic" [[../apidocs/it/tidalwave/northernwind/frontend/filesystem/basic/package-summary.html]] {
    }

    center footer UMLDoclet 2.0.12, PlantUML 1.2020.16
@enduml

@startuml
    set namespaceSeparator none
    hide circle
    hide empty fields
    hide empty methods

    it.tidalwave.northernwind.frontend.filesystem.basic.layered - -> it.tidalwave.northernwind.core.model
    it.tidalwave.northernwind.frontend.filesystem.basic.layered - -> it.tidalwave.northernwind.core.model.spi
    it.tidalwave.northernwind.frontend.filesystem.basic.layered - -> org.slf4j
    it.tidalwave.northernwind.frontend.filesystem.basic.layered - -> it.tidalwave.northernwind.frontend.filesystem.basic
    it.tidalwave.northernwind.frontend.filesystem.basic.layered - -> it.tidalwave.util
    it.tidalwave.northernwind.frontend.filesystem.basic.layered - -> it.tidalwave.util.test

    class "it.tidalwave.northernwind.frontend.filesystem.basic.layered" [[it/tidalwave/northernwind/frontend/filesystem/basic/layered/package-summary.html]] {
    }
    class "it.tidalwave.northernwind.core.model" [[http://tidalwave.it/projects/northernwind/it-tidalwave-northernwind-modules/it-tidalwave-northernwind-core/apidocs/it/tidalwave/northernwind/core/model/package-summary.html?is-external=true]] {
    }
    class "it.tidalwave.northernwind.core.model.spi" [[http://tidalwave.it/projects/northernwind/it-tidalwave-northernwind-modules/it-tidalwave-northernwind-core/apidocs/it/tidalwave/northernwind/core/model/spi/package-summary.html?is-external=true]] {
    }
    class "it.tidalwave.northernwind.frontend.filesystem.basic" [[../apidocs/it/tidalwave/northernwind/frontend/filesystem/basic/package-summary.html]] {
    }

    center footer UMLDoclet 2.0.12, PlantUML 1.2020.16
@enduml

PlantUML version 1.2020.16(Sun Aug 23 22:20:43 CEST 2020)
(APACHE source distribution)
Java Runtime: OpenJDK Runtime Environment
JVM: OpenJDK 64-Bit Server VM
Default Encoding: UTF-8
Language: en
Country: GB
--></g></svg>