@startuml
    set namespaceSeparator none
    hide empty fields
    hide empty methods

    class "<size:14>ApplyUnsharpMaskJ2DOp\n<size:10>it.tidalwave.image.java2d" as it.tidalwave.image.java2d.ApplyUnsharpMaskJ2DOp [[ApplyUnsharpMaskJ2DOp.html]] {
        #execute(ApplyUnsharpMaskOp, EditableImage, BufferedImage): BufferedImage
    }

    abstract class "<size:14>OperationImplementation\n<size:10>it.tidalwave.image.op" as it.tidalwave.image.op.OperationImplementation<ApplyUnsharpMaskOp, BufferedImage> [[../op/OperationImplementation.html]] {
        {abstract} #execute(ApplyUnsharpMaskOp, EditableImage, BufferedImage): BufferedImage
    }

    it.tidalwave.image.op.OperationImplementation <|-- it.tidalwave.image.java2d.ApplyUnsharpMaskJ2DOp

    center footer UMLDoclet 2.0.12, PlantUML 1.2020.16
@enduml
