@startuml
    set namespaceSeparator none
    hide empty fields
    hide empty methods

    class "<size:14>AssignColorProfileJ2DOp\n<size:10>it.tidalwave.image.java2d" as it.tidalwave.image.java2d.AssignColorProfileJ2DOp [[AssignColorProfileJ2DOp.html]] {
        #execute(AssignColorProfileOp, EditableImage, BufferedImage): BufferedImage
    }

    abstract class "<size:14>OperationImplementation\n<size:10>it.tidalwave.image.op" as it.tidalwave.image.op.OperationImplementation<AssignColorProfileOp, BufferedImage> [[../op/OperationImplementation.html]] {
        {abstract} #execute(AssignColorProfileOp, EditableImage, BufferedImage): BufferedImage
    }

    it.tidalwave.image.op.OperationImplementation <|-- it.tidalwave.image.java2d.AssignColorProfileJ2DOp

    center footer UMLDoclet 2.0.12, PlantUML 1.2020.16
@enduml
