<?xml version="1.0" encoding="UTF-8" standalone="no"?><svg xmlns="http://www.w3.org/2000/svg" xmlns:xlink="http://www.w3.org/1999/xlink" contentScriptType="application/ecmascript" contentStyleType="text/css" height="224px" preserveAspectRatio="none" style="width:373px;height:224px;" version="1.1" viewBox="0 0 373 224" width="373px" zoomAndPan="magnify"><defs><filter height="300%" id="f1slyetjrinbgn" width="300%" x="-1" y="-1"><feGaussianBlur result="blurOut" stdDeviation="2.0"/><feColorMatrix in="blurOut" result="blurOut2" type="matrix" values="0 0 0 0 0 0 0 0 0 0 0 0 0 0 0 0 0 0 .4 0"/><feOffset dx="4.0" dy="4.0" in="blurOut2" result="blurOut3"/><feBlend in="SourceGraphic" in2="blurOut3" mode="normal"/></filter></defs><g><!--MD5=[9e5f18e5c26a5c3e62c27184a061c84b]
class it.tidalwave.northernwind.frontend.springmvc.SpringMvcResponseHolder--><a href="SpringMvcResponseHolder.html" target="_top" title="SpringMvcResponseHolder.html" xlink:actuate="onRequest" xlink:href="SpringMvcResponseHolder.html" xlink:show="new" xlink:title="SpringMvcResponseHolder.html" xlink:type="simple"><rect codeLine="5" fill="#FEFECE" filter="url(#f1slyetjrinbgn)" height="59.2207" id="it.tidalwave.northernwind.frontend.springmvc.SpringMvcResponseHolder" style="stroke: #A80036; stroke-width: 1.5;" width="254" x="53.5" y="129"/><ellipse cx="68.5" cy="148.1328" fill="#ADD1B2" rx="11" ry="11" style="stroke: #A80036; stroke-width: 1.0;"/><path d="M70.9731,154.2759 Q70.3921,154.5747 69.7529,154.7241 Q69.1138,154.8735 68.4082,154.8735 Q65.9014,154.8735 64.5815,153.2217 Q63.2617,151.5698 63.2617,148.4487 Q63.2617,145.3193 64.5815,143.6675 Q65.9014,142.0156 68.4082,142.0156 Q69.1138,142.0156 69.7612,142.165 Q70.4087,142.3145 70.9731,142.6133 L70.9731,145.3359 Q70.3423,144.7549 69.7488,144.4851 Q69.1553,144.2153 68.5244,144.2153 Q67.1797,144.2153 66.4949,145.282 Q65.8101,146.3486 65.8101,148.4487 Q65.8101,150.5405 66.4949,151.6072 Q67.1797,152.6738 68.5244,152.6738 Q69.1553,152.6738 69.7488,152.4041 Q70.3423,152.1343 70.9731,151.5532 Z "/><text fill="#000000" font-family="sans-serif" font-size="14" lengthAdjust="spacingAndGlyphs" textLength="183" x="102" y="147.5352">SpringMvcResponseHolder</text><text fill="#000000" font-family="sans-serif" font-size="10" lengthAdjust="spacingAndGlyphs" textLength="222" x="82.5" y="160.1563">it.tidalwave.northernwind.frontend.springmvc</text><line style="stroke: #A80036; stroke-width: 1.5;" x1="54.5" x2="306.5" y1="167.2656" y2="167.2656"/><ellipse cx="64.5" cy="178.2656" fill="#84BE84" rx="3" ry="3" style="stroke: #038048; stroke-width: 1.0;"/><text fill="#000000" font-family="sans-serif" font-size="11" lengthAdjust="spacingAndGlyphs" textLength="209" x="73.5" y="181.9004">response(): SpringMvcResponseBuilder</text></a><!--MD5=[40fa8e8d596728519911a142bf0dc624]
class it.tidalwave.northernwind.core.model.spi.ResponseHolder--><a href="../../core/model/spi/ResponseHolder.html" target="_top" title="../../core/model/spi/ResponseHolder.html" xlink:actuate="onRequest" xlink:href="../../core/model/spi/ResponseHolder.html" xlink:show="new" xlink:title="../../core/model/spi/ResponseHolder.html" xlink:type="simple"><rect codeLine="9" fill="#FEFECE" filter="url(#f1slyetjrinbgn)" height="59.2207" id="it.tidalwave.northernwind.core.model.spi.ResponseHolder" style="stroke: #A80036; stroke-width: 1.5;" width="347" x="7" y="10"/><ellipse cx="22" cy="29.1328" fill="#A9DCDF" rx="11" ry="11" style="stroke: #A80036; stroke-width: 1.0;"/><path d="M21.8633,24.481 L20.7095,29.5527 L23.0254,29.5527 Z M20.3691,22.2397 L23.3657,22.2397 L26.7109,34.6328 L24.2622,34.6328 L23.4985,31.5698 L20.2197,31.5698 L19.4727,34.6328 L17.0239,34.6328 Z "/><text fill="#000000" font-family="sans-serif" font-size="14" font-style="italic" lengthAdjust="spacingAndGlyphs" textLength="112" x="79.5" y="28.5352">ResponseHolder</text><text fill="#000000" font-family="sans-serif" font-size="10" font-style="italic" lengthAdjust="spacingAndGlyphs" textLength="199" x="36" y="41.1563">it.tidalwave.northernwind.core.model.spi</text><rect fill="#FFFFFF" height="16.1328" style="stroke: #000000; stroke-width: 1.0; stroke-dasharray: 2.0,2.0;" width="114" x="243" y="7"/><text fill="#000000" font-family="sans-serif" font-size="12" font-style="italic" lengthAdjust="spacingAndGlyphs" textLength="112" x="244" y="19.6016">ResponseEntity&lt;?&gt;</text><line style="stroke: #A80036; stroke-width: 1.5;" x1="8" x2="353" y1="48.2656" y2="48.2656"/><ellipse cx="18" cy="59.2656" fill="#84BE84" rx="3" ry="3" style="stroke: #038048; stroke-width: 1.0;"/><text fill="#000000" font-family="sans-serif" font-size="11" font-style="italic" lengthAdjust="spacingAndGlyphs" textLength="257" x="27" y="62.9004">response(): ResponseBuilder&lt;RESPONSE_TYPE&gt;</text></a><!--MD5=[5e65edc2a1d2d426e033ba408aa04228]
reverse link it.tidalwave.northernwind.core.model.spi.ResponseHolder to it.tidalwave.northernwind.frontend.springmvc.SpringMvcResponseHolder--><path codeLine="13" d="M180.5,89.3288 C180.5,102.7348 180.5,116.8139 180.5,128.7447 " fill="none" id="it.tidalwave.northernwind.core.model.spi.ResponseHolder-backto-it.tidalwave.northernwind.frontend.springmvc.SpringMvcResponseHolder" style="stroke: #A80036; stroke-width: 1.0;"/><polygon fill="none" points="173.5001,89.2218,180.5,69.2218,187.5001,89.2217,173.5001,89.2218" style="stroke: #A80036; stroke-width: 1.0;"/><text fill="#888888" font-family="sans-serif" font-size="10" lengthAdjust="spacingAndGlyphs" textLength="188" x="83.5" y="210.8887">UMLDoclet 2.0.12, PlantUML 1.2020.16</text><!--MD5=[d576745d171cf735582b310e0918cf5b]
@startuml
    set namespaceSeparator none
    hide empty fields
    hide empty methods

    class "<size:14>SpringMvcResponseHolder\n<size:10>it.tidalwave.northernwind.frontend.springmvc" as it.tidalwave.northernwind.frontend.springmvc.SpringMvcResponseHolder [[SpringMvcResponseHolder.html]] {
        +response(): SpringMvcResponseBuilder
    }

    abstract class "<size:14>ResponseHolder\n<size:10>it.tidalwave.northernwind.core.model.spi" as it.tidalwave.northernwind.core.model.spi.ResponseHolder<ResponseEntity<?>> [[../../core/model/spi/ResponseHolder.html]] {
        {abstract} +response(): ResponseBuilder<RESPONSE_TYPE>
    }

    it.tidalwave.northernwind.core.model.spi.ResponseHolder <|- - it.tidalwave.northernwind.frontend.springmvc.SpringMvcResponseHolder

    center footer UMLDoclet 2.0.12, PlantUML 1.2020.16
@enduml

PlantUML version 1.2020.16(Sun Aug 23 22:20:43 CEST 2020)
(APACHE source distribution)
Java Runtime: OpenJDK Runtime Environment
JVM: OpenJDK 64-Bit Server VM
Default Encoding: UTF-8
Language: en
Country: GB
--></g></svg>