@startuml
    set namespaceSeparator none
    hide circle
    hide empty fields
    hide empty methods

    it.tidalwave.ui.role.javafx --> javafx.scene
    it.tidalwave.ui.javafx --> javafx.scene
    it.tidalwave.ui.javafx --> org.springframework.scheduling.concurrent
    it.tidalwave.ui.javafx --> it.tidalwave.role.ui.javafx
    it.tidalwave.ui.javafx --> org.slf4j
    it.tidalwave.ui.javafx --> org.springframework.context.support
    it.tidalwave.ui.javafx --> javafx.stage
    it.tidalwave.ui.javafx --> org.springframework.context
    it.tidalwave.ui.javafx --> javafx.scene.layout
    it.tidalwave.ui.javafx --> javafx.application
    it.tidalwave.role.ui.javafx --> javafx.stage
    it.tidalwave.role.ui.javafx --> javafx.scene.control
    it.tidalwave.role.ui.javafx --> it.tidalwave.role.ui
    it.tidalwave.role.ui.javafx --> javafx.scene.layout
    it.tidalwave.role.ui.javafx --> javafx.beans.property
    it.tidalwave.role.ui.javafx --> it.tidalwave.util.ui
    it.tidalwave.role.ui.javafx --> javafx.scene
    it.tidalwave.role.ui.javafx.example.large --> it.tidalwave.ui.javafx
    it.tidalwave.role.ui.javafx.example.large --> org.springframework.context
    it.tidalwave.role.ui.javafx.example.large.mainscreen --> it.tidalwave.role.ui
    it.tidalwave.role.ui.javafx.example.large.mainscreen --> it.tidalwave.util.ui
    it.tidalwave.role.ui.javafx.example.large.data --> it.tidalwave.util
    it.tidalwave.role.ui.javafx.example.large.data --> it.tidalwave.util.spi

    ' Package links
    class "it.tidalwave.ui.role.javafx" [[it/tidalwave/ui/role/javafx/package-summary.html]] {
    }
    class "it.tidalwave.ui.javafx" [[it/tidalwave/ui/javafx/package-summary.html]] {
    }
    class "it.tidalwave.role.ui.javafx" [[it/tidalwave/role/ui/javafx/package-summary.html]] {
    }
    class "it.tidalwave.role.ui.javafx.example.large" [[it/tidalwave/role/ui/javafx/example/large/package-summary.html]] {
    }
    class "it.tidalwave.role.ui.javafx.example.large.mainscreen" [[it/tidalwave/role/ui/javafx/example/large/mainscreen/package-summary.html]] {
    }
    class "it.tidalwave.role.ui.javafx.example.large.data" [[it/tidalwave/role/ui/javafx/example/large/data/package-summary.html]] {
    }
    class "it.tidalwave.util" [[it/tidalwave/util/package-summary.html]] {
    }

    center footer UMLDoclet 2.0.12, PlantUML 1.2020.16
@enduml
