<?xml version="1.0" encoding="UTF-8" standalone="no"?><svg xmlns="http://www.w3.org/2000/svg" xmlns:xlink="http://www.w3.org/1999/xlink" contentScriptType="application/ecmascript" contentStyleType="text/css" height="157px" preserveAspectRatio="none" style="width:705px;height:157px;" version="1.1" viewBox="0 0 705 157" width="705px" zoomAndPan="magnify"><defs><filter height="300%" id="f59v1f3ig0vtz" width="300%" x="-1" y="-1"><feGaussianBlur result="blurOut" stdDeviation="2.0"/><feColorMatrix in="blurOut" result="blurOut2" type="matrix" values="0 0 0 0 0 0 0 0 0 0 0 0 0 0 0 0 0 0 .4 0"/><feOffset dx="4.0" dy="4.0" in="blurOut2" result="blurOut3"/><feBlend in="SourceGraphic" in2="blurOut3" mode="normal"/></filter></defs><g><!--MD5=[9c1fa90675953dfaa20158f00ed253d5]
cluster it.tidalwave.northernwind.frontend.ui.component.blog.htmltemplate--><polygon fill="#FFFFFF" filter="url(#f59v1f3ig0vtz)" points="16,6,506,6,513,28.4883,683,28.4883,683,128,16,128,16,6" style="stroke: #000000; stroke-width: 1.5;"/><line style="stroke: #000000; stroke-width: 1.5;" x1="16" x2="513" y1="28.4883" y2="28.4883"/><text fill="#000000" font-family="sans-serif" font-size="14" font-weight="bold" lengthAdjust="spacingAndGlyphs" textLength="484" x="20" y="21.5352">it.tidalwave.northernwind.frontend.ui.component.blog.htmltemplate</text><!--MD5=[67afa718e4b8991888cd67baa19ba4ed]
class it.tidalwave.northernwind.frontend.ui.component.blog.htmltemplate.HtmlTemplateBlogViewTest--><a href="HtmlTemplateBlogViewTest.html" target="_top" title="HtmlTemplateBlogViewTest.html" xlink:actuate="onRequest" xlink:href="HtmlTemplateBlogViewTest.html" xlink:show="new" xlink:title="HtmlTemplateBlogViewTest.html" xlink:type="simple"><rect codeLine="3" fill="#FEFECE" filter="url(#f59v1f3ig0vtz)" height="86.8652" id="it.tidalwave.northernwind.frontend.ui.component.blog.htmltemplate.HtmlTemplateBlogViewTest" style="stroke: #A80036; stroke-width: 1.5;" width="369" x="305.5" y="33"/><ellipse cx="406.75" cy="49" fill="#ADD1B2" rx="11" ry="11" style="stroke: #A80036; stroke-width: 1.0;"/><path d="M409.2231,55.1431 Q408.6421,55.4419 408.0029,55.5913 Q407.3638,55.7407 406.6582,55.7407 Q404.1514,55.7407 402.8315,54.0889 Q401.5117,52.437 401.5117,49.3159 Q401.5117,46.1865 402.8315,44.5347 Q404.1514,42.8828 406.6582,42.8828 Q407.3638,42.8828 408.0112,43.0322 Q408.6587,43.1816 409.2231,43.4805 L409.2231,46.2031 Q408.5923,45.6221 407.9988,45.3523 Q407.4053,45.0825 406.7744,45.0825 Q405.4297,45.0825 404.7449,46.1492 Q404.0601,47.2158 404.0601,49.3159 Q404.0601,51.4077 404.7449,52.4744 Q405.4297,53.541 406.7744,53.541 Q407.4053,53.541 407.9988,53.2712 Q408.5923,53.0015 409.2231,52.4204 Z "/><text fill="#000000" font-family="sans-serif" font-size="12" lengthAdjust="spacingAndGlyphs" textLength="158" x="427.25" y="53.5352">HtmlTemplateBlogViewTest</text><line style="stroke: #A80036; stroke-width: 1.5;" x1="306.5" x2="673.5" y1="65" y2="65"/><line style="stroke: #A80036; stroke-width: 1.5;" x1="306.5" x2="673.5" y1="73" y2="73"/><ellipse cx="316.5" cy="84" fill="#84BE84" rx="3" ry="3" style="stroke: #038048; stroke-width: 1.0;"/><text fill="#000000" font-family="sans-serif" font-size="11" lengthAdjust="spacingAndGlyphs" textLength="67" x="325.5" y="87.6348">setup(): void</text><ellipse cx="316.5" cy="96.9551" fill="#84BE84" rx="3" ry="3" style="stroke: #038048; stroke-width: 1.0;"/><text fill="#000000" font-family="sans-serif" font-size="11" lengthAdjust="spacingAndGlyphs" textLength="320" x="325.5" y="100.5898">must_properly_render_posts_with_custom_template(): void</text><ellipse cx="316.5" cy="109.9102" fill="#84BE84" rx="3" ry="3" style="stroke: #038048; stroke-width: 1.0;"/><text fill="#000000" font-family="sans-serif" font-size="11" lengthAdjust="spacingAndGlyphs" textLength="343" x="325.5" y="113.5449">must_properly_render_tag_cloud_with_custom_template(): void</text></a><!--MD5=[a3ba513722252584e3bc326147a4771d]
class it.tidalwave.northernwind.frontend.ui.component.blog.htmltemplate.HtmlTemplateBlogViewControllerTest--><a href="HtmlTemplateBlogViewControllerTest.html" target="_top" title="HtmlTemplateBlogViewControllerTest.html" xlink:actuate="onRequest" xlink:href="HtmlTemplateBlogViewControllerTest.html" xlink:show="new" xlink:title="HtmlTemplateBlogViewControllerTest.html" xlink:type="simple"><rect codeLine="9" fill="#FEFECE" filter="url(#f59v1f3ig0vtz)" height="86.8652" id="it.tidalwave.northernwind.frontend.ui.component.blog.htmltemplate.HtmlTemplateBlogViewControllerTest" style="stroke: #A80036; stroke-width: 1.5;" width="246" x="24" y="33"/><ellipse cx="39" cy="49" fill="#ADD1B2" rx="11" ry="11" style="stroke: #A80036; stroke-width: 1.0;"/><path d="M41.4731,55.1431 Q40.8921,55.4419 40.2529,55.5913 Q39.6138,55.7407 38.9082,55.7407 Q36.4014,55.7407 35.0815,54.0889 Q33.7617,52.437 33.7617,49.3159 Q33.7617,46.1865 35.0815,44.5347 Q36.4014,42.8828 38.9082,42.8828 Q39.6138,42.8828 40.2612,43.0322 Q40.9087,43.1816 41.4731,43.4805 L41.4731,46.2031 Q40.8423,45.6221 40.2488,45.3523 Q39.6553,45.0825 39.0244,45.0825 Q37.6797,45.0825 36.9949,46.1492 Q36.3101,47.2158 36.3101,49.3159 Q36.3101,51.4077 36.9949,52.4744 Q37.6797,53.541 39.0244,53.541 Q39.6553,53.541 40.2488,53.2712 Q40.8423,53.0015 41.4731,52.4204 Z "/><text fill="#000000" font-family="sans-serif" font-size="12" lengthAdjust="spacingAndGlyphs" textLength="214" x="53" y="53.5352">HtmlTemplateBlogViewControllerTest</text><line style="stroke: #A80036; stroke-width: 1.5;" x1="25" x2="269" y1="65" y2="65"/><line style="stroke: #A80036; stroke-width: 1.5;" x1="25" x2="269" y1="73" y2="73"/><ellipse cx="35" cy="84" fill="#84BE84" rx="3" ry="3" style="stroke: #038048; stroke-width: 1.0;"/><text fill="#000000" font-family="sans-serif" font-size="11" lengthAdjust="spacingAndGlyphs" textLength="67" x="44" y="87.6348">setup(): void</text><ellipse cx="35" cy="96.9551" fill="#84BE84" rx="3" ry="3" style="stroke: #038048; stroke-width: 1.0;"/><text fill="#000000" font-family="sans-serif" font-size="11" lengthAdjust="spacingAndGlyphs" textLength="194" x="44" y="100.5898">must_properly_render_posts(): void</text><ellipse cx="35" cy="109.9102" fill="#84BE84" rx="3" ry="3" style="stroke: #038048; stroke-width: 1.0;"/><text fill="#000000" font-family="sans-serif" font-size="11" lengthAdjust="spacingAndGlyphs" textLength="217" x="44" y="113.5449">must_properly_render_tag_cloud(): void</text></a><text fill="#888888" font-family="sans-serif" font-size="10" lengthAdjust="spacingAndGlyphs" textLength="188" x="249.5" y="143.668">UMLDoclet 2.0.12, PlantUML 1.2020.16</text><!--MD5=[7a05f5c7e39be6049901931a1d767414]
@startuml
    namespace it.tidalwave.northernwind.frontend.ui.component.blog.htmltemplate {

        class HtmlTemplateBlogViewTest [[HtmlTemplateBlogViewTest.html]] {
            +setup(): void
            +must_properly_render_posts_with_custom_template(): void
            +must_properly_render_tag_cloud_with_custom_template(): void
        }

        class HtmlTemplateBlogViewControllerTest [[HtmlTemplateBlogViewControllerTest.html]] {
            +setup(): void
            +must_properly_render_posts(): void
            +must_properly_render_tag_cloud(): void
        }

    }

    center footer UMLDoclet 2.0.12, PlantUML 1.2020.16
@enduml

PlantUML version 1.2020.16(Sun Aug 23 22:20:43 CEST 2020)
(APACHE source distribution)
Java Runtime: OpenJDK Runtime Environment
JVM: OpenJDK 64-Bit Server VM
Default Encoding: UTF-8
Language: en
Country: GB
--></g></svg>