@startuml
    namespace it.tidalwave.image.metadata.loader {

        class DirectoryRawAdapter [[DirectoryRawAdapter.html]] {
            +DirectoryRawAdapter(Object)
            +getTags(): int[]
            +getSubDirectoryNames(): String[]
            +getSubDirectory(String): DirectoryAdapter
            +hasNext(): boolean
            +next(): DirectoryAdapter
            +getObject(int): Object
            +getTagName(int): String
            +containsTag(int): boolean
        }

        interface DirectoryAdapter [[DirectoryAdapter.html]] {
            {abstract} +getSubDirectoryNames(): String[]
            {abstract} +getTags(): int[]
            {abstract} +getSubDirectory(String): DirectoryAdapter
            {abstract} +hasNext(): boolean
            {abstract} +next(): DirectoryAdapter
            {abstract} +getTagName(int): String
            {abstract} +containsTag(int): boolean
            {abstract} +getObject(int): Object
        }

        interface MetadataLoader [[MetadataLoader.html]] {
            {abstract} +findTIFF(IIOMetadata): Object
            {abstract} +findEXIF(IIOMetadata): Object
            {abstract} +findIPTC(IIOMetadata): Object
            {abstract} +findXMP(IIOMetadata): Object
            {abstract} +findMakerNote(IIOMetadata): Object
            {abstract} +findDNG(IIOMetadata): Object
        }

        class DirectoryTIFFAdapter [[DirectoryTIFFAdapter.html]] {
            +DirectoryTIFFAdapter(Object)
            +getTags(): int[]
            +getSubDirectoryNames(): String[]
            +getSubDirectory(String): DirectoryAdapter
            +getTagName(int): String
            +containsTag(int): boolean
            +hasNext(): boolean
            +next(): DirectoryAdapter
            +getObject(int): Object
        }

        class RAWMetadataLoader [[RAWMetadataLoader.html]] {
            +findEXIF(IIOMetadata): Object
            +findIPTC(IIOMetadata): Object
            +findXMP(IIOMetadata): Object
            +findTIFF(IIOMetadata): Object
            +findMakerNote(IIOMetadata): Object
            +findDNG(IIOMetadata): Object
        }

        class DrewMetadataLoader [[DrewMetadataLoader.html]] {
            {static} +EXIF: int
            {static} +IPTC: int
            +findEXIF(IIOMetadata): Object
            +findIPTC(IIOMetadata): Object
            +findXMP(IIOMetadata): Object
            +findTIFF(IIOMetadata): Object
            +findMakerNote(IIOMetadata): Object
            +findDNG(IIOMetadata): Object
        }

        class TIFFMetadataLoader [[TIFFMetadataLoader.html]] {
            +findEXIF(IIOMetadata): Object
            +findIPTC(IIOMetadata): Object
            +findXMP(IIOMetadata): Object
            +findTIFF(IIOMetadata): Object
            +findMakerNote(IIOMetadata): Object
            +findDNG(IIOMetadata): Object
        }

        class DirectoryDrewAdapter [[DirectoryDrewAdapter.html]] {
            +DirectoryDrewAdapter(Object)
            +getTags(): int[]
            +getSubDirectoryNames(): String[]
            +getSubDirectory(String): DirectoryAdapter
            +hasNext(): boolean
            +next(): DirectoryAdapter
            +getObject(int): Object
            +getTagName(int): String
            +containsTag(int): boolean
        }

        DirectoryAdapter <|.. DirectoryRawAdapter
        DirectoryAdapter <|.. DirectoryTIFFAdapter
        MetadataLoader <|.. RAWMetadataLoader
        MetadataLoader <|.. DrewMetadataLoader
        MetadataLoader <|.. TIFFMetadataLoader
        DirectoryAdapter <|.. DirectoryDrewAdapter
    }

    center footer UMLDoclet 2.0.12, PlantUML 1.2020.16
@enduml
