<?xml version="1.0" encoding="UTF-8" standalone="no"?><svg xmlns="http://www.w3.org/2000/svg" xmlns:xlink="http://www.w3.org/1999/xlink" contentScriptType="application/ecmascript" contentStyleType="text/css" height="212px" preserveAspectRatio="none" style="width:489px;height:212px;" version="1.1" viewBox="0 0 489 212" width="489px" zoomAndPan="magnify"><defs><filter height="300%" id="f1wte1gpbsc0a5" width="300%" x="-1" y="-1"><feGaussianBlur result="blurOut" stdDeviation="2.0"/><feColorMatrix in="blurOut" result="blurOut2" type="matrix" values="0 0 0 0 0 0 0 0 0 0 0 0 0 0 0 0 0 0 .4 0"/><feOffset dx="4.0" dy="4.0" in="blurOut2" result="blurOut3"/><feBlend in="SourceGraphic" in2="blurOut3" mode="normal"/></filter></defs><g><!--MD5=[81dd08e2443d86ab27f703d7db4f0630]
class it.tidalwave.util.PairTest--><a href="PairTest.html" target="_top" title="PairTest.html" xlink:actuate="onRequest" xlink:href="PairTest.html" xlink:show="new" xlink:title="PairTest.html" xlink:type="simple"><rect codeLine="5" fill="#FEFECE" filter="url(#f1wte1gpbsc0a5)" height="175.8164" id="it.tidalwave.util.PairTest" style="stroke: #A80036; stroke-width: 1.5;" width="463" x="7" y="7"/><ellipse cx="196.25" cy="26.1328" fill="#ADD1B2" rx="11" ry="11" style="stroke: #A80036; stroke-width: 1.0;"/><path d="M198.7231,32.2759 Q198.1421,32.5747 197.5029,32.7241 Q196.8638,32.8735 196.1582,32.8735 Q193.6514,32.8735 192.3315,31.2217 Q191.0117,29.5698 191.0117,26.4487 Q191.0117,23.3193 192.3315,21.6675 Q193.6514,20.0156 196.1582,20.0156 Q196.8638,20.0156 197.5112,20.165 Q198.1587,20.3145 198.7231,20.6133 L198.7231,23.3359 Q198.0923,22.7549 197.4988,22.4851 Q196.9053,22.2153 196.2744,22.2153 Q194.9297,22.2153 194.2449,23.282 Q193.5601,24.3486 193.5601,26.4487 Q193.5601,28.5405 194.2449,29.6072 Q194.9297,30.6738 196.2744,30.6738 Q196.9053,30.6738 197.4988,30.4041 Q198.0923,30.1343 198.7231,29.5532 Z "/><text fill="#000000" font-family="sans-serif" font-size="14" lengthAdjust="spacingAndGlyphs" textLength="55" x="227.25" y="25.5352">PairTest</text><text fill="#000000" font-family="sans-serif" font-size="10" lengthAdjust="spacingAndGlyphs" textLength="76" x="216.75" y="38.1563">it.tidalwave.util</text><line style="stroke: #A80036; stroke-width: 1.5;" x1="8" x2="469" y1="45.2656" y2="45.2656"/><ellipse cx="18" cy="56.2656" fill="#84BE84" rx="3" ry="3" style="stroke: #038048; stroke-width: 1.0;"/><text fill="#000000" font-family="sans-serif" font-size="11" lengthAdjust="spacingAndGlyphs" textLength="229" x="27" y="59.9004">test_indexedPairStream_from_array(): void</text><ellipse cx="18" cy="69.2207" fill="#84BE84" rx="3" ry="3" style="stroke: #038048; stroke-width: 1.0;"/><text fill="#000000" font-family="sans-serif" font-size="11" lengthAdjust="spacingAndGlyphs" textLength="302" x="27" y="72.8555">test_indexedPairStream_from_array_and_rebaser(): void</text><ellipse cx="18" cy="82.1758" fill="#84BE84" rx="3" ry="3" style="stroke: #038048; stroke-width: 1.0;"/><text fill="#000000" font-family="sans-serif" font-size="11" lengthAdjust="spacingAndGlyphs" textLength="241" x="27" y="85.8105">test_indexedPairStream_from_iterable(): void</text><ellipse cx="18" cy="95.1309" fill="#84BE84" rx="3" ry="3" style="stroke: #038048; stroke-width: 1.0;"/><text fill="#000000" font-family="sans-serif" font-size="11" lengthAdjust="spacingAndGlyphs" textLength="314" x="27" y="98.7656">test_indexedPairStream_from_iterable_and_rebaser(): void</text><ellipse cx="18" cy="108.0859" fill="#84BE84" rx="3" ry="3" style="stroke: #038048; stroke-width: 1.0;"/><text fill="#000000" font-family="sans-serif" font-size="11" lengthAdjust="spacingAndGlyphs" textLength="370" x="27" y="111.7207">test_indexedPairStream__from_array_with_index_transformer(): void</text><ellipse cx="18" cy="121.041" fill="#84BE84" rx="3" ry="3" style="stroke: #038048; stroke-width: 1.0;"/><text fill="#000000" font-family="sans-serif" font-size="11" lengthAdjust="spacingAndGlyphs" textLength="382" x="27" y="124.6758">test_indexedPairStream__from_iterable_with_index_transformer(): void</text><ellipse cx="18" cy="133.9961" fill="#84BE84" rx="3" ry="3" style="stroke: #038048; stroke-width: 1.0;"/><text fill="#000000" font-family="sans-serif" font-size="11" lengthAdjust="spacingAndGlyphs" textLength="304" x="27" y="137.6309">test_indexedPairStream_with_range_and_supplier(): void</text><ellipse cx="18" cy="146.9512" fill="#84BE84" rx="3" ry="3" style="stroke: #038048; stroke-width: 1.0;"/><text fill="#000000" font-family="sans-serif" font-size="11" lengthAdjust="spacingAndGlyphs" textLength="377" x="27" y="150.5859">test_indexedPairStream_with_range_and_supplier_and_rebaser(): void</text><ellipse cx="18" cy="159.9063" fill="#84BE84" rx="3" ry="3" style="stroke: #038048; stroke-width: 1.0;"/><text fill="#000000" font-family="sans-serif" font-size="11" lengthAdjust="spacingAndGlyphs" textLength="437" x="27" y="163.541">test_indexedPairStream_with_range_and_supplier_and_index_transformer(): void</text><ellipse cx="18" cy="172.8613" fill="#84BE84" rx="3" ry="3" style="stroke: #038048; stroke-width: 1.0;"/><text fill="#000000" font-family="sans-serif" font-size="11" lengthAdjust="spacingAndGlyphs" textLength="156" x="27" y="176.4961">test_collector_to_map(): void</text></a><text fill="#888888" font-family="sans-serif" font-size="10" lengthAdjust="spacingAndGlyphs" textLength="188" x="144.5" y="199.4844">UMLDoclet 2.0.12, PlantUML 1.2020.16</text><!--MD5=[7a1bb87b7aa29caddc52c5f3ec5befaa]
@startuml
    set namespaceSeparator none
    hide empty fields
    hide empty methods

    class "<size:14>PairTest\n<size:10>it.tidalwave.util" as it.tidalwave.util.PairTest [[PairTest.html]] {
        +test_indexedPairStream_from_array(): void
        +test_indexedPairStream_from_array_and_rebaser(): void
        +test_indexedPairStream_from_iterable(): void
        +test_indexedPairStream_from_iterable_and_rebaser(): void
        +test_indexedPairStream__from_array_with_index_transformer(): void
        +test_indexedPairStream__from_iterable_with_index_transformer(): void
        +test_indexedPairStream_with_range_and_supplier(): void
        +test_indexedPairStream_with_range_and_supplier_and_rebaser(): void
        +test_indexedPairStream_with_range_and_supplier_and_index_transformer(): void
        +test_collector_to_map(): void
    }

    center footer UMLDoclet 2.0.12, PlantUML 1.2020.16
@enduml

PlantUML version 1.2020.16(Sun Aug 23 22:20:43 CEST 2020)
(APACHE source distribution)
Java Runtime: OpenJDK Runtime Environment
JVM: OpenJDK 64-Bit Server VM
Default Encoding: UTF-8
Language: en
Country: GB
--></g></svg>