<?xml version="1.0" encoding="UTF-8" standalone="no"?><svg xmlns="http://www.w3.org/2000/svg" xmlns:xlink="http://www.w3.org/1999/xlink" contentScriptType="application/ecmascript" contentStyleType="text/css" height="200px" preserveAspectRatio="none" style="width:358px;height:200px;" version="1.1" viewBox="0 0 358 200" width="358px" zoomAndPan="magnify"><defs><filter height="300%" id="f1m6sfzz29io6g" width="300%" x="-1" y="-1"><feGaussianBlur result="blurOut" stdDeviation="2.0"/><feColorMatrix in="blurOut" result="blurOut2" type="matrix" values="0 0 0 0 0 0 0 0 0 0 0 0 0 0 0 0 0 0 .4 0"/><feOffset dx="4.0" dy="4.0" in="blurOut2" result="blurOut3"/><feBlend in="SourceGraphic" in2="blurOut3" mode="normal"/></filter></defs><g><!--MD5=[6df2c0fbca6cda6e6d436756f56b81f2]
class it.tidalwave.northernwind.frontend.ui.component.breadcrumb.BreadCrumbView--><a href="BreadCrumbView.html" target="_top" title="BreadCrumbView.html" xlink:actuate="onRequest" xlink:href="BreadCrumbView.html" xlink:show="new" xlink:title="BreadCrumbView.html" xlink:type="simple"><rect codeLine="5" fill="#FEFECE" filter="url(#f1m6sfzz29io6g)" height="38.2656" id="it.tidalwave.northernwind.frontend.ui.component.breadcrumb.BreadCrumbView" style="stroke: #A80036; stroke-width: 1.5;" width="332" x="7" y="126"/><ellipse cx="22" cy="145.1328" fill="#B4A7E5" rx="11" ry="11" style="stroke: #A80036; stroke-width: 1.0;"/><path d="M18.4277,141.3979 L18.4277,139.2397 L25.8071,139.2397 L25.8071,141.3979 L23.3418,141.3979 L23.3418,149.4746 L25.8071,149.4746 L25.8071,151.6328 L18.4277,151.6328 L18.4277,149.4746 L20.8931,149.4746 L20.8931,141.3979 Z "/><text fill="#000000" font-family="sans-serif" font-size="14" font-style="italic" lengthAdjust="spacingAndGlyphs" textLength="118" x="127" y="144.5352">BreadCrumbView</text><text fill="#000000" font-family="sans-serif" font-size="10" font-style="italic" lengthAdjust="spacingAndGlyphs" textLength="300" x="36" y="157.1563">it.tidalwave.northernwind.frontend.ui.component.breadcrumb</text></a><!--MD5=[f40774d2c0efa8b70d7c747ac61cb911]
class it.tidalwave.role.Identifiable--><rect codeLine="7" fill="#FEFECE" filter="url(#f1m6sfzz29io6g)" height="59.2207" id="it.tidalwave.role.Identifiable" style="stroke: #A80036; stroke-width: 1.5;" width="111" x="117.5" y="7"/><ellipse cx="132.5" cy="26.1328" fill="#B4A7E5" rx="11" ry="11" style="stroke: #A80036; stroke-width: 1.0;"/><path d="M128.9277,22.3979 L128.9277,20.2397 L136.3071,20.2397 L136.3071,22.3979 L133.8418,22.3979 L133.8418,30.4746 L136.3071,30.4746 L136.3071,32.6328 L128.9277,32.6328 L128.9277,30.4746 L131.3931,30.4746 L131.3931,22.3979 Z "/><text fill="#000000" font-family="sans-serif" font-size="14" font-style="italic" lengthAdjust="spacingAndGlyphs" textLength="77" x="147.5" y="25.5352">Identifiable</text><text fill="#000000" font-family="sans-serif" font-size="10" font-style="italic" lengthAdjust="spacingAndGlyphs" textLength="79" x="146.5" y="38.1563">it.tidalwave.role</text><line style="stroke: #A80036; stroke-width: 1.5;" x1="118.5" x2="227.5" y1="45.2656" y2="45.2656"/><ellipse cx="128.5" cy="56.2656" fill="#84BE84" rx="3" ry="3" style="stroke: #038048; stroke-width: 1.0;"/><text fill="#000000" font-family="sans-serif" font-size="11" font-style="italic" lengthAdjust="spacingAndGlyphs" textLength="51" x="137.5" y="59.9004">getId(): Id</text><!--MD5=[42a31b0cd0088bde835af195c3d5cb58]
reverse link it.tidalwave.role.Identifiable to it.tidalwave.northernwind.frontend.ui.component.breadcrumb.BreadCrumbView--><path codeLine="11" d="M173,86.6274 C173,100.6286 173,114.9981 173,125.9766 " fill="none" id="it.tidalwave.role.Identifiable-backto-it.tidalwave.northernwind.frontend.ui.component.breadcrumb.BreadCrumbView" style="stroke: #A80036; stroke-width: 1.0;"/><polygon fill="none" points="166.0001,86.1481,173,66.1481,180.0001,86.1481,166.0001,86.1481" style="stroke: #A80036; stroke-width: 1.0;"/><text fill="#888888" font-family="sans-serif" font-size="10" lengthAdjust="spacingAndGlyphs" textLength="188" x="76" y="186.9336">UMLDoclet 2.0.12, PlantUML 1.2020.16</text><!--MD5=[4d7441d45076a201b79def2694e5ed3d]
@startuml
    set namespaceSeparator none
    hide empty fields
    hide empty methods

    interface "<size:14>BreadCrumbView\n<size:10>it.tidalwave.northernwind.frontend.ui.component.breadcrumb" as it.tidalwave.northernwind.frontend.ui.component.breadcrumb.BreadCrumbView [[BreadCrumbView.html]]

    interface "<size:14>Identifiable\n<size:10>it.tidalwave.role" as it.tidalwave.role.Identifiable {
        {abstract} +getId(): Id
    }

    it.tidalwave.role.Identifiable <|- - it.tidalwave.northernwind.frontend.ui.component.breadcrumb.BreadCrumbView

    center footer UMLDoclet 2.0.12, PlantUML 1.2020.16
@enduml

PlantUML version 1.2020.16(Sun Aug 23 22:20:43 CEST 2020)
(APACHE source distribution)
Java Runtime: OpenJDK Runtime Environment
JVM: OpenJDK 64-Bit Server VM
Default Encoding: UTF-8
Language: en
Country: GB
--></g></svg>