<?xml version="1.0" encoding="UTF-8" standalone="no"?><svg xmlns="http://www.w3.org/2000/svg" xmlns:xlink="http://www.w3.org/1999/xlink" contentScriptType="application/ecmascript" contentStyleType="text/css" height="247px" preserveAspectRatio="none" style="width:380px;height:247px;" version="1.1" viewBox="0 0 380 247" width="380px" zoomAndPan="magnify"><defs><filter height="300%" id="f1pw1c1aaxhwnc" width="300%" x="-1" y="-1"><feGaussianBlur result="blurOut" stdDeviation="2.0"/><feColorMatrix in="blurOut" result="blurOut2" type="matrix" values="0 0 0 0 0 0 0 0 0 0 0 0 0 0 0 0 0 0 .4 0"/><feOffset dx="4.0" dy="4.0" in="blurOut2" result="blurOut3"/><feBlend in="SourceGraphic" in2="blurOut3" mode="normal"/></filter></defs><g><!--MD5=[58e2ac101cc42aab4c433468dd02c38c]
class it.tidalwave.thesefoolishthings.examples.inmemoryfinderexample.InMemoryPersonRegistry--><a href="InMemoryPersonRegistry.html" target="_top" title="InMemoryPersonRegistry.html" xlink:actuate="onRequest" xlink:href="InMemoryPersonRegistry.html" xlink:show="new" xlink:title="InMemoryPersonRegistry.html" xlink:type="simple"><rect codeLine="5" fill="#FEFECE" filter="url(#f1pw1c1aaxhwnc)" height="72.1758" id="it.tidalwave.thesefoolishthings.examples.inmemoryfinderexample.InMemoryPersonRegistry" style="stroke: #A80036; stroke-width: 1.5;" width="354" x="7" y="139"/><ellipse cx="22" cy="158.1328" fill="#ADD1B2" rx="11" ry="11" style="stroke: #A80036; stroke-width: 1.0;"/><path d="M24.4731,164.2759 Q23.8921,164.5747 23.2529,164.7241 Q22.6138,164.8735 21.9082,164.8735 Q19.4014,164.8735 18.0815,163.2217 Q16.7617,161.5698 16.7617,158.4487 Q16.7617,155.3193 18.0815,153.6675 Q19.4014,152.0156 21.9082,152.0156 Q22.6138,152.0156 23.2612,152.165 Q23.9087,152.3145 24.4731,152.6133 L24.4731,155.3359 Q23.8423,154.7549 23.2488,154.4851 Q22.6553,154.2153 22.0244,154.2153 Q20.6797,154.2153 19.9949,155.282 Q19.3101,156.3486 19.3101,158.4487 Q19.3101,160.5405 19.9949,161.6072 Q20.6797,162.6738 22.0244,162.6738 Q22.6553,162.6738 23.2488,162.4041 Q23.8423,162.1343 24.4731,161.5532 Z "/><text fill="#000000" font-family="sans-serif" font-size="14" lengthAdjust="spacingAndGlyphs" textLength="170" x="112" y="157.5352">InMemoryPersonRegistry</text><text fill="#000000" font-family="sans-serif" font-size="10" lengthAdjust="spacingAndGlyphs" textLength="322" x="36" y="170.1563">it.tidalwave.thesefoolishthings.examples.inmemoryfinderexample</text><line style="stroke: #A80036; stroke-width: 1.5;" x1="8" x2="360" y1="177.2656" y2="177.2656"/><ellipse cx="18" cy="188.2656" fill="#84BE84" rx="3" ry="3" style="stroke: #038048; stroke-width: 1.0;"/><text fill="#000000" font-family="sans-serif" font-size="11" lengthAdjust="spacingAndGlyphs" textLength="94" x="27" y="191.9004">add(Person): void</text><ellipse cx="18" cy="201.2207" fill="#84BE84" rx="3" ry="3" style="stroke: #038048; stroke-width: 1.0;"/><text fill="#000000" font-family="sans-serif" font-size="11" lengthAdjust="spacingAndGlyphs" textLength="161" x="27" y="204.8555">findPerson(): Finder&lt;Person&gt;</text></a><!--MD5=[a24178fb498e0bff7cc0053c0892f6a5]
class it.tidalwave.thesefoolishthings.examples.person.PersonRegistry--><a href="http://tidalwave.it/projects/thesefoolishthings/modules/thesefoolishthings-examples/it-tidalwave-thesefoolishthings-examples-data/apidocs/it/tidalwave/thesefoolishthings/examples/person/PersonRegistry.html?is-external=true" target="_top" title="http://tidalwave.it/projects/thesefoolishthings/modules/thesefoolishthings-examples/it-tidalwave-thesefoolishthings-examples-data/apidocs/it/tidalwave/thesefoolishthings/examples/person/PersonRegistry.html?is-external=true" xlink:actuate="onRequest" xlink:href="http://tidalwave.it/projects/thesefoolishthings/modules/thesefoolishthings-examples/it-tidalwave-thesefoolishthings-examples-data/apidocs/it/tidalwave/thesefoolishthings/examples/person/PersonRegistry.html?is-external=true" xlink:show="new" xlink:title="http://tidalwave.it/projects/thesefoolishthings/modules/thesefoolishthings-examples/it-tidalwave-thesefoolishthings-examples-data/apidocs/it/tidalwave/thesefoolishthings/examples/person/PersonRegistry.html?is-external=true" xlink:type="simple"><rect codeLine="10" fill="#FEFECE" filter="url(#f1pw1c1aaxhwnc)" height="72.1758" id="it.tidalwave.thesefoolishthings.examples.person.PersonRegistry" style="stroke: #A80036; stroke-width: 1.5;" width="268" x="50" y="7"/><ellipse cx="65" cy="26.1328" fill="#B4A7E5" rx="11" ry="11" style="stroke: #A80036; stroke-width: 1.0;"/><path d="M61.4277,22.3979 L61.4277,20.2397 L68.8071,20.2397 L68.8071,22.3979 L66.3418,22.3979 L66.3418,30.4746 L68.8071,30.4746 L68.8071,32.6328 L61.4277,32.6328 L61.4277,30.4746 L63.8931,30.4746 L63.8931,22.3979 Z "/><text fill="#000000" font-family="sans-serif" font-size="14" font-style="italic" lengthAdjust="spacingAndGlyphs" textLength="102" x="146" y="25.5352">PersonRegistry</text><text fill="#000000" font-family="sans-serif" font-size="10" font-style="italic" lengthAdjust="spacingAndGlyphs" textLength="236" x="79" y="38.1563">it.tidalwave.thesefoolishthings.examples.person</text><line style="stroke: #A80036; stroke-width: 1.5;" x1="51" x2="317" y1="45.2656" y2="45.2656"/><ellipse cx="61" cy="56.2656" fill="#84BE84" rx="3" ry="3" style="stroke: #038048; stroke-width: 1.0;"/><text fill="#000000" font-family="sans-serif" font-size="11" font-style="italic" lengthAdjust="spacingAndGlyphs" textLength="161" x="70" y="59.9004">findPerson(): Finder&lt;Person&gt;</text><ellipse cx="61" cy="69.2207" fill="#84BE84" rx="3" ry="3" style="stroke: #038048; stroke-width: 1.0;"/><text fill="#000000" font-family="sans-serif" font-size="11" font-style="italic" lengthAdjust="spacingAndGlyphs" textLength="94" x="70" y="72.8555">add(Person): void</text></a><!--MD5=[565a0908c06784933dc86f962a2e0387]
reverse link it.tidalwave.thesefoolishthings.examples.person.PersonRegistry to it.tidalwave.thesefoolishthings.examples.inmemoryfinderexample.InMemoryPersonRegistry--><path codeLine="15" d="M184,99.3792 C184,112.7962 184,126.7553 184,138.974 " fill="none" id="it.tidalwave.thesefoolishthings.examples.person.PersonRegistry-backto-it.tidalwave.thesefoolishthings.examples.inmemoryfinderexample.InMemoryPersonRegistry" style="stroke: #A80036; stroke-width: 1.0; stroke-dasharray: 7.0,7.0;"/><polygon fill="none" points="177.0001,99.0696,184,79.0696,191.0001,99.0695,177.0001,99.0696" style="stroke: #A80036; stroke-width: 1.0;"/><text fill="#888888" font-family="sans-serif" font-size="10" lengthAdjust="spacingAndGlyphs" textLength="188" x="87" y="233.8438">UMLDoclet 2.0.12, PlantUML 1.2020.16</text><!--MD5=[ff102c2e588e7e0ba0d69912709bc6e5]
@startuml
    set namespaceSeparator none
    hide empty fields
    hide empty methods

    class "<size:14>InMemoryPersonRegistry\n<size:10>it.tidalwave.thesefoolishthings.examples.inmemoryfinderexample" as it.tidalwave.thesefoolishthings.examples.inmemoryfinderexample.InMemoryPersonRegistry [[InMemoryPersonRegistry.html]] {
        +add(Person): void
        +findPerson(): Finder<Person>
    }

    interface "<size:14>PersonRegistry\n<size:10>it.tidalwave.thesefoolishthings.examples.person" as it.tidalwave.thesefoolishthings.examples.person.PersonRegistry [[http://tidalwave.it/projects/thesefoolishthings/modules/thesefoolishthings-examples/it-tidalwave-thesefoolishthings-examples-data/apidocs/it/tidalwave/thesefoolishthings/examples/person/PersonRegistry.html?is-external=true]] {
        {abstract} +findPerson(): Finder<Person>
        {abstract} +add(Person): void
    }

    it.tidalwave.thesefoolishthings.examples.person.PersonRegistry <|.. it.tidalwave.thesefoolishthings.examples.inmemoryfinderexample.InMemoryPersonRegistry

    center footer UMLDoclet 2.0.12, PlantUML 1.2020.16
@enduml

PlantUML version 1.2020.16(Sun Aug 23 22:20:43 CEST 2020)
(APACHE source distribution)
Java Runtime: OpenJDK Runtime Environment
JVM: OpenJDK 64-Bit Server VM
Default Encoding: UTF-8
Language: en
Country: GB
--></g></svg>