@startuml
    ' Copyright to this UML and generated images belongs to the author of the corresponding Java sources.

    ' This UML was generated by UMLDoclet (C) Copyright 2016-2024 Talsma ICT.
    ' UMLDoclet 2.2.1 is licensed under the Apache License, version 2.0
    ' and contains parts of PlantUML 1.2024.7 (ASL) Copyright 2009-2024, Arnaud Roques.

    !pragma layout smetana

    set namespaceSeparator none
    hide empty fields
    hide empty methods

    class "<size:14>ActorActivatorStats\n<size:10>it.tidalwave.actor.spi" as it.tidalwave.actor.spi.ActorActivatorStats [[ActorActivatorStats.html]] {
        +changePendingMessageCount(int): void
        +incrementInvocationCount(): void
        +incrementInvocationErrorCount(): void
        +incrementSuccessfulInvocationCount(): void
    }

    interface "<size:14>ActorActivatorStatsMBean\n<size:10>it.tidalwave.actor.spi" as it.tidalwave.actor.spi.ActorActivatorStatsMBean [[ActorActivatorStatsMBean.html]] {
        {abstract} +getPoolSize(): int
        {abstract} +getPendingMessageCount(): int
        {abstract} +getInvocationCount(): int
        {abstract} +getSuccesfulInvocationCount(): int
        {abstract} +getInvocationErrorCount(): int
    }

    it.tidalwave.actor.spi.ActorActivatorStatsMBean <|.. it.tidalwave.actor.spi.ActorActivatorStats

    <style>
        footer {
            HyperLinkColor #8
            HyperLinkUnderlineThickness 0
        }
    </style>
    footer \n[[https://github.com/talsma-ict/umldoclet UMLDoclet 2.2.1]]
    ' Generated 2024-12-19T00:14:02.420916+01:00[Europe/Rome]
@enduml
