GROUP,PACKAGE,CLASS,INSTRUCTION_MISSED,INSTRUCTION_COVERED,BRANCH_MISSED,BRANCH_COVERED,LINE_MISSED,LINE_COVERED,COMPLEXITY_MISSED,COMPLEXITY_COVERED,METHOD_MISSED,METHOD_COVERED
TheseFoolishThings :: Examples :: DCI :: Persistence JPA/it-tidalwave-thesefoolishthings-examples-data,it.tidalwave.thesefoolishthings.examples.person,ListOfPersons,27,0,0,0,7,0,4,0,4,0
TheseFoolishThings :: Examples :: DCI :: Persistence JPA/it-tidalwave-thesefoolishthings-examples-data,it.tidalwave.thesefoolishthings.examples.person,DefaultPersonRegistry,18,0,0,0,5,0,3,0,3,0
TheseFoolishThings :: Examples :: DCI :: Persistence JPA/it-tidalwave-thesefoolishthings-examples-data,it.tidalwave.thesefoolishthings.examples.person,PersonRegistryHelper,8,53,0,0,2,3,1,2,1,2
TheseFoolishThings :: Examples :: DCI :: Persistence JPA/it-tidalwave-thesefoolishthings-examples-data,it.tidalwave.thesefoolishthings.examples.person,Person,0,20,0,0,0,4,0,3,0,3
TheseFoolishThings :: Examples :: DCI :: Persistence JPA/it-tidalwave-util,it.tidalwave.util.thread,ThreadAssertions,17,0,2,0,5,0,4,0,3,0
TheseFoolishThings :: Examples :: DCI :: Persistence JPA/it-tidalwave-util,it.tidalwave.util.thread,ThreadType,21,0,0,0,2,0,1,0,1,0
TheseFoolishThings :: Examples :: DCI :: Persistence JPA/it-tidalwave-util,it.tidalwave.util.ui,UserNotificationWithFeedback,80,0,0,0,14,0,10,0,10,0
TheseFoolishThings :: Examples :: DCI :: Persistence JPA/it-tidalwave-util,it.tidalwave.util.ui,UserNotification,40,0,0,0,5,0,5,0,5,0
TheseFoolishThings :: Examples :: DCI :: Persistence JPA/it-tidalwave-util,it.tidalwave.util.ui,UserNotificationWithFeedback.Feedback,32,0,4,0,8,0,6,0,4,0
TheseFoolishThings :: Examples :: DCI :: Persistence JPA/it-tidalwave-util,it.tidalwave.util.spi,DefaultProcessExecutor.DefaultConsoleOutput,261,0,26,0,61,0,20,0,7,0
TheseFoolishThings :: Examples :: DCI :: Persistence JPA/it-tidalwave-util,it.tidalwave.util.spi,FinderWithIdMapSupport,37,0,0,0,9,0,4,0,4,0
TheseFoolishThings :: Examples :: DCI :: Persistence JPA/it-tidalwave-util,it.tidalwave.util.spi,DefaultProcessExecutor.DefaultConsoleOutput.new Runnable() {...},37,0,4,0,9,0,4,0,2,0
TheseFoolishThings :: Examples :: DCI :: Persistence JPA/it-tidalwave-util,it.tidalwave.util.spi,DefaultProcessExecutor.DefaultConsoleOutput.new Runnable() {...},19,0,0,0,6,0,2,0,2,0
TheseFoolishThings :: Examples :: DCI :: Persistence JPA/it-tidalwave-util,it.tidalwave.util.spi,DefaultProcessExecutor,169,0,6,0,31,0,12,0,9,0
TheseFoolishThings :: Examples :: DCI :: Persistence JPA/it-tidalwave-util,it.tidalwave.util.spi,ArrayListCollectorSupport,17,0,0,0,5,0,6,0,6,0
TheseFoolishThings :: Examples :: DCI :: Persistence JPA/it-tidalwave-util,it.tidalwave.util.spi,HierarchicFinderSupport.Sorter,7,0,0,0,2,0,1,0,1,0
TheseFoolishThings :: Examples :: DCI :: Persistence JPA/it-tidalwave-util,it.tidalwave.util.spi,FinderWithIdSupport,62,0,0,0,12,0,8,0,8,0
TheseFoolishThings :: Examples :: DCI :: Persistence JPA/it-tidalwave-util,it.tidalwave.util.spi,SimpleFinderSupport,4,5,0,0,2,2,1,1,1,1
TheseFoolishThings :: Examples :: DCI :: Persistence JPA/it-tidalwave-util,it.tidalwave.util.spi,HierarchicFinderSupport,144,189,3,5,29,37,11,13,9,11
TheseFoolishThings :: Examples :: DCI :: Persistence JPA/it-tidalwave-util,it.tidalwave.role.spi,OwnerRoleFactoryProvider,0,4,0,0,0,1,0,1,0,1
TheseFoolishThings :: Examples :: DCI :: Persistence JPA/it-tidalwave-util,it.tidalwave.role.spi,SystemRoleFactory.Inner,3,12,0,0,1,4,1,2,1,2
TheseFoolishThings :: Examples :: DCI :: Persistence JPA/it-tidalwave-util,it.tidalwave.role.spi,OwnerRoleFactoryProvider.Inner,3,4,0,0,1,2,1,1,1,1
TheseFoolishThings :: Examples :: DCI :: Persistence JPA/it-tidalwave-util,it.tidalwave.role.spi,SystemRoleFactory,0,16,0,0,0,6,0,4,0,4
TheseFoolishThings :: Examples :: DCI :: Persistence JPA/it-tidalwave-util,it.tidalwave.role.spi,SystemRoleFactorySupport,13,493,3,43,4,93,4,34,1,14
TheseFoolishThings :: Examples :: DCI :: Persistence JPA/it-tidalwave-util,it.tidalwave.util.impl.finder,ArrayListFinder,0,31,0,0,0,8,0,3,0,3
TheseFoolishThings :: Examples :: DCI :: Persistence JPA/it-tidalwave-util,it.tidalwave.util.impl.finder,MappingFinder,0,39,0,0,0,10,0,3,0,3
TheseFoolishThings :: Examples :: DCI :: Persistence JPA/it-tidalwave-util,it.tidalwave.util.impl.finder,SupplierFinder,15,14,0,0,4,4,1,2,1,2
TheseFoolishThings :: Examples :: DCI :: Persistence JPA/it-tidalwave-util,it.tidalwave.util.impl.finder,ProviderFinder,0,35,0,0,0,8,0,3,0,3
TheseFoolishThings :: Examples :: DCI :: Persistence JPA/it-tidalwave-util,it.tidalwave.role.impl,DefaultContextManagerProvider,0,7,0,0,0,2,0,2,0,2
TheseFoolishThings :: Examples :: DCI :: Persistence JPA/it-tidalwave-util,it.tidalwave.role.impl,ContextSnapshot,0,51,0,2,0,10,0,6,0,5
TheseFoolishThings :: Examples :: DCI :: Persistence JPA/it-tidalwave-util,it.tidalwave.role.impl,DefaultSystemRoleFactory,0,3,0,0,0,1,0,1,0,1
TheseFoolishThings :: Examples :: DCI :: Persistence JPA/it-tidalwave-util,it.tidalwave.role.impl,DefaultContextManager,14,126,3,5,5,29,3,10,0,9
TheseFoolishThings :: Examples :: DCI :: Persistence JPA/it-tidalwave-util,it.tidalwave.role.impl,ServiceLoaderLocator,31,88,5,7,4,20,4,8,0,6
TheseFoolishThings :: Examples :: DCI :: Persistence JPA/it-tidalwave-util,it.tidalwave.role.impl,AsDelegate,33,151,1,13,6,30,4,14,3,8
TheseFoolishThings :: Examples :: DCI :: Persistence JPA/it-tidalwave-util,it.tidalwave.role.impl,OwnerAndRole,0,71,0,4,0,8,0,4,0,2
TheseFoolishThings :: Examples :: DCI :: Persistence JPA/it-tidalwave-util,it.tidalwave.role.impl,MultiMap,0,50,0,6,0,13,0,8,0,5
TheseFoolishThings :: Examples :: DCI :: Persistence JPA/it-tidalwave-util,it.tidalwave.role.impl,DefaultOwnerRoleFactory,0,62,0,2,0,13,0,4,0,3
TheseFoolishThings :: Examples :: DCI :: Persistence JPA/it-tidalwave-util,it.tidalwave.role.impl,DefaultOwnerRoleFactoryProvider,0,8,0,0,0,2,0,2,0,2
TheseFoolishThings :: Examples :: DCI :: Persistence JPA/it-tidalwave-util,it.tidalwave.role.impl,DefaultOwnerRoleFactory.new Task() {...},0,17,0,0,0,2,0,2,0,2
TheseFoolishThings :: Examples :: DCI :: Persistence JPA/it-tidalwave-util,it.tidalwave.role.impl,DefaultSystemRoleFactoryProvider,0,7,0,0,0,2,0,2,0,2
TheseFoolishThings :: Examples :: DCI :: Persistence JPA/it-tidalwave-util,it.tidalwave.role.impl,DefaultContextManager.new ThreadLocal() {...},0,10,0,0,0,2,0,2,0,2
TheseFoolishThings :: Examples :: DCI :: Persistence JPA/it-tidalwave-util,it.tidalwave.util,Initializer.EmptyInitializer,5,0,0,0,2,0,2,0,2,0
TheseFoolishThings :: Examples :: DCI :: Persistence JPA/it-tidalwave-util,it.tidalwave.util,NamedCallback,3,0,0,0,1,0,1,0,1,0
TheseFoolishThings :: Examples :: DCI :: Persistence JPA/it-tidalwave-util,it.tidalwave.util,ContextManager.Inner,3,12,0,0,1,4,1,2,1,2
TheseFoolishThings :: Examples :: DCI :: Persistence JPA/it-tidalwave-util,it.tidalwave.util,Finder.SortCriterion,8,0,0,0,3,0,2,0,2,0
TheseFoolishThings :: Examples :: DCI :: Persistence JPA/it-tidalwave-util,it.tidalwave.util,CollectionUtils,9,138,0,10,1,27,1,14,1,9
TheseFoolishThings :: Examples :: DCI :: Persistence JPA/it-tidalwave-util,it.tidalwave.util,Finder,99,21,6,0,19,4,18,4,15,4
TheseFoolishThings :: Examples :: DCI :: Persistence JPA/it-tidalwave-util,it.tidalwave.util,Initializer,4,0,0,0,1,0,1,0,1,0
TheseFoolishThings :: Examples :: DCI :: Persistence JPA/it-tidalwave-util,it.tidalwave.util,ContextManager,27,63,0,0,6,14,4,9,4,9
TheseFoolishThings :: Examples :: DCI :: Persistence JPA/it-tidalwave-util,it.tidalwave.util,LazySupplier,0,40,1,5,0,9,1,6,0,4
TheseFoolishThings :: Examples :: DCI :: Persistence JPA/it-tidalwave-util,it.tidalwave.util,Callback,4,0,0,0,1,0,2,0,2,0
TheseFoolishThings :: Examples :: DCI :: Persistence JPA/it-tidalwave-util,it.tidalwave.util,DuplicateException,7,0,0,0,4,0,2,0,2,0
TheseFoolishThings :: Examples :: DCI :: Persistence JPA/it-tidalwave-util,it.tidalwave.util,Finder.InMemorySortCriterion,17,0,0,0,4,0,3,0,3,0
TheseFoolishThings :: Examples :: DCI :: Persistence JPA/it-tidalwave-util,it.tidalwave.util,Finder.SortDirection,20,0,0,0,3,0,2,0,2,0
TheseFoolishThings :: Examples :: DCI :: Persistence JPA/it-tidalwave-util,it.tidalwave.util,Finder.InMemorySortCriterion.DefaultInMemorySortCriterion,15,0,0,0,2,0,2,0,2,0
TheseFoolishThings :: Examples :: DCI :: Persistence JPA/it-tidalwave-util,it.tidalwave.util,FunctionalCheckedExceptionWrappers,11,64,0,4,6,23,2,11,2,9
TheseFoolishThings :: Examples :: DCI :: Persistence JPA/it-tidalwave-util,it.tidalwave.util,Pair.Factory,0,29,0,0,0,4,0,3,0,3
TheseFoolishThings :: Examples :: DCI :: Persistence JPA/it-tidalwave-util,it.tidalwave.util,IdFactory,32,0,0,0,6,0,5,0,5,0
TheseFoolishThings :: Examples :: DCI :: Persistence JPA/it-tidalwave-util,it.tidalwave.util,Triple,0,30,0,0,0,4,0,5,0,5
TheseFoolishThings :: Examples :: DCI :: Persistence JPA/it-tidalwave-util,it.tidalwave.util,As.Type,0,3,0,0,0,1,0,1,0,1
TheseFoolishThings :: Examples :: DCI :: Persistence JPA/it-tidalwave-util,it.tidalwave.util,TimeProvider.DefaultTimeProvider,0,5,0,0,0,2,0,2,0,2
TheseFoolishThings :: Examples :: DCI :: Persistence JPA/it-tidalwave-util,it.tidalwave.util,AsExtensions,23,13,0,0,5,3,5,3,5,3
TheseFoolishThings :: Examples :: DCI :: Persistence JPA/it-tidalwave-util,it.tidalwave.util,PreferencesHandler,20,0,0,0,6,0,3,0,3,0
TheseFoolishThings :: Examples :: DCI :: Persistence JPA/it-tidalwave-util,it.tidalwave.util,AsException,6,5,0,0,2,2,1,1,1,1
TheseFoolishThings :: Examples :: DCI :: Persistence JPA/it-tidalwave-util,it.tidalwave.util,PreferencesHandler.Inner,7,0,0,0,2,0,2,0,2,0
TheseFoolishThings :: Examples :: DCI :: Persistence JPA/it-tidalwave-util,it.tidalwave.util,ContextManager.Binder,0,51,0,4,0,9,0,4,0,2
TheseFoolishThings :: Examples :: DCI :: Persistence JPA/it-tidalwave-util,it.tidalwave.util,ShortNames,11,206,3,17,3,40,4,15,1,8
TheseFoolishThings :: Examples :: DCI :: Persistence JPA/it-tidalwave-util,it.tidalwave.util,StreamUtils,2,88,2,2,0,16,2,4,0,4
TheseFoolishThings :: Examples :: DCI :: Persistence JPA/it-tidalwave-util,it.tidalwave.util,SimpleTask,3,0,0,0,1,0,1,0,1,0
TheseFoolishThings :: Examples :: DCI :: Persistence JPA/it-tidalwave-util,it.tidalwave.util,BundleUtilities,0,28,0,2,0,5,0,3,0,2
TheseFoolishThings :: Examples :: DCI :: Persistence JPA/it-tidalwave-util,it.tidalwave.util,Task,37,21,0,0,7,3,5,1,5,1
TheseFoolishThings :: Examples :: DCI :: Persistence JPA/it-tidalwave-util,it.tidalwave.util,Id,9,22,1,1,1,4,2,4,1,4
TheseFoolishThings :: Examples :: DCI :: Persistence JPA/it-tidalwave-util,it.tidalwave.util,ReflectionUtils,87,208,13,21,22,46,12,12,1,6
TheseFoolishThings :: Examples :: DCI :: Persistence JPA/it-tidalwave-util,it.tidalwave.util,StreamUtils.new Spliterators.AbstractSpliterator() {...},0,37,0,4,0,5,0,4,0,2
TheseFoolishThings :: Examples :: DCI :: Persistence JPA/it-tidalwave-util,it.tidalwave.util,As,14,41,1,1,2,6,3,7,2,7
TheseFoolishThings :: Examples :: DCI :: Persistence JPA/it-tidalwave-util,it.tidalwave.util,TypeSafeMultiMap,0,10,0,0,0,2,0,2,0,2
TheseFoolishThings :: Examples :: DCI :: Persistence JPA/it-tidalwave-util,it.tidalwave.util,Task.new Task() {...},11,0,0,0,3,0,2,0,2,0
TheseFoolishThings :: Examples :: DCI :: Persistence JPA/it-tidalwave-util,it.tidalwave.util,Pair,18,163,0,0,3,20,3,29,3,29
TheseFoolishThings :: Examples :: DCI :: Persistence JPA/it-tidalwave-util,it.tidalwave.util,TypeSafeMap,0,18,0,0,0,5,0,3,0,3
TheseFoolishThings :: Examples :: DCI :: Persistence JPA/it-tidalwave-util,it.tidalwave.util,NotFoundException,44,18,10,2,13,7,10,4,5,3
TheseFoolishThings :: Examples :: DCI :: Persistence JPA/it-tidalwave-util,it.tidalwave.util,Parameters,75,44,10,6,12,9,8,4,2,2
TheseFoolishThings :: Examples :: DCI :: Persistence JPA/it-tidalwave-util,it.tidalwave.util,Key,12,61,0,2,4,12,3,7,3,6
TheseFoolishThings :: Examples :: DCI :: Persistence JPA/it-tidalwave-util,it.tidalwave.util,LocalizedDateTimeFormatters,0,16,0,0,0,3,0,1,0,1
TheseFoolishThings :: Examples :: DCI :: Persistence JPA/it-tidalwave-util,it.tidalwave.util,TimeProvider,3,33,1,1,1,7,2,4,1,4
TheseFoolishThings :: Examples :: DCI :: Persistence JPA/it-tidalwave-util,it.tidalwave.util,Task.new Task() {...},10,0,0,0,2,0,2,0,2,0
TheseFoolishThings :: Examples :: DCI :: Persistence JPA/it-tidalwave-util,it.tidalwave.util,Task.new Task() {...},11,0,0,0,3,0,2,0,2,0
TheseFoolishThings :: Examples :: DCI :: Persistence JPA/it-tidalwave-util,it.tidalwave.util,ConcurrentHashMapWithOptionals,0,24,0,2,0,3,0,5,0,4
TheseFoolishThings :: Examples :: DCI :: Persistence JPA/it-tidalwave-util,it.tidalwave.util.impl,TypeSafeHashMap,13,78,0,0,3,17,3,10,3,10
TheseFoolishThings :: Examples :: DCI :: Persistence JPA/it-tidalwave-util,it.tidalwave.util.impl,TypeSafeHashMultiMap,13,86,0,2,3,20,3,11,3,10
TheseFoolishThings :: Examples :: DCI :: Persistence JPA/it-tidalwave-util,it.tidalwave.util.impl,DefaultPreferencesHandler,135,0,8,0,31,0,9,0,4,0
TheseFoolishThings :: Examples :: DCI :: Persistence JPA/it-tidalwave-role-spring,it.tidalwave.util.spring,ClassScanner,0,74,0,4,0,14,0,7,0,5
TheseFoolishThings :: Examples :: DCI :: Persistence JPA/it-tidalwave-role-spring,it.tidalwave.role.spring.spi,DciContextWithAutoThreadBindingAspect.new Task() {...},0,13,0,0,0,2,0,2,0,2
TheseFoolishThings :: Examples :: DCI :: Persistence JPA/it-tidalwave-role-spring,it.tidalwave.role.spring.spi,DciContextWithAutoThreadBindingAspect,15,47,4,4,0,9,4,5,1,4
TheseFoolishThings :: Examples :: DCI :: Persistence JPA/it-tidalwave-role-spring,it.tidalwave.role.spring.spi,SpringSystemRoleFactoryProvider,0,7,0,0,0,2,0,2,0,2
TheseFoolishThings :: Examples :: DCI :: Persistence JPA/it-tidalwave-role-spring,it.tidalwave.role.spring.spi,AnnotationSpringSystemRoleFactory,12,85,11,11,1,5,12,3,1,3
TheseFoolishThings :: Examples :: DCI :: Persistence JPA/it-tidalwave-role-spring,it.tidalwave.role.spring,RoleSpringConfiguration,0,10,0,0,0,4,0,4,0,4
TheseFoolishThings :: Examples :: DCI :: Persistence JPA/it-tidalwave-role,it.tidalwave.role.ui,MutableDisplayable,13,0,0,0,3,0,3,0,3,0
TheseFoolishThings :: Examples :: DCI :: Persistence JPA/it-tidalwave-role,it.tidalwave.role.ui,UserActionProvider,0,15,0,0,0,5,0,3,0,3
TheseFoolishThings :: Examples :: DCI :: Persistence JPA/it-tidalwave-role,it.tidalwave.role.ui,MutableLocalizedDisplayable,13,0,0,0,3,0,3,0,3,0
TheseFoolishThings :: Examples :: DCI :: Persistence JPA/it-tidalwave-role,it.tidalwave.role.ui,Selectable,3,0,0,0,1,0,1,0,1,0
TheseFoolishThings :: Examples :: DCI :: Persistence JPA/it-tidalwave-role,it.tidalwave.role.ui,Visible,11,0,0,0,3,0,3,0,3,0
TheseFoolishThings :: Examples :: DCI :: Persistence JPA/it-tidalwave-role,it.tidalwave.role.ui,MutableIconProvider,3,0,0,0,1,0,1,0,1,0
TheseFoolishThings :: Examples :: DCI :: Persistence JPA/it-tidalwave-role,it.tidalwave.role.ui,PresentationModelFactory,5,3,0,0,1,1,1,1,1,1
TheseFoolishThings :: Examples :: DCI :: Persistence JPA/it-tidalwave-role,it.tidalwave.role.ui,PresentationModel,35,40,0,0,7,9,4,5,4,5
TheseFoolishThings :: Examples :: DCI :: Persistence JPA/it-tidalwave-role,it.tidalwave.role.ui,Displayable,32,20,0,0,7,4,7,3,7,3
TheseFoolishThings :: Examples :: DCI :: Persistence JPA/it-tidalwave-role,it.tidalwave.role.ui,UserActionProvider.new UserActionProvider() {...},0,23,0,2,0,5,0,4,0,3
TheseFoolishThings :: Examples :: DCI :: Persistence JPA/it-tidalwave-role,it.tidalwave.role.ui,Styleable,13,0,0,0,3,0,3,0,3,0
TheseFoolishThings :: Examples :: DCI :: Persistence JPA/it-tidalwave-role,it.tidalwave.role.ui,UserAction,19,3,0,0,4,1,3,1,3,1
TheseFoolishThings :: Examples :: DCI :: Persistence JPA/it-tidalwave-role,it.tidalwave.role.ui,LocalizedDisplayable,3,0,0,0,1,0,1,0,1,0
TheseFoolishThings :: Examples :: DCI :: Persistence JPA/it-tidalwave-role,it.tidalwave.role.ui,BoundProperty,75,0,4,0,15,0,9,0,7,0
TheseFoolishThings :: Examples :: DCI :: Persistence JPA/it-tidalwave-role,it.tidalwave.role.ui,PresentationModelAggregate,25,0,0,0,4,0,4,0,4,0
TheseFoolishThings :: Examples :: DCI :: Persistence JPA/it-tidalwave-role,it.tidalwave.role.ui,IconProvider.new IconProvider() {...},17,0,0,0,3,0,2,0,2,0
TheseFoolishThings :: Examples :: DCI :: Persistence JPA/it-tidalwave-role,it.tidalwave.role.ui,Presentable,23,3,0,0,4,1,3,1,3,1
TheseFoolishThings :: Examples :: DCI :: Persistence JPA/it-tidalwave-role,it.tidalwave.role.ui,ActionProvider,3,0,0,0,1,0,1,0,1,0
TheseFoolishThings :: Examples :: DCI :: Persistence JPA/it-tidalwave-role,it.tidalwave.role.ui,IconProvider,7,0,0,0,2,0,1,0,1,0
TheseFoolishThings :: Examples :: DCI :: Persistence JPA/it-tidalwave-role,it.tidalwave.role.io,Unmarshallable,3,0,0,0,1,0,1,0,1,0
TheseFoolishThings :: Examples :: DCI :: Persistence JPA/it-tidalwave-role,it.tidalwave.role.io,BinaryWritable.new BinaryWritable() {...},8,0,0,0,2,0,2,0,2,0
TheseFoolishThings :: Examples :: DCI :: Persistence JPA/it-tidalwave-role,it.tidalwave.role.io,TextReadable,7,0,0,0,2,0,1,0,1,0
TheseFoolishThings :: Examples :: DCI :: Persistence JPA/it-tidalwave-role,it.tidalwave.role.io,Persistable,0,3,0,0,0,1,0,1,0,1
TheseFoolishThings :: Examples :: DCI :: Persistence JPA/it-tidalwave-role,it.tidalwave.role.io,TextWritable.new TextWritable() {...},8,0,0,0,2,0,2,0,2,0
TheseFoolishThings :: Examples :: DCI :: Persistence JPA/it-tidalwave-role,it.tidalwave.role.io,TextReadable.new TextReadable() {...},8,0,0,0,2,0,2,0,2,0
TheseFoolishThings :: Examples :: DCI :: Persistence JPA/it-tidalwave-role,it.tidalwave.role.io,TextWritable,7,0,0,0,2,0,1,0,1,0
TheseFoolishThings :: Examples :: DCI :: Persistence JPA/it-tidalwave-role,it.tidalwave.role.io,BinaryReadable.new BinaryReadable() {...},8,0,0,0,2,0,2,0,2,0
TheseFoolishThings :: Examples :: DCI :: Persistence JPA/it-tidalwave-role,it.tidalwave.role.io,Marshallable,3,0,0,0,1,0,1,0,1,0
TheseFoolishThings :: Examples :: DCI :: Persistence JPA/it-tidalwave-role,it.tidalwave.role.io,BinaryReadable,7,0,0,0,2,0,1,0,1,0
TheseFoolishThings :: Examples :: DCI :: Persistence JPA/it-tidalwave-role,it.tidalwave.role.io,BinaryWritable,7,0,0,0,2,0,1,0,1,0
TheseFoolishThings :: Examples :: DCI :: Persistence JPA/it-tidalwave-role,it.tidalwave.role.io.spi,PathTextWritable,27,0,0,0,8,0,3,0,3,0
TheseFoolishThings :: Examples :: DCI :: Persistence JPA/it-tidalwave-role,it.tidalwave.role.io.spi,PathBinaryWritable,15,0,0,0,5,0,2,0,2,0
TheseFoolishThings :: Examples :: DCI :: Persistence JPA/it-tidalwave-role,it.tidalwave.role.io.spi,PathTextReadable,20,0,0,0,7,0,3,0,3,0
TheseFoolishThings :: Examples :: DCI :: Persistence JPA/it-tidalwave-role,it.tidalwave.role.io.spi,PathBinaryReadable,15,0,0,0,5,0,2,0,2,0
TheseFoolishThings :: Examples :: DCI :: Persistence JPA/it-tidalwave-role,it.tidalwave.role.ui.function,UnaryBoundFunctionSupport,35,0,0,0,10,0,4,0,4,0
TheseFoolishThings :: Examples :: DCI :: Persistence JPA/it-tidalwave-role,it.tidalwave.role.ui.function,AndFunction,35,0,4,0,7,0,5,0,3,0
TheseFoolishThings :: Examples :: DCI :: Persistence JPA/it-tidalwave-role,it.tidalwave.role.ui.function,OrFunction,35,0,4,0,7,0,5,0,3,0
TheseFoolishThings :: Examples :: DCI :: Persistence JPA/it-tidalwave-role,it.tidalwave.role.ui.function,NonEmptyFunction,38,0,4,0,8,0,6,0,4,0
TheseFoolishThings :: Examples :: DCI :: Persistence JPA/it-tidalwave-role,it.tidalwave.role.ui.function,BooleanBoundFunctionSupport.new PropertyChangeListener() {...},28,0,0,0,5,0,2,0,2,0
TheseFoolishThings :: Examples :: DCI :: Persistence JPA/it-tidalwave-role,it.tidalwave.role.ui.function,BoundFunctionSupport,48,0,2,0,9,0,5,0,4,0
TheseFoolishThings :: Examples :: DCI :: Persistence JPA/it-tidalwave-role,it.tidalwave.role.ui.function,WeakCopyFunctionSupport,35,0,2,0,12,0,6,0,5,0
TheseFoolishThings :: Examples :: DCI :: Persistence JPA/it-tidalwave-role,it.tidalwave.role.ui.function,BooleanBoundFunctionSupport,40,0,2,0,8,0,3,0,2,0
TheseFoolishThings :: Examples :: DCI :: Persistence JPA/it-tidalwave-role,it.tidalwave.role.ui.function,CopyIfEmptyOrConform,23,0,4,0,4,0,5,0,3,0
TheseFoolishThings :: Examples :: DCI :: Persistence JPA/it-tidalwave-role,it.tidalwave.role.impl,DefaultSimpleComposite,0,3,0,0,0,1,0,1,0,1
TheseFoolishThings :: Examples :: DCI :: Persistence JPA/it-tidalwave-role,it.tidalwave.role.impl,DefaultIdentifiable,16,0,0,0,1,0,1,0,1,0
TheseFoolishThings :: Examples :: DCI :: Persistence JPA/it-tidalwave-role,it.tidalwave.role.impl,MapAggregate,42,0,0,0,11,0,5,0,5,0
TheseFoolishThings :: Examples :: DCI :: Persistence JPA/it-tidalwave-role,it.tidalwave.role.ui.impl,DisplayableComparator,0,17,0,0,0,4,0,4,0,4
TheseFoolishThings :: Examples :: DCI :: Persistence JPA/it-tidalwave-role,it.tidalwave.role.ui.impl,DefaultUserAction,39,0,0,0,13,0,4,0,4,0
TheseFoolishThings :: Examples :: DCI :: Persistence JPA/it-tidalwave-role,it.tidalwave.role.ui.impl,DefaultStyleable,24,0,0,0,7,0,3,0,3,0
TheseFoolishThings :: Examples :: DCI :: Persistence JPA/it-tidalwave-role,it.tidalwave.role.ui.impl,DefaultPresentable,5,0,0,0,1,0,1,0,1,0
TheseFoolishThings :: Examples :: DCI :: Persistence JPA/it-tidalwave-role,it.tidalwave.role.ui.impl,DefaultPresentationModel,90,65,8,6,19,17,10,7,5,5
TheseFoolishThings :: Examples :: DCI :: Persistence JPA/it-tidalwave-role,it.tidalwave.role.ui.impl,AsDisplayableComparator,0,20,0,0,0,3,0,3,0,3
TheseFoolishThings :: Examples :: DCI :: Persistence JPA/it-tidalwave-role,it.tidalwave.role.ui.impl,DefaultMutableDisplayable,135,0,0,0,30,0,12,0,12,0
TheseFoolishThings :: Examples :: DCI :: Persistence JPA/it-tidalwave-role,it.tidalwave.role.ui.impl,DefaultDisplayable,17,48,0,0,3,11,3,4,3,4
TheseFoolishThings :: Examples :: DCI :: Persistence JPA/it-tidalwave-role,it.tidalwave.role,PlainTextRenderable,16,0,0,0,5,0,3,0,3,0
TheseFoolishThings :: Examples :: DCI :: Persistence JPA/it-tidalwave-role,it.tidalwave.role,Sortable,7,0,0,0,2,0,1,0,1,0
TheseFoolishThings :: Examples :: DCI :: Persistence JPA/it-tidalwave-role,it.tidalwave.role,Aggregate,28,0,0,0,6,0,6,0,6,0
TheseFoolishThings :: Examples :: DCI :: Persistence JPA/it-tidalwave-role,it.tidalwave.role,Composite.new Composite() {...},2,3,0,0,1,1,1,1,1,1
TheseFoolishThings :: Examples :: DCI :: Persistence JPA/it-tidalwave-role,it.tidalwave.role,Removable,6,0,0,0,2,0,2,0,2,0
TheseFoolishThings :: Examples :: DCI :: Persistence JPA/it-tidalwave-role,it.tidalwave.role,StringRenderable,16,0,0,0,5,0,3,0,3,0
TheseFoolishThings :: Examples :: DCI :: Persistence JPA/it-tidalwave-role,it.tidalwave.role,HtmlRenderable,3,0,0,0,1,0,1,0,1,0
TheseFoolishThings :: Examples :: DCI :: Persistence JPA/it-tidalwave-role,it.tidalwave.role,Identifiable,8,0,0,0,2,0,2,0,2,0
TheseFoolishThings :: Examples :: DCI :: Persistence JPA/it-tidalwave-role,it.tidalwave.role,Composite.Visitor,5,0,0,0,4,0,4,0,4,0
TheseFoolishThings :: Examples :: DCI :: Persistence JPA/it-tidalwave-role,it.tidalwave.role,Sortable.new Sortable() {...},9,0,0,0,5,0,5,0,5,0
TheseFoolishThings :: Examples :: DCI :: Persistence JPA/it-tidalwave-role,it.tidalwave.role,SimpleComposite,0,12,0,0,0,3,0,3,0,3
TheseFoolishThings :: Examples :: DCI :: Persistence JPA/it-tidalwave-role,it.tidalwave.role,Composite,9,7,0,0,3,2,2,1,2,1
TheseFoolishThings :: Examples :: DCI :: Persistence JPA/it-tidalwave-role,it.tidalwave.role.ui.spi,SimpleCompositePresentable.SCPFinder.new Task() {...},0,52,0,0,0,8,0,6,0,6
TheseFoolishThings :: Examples :: DCI :: Persistence JPA/it-tidalwave-role,it.tidalwave.role.ui.spi,SimpleCompositePresentable.new Task() {...},0,51,0,2,0,6,0,3,0,2
TheseFoolishThings :: Examples :: DCI :: Persistence JPA/it-tidalwave-role,it.tidalwave.role.ui.spi,PresentationModelCollectors,73,0,0,0,11,0,9,0,9,0
TheseFoolishThings :: Examples :: DCI :: Persistence JPA/it-tidalwave-role,it.tidalwave.role.ui.spi,SimpleCompositePresentable,0,84,0,4,0,19,0,8,0,6
TheseFoolishThings :: Examples :: DCI :: Persistence JPA/it-tidalwave-role,it.tidalwave.role.ui.spi,DefaultUserActionProvider,0,10,0,0,0,3,0,3,0,3
TheseFoolishThings :: Examples :: DCI :: Persistence JPA/it-tidalwave-role,it.tidalwave.role.ui.spi,MutableIconProviderSupport,27,0,0,0,9,0,5,0,5,0
TheseFoolishThings :: Examples :: DCI :: Persistence JPA/it-tidalwave-role,it.tidalwave.role.ui.spi,DefaultPresentationModelFactory,0,9,0,0,0,2,0,2,0,2
TheseFoolishThings :: Examples :: DCI :: Persistence JPA/it-tidalwave-role,it.tidalwave.role.ui.spi,ActionProviderSupport,10,0,0,0,3,0,3,0,3,0
TheseFoolishThings :: Examples :: DCI :: Persistence JPA/it-tidalwave-role,it.tidalwave.role.ui.spi,SimpleCompositePresentable.SCPFinder,19,10,0,0,5,1,1,1,1,1
