@startuml
    namespace it.tidalwave.role.spring {

        class RoleSpringConfiguration [[RoleSpringConfiguration.html]] {
            {static} +BEANS: String
            +roleManager(): RoleManager
            +contextManager(): ContextManager
        }

    }

    center footer UMLDoclet 2.0.12, PlantUML 1.2020.16
@enduml
