<?xml version="1.0" encoding="UTF-8" standalone="no"?><svg xmlns="http://www.w3.org/2000/svg" xmlns:xlink="http://www.w3.org/1999/xlink" contentScriptType="application/ecmascript" contentStyleType="text/css" height="234px" preserveAspectRatio="none" style="width:294px;height:234px;" version="1.1" viewBox="0 0 294 234" width="294px" zoomAndPan="magnify"><defs><filter height="300%" id="f1gq2ofeir1g37" width="300%" x="-1" y="-1"><feGaussianBlur result="blurOut" stdDeviation="2.0"/><feColorMatrix in="blurOut" result="blurOut2" type="matrix" values="0 0 0 0 0 0 0 0 0 0 0 0 0 0 0 0 0 0 .4 0"/><feOffset dx="4.0" dy="4.0" in="blurOut2" result="blurOut3"/><feBlend in="SourceGraphic" in2="blurOut3" mode="normal"/></filter></defs><g><!--MD5=[2ed00a69b476e19abf845fe0d2708ad9]
class it.tidalwave.util.As.Type--><a href="As.Type.html" target="_top" title="As.Type.html" xlink:actuate="onRequest" xlink:href="As.Type.html" xlink:show="new" xlink:title="As.Type.html" xlink:type="simple"><rect codeLine="5" fill="#FEFECE" filter="url(#f1gq2ofeir1g37)" height="59.2207" id="it.tidalwave.util.As.Type" style="stroke: #A80036; stroke-width: 1.5;" width="137" x="72.5" y="139"/><ellipse cx="95.15" cy="158.1328" fill="#ADD1B2" rx="11" ry="11" style="stroke: #A80036; stroke-width: 1.0;"/><path d="M97.6231,164.2759 Q97.0421,164.5747 96.4029,164.7241 Q95.7638,164.8735 95.0582,164.8735 Q92.5514,164.8735 91.2315,163.2217 Q89.9117,161.5698 89.9117,158.4487 Q89.9117,155.3193 91.2315,153.6675 Q92.5514,152.0156 95.0582,152.0156 Q95.7638,152.0156 96.4112,152.165 Q97.0587,152.3145 97.6231,152.6133 L97.6231,155.3359 Q96.9923,154.7549 96.3988,154.4851 Q95.8053,154.2153 95.1744,154.2153 Q93.8297,154.2153 93.1449,155.282 Q92.4601,156.3486 92.4601,158.4487 Q92.4601,160.5405 93.1449,161.6072 Q93.8297,162.6738 95.1744,162.6738 Q95.8053,162.6738 96.3988,162.4041 Q96.9923,162.1343 97.6231,161.5532 Z "/><text fill="#000000" font-family="sans-serif" font-size="14" lengthAdjust="spacingAndGlyphs" textLength="54" x="121.85" y="157.5352">As.Type</text><text fill="#000000" font-family="sans-serif" font-size="10" lengthAdjust="spacingAndGlyphs" textLength="76" x="110.85" y="170.1563">it.tidalwave.util</text><rect fill="#FFFFFF" height="16.1328" style="stroke: #000000; stroke-width: 1.0; stroke-dasharray: 2.0,2.0;" width="10" x="202.5" y="136"/><text fill="#000000" font-family="sans-serif" font-size="12" font-style="italic" lengthAdjust="spacingAndGlyphs" textLength="8" x="203.5" y="148.6016">T</text><line style="stroke: #A80036; stroke-width: 1.5;" x1="73.5" x2="208.5" y1="177.2656" y2="177.2656"/><polygon fill="#FFFF44" points="83.5,183.2656,87.5,187.2656,83.5,191.2656,79.5,187.2656" style="stroke: #B38D22; stroke-width: 1.0;"/><text fill="#000000" font-family="sans-serif" font-size="11" lengthAdjust="spacingAndGlyphs" textLength="111" x="92.5" y="191.9004">getType(): Class&lt;T&gt;</text></a><!--MD5=[dab04e1bf87902def4158d0914d2f9d5]
class it.tidalwave.util.As--><a href="As.html" target="_top" title="As.html" xlink:actuate="onRequest" xlink:href="As.html" xlink:show="new" xlink:title="As.html" xlink:type="simple"><rect codeLine="9" fill="#FEFECE" filter="url(#f1gq2ofeir1g37)" height="72.1758" id="it.tidalwave.util.As" style="stroke: #A80036; stroke-width: 1.5;" width="268" x="7" y="7"/><ellipse cx="98.75" cy="26.1328" fill="#B4A7E5" rx="11" ry="11" style="stroke: #A80036; stroke-width: 1.0;"/><path d="M95.1777,22.3979 L95.1777,20.2397 L102.5571,20.2397 L102.5571,22.3979 L100.0918,22.3979 L100.0918,30.4746 L102.5571,30.4746 L102.5571,32.6328 L95.1777,32.6328 L95.1777,30.4746 L97.6431,30.4746 L97.6431,22.3979 Z "/><text fill="#000000" font-family="sans-serif" font-size="14" font-style="italic" lengthAdjust="spacingAndGlyphs" textLength="17" x="148.75" y="25.5352">As</text><text fill="#000000" font-family="sans-serif" font-size="10" font-style="italic" lengthAdjust="spacingAndGlyphs" textLength="76" x="119.25" y="38.1563">it.tidalwave.util</text><line style="stroke: #A80036; stroke-width: 1.5;" x1="8" x2="274" y1="45.2656" y2="45.2656"/><ellipse cx="18" cy="56.2656" fill="#84BE84" rx="3" ry="3" style="stroke: #038048; stroke-width: 1.0;"/><text fill="#000000" font-family="sans-serif" font-size="11" font-style="italic" lengthAdjust="spacingAndGlyphs" textLength="242" x="27" y="59.9004">maybeAs(Class&lt;? extends T&gt;): Optional&lt;T&gt;</text><ellipse cx="18" cy="69.2207" fill="#84BE84" rx="3" ry="3" style="stroke: #038048; stroke-width: 1.0;"/><text fill="#000000" font-family="sans-serif" font-size="11" font-style="italic" lengthAdjust="spacingAndGlyphs" textLength="241" x="27" y="72.8555">asMany(Class&lt;? extends T&gt;): Collection&lt;T&gt;</text></a><!--MD5=[fca37a36938f99520e5f7a8fe75571de]
reverse link it.tidalwave.util.As to it.tidalwave.util.As.Type--><path codeLine="14" d="M141,94.4816 C141,109.5041 141,125.4176 141,138.624 " fill="none" id="it.tidalwave.util.As-backto-it.tidalwave.util.As.Type" style="stroke: #A80036; stroke-width: 1.0;"/><ellipse cx="141" cy="87.2998" fill="#FFFFFF" rx="8" ry="8" style="stroke: #A80036; stroke-width: 1.0;"/><line style="stroke: #A80036; stroke-width: 1.0;" x1="141" x2="141" y1="95.2998" y2="79.2998"/><line style="stroke: #A80036; stroke-width: 1.0;" x1="133" x2="149" y1="87.2998" y2="87.2998"/><text fill="#888888" font-family="sans-serif" font-size="10" lengthAdjust="spacingAndGlyphs" textLength="188" x="44" y="220.8887">UMLDoclet 2.0.12, PlantUML 1.2020.16</text><!--MD5=[eac5ac945d9acb8a2f0111c50dfa4134]
@startuml
    set namespaceSeparator none
    hide empty fields
    hide empty methods

    class "<size:14>As.Type\n<size:10>it.tidalwave.util" as it.tidalwave.util.As.Type<T> [[As.Type.html]] {
        #getType(): Class<T>
    }

    interface "<size:14>As\n<size:10>it.tidalwave.util" as it.tidalwave.util.As [[As.html]] {
        {abstract} +maybeAs(Class<? extends T>): Optional<T>
        {abstract} +asMany(Class<? extends T>): Collection<T>
    }

    it.tidalwave.util.As +- - it.tidalwave.util.As.Type

    center footer UMLDoclet 2.0.12, PlantUML 1.2020.16
@enduml

PlantUML version 1.2020.16(Sun Aug 23 22:20:43 CEST 2020)
(APACHE source distribution)
Java Runtime: OpenJDK Runtime Environment
JVM: OpenJDK 64-Bit Server VM
Default Encoding: UTF-8
Language: en
Country: GB
--></g></svg>