@startuml
    set namespaceSeparator none
    hide empty fields
    hide empty methods

    interface "<size:14>FunctionalCheckedExceptionWrappers.RunnableWithException\n<size:10>it.tidalwave.util" as it.tidalwave.util.FunctionalCheckedExceptionWrappers.RunnableWithException {
        {abstract} +run(): void
    }

    class "<size:14>FunctionalCheckedExceptionWrappers\n<size:10>it.tidalwave.util" as it.tidalwave.util.FunctionalCheckedExceptionWrappers [[FunctionalCheckedExceptionWrappers.html]]

    it.tidalwave.util.FunctionalCheckedExceptionWrappers +-- it.tidalwave.util.FunctionalCheckedExceptionWrappers.RunnableWithException

    center footer UMLDoclet 2.0.12, PlantUML 1.2020.16
@enduml
