<?xml version="1.0" encoding="UTF-8" standalone="no"?><svg xmlns="http://www.w3.org/2000/svg" xmlns:xlink="http://www.w3.org/1999/xlink" contentScriptType="application/ecmascript" contentStyleType="text/css" height="135px" preserveAspectRatio="none" style="width:330px;height:135px;" version="1.1" viewBox="0 0 330 135" width="330px" zoomAndPan="magnify"><defs><filter height="300%" id="fkt6nuo7yc4bl" width="300%" x="-1" y="-1"><feGaussianBlur result="blurOut" stdDeviation="2.0"/><feColorMatrix in="blurOut" result="blurOut2" type="matrix" values="0 0 0 0 0 0 0 0 0 0 0 0 0 0 0 0 0 0 .4 0"/><feOffset dx="4.0" dy="4.0" in="blurOut2" result="blurOut3"/><feBlend in="SourceGraphic" in2="blurOut3" mode="normal"/></filter></defs><g><!--MD5=[98e858da22c4ae5f0f4b2ace4a140058]
class it.tidalwave.util.Parameters--><a href="Parameters.html" target="_top" title="Parameters.html" xlink:actuate="onRequest" xlink:href="Parameters.html" xlink:show="new" xlink:title="Parameters.html" xlink:type="simple"><rect codeLine="5" fill="#FEFECE" filter="url(#fkt6nuo7yc4bl)" height="98.0859" id="it.tidalwave.util.Parameters" style="stroke: #A80036; stroke-width: 1.5;" width="304" x="7" y="7"/><ellipse cx="116.25" cy="26.1328" fill="#ADD1B2" rx="11" ry="11" style="stroke: #A80036; stroke-width: 1.0;"/><path d="M118.7231,32.2759 Q118.1421,32.5747 117.5029,32.7241 Q116.8638,32.8735 116.1582,32.8735 Q113.6514,32.8735 112.3315,31.2217 Q111.0117,29.5698 111.0117,26.4487 Q111.0117,23.3193 112.3315,21.6675 Q113.6514,20.0156 116.1582,20.0156 Q116.8638,20.0156 117.5112,20.165 Q118.1587,20.3145 118.7231,20.6133 L118.7231,23.3359 Q118.0923,22.7549 117.4988,22.4851 Q116.9053,22.2153 116.2744,22.2153 Q114.9297,22.2153 114.2449,23.282 Q113.5601,24.3486 113.5601,26.4487 Q113.5601,28.5405 114.2449,29.6072 Q114.9297,30.6738 116.2744,30.6738 Q116.9053,30.6738 117.4988,30.4041 Q118.0923,30.1343 118.7231,29.5532 Z "/><text fill="#000000" font-family="sans-serif" font-size="14" lengthAdjust="spacingAndGlyphs" textLength="77" x="136.75" y="25.5352">Parameters</text><text fill="#000000" font-family="sans-serif" font-size="10" lengthAdjust="spacingAndGlyphs" textLength="76" x="137.25" y="38.1563">it.tidalwave.util</text><line style="stroke: #A80036; stroke-width: 1.5;" x1="8" x2="310" y1="45.2656" y2="45.2656"/><ellipse cx="18" cy="56.2656" fill="#84BE84" rx="3" ry="3" style="stroke: #038048; stroke-width: 1.0;"/><text fill="#000000" font-family="sans-serif" font-size="11" lengthAdjust="spacingAndGlyphs" text-decoration="underline" textLength="170" x="27" y="59.9004">r(Object...): Collection&lt;Object&gt;</text><ellipse cx="18" cy="69.2207" fill="#84BE84" rx="3" ry="3" style="stroke: #038048; stroke-width: 1.0;"/><text fill="#000000" font-family="sans-serif" font-size="11" lengthAdjust="spacingAndGlyphs" text-decoration="underline" textLength="213" x="27" y="72.8555">find(Class&lt;? extends T&gt;, T, Object...): T</text><ellipse cx="18" cy="82.1758" fill="#84BE84" rx="3" ry="3" style="stroke: #038048; stroke-width: 1.0;"/><text fill="#000000" font-family="sans-serif" font-size="11" lengthAdjust="spacingAndGlyphs" text-decoration="underline" textLength="272" x="27" y="85.8105">find(Class&lt;? extends T&gt;, Object...): Collection&lt;T&gt;</text><ellipse cx="18" cy="95.1309" fill="#84BE84" rx="3" ry="3" style="stroke: #038048; stroke-width: 1.0;"/><text fill="#000000" font-family="sans-serif" font-size="11" lengthAdjust="spacingAndGlyphs" text-decoration="underline" textLength="278" x="27" y="98.7656">mustNotBeArrayOrCollection(Object, String): Object</text></a><text fill="#888888" font-family="sans-serif" font-size="10" lengthAdjust="spacingAndGlyphs" textLength="188" x="65" y="121.7539">UMLDoclet 2.0.12, PlantUML 1.2020.16</text><!--MD5=[2ae16d384772d0ddbfffb5f49f35381a]
@startuml
    set namespaceSeparator none
    hide empty fields
    hide empty methods

    class "<size:14>Parameters\n<size:10>it.tidalwave.util" as it.tidalwave.util.Parameters [[Parameters.html]] {
        {static} +r(Object...): Collection<Object>
        {static} +find(Class<? extends T>, T, Object...): T
        {static} +find(Class<? extends T>, Object...): Collection<T>
        {static} +mustNotBeArrayOrCollection(Object, String): Object
    }

    center footer UMLDoclet 2.0.12, PlantUML 1.2020.16
@enduml

PlantUML version 1.2020.16(Sun Aug 23 22:20:43 CEST 2020)
(APACHE source distribution)
Java Runtime: OpenJDK Runtime Environment
JVM: OpenJDK 64-Bit Server VM
Default Encoding: UTF-8
Language: en
Country: GB
--></g></svg>