@startuml
    namespace it.tidalwave.northernwind.frontend.ui.component.sitemap {

        class DefaultSitemapViewControllerTest [[DefaultSitemapViewControllerTest.html]] {
            +must_properly_render_sitemap(): void
        }

        class MockNodesForSitemap [[MockNodesForSitemap.html]] {
            +createMockNodes(long, int, String): List<SiteNode>
        }

    }

    center footer UMLDoclet 2.0.12, PlantUML 1.2020.16
@enduml
