<?xml version="1.0" encoding="UTF-8" standalone="no"?><svg xmlns="http://www.w3.org/2000/svg" xmlns:xlink="http://www.w3.org/1999/xlink" contentScriptType="application/ecmascript" contentStyleType="text/css" height="179px" preserveAspectRatio="none" style="width:367px;height:179px;" version="1.1" viewBox="0 0 367 179" width="367px" zoomAndPan="magnify"><defs><filter height="300%" id="f1efii64cuxlhv" width="300%" x="-1" y="-1"><feGaussianBlur result="blurOut" stdDeviation="2.0"/><feColorMatrix in="blurOut" result="blurOut2" type="matrix" values="0 0 0 0 0 0 0 0 0 0 0 0 0 0 0 0 0 0 .4 0"/><feOffset dx="4.0" dy="4.0" in="blurOut2" result="blurOut3"/><feBlend in="SourceGraphic" in2="blurOut3" mode="normal"/></filter></defs><g><!--MD5=[8a53f421be265a6dad3f7972ce71103d]
class it.tidalwave.northernwind.frontend.ui.component.htmlfragment.HtmlFragmentViewController--><a href="HtmlFragmentViewController.html" target="_top" title="HtmlFragmentViewController.html" xlink:actuate="onRequest" xlink:href="HtmlFragmentViewController.html" xlink:show="new" xlink:title="HtmlFragmentViewController.html" xlink:type="simple"><rect codeLine="5" fill="#FEFECE" filter="url(#f1efii64cuxlhv)" height="38.2656" id="it.tidalwave.northernwind.frontend.ui.component.htmlfragment.HtmlFragmentViewController" style="stroke: #A80036; stroke-width: 1.5;" width="341" x="7" y="105"/><ellipse cx="22" cy="124.1328" fill="#B4A7E5" rx="11" ry="11" style="stroke: #A80036; stroke-width: 1.0;"/><path d="M18.4277,120.3979 L18.4277,118.2397 L25.8071,118.2397 L25.8071,120.3979 L23.3418,120.3979 L23.3418,128.4746 L25.8071,128.4746 L25.8071,130.6328 L18.4277,130.6328 L18.4277,128.4746 L20.8931,128.4746 L20.8931,120.3979 Z "/><text fill="#000000" font-family="sans-serif" font-size="14" font-style="italic" lengthAdjust="spacingAndGlyphs" textLength="200" x="90.5" y="123.5352">HtmlFragmentViewController</text><text fill="#000000" font-family="sans-serif" font-size="10" font-style="italic" lengthAdjust="spacingAndGlyphs" textLength="309" x="36" y="136.1563">it.tidalwave.northernwind.frontend.ui.component.htmlfragment</text></a><!--MD5=[fd49f22f3a54ad6da4c032e73965af1a]
class it.tidalwave.northernwind.frontend.ui.ViewController--><a href="../../ViewController.html" target="_top" title="../../ViewController.html" xlink:actuate="onRequest" xlink:href="../../ViewController.html" xlink:show="new" xlink:title="../../ViewController.html" xlink:type="simple"><rect codeLine="7" fill="#FEFECE" filter="url(#f1efii64cuxlhv)" height="38.2656" id="it.tidalwave.northernwind.frontend.ui.ViewController" style="stroke: #A80036; stroke-width: 1.5;" width="214" x="70.5" y="7"/><ellipse cx="85.5" cy="26.1328" fill="#B4A7E5" rx="11" ry="11" style="stroke: #A80036; stroke-width: 1.0;"/><path d="M81.9277,22.3979 L81.9277,20.2397 L89.3071,20.2397 L89.3071,22.3979 L86.8418,22.3979 L86.8418,30.4746 L89.3071,30.4746 L89.3071,32.6328 L81.9277,32.6328 L81.9277,30.4746 L84.3931,30.4746 L84.3931,22.3979 Z "/><text fill="#000000" font-family="sans-serif" font-size="14" font-style="italic" lengthAdjust="spacingAndGlyphs" textLength="102" x="139.5" y="25.5352">ViewController</text><text fill="#000000" font-family="sans-serif" font-size="10" font-style="italic" lengthAdjust="spacingAndGlyphs" textLength="182" x="99.5" y="38.1563">it.tidalwave.northernwind.frontend.ui</text></a><!--MD5=[815464b5602752099ef146e03bc390e9]
reverse link it.tidalwave.northernwind.frontend.ui.ViewController to it.tidalwave.northernwind.frontend.ui.component.htmlfragment.HtmlFragmentViewController--><path codeLine="9" d="M177.5,65.692 C177.5,79.1338 177.5,93.5458 177.5,104.6786 " fill="none" id="it.tidalwave.northernwind.frontend.ui.ViewController-backto-it.tidalwave.northernwind.frontend.ui.component.htmlfragment.HtmlFragmentViewController" style="stroke: #A80036; stroke-width: 1.0;"/><polygon fill="none" points="170.5001,65.3617,177.5,45.3616,184.5001,65.3616,170.5001,65.3617" style="stroke: #A80036; stroke-width: 1.0;"/><text fill="#888888" font-family="sans-serif" font-size="10" lengthAdjust="spacingAndGlyphs" textLength="188" x="80.5" y="165.9336">UMLDoclet 2.0.12, PlantUML 1.2020.16</text><!--MD5=[37e1d971275535a7f883ab91c7baefcf]
@startuml
    set namespaceSeparator none
    hide empty fields
    hide empty methods

    interface "<size:14>HtmlFragmentViewController\n<size:10>it.tidalwave.northernwind.frontend.ui.component.htmlfragment" as it.tidalwave.northernwind.frontend.ui.component.htmlfragment.HtmlFragmentViewController [[HtmlFragmentViewController.html]]

    interface "<size:14>ViewController\n<size:10>it.tidalwave.northernwind.frontend.ui" as it.tidalwave.northernwind.frontend.ui.ViewController [[../../ViewController.html]]

    it.tidalwave.northernwind.frontend.ui.ViewController <|- - it.tidalwave.northernwind.frontend.ui.component.htmlfragment.HtmlFragmentViewController

    center footer UMLDoclet 2.0.12, PlantUML 1.2020.16
@enduml

PlantUML version 1.2020.16(Sun Aug 23 22:20:43 CEST 2020)
(APACHE source distribution)
Java Runtime: OpenJDK Runtime Environment
JVM: OpenJDK 64-Bit Server VM
Default Encoding: UTF-8
Language: en
Country: GB
--></g></svg>