@startuml
    set namespaceSeparator none
    hide empty fields
    hide empty methods

    class "<size:14>DciMarshalXStreamExampleTest\n<size:10>it.tidalwave.thesefoolishthings.examples.dci.marshal.xstream" as it.tidalwave.thesefoolishthings.examples.dci.marshal.xstream.DciMarshalXStreamExampleTest [[DciMarshalXStreamExampleTest.html]] {
        +must_not_crash(): void
    }

    center footer UMLDoclet 2.0.12, PlantUML 1.2020.16
@enduml
