<?xml version="1.0" encoding="UTF-8" standalone="no"?><svg xmlns="http://www.w3.org/2000/svg" xmlns:xlink="http://www.w3.org/1999/xlink" contentScriptType="application/ecmascript" contentStyleType="text/css" height="216px" preserveAspectRatio="none" style="width:351px;height:216px;" version="1.1" viewBox="0 0 351 216" width="351px" zoomAndPan="magnify"><defs><filter height="300%" id="fl1gstmog1vwy" width="300%" x="-1" y="-1"><feGaussianBlur result="blurOut" stdDeviation="2.0"/><feColorMatrix in="blurOut" result="blurOut2" type="matrix" values="0 0 0 0 0 0 0 0 0 0 0 0 0 0 0 0 0 0 .4 0"/><feOffset dx="4.0" dy="4.0" in="blurOut2" result="blurOut3"/><feBlend in="SourceGraphic" in2="blurOut3" mode="normal"/></filter></defs><g><!--MD5=[fab869a90351a82fbf093aba2654fcbe]
class it.tidalwave.bluemarine2.upnp.mediaserver.impl.didl.TrackDIDLAdapter--><a href="TrackDIDLAdapter.html" target="_top" title="TrackDIDLAdapter.html" xlink:actuate="onRequest" xlink:href="TrackDIDLAdapter.html" xlink:show="new" xlink:title="TrackDIDLAdapter.html" xlink:type="simple"><rect codeLine="5" fill="#FEFECE" filter="url(#fl1gstmog1vwy)" height="72.1758" id="it.tidalwave.bluemarine2.upnp.mediaserver.impl.didl.TrackDIDLAdapter" style="stroke: #A80036; stroke-width: 1.5;" width="288" x="25.5" y="108"/><ellipse cx="40.5" cy="127.1328" fill="#ADD1B2" rx="11" ry="11" style="stroke: #A80036; stroke-width: 1.0;"/><path d="M42.9731,133.2759 Q42.3921,133.5747 41.7529,133.7241 Q41.1138,133.8735 40.4082,133.8735 Q37.9014,133.8735 36.5815,132.2217 Q35.2617,130.5698 35.2617,127.4487 Q35.2617,124.3193 36.5815,122.6675 Q37.9014,121.0156 40.4082,121.0156 Q41.1138,121.0156 41.7612,121.165 Q42.4087,121.3145 42.9731,121.6133 L42.9731,124.3359 Q42.3423,123.7549 41.7488,123.4851 Q41.1553,123.2153 40.5244,123.2153 Q39.1797,123.2153 38.4949,124.282 Q37.8101,125.3486 37.8101,127.4487 Q37.8101,129.5405 38.4949,130.6072 Q39.1797,131.6738 40.5244,131.6738 Q41.1553,131.6738 41.7488,131.4041 Q42.3423,131.1343 42.9731,130.5532 Z "/><text fill="#000000" font-family="sans-serif" font-size="14" lengthAdjust="spacingAndGlyphs" textLength="124" x="120.5" y="126.5352">TrackDIDLAdapter</text><text fill="#000000" font-family="sans-serif" font-size="10" lengthAdjust="spacingAndGlyphs" textLength="256" x="54.5" y="139.1563">it.tidalwave.bluemarine2.upnp.mediaserver.impl.didl</text><line style="stroke: #A80036; stroke-width: 1.5;" x1="26.5" x2="312.5" y1="146.2656" y2="146.2656"/><ellipse cx="36.5" cy="157.2656" fill="#84BE84" rx="3" ry="3" style="stroke: #038048; stroke-width: 1.0;"/><text fill="#000000" font-family="sans-serif" font-size="11" lengthAdjust="spacingAndGlyphs" textLength="226" x="45.5" y="160.9004">TrackDIDLAdapter(Track, ResourceServer)</text><ellipse cx="36.5" cy="170.2207" fill="#84BE84" rx="3" ry="3" style="stroke: #038048; stroke-width: 1.0;"/><text fill="#000000" font-family="sans-serif" font-size="11" lengthAdjust="spacingAndGlyphs" textLength="120" x="45.5" y="173.8555">toObject(): DIDLObject</text></a><!--MD5=[a76fc690e62e4f4e4035c178dcd947ed]
class it.tidalwave.bluemarine2.upnp.mediaserver.impl.didl.DIDLAdapterSupport--><a href="DIDLAdapterSupport.html" target="_top" title="DIDLAdapterSupport.html" xlink:actuate="onRequest" xlink:href="DIDLAdapterSupport.html" xlink:show="new" xlink:title="DIDLAdapterSupport.html" xlink:type="simple"><rect codeLine="10" fill="#FEFECE" filter="url(#fl1gstmog1vwy)" height="38.2656" id="it.tidalwave.bluemarine2.upnp.mediaserver.impl.didl.DIDLAdapterSupport" style="stroke: #A80036; stroke-width: 1.5;" width="325" x="7" y="10"/><ellipse cx="22" cy="29.1328" fill="#A9DCDF" rx="11" ry="11" style="stroke: #A80036; stroke-width: 1.0;"/><path d="M21.8633,24.481 L20.7095,29.5527 L23.0254,29.5527 Z M20.3691,22.2397 L23.3657,22.2397 L26.7109,34.6328 L24.2622,34.6328 L23.4985,31.5698 L20.2197,31.5698 L19.4727,34.6328 L17.0239,34.6328 Z "/><text fill="#000000" font-family="sans-serif" font-size="14" font-style="italic" lengthAdjust="spacingAndGlyphs" textLength="141" x="93.5" y="28.5352">DIDLAdapterSupport</text><text fill="#000000" font-family="sans-serif" font-size="10" font-style="italic" lengthAdjust="spacingAndGlyphs" textLength="256" x="36" y="41.1563">it.tidalwave.bluemarine2.upnp.mediaserver.impl.didl</text><rect fill="#FFFFFF" height="16.1328" style="stroke: #000000; stroke-width: 1.0; stroke-dasharray: 2.0,2.0;" width="35" x="300" y="7"/><text fill="#000000" font-family="sans-serif" font-size="12" font-style="italic" lengthAdjust="spacingAndGlyphs" textLength="33" x="301" y="19.6016">Track</text></a><!--MD5=[df8f707c3a2a0d1ff671b7131d7b75f7]
reverse link it.tidalwave.bluemarine2.upnp.mediaserver.impl.didl.DIDLAdapterSupport to it.tidalwave.bluemarine2.upnp.mediaserver.impl.didl.TrackDIDLAdapter--><path codeLine="12" d="M169.5,68.5888 C169.5,81.3573 169.5,95.4348 169.5,107.935 " fill="none" id="it.tidalwave.bluemarine2.upnp.mediaserver.impl.didl.DIDLAdapterSupport-backto-it.tidalwave.bluemarine2.upnp.mediaserver.impl.didl.TrackDIDLAdapter" style="stroke: #A80036; stroke-width: 1.0;"/><polygon fill="none" points="162.5001,68.2484,169.5,48.2484,176.5001,68.2484,162.5001,68.2484" style="stroke: #A80036; stroke-width: 1.0;"/><text fill="#888888" font-family="sans-serif" font-size="10" lengthAdjust="spacingAndGlyphs" textLength="188" x="72.5" y="202.8438">UMLDoclet 2.0.12, PlantUML 1.2020.16</text><!--MD5=[c214a6c26f3e6fcf1f4fca091369c6ff]
@startuml
    set namespaceSeparator none
    hide empty fields
    hide empty methods

    class "<size:14>TrackDIDLAdapter\n<size:10>it.tidalwave.bluemarine2.upnp.mediaserver.impl.didl" as it.tidalwave.bluemarine2.upnp.mediaserver.impl.didl.TrackDIDLAdapter [[TrackDIDLAdapter.html]] {
        +TrackDIDLAdapter(Track, ResourceServer)
        +toObject(): DIDLObject
    }

    abstract class "<size:14>DIDLAdapterSupport\n<size:10>it.tidalwave.bluemarine2.upnp.mediaserver.impl.didl" as it.tidalwave.bluemarine2.upnp.mediaserver.impl.didl.DIDLAdapterSupport<Track> [[DIDLAdapterSupport.html]]

    it.tidalwave.bluemarine2.upnp.mediaserver.impl.didl.DIDLAdapterSupport <|- - it.tidalwave.bluemarine2.upnp.mediaserver.impl.didl.TrackDIDLAdapter

    center footer UMLDoclet 2.0.12, PlantUML 1.2020.16
@enduml

PlantUML version 1.2020.16(Sun Aug 23 22:20:43 CEST 2020)
(APACHE source distribution)
Java Runtime: OpenJDK Runtime Environment
JVM: OpenJDK 64-Bit Server VM
Default Encoding: UTF-8
Language: en
Country: GB
--></g></svg>