@startuml
    namespace it.tidalwave.util.asexamples {

        class Datum2 [[Datum2.html]] {
        }

        interface RenderingContext [[RenderingContext.html]] {
            {abstract} +render(String): void
        }

        interface Renderable [[Renderable.html]] {
            {static} +_Renderable_: Class<Renderable>
            {abstract} +renderTo(RenderingContext): void
        }

        class Datum1RenderableRole [[Datum1RenderableRole.html]] {
            +renderTo(RenderingContext): void
        }

        class StringRenderableRole [[StringRenderableRole.html]] {
            +renderTo(RenderingContext): void
        }

        class Datum2RenderableRole [[Datum2RenderableRole.html]] {
            +renderTo(RenderingContext): void
        }

        class Datum1 [[Datum1.html]] {
            +maybeAs(Class<T>): Optional<T>
            +asMany(Class<T>): Collection<T>
        }

        class AsExtensions [[AsExtensions.html]] {
            {static} +as(Object, Class<T>): T
            {static} +--as--(Object, Class<T>, NotFoundBehaviour<T>): T
            {static} +maybeAs(Object, Class<T>): Optional<T>
            {static} +asMany(Object, Class<T>): Collection<T>
        }

        Renderable <|.. Datum1RenderableRole
        Renderable <|.. StringRenderableRole
        Renderable <|.. Datum2RenderableRole
        it.tidalwave.util.As <|.. Datum1
    }

    namespace it.tidalwave.util {
        interface As [[../../../../../apidocs/it/tidalwave/util/As.html]] {
            {static} +forObject(Object): As
            {static} +forObject(Object, Object): As
            {static} +forObject(Object, Collection<Object>): As
            +as(Class<T>): T
            +--as--(Class<T>, NotFoundBehaviour<T>): T
            {abstract} +maybeAs(Class<T>): Optional<T>
            {abstract} +asMany(Class<T>): Collection<T>
            {static} +type(Class<?>): Type<T>
            +as(Type<T>): T
            +maybeAs(Type<T>): Optional<T>
            +asMany(Type<T>): Collection<T>
        }
    }

    center footer UMLDoclet 2.0.12, PlantUML 1.2020.16
@enduml
