<?xml version="1.0" encoding="UTF-8" standalone="no"?><svg xmlns="http://www.w3.org/2000/svg" xmlns:xlink="http://www.w3.org/1999/xlink" contentScriptType="application/ecmascript" contentStyleType="text/css" height="117px" preserveAspectRatio="none" style="width:237px;height:117px;" version="1.1" viewBox="0 0 237 117" width="237px" zoomAndPan="magnify"><defs><filter height="300%" id="f737fc06u0krn" width="300%" x="-1" y="-1"><feGaussianBlur result="blurOut" stdDeviation="2.0"/><feColorMatrix in="blurOut" result="blurOut2" type="matrix" values="0 0 0 0 0 0 0 0 0 0 0 0 0 0 0 0 0 0 .4 0"/><feOffset dx="4.0" dy="4.0" in="blurOut2" result="blurOut3"/><feBlend in="SourceGraphic" in2="blurOut3" mode="normal"/></filter></defs><g><!--MD5=[9ab27992b74df4ed8a34f4d1a0f944d5]
class it.tidalwave.util.asexamples.Renderable--><a href="Renderable.html" target="_top" title="Renderable.html" xlink:actuate="onRequest" xlink:href="Renderable.html" xlink:show="new" xlink:title="Renderable.html" xlink:type="simple"><rect codeLine="5" fill="#FEFECE" filter="url(#f737fc06u0krn)" height="80.1758" id="it.tidalwave.util.asexamples.Renderable" style="stroke: #A80036; stroke-width: 1.5;" width="211" x="7" y="7"/><ellipse cx="40.9" cy="26.1328" fill="#B4A7E5" rx="11" ry="11" style="stroke: #A80036; stroke-width: 1.0;"/><path d="M37.3277,22.3979 L37.3277,20.2397 L44.7071,20.2397 L44.7071,22.3979 L42.2418,22.3979 L42.2418,30.4746 L44.7071,30.4746 L44.7071,32.6328 L37.3277,32.6328 L37.3277,30.4746 L39.7931,30.4746 L39.7931,22.3979 Z "/><text fill="#000000" font-family="sans-serif" font-size="14" font-style="italic" lengthAdjust="spacingAndGlyphs" textLength="78" x="88.6" y="25.5352">Renderable</text><text fill="#000000" font-family="sans-serif" font-size="10" font-style="italic" lengthAdjust="spacingAndGlyphs" textLength="137" x="59.1" y="38.1563">it.tidalwave.util.asexamples</text><line style="stroke: #A80036; stroke-width: 1.5;" x1="8" x2="217" y1="45.2656" y2="45.2656"/><ellipse cx="18" cy="56.2656" fill="none" rx="3" ry="3" style="stroke: #038048; stroke-width: 1.0;"/><text fill="#000000" font-family="sans-serif" font-size="11" lengthAdjust="spacingAndGlyphs" text-decoration="underline" textLength="185" x="27" y="59.9004">_Renderable_: Class&lt;Renderable&gt;</text><line style="stroke: #A80036; stroke-width: 1.5;" x1="8" x2="217" y1="66.2207" y2="66.2207"/><ellipse cx="18" cy="77.2207" fill="#84BE84" rx="3" ry="3" style="stroke: #038048; stroke-width: 1.0;"/><text fill="#000000" font-family="sans-serif" font-size="11" font-style="italic" lengthAdjust="spacingAndGlyphs" textLength="185" x="27" y="80.8555">renderTo(RenderingContext): void</text></a><text fill="#888888" font-family="sans-serif" font-size="10" lengthAdjust="spacingAndGlyphs" textLength="188" x="18.5" y="103.8438">UMLDoclet 2.0.12, PlantUML 1.2020.16</text><!--MD5=[3a537d598cd2eaa6f7b9e79845d596b1]
@startuml
    set namespaceSeparator none
    hide empty fields
    hide empty methods

    interface "<size:14>Renderable\n<size:10>it.tidalwave.util.asexamples" as it.tidalwave.util.asexamples.Renderable [[Renderable.html]] {
        {static} +_Renderable_: Class<Renderable>
        {abstract} +renderTo(RenderingContext): void
    }

    center footer UMLDoclet 2.0.12, PlantUML 1.2020.16
@enduml

PlantUML version 1.2020.16(Sun Aug 23 22:20:43 CEST 2020)
(APACHE source distribution)
Java Runtime: OpenJDK Runtime Environment
JVM: OpenJDK 64-Bit Server VM
Default Encoding: UTF-8
Language: en
Country: GB
--></g></svg>