@startuml
    set namespaceSeparator none
    hide empty fields
    hide empty methods

    interface "<size:14>ObjectFactory\n<size:10>it.tidalwave.accounting.model.spi" as it.tidalwave.accounting.model.spi.ObjectFactory [[ObjectFactory.html]] {
        {static} +getInstance(): ObjectFactory
        {abstract} +createCustomer(Builder): Customer
        {abstract} +createInvoice(Builder): Invoice
        {abstract} +createProject(Builder): Project
        {abstract} +createJobEvent(Builder): JobEvent
    }

    center footer UMLDoclet 2.0.12, PlantUML 1.2020.16
@enduml
