GROUP,PACKAGE,CLASS,INSTRUCTION_MISSED,INSTRUCTION_COVERED,BRANCH_MISSED,BRANCH_COVERED,LINE_MISSED,LINE_COVERED,COMPLEXITY_MISSED,COMPLEXITY_COVERED,METHOD_MISSED,METHOD_COVERED
TheseFoolishThings :: Examples :: DCI :: Swing/it-tidalwave-thesefoolishthings-examples-data,it.tidalwave.thesefoolishthings.examples.person,DefaultPersonRegistry,20,0,0,0,5,0,3,0,3,0
TheseFoolishThings :: Examples :: DCI :: Swing/it-tidalwave-thesefoolishthings-examples-data,it.tidalwave.thesefoolishthings.examples.person,ListOfPersons,249,0,14,0,8,0,46,0,39,0
TheseFoolishThings :: Examples :: DCI :: Swing/it-tidalwave-thesefoolishthings-examples-data,it.tidalwave.thesefoolishthings.examples.person,PersonRegistryHelper,68,0,0,0,6,0,4,0,4,0
TheseFoolishThings :: Examples :: DCI :: Swing/it-tidalwave-thesefoolishthings-examples-data,it.tidalwave.thesefoolishthings.examples.person,Person,178,0,34,0,8,0,27,0,10,0
TheseFoolishThings :: Examples :: DCI :: Swing/it-tidalwave-role-spring,it.tidalwave.util.spring,ClassScanner,0,75,0,4,0,14,0,6,0,4
TheseFoolishThings :: Examples :: DCI :: Swing/it-tidalwave-role-spring,it.tidalwave.role.spring.spi,AnnotationSpringRoleManager,13,105,12,12,2,9,13,5,1,5
TheseFoolishThings :: Examples :: DCI :: Swing/it-tidalwave-role-spring,it.tidalwave.role.spring.spi,SpringContextManagerProvider,0,7,0,0,0,2,0,2,0,2
TheseFoolishThings :: Examples :: DCI :: Swing/it-tidalwave-role-spring,it.tidalwave.role.spring.spi,SpringRoleManagerProvider,0,7,0,0,0,2,0,2,0,2
TheseFoolishThings :: Examples :: DCI :: Swing/it-tidalwave-role-spring,it.tidalwave.role.spring.spi,SpringAsDelegate,12,62,0,2,4,13,1,4,1,3
TheseFoolishThings :: Examples :: DCI :: Swing/it-tidalwave-role-spring,it.tidalwave.role.spring.spi,DciContextWithAutoThreadBindingAspect,15,49,4,4,0,10,4,5,1,4
TheseFoolishThings :: Examples :: DCI :: Swing/it-tidalwave-role-spring,it.tidalwave.role.spring.spi,DciContextWithAutoThreadBindingAspect.new Task() {...},0,13,0,0,0,2,0,2,0,2
TheseFoolishThings :: Examples :: DCI :: Swing/it-tidalwave-role-spring,it.tidalwave.role.spring.spi,SpringAsDelegate.new Task() {...},0,17,0,0,0,2,0,2,0,2
TheseFoolishThings :: Examples :: DCI :: Swing/it-tidalwave-role-spring,it.tidalwave.role.spring.spi,SpringAsDelegateProvider,0,8,0,0,0,2,0,2,0,2
TheseFoolishThings :: Examples :: DCI :: Swing/it-tidalwave-role-spring,it.tidalwave.role.spring,RoleSpringConfiguration,10,5,0,0,3,2,4,2,4,2
TheseFoolishThings :: Examples :: DCI :: Swing/it-tidalwave-role,it.tidalwave.role.ui,MutableLocalizedDisplayable,13,0,0,0,3,0,3,0,3,0
TheseFoolishThings :: Examples :: DCI :: Swing/it-tidalwave-role,it.tidalwave.role.ui,Selectable,3,0,0,0,1,0,1,0,1,0
TheseFoolishThings :: Examples :: DCI :: Swing/it-tidalwave-role,it.tidalwave.role.ui,MutableIconProvider,3,0,0,0,1,0,1,0,1,0
TheseFoolishThings :: Examples :: DCI :: Swing/it-tidalwave-role,it.tidalwave.role.ui,UserActionProvider.new UserActionProvider() {...},0,23,0,2,0,5,0,4,0,3
TheseFoolishThings :: Examples :: DCI :: Swing/it-tidalwave-role,it.tidalwave.role.ui,Styleable,13,0,0,0,3,0,3,0,3,0
TheseFoolishThings :: Examples :: DCI :: Swing/it-tidalwave-role,it.tidalwave.role.ui,UserAction,22,0,0,0,5,0,4,0,4,0
TheseFoolishThings :: Examples :: DCI :: Swing/it-tidalwave-role,it.tidalwave.role.ui,IconProvider.new IconProvider() {...},17,0,0,0,3,0,2,0,2,0
TheseFoolishThings :: Examples :: DCI :: Swing/it-tidalwave-role,it.tidalwave.role.ui,Presentable,23,3,0,0,4,1,3,1,3,1
TheseFoolishThings :: Examples :: DCI :: Swing/it-tidalwave-role,it.tidalwave.role.ui,ActionProvider,3,0,0,0,1,0,1,0,1,0
TheseFoolishThings :: Examples :: DCI :: Swing/it-tidalwave-role,it.tidalwave.role.ui,IconProvider,7,0,0,0,2,0,1,0,1,0
TheseFoolishThings :: Examples :: DCI :: Swing/it-tidalwave-role,it.tidalwave.role.ui,MutableDisplayable,13,0,0,0,3,0,3,0,3,0
TheseFoolishThings :: Examples :: DCI :: Swing/it-tidalwave-role,it.tidalwave.role.ui,UserActionProvider,0,15,0,0,0,5,0,3,0,3
TheseFoolishThings :: Examples :: DCI :: Swing/it-tidalwave-role,it.tidalwave.role.ui,Visible,11,0,0,0,3,0,3,0,3,0
TheseFoolishThings :: Examples :: DCI :: Swing/it-tidalwave-role,it.tidalwave.role.ui,PresentationModelFactory,5,3,0,0,1,1,1,1,1,1
TheseFoolishThings :: Examples :: DCI :: Swing/it-tidalwave-role,it.tidalwave.role.ui,PresentationModel,35,40,0,0,7,9,4,5,4,5
TheseFoolishThings :: Examples :: DCI :: Swing/it-tidalwave-role,it.tidalwave.role.ui,Displayable,32,20,0,0,7,4,7,3,7,3
TheseFoolishThings :: Examples :: DCI :: Swing/it-tidalwave-role,it.tidalwave.role.ui,LocalizedDisplayable,3,0,0,0,1,0,1,0,1,0
TheseFoolishThings :: Examples :: DCI :: Swing/it-tidalwave-role,it.tidalwave.role.ui,BoundProperty,247,0,18,0,17,0,36,0,27,0
TheseFoolishThings :: Examples :: DCI :: Swing/it-tidalwave-role,it.tidalwave.role.ui,PresentationModelAggregate,42,0,2,0,5,0,7,0,6,0
TheseFoolishThings :: Examples :: DCI :: Swing/it-tidalwave-role,it.tidalwave.role.io,TextWritable.new TextWritable() {...},8,0,0,0,2,0,2,0,2,0
TheseFoolishThings :: Examples :: DCI :: Swing/it-tidalwave-role,it.tidalwave.role.io,BinaryReadable.new BinaryReadable() {...},8,0,0,0,2,0,2,0,2,0
TheseFoolishThings :: Examples :: DCI :: Swing/it-tidalwave-role,it.tidalwave.role.io,BinaryReadable,7,0,0,0,2,0,1,0,1,0
TheseFoolishThings :: Examples :: DCI :: Swing/it-tidalwave-role,it.tidalwave.role.io,Unmarshallable,3,0,0,0,1,0,1,0,1,0
TheseFoolishThings :: Examples :: DCI :: Swing/it-tidalwave-role,it.tidalwave.role.io,BinaryWritable.new BinaryWritable() {...},8,0,0,0,2,0,2,0,2,0
TheseFoolishThings :: Examples :: DCI :: Swing/it-tidalwave-role,it.tidalwave.role.io,TextReadable,7,0,0,0,2,0,1,0,1,0
TheseFoolishThings :: Examples :: DCI :: Swing/it-tidalwave-role,it.tidalwave.role.io,Persistable,3,0,0,0,1,0,1,0,1,0
TheseFoolishThings :: Examples :: DCI :: Swing/it-tidalwave-role,it.tidalwave.role.io,TextReadable.new TextReadable() {...},8,0,0,0,2,0,2,0,2,0
TheseFoolishThings :: Examples :: DCI :: Swing/it-tidalwave-role,it.tidalwave.role.io,TextWritable,7,0,0,0,2,0,1,0,1,0
TheseFoolishThings :: Examples :: DCI :: Swing/it-tidalwave-role,it.tidalwave.role.io,Marshallable,3,0,0,0,1,0,1,0,1,0
TheseFoolishThings :: Examples :: DCI :: Swing/it-tidalwave-role,it.tidalwave.role.io,BinaryWritable,7,0,0,0,2,0,1,0,1,0
TheseFoolishThings :: Examples :: DCI :: Swing/it-tidalwave-role,it.tidalwave.role.io.spi,PathTextWritable,27,0,0,0,8,0,3,0,3,0
TheseFoolishThings :: Examples :: DCI :: Swing/it-tidalwave-role,it.tidalwave.role.io.spi,PathBinaryWritable,15,0,0,0,5,0,2,0,2,0
TheseFoolishThings :: Examples :: DCI :: Swing/it-tidalwave-role,it.tidalwave.role.io.spi,PathBinaryReadable,15,0,0,0,5,0,2,0,2,0
TheseFoolishThings :: Examples :: DCI :: Swing/it-tidalwave-role,it.tidalwave.role.io.spi,PathTextReadable,20,0,0,0,7,0,3,0,3,0
TheseFoolishThings :: Examples :: DCI :: Swing/it-tidalwave-role,it.tidalwave.role.ui.function,AndFunction,35,0,4,0,7,0,5,0,3,0
TheseFoolishThings :: Examples :: DCI :: Swing/it-tidalwave-role,it.tidalwave.role.ui.function,OrFunction,35,0,4,0,7,0,5,0,3,0
TheseFoolishThings :: Examples :: DCI :: Swing/it-tidalwave-role,it.tidalwave.role.ui.function,NonEmptyFunction,39,0,4,0,8,0,6,0,4,0
TheseFoolishThings :: Examples :: DCI :: Swing/it-tidalwave-role,it.tidalwave.role.ui.function,BoundFunctionSupport,134,0,2,0,9,0,19,0,18,0
TheseFoolishThings :: Examples :: DCI :: Swing/it-tidalwave-role,it.tidalwave.role.ui.function,BooleanBoundFunctionSupport,40,0,2,0,8,0,3,0,2,0
TheseFoolishThings :: Examples :: DCI :: Swing/it-tidalwave-role,it.tidalwave.role.ui.function,UnaryBoundFunctionSupport,35,0,0,0,10,0,4,0,4,0
TheseFoolishThings :: Examples :: DCI :: Swing/it-tidalwave-role,it.tidalwave.role.ui.function,BooleanBoundFunctionSupport.new PropertyChangeListener() {...},28,0,0,0,5,0,2,0,2,0
TheseFoolishThings :: Examples :: DCI :: Swing/it-tidalwave-role,it.tidalwave.role.ui.function,WeakCopyFunctionSupport,35,0,2,0,12,0,6,0,5,0
TheseFoolishThings :: Examples :: DCI :: Swing/it-tidalwave-role,it.tidalwave.role.ui.function,CopyIfEmptyOrConform,23,0,4,0,4,0,5,0,3,0
TheseFoolishThings :: Examples :: DCI :: Swing/it-tidalwave-role,it.tidalwave.role.spi,DefaultContextManager.new ThreadLocal() {...},0,10,0,0,0,2,0,2,0,2
TheseFoolishThings :: Examples :: DCI :: Swing/it-tidalwave-role,it.tidalwave.role.spi,ContextSampler,0,44,1,1,0,9,1,5,0,5
TheseFoolishThings :: Examples :: DCI :: Swing/it-tidalwave-role,it.tidalwave.role.spi,RoleManagerSupport,8,464,6,34,2,96,6,26,0,12
TheseFoolishThings :: Examples :: DCI :: Swing/it-tidalwave-role,it.tidalwave.role.spi,DefaultContextManager,36,106,6,2,8,27,5,8,1,8
TheseFoolishThings :: Examples :: DCI :: Swing/it-tidalwave-role,it.tidalwave.role.spi,RoleManager.Locator,11,55,4,4,1,14,4,4,0,4
TheseFoolishThings :: Examples :: DCI :: Swing/it-tidalwave-role,it.tidalwave.role.spi,DefaultContextManagerProvider,0,11,0,0,0,2,0,2,0,2
TheseFoolishThings :: Examples :: DCI :: Swing/it-tidalwave-role,it.tidalwave.role.impl,DefaultSimpleComposite,9,11,1,1,0,2,2,2,1,2
TheseFoolishThings :: Examples :: DCI :: Swing/it-tidalwave-role,it.tidalwave.role.impl,DefaultIdentifiable,32,0,2,0,3,0,4,0,3,0
TheseFoolishThings :: Examples :: DCI :: Swing/it-tidalwave-role,it.tidalwave.role.impl,MapAggregate,46,0,0,0,12,0,6,0,6,0
TheseFoolishThings :: Examples :: DCI :: Swing/it-tidalwave-role,it.tidalwave.role.ui.impl,DisplayableComparator,0,21,0,0,0,5,0,4,0,4
TheseFoolishThings :: Examples :: DCI :: Swing/it-tidalwave-role,it.tidalwave.role.ui.impl,DefaultUserAction,108,0,4,0,14,0,15,0,13,0
TheseFoolishThings :: Examples :: DCI :: Swing/it-tidalwave-role,it.tidalwave.role.ui.impl,DefaultMutableDisplayable,135,0,0,0,30,0,12,0,12,0
TheseFoolishThings :: Examples :: DCI :: Swing/it-tidalwave-role,it.tidalwave.role.ui.impl,DefaultDisplayable,17,48,0,0,3,11,3,4,3,4
TheseFoolishThings :: Examples :: DCI :: Swing/it-tidalwave-role,it.tidalwave.role.ui.impl,DefaultStyleable,28,0,0,0,8,0,4,0,4,0
TheseFoolishThings :: Examples :: DCI :: Swing/it-tidalwave-role,it.tidalwave.role.ui.impl,DefaultPresentable,18,0,2,0,2,0,3,0,2,0
TheseFoolishThings :: Examples :: DCI :: Swing/it-tidalwave-role,it.tidalwave.role.ui.impl,DefaultPresentationModel,176,69,8,6,19,17,24,8,19,6
TheseFoolishThings :: Examples :: DCI :: Swing/it-tidalwave-role,it.tidalwave.role.ui.impl,AsDisplayableComparator,0,27,0,0,0,5,0,4,0,4
TheseFoolishThings :: Examples :: DCI :: Swing/it-tidalwave-role,it.tidalwave.role.spi.impl,LogUtil,43,154,7,13,9,31,7,11,2,6
TheseFoolishThings :: Examples :: DCI :: Swing/it-tidalwave-role,it.tidalwave.role.spi.impl,DatumAndRole,30,162,15,15,0,11,13,10,0,8
TheseFoolishThings :: Examples :: DCI :: Swing/it-tidalwave-role,it.tidalwave.role.spi.impl,MultiMap,0,50,0,6,0,13,0,8,0,5
TheseFoolishThings :: Examples :: DCI :: Swing/it-tidalwave-role,it.tidalwave.role,ContextManager.Locator,16,61,4,4,4,18,5,5,1,5
TheseFoolishThings :: Examples :: DCI :: Swing/it-tidalwave-role,it.tidalwave.role,Sortable,7,0,0,0,2,0,1,0,1,0
TheseFoolishThings :: Examples :: DCI :: Swing/it-tidalwave-role,it.tidalwave.role,ContextManager.Binder,0,51,0,4,0,9,0,4,0,2
TheseFoolishThings :: Examples :: DCI :: Swing/it-tidalwave-role,it.tidalwave.role,StringRenderable,16,0,0,0,5,0,3,0,3,0
TheseFoolishThings :: Examples :: DCI :: Swing/it-tidalwave-role,it.tidalwave.role,Identifiable,8,0,0,0,2,0,2,0,2,0
TheseFoolishThings :: Examples :: DCI :: Swing/it-tidalwave-role,it.tidalwave.role,IdFactory,3,0,0,0,1,0,1,0,1,0
TheseFoolishThings :: Examples :: DCI :: Swing/it-tidalwave-role,it.tidalwave.role,Composite.Visitor,5,0,0,0,4,0,4,0,4,0
TheseFoolishThings :: Examples :: DCI :: Swing/it-tidalwave-role,it.tidalwave.role,Sortable.new Sortable() {...},9,0,0,0,5,0,5,0,5,0
TheseFoolishThings :: Examples :: DCI :: Swing/it-tidalwave-role,it.tidalwave.role,SimpleComposite,0,12,0,0,0,3,0,3,0,3
TheseFoolishThings :: Examples :: DCI :: Swing/it-tidalwave-role,it.tidalwave.role,PlainTextRenderable,16,0,0,0,5,0,3,0,3,0
TheseFoolishThings :: Examples :: DCI :: Swing/it-tidalwave-role,it.tidalwave.role,Aggregate,28,0,0,0,6,0,6,0,6,0
TheseFoolishThings :: Examples :: DCI :: Swing/it-tidalwave-role,it.tidalwave.role,Composite.new Composite() {...},5,0,0,0,2,0,2,0,2,0
TheseFoolishThings :: Examples :: DCI :: Swing/it-tidalwave-role,it.tidalwave.role,Removable,6,0,0,0,2,0,2,0,2,0
TheseFoolishThings :: Examples :: DCI :: Swing/it-tidalwave-role,it.tidalwave.role,HtmlRenderable,3,0,0,0,1,0,1,0,1,0
TheseFoolishThings :: Examples :: DCI :: Swing/it-tidalwave-role,it.tidalwave.role,ContextManager,35,40,0,0,6,7,5,5,5,5
TheseFoolishThings :: Examples :: DCI :: Swing/it-tidalwave-role,it.tidalwave.role,Composite,7,0,0,0,2,0,1,0,1,0
TheseFoolishThings :: Examples :: DCI :: Swing/it-tidalwave-role,it.tidalwave.role.ui.spi,DefaultUserActionProvider,0,10,0,0,0,3,0,3,0,3
TheseFoolishThings :: Examples :: DCI :: Swing/it-tidalwave-role,it.tidalwave.role.ui.spi,SimpleCompositePresentable.SCPFinder.new Task() {...},0,52,0,0,0,8,0,6,0,6
TheseFoolishThings :: Examples :: DCI :: Swing/it-tidalwave-role,it.tidalwave.role.ui.spi,SimpleCompositePresentable.new Task() {...},0,51,0,2,0,6,0,3,0,2
TheseFoolishThings :: Examples :: DCI :: Swing/it-tidalwave-role,it.tidalwave.role.ui.spi,PresentationModelCollectors,73,0,0,0,11,0,9,0,9,0
TheseFoolishThings :: Examples :: DCI :: Swing/it-tidalwave-role,it.tidalwave.role.ui.spi,SimpleCompositePresentable,0,84,0,4,0,19,0,8,0,6
TheseFoolishThings :: Examples :: DCI :: Swing/it-tidalwave-role,it.tidalwave.role.ui.spi,MutableIconProviderSupport,27,0,0,0,9,0,5,0,5,0
TheseFoolishThings :: Examples :: DCI :: Swing/it-tidalwave-role,it.tidalwave.role.ui.spi,DefaultPresentationModelFactory,0,9,0,0,0,2,0,2,0,2
TheseFoolishThings :: Examples :: DCI :: Swing/it-tidalwave-role,it.tidalwave.role.ui.spi,ActionProviderSupport,10,0,0,0,3,0,3,0,3,0
TheseFoolishThings :: Examples :: DCI :: Swing/it-tidalwave-role,it.tidalwave.role.ui.spi,SimpleCompositePresentable.SCPFinder,29,23,2,2,5,2,3,2,1,2
TheseFoolishThings :: Examples :: DCI :: Swing/it-tidalwave-util,it.tidalwave.util.thread,ThreadType,34,0,0,0,2,0,1,0,1,0
TheseFoolishThings :: Examples :: DCI :: Swing/it-tidalwave-util,it.tidalwave.util.thread,ThreadAssertions,25,0,6,0,5,0,6,0,3,0
TheseFoolishThings :: Examples :: DCI :: Swing/it-tidalwave-util,it.tidalwave.util.ui,UserNotification,61,0,0,0,8,0,9,0,9,0
TheseFoolishThings :: Examples :: DCI :: Swing/it-tidalwave-util,it.tidalwave.util.ui,UserNotificationWithFeedback.Feedback,67,0,8,0,11,0,11,0,7,0
TheseFoolishThings :: Examples :: DCI :: Swing/it-tidalwave-util,it.tidalwave.util.ui,UserNotificationWithFeedback,89,0,0,0,16,0,12,0,12,0
TheseFoolishThings :: Examples :: DCI :: Swing/it-tidalwave-util,it.tidalwave.util.spi,DefaultProcessExecutor,187,0,6,0,35,0,15,0,12,0
TheseFoolishThings :: Examples :: DCI :: Swing/it-tidalwave-util,it.tidalwave.util.spi,AsDelegateProvider.EmptyAsDelegateProvider,0,8,0,0,0,2,0,2,0,2
TheseFoolishThings :: Examples :: DCI :: Swing/it-tidalwave-util,it.tidalwave.util.spi,DefaultProcessExecutor.DefaultConsoleOutput,326,0,30,0,69,0,26,0,11,0
TheseFoolishThings :: Examples :: DCI :: Swing/it-tidalwave-util,it.tidalwave.util.spi,AsDelegateProvider.EmptyAsDelegateProvider.new AsDelegate() {...},0,10,0,0,0,2,0,2,0,2
TheseFoolishThings :: Examples :: DCI :: Swing/it-tidalwave-util,it.tidalwave.util.spi,AsDelegateProvider,0,8,0,0,0,3,0,2,0,2
TheseFoolishThings :: Examples :: DCI :: Swing/it-tidalwave-util,it.tidalwave.util.spi,FinderWithIdMapSupport,50,0,2,0,10,0,6,0,5,0
TheseFoolishThings :: Examples :: DCI :: Swing/it-tidalwave-util,it.tidalwave.util.spi,DefaultProcessExecutor.DefaultConsoleOutput.new Runnable() {...},37,0,4,0,9,0,4,0,2,0
TheseFoolishThings :: Examples :: DCI :: Swing/it-tidalwave-util,it.tidalwave.util.spi,ArrayListCollectorSupport,17,0,0,0,5,0,6,0,6,0
TheseFoolishThings :: Examples :: DCI :: Swing/it-tidalwave-util,it.tidalwave.util.spi,DefaultProcessExecutor.DefaultConsoleOutput.new Runnable() {...},19,0,0,0,6,0,2,0,2,0
TheseFoolishThings :: Examples :: DCI :: Swing/it-tidalwave-util,it.tidalwave.util.spi,AsDelegateProvider.Locator,7,30,1,1,2,12,1,5,0,5
TheseFoolishThings :: Examples :: DCI :: Swing/it-tidalwave-util,it.tidalwave.util.spi,HierarchicFinderSupport.Sorter,30,0,4,0,3,0,4,0,2,0
TheseFoolishThings :: Examples :: DCI :: Swing/it-tidalwave-util,it.tidalwave.util.spi,FinderWithIdSupport,75,0,2,0,13,0,10,0,9,0
TheseFoolishThings :: Examples :: DCI :: Swing/it-tidalwave-util,it.tidalwave.util.spi,SimpleFinderSupport,4,8,0,0,2,3,1,2,1,2
TheseFoolishThings :: Examples :: DCI :: Swing/it-tidalwave-util,it.tidalwave.util.spi,HierarchicFinderSupport,159,228,6,8,29,38,14,16,9,14
TheseFoolishThings :: Examples :: DCI :: Swing/it-tidalwave-util,it.tidalwave.util,Initializer.EmptyInitializer,5,0,0,0,2,0,2,0,2,0
TheseFoolishThings :: Examples :: DCI :: Swing/it-tidalwave-util,it.tidalwave.util,NamedCallback,39,0,4,0,4,0,7,0,5,0
TheseFoolishThings :: Examples :: DCI :: Swing/it-tidalwave-util,it.tidalwave.util,Finder.SortCriterion,8,0,0,0,3,0,2,0,2,0
TheseFoolishThings :: Examples :: DCI :: Swing/it-tidalwave-util,it.tidalwave.util,CollectionUtils,9,72,0,4,1,19,1,9,1,7
TheseFoolishThings :: Examples :: DCI :: Swing/it-tidalwave-util,it.tidalwave.util,Finder,58,21,2,0,13,4,11,4,10,4
TheseFoolishThings :: Examples :: DCI :: Swing/it-tidalwave-util,it.tidalwave.util,SimpleTask,3,0,0,0,1,0,1,0,1,0
TheseFoolishThings :: Examples :: DCI :: Swing/it-tidalwave-util,it.tidalwave.util,BundleUtilities,0,28,0,2,0,5,0,3,0,2
TheseFoolishThings :: Examples :: DCI :: Swing/it-tidalwave-util,it.tidalwave.util,Initializer,4,0,0,0,1,0,1,0,1,0
TheseFoolishThings :: Examples :: DCI :: Swing/it-tidalwave-util,it.tidalwave.util,Task,37,21,0,0,7,3,5,1,5,1
TheseFoolishThings :: Examples :: DCI :: Swing/it-tidalwave-util,it.tidalwave.util,Id,30,75,9,9,2,4,10,8,2,7
TheseFoolishThings :: Examples :: DCI :: Swing/it-tidalwave-util,it.tidalwave.util,ReflectionUtils,73,75,10,10,17,17,8,5,1,2
TheseFoolishThings :: Examples :: DCI :: Swing/it-tidalwave-util,it.tidalwave.util,As,19,36,1,1,3,5,4,6,3,6
TheseFoolishThings :: Examples :: DCI :: Swing/it-tidalwave-util,it.tidalwave.util,TypeSafeMultiMap,6,10,0,0,2,2,2,2,2,2
TheseFoolishThings :: Examples :: DCI :: Swing/it-tidalwave-util,it.tidalwave.util,Task.new Task() {...},11,0,0,0,3,0,2,0,2,0
TheseFoolishThings :: Examples :: DCI :: Swing/it-tidalwave-util,it.tidalwave.util,LazySupplier,5,35,1,3,0,9,1,6,0,5
TheseFoolishThings :: Examples :: DCI :: Swing/it-tidalwave-util,it.tidalwave.util,Callback,4,0,0,0,1,0,2,0,2,0
TheseFoolishThings :: Examples :: DCI :: Swing/it-tidalwave-util,it.tidalwave.util,DuplicateException,7,0,0,0,4,0,2,0,2,0
TheseFoolishThings :: Examples :: DCI :: Swing/it-tidalwave-util,it.tidalwave.util,Finder.InMemorySortCriterion,17,0,0,0,4,0,3,0,3,0
TheseFoolishThings :: Examples :: DCI :: Swing/it-tidalwave-util,it.tidalwave.util,Finder.SortDirection,37,0,0,0,3,0,3,0,3,0
TheseFoolishThings :: Examples :: DCI :: Swing/it-tidalwave-util,it.tidalwave.util,Pair,84,226,17,9,3,22,18,34,5,34
TheseFoolishThings :: Examples :: DCI :: Swing/it-tidalwave-util,it.tidalwave.util,TypeSafeMap,6,18,0,0,2,5,2,3,2,3
TheseFoolishThings :: Examples :: DCI :: Swing/it-tidalwave-util,it.tidalwave.util,NotFoundException,35,27,8,4,10,10,8,6,4,4
TheseFoolishThings :: Examples :: DCI :: Swing/it-tidalwave-util,it.tidalwave.util,Parameters,75,44,10,6,12,9,8,4,2,2
TheseFoolishThings :: Examples :: DCI :: Swing/it-tidalwave-util,it.tidalwave.util,Key,38,162,13,15,4,15,14,16,3,13
TheseFoolishThings :: Examples :: DCI :: Swing/it-tidalwave-util,it.tidalwave.util,Finder.InMemorySortCriterion.DefaultInMemorySortCriterion,136,0,26,0,3,0,20,0,7,0
TheseFoolishThings :: Examples :: DCI :: Swing/it-tidalwave-util,it.tidalwave.util,FunctionalCheckedExceptionWrappers,11,64,0,4,6,23,2,11,2,9
TheseFoolishThings :: Examples :: DCI :: Swing/it-tidalwave-util,it.tidalwave.util,LocalizedDateTimeFormatters,0,16,0,0,0,3,0,1,0,1
TheseFoolishThings :: Examples :: DCI :: Swing/it-tidalwave-util,it.tidalwave.util,StreamOperations,2,64,2,2,0,12,2,2,0,2
TheseFoolishThings :: Examples :: DCI :: Swing/it-tidalwave-util,it.tidalwave.util,Pair.Factory,0,29,0,0,0,4,0,3,0,3
TheseFoolishThings :: Examples :: DCI :: Swing/it-tidalwave-util,it.tidalwave.util,Triple,92,118,24,12,0,8,20,12,2,12
TheseFoolishThings :: Examples :: DCI :: Swing/it-tidalwave-util,it.tidalwave.util,As.Type,61,11,13,1,0,2,10,2,3,2
TheseFoolishThings :: Examples :: DCI :: Swing/it-tidalwave-util,it.tidalwave.util,TimeProvider.DefaultTimeProvider,0,5,0,0,0,2,0,2,0,2
TheseFoolishThings :: Examples :: DCI :: Swing/it-tidalwave-util,it.tidalwave.util,AsExtensions,36,0,0,0,8,0,8,0,8,0
TheseFoolishThings :: Examples :: DCI :: Swing/it-tidalwave-util,it.tidalwave.util,TimeProvider,3,33,1,1,1,7,2,4,1,4
TheseFoolishThings :: Examples :: DCI :: Swing/it-tidalwave-util,it.tidalwave.util,Task.new Task() {...},10,0,0,0,2,0,2,0,2,0
TheseFoolishThings :: Examples :: DCI :: Swing/it-tidalwave-util,it.tidalwave.util,StreamOperations.new Spliterators.AbstractSpliterator() {...},0,37,1,3,0,5,1,3,0,2
TheseFoolishThings :: Examples :: DCI :: Swing/it-tidalwave-util,it.tidalwave.util,Task.new Task() {...},11,0,0,0,3,0,2,0,2,0
TheseFoolishThings :: Examples :: DCI :: Swing/it-tidalwave-util,it.tidalwave.util,AsException,6,5,0,0,2,2,1,1,1,1
TheseFoolishThings :: Examples :: DCI :: Swing/it-tidalwave-util,it.tidalwave.util,ConcurrentHashMapWithOptionals,0,24,0,2,0,3,0,5,0,4
TheseFoolishThings :: Examples :: DCI :: Swing/it-tidalwave-util,it.tidalwave.util.impl,TypeSafeHashMultiMap,74,86,14,2,4,20,13,11,6,10
TheseFoolishThings :: Examples :: DCI :: Swing/it-tidalwave-util,it.tidalwave.util.impl,SupplierFinder,15,14,0,0,4,4,1,2,1,2
TheseFoolishThings :: Examples :: DCI :: Swing/it-tidalwave-util,it.tidalwave.util.impl,ArrayListFinder,0,31,0,0,0,8,0,3,0,3
TheseFoolishThings :: Examples :: DCI :: Swing/it-tidalwave-util,it.tidalwave.util.impl,TypeSafeHashMap,74,78,14,0,4,17,13,10,6,10
TheseFoolishThings :: Examples :: DCI :: Swing/it-tidalwave-util,it.tidalwave.util.impl,ProviderFinder,0,35,0,0,0,8,0,3,0,3
TheseFoolishThings :: Examples :: DCI :: Swing/it-tidalwave-util,it.tidalwave.util.impl,MappingFinder,0,39,0,0,0,10,0,3,0,3
TheseFoolishThings :: Examples :: DCI :: Swing/it-tidalwave-util,it.tidalwave.util.impl,DefaultAs,33,151,1,13,6,30,4,14,3,8
TheseFoolishThings :: Examples :: DCI :: Swing/it-tidalwave-util-test,it.tidalwave.util.test,MockTimeProvider,14,0,0,0,4,0,3,0,3,0
TheseFoolishThings :: Examples :: DCI :: Swing/it-tidalwave-util-test,it.tidalwave.util.test,MoreAnswers,10,11,1,1,1,3,2,2,1,2
TheseFoolishThings :: Examples :: DCI :: Swing/it-tidalwave-util-test,it.tidalwave.util.test,FileComparisonUtils,665,0,28,0,101,0,42,0,27,0
TheseFoolishThings :: Examples :: DCI :: Swing/it-tidalwave-util-test,it.tidalwave.util.test,TestLogger,100,198,10,8,27,46,11,10,4,8
