<?xml version="1.0" encoding="UTF-8" standalone="no"?><svg xmlns="http://www.w3.org/2000/svg" xmlns:xlink="http://www.w3.org/1999/xlink" contentScriptType="application/ecmascript" contentStyleType="text/css" height="234px" preserveAspectRatio="none" style="width:745px;height:234px;" version="1.1" viewBox="0 0 745 234" width="745px" zoomAndPan="magnify"><defs><filter height="300%" id="f16elpekuzbvzv" width="300%" x="-1" y="-1"><feGaussianBlur result="blurOut" stdDeviation="2.0"/><feColorMatrix in="blurOut" result="blurOut2" type="matrix" values="0 0 0 0 0 0 0 0 0 0 0 0 0 0 0 0 0 0 .4 0"/><feOffset dx="4.0" dy="4.0" in="blurOut2" result="blurOut3"/><feBlend in="SourceGraphic" in2="blurOut3" mode="normal"/></filter></defs><g><!--MD5=[32bcbd82a46eef9068fe9f17c9d0510d]
class it.tidalwave.northernwind.frontend.ui.component.nodecontainer.htmltemplate.HtmlTemplateNodeContainerView--><a href="HtmlTemplateNodeContainerView.html" target="_top" title="HtmlTemplateNodeContainerView.html" xlink:actuate="onRequest" xlink:href="HtmlTemplateNodeContainerView.html" xlink:show="new" xlink:title="HtmlTemplateNodeContainerView.html" xlink:type="simple"><rect codeLine="5" fill="#FEFECE" filter="url(#f16elpekuzbvzv)" height="59.2207" id="it.tidalwave.northernwind.frontend.ui.component.nodecontainer.htmltemplate.HtmlTemplateNodeContainerView" style="stroke: #A80036; stroke-width: 1.5;" width="413" x="158.5" y="139"/><ellipse cx="173.5" cy="158.1328" fill="#ADD1B2" rx="11" ry="11" style="stroke: #A80036; stroke-width: 1.0;"/><path d="M175.9731,164.2759 Q175.3921,164.5747 174.7529,164.7241 Q174.1138,164.8735 173.4082,164.8735 Q170.9014,164.8735 169.5815,163.2217 Q168.2617,161.5698 168.2617,158.4487 Q168.2617,155.3193 169.5815,153.6675 Q170.9014,152.0156 173.4082,152.0156 Q174.1138,152.0156 174.7612,152.165 Q175.4087,152.3145 175.9731,152.6133 L175.9731,155.3359 Q175.3423,154.7549 174.7488,154.4851 Q174.1553,154.2153 173.5244,154.2153 Q172.1797,154.2153 171.4949,155.282 Q170.8101,156.3486 170.8101,158.4487 Q170.8101,160.5405 171.4949,161.6072 Q172.1797,162.6738 173.5244,162.6738 Q174.1553,162.6738 174.7488,162.4041 Q175.3423,162.1343 175.9731,161.5532 Z "/><text fill="#000000" font-family="sans-serif" font-size="14" lengthAdjust="spacingAndGlyphs" textLength="232" x="262" y="157.5352">HtmlTemplateNodeContainerView</text><text fill="#000000" font-family="sans-serif" font-size="10" lengthAdjust="spacingAndGlyphs" textLength="381" x="187.5" y="170.1563">it.tidalwave.northernwind.frontend.ui.component.nodecontainer.htmltemplate</text><line style="stroke: #A80036; stroke-width: 1.5;" x1="159.5" x2="570.5" y1="177.2656" y2="177.2656"/><ellipse cx="169.5" cy="188.2656" fill="#84BE84" rx="3" ry="3" style="stroke: #038048; stroke-width: 1.0;"/><text fill="#000000" font-family="sans-serif" font-size="11" lengthAdjust="spacingAndGlyphs" textLength="197" x="178.5" y="191.9004">HtmlTemplateNodeContainerView(Id)</text></a><!--MD5=[615a3a839e33691ecb1928340c5c0ee2]
class it.tidalwave.northernwind.frontend.ui.component.htmltemplate.HtmlHolder--><a href="../../htmltemplate/HtmlHolder.html" target="_top" title="../../htmltemplate/HtmlHolder.html" xlink:actuate="onRequest" xlink:href="../../htmltemplate/HtmlHolder.html" xlink:show="new" xlink:title="../../htmltemplate/HtmlHolder.html" xlink:type="simple"><rect codeLine="9" fill="#FEFECE" filter="url(#f16elpekuzbvzv)" height="38.2656" id="it.tidalwave.northernwind.frontend.ui.component.htmltemplate.HtmlHolder" style="stroke: #A80036; stroke-width: 1.5;" width="340" x="7" y="24"/><ellipse cx="22" cy="43.1328" fill="#ADD1B2" rx="11" ry="11" style="stroke: #A80036; stroke-width: 1.0;"/><path d="M24.4731,49.2759 Q23.8921,49.5747 23.2529,49.7241 Q22.6138,49.8735 21.9082,49.8735 Q19.4014,49.8735 18.0815,48.2217 Q16.7617,46.5698 16.7617,43.4487 Q16.7617,40.3193 18.0815,38.6675 Q19.4014,37.0156 21.9082,37.0156 Q22.6138,37.0156 23.2612,37.165 Q23.9087,37.3145 24.4731,37.6133 L24.4731,40.3359 Q23.8423,39.7549 23.2488,39.4851 Q22.6553,39.2153 22.0244,39.2153 Q20.6797,39.2153 19.9949,40.282 Q19.3101,41.3486 19.3101,43.4487 Q19.3101,45.5405 19.9949,46.6072 Q20.6797,47.6738 22.0244,47.6738 Q22.6553,47.6738 23.2488,47.4041 Q23.8423,47.1343 24.4731,46.5532 Z "/><text fill="#000000" font-family="sans-serif" font-size="14" lengthAdjust="spacingAndGlyphs" textLength="78" x="151" y="42.5352">HtmlHolder</text><text fill="#000000" font-family="sans-serif" font-size="10" lengthAdjust="spacingAndGlyphs" textLength="308" x="36" y="55.1563">it.tidalwave.northernwind.frontend.ui.component.htmltemplate</text></a><!--MD5=[86615fb2b15091be7a1d5e9e453a6d9d]
class it.tidalwave.northernwind.frontend.ui.component.nodecontainer.NodeContainerView--><a href="http://tidalwave.it/projects/northernwind/it-tidalwave-northernwind-modules/it-tidalwave-northernwind-frontend-components/apidocs/it/tidalwave/northernwind/frontend/ui/component/nodecontainer/NodeContainerView.html?is-external=true" target="_top" title="http://tidalwave.it/projects/northernwind/it-tidalwave-northernwind-modules/it-tidalwave-northernwind-frontend-components/apidocs/it/tidalwave/northernwind/frontend/ui/component/nodecontainer/NodeContainerView.html?is-external=true" xlink:actuate="onRequest" xlink:href="http://tidalwave.it/projects/northernwind/it-tidalwave-northernwind-modules/it-tidalwave-northernwind-frontend-components/apidocs/it/tidalwave/northernwind/frontend/ui/component/nodecontainer/NodeContainerView.html?is-external=true" xlink:show="new" xlink:title="http://tidalwave.it/projects/northernwind/it-tidalwave-northernwind-modules/it-tidalwave-northernwind-frontend-components/apidocs/it/tidalwave/northernwind/frontend/ui/component/nodecontainer/NodeContainerView.html?is-external=true" xlink:type="simple"><rect codeLine="10" fill="#FEFECE" filter="url(#f16elpekuzbvzv)" height="72.1758" id="it.tidalwave.northernwind.frontend.ui.component.nodecontainer.NodeContainerView" style="stroke: #A80036; stroke-width: 1.5;" width="344" x="382" y="7"/><ellipse cx="397" cy="26.1328" fill="#B4A7E5" rx="11" ry="11" style="stroke: #A80036; stroke-width: 1.0;"/><path d="M393.4277,22.3979 L393.4277,20.2397 L400.8071,20.2397 L400.8071,22.3979 L398.3418,22.3979 L398.3418,30.4746 L400.8071,30.4746 L400.8071,32.6328 L393.4277,32.6328 L393.4277,30.4746 L395.8931,30.4746 L395.8931,22.3979 Z "/><text fill="#000000" font-family="sans-serif" font-size="14" font-style="italic" lengthAdjust="spacingAndGlyphs" textLength="136" x="499" y="25.5352">NodeContainerView</text><text fill="#000000" font-family="sans-serif" font-size="10" font-style="italic" lengthAdjust="spacingAndGlyphs" textLength="312" x="411" y="38.1563">it.tidalwave.northernwind.frontend.ui.component.nodecontainer</text><line style="stroke: #A80036; stroke-width: 1.5;" x1="383" x2="725" y1="45.2656" y2="45.2656"/><ellipse cx="393" cy="56.2656" fill="#84BE84" rx="3" ry="3" style="stroke: #038048; stroke-width: 1.0;"/><text fill="#000000" font-family="sans-serif" font-size="11" font-style="italic" lengthAdjust="spacingAndGlyphs" textLength="175" x="402" y="59.9004">addAttribute(String, String): void</text><ellipse cx="393" cy="69.2207" fill="#84BE84" rx="3" ry="3" style="stroke: #038048; stroke-width: 1.0;"/><text fill="#000000" font-family="sans-serif" font-size="11" font-style="italic" lengthAdjust="spacingAndGlyphs" textLength="134" x="402" y="72.8555">setTemplate(String): void</text></a><!--MD5=[032128ab5ddf84d32ed98f5bbf845364]
reverse link it.tidalwave.northernwind.frontend.ui.component.htmltemplate.HtmlHolder to it.tidalwave.northernwind.frontend.ui.component.nodecontainer.htmltemplate.HtmlTemplateNodeContainerView--><path codeLine="15" d="M222.3832,73.2957 C252.2443,93.2296 291.1367,119.1923 320.7627,138.9693 " fill="none" id="it.tidalwave.northernwind.frontend.ui.component.htmltemplate.HtmlHolder-backto-it.tidalwave.northernwind.frontend.ui.component.nodecontainer.htmltemplate.HtmlTemplateNodeContainerView" style="stroke: #A80036; stroke-width: 1.0;"/><polygon fill="none" points="218.3009,78.987,205.5532,62.0607,226.0739,67.343,218.3009,78.987" style="stroke: #A80036; stroke-width: 1.0;"/><!--MD5=[4435d2c625e81f89ed55ed67d1a85393]
reverse link it.tidalwave.northernwind.frontend.ui.component.nodecontainer.NodeContainerView to it.tidalwave.northernwind.frontend.ui.component.nodecontainer.htmltemplate.HtmlTemplateNodeContainerView--><path codeLine="16" d="M482.6166,90.4001 C458.0598,106.7063 431.2842,124.4859 409.4922,138.9562 " fill="none" id="it.tidalwave.northernwind.frontend.ui.component.nodecontainer.NodeContainerView-backto-it.tidalwave.northernwind.frontend.ui.component.nodecontainer.htmltemplate.HtmlTemplateNodeContainerView" style="stroke: #A80036; stroke-width: 1.0; stroke-dasharray: 7.0,7.0;"/><polygon fill="none" points="479.0534,84.3635,499.5869,79.1314,486.7978,96.0264,479.0534,84.3635" style="stroke: #A80036; stroke-width: 1.0;"/><text fill="#888888" font-family="sans-serif" font-size="10" lengthAdjust="spacingAndGlyphs" textLength="188" x="269.5" y="220.8887">UMLDoclet 2.0.12, PlantUML 1.2020.16</text><!--MD5=[d5e478eaa428420e0b3912c7c2c74371]
@startuml
    set namespaceSeparator none
    hide empty fields
    hide empty methods

    class "<size:14>HtmlTemplateNodeContainerView\n<size:10>it.tidalwave.northernwind.frontend.ui.component.nodecontainer.htmltemplate" as it.tidalwave.northernwind.frontend.ui.component.nodecontainer.htmltemplate.HtmlTemplateNodeContainerView [[HtmlTemplateNodeContainerView.html]] {
        +HtmlTemplateNodeContainerView(Id)
    }

    class "<size:14>HtmlHolder\n<size:10>it.tidalwave.northernwind.frontend.ui.component.htmltemplate" as it.tidalwave.northernwind.frontend.ui.component.htmltemplate.HtmlHolder [[../../htmltemplate/HtmlHolder.html]]
    interface "<size:14>NodeContainerView\n<size:10>it.tidalwave.northernwind.frontend.ui.component.nodecontainer" as it.tidalwave.northernwind.frontend.ui.component.nodecontainer.NodeContainerView [[http://tidalwave.it/projects/northernwind/it-tidalwave-northernwind-modules/it-tidalwave-northernwind-frontend-components/apidocs/it/tidalwave/northernwind/frontend/ui/component/nodecontainer/NodeContainerView.html?is-external=true]] {
        {abstract} +addAttribute(String, String): void
        {abstract} +setTemplate(String): void
    }

    it.tidalwave.northernwind.frontend.ui.component.htmltemplate.HtmlHolder <|- - it.tidalwave.northernwind.frontend.ui.component.nodecontainer.htmltemplate.HtmlTemplateNodeContainerView
    it.tidalwave.northernwind.frontend.ui.component.nodecontainer.NodeContainerView <|.. it.tidalwave.northernwind.frontend.ui.component.nodecontainer.htmltemplate.HtmlTemplateNodeContainerView

    center footer UMLDoclet 2.0.12, PlantUML 1.2020.16
@enduml

PlantUML version 1.2020.16(Sun Aug 23 22:20:43 CEST 2020)
(APACHE source distribution)
Java Runtime: OpenJDK Runtime Environment
JVM: OpenJDK 64-Bit Server VM
Default Encoding: UTF-8
Language: en
Country: GB
--></g></svg>