@startuml
    set namespaceSeparator none
    hide empty fields
    hide empty methods

    class "<size:14>DefaultStructureEditorPresentationControlTest\n<size:10>it.tidalwave.northernwind.rca.ui.structureeditor.spi" as it.tidalwave.northernwind.rca.ui.structureeditor.spi.DefaultStructureEditorPresentationControlTest [[DefaultStructureEditorPresentationControlTest.html]] {
        +setup(): void
        +tearDown(): void
        +must_be_a_MessageSubscriber(): void
        +must_clear_the_presentation_on_reception_of_an_empty_selection(): void
        +must_populate_the_presentation_on_reception_of_selected_node(): void
    }

    center footer UMLDoclet 2.0.12, PlantUML 1.2020.16
@enduml
