<?xml version="1.0" encoding="UTF-8" standalone="no"?><svg xmlns="http://www.w3.org/2000/svg" xmlns:xlink="http://www.w3.org/1999/xlink" contentScriptType="application/ecmascript" contentStyleType="text/css" height="516px" preserveAspectRatio="none" style="width:1111px;height:516px;" version="1.1" viewBox="0 0 1111 516" width="1111px" zoomAndPan="magnify"><defs><filter height="300%" id="fxkzz7gmjdfuk" width="300%" x="-1" y="-1"><feGaussianBlur result="blurOut" stdDeviation="2.0"/><feColorMatrix in="blurOut" result="blurOut2" type="matrix" values="0 0 0 0 0 0 0 0 0 0 0 0 0 0 0 0 0 0 .4 0"/><feOffset dx="4.0" dy="4.0" in="blurOut2" result="blurOut3"/><feBlend in="SourceGraphic" in2="blurOut3" mode="normal"/></filter></defs><g><!--MD5=[1c7885108086dc67b95517408af89821]
cluster it.tidalwave.northernwind.frontend.ui.component.rssfeed--><polygon fill="#FFFFFF" filter="url(#fxkzz7gmjdfuk)" points="531,192,941,192,948,214.4883,1089,214.4883,1089,487,531,487,531,192" style="stroke: #000000; stroke-width: 1.5;"/><line style="stroke: #000000; stroke-width: 1.5;" x1="531" x2="948" y1="214.4883" y2="214.4883"/><text fill="#000000" font-family="sans-serif" font-size="14" font-weight="bold" lengthAdjust="spacingAndGlyphs" textLength="404" x="535" y="207.5352">it.tidalwave.northernwind.frontend.ui.component.rssfeed</text><!--MD5=[90c2144f63705a3044483f7c3d43505d]
cluster it.tidalwave.northernwind.frontend.ui--><polygon fill="#FFFFFF" filter="url(#fxkzz7gmjdfuk)" points="756,19,1027,19,1034,41.4883,1037,41.4883,1037,154,756,154,756,19" style="stroke: #000000; stroke-width: 1.5;"/><line style="stroke: #000000; stroke-width: 1.5;" x1="756" x2="1034" y1="41.4883" y2="41.4883"/><text fill="#000000" font-family="sans-serif" font-size="14" font-weight="bold" lengthAdjust="spacingAndGlyphs" textLength="265" x="760" y="34.5352">it.tidalwave.northernwind.frontend.ui</text><!--MD5=[e68c14196269d1f2dad59416aa1d49ed]
cluster it.tidalwave.northernwind.frontend.ui.component.blog--><polygon fill="#FFFFFF" filter="url(#fxkzz7gmjdfuk)" points="16,6,405,6,412,28.4883,743,28.4883,743,167,16,167,16,6" style="stroke: #000000; stroke-width: 1.5;"/><line style="stroke: #000000; stroke-width: 1.5;" x1="16" x2="412" y1="28.4883" y2="28.4883"/><text fill="#000000" font-family="sans-serif" font-size="14" font-weight="bold" lengthAdjust="spacingAndGlyphs" textLength="383" x="20" y="21.5352">it.tidalwave.northernwind.frontend.ui.component.blog</text><!--MD5=[6c0cab2e3e53d3b38ebd7787677eec7e]
class it.tidalwave.northernwind.frontend.ui.component.rssfeed.RssFeedViewController--><a href="RssFeedViewController.html" target="_top" title="RssFeedViewController.html" xlink:actuate="onRequest" xlink:href="RssFeedViewController.html" xlink:show="new" xlink:title="RssFeedViewController.html" xlink:type="simple"><rect codeLine="3" fill="#FEFECE" filter="url(#fxkzz7gmjdfuk)" height="73.9102" id="it.tidalwave.northernwind.frontend.ui.component.rssfeed.RssFeedViewController" style="stroke: #A80036; stroke-width: 1.5;" width="165" x="795.5" y="219"/><ellipse cx="811.4" cy="235" fill="#B4A7E5" rx="11" ry="11" style="stroke: #A80036; stroke-width: 1.0;"/><path d="M807.8277,231.2651 L807.8277,229.1069 L815.2071,229.1069 L815.2071,231.2651 L812.7418,231.2651 L812.7418,239.3418 L815.2071,239.3418 L815.2071,241.5 L807.8277,241.5 L807.8277,239.3418 L810.2931,239.3418 L810.2931,231.2651 Z "/><text fill="#000000" font-family="sans-serif" font-size="12" font-style="italic" lengthAdjust="spacingAndGlyphs" textLength="131" x="825.6" y="239.5352">RssFeedViewController</text><line style="stroke: #A80036; stroke-width: 1.5;" x1="796.5" x2="959.5" y1="251" y2="251"/><ellipse cx="806.5" cy="262" fill="none" rx="3" ry="3" style="stroke: #038048; stroke-width: 1.0;"/><text fill="#000000" font-family="sans-serif" font-size="11" lengthAdjust="spacingAndGlyphs" text-decoration="underline" textLength="139" x="815.5" y="265.6348">P_CREATOR: Key&lt;String&gt;</text><ellipse cx="806.5" cy="274.9551" fill="none" rx="3" ry="3" style="stroke: #038048; stroke-width: 1.0;"/><text fill="#000000" font-family="sans-serif" font-size="11" lengthAdjust="spacingAndGlyphs" text-decoration="underline" textLength="111" x="815.5" y="278.5898">P_LINK: Key&lt;String&gt;</text><line style="stroke: #A80036; stroke-width: 1.5;" x1="796.5" x2="959.5" y1="284.9102" y2="284.9102"/></a><!--MD5=[9b0814ee31be04737eb3e306559ae373]
class it.tidalwave.northernwind.frontend.ui.component.rssfeed.DefaultRssFeedViewController--><a href="DefaultRssFeedViewController.html" target="_top" title="DefaultRssFeedViewController.html" xlink:actuate="onRequest" xlink:href="DefaultRssFeedViewController.html" xlink:show="new" xlink:title="DefaultRssFeedViewController.html" xlink:type="simple"><rect codeLine="8" fill="#FEFECE" filter="url(#fxkzz7gmjdfuk)" height="125.7305" id="it.tidalwave.northernwind.frontend.ui.component.rssfeed.DefaultRssFeedViewController" style="stroke: #A80036; stroke-width: 1.5;" width="542" x="539" y="353"/><ellipse cx="719.75" cy="369" fill="#ADD1B2" rx="11" ry="11" style="stroke: #A80036; stroke-width: 1.0;"/><path d="M722.2231,375.1431 Q721.6421,375.4419 721.0029,375.5913 Q720.3638,375.7407 719.6582,375.7407 Q717.1514,375.7407 715.8315,374.0889 Q714.5117,372.437 714.5117,369.3159 Q714.5117,366.1865 715.8315,364.5347 Q717.1514,362.8828 719.6582,362.8828 Q720.3638,362.8828 721.0112,363.0322 Q721.6587,363.1816 722.2231,363.4805 L722.2231,366.2031 Q721.5923,365.6221 720.9988,365.3523 Q720.4053,365.0825 719.7744,365.0825 Q718.4297,365.0825 717.7449,366.1492 Q717.0601,367.2158 717.0601,369.3159 Q717.0601,371.4077 717.7449,372.4744 Q718.4297,373.541 719.7744,373.541 Q720.4053,373.541 720.9988,373.2712 Q721.5923,373.0015 722.2231,372.4204 Z "/><text fill="#000000" font-family="sans-serif" font-size="12" lengthAdjust="spacingAndGlyphs" textLength="172" x="740.25" y="373.5352">DefaultRssFeedViewController</text><line style="stroke: #A80036; stroke-width: 1.5;" x1="540" x2="1080" y1="385" y2="385"/><line style="stroke: #A80036; stroke-width: 1.5;" x1="540" x2="1080" y1="393" y2="393"/><ellipse cx="550" cy="404" fill="#84BE84" rx="3" ry="3" style="stroke: #038048; stroke-width: 1.0;"/><text fill="#000000" font-family="sans-serif" font-size="11" lengthAdjust="spacingAndGlyphs" textLength="489" x="559" y="407.6348">DefaultRssFeedViewController(RssFeedView, SiteNode, SiteProvider, RequestLocaleManager)</text><ellipse cx="550" cy="416.9551" fill="#84BE84" rx="3" ry="3" style="stroke: #038048; stroke-width: 1.0;"/><text fill="#000000" font-family="sans-serif" font-size="11" lengthAdjust="spacingAndGlyphs" textLength="215" x="559" y="420.5898">prepareRendering(RenderContext): void</text><ellipse cx="550" cy="429.9102" fill="#84BE84" rx="3" ry="3" style="stroke: #038048; stroke-width: 1.0;"/><text fill="#000000" font-family="sans-serif" font-size="11" lengthAdjust="spacingAndGlyphs" textLength="222" x="559" y="433.5449">findVirtualSiteNodes(): Finder&lt;SiteNode&gt;</text><polygon fill="#FFFF44" points="550,437.8652,554,441.8652,550,445.8652,546,441.8652" style="stroke: #B38D22; stroke-width: 1.0;"/><text fill="#000000" font-family="sans-serif" font-size="11" lengthAdjust="spacingAndGlyphs" textLength="516" x="559" y="446.5">renderPosts(List&lt;? extends Content&gt;, List&lt;? extends Content&gt;, List&lt;? extends Content&gt;): void</text><polygon fill="#FFFF44" points="550,450.8203,554,454.8203,550,458.8203,546,454.8203" style="stroke: #B38D22; stroke-width: 1.0;"/><text fill="#000000" font-family="sans-serif" font-size="11" lengthAdjust="spacingAndGlyphs" textLength="332" x="559" y="459.4551">renderPost(Content, Optional&lt;? extends Key&lt;String&gt;&gt;): void</text><polygon fill="#FFFF44" points="550,463.7754,554,467.7754,550,471.7754,546,467.7754" style="stroke: #B38D22; stroke-width: 1.0;"/><text fill="#000000" font-family="sans-serif" font-size="11" lengthAdjust="spacingAndGlyphs" textLength="326" x="559" y="472.4102">renderTagCloud(Collection&lt;? extends TagAndCount&gt;): void</text></a><!--MD5=[5f0bc9c7fdc87d27fb96043d16a5b244]
class it.tidalwave.northernwind.frontend.ui.component.rssfeed.RssFeedView--><a href="RssFeedView.html" target="_top" title="RssFeedView.html" xlink:actuate="onRequest" xlink:href="RssFeedView.html" xlink:show="new" xlink:title="RssFeedView.html" xlink:type="simple"><rect codeLine="17" fill="#FEFECE" filter="url(#fxkzz7gmjdfuk)" height="60.9551" id="it.tidalwave.northernwind.frontend.ui.component.rssfeed.RssFeedView" style="stroke: #A80036; stroke-width: 1.5;" width="154" x="591" y="225.5"/><ellipse cx="627.15" cy="241.5" fill="#B4A7E5" rx="11" ry="11" style="stroke: #A80036; stroke-width: 1.0;"/><path d="M623.5777,237.7651 L623.5777,235.6069 L630.9571,235.6069 L630.9571,237.7651 L628.4918,237.7651 L628.4918,245.8418 L630.9571,245.8418 L630.9571,248 L623.5777,248 L623.5777,245.8418 L626.0431,245.8418 L626.0431,237.7651 Z "/><text fill="#000000" font-family="sans-serif" font-size="12" font-style="italic" lengthAdjust="spacingAndGlyphs" textLength="75" x="645.85" y="246.0352">RssFeedView</text><line style="stroke: #A80036; stroke-width: 1.5;" x1="592" x2="744" y1="257.5" y2="257.5"/><line style="stroke: #A80036; stroke-width: 1.5;" x1="592" x2="744" y1="265.5" y2="265.5"/><ellipse cx="602" cy="276.5" fill="#84BE84" rx="3" ry="3" style="stroke: #038048; stroke-width: 1.0;"/><text fill="#000000" font-family="sans-serif" font-size="11" font-style="italic" lengthAdjust="spacingAndGlyphs" textLength="128" x="611" y="280.1348">setContent(String): void</text></a><!--MD5=[fd49f22f3a54ad6da4c032e73965af1a]
class it.tidalwave.northernwind.frontend.ui.ViewController--><rect codeLine="28" fill="#FEFECE" filter="url(#fxkzz7gmjdfuk)" height="99.8203" id="it.tidalwave.northernwind.frontend.ui.ViewController" style="stroke: #A80036; stroke-width: 1.5;" width="248" x="770" y="46"/><ellipse cx="848.25" cy="62" fill="#B4A7E5" rx="11" ry="11" style="stroke: #A80036; stroke-width: 1.0;"/><path d="M844.6777,58.2651 L844.6777,56.1069 L852.0571,56.1069 L852.0571,58.2651 L849.5918,58.2651 L849.5918,66.3418 L852.0571,66.3418 L852.0571,68.5 L844.6777,68.5 L844.6777,66.3418 L847.1431,66.3418 L847.1431,58.2651 Z "/><text fill="#000000" font-family="sans-serif" font-size="12" font-style="italic" lengthAdjust="spacingAndGlyphs" textLength="83" x="868.75" y="66.5352">ViewController</text><line style="stroke: #A80036; stroke-width: 1.5;" x1="771" x2="1017" y1="78" y2="78"/><line style="stroke: #A80036; stroke-width: 1.5;" x1="771" x2="1017" y1="86" y2="86"/><ellipse cx="781" cy="97" fill="#84BE84" rx="3" ry="3" style="stroke: #038048; stroke-width: 1.0;"/><text fill="#000000" font-family="sans-serif" font-size="11" lengthAdjust="spacingAndGlyphs" textLength="81" x="790" y="100.6348">initialize(): void</text><ellipse cx="781" cy="109.9551" fill="#84BE84" rx="3" ry="3" style="stroke: #038048; stroke-width: 1.0;"/><text fill="#000000" font-family="sans-serif" font-size="11" lengthAdjust="spacingAndGlyphs" textLength="215" x="790" y="113.5898">prepareRendering(RenderContext): void</text><ellipse cx="781" cy="122.9102" fill="#84BE84" rx="3" ry="3" style="stroke: #038048; stroke-width: 1.0;"/><text fill="#000000" font-family="sans-serif" font-size="11" lengthAdjust="spacingAndGlyphs" textLength="178" x="790" y="126.5449">renderView(RenderContext): void</text><ellipse cx="781" cy="135.8652" fill="#84BE84" rx="3" ry="3" style="stroke: #038048; stroke-width: 1.0;"/><text fill="#000000" font-family="sans-serif" font-size="11" lengthAdjust="spacingAndGlyphs" textLength="222" x="790" y="139.5">findVirtualSiteNodes(): Finder&lt;SiteNode&gt;</text><!--MD5=[2b540a5ae15ceceddc99585e75e3a227]
class it.tidalwave.northernwind.frontend.ui.component.blog.DefaultBlogViewController--><rect codeLine="37" fill="#FEFECE" filter="url(#fxkzz7gmjdfuk)" height="125.7305" id="it.tidalwave.northernwind.frontend.ui.component.blog.DefaultBlogViewController" style="stroke: #A80036; stroke-width: 1.5;" width="542" x="24" y="33"/><ellipse cx="216.75" cy="49" fill="#A9DCDF" rx="11" ry="11" style="stroke: #A80036; stroke-width: 1.0;"/><path d="M216.6133,44.3481 L215.4595,49.4199 L217.7754,49.4199 Z M215.1191,42.1069 L218.1157,42.1069 L221.4609,54.5 L219.0122,54.5 L218.2485,51.437 L214.9697,51.437 L214.2227,54.5 L211.7739,54.5 Z "/><text fill="#000000" font-family="sans-serif" font-size="12" font-style="italic" lengthAdjust="spacingAndGlyphs" textLength="148" x="237.25" y="53.5352">DefaultBlogViewController</text><line style="stroke: #A80036; stroke-width: 1.5;" x1="25" x2="565" y1="65" y2="65"/><polygon fill="none" points="35,71,39,75,35,79,31,75" style="stroke: #B38D22; stroke-width: 1.0;"/><text fill="#000000" font-family="sans-serif" font-size="11" lengthAdjust="spacingAndGlyphs" text-decoration="underline" textLength="225" x="44" y="79.6348">DATE_KEYS: List&lt;Key&lt;ZonedDateTime&gt;&gt;</text><ellipse cx="35" cy="88.9551" fill="none" rx="3" ry="3" style="stroke: #038048; stroke-width: 1.0;"/><text fill="#000000" font-family="sans-serif" font-size="11" lengthAdjust="spacingAndGlyphs" text-decoration="underline" textLength="122" x="44" y="92.5898">TIME0: ZonedDateTime</text><ellipse cx="35" cy="101.9102" fill="none" rx="3" ry="3" style="stroke: #038048; stroke-width: 1.0;"/><text fill="#000000" font-family="sans-serif" font-size="11" lengthAdjust="spacingAndGlyphs" text-decoration="underline" textLength="148" x="44" y="105.5449">DEFAULT_TIMEZONE: String</text><polygon fill="none" points="35,109.8652,39,113.8652,35,117.8652,31,113.8652" style="stroke: #B38D22; stroke-width: 1.0;"/><text fill="#000000" font-family="sans-serif" font-size="11" lengthAdjust="spacingAndGlyphs" textLength="122" x="44" y="118.5">title: Optional&lt;String&gt;</text><line style="stroke: #A80036; stroke-width: 1.5;" x1="25" x2="565" y1="124.8203" y2="124.8203"/><polygon fill="#FFFF44" points="35,130.8203,39,134.8203,35,138.8203,31,134.8203" style="stroke: #B38D22; stroke-width: 1.0;"/><text fill="#000000" font-family="sans-serif" font-size="11" font-style="italic" lengthAdjust="spacingAndGlyphs" textLength="516" x="44" y="139.4551">renderPosts(List&lt;? extends Content&gt;, List&lt;? extends Content&gt;, List&lt;? extends Content&gt;): void</text><polygon fill="#FFFF44" points="35,143.7754,39,147.7754,35,151.7754,31,147.7754" style="stroke: #B38D22; stroke-width: 1.0;"/><text fill="#000000" font-family="sans-serif" font-size="11" font-style="italic" lengthAdjust="spacingAndGlyphs" textLength="326" x="44" y="152.4102">renderTagCloud(Collection&lt;? extends TagAndCount&gt;): void</text><!--MD5=[338fe56ad8fc8a3f207ba96532f48943]
class it.tidalwave.northernwind.frontend.ui.component.blog.BlogView--><rect codeLine="45" fill="#FEFECE" filter="url(#fxkzz7gmjdfuk)" height="60.9551" id="it.tidalwave.northernwind.frontend.ui.component.blog.BlogView" style="stroke: #A80036; stroke-width: 1.5;" width="134" x="601" y="65.5"/><ellipse cx="638.95" cy="81.5" fill="#B4A7E5" rx="11" ry="11" style="stroke: #A80036; stroke-width: 1.0;"/><path d="M635.3777,77.7651 L635.3777,75.6069 L642.7571,75.6069 L642.7571,77.7651 L640.2918,77.7651 L640.2918,85.8418 L642.7571,85.8418 L642.7571,88 L635.3777,88 L635.3777,85.8418 L637.8431,85.8418 L637.8431,77.7651 Z "/><text fill="#000000" font-family="sans-serif" font-size="12" font-style="italic" lengthAdjust="spacingAndGlyphs" textLength="51" x="658.05" y="86.0352">BlogView</text><line style="stroke: #A80036; stroke-width: 1.5;" x1="602" x2="734" y1="97.5" y2="97.5"/><line style="stroke: #A80036; stroke-width: 1.5;" x1="602" x2="734" y1="105.5" y2="105.5"/><ellipse cx="612" cy="116.5" fill="#84BE84" rx="3" ry="3" style="stroke: #038048; stroke-width: 1.0;"/><text fill="#000000" font-family="sans-serif" font-size="11" font-style="italic" lengthAdjust="spacingAndGlyphs" textLength="108" x="621" y="120.1348">setTitle(String): void</text><!--MD5=[84f302dbaf57c07a431c12282dd997d1]
reverse link it.tidalwave.northernwind.frontend.ui.ViewController to it.tidalwave.northernwind.frontend.ui.component.rssfeed.RssFeedViewController--><path codeLine="21" d="M886.9795,166.2054 C885.1625,184.375 883.2771,203.2289 881.7058,218.9418 " fill="none" id="it.tidalwave.northernwind.frontend.ui.ViewController-backto-it.tidalwave.northernwind.frontend.ui.component.rssfeed.RssFeedViewController" style="stroke: #A80036; stroke-width: 1.0;"/><polygon fill="none" points="880.026,165.3902,888.9814,146.186,893.9565,166.7833,880.026,165.3902" style="stroke: #A80036; stroke-width: 1.0;"/><!--MD5=[0b738b434b5ae0ad5da7b5e1bdb90cb1]
reverse link it.tidalwave.northernwind.frontend.ui.component.blog.DefaultBlogViewController to it.tidalwave.northernwind.frontend.ui.component.rssfeed.DefaultRssFeedViewController--><path codeLine="22" d="M394.3084,171.0265 C446.629,209.2843 512.5415,255.5197 574,293 C608.0225,313.7485 645.9083,334.478 681.1923,352.846 " fill="none" id="it.tidalwave.northernwind.frontend.ui.component.blog.DefaultBlogViewController-backto-it.tidalwave.northernwind.frontend.ui.component.rssfeed.DefaultRssFeedViewController" style="stroke: #A80036; stroke-width: 1.0;"/><polygon fill="none" points="390.1441,176.6532,378.175,159.1678,398.4358,165.3728,390.1441,176.6532" style="stroke: #A80036; stroke-width: 1.0;"/><!--MD5=[be2289cb8de4feac9d6417b21b53df83]
reverse link it.tidalwave.northernwind.frontend.ui.component.rssfeed.RssFeedViewController to it.tidalwave.northernwind.frontend.ui.component.rssfeed.DefaultRssFeedViewController--><path codeLine="23" d="M854.3481,311.6514 C848.7082,324.9219 842.6483,339.1804 836.8754,352.7638 " fill="none" id="it.tidalwave.northernwind.frontend.ui.component.rssfeed.RssFeedViewController-backto-it.tidalwave.northernwind.frontend.ui.component.rssfeed.DefaultRssFeedViewController" style="stroke: #A80036; stroke-width: 1.0; stroke-dasharray: 7.0,7.0;"/><polygon fill="none" points="847.9633,308.778,862.2285,293.1094,860.848,314.254,847.9633,308.778" style="stroke: #A80036; stroke-width: 1.0;"/><!--MD5=[ed250697d96e298006f0227f5ed86cfd]
reverse link it.tidalwave.northernwind.frontend.ui.component.blog.BlogView to it.tidalwave.northernwind.frontend.ui.component.rssfeed.RssFeedView--><path codeLine="24" d="M668,147.089 C668,172.8083 668,203.1339 668,225.2451 " fill="none" id="it.tidalwave.northernwind.frontend.ui.component.blog.BlogView-backto-it.tidalwave.northernwind.frontend.ui.component.rssfeed.RssFeedView" style="stroke: #A80036; stroke-width: 1.0;"/><polygon fill="none" points="661.0001,146.8496,668,126.8496,675.0001,146.8496,661.0001,146.8496" style="stroke: #A80036; stroke-width: 1.0;"/><text fill="#888888" font-family="sans-serif" font-size="10" lengthAdjust="spacingAndGlyphs" textLength="188" x="452.5" y="502.668">UMLDoclet 2.0.12, PlantUML 1.2020.16</text><!--MD5=[398c74f065ad2b41e0ab407efcb9548e]
@startuml
    namespace it.tidalwave.northernwind.frontend.ui.component.rssfeed {

        interface RssFeedViewController [[RssFeedViewController.html]] {
            {static} +P_CREATOR: Key<String>
            {static} +P_LINK: Key<String>
        }

        class DefaultRssFeedViewController [[DefaultRssFeedViewController.html]] {
            +DefaultRssFeedViewController(RssFeedView, SiteNode, SiteProvider, RequestLocaleManager)
            +prepareRendering(RenderContext): void
            +findVirtualSiteNodes(): Finder<SiteNode>
            #renderPosts(List<? extends Content>, List<? extends Content>, List<? extends Content>): void
            #renderPost(Content, Optional<? extends Key<String>>): void
            #renderTagCloud(Collection<? extends TagAndCount>): void
        }

        interface RssFeedView [[RssFeedView.html]] {
            {abstract} +setContent(String): void
        }

        it.tidalwave.northernwind.frontend.ui.ViewController <|- - RssFeedViewController
        it.tidalwave.northernwind.frontend.ui.component.blog.DefaultBlogViewController <|- - DefaultRssFeedViewController
        RssFeedViewController <|.. DefaultRssFeedViewController
        it.tidalwave.northernwind.frontend.ui.component.blog.BlogView <|- - RssFeedView
    }

    namespace it.tidalwave.northernwind.frontend.ui {
        interface ViewController {
            +initialize(): void
            +prepareRendering(RenderContext): void
            +renderView(RenderContext): void
            +findVirtualSiteNodes(): Finder<SiteNode>
        }
    }

    namespace it.tidalwave.northernwind.frontend.ui.component.blog {
        abstract class DefaultBlogViewController {
            {static} #DATE_KEYS: List<Key<ZonedDateTime>>
            {static} +TIME0: ZonedDateTime
            {static} +DEFAULT_TIMEZONE: String
            #title: Optional<String>
            {abstract} #renderPosts(List<? extends Content>, List<? extends Content>, List<? extends Content>): void
            {abstract} #renderTagCloud(Collection<? extends TagAndCount>): void
        }
        interface BlogView {
            {abstract} +setTitle(String): void
        }
    }

    center footer UMLDoclet 2.0.12, PlantUML 1.2020.16
@enduml

PlantUML version 1.2020.16(Sun Aug 23 22:20:43 CEST 2020)
(APACHE source distribution)
Java Runtime: OpenJDK Runtime Environment
JVM: OpenJDK 64-Bit Server VM
Default Encoding: UTF-8
Language: en
Country: GB
--></g></svg>