@startuml
    set namespaceSeparator none
    hide empty fields
    hide empty methods

    abstract class "<size:14>ScmFileSystemProvider\n<size:10>it.tidalwave.northernwind.frontend.filesystem.scm.spi" as it.tidalwave.northernwind.frontend.filesystem.scm.spi.ScmFileSystemProvider [[ScmFileSystemProvider.html]] {
        +checkForUpdates(): void
        {abstract} +createWorkingDirectory(Path): ScmWorkingDirectory
    }

    interface "<size:14>ResourceFileSystemProvider\n<size:10>it.tidalwave.northernwind.core.model" as it.tidalwave.northernwind.core.model.ResourceFileSystemProvider [[../../../../core/model/ResourceFileSystemProvider.html]] {
        {abstract} +getFileSystem(): ResourceFileSystem
    }

    it.tidalwave.northernwind.core.model.ResourceFileSystemProvider <|.. it.tidalwave.northernwind.frontend.filesystem.scm.spi.ScmFileSystemProvider

    center footer UMLDoclet 2.0.12, PlantUML 1.2020.16
@enduml
