<?xml version="1.0" encoding="UTF-8" standalone="no"?><svg xmlns="http://www.w3.org/2000/svg" xmlns:xlink="http://www.w3.org/1999/xlink" contentScriptType="application/ecmascript" contentStyleType="text/css" height="234px" preserveAspectRatio="none" style="width:332px;height:234px;" version="1.1" viewBox="0 0 332 234" width="332px" zoomAndPan="magnify"><defs><filter height="300%" id="f1mirv4jjgw61o" width="300%" x="-1" y="-1"><feGaussianBlur result="blurOut" stdDeviation="2.0"/><feColorMatrix in="blurOut" result="blurOut2" type="matrix" values="0 0 0 0 0 0 0 0 0 0 0 0 0 0 0 0 0 0 .4 0"/><feOffset dx="4.0" dy="4.0" in="blurOut2" result="blurOut3"/><feBlend in="SourceGraphic" in2="blurOut3" mode="normal"/></filter></defs><g><!--MD5=[2011eb804317cbad9b1c01fde2ffff52]
class it.tidalwave.northernwind.frontend.filesystem.scm.spi.ScmFileSystemProvider--><a href="ScmFileSystemProvider.html" target="_top" title="ScmFileSystemProvider.html" xlink:actuate="onRequest" xlink:href="ScmFileSystemProvider.html" xlink:show="new" xlink:title="ScmFileSystemProvider.html" xlink:type="simple"><rect codeLine="5" fill="#FEFECE" filter="url(#f1mirv4jjgw61o)" height="72.1758" id="it.tidalwave.northernwind.frontend.filesystem.scm.spi.ScmFileSystemProvider" style="stroke: #A80036; stroke-width: 1.5;" width="306" x="7" y="126"/><ellipse cx="27.4" cy="145.1328" fill="#A9DCDF" rx="11" ry="11" style="stroke: #A80036; stroke-width: 1.0;"/><path d="M27.2633,140.481 L26.1095,145.5527 L28.4254,145.5527 Z M25.7691,138.2397 L28.7657,138.2397 L32.1109,150.6328 L29.6622,150.6328 L28.8985,147.5698 L25.6197,147.5698 L24.8727,150.6328 L22.4239,150.6328 Z "/><text fill="#000000" font-family="sans-serif" font-size="14" font-style="italic" lengthAdjust="spacingAndGlyphs" textLength="157" x="95.1" y="144.5352">ScmFileSystemProvider</text><text fill="#000000" font-family="sans-serif" font-size="10" font-style="italic" lengthAdjust="spacingAndGlyphs" textLength="262" x="42.6" y="157.1563">it.tidalwave.northernwind.frontend.filesystem.scm.spi</text><line style="stroke: #A80036; stroke-width: 1.5;" x1="8" x2="312" y1="164.2656" y2="164.2656"/><ellipse cx="18" cy="175.2656" fill="#84BE84" rx="3" ry="3" style="stroke: #038048; stroke-width: 1.0;"/><text fill="#000000" font-family="sans-serif" font-size="11" lengthAdjust="spacingAndGlyphs" textLength="130" x="27" y="178.9004">checkForUpdates(): void</text><ellipse cx="18" cy="188.2207" fill="#84BE84" rx="3" ry="3" style="stroke: #038048; stroke-width: 1.0;"/><text fill="#000000" font-family="sans-serif" font-size="11" font-style="italic" lengthAdjust="spacingAndGlyphs" textLength="280" x="27" y="191.8555">createWorkingDirectory(Path): ScmWorkingDirectory</text></a><!--MD5=[35c78745d2c67b9c273170bd89205265]
class it.tidalwave.northernwind.core.model.ResourceFileSystemProvider--><a href="../../../../core/model/ResourceFileSystemProvider.html" target="_top" title="../../../../core/model/ResourceFileSystemProvider.html" xlink:actuate="onRequest" xlink:href="../../../../core/model/ResourceFileSystemProvider.html" xlink:show="new" xlink:title="../../../../core/model/ResourceFileSystemProvider.html" xlink:type="simple"><rect codeLine="10" fill="#FEFECE" filter="url(#f1mirv4jjgw61o)" height="59.2207" id="it.tidalwave.northernwind.core.model.ResourceFileSystemProvider" style="stroke: #A80036; stroke-width: 1.5;" width="224" x="48" y="7"/><ellipse cx="63" cy="26.1328" fill="#B4A7E5" rx="11" ry="11" style="stroke: #A80036; stroke-width: 1.0;"/><path d="M59.4277,22.3979 L59.4277,20.2397 L66.8071,20.2397 L66.8071,22.3979 L64.3418,22.3979 L64.3418,30.4746 L66.8071,30.4746 L66.8071,32.6328 L59.4277,32.6328 L59.4277,30.4746 L61.8931,30.4746 L61.8931,22.3979 Z "/><text fill="#000000" font-family="sans-serif" font-size="14" font-style="italic" lengthAdjust="spacingAndGlyphs" textLength="192" x="77" y="25.5352">ResourceFileSystemProvider</text><text fill="#000000" font-family="sans-serif" font-size="10" font-style="italic" lengthAdjust="spacingAndGlyphs" textLength="182" x="82" y="38.1563">it.tidalwave.northernwind.core.model</text><line style="stroke: #A80036; stroke-width: 1.5;" x1="49" x2="271" y1="45.2656" y2="45.2656"/><ellipse cx="59" cy="56.2656" fill="#84BE84" rx="3" ry="3" style="stroke: #038048; stroke-width: 1.0;"/><text fill="#000000" font-family="sans-serif" font-size="11" font-style="italic" lengthAdjust="spacingAndGlyphs" textLength="193" x="68" y="59.9004">getFileSystem(): ResourceFileSystem</text></a><!--MD5=[58e76246241a6080e40ffaa3087f76b2]
reverse link it.tidalwave.northernwind.core.model.ResourceFileSystemProvider to it.tidalwave.northernwind.frontend.filesystem.scm.spi.ScmFileSystemProvider--><path codeLine="14" d="M160,86.5049 C160,99.6211 160,113.5128 160,125.7555 " fill="none" id="it.tidalwave.northernwind.core.model.ResourceFileSystemProvider-backto-it.tidalwave.northernwind.frontend.filesystem.scm.spi.ScmFileSystemProvider" style="stroke: #A80036; stroke-width: 1.0; stroke-dasharray: 7.0,7.0;"/><polygon fill="none" points="153.0001,86.2418,160,66.2417,167.0001,86.2417,153.0001,86.2418" style="stroke: #A80036; stroke-width: 1.0;"/><text fill="#888888" font-family="sans-serif" font-size="10" lengthAdjust="spacingAndGlyphs" textLength="188" x="63" y="220.8438">UMLDoclet 2.0.12, PlantUML 1.2020.16</text><!--MD5=[1621519cd27c037bcb5c7e2c37eefaff]
@startuml
    set namespaceSeparator none
    hide empty fields
    hide empty methods

    abstract class "<size:14>ScmFileSystemProvider\n<size:10>it.tidalwave.northernwind.frontend.filesystem.scm.spi" as it.tidalwave.northernwind.frontend.filesystem.scm.spi.ScmFileSystemProvider [[ScmFileSystemProvider.html]] {
        +checkForUpdates(): void
        {abstract} +createWorkingDirectory(Path): ScmWorkingDirectory
    }

    interface "<size:14>ResourceFileSystemProvider\n<size:10>it.tidalwave.northernwind.core.model" as it.tidalwave.northernwind.core.model.ResourceFileSystemProvider [[../../../../core/model/ResourceFileSystemProvider.html]] {
        {abstract} +getFileSystem(): ResourceFileSystem
    }

    it.tidalwave.northernwind.core.model.ResourceFileSystemProvider <|.. it.tidalwave.northernwind.frontend.filesystem.scm.spi.ScmFileSystemProvider

    center footer UMLDoclet 2.0.12, PlantUML 1.2020.16
@enduml

PlantUML version 1.2020.16(Sun Aug 23 22:20:43 CEST 2020)
(APACHE source distribution)
Java Runtime: OpenJDK Runtime Environment
JVM: OpenJDK 64-Bit Server VM
Default Encoding: UTF-8
Language: en
Country: GB
--></g></svg>