@startuml
    namespace it.tidalwave.thesefoolishthings.examples.person {

        class DefaultPersonRegistry [[DefaultPersonRegistry.html]] {
            +findPerson(): Finder<Person>
            +add(Person): void
        }

        class PersonRegistryHelper [[PersonRegistryHelper.html]] {
            {static} +populate(PersonRegistry): void
        }

        interface PersonRegistry [[PersonRegistry.html]] {
            {abstract} +findPerson(): Finder<Person>
            {abstract} +add(Person): void
        }

        class Person [[Person.html]] {
            +Person(String, String)
            {static} +prototype(): Person
        }

        class ListOfPersons [[ListOfPersons.html]] {
            +ListOfPersons(List<Person>)
            {static} +of(Person...): ListOfPersons
        }

        PersonRegistry <|.. DefaultPersonRegistry
        java.util.List <|.. ListOfPersons
    }

    namespace java.util {
        interface List<E> {
            {abstract} +size(): int
            {abstract} +isEmpty(): boolean
            {abstract} +contains(Object): boolean
            {abstract} +iterator(): Iterator<E>
            {abstract} +toArray(): Object[]
            {abstract} +toArray(T[]): T[]
            {abstract} +add(E): boolean
            {abstract} +remove(Object): boolean
            {abstract} +containsAll(Collection<?>): boolean
            {abstract} +addAll(Collection<? extends E>): boolean
            {abstract} +addAll(int, Collection<? extends E>): boolean
            {abstract} +removeAll(Collection<?>): boolean
            {abstract} +retainAll(Collection<?>): boolean
            +replaceAll(UnaryOperator<E>): void
            +sort(Comparator<? super E>): void
            {abstract} +clear(): void
            {abstract} +get(int): E
            {abstract} +set(int, E): E
            {abstract} +add(int, E): void
            {abstract} +remove(int): E
            {abstract} +indexOf(Object): int
            {abstract} +lastIndexOf(Object): int
            {abstract} +listIterator(): ListIterator<E>
            {abstract} +listIterator(int): ListIterator<E>
            {abstract} +subList(int, int): List<E>
            +spliterator(): Spliterator<E>
            {static} +of(): List<E>
            {static} +of(E): List<E>
            {static} +of(E, E): List<E>
            {static} +of(E, E, E): List<E>
            {static} +of(E, E, E, E): List<E>
            {static} +of(E, E, E, E, E): List<E>
            {static} +of(E, E, E, E, E, E): List<E>
            {static} +of(E, E, E, E, E, E, E): List<E>
            {static} +of(E, E, E, E, E, E, E, E): List<E>
            {static} +of(E, E, E, E, E, E, E, E, E): List<E>
            {static} +of(E, E, E, E, E, E, E, E, E, E): List<E>
            {static} +of(E...): List<E>
            {static} +copyOf(Collection<? extends E>): List<E>
        }
    }

    center footer UMLDoclet 2.0.12, PlantUML 1.2020.16
@enduml
