<?xml version="1.0" encoding="UTF-8" standalone="no"?><svg xmlns="http://www.w3.org/2000/svg" xmlns:xlink="http://www.w3.org/1999/xlink" contentScriptType="application/ecmascript" contentStyleType="text/css" height="309px" preserveAspectRatio="none" style="width:338px;height:309px;" version="1.1" viewBox="0 0 338 309" width="338px" zoomAndPan="magnify"><defs><filter height="300%" id="fwn53ecthi2z8" width="300%" x="-1" y="-1"><feGaussianBlur result="blurOut" stdDeviation="2.0"/><feColorMatrix in="blurOut" result="blurOut2" type="matrix" values="0 0 0 0 0 0 0 0 0 0 0 0 0 0 0 0 0 0 .4 0"/><feOffset dx="4.0" dy="4.0" in="blurOut2" result="blurOut3"/><feBlend in="SourceGraphic" in2="blurOut3" mode="normal"/></filter></defs><g><!--MD5=[96f181f1e7052bccee7d3fe3d1061377]
class it.tidalwave.messagebus.spi.ReflectionUtils.MethodProcessor--><a href="ReflectionUtils.MethodProcessor.html" target="_top" title="ReflectionUtils.MethodProcessor.html" xlink:actuate="onRequest" xlink:href="ReflectionUtils.MethodProcessor.html" xlink:show="new" xlink:title="ReflectionUtils.MethodProcessor.html" xlink:type="simple"><rect codeLine="5" fill="#FEFECE" filter="url(#fwn53ecthi2z8)" height="70.8955" id="it.tidalwave.messagebus.spi.ReflectionUtils.MethodProcessor" style="stroke: #A80036; stroke-width: 1.5;" width="238" x="44" y="105"/><ellipse cx="59" cy="123.7988" fill="#B4A7E5" rx="11" ry="11" style="stroke: #A80036; stroke-width: 1.0;"/><path d="M55.2969,118.0957 L62.9063,118.0957 L62.9063,119.9863 L60.3281,119.9863 L60.3281,127.4082 L62.9063,127.4082 L62.9063,129.2988 L55.2969,129.2988 L55.2969,127.4082 L57.8906,127.4082 L57.8906,119.9863 L55.2969,119.9863 L55.2969,118.0957 Z "/><text fill="#000000" font-family="sans-serif" font-size="14" font-style="italic" lengthAdjust="spacingAndGlyphs" textLength="206" x="73" y="123.1318">ReflectionUtils.MethodProcessor</text><text fill="#000000" font-family="sans-serif" font-size="10" font-style="italic" lengthAdjust="spacingAndGlyphs" textLength="133" x="109.5" y="135.4785">it.tidalwave.messagebus.spi</text><line style="stroke: #A80036; stroke-width: 1.5;" x1="45" x2="281" y1="142.5977" y2="142.5977"/><ellipse cx="55" cy="153.5977" fill="#84BE84" rx="3" ry="3" style="stroke: #038048; stroke-width: 1.0;"/><text fill="#000000" font-family="sans-serif" font-size="11" font-style="italic" lengthAdjust="spacingAndGlyphs" textLength="141" x="64" y="156.9155">filter(Class&lt;?&gt;): FilterResult</text><ellipse cx="55" cy="166.2466" fill="#84BE84" rx="3" ry="3" style="stroke: #038048; stroke-width: 1.0;"/><text fill="#000000" font-family="sans-serif" font-size="11" font-style="italic" lengthAdjust="spacingAndGlyphs" textLength="110" x="64" y="169.5645">process(Method): void</text></a><!--MD5=[84dfc94921fc2aa4c43b60c35529c8c2]
class it.tidalwave.messagebus.spi.ReflectionUtils--><a href="ReflectionUtils.html" target="_top" title="ReflectionUtils.html" xlink:actuate="onRequest" xlink:href="ReflectionUtils.html" xlink:show="new" xlink:title="ReflectionUtils.html" xlink:type="simple"><rect codeLine="10" fill="#FEFECE" filter="url(#fwn53ecthi2z8)" height="37.5977" id="it.tidalwave.messagebus.spi.ReflectionUtils" style="stroke: #A80036; stroke-width: 1.5;" width="162" x="82" y="7"/><ellipse cx="97" cy="25.7988" fill="#ADD1B2" rx="11" ry="11" style="stroke: #A80036; stroke-width: 1.0;"/><path d="M94.9063,25.6426 Q94.9063,27.5176 95.4844,28.5332 Q96.0625,29.5332 97.2188,29.5332 Q98.5625,29.5332 99.2188,27.5176 L101.4844,27.9395 Q100.375,31.4707 97.2031,31.4707 Q94.8594,31.4707 93.6406,29.9863 Q92.4219,28.502 92.4219,25.6426 Q92.4219,19.9238 97.125,19.9238 Q98.6719,19.9238 99.7031,20.7363 Q100.75,21.5488 101.25,23.1582 L98.9844,23.7051 Q98.75,22.8301 98.2656,22.3457 Q97.7813,21.8457 97.1563,21.8457 Q94.9063,21.8457 94.9063,25.6426 Z "/><text fill="#000000" font-family="sans-serif" font-size="14" lengthAdjust="spacingAndGlyphs" textLength="89" x="131.5" y="25.1318">ReflectionUtils</text><text fill="#000000" font-family="sans-serif" font-size="10" lengthAdjust="spacingAndGlyphs" textLength="130" x="111" y="37.4785">it.tidalwave.messagebus.spi</text></a><!--MD5=[898c3fa715c9537c42935eb6b026b52f]
class it.tidalwave.messagebus.spi.ReflectionUtils.MethodProcessor.FilterResult--><a href="ReflectionUtils.MethodProcessor.FilterResult.html" target="_top" title="ReflectionUtils.MethodProcessor.FilterResult.html" xlink:actuate="onRequest" xlink:href="ReflectionUtils.MethodProcessor.FilterResult.html" xlink:show="new" xlink:title="ReflectionUtils.MethodProcessor.FilterResult.html" xlink:type="simple"><rect codeLine="11" fill="#FEFECE" filter="url(#fwn53ecthi2z8)" height="37.5977" id="it.tidalwave.messagebus.spi.ReflectionUtils.MethodProcessor.FilterResult" style="stroke: #A80036; stroke-width: 1.5;" width="312" x="7" y="236"/><ellipse cx="22" cy="254.7988" fill="#EB937F" rx="11" ry="11" style="stroke: #A80036; stroke-width: 1.0;"/><path d="M18.1406,260.2988 L18.1406,249.0957 L26.1719,249.0957 L26.1719,250.9863 L20.5938,250.9863 L20.5938,253.6895 L25.6719,253.6895 L25.6719,255.5801 L20.5938,255.5801 L20.5938,258.4082 L26.5156,258.4082 L26.5156,260.2988 L18.1406,260.2988 Z "/><text fill="#000000" font-family="sans-serif" font-size="14" lengthAdjust="spacingAndGlyphs" textLength="280" x="36" y="254.1318">ReflectionUtils.MethodProcessor.FilterResult</text><text fill="#000000" font-family="sans-serif" font-size="10" lengthAdjust="spacingAndGlyphs" textLength="130" x="111" y="266.4785">it.tidalwave.messagebus.spi</text></a><!--MD5=[a0f2abbf64cec9c1acc031284cf37c90]
reverse link it.tidalwave.messagebus.spi.ReflectionUtils to it.tidalwave.messagebus.spi.ReflectionUtils.MethodProcessor--><path codeLine="13" d="M163,60.19 C163,74.19 163,90.5 163,104.67 " fill="none" id="it.tidalwave.messagebus.spi.ReflectionUtils-backto-it.tidalwave.messagebus.spi.ReflectionUtils.MethodProcessor" style="stroke: #A80036; stroke-width: 1.0;"/><ellipse cx="163" cy="53.08" fill="#FFFFFF" rx="8" ry="8" style="stroke: #A80036; stroke-width: 1.0;"/><line style="stroke: #A80036; stroke-width: 1.0;" x1="163" x2="163" y1="61.08" y2="45.08"/><line style="stroke: #A80036; stroke-width: 1.0;" x1="155" x2="171" y1="53.08" y2="53.08"/><!--MD5=[69890097a5209350340d5591db699472]
reverse link it.tidalwave.messagebus.spi.ReflectionUtils.MethodProcessor to it.tidalwave.messagebus.spi.ReflectionUtils.MethodProcessor.FilterResult--><path codeLine="14" d="M163,191.58 C163,207.41 163,223.89 163,235.94 " fill="none" id="it.tidalwave.messagebus.spi.ReflectionUtils.MethodProcessor-backto-it.tidalwave.messagebus.spi.ReflectionUtils.MethodProcessor.FilterResult" style="stroke: #A80036; stroke-width: 1.0;"/><ellipse cx="163" cy="184.17" fill="#FFFFFF" rx="8" ry="8" style="stroke: #A80036; stroke-width: 1.0;"/><line style="stroke: #A80036; stroke-width: 1.0;" x1="163" x2="163" y1="192.17" y2="176.17"/><line style="stroke: #A80036; stroke-width: 1.0;" x1="155" x2="171" y1="184.17" y2="184.17"/><text fill="#888888" font-family="sans-serif" font-size="10" lengthAdjust="spacingAndGlyphs" textLength="190" x="65" y="295.9775">UMLDoclet 2.0.12, PlantUML 1.2020.16</text><!--MD5=[366546b167558beb3f15ae560ece08e4]
@startuml
    set namespaceSeparator none
    hide empty fields
    hide empty methods

    interface "<size:14>ReflectionUtils.MethodProcessor\n<size:10>it.tidalwave.messagebus.spi" as it.tidalwave.messagebus.spi.ReflectionUtils.MethodProcessor [[ReflectionUtils.MethodProcessor.html]] {
        {abstract} +filter(Class<?>): FilterResult
        {abstract} +process(Method): void
    }

    class "<size:14>ReflectionUtils\n<size:10>it.tidalwave.messagebus.spi" as it.tidalwave.messagebus.spi.ReflectionUtils [[ReflectionUtils.html]]
    enum "<size:14>ReflectionUtils.MethodProcessor.FilterResult\n<size:10>it.tidalwave.messagebus.spi" as it.tidalwave.messagebus.spi.ReflectionUtils.MethodProcessor.FilterResult [[ReflectionUtils.MethodProcessor.FilterResult.html]]

    it.tidalwave.messagebus.spi.ReflectionUtils +- - it.tidalwave.messagebus.spi.ReflectionUtils.MethodProcessor
    it.tidalwave.messagebus.spi.ReflectionUtils.MethodProcessor +- - it.tidalwave.messagebus.spi.ReflectionUtils.MethodProcessor.FilterResult

    center footer UMLDoclet 2.0.12, PlantUML 1.2020.16
@enduml

PlantUML version 1.2020.16(Sun Aug 23 22:20:43 CEST 2020)
(APACHE source distribution)
Java Runtime: OpenJDK Runtime Environment
JVM: OpenJDK 64-Bit Server VM
Default Encoding: UTF-8
Language: en
Country: US
--></g></svg>