@startuml
    set namespaceSeparator none
    hide empty fields
    hide empty methods

    interface "<size:14>SiteViewController\n<size:10>it.tidalwave.northernwind.frontend.ui" as it.tidalwave.northernwind.frontend.ui.SiteViewController [[SiteViewController.html]] {
        {abstract} +processRequest(Request): ResponseType
    }

    center footer UMLDoclet 2.0.12, PlantUML 1.2020.16
@enduml
