@startuml
    set namespaceSeparator none
    hide empty fields
    hide empty methods

    class "<size:14>PersonConverter\n<size:10>it.tidalwave.thesefoolishthings.examples.dci.marshal.xstream.converter" as it.tidalwave.thesefoolishthings.examples.dci.marshal.xstream.converter.PersonConverter [[PersonConverter.html]] {
        +marshal(Object, HierarchicalStreamWriter, MarshallingContext): void
        +unmarshal(HierarchicalStreamReader, UnmarshallingContext): Object
        +canConvert(Class): boolean
    }

    interface "<size:14>Converter\n<size:10>com.thoughtworks.xstream.converters" as com.thoughtworks.xstream.converters.Converter {
        {abstract} +marshal(Object, HierarchicalStreamWriter, MarshallingContext): void
        {abstract} +unmarshal(HierarchicalStreamReader, UnmarshallingContext): Object
    }
    class "<size:14>PersonConverter.MutablePerson\n<size:10>it.tidalwave.thesefoolishthings.examples.dci.marshal.xstream.converter" as it.tidalwave.thesefoolishthings.examples.dci.marshal.xstream.converter.PersonConverter.MutablePerson [[PersonConverter.MutablePerson.html]]

    com.thoughtworks.xstream.converters.Converter <|.. it.tidalwave.thesefoolishthings.examples.dci.marshal.xstream.converter.PersonConverter
    it.tidalwave.thesefoolishthings.examples.dci.marshal.xstream.converter.PersonConverter +-- it.tidalwave.thesefoolishthings.examples.dci.marshal.xstream.converter.PersonConverter.MutablePerson

    center footer UMLDoclet 2.0.12, PlantUML 1.2020.16
@enduml
