<?xml version="1.0" encoding="UTF-8" standalone="no"?><svg xmlns="http://www.w3.org/2000/svg" xmlns:xlink="http://www.w3.org/1999/xlink" contentScriptType="application/ecmascript" contentStyleType="text/css" height="432px" preserveAspectRatio="none" style="width:1899px;height:432px;" version="1.1" viewBox="0 0 1899 432" width="1899px" zoomAndPan="magnify"><defs><filter height="300%" id="f37t2sqiolx79" width="300%" x="-1" y="-1"><feGaussianBlur result="blurOut" stdDeviation="2.0"/><feColorMatrix in="blurOut" result="blurOut2" type="matrix" values="0 0 0 0 0 0 0 0 0 0 0 0 0 0 0 0 0 0 .4 0"/><feOffset dx="4.0" dy="4.0" in="blurOut2" result="blurOut3"/><feBlend in="SourceGraphic" in2="blurOut3" mode="normal"/></filter></defs><g><!--MD5=[a7ca9ec2a63815c8336b48c8b310b176]
cluster it.tidalwave.role--><polygon fill="#FFFFFF" filter="url(#f37t2sqiolx79)" points="16,6,136,6,143,28.4883,1877,28.4883,1877,403,16,403,16,6" style="stroke: #000000; stroke-width: 1.5;"/><line style="stroke: #000000; stroke-width: 1.5;" x1="16" x2="143" y1="28.4883" y2="28.4883"/><text fill="#000000" font-family="sans-serif" font-size="14" font-weight="bold" lengthAdjust="spacingAndGlyphs" textLength="114" x="20" y="21.5352">it.tidalwave.role</text><!--MD5=[7799f2d96c913e71dd1a139515cc4b51]
class it.tidalwave.role.Sortable--><a href="Sortable.html" target="_top" title="Sortable.html" xlink:actuate="onRequest" xlink:href="Sortable.html" xlink:show="new" xlink:title="Sortable.html" xlink:type="simple"><rect codeLine="3" fill="#FEFECE" filter="url(#f37t2sqiolx79)" height="112.7754" id="it.tidalwave.role.Sortable" style="stroke: #A80036; stroke-width: 1.5;" width="221" x="1082.5" y="46"/><ellipse cx="1165.25" cy="62" fill="#B4A7E5" rx="11" ry="11" style="stroke: #A80036; stroke-width: 1.0;"/><path d="M1161.6777,58.2651 L1161.6777,56.1069 L1169.0571,56.1069 L1169.0571,58.2651 L1166.5918,58.2651 L1166.5918,66.3418 L1169.0571,66.3418 L1169.0571,68.5 L1161.6777,68.5 L1161.6777,66.3418 L1164.1431,66.3418 L1164.1431,58.2651 Z "/><text fill="#000000" font-family="sans-serif" font-size="12" font-style="italic" lengthAdjust="spacingAndGlyphs" textLength="47" x="1185.75" y="66.5352">Sortable</text><line style="stroke: #A80036; stroke-width: 1.5;" x1="1083.5" x2="1302.5" y1="78" y2="78"/><ellipse cx="1093.5" cy="89" fill="none" rx="3" ry="3" style="stroke: #038048; stroke-width: 1.0;"/><text fill="#000000" font-family="sans-serif" font-size="11" lengthAdjust="spacingAndGlyphs" text-decoration="underline" textLength="153" x="1102.5" y="92.6348">_Sortable_: Class&lt;Sortable&gt;</text><line style="stroke: #A80036; stroke-width: 1.5;" x1="1083.5" x2="1302.5" y1="98.9551" y2="98.9551"/><ellipse cx="1093.5" cy="109.9551" fill="#84BE84" rx="3" ry="3" style="stroke: #038048; stroke-width: 1.0;"/><text fill="#000000" font-family="sans-serif" font-size="11" font-style="italic" lengthAdjust="spacingAndGlyphs" textLength="193" x="1102.5" y="113.5898">setSortCriterion(SortCriterion): void</text><ellipse cx="1093.5" cy="122.9102" fill="#84BE84" rx="3" ry="3" style="stroke: #038048; stroke-width: 1.0;"/><text fill="#000000" font-family="sans-serif" font-size="11" font-style="italic" lengthAdjust="spacingAndGlyphs" textLength="195" x="1102.5" y="126.5449">setSortDirection(SortDirection): void</text><ellipse cx="1093.5" cy="135.8652" fill="#84BE84" rx="3" ry="3" style="stroke: #038048; stroke-width: 1.0;"/><text fill="#000000" font-family="sans-serif" font-size="11" font-style="italic" lengthAdjust="spacingAndGlyphs" textLength="171" x="1102.5" y="139.5">getSortCriterion(): SortCriterion</text><ellipse cx="1093.5" cy="148.8203" fill="#84BE84" rx="3" ry="3" style="stroke: #038048; stroke-width: 1.0;"/><text fill="#000000" font-family="sans-serif" font-size="11" font-style="italic" lengthAdjust="spacingAndGlyphs" textLength="173" x="1102.5" y="152.4551">getSortDirection(): SortDirection</text></a><!--MD5=[28f428c66ea6dc6ddd3e830eb1887f56]
class it.tidalwave.role.Composite--><a href="Composite.html" target="_top" title="Composite.html" xlink:actuate="onRequest" xlink:href="Composite.html" xlink:show="new" xlink:title="Composite.html" xlink:type="simple"><rect codeLine="11" fill="#FEFECE" filter="url(#f37t2sqiolx79)" height="73.9102" id="it.tidalwave.role.Composite" style="stroke: #A80036; stroke-width: 1.5;" width="296" x="664" y="65.5"/><ellipse cx="679" cy="81.5" fill="#B4A7E5" rx="11" ry="11" style="stroke: #A80036; stroke-width: 1.0;"/><path d="M675.4277,77.7651 L675.4277,75.6069 L682.8071,75.6069 L682.8071,77.7651 L680.3418,77.7651 L680.3418,85.8418 L682.8071,85.8418 L682.8071,88 L675.4277,88 L675.4277,85.8418 L677.8931,85.8418 L677.8931,77.7651 Z "/><text fill="#000000" font-family="sans-serif" font-size="12" font-style="italic" lengthAdjust="spacingAndGlyphs" textLength="61" x="693" y="86.0352">Composite</text><rect fill="#FFFFFF" height="16.1328" style="stroke: #000000; stroke-width: 1.0; stroke-dasharray: 2.0,2.0;" width="201" x="762" y="62.5"/><text fill="#000000" font-family="sans-serif" font-size="12" font-style="italic" lengthAdjust="spacingAndGlyphs" textLength="199" x="763" y="75.1016">T, F extends Finder&lt;? extends T&gt;</text><line style="stroke: #A80036; stroke-width: 1.5;" x1="665" x2="959" y1="97.5" y2="97.5"/><ellipse cx="675" cy="108.5" fill="none" rx="3" ry="3" style="stroke: #038048; stroke-width: 1.0;"/><text fill="#000000" font-family="sans-serif" font-size="11" lengthAdjust="spacingAndGlyphs" text-decoration="underline" textLength="181" x="684" y="112.1348">_Composite_: Class&lt;Composite&gt;</text><line style="stroke: #A80036; stroke-width: 1.5;" x1="665" x2="959" y1="118.4551" y2="118.4551"/><ellipse cx="675" cy="129.4551" fill="#84BE84" rx="3" ry="3" style="stroke: #038048; stroke-width: 1.0;"/><text fill="#000000" font-family="sans-serif" font-size="11" font-style="italic" lengthAdjust="spacingAndGlyphs" textLength="249" x="684" y="133.0898">findChildren(): F extends Finder&lt;? extends T&gt;</text></a><!--MD5=[96fda046302279efd0df60a539f9f1f0]
class it.tidalwave.role.Composite.Visitor--><a href="Composite.Visitor.html" target="_top" title="Composite.Visitor.html" xlink:actuate="onRequest" xlink:href="Composite.Visitor.html" xlink:show="new" xlink:title="Composite.Visitor.html" xlink:type="simple"><rect codeLine="16" fill="#FEFECE" filter="url(#f37t2sqiolx79)" height="99.8203" id="it.tidalwave.role.Composite.Visitor" style="stroke: #A80036; stroke-width: 1.5;" width="161" x="707.5" y="295"/><ellipse cx="722.5" cy="311" fill="#B4A7E5" rx="11" ry="11" style="stroke: #A80036; stroke-width: 1.0;"/><path d="M718.9277,307.2651 L718.9277,305.1069 L726.3071,305.1069 L726.3071,307.2651 L723.8418,307.2651 L723.8418,315.3418 L726.3071,315.3418 L726.3071,317.5 L718.9277,317.5 L718.9277,315.3418 L721.3931,315.3418 L721.3931,307.2651 Z "/><text fill="#000000" font-family="sans-serif" font-size="12" font-style="italic" lengthAdjust="spacingAndGlyphs" textLength="101" x="736.5" y="315.5352">Composite.Visitor</text><rect fill="#FFFFFF" height="16.1328" style="stroke: #000000; stroke-width: 1.0; stroke-dasharray: 2.0,2.0;" width="26" x="845.5" y="292"/><text fill="#000000" font-family="sans-serif" font-size="12" font-style="italic" lengthAdjust="spacingAndGlyphs" textLength="24" x="846.5" y="304.6016">T, R</text><line style="stroke: #A80036; stroke-width: 1.5;" x1="708.5" x2="867.5" y1="327" y2="327"/><line style="stroke: #A80036; stroke-width: 1.5;" x1="708.5" x2="867.5" y1="335" y2="335"/><ellipse cx="718.5" cy="346" fill="#84BE84" rx="3" ry="3" style="stroke: #038048; stroke-width: 1.0;"/><text fill="#000000" font-family="sans-serif" font-size="11" lengthAdjust="spacingAndGlyphs" textLength="85" x="727.5" y="349.6348">preVisit(T): void</text><ellipse cx="718.5" cy="358.9551" fill="#84BE84" rx="3" ry="3" style="stroke: #038048; stroke-width: 1.0;"/><text fill="#000000" font-family="sans-serif" font-size="11" lengthAdjust="spacingAndGlyphs" textLength="66" x="727.5" y="362.5898">visit(T): void</text><ellipse cx="718.5" cy="371.9102" fill="#84BE84" rx="3" ry="3" style="stroke: #038048; stroke-width: 1.0;"/><text fill="#000000" font-family="sans-serif" font-size="11" lengthAdjust="spacingAndGlyphs" textLength="91" x="727.5" y="375.5449">postVisit(T): void</text><ellipse cx="718.5" cy="384.8652" fill="#84BE84" rx="3" ry="3" style="stroke: #038048; stroke-width: 1.0;"/><text fill="#000000" font-family="sans-serif" font-size="11" lengthAdjust="spacingAndGlyphs" textLength="131" x="727.5" y="388.5">getValue(): Optional&lt;R&gt;</text></a><!--MD5=[7dcf534bafa78e41db243cdae88ef7a0]
class it.tidalwave.role.IdFactory--><a href="IdFactory.html" target="_top" title="IdFactory.html" xlink:actuate="onRequest" xlink:href="IdFactory.html" xlink:show="new" xlink:title="IdFactory.html" xlink:type="simple"><rect codeLine="23" fill="#FEFECE" filter="url(#f37t2sqiolx79)" height="99.8203" id="it.tidalwave.role.IdFactory" style="stroke: #A80036; stroke-width: 1.5;" width="191" x="1425.5" y="52.5"/><ellipse cx="1490.75" cy="68.5" fill="#B4A7E5" rx="11" ry="11" style="stroke: #A80036; stroke-width: 1.0;"/><path d="M1487.1777,64.7651 L1487.1777,62.6069 L1494.5571,62.6069 L1494.5571,64.7651 L1492.0918,64.7651 L1492.0918,72.8418 L1494.5571,72.8418 L1494.5571,75 L1487.1777,75 L1487.1777,72.8418 L1489.6431,72.8418 L1489.6431,64.7651 Z "/><text fill="#000000" font-family="sans-serif" font-size="12" font-style="italic" lengthAdjust="spacingAndGlyphs" textLength="52" x="1511.25" y="73.0352">IdFactory</text><line style="stroke: #A80036; stroke-width: 1.5;" x1="1426.5" x2="1615.5" y1="84.5" y2="84.5"/><ellipse cx="1436.5" cy="95.5" fill="none" rx="3" ry="3" style="stroke: #038048; stroke-width: 1.0;"/><text fill="#000000" font-family="sans-serif" font-size="11" lengthAdjust="spacingAndGlyphs" text-decoration="underline" textLength="165" x="1445.5" y="99.1348">_IdFactory_: Class&lt;IdFactory&gt;</text><line style="stroke: #A80036; stroke-width: 1.5;" x1="1426.5" x2="1615.5" y1="105.4551" y2="105.4551"/><ellipse cx="1436.5" cy="116.4551" fill="#84BE84" rx="3" ry="3" style="stroke: #038048; stroke-width: 1.0;"/><text fill="#000000" font-family="sans-serif" font-size="11" font-style="italic" lengthAdjust="spacingAndGlyphs" textLength="67" x="1445.5" y="120.0898">createId(): Id</text><ellipse cx="1436.5" cy="129.4102" fill="#84BE84" rx="3" ry="3" style="stroke: #038048; stroke-width: 1.0;"/><text fill="#000000" font-family="sans-serif" font-size="11" font-style="italic" lengthAdjust="spacingAndGlyphs" textLength="119" x="1445.5" y="133.0449">createId(Class&lt;?&gt;): Id</text><ellipse cx="1436.5" cy="142.3652" fill="#84BE84" rx="3" ry="3" style="stroke: #038048; stroke-width: 1.0;"/><text fill="#000000" font-family="sans-serif" font-size="11" font-style="italic" lengthAdjust="spacingAndGlyphs" textLength="160" x="1445.5" y="146">createId(Class&lt;?&gt;, Object): Id</text></a><!--MD5=[29a56ee288019ab306461f98e73704bc]
class it.tidalwave.role.Aggregate--><a href="Aggregate.html" target="_top" title="Aggregate.html" xlink:actuate="onRequest" xlink:href="Aggregate.html" xlink:show="new" xlink:title="Aggregate.html" xlink:type="simple"><rect codeLine="30" fill="#FEFECE" filter="url(#f37t2sqiolx79)" height="138.6855" id="it.tidalwave.role.Aggregate" style="stroke: #A80036; stroke-width: 1.5;" width="217" x="1651.5" y="33"/><ellipse cx="1720.25" cy="49" fill="#B4A7E5" rx="11" ry="11" style="stroke: #A80036; stroke-width: 1.0;"/><path d="M1716.6777,45.2651 L1716.6777,43.1069 L1724.0571,43.1069 L1724.0571,45.2651 L1721.5918,45.2651 L1721.5918,53.3418 L1724.0571,53.3418 L1724.0571,55.5 L1716.6777,55.5 L1716.6777,53.3418 L1719.1431,53.3418 L1719.1431,45.2651 Z "/><text fill="#000000" font-family="sans-serif" font-size="12" font-style="italic" lengthAdjust="spacingAndGlyphs" textLength="59" x="1740.75" y="53.5352">Aggregate</text><rect fill="#FFFFFF" height="16.1328" style="stroke: #000000; stroke-width: 1.0; stroke-dasharray: 2.0,2.0;" width="10" x="1861.5" y="30"/><text fill="#000000" font-family="sans-serif" font-size="12" font-style="italic" lengthAdjust="spacingAndGlyphs" textLength="8" x="1862.5" y="42.6016">T</text><line style="stroke: #A80036; stroke-width: 1.5;" x1="1652.5" x2="1867.5" y1="65" y2="65"/><ellipse cx="1662.5" cy="76" fill="none" rx="3" ry="3" style="stroke: #038048; stroke-width: 1.0;"/><text fill="#000000" font-family="sans-serif" font-size="11" lengthAdjust="spacingAndGlyphs" text-decoration="underline" textLength="177" x="1671.5" y="79.6348">_Aggregate_: Class&lt;Aggregate&gt;</text><line style="stroke: #A80036; stroke-width: 1.5;" x1="1652.5" x2="1867.5" y1="85.9551" y2="85.9551"/><ellipse cx="1662.5" cy="96.9551" fill="#84BE84" rx="3" ry="3" style="stroke: #038048; stroke-width: 1.0;"/><text fill="#000000" font-family="sans-serif" font-size="11" font-style="italic" lengthAdjust="spacingAndGlyphs" textLength="176" x="1671.5" y="100.5898">getByName(String): Optional&lt;T&gt;</text><ellipse cx="1662.5" cy="109.9102" fill="#84BE84" rx="3" ry="3" style="stroke: #038048; stroke-width: 1.0;"/><text fill="#000000" font-family="sans-serif" font-size="11" lengthAdjust="spacingAndGlyphs" textLength="171" x="1671.5" y="113.5449">getNames(): Collection&lt;String&gt;</text><ellipse cx="1662.5" cy="122.8652" fill="#84BE84" rx="3" ry="3" style="stroke: #038048; stroke-width: 1.0;"/><text fill="#000000" font-family="sans-serif" font-size="11" lengthAdjust="spacingAndGlyphs" text-decoration="underline" textLength="191" x="1671.5" y="126.5">of(Map&lt;String, T&gt;): Aggregate&lt;T&gt;</text><ellipse cx="1662.5" cy="135.8203" fill="#84BE84" rx="3" ry="3" style="stroke: #038048; stroke-width: 1.0;"/><text fill="#000000" font-family="sans-serif" font-size="11" lengthAdjust="spacingAndGlyphs" text-decoration="underline" textLength="161" x="1671.5" y="139.4551">newInstance(): Aggregate&lt;T&gt;</text><ellipse cx="1662.5" cy="148.7754" fill="#84BE84" rx="3" ry="3" style="stroke: #038048; stroke-width: 1.0;"/><text fill="#000000" font-family="sans-serif" font-size="11" lengthAdjust="spacingAndGlyphs" text-decoration="underline" textLength="151" x="1671.5" y="152.4102">of(String, T): Aggregate&lt;T&gt;</text><ellipse cx="1662.5" cy="161.7305" fill="#84BE84" rx="3" ry="3" style="stroke: #038048; stroke-width: 1.0;"/><text fill="#000000" font-family="sans-serif" font-size="11" lengthAdjust="spacingAndGlyphs" textLength="162" x="1671.5" y="165.3652">with(String, T): Aggregate&lt;T&gt;</text></a><!--MD5=[c4c289a19c40fe4e636fc9eb67c73418]
class it.tidalwave.role.StringRenderable--><a href="StringRenderable.html" target="_top" title="StringRenderable.html" xlink:actuate="onRequest" xlink:href="StringRenderable.html" xlink:show="new" xlink:title="StringRenderable.html" xlink:type="simple"><rect codeLine="40" fill="#FEFECE" filter="url(#f37t2sqiolx79)" height="99.8203" id="it.tidalwave.role.StringRenderable" style="stroke: #A80036; stroke-width: 1.5;" width="275" x="353.5" y="52.5"/><ellipse cx="437.25" cy="68.5" fill="#B4A7E5" rx="11" ry="11" style="stroke: #A80036; stroke-width: 1.0;"/><path d="M433.6777,64.7651 L433.6777,62.6069 L441.0571,62.6069 L441.0571,64.7651 L438.5918,64.7651 L438.5918,72.8418 L441.0571,72.8418 L441.0571,75 L433.6777,75 L433.6777,72.8418 L436.1431,72.8418 L436.1431,64.7651 Z "/><text fill="#000000" font-family="sans-serif" font-size="12" font-style="italic" lengthAdjust="spacingAndGlyphs" textLength="99" x="457.75" y="73.0352">StringRenderable</text><line style="stroke: #A80036; stroke-width: 1.5;" x1="354.5" x2="627.5" y1="84.5" y2="84.5"/><ellipse cx="364.5" cy="95.5" fill="none" rx="3" ry="3" style="stroke: #038048; stroke-width: 1.0;"/><text fill="#000000" font-family="sans-serif" font-size="11" lengthAdjust="spacingAndGlyphs" text-decoration="underline" textLength="249" x="373.5" y="99.1348">_StringRenderable_: Class&lt;StringRenderable&gt;</text><line style="stroke: #A80036; stroke-width: 1.5;" x1="354.5" x2="627.5" y1="105.4551" y2="105.4551"/><ellipse cx="364.5" cy="116.4551" fill="#84BE84" rx="3" ry="3" style="stroke: #038048; stroke-width: 1.0;"/><text fill="#000000" font-family="sans-serif" font-size="11" font-style="italic" lengthAdjust="spacingAndGlyphs" textLength="126" x="373.5" y="120.0898">render(Object...): String</text><ellipse cx="364.5" cy="129.4102" fill="#84BE84" rx="3" ry="3" style="stroke: #038048; stroke-width: 1.0;"/><text fill="#000000" font-family="sans-serif" font-size="11" lengthAdjust="spacingAndGlyphs" textLength="206" x="373.5" y="133.0449">renderTo(StringBuilder, Object...): void</text><ellipse cx="364.5" cy="142.3652" fill="#84BE84" rx="3" ry="3" style="stroke: #038048; stroke-width: 1.0;"/><text fill="#000000" font-family="sans-serif" font-size="11" lengthAdjust="spacingAndGlyphs" textLength="194" x="373.5" y="146">renderTo(PrintWriter, Object...): void</text></a><!--MD5=[6b5abc6464049f80e4292c9591761e23]
class it.tidalwave.role.HtmlRenderable--><a href="HtmlRenderable.html" target="_top" title="HtmlRenderable.html" xlink:actuate="onRequest" xlink:href="HtmlRenderable.html" xlink:show="new" xlink:title="HtmlRenderable.html" xlink:type="simple"><rect codeLine="47" fill="#FEFECE" filter="url(#f37t2sqiolx79)" height="60.9551" id="it.tidalwave.role.HtmlRenderable" style="stroke: #A80036; stroke-width: 1.5;" width="261" x="64.5" y="314.5"/><ellipse cx="143.75" cy="330.5" fill="#B4A7E5" rx="11" ry="11" style="stroke: #A80036; stroke-width: 1.0;"/><path d="M140.1777,326.7651 L140.1777,324.6069 L147.5571,324.6069 L147.5571,326.7651 L145.0918,326.7651 L145.0918,334.8418 L147.5571,334.8418 L147.5571,337 L140.1777,337 L140.1777,334.8418 L142.6431,334.8418 L142.6431,326.7651 Z "/><text fill="#000000" font-family="sans-serif" font-size="12" font-style="italic" lengthAdjust="spacingAndGlyphs" textLength="94" x="164.25" y="335.0352">HtmlRenderable</text><line style="stroke: #A80036; stroke-width: 1.5;" x1="65.5" x2="324.5" y1="346.5" y2="346.5"/><ellipse cx="75.5" cy="357.5" fill="none" rx="3" ry="3" style="stroke: #038048; stroke-width: 1.0;"/><text fill="#000000" font-family="sans-serif" font-size="11" lengthAdjust="spacingAndGlyphs" text-decoration="underline" textLength="235" x="84.5" y="361.1348">_HtmlRenderable_: Class&lt;HtmlRenderable&gt;</text><line style="stroke: #A80036; stroke-width: 1.5;" x1="65.5" x2="324.5" y1="367.4551" y2="367.4551"/></a><!--MD5=[9188edba58146c55c846c02794fce0f4]
class it.tidalwave.role.PlainTextRenderable--><a href="PlainTextRenderable.html" target="_top" title="PlainTextRenderable.html" xlink:actuate="onRequest" xlink:href="PlainTextRenderable.html" xlink:show="new" xlink:title="PlainTextRenderable.html" xlink:type="simple"><rect codeLine="51" fill="#FEFECE" filter="url(#f37t2sqiolx79)" height="86.8652" id="it.tidalwave.role.PlainTextRenderable" style="stroke: #A80036; stroke-width: 1.5;" width="309" x="360.5" y="301.5"/><ellipse cx="450.75" cy="317.5" fill="#B4A7E5" rx="11" ry="11" style="stroke: #A80036; stroke-width: 1.0;"/><path d="M447.1777,313.7651 L447.1777,311.6069 L454.5571,311.6069 L454.5571,313.7651 L452.0918,313.7651 L452.0918,321.8418 L454.5571,321.8418 L454.5571,324 L447.1777,324 L447.1777,321.8418 L449.6431,321.8418 L449.6431,313.7651 Z "/><text fill="#000000" font-family="sans-serif" font-size="12" font-style="italic" lengthAdjust="spacingAndGlyphs" textLength="120" x="471.25" y="322.0352">PlainTextRenderable</text><line style="stroke: #A80036; stroke-width: 1.5;" x1="361.5" x2="668.5" y1="333.5" y2="333.5"/><ellipse cx="371.5" cy="344.5" fill="none" rx="3" ry="3" style="stroke: #038048; stroke-width: 1.0;"/><text fill="#000000" font-family="sans-serif" font-size="11" lengthAdjust="spacingAndGlyphs" text-decoration="underline" textLength="283" x="380.5" y="348.1348">_PlainTextRenderable_: Class&lt;PlainTextRenderable&gt;</text><line style="stroke: #A80036; stroke-width: 1.5;" x1="361.5" x2="668.5" y1="354.4551" y2="354.4551"/><ellipse cx="371.5" cy="365.4551" fill="#84BE84" rx="3" ry="3" style="stroke: #038048; stroke-width: 1.0;"/><text fill="#000000" font-family="sans-serif" font-size="11" lengthAdjust="spacingAndGlyphs" textLength="206" x="380.5" y="369.0898">renderTo(StringBuilder, Object...): void</text><ellipse cx="371.5" cy="378.4102" fill="#84BE84" rx="3" ry="3" style="stroke: #038048; stroke-width: 1.0;"/><text fill="#000000" font-family="sans-serif" font-size="11" lengthAdjust="spacingAndGlyphs" textLength="194" x="380.5" y="382.0449">renderTo(PrintWriter, Object...): void</text></a><!--MD5=[9f1499dda238812d62a98ae179449596]
class it.tidalwave.role.Removable--><a href="Removable.html" target="_top" title="Removable.html" xlink:actuate="onRequest" xlink:href="Removable.html" xlink:show="new" xlink:title="Removable.html" xlink:type="simple"><rect codeLine="57" fill="#FEFECE" filter="url(#f37t2sqiolx79)" height="73.9102" id="it.tidalwave.role.Removable" style="stroke: #A80036; stroke-width: 1.5;" width="207" x="24.5" y="65.5"/><ellipse cx="91.75" cy="81.5" fill="#B4A7E5" rx="11" ry="11" style="stroke: #A80036; stroke-width: 1.0;"/><path d="M88.1777,77.7651 L88.1777,75.6069 L95.5571,75.6069 L95.5571,77.7651 L93.0918,77.7651 L93.0918,85.8418 L95.5571,85.8418 L95.5571,88 L88.1777,88 L88.1777,85.8418 L90.6431,85.8418 L90.6431,77.7651 Z "/><text fill="#000000" font-family="sans-serif" font-size="12" font-style="italic" lengthAdjust="spacingAndGlyphs" textLength="64" x="112.25" y="86.0352">Removable</text><line style="stroke: #A80036; stroke-width: 1.5;" x1="25.5" x2="230.5" y1="97.5" y2="97.5"/><ellipse cx="35.5" cy="108.5" fill="none" rx="3" ry="3" style="stroke: #038048; stroke-width: 1.0;"/><text fill="#000000" font-family="sans-serif" font-size="11" lengthAdjust="spacingAndGlyphs" text-decoration="underline" textLength="181" x="44.5" y="112.1348">_Removable_: Class&lt;Removable&gt;</text><line style="stroke: #A80036; stroke-width: 1.5;" x1="25.5" x2="230.5" y1="118.4551" y2="118.4551"/><ellipse cx="35.5" cy="129.4551" fill="#84BE84" rx="3" ry="3" style="stroke: #038048; stroke-width: 1.0;"/><text fill="#000000" font-family="sans-serif" font-size="11" font-style="italic" lengthAdjust="spacingAndGlyphs" textLength="77" x="44.5" y="133.0898">remove(): void</text></a><!--MD5=[f40774d2c0efa8b70d7c747ac61cb911]
class it.tidalwave.role.Identifiable--><a href="Identifiable.html" target="_top" title="Identifiable.html" xlink:actuate="onRequest" xlink:href="Identifiable.html" xlink:show="new" xlink:title="Identifiable.html" xlink:type="simple"><rect codeLine="62" fill="#FEFECE" filter="url(#f37t2sqiolx79)" height="86.8652" id="it.tidalwave.role.Identifiable" style="stroke: #A80036; stroke-width: 1.5;" width="209" x="1416.5" y="301.5"/><ellipse cx="1484.75" cy="317.5" fill="#B4A7E5" rx="11" ry="11" style="stroke: #A80036; stroke-width: 1.0;"/><path d="M1481.1777,313.7651 L1481.1777,311.6069 L1488.5571,311.6069 L1488.5571,313.7651 L1486.0918,313.7651 L1486.0918,321.8418 L1488.5571,321.8418 L1488.5571,324 L1481.1777,324 L1481.1777,321.8418 L1483.6431,321.8418 L1483.6431,313.7651 Z "/><text fill="#000000" font-family="sans-serif" font-size="12" font-style="italic" lengthAdjust="spacingAndGlyphs" textLength="64" x="1505.25" y="322.0352">Identifiable</text><line style="stroke: #A80036; stroke-width: 1.5;" x1="1417.5" x2="1624.5" y1="333.5" y2="333.5"/><ellipse cx="1427.5" cy="344.5" fill="none" rx="3" ry="3" style="stroke: #038048; stroke-width: 1.0;"/><text fill="#000000" font-family="sans-serif" font-size="11" lengthAdjust="spacingAndGlyphs" text-decoration="underline" textLength="183" x="1436.5" y="348.1348">_Identifiable_: Class&lt;Identifiable&gt;</text><line style="stroke: #A80036; stroke-width: 1.5;" x1="1417.5" x2="1624.5" y1="354.4551" y2="354.4551"/><ellipse cx="1427.5" cy="365.4551" fill="#84BE84" rx="3" ry="3" style="stroke: #038048; stroke-width: 1.0;"/><text fill="#000000" font-family="sans-serif" font-size="11" font-style="italic" lengthAdjust="spacingAndGlyphs" textLength="51" x="1436.5" y="369.0898">getId(): Id</text><ellipse cx="1427.5" cy="378.4102" fill="#84BE84" rx="3" ry="3" style="stroke: #038048; stroke-width: 1.0;"/><text fill="#000000" font-family="sans-serif" font-size="11" lengthAdjust="spacingAndGlyphs" text-decoration="underline" textLength="94" x="1436.5" y="382.0449">of(Id): Identifiable</text></a><!--MD5=[47961c61de71975c458f002bbaf69807]
class it.tidalwave.role.SimpleComposite--><a href="SimpleComposite.html" target="_top" title="SimpleComposite.html" xlink:actuate="onRequest" xlink:href="SimpleComposite.html" xlink:show="new" xlink:title="SimpleComposite.html" xlink:type="simple"><rect codeLine="68" fill="#FEFECE" filter="url(#f37t2sqiolx79)" height="86.8652" id="it.tidalwave.role.SimpleComposite" style="stroke: #A80036; stroke-width: 1.5;" width="342" x="904" y="301.5"/><ellipse cx="1015.25" cy="317.5" fill="#B4A7E5" rx="11" ry="11" style="stroke: #A80036; stroke-width: 1.0;"/><path d="M1011.6777,313.7651 L1011.6777,311.6069 L1019.0571,311.6069 L1019.0571,313.7651 L1016.5918,313.7651 L1016.5918,321.8418 L1019.0571,321.8418 L1019.0571,324 L1011.6777,324 L1011.6777,321.8418 L1014.1431,321.8418 L1014.1431,313.7651 Z "/><text fill="#000000" font-family="sans-serif" font-size="12" font-style="italic" lengthAdjust="spacingAndGlyphs" textLength="99" x="1035.75" y="322.0352">SimpleComposite</text><rect fill="#FFFFFF" height="16.1328" style="stroke: #000000; stroke-width: 1.0; stroke-dasharray: 2.0,2.0;" width="10" x="1239" y="298.5"/><text fill="#000000" font-family="sans-serif" font-size="12" font-style="italic" lengthAdjust="spacingAndGlyphs" textLength="8" x="1240" y="311.1016">T</text><line style="stroke: #A80036; stroke-width: 1.5;" x1="905" x2="1245" y1="333.5" y2="333.5"/><ellipse cx="915" cy="344.5" fill="none" rx="3" ry="3" style="stroke: #038048; stroke-width: 1.0;"/><text fill="#000000" font-family="sans-serif" font-size="11" lengthAdjust="spacingAndGlyphs" text-decoration="underline" textLength="251" x="924" y="348.1348">_SimpleComposite_: Class&lt;SimpleComposite&gt;</text><line style="stroke: #A80036; stroke-width: 1.5;" x1="905" x2="1245" y1="354.4551" y2="354.4551"/><ellipse cx="915" cy="365.4551" fill="#84BE84" rx="3" ry="3" style="stroke: #038048; stroke-width: 1.0;"/><text fill="#000000" font-family="sans-serif" font-size="11" lengthAdjust="spacingAndGlyphs" text-decoration="underline" textLength="204" x="924" y="369.0898">of(Finder&lt;​U&gt;): SimpleComposite&lt;​U&gt;</text><ellipse cx="915" cy="378.4102" fill="#84BE84" rx="3" ry="3" style="stroke: #038048; stroke-width: 1.0;"/><text fill="#000000" font-family="sans-serif" font-size="11" lengthAdjust="spacingAndGlyphs" text-decoration="underline" textLength="316" x="924" y="382.0449">ofCloned(Collection&lt;? extends U&gt;): SimpleComposite&lt;​U&gt;</text></a><!--MD5=[636e362c3e646b0e1efa03d9c7f7e753]
link it.tidalwave.role.Sortable to it.tidalwave.role.Sortable--><path codeLine="74" d="M1303.7071,84.7459 C1324.1397,86.9628 1338.5,92.8809 1338.5,102.5 C1338.5,111.2925 1326.5018,116.9927 1308.8351,119.6005 " fill="none" id="it.tidalwave.role.Sortable-to-it.tidalwave.role.Sortable" style="stroke: #A80036; stroke-width: 1.0;"/><polygon fill="#A80036" points="1303.7071,120.2541,1313.1406,123.0841,1308.667,119.622,1312.1292,115.1483,1303.7071,120.2541" style="stroke: #A80036; stroke-width: 1.0;"/><text fill="#000000" font-family="sans-serif" font-size="13" lengthAdjust="spacingAndGlyphs" textLength="57" x="1344.5" y="107.5684">DEFAULT</text><!--MD5=[9f2fd502deafbf584a429f19467174ee]
link it.tidalwave.role.Composite to it.tidalwave.role.Composite--><path codeLine="75" d="M960.2733,85.721 C981.0713,88.4597 995,94.0527 995,102.5 C995,110.2213 983.3624,115.5579 965.4786,118.5097 " fill="none" id="it.tidalwave.role.Composite-to-it.tidalwave.role.Composite" style="stroke: #A80036; stroke-width: 1.0;"/><polygon fill="#A80036" points="960.2733,119.279,969.7615,121.92,965.2196,118.5479,968.5916,114.0059,960.2733,119.279" style="stroke: #A80036; stroke-width: 1.0;"/><text fill="#000000" font-family="sans-serif" font-size="13" lengthAdjust="spacingAndGlyphs" textLength="57" x="1001" y="107.5684">DEFAULT</text><!--MD5=[c0a6916de380d2acc83b64a898d5fdf8]
reverse link it.tidalwave.role.Composite to it.tidalwave.role.Composite.Visitor--><path codeLine="76" d="M806.8398,154.6395 C802.7319,196.1466 797.0185,253.8758 792.9631,294.8521 " fill="none" id="it.tidalwave.role.Composite-backto-it.tidalwave.role.Composite.Visitor" style="stroke: #A80036; stroke-width: 1.0;"/><ellipse cx="807.5408" cy="147.5556" fill="#FFFFFF" rx="8" ry="8" style="stroke: #A80036; stroke-width: 1.0;"/><line style="stroke: #A80036; stroke-width: 1.0;" x1="806.7529" x2="808.3288" y1="155.5167" y2="139.5945"/><line style="stroke: #A80036; stroke-width: 1.0;" x1="799.5797" x2="815.5019" y1="146.7676" y2="148.3436"/><!--MD5=[4d78baa38dc1703ffcca9b8355040d4e]
reverse link it.tidalwave.role.StringRenderable to it.tidalwave.role.HtmlRenderable--><path codeLine="77" d="M414.1239,165.4813 C355.6838,213.3587 277.8334,277.1382 232.3878,314.3698 " fill="none" id="it.tidalwave.role.StringRenderable-backto-it.tidalwave.role.HtmlRenderable" style="stroke: #A80036; stroke-width: 1.0;"/><polygon fill="none" points="409.7614,160.0061,429.6686,152.7462,418.6338,170.8358,409.7614,160.0061" style="stroke: #A80036; stroke-width: 1.0;"/><!--MD5=[cbc4b779765422d57083ea22e08657f5]
reverse link it.tidalwave.role.StringRenderable to it.tidalwave.role.PlainTextRenderable--><path codeLine="78" d="M497.9606,172.8309 C502.0688,214.3414 507.1401,265.5818 510.6772,301.322 " fill="none" id="it.tidalwave.role.StringRenderable-backto-it.tidalwave.role.PlainTextRenderable" style="stroke: #A80036; stroke-width: 1.0;"/><polygon fill="none" points="490.9767,173.3384,495.9728,152.7462,504.9086,171.9595,490.9767,173.3384" style="stroke: #A80036; stroke-width: 1.0;"/><!--MD5=[a8f3b607bbaddb100334f39624bc481b]
link it.tidalwave.role.Removable to it.tidalwave.role.Removable--><path codeLine="79" d="M231.588,84.5537 C251.9852,86.6058 266.5,92.5879 266.5,102.5 C266.5,111.5603 254.3727,117.337 236.7108,119.8302 " fill="none" id="it.tidalwave.role.Removable-to-it.tidalwave.role.Removable" style="stroke: #A80036; stroke-width: 1.0;"/><polygon fill="#A80036" points="231.588,120.4463,241.0013,123.3428,236.5522,119.8492,240.0459,115.4001,231.588,120.4463" style="stroke: #A80036; stroke-width: 1.0;"/><text fill="#000000" font-family="sans-serif" font-size="13" lengthAdjust="spacingAndGlyphs" textLength="57" x="272.5" y="107.5684">DEFAULT</text><!--MD5=[7daef9bba2f94f646160cd0873314a0c]
reverse link it.tidalwave.role.Composite to it.tidalwave.role.SimpleComposite--><path codeLine="80" d="M867.1973,153.3948 C914.7183,197.2117 982.5662,259.7712 1027.6534,301.3439 " fill="none" id="it.tidalwave.role.Composite-backto-it.tidalwave.role.SimpleComposite" style="stroke: #A80036; stroke-width: 1.0;"/><polygon fill="none" points="862.1888,158.2983,852.2303,139.5945,871.679,148.0058,862.1888,158.2983" style="stroke: #A80036; stroke-width: 1.0;"/><!--MD5=[b9b0c4f8a26004dfa91fee79348436ba]
link it.tidalwave.role.IdFactory to it.tidalwave.role.Aggregate--><!--MD5=[d60fb288f50030ee62879bebd6d8c15f]
link it.tidalwave.role.IdFactory to it.tidalwave.role.Identifiable--><text fill="#888888" font-family="sans-serif" font-size="10" lengthAdjust="spacingAndGlyphs" textLength="188" x="846.5" y="418.668">UMLDoclet 2.0.12, PlantUML 1.2020.16</text><!--MD5=[afeb119d1f34f412479592ad1d21fb47]
@startuml
    namespace it.tidalwave.role {

        interface Sortable [[Sortable.html]] {
            {static} +_Sortable_: Class<Sortable>
            {abstract} +setSortCriterion(SortCriterion): void
            {abstract} +setSortDirection(SortDirection): void
            {abstract} +getSortCriterion(): SortCriterion
            {abstract} +getSortDirection(): SortDirection
        }

        interface Composite<T, F extends Finder<? extends T>> [[Composite.html]] {
            {static} +_Composite_: Class<Composite>
            {abstract} +findChildren(): F extends Finder<? extends T>
        }

        interface it.tidalwave.role.Composite.Visitor<T, R> [[Composite.Visitor.html]] {
            +preVisit(T): void
            +visit(T): void
            +postVisit(T): void
            +getValue(): Optional<R>
        }

        interface IdFactory [[IdFactory.html]] {
            {static} +_IdFactory_: Class<IdFactory>
            {abstract} +createId(): Id
            {abstract} +createId(Class<?>): Id
            {abstract} +createId(Class<?>, Object): Id
        }

        interface Aggregate<T> [[Aggregate.html]] {
            {static} +_Aggregate_: Class<Aggregate>
            {abstract} +getByName(String): Optional<T>
            +getNames(): Collection<String>
            {static} +of(Map<String, T>): Aggregate<T>
            {static} +newInstance(): Aggregate<T>
            {static} +of(String, T): Aggregate<T>
            +with(String, T): Aggregate<T>
        }

        interface StringRenderable [[StringRenderable.html]] {
            {static} +_StringRenderable_: Class<StringRenderable>
            {abstract} +render(Object...): String
            +renderTo(StringBuilder, Object...): void
            +renderTo(PrintWriter, Object...): void
        }

        interface HtmlRenderable [[HtmlRenderable.html]] {
            {static} +_HtmlRenderable_: Class<HtmlRenderable>
        }

        interface PlainTextRenderable [[PlainTextRenderable.html]] {
            {static} +_PlainTextRenderable_: Class<PlainTextRenderable>
            +renderTo(StringBuilder, Object...): void
            +renderTo(PrintWriter, Object...): void
        }

        interface Removable [[Removable.html]] {
            {static} +_Removable_: Class<Removable>
            {abstract} +remove(): void
        }

        interface Identifiable [[Identifiable.html]] {
            {static} +_Identifiable_: Class<Identifiable>
            {abstract} +getId(): Id
            {static} +of(Id): Identifiable
        }

        interface SimpleComposite<T> [[SimpleComposite.html]] {
            {static} +_SimpleComposite_: Class<SimpleComposite>
            {static} +of(Finder<​U>): SimpleComposite<​U>
            {static} +ofCloned(Collection<? extends U>): SimpleComposite<​U>
        }

        Sortable - -> Sortable: DEFAULT
        Composite - -> Composite: DEFAULT
        Composite +- - it.tidalwave.role.Composite.Visitor
        StringRenderable <|- - HtmlRenderable
        StringRenderable <|- - PlainTextRenderable
        Removable - -> Removable: DEFAULT
        Composite <|- - SimpleComposite
    }

    center footer UMLDoclet 2.0.12, PlantUML 1.2020.16
@enduml

PlantUML version 1.2020.16(Sun Aug 23 22:20:43 CEST 2020)
(APACHE source distribution)
Java Runtime: OpenJDK Runtime Environment
JVM: OpenJDK 64-Bit Server VM
Default Encoding: UTF-8
Language: en
Country: GB
--></g></svg>