@startuml
    set namespaceSeparator none
    hide empty fields
    hide empty methods

    interface "<size:14>SimpleComposite\n<size:10>it.tidalwave.role" as it.tidalwave.role.SimpleComposite<T> [[SimpleComposite.html]] {
        {static} +_SimpleComposite_: Class<SimpleComposite>
        {static} +of(Finder<​U>): SimpleComposite<​U>
        {static} +ofCloned(Collection<? extends U>): SimpleComposite<​U>
    }

    interface "<size:14>Composite\n<size:10>it.tidalwave.role" as it.tidalwave.role.Composite<T, Finder<T>> [[Composite.html]] {
        {abstract} +findChildren(): Finder<T>
    }

    it.tidalwave.role.Composite <|-- it.tidalwave.role.SimpleComposite

    center footer UMLDoclet 2.0.12, PlantUML 1.2020.16
@enduml
