<?xml version="1.0" encoding="UTF-8" standalone="no"?><svg xmlns="http://www.w3.org/2000/svg" xmlns:xlink="http://www.w3.org/1999/xlink" contentScriptType="application/ecmascript" contentStyleType="text/css" height="95px" preserveAspectRatio="none" style="width:365px;height:95px;" version="1.1" viewBox="0 0 365 95" width="365px" zoomAndPan="magnify"><defs><filter height="300%" id="fk8qt623mt3wj" width="300%" x="-1" y="-1"><feGaussianBlur result="blurOut" stdDeviation="2.0"/><feColorMatrix in="blurOut" result="blurOut2" type="matrix" values="0 0 0 0 0 0 0 0 0 0 0 0 0 0 0 0 0 0 .4 0"/><feOffset dx="4.0" dy="4.0" in="blurOut2" result="blurOut3"/><feBlend in="SourceGraphic" in2="blurOut3" mode="normal"/></filter></defs><g><!--MD5=[99466c3a73846c52fc7bea1049b32b86]
class it.tidalwave.thesefoolishthings.examples.inmemoryfinderexample.Main--><a href="Main.html" target="_top" title="Main.html" xlink:actuate="onRequest" xlink:href="Main.html" xlink:show="new" xlink:title="Main.html" xlink:type="simple"><rect codeLine="5" fill="#FEFECE" filter="url(#fk8qt623mt3wj)" height="58.2466" id="it.tidalwave.thesefoolishthings.examples.inmemoryfinderexample.Main" style="stroke: #A80036; stroke-width: 1.5;" width="339" x="7" y="7"/><ellipse cx="22" cy="25.7988" fill="#ADD1B2" rx="11" ry="11" style="stroke: #A80036; stroke-width: 1.0;"/><path d="M19.9063,25.6426 Q19.9063,27.5176 20.4844,28.5332 Q21.0625,29.5332 22.2188,29.5332 Q23.5625,29.5332 24.2188,27.5176 L26.4844,27.9395 Q25.375,31.4707 22.2031,31.4707 Q19.8594,31.4707 18.6406,29.9863 Q17.4219,28.502 17.4219,25.6426 Q17.4219,19.9238 22.125,19.9238 Q23.6719,19.9238 24.7031,20.7363 Q25.75,21.5488 26.25,23.1582 L23.9844,23.7051 Q23.75,22.8301 23.2656,22.3457 Q22.7813,21.8457 22.1563,21.8457 Q19.9063,21.8457 19.9063,25.6426 Z "/><text fill="#000000" font-family="sans-serif" font-size="14" lengthAdjust="spacingAndGlyphs" textLength="30" x="174.5" y="25.1318">Main</text><text fill="#000000" font-family="sans-serif" font-size="10" lengthAdjust="spacingAndGlyphs" textLength="307" x="36" y="37.4785">it.tidalwave.thesefoolishthings.examples.inmemoryfinderexample</text><line style="stroke: #A80036; stroke-width: 1.5;" x1="8" x2="345" y1="44.5977" y2="44.5977"/><ellipse cx="18" cy="55.5977" fill="#84BE84" rx="3" ry="3" style="stroke: #038048; stroke-width: 1.0;"/><text fill="#000000" font-family="sans-serif" font-size="11" lengthAdjust="spacingAndGlyphs" text-decoration="underline" textLength="93" x="27" y="58.9155">main(String...): void</text></a><text fill="#888888" font-family="sans-serif" font-size="10" lengthAdjust="spacingAndGlyphs" textLength="190" x="81.5" y="81.6265">UMLDoclet 2.0.12, PlantUML 1.2020.16</text><!--MD5=[68c4963254396991d24db59b3d007a19]
@startuml
    set namespaceSeparator none
    hide empty fields
    hide empty methods

    class "<size:14>Main\n<size:10>it.tidalwave.thesefoolishthings.examples.inmemoryfinderexample" as it.tidalwave.thesefoolishthings.examples.inmemoryfinderexample.Main [[Main.html]] {
        {static} +main(String...): void
    }

    center footer UMLDoclet 2.0.12, PlantUML 1.2020.16
@enduml

PlantUML version 1.2020.16(Sun Aug 23 22:20:43 CEST 2020)
(APACHE source distribution)
Java Runtime: OpenJDK Runtime Environment
JVM: OpenJDK 64-Bit Server VM
Default Encoding: UTF-8
Language: en
Country: US
--></g></svg>