<?xml version="1.0" encoding="UTF-8" standalone="no"?><svg xmlns="http://www.w3.org/2000/svg" xmlns:xlink="http://www.w3.org/1999/xlink" contentScriptType="application/ecmascript" contentStyleType="text/css" height="386px" preserveAspectRatio="none" style="width:1111px;height:386px;" version="1.1" viewBox="0 0 1111 386" width="1111px" zoomAndPan="magnify"><defs><filter height="300%" id="fsou5raurcsr2" width="300%" x="-1" y="-1"><feGaussianBlur result="blurOut" stdDeviation="2.0"/><feColorMatrix in="blurOut" result="blurOut2" type="matrix" values="0 0 0 0 0 0 0 0 0 0 0 0 0 0 0 0 0 0 .4 0"/><feOffset dx="4.0" dy="4.0" in="blurOut2" result="blurOut3"/><feBlend in="SourceGraphic" in2="blurOut3" mode="normal"/></filter></defs><g><!--MD5=[d9d4d5321d214d1228da53e265eb5e49]
cluster it.tidalwave.bluemarine2.model.impl.catalog.factory--><polygon fill="#FFFFFF" filter="url(#fsou5raurcsr2)" points="16,12.5,390,12.5,397,34.9883,689,34.9883,689,357,16,357,16,12.5" style="stroke: #000000; stroke-width: 1.5;"/><line style="stroke: #000000; stroke-width: 1.5;" x1="16" x2="397" y1="34.9883" y2="34.9883"/><text fill="#000000" font-family="sans-serif" font-size="14" font-weight="bold" lengthAdjust="spacingAndGlyphs" textLength="368" x="20" y="28.0352">it.tidalwave.bluemarine2.model.impl.catalog.factory</text><!--MD5=[0c311de4a592f3c5f2bed0984ce064df]
cluster java.util.function--><polygon fill="#FFFFFF" filter="url(#fsou5raurcsr2)" points="697,6,823,6,830,28.4883,1089,28.4883,1089,115,697,115,697,6" style="stroke: #000000; stroke-width: 1.5;"/><line style="stroke: #000000; stroke-width: 1.5;" x1="697" x2="830" y1="28.4883" y2="28.4883"/><text fill="#000000" font-family="sans-serif" font-size="14" font-weight="bold" lengthAdjust="spacingAndGlyphs" textLength="120" x="701" y="21.5352">java.util.function</text><!--MD5=[3cccefb07cf5f23d591331071c23e047]
class it.tidalwave.bluemarine2.model.impl.catalog.factory.StringFactory--><a href="StringFactory.html" target="_top" title="StringFactory.html" xlink:actuate="onRequest" xlink:href="StringFactory.html" xlink:show="new" xlink:title="StringFactory.html" xlink:type="simple"><rect codeLine="3" fill="#FEFECE" filter="url(#fsou5raurcsr2)" height="60.9551" id="it.tidalwave.bluemarine2.model.impl.catalog.factory.StringFactory" style="stroke: #A80036; stroke-width: 1.5;" width="221" x="183.5" y="288"/><ellipse cx="253.25" cy="304" fill="#ADD1B2" rx="11" ry="11" style="stroke: #A80036; stroke-width: 1.0;"/><path d="M255.7231,310.1431 Q255.1421,310.4419 254.5029,310.5913 Q253.8638,310.7407 253.1582,310.7407 Q250.6514,310.7407 249.3315,309.0889 Q248.0117,307.437 248.0117,304.3159 Q248.0117,301.1865 249.3315,299.5347 Q250.6514,297.8828 253.1582,297.8828 Q253.8638,297.8828 254.5112,298.0322 Q255.1587,298.1816 255.7231,298.4805 L255.7231,301.2031 Q255.0923,300.6221 254.4988,300.3523 Q253.9053,300.0825 253.2744,300.0825 Q251.9297,300.0825 251.2449,301.1492 Q250.5601,302.2158 250.5601,304.3159 Q250.5601,306.4077 251.2449,307.4744 Q251.9297,308.541 253.2744,308.541 Q253.9053,308.541 254.4988,308.2712 Q255.0923,308.0015 255.7231,307.4204 Z "/><text fill="#000000" font-family="sans-serif" font-size="12" lengthAdjust="spacingAndGlyphs" textLength="73" x="273.75" y="308.5352">StringFactory</text><line style="stroke: #A80036; stroke-width: 1.5;" x1="184.5" x2="403.5" y1="320" y2="320"/><line style="stroke: #A80036; stroke-width: 1.5;" x1="184.5" x2="403.5" y1="328" y2="328"/><ellipse cx="194.5" cy="339" fill="#84BE84" rx="3" ry="3" style="stroke: #038048; stroke-width: 1.0;"/><text fill="#000000" font-family="sans-serif" font-size="11" lengthAdjust="spacingAndGlyphs" textLength="195" x="203.5" y="342.6348">apply(Repository, BindingSet): String</text></a><!--MD5=[b2c8e5e05d706b3debe72240d0f2febf]
class it.tidalwave.bluemarine2.model.impl.catalog.factory.RepositoryEntityFactory--><a href="RepositoryEntityFactory.html" target="_top" title="RepositoryEntityFactory.html" xlink:actuate="onRequest" xlink:href="RepositoryEntityFactory.html" xlink:show="new" xlink:title="RepositoryEntityFactory.html" xlink:type="simple"><rect codeLine="7" fill="#FEFECE" filter="url(#fsou5raurcsr2)" height="60.9551" id="it.tidalwave.bluemarine2.model.impl.catalog.factory.RepositoryEntityFactory" style="stroke: #A80036; stroke-width: 1.5;" width="288" x="197" y="39.5"/><ellipse cx="270.25" cy="55.5" fill="#B4A7E5" rx="11" ry="11" style="stroke: #A80036; stroke-width: 1.0;"/><path d="M266.6777,51.7651 L266.6777,49.6069 L274.0571,49.6069 L274.0571,51.7651 L271.5918,51.7651 L271.5918,59.8418 L274.0571,59.8418 L274.0571,62 L266.6777,62 L266.6777,59.8418 L269.1431,59.8418 L269.1431,51.7651 Z "/><text fill="#000000" font-family="sans-serif" font-size="12" font-style="italic" lengthAdjust="spacingAndGlyphs" textLength="133" x="290.75" y="60.0352">RepositoryEntityFactory</text><line style="stroke: #A80036; stroke-width: 1.5;" x1="198" x2="484" y1="71.5" y2="71.5"/><line style="stroke: #A80036; stroke-width: 1.5;" x1="198" x2="484" y1="79.5" y2="79.5"/><ellipse cx="208" cy="90.5" fill="#84BE84" rx="3" ry="3" style="stroke: #038048; stroke-width: 1.0;"/><text fill="#000000" font-family="sans-serif" font-size="11" font-style="italic" lengthAdjust="spacingAndGlyphs" textLength="262" x="217" y="94.1348">createEntity(Repository, Class&lt;E&gt;, BindingSet): E</text></a><!--MD5=[a33e74733430de1422eaed2bbe830021]
class it.tidalwave.bluemarine2.model.impl.catalog.factory.RepositoryEntityFactory.EntityFactoryFunction--><a href="RepositoryEntityFactory.EntityFactoryFunction.html" target="_top" title="RepositoryEntityFactory.EntityFactoryFunction.html" xlink:actuate="onRequest" xlink:href="RepositoryEntityFactory.EntityFactoryFunction.html" xlink:show="new" xlink:title="RepositoryEntityFactory.EntityFactoryFunction.html" xlink:type="simple"><rect codeLine="11" fill="#FEFECE" filter="url(#fsou5raurcsr2)" height="48" id="it.tidalwave.bluemarine2.model.impl.catalog.factory.RepositoryEntityFactory.EntityFactoryFunction" style="stroke: #A80036; stroke-width: 1.5;" width="334" x="347" y="173.5"/><ellipse cx="362" cy="189.5" fill="#B4A7E5" rx="11" ry="11" style="stroke: #A80036; stroke-width: 1.0;"/><path d="M358.4277,185.7651 L358.4277,183.6069 L365.8071,183.6069 L365.8071,185.7651 L363.3418,185.7651 L363.3418,193.8418 L365.8071,193.8418 L365.8071,196 L358.4277,196 L358.4277,193.8418 L360.8931,193.8418 L360.8931,185.7651 Z "/><text fill="#000000" font-family="sans-serif" font-size="12" font-style="italic" lengthAdjust="spacingAndGlyphs" textLength="256" x="376" y="194.0352">RepositoryEntityFactory.EntityFactoryFunction</text><rect fill="#FFFFFF" height="16.1328" style="stroke: #000000; stroke-width: 1.0; stroke-dasharray: 2.0,2.0;" width="44" x="640" y="170.5"/><text fill="#000000" font-family="sans-serif" font-size="12" font-style="italic" lengthAdjust="spacingAndGlyphs" textLength="42" x="641" y="183.1016">ENTITY</text><line style="stroke: #A80036; stroke-width: 1.5;" x1="348" x2="680" y1="205.5" y2="205.5"/><line style="stroke: #A80036; stroke-width: 1.5;" x1="348" x2="680" y1="213.5" y2="213.5"/></a><!--MD5=[c66a4684d043880003fb9f127b1fd08a]
class it.tidalwave.bluemarine2.model.impl.catalog.factory.UrlFactory--><a href="UrlFactory.html" target="_top" title="UrlFactory.html" xlink:actuate="onRequest" xlink:href="UrlFactory.html" xlink:show="new" xlink:title="UrlFactory.html" xlink:type="simple"><rect codeLine="13" fill="#FEFECE" filter="url(#fsou5raurcsr2)" height="60.9551" id="it.tidalwave.bluemarine2.model.impl.catalog.factory.UrlFactory" style="stroke: #A80036; stroke-width: 1.5;" width="210" x="440" y="288"/><ellipse cx="512.25" cy="304" fill="#ADD1B2" rx="11" ry="11" style="stroke: #A80036; stroke-width: 1.0;"/><path d="M514.7231,310.1431 Q514.1421,310.4419 513.5029,310.5913 Q512.8638,310.7407 512.1582,310.7407 Q509.6514,310.7407 508.3315,309.0889 Q507.0117,307.437 507.0117,304.3159 Q507.0117,301.1865 508.3315,299.5347 Q509.6514,297.8828 512.1582,297.8828 Q512.8638,297.8828 513.5112,298.0322 Q514.1587,298.1816 514.7231,298.4805 L514.7231,301.2031 Q514.0923,300.6221 513.4988,300.3523 Q512.9053,300.0825 512.2744,300.0825 Q510.9297,300.0825 510.2449,301.1492 Q509.5601,302.2158 509.5601,304.3159 Q509.5601,306.4077 510.2449,307.4744 Q510.9297,308.541 512.2744,308.541 Q512.9053,308.541 513.4988,308.2712 Q514.0923,308.0015 514.7231,307.4204 Z "/><text fill="#000000" font-family="sans-serif" font-size="12" lengthAdjust="spacingAndGlyphs" textLength="57" x="532.75" y="308.5352">UrlFactory</text><line style="stroke: #A80036; stroke-width: 1.5;" x1="441" x2="649" y1="320" y2="320"/><line style="stroke: #A80036; stroke-width: 1.5;" x1="441" x2="649" y1="328" y2="328"/><ellipse cx="451" cy="339" fill="#84BE84" rx="3" ry="3" style="stroke: #038048; stroke-width: 1.0;"/><text fill="#000000" font-family="sans-serif" font-size="11" lengthAdjust="spacingAndGlyphs" textLength="184" x="460" y="342.6348">apply(Repository, BindingSet): URL</text></a><!--MD5=[ef302c21dbf3e9a54223f5f103cc516b]
class it.tidalwave.bluemarine2.model.impl.catalog.factory.DefaultRepositoryEntityFactory--><a href="DefaultRepositoryEntityFactory.html" target="_top" title="DefaultRepositoryEntityFactory.html" xlink:actuate="onRequest" xlink:href="DefaultRepositoryEntityFactory.html" xlink:show="new" xlink:title="DefaultRepositoryEntityFactory.html" xlink:type="simple"><rect codeLine="17" fill="#FEFECE" filter="url(#fsou5raurcsr2)" height="60.9551" id="it.tidalwave.bluemarine2.model.impl.catalog.factory.DefaultRepositoryEntityFactory" style="stroke: #A80036; stroke-width: 1.5;" width="288" x="24" y="167"/><ellipse cx="76.75" cy="183" fill="#ADD1B2" rx="11" ry="11" style="stroke: #A80036; stroke-width: 1.0;"/><path d="M79.2231,189.1431 Q78.6421,189.4419 78.0029,189.5913 Q77.3638,189.7407 76.6582,189.7407 Q74.1514,189.7407 72.8315,188.0889 Q71.5117,186.437 71.5117,183.3159 Q71.5117,180.1865 72.8315,178.5347 Q74.1514,176.8828 76.6582,176.8828 Q77.3638,176.8828 78.0112,177.0322 Q78.6587,177.1816 79.2231,177.4805 L79.2231,180.2031 Q78.5923,179.6221 77.9988,179.3523 Q77.4053,179.0825 76.7744,179.0825 Q75.4297,179.0825 74.7449,180.1492 Q74.0601,181.2158 74.0601,183.3159 Q74.0601,185.4077 74.7449,186.4744 Q75.4297,187.541 76.7744,187.541 Q77.4053,187.541 77.9988,187.2712 Q78.5923,187.0015 79.2231,186.4204 Z "/><text fill="#000000" font-family="sans-serif" font-size="12" lengthAdjust="spacingAndGlyphs" textLength="174" x="97.25" y="187.5352">DefaultRepositoryEntityFactory</text><line style="stroke: #A80036; stroke-width: 1.5;" x1="25" x2="311" y1="199" y2="199"/><line style="stroke: #A80036; stroke-width: 1.5;" x1="25" x2="311" y1="207" y2="207"/><ellipse cx="35" cy="218" fill="#84BE84" rx="3" ry="3" style="stroke: #038048; stroke-width: 1.0;"/><text fill="#000000" font-family="sans-serif" font-size="11" lengthAdjust="spacingAndGlyphs" textLength="262" x="44" y="221.6348">createEntity(Repository, Class&lt;E&gt;, BindingSet): E</text></a><!--MD5=[496740be0b1ded98d681bfb6bf8d7091]
class java.util.function.BiFunction--><rect codeLine="29" fill="#FEFECE" filter="url(#fsou5raurcsr2)" height="73.9102" id="java.util.function.BiFunction" style="stroke: #A80036; stroke-width: 1.5;" width="376" x="705" y="33"/><ellipse cx="838.25" cy="49" fill="#B4A7E5" rx="11" ry="11" style="stroke: #A80036; stroke-width: 1.0;"/><path d="M834.6777,45.2651 L834.6777,43.1069 L842.0571,43.1069 L842.0571,45.2651 L839.5918,45.2651 L839.5918,53.3418 L842.0571,53.3418 L842.0571,55.5 L834.6777,55.5 L834.6777,53.3418 L837.1431,53.3418 L837.1431,45.2651 Z "/><text fill="#000000" font-family="sans-serif" font-size="12" font-style="italic" lengthAdjust="spacingAndGlyphs" textLength="57" x="858.75" y="53.5352">BiFunction</text><rect fill="#FFFFFF" height="16.1328" style="stroke: #000000; stroke-width: 1.0; stroke-dasharray: 2.0,2.0;" width="42" x="1042" y="30"/><text fill="#000000" font-family="sans-serif" font-size="12" font-style="italic" lengthAdjust="spacingAndGlyphs" textLength="40" x="1043" y="42.6016">T, U, R</text><line style="stroke: #A80036; stroke-width: 1.5;" x1="706" x2="1080" y1="65" y2="65"/><line style="stroke: #A80036; stroke-width: 1.5;" x1="706" x2="1080" y1="73" y2="73"/><ellipse cx="716" cy="84" fill="#84BE84" rx="3" ry="3" style="stroke: #038048; stroke-width: 1.0;"/><text fill="#000000" font-family="sans-serif" font-size="11" font-style="italic" lengthAdjust="spacingAndGlyphs" textLength="71" x="725" y="87.6348">apply(T, U): R</text><ellipse cx="716" cy="96.9551" fill="#84BE84" rx="3" ry="3" style="stroke: #038048; stroke-width: 1.0;"/><text fill="#000000" font-family="sans-serif" font-size="11" lengthAdjust="spacingAndGlyphs" textLength="350" x="725" y="100.5898">andThen(Function&lt;? super R, ? extends V&gt;): BiFunction&lt;T, U, V&gt;</text><!--MD5=[1f5ac7c5c9e397d2f8d9562cef4f7510]
reverse link it.tidalwave.bluemarine2.model.impl.catalog.factory.RepositoryEntityFactory.EntityFactoryFunction to it.tidalwave.bluemarine2.model.impl.catalog.factory.StringFactory--><path codeLine="21" d="M452.6855,231.223 C420.4305,248.9632 381.179,270.5516 349.7841,287.8187 " fill="none" id="it.tidalwave.bluemarine2.model.impl.catalog.factory.RepositoryEntityFactory.EntityFactoryFunction-backto-it.tidalwave.bluemarine2.model.impl.catalog.factory.StringFactory" style="stroke: #A80036; stroke-width: 1.0; stroke-dasharray: 7.0,7.0;"/><polygon fill="none" points="449.3743,225.0553,470.272,221.5504,456.1212,237.3223,449.3743,225.0553" style="stroke: #A80036; stroke-width: 1.0;"/><!--MD5=[2abc965c551c5839d91b02e1022bdf41]
reverse link java.util.function.BiFunction to it.tidalwave.bluemarine2.model.impl.catalog.factory.RepositoryEntityFactory.EntityFactoryFunction--><path codeLine="22" d="M763.8537,113.4463 C704.2182,133.5084 635.6787,156.5659 585.4879,173.4506 " fill="none" id="java.util.function.BiFunction-backto-it.tidalwave.bluemarine2.model.impl.catalog.factory.RepositoryEntityFactory.EntityFactoryFunction" style="stroke: #A80036; stroke-width: 1.0;"/><polygon fill="none" points="761.6803,106.792,782.8684,107.0495,766.1443,120.0613,761.6803,106.792" style="stroke: #A80036; stroke-width: 1.0;"/><!--MD5=[5f8de66d93c9927a25084221abbbd9ad]
reverse link it.tidalwave.bluemarine2.model.impl.catalog.factory.RepositoryEntityFactory to it.tidalwave.bluemarine2.model.impl.catalog.factory.RepositoryEntityFactory.EntityFactoryFunction--><path codeLine="23" d="M394.6121,109.5118 C422.9642,130.4071 456.8549,155.3844 481.2717,173.3795 " fill="none" id="it.tidalwave.bluemarine2.model.impl.catalog.factory.RepositoryEntityFactory-backto-it.tidalwave.bluemarine2.model.impl.catalog.factory.RepositoryEntityFactory.EntityFactoryFunction" style="stroke: #A80036; stroke-width: 1.0;"/><ellipse cx="388.8778" cy="105.2856" fill="#FFFFFF" rx="8" ry="8" style="stroke: #A80036; stroke-width: 1.0;"/><line style="stroke: #A80036; stroke-width: 1.0;" x1="395.3178" x2="382.4378" y1="110.0318" y2="100.5394"/><line style="stroke: #A80036; stroke-width: 1.0;" x1="384.1316" x2="393.624" y1="111.7256" y2="98.8456"/><!--MD5=[42a7991c7ec92e273e74165833538c9a]
reverse link it.tidalwave.bluemarine2.model.impl.catalog.factory.RepositoryEntityFactory.EntityFactoryFunction to it.tidalwave.bluemarine2.model.impl.catalog.factory.UrlFactory--><path codeLine="24" d="M525.167,241.0874 C529.1389,256.5906 533.5236,273.7049 537.158,287.8909 " fill="none" id="it.tidalwave.bluemarine2.model.impl.catalog.factory.RepositoryEntityFactory.EntityFactoryFunction-backto-it.tidalwave.bluemarine2.model.impl.catalog.factory.UrlFactory" style="stroke: #A80036; stroke-width: 1.0; stroke-dasharray: 7.0,7.0;"/><polygon fill="none" points="518.3815,242.8069,520.1988,221.6953,531.9435,239.3323,518.3815,242.8069" style="stroke: #A80036; stroke-width: 1.0;"/><!--MD5=[93e44ee2d776e6a755254e0a0509ae99]
reverse link it.tidalwave.bluemarine2.model.impl.catalog.factory.RepositoryEntityFactory to it.tidalwave.bluemarine2.model.impl.catalog.factory.DefaultRepositoryEntityFactory--><path codeLine="25" d="M283.4457,112.4172 C259.2178,130.273 231.5656,150.6525 209.3991,166.9891 " fill="none" id="it.tidalwave.bluemarine2.model.impl.catalog.factory.RepositoryEntityFactory-backto-it.tidalwave.bluemarine2.model.impl.catalog.factory.DefaultRepositoryEntityFactory" style="stroke: #A80036; stroke-width: 1.0; stroke-dasharray: 7.0,7.0;"/><polygon fill="none" points="279.3093,106.77,299.5622,100.5394,287.6152,118.04,279.3093,106.77" style="stroke: #A80036; stroke-width: 1.0;"/><text fill="#888888" font-family="sans-serif" font-size="10" lengthAdjust="spacingAndGlyphs" textLength="188" x="452.5" y="372.668">UMLDoclet 2.0.12, PlantUML 1.2020.16</text><!--MD5=[2151321608524448b726b64197a16b80]
@startuml
    namespace it.tidalwave.bluemarine2.model.impl.catalog.factory {

        class StringFactory [[StringFactory.html]] {
            +apply(Repository, BindingSet): String
        }

        interface RepositoryEntityFactory [[RepositoryEntityFactory.html]] {
            {abstract} +createEntity(Repository, Class<E>, BindingSet): E
        }

        interface it.tidalwave.bluemarine2.model.impl.catalog.factory.RepositoryEntityFactory.EntityFactoryFunction<ENTITY> [[RepositoryEntityFactory.EntityFactoryFunction.html]]

        class UrlFactory [[UrlFactory.html]] {
            +apply(Repository, BindingSet): URL
        }

        class DefaultRepositoryEntityFactory [[DefaultRepositoryEntityFactory.html]] {
            +createEntity(Repository, Class<E>, BindingSet): E
        }

        it.tidalwave.bluemarine2.model.impl.catalog.factory.RepositoryEntityFactory.EntityFactoryFunction <|.. StringFactory
        java.util.function.BiFunction <|- - it.tidalwave.bluemarine2.model.impl.catalog.factory.RepositoryEntityFactory.EntityFactoryFunction
        RepositoryEntityFactory +- - it.tidalwave.bluemarine2.model.impl.catalog.factory.RepositoryEntityFactory.EntityFactoryFunction
        it.tidalwave.bluemarine2.model.impl.catalog.factory.RepositoryEntityFactory.EntityFactoryFunction <|.. UrlFactory
        RepositoryEntityFactory <|.. DefaultRepositoryEntityFactory
    }

    namespace java.util.function {
        interface BiFunction<T, U, R> {
            {abstract} +apply(T, U): R
            +andThen(Function<? super R, ? extends V>): BiFunction<T, U, V>
        }
    }

    center footer UMLDoclet 2.0.12, PlantUML 1.2020.16
@enduml

PlantUML version 1.2020.16(Sun Aug 23 22:20:43 CEST 2020)
(APACHE source distribution)
Java Runtime: OpenJDK Runtime Environment
JVM: OpenJDK 64-Bit Server VM
Default Encoding: UTF-8
Language: en
Country: GB
--></g></svg>