@startuml
    set namespaceSeparator none
    hide empty fields
    hide empty methods

    interface "<size:14>RepositoryEntityFactory.EntityFactoryFunction\n<size:10>it.tidalwave.bluemarine2.model.impl.catalog.factory" as it.tidalwave.bluemarine2.model.impl.catalog.factory.RepositoryEntityFactory.EntityFactoryFunction<ENTITY> [[RepositoryEntityFactory.EntityFactoryFunction.html]]

    interface "<size:14>BiFunction\n<size:10>java.util.function" as java.util.function.BiFunction<Repository, BindingSet, ENTITY> {
        {abstract} +apply(Repository, BindingSet): ENTITY
    }
    interface "<size:14>RepositoryEntityFactory\n<size:10>it.tidalwave.bluemarine2.model.impl.catalog.factory" as it.tidalwave.bluemarine2.model.impl.catalog.factory.RepositoryEntityFactory [[RepositoryEntityFactory.html]] {
        {abstract} +createEntity(Repository, Class<E>, BindingSet): E
    }

    java.util.function.BiFunction <|-- it.tidalwave.bluemarine2.model.impl.catalog.factory.RepositoryEntityFactory.EntityFactoryFunction
    it.tidalwave.bluemarine2.model.impl.catalog.factory.RepositoryEntityFactory +-- it.tidalwave.bluemarine2.model.impl.catalog.factory.RepositoryEntityFactory.EntityFactoryFunction

    center footer UMLDoclet 2.0.12, PlantUML 1.2020.16
@enduml
