<?xml version="1.0" encoding="UTF-8" standalone="no"?><svg xmlns="http://www.w3.org/2000/svg" xmlns:xlink="http://www.w3.org/1999/xlink" contentScriptType="application/ecmascript" contentStyleType="text/css" height="148px" preserveAspectRatio="none" style="width:213px;height:148px;" version="1.1" viewBox="0 0 213 148" width="213px" zoomAndPan="magnify"><defs><filter height="300%" id="f1j17bqi513wdm" width="300%" x="-1" y="-1"><feGaussianBlur result="blurOut" stdDeviation="2.0"/><feColorMatrix in="blurOut" result="blurOut2" type="matrix" values="0 0 0 0 0 0 0 0 0 0 0 0 0 0 0 0 0 0 .4 0"/><feOffset dx="4.0" dy="4.0" in="blurOut2" result="blurOut3"/><feBlend in="SourceGraphic" in2="blurOut3" mode="normal"/></filter></defs><g><!--MD5=[101581a969f06db2f26435a2454d9e73]
class it.tidalwave.util.TripleTest--><a href="TripleTest.html" target="_top" title="TripleTest.html" xlink:actuate="onRequest" xlink:href="TripleTest.html" xlink:show="new" xlink:title="TripleTest.html" xlink:type="simple"><rect codeLine="5" fill="#FEFECE" filter="url(#f1j17bqi513wdm)" height="111.041" id="it.tidalwave.util.TripleTest" style="stroke: #A80036; stroke-width: 1.5;" width="187" x="7" y="7"/><ellipse cx="58.25" cy="26.1328" fill="#ADD1B2" rx="11" ry="11" style="stroke: #A80036; stroke-width: 1.0;"/><path d="M60.7231,32.2759 Q60.1421,32.5747 59.5029,32.7241 Q58.8638,32.8735 58.1582,32.8735 Q55.6514,32.8735 54.3315,31.2217 Q53.0117,29.5698 53.0117,26.4487 Q53.0117,23.3193 54.3315,21.6675 Q55.6514,20.0156 58.1582,20.0156 Q58.8638,20.0156 59.5112,20.165 Q60.1587,20.3145 60.7231,20.6133 L60.7231,23.3359 Q60.0923,22.7549 59.4988,22.4851 Q58.9053,22.2153 58.2744,22.2153 Q56.9297,22.2153 56.2449,23.282 Q55.5601,24.3486 55.5601,26.4487 Q55.5601,28.5405 56.2449,29.6072 Q56.9297,30.6738 58.2744,30.6738 Q58.9053,30.6738 59.4988,30.4041 Q60.0923,30.1343 60.7231,29.5532 Z "/><text fill="#000000" font-family="sans-serif" font-size="14" lengthAdjust="spacingAndGlyphs" textLength="69" x="82.25" y="25.5352">TripleTest</text><text fill="#000000" font-family="sans-serif" font-size="10" lengthAdjust="spacingAndGlyphs" textLength="76" x="78.75" y="38.1563">it.tidalwave.util</text><line style="stroke: #A80036; stroke-width: 1.5;" x1="8" x2="193" y1="45.2656" y2="45.2656"/><ellipse cx="18" cy="56.2656" fill="#84BE84" rx="3" ry="3" style="stroke: #038048; stroke-width: 1.0;"/><text fill="#000000" font-family="sans-serif" font-size="11" lengthAdjust="spacingAndGlyphs" textLength="94" x="27" y="59.9004">test_Triple(): void</text><ellipse cx="18" cy="69.2207" fill="#84BE84" rx="3" ry="3" style="stroke: #038048; stroke-width: 1.0;"/><text fill="#000000" font-family="sans-serif" font-size="11" lengthAdjust="spacingAndGlyphs" textLength="128" x="27" y="72.8555">test_tripleStream(): void</text><ellipse cx="18" cy="82.1758" fill="#84BE84" rx="3" ry="3" style="stroke: #038048; stroke-width: 1.0;"/><text fill="#000000" font-family="sans-serif" font-size="11" lengthAdjust="spacingAndGlyphs" textLength="124" x="27" y="85.8105">test_tripleRange(): void</text><ellipse cx="18" cy="95.1309" fill="#84BE84" rx="3" ry="3" style="stroke: #038048; stroke-width: 1.0;"/><text fill="#000000" font-family="sans-serif" font-size="11" lengthAdjust="spacingAndGlyphs" textLength="161" x="27" y="98.7656">test_tripleRangeClosed(): void</text><ellipse cx="18" cy="108.0859" fill="#84BE84" rx="3" ry="3" style="stroke: #038048; stroke-width: 1.0;"/><text fill="#000000" font-family="sans-serif" font-size="11" lengthAdjust="spacingAndGlyphs" textLength="158" x="27" y="111.7207">testTripleNestedLoops(): void</text></a><text fill="#888888" font-family="sans-serif" font-size="10" lengthAdjust="spacingAndGlyphs" textLength="188" x="6.5" y="134.709">UMLDoclet 2.0.12, PlantUML 1.2020.16</text><!--MD5=[37330d0a56561ed19ec2f049441476f6]
@startuml
    set namespaceSeparator none
    hide empty fields
    hide empty methods

    class "<size:14>TripleTest\n<size:10>it.tidalwave.util" as it.tidalwave.util.TripleTest [[TripleTest.html]] {
        +test_Triple(): void
        +test_tripleStream(): void
        +test_tripleRange(): void
        +test_tripleRangeClosed(): void
        +testTripleNestedLoops(): void
    }

    center footer UMLDoclet 2.0.12, PlantUML 1.2020.16
@enduml

PlantUML version 1.2020.16(Sun Aug 23 22:20:43 CEST 2020)
(APACHE source distribution)
Java Runtime: OpenJDK Runtime Environment
JVM: OpenJDK 64-Bit Server VM
Default Encoding: UTF-8
Language: en
Country: GB
--></g></svg>