<?xml version="1.0" encoding="UTF-8" standalone="no"?><svg xmlns="http://www.w3.org/2000/svg" xmlns:xlink="http://www.w3.org/1999/xlink" contentScriptType="application/ecmascript" contentStyleType="text/css" height="161px" preserveAspectRatio="none" style="width:366px;height:161px;" version="1.1" viewBox="0 0 366 161" width="366px" zoomAndPan="magnify"><defs><filter height="300%" id="f14r0afz5fn11y" width="300%" x="-1" y="-1"><feGaussianBlur result="blurOut" stdDeviation="2.0"/><feColorMatrix in="blurOut" result="blurOut2" type="matrix" values="0 0 0 0 0 0 0 0 0 0 0 0 0 0 0 0 0 0 .4 0"/><feOffset dx="4.0" dy="4.0" in="blurOut2" result="blurOut3"/><feBlend in="SourceGraphic" in2="blurOut3" mode="normal"/></filter></defs><g><!--MD5=[b6b0c0ad54eb3554ff94283d49ba85b6]
class it.tidalwave.northernwind.frontend.ui.component.menu.DefaultMenuViewControllerTest--><a href="DefaultMenuViewControllerTest.html" target="_top" title="DefaultMenuViewControllerTest.html" xlink:actuate="onRequest" xlink:href="DefaultMenuViewControllerTest.html" xlink:show="new" xlink:title="DefaultMenuViewControllerTest.html" xlink:type="simple"><rect codeLine="5" fill="#FEFECE" filter="url(#f14r0afz5fn11y)" height="123.9961" id="it.tidalwave.northernwind.frontend.ui.component.menu.DefaultMenuViewControllerTest" style="stroke: #A80036; stroke-width: 1.5;" width="340" x="7" y="7"/><ellipse cx="39.55" cy="26.1328" fill="#ADD1B2" rx="11" ry="11" style="stroke: #A80036; stroke-width: 1.0;"/><path d="M42.0231,32.2759 Q41.4421,32.5747 40.8029,32.7241 Q40.1638,32.8735 39.4582,32.8735 Q36.9514,32.8735 35.6315,31.2217 Q34.3117,29.5698 34.3117,26.4487 Q34.3117,23.3193 35.6315,21.6675 Q36.9514,20.0156 39.4582,20.0156 Q40.1638,20.0156 40.8112,20.165 Q41.4587,20.3145 42.0231,20.6133 L42.0231,23.3359 Q41.3923,22.7549 40.7988,22.4851 Q40.2053,22.2153 39.5744,22.2153 Q38.2297,22.2153 37.5449,23.282 Q36.8601,24.3486 36.8601,26.4487 Q36.8601,28.5405 37.5449,29.6072 Q38.2297,30.6738 39.5744,30.6738 Q40.2053,30.6738 40.7988,30.4041 Q41.3923,30.1343 42.0231,29.5532 Z "/><text fill="#000000" font-family="sans-serif" font-size="14" lengthAdjust="spacingAndGlyphs" textLength="218" x="82.95" y="25.5352">DefaultMenuViewControllerTest</text><text fill="#000000" font-family="sans-serif" font-size="10" lengthAdjust="spacingAndGlyphs" textLength="269" x="57.45" y="38.1563">it.tidalwave.northernwind.frontend.ui.component.menu</text><line style="stroke: #A80036; stroke-width: 1.5;" x1="8" x2="346" y1="45.2656" y2="45.2656"/><ellipse cx="18" cy="56.2656" fill="#84BE84" rx="3" ry="3" style="stroke: #038048; stroke-width: 1.0;"/><text fill="#000000" font-family="sans-serif" font-size="11" lengthAdjust="spacingAndGlyphs" textLength="213" x="27" y="59.9004">must_properly_set_the_template(): void</text><ellipse cx="18" cy="69.2207" fill="#84BE84" rx="3" ry="3" style="stroke: #038048; stroke-width: 1.0;"/><text fill="#000000" font-family="sans-serif" font-size="11" lengthAdjust="spacingAndGlyphs" textLength="314" x="27" y="72.8555">must_not_set_the_template_when_no_property_set(): void</text><ellipse cx="18" cy="82.1758" fill="#84BE84" rx="3" ry="3" style="stroke: #038048; stroke-width: 1.0;"/><text fill="#000000" font-family="sans-serif" font-size="11" lengthAdjust="spacingAndGlyphs" textLength="288" x="27" y="85.8105">must_not_set_the_template_when_no_Content(): void</text><ellipse cx="18" cy="95.1309" fill="#84BE84" rx="3" ry="3" style="stroke: #038048; stroke-width: 1.0;"/><text fill="#000000" font-family="sans-serif" font-size="11" lengthAdjust="spacingAndGlyphs" textLength="187" x="27" y="98.7656">must_properly_set_the_title(): void</text><ellipse cx="18" cy="108.0859" fill="#84BE84" rx="3" ry="3" style="stroke: #038048; stroke-width: 1.0;"/><text fill="#000000" font-family="sans-serif" font-size="11" lengthAdjust="spacingAndGlyphs" textLength="289" x="27" y="111.7207">must_properly_set_the_title_when_unspecified(): void</text><ellipse cx="18" cy="121.041" fill="#84BE84" rx="3" ry="3" style="stroke: #038048; stroke-width: 1.0;"/><text fill="#000000" font-family="sans-serif" font-size="11" lengthAdjust="spacingAndGlyphs" textLength="196" x="27" y="124.6758">must_properly_add_the_links(): void</text></a><text fill="#888888" font-family="sans-serif" font-size="10" lengthAdjust="spacingAndGlyphs" textLength="188" x="83" y="147.6641">UMLDoclet 2.0.12, PlantUML 1.2020.16</text><!--MD5=[e71d64d9514cb34f2f2d9f9fa70b2c1c]
@startuml
    set namespaceSeparator none
    hide empty fields
    hide empty methods

    class "<size:14>DefaultMenuViewControllerTest\n<size:10>it.tidalwave.northernwind.frontend.ui.component.menu" as it.tidalwave.northernwind.frontend.ui.component.menu.DefaultMenuViewControllerTest [[DefaultMenuViewControllerTest.html]] {
        +must_properly_set_the_template(): void
        +must_not_set_the_template_when_no_property_set(): void
        +must_not_set_the_template_when_no_Content(): void
        +must_properly_set_the_title(): void
        +must_properly_set_the_title_when_unspecified(): void
        +must_properly_add_the_links(): void
    }

    center footer UMLDoclet 2.0.12, PlantUML 1.2020.16
@enduml

PlantUML version 1.2020.16(Sun Aug 23 22:20:43 CEST 2020)
(APACHE source distribution)
Java Runtime: OpenJDK Runtime Environment
JVM: OpenJDK 64-Bit Server VM
Default Encoding: UTF-8
Language: en
Country: GB
--></g></svg>