@startuml
    set namespaceSeparator none
    hide empty fields
    hide empty methods

    interface "<size:14>SourceAwareFinder\n<size:10>it.tidalwave.bluemarine2.model.spi" as it.tidalwave.bluemarine2.model.spi.SourceAwareFinder<ENTITY, FINDER> [[SourceAwareFinder.html]] {
        {abstract} +withId(Id): FINDER
        {abstract} +importedFrom(Id): FINDER
        {abstract} +importedFrom(Optional<Id>): FINDER
        {abstract} +withFallback(Id): FINDER
        {abstract} +withFallback(Optional<Id>): FINDER
    }

    center footer UMLDoclet 2.0.12, PlantUML 1.2020.16
@enduml
