<?xml version="1.0" encoding="UTF-8" standalone="no"?><svg xmlns="http://www.w3.org/2000/svg" xmlns:xlink="http://www.w3.org/1999/xlink" contentScriptType="application/ecmascript" contentStyleType="text/css" height="96px" preserveAspectRatio="none" style="width:229px;height:96px;" version="1.1" viewBox="0 0 229 96" width="229px" zoomAndPan="magnify"><defs><filter height="300%" id="f1tj55wtgzjo2i" width="300%" x="-1" y="-1"><feGaussianBlur result="blurOut" stdDeviation="2.0"/><feColorMatrix in="blurOut" result="blurOut2" type="matrix" values="0 0 0 0 0 0 0 0 0 0 0 0 0 0 0 0 0 0 .4 0"/><feOffset dx="4.0" dy="4.0" in="blurOut2" result="blurOut3"/><feBlend in="SourceGraphic" in2="blurOut3" mode="normal"/></filter></defs><g><!--MD5=[e2a5765217c0e23513b806bb8a8d248e]
class it.tidalwave.bluemarine2.model.spi.SourceAware--><a href="SourceAware.html" target="_top" title="SourceAware.html" xlink:actuate="onRequest" xlink:href="SourceAware.html" xlink:show="new" xlink:title="SourceAware.html" xlink:type="simple"><rect codeLine="5" fill="#FEFECE" filter="url(#f1tj55wtgzjo2i)" height="59.2207" id="it.tidalwave.bluemarine2.model.spi.SourceAware" style="stroke: #A80036; stroke-width: 1.5;" width="203" x="7" y="7"/><ellipse cx="22" cy="26.1328" fill="#B4A7E5" rx="11" ry="11" style="stroke: #A80036; stroke-width: 1.0;"/><path d="M18.4277,22.3979 L18.4277,20.2397 L25.8071,20.2397 L25.8071,22.3979 L23.3418,22.3979 L23.3418,30.4746 L25.8071,30.4746 L25.8071,32.6328 L18.4277,32.6328 L18.4277,30.4746 L20.8931,30.4746 L20.8931,22.3979 Z "/><text fill="#000000" font-family="sans-serif" font-size="14" font-style="italic" lengthAdjust="spacingAndGlyphs" textLength="90" x="76.5" y="25.5352">SourceAware</text><text fill="#000000" font-family="sans-serif" font-size="10" font-style="italic" lengthAdjust="spacingAndGlyphs" textLength="171" x="36" y="38.1563">it.tidalwave.bluemarine2.model.spi</text><line style="stroke: #A80036; stroke-width: 1.5;" x1="8" x2="209" y1="45.2656" y2="45.2656"/><ellipse cx="18" cy="56.2656" fill="#84BE84" rx="3" ry="3" style="stroke: #038048; stroke-width: 1.0;"/><text fill="#000000" font-family="sans-serif" font-size="11" font-style="italic" lengthAdjust="spacingAndGlyphs" textLength="142" x="27" y="59.9004">getSource(): Optional&lt;Id&gt;</text></a><text fill="#888888" font-family="sans-serif" font-size="10" lengthAdjust="spacingAndGlyphs" textLength="188" x="14.5" y="82.8887">UMLDoclet 2.0.12, PlantUML 1.2020.16</text><!--MD5=[a4684fd28fd9e140257c159bd849a614]
@startuml
    set namespaceSeparator none
    hide empty fields
    hide empty methods

    interface "<size:14>SourceAware\n<size:10>it.tidalwave.bluemarine2.model.spi" as it.tidalwave.bluemarine2.model.spi.SourceAware [[SourceAware.html]] {
        {abstract} +getSource(): Optional<Id>
    }

    center footer UMLDoclet 2.0.12, PlantUML 1.2020.16
@enduml

PlantUML version 1.2020.16(Sun Aug 23 22:20:43 CEST 2020)
(APACHE source distribution)
Java Runtime: OpenJDK Runtime Environment
JVM: OpenJDK 64-Bit Server VM
Default Encoding: UTF-8
Language: en
Country: GB
--></g></svg>