@startuml
    set namespaceSeparator none
    hide empty fields
    hide empty methods

    interface "<size:14>Finder.SortCriterion\n<size:10>it.tidalwave.util" as it.tidalwave.util.Finder.SortCriterion [[Finder.SortCriterion.html]] {
        {static} +_SortCriterion_: Class<SortCriterion>
        {static} +UNSORTED: SortCriterion
        {static} +DEFAULT: SortCriterion
    }

    interface "<size:14>Finder\n<size:10>it.tidalwave.util" as it.tidalwave.util.Finder<TYPE> [[Finder.html]] {
        {abstract} +from(int): Finder<TYPE>
        {abstract} +max(int): Finder<TYPE>
        {abstract} +sort(SortCriterion, SortDirection): Finder<TYPE>
        {abstract} +results(): List<? extends TYPE>
        {abstract} +count(): int
    }

    it.tidalwave.util.Finder +-- it.tidalwave.util.Finder.SortCriterion

    center footer UMLDoclet 2.0.12, PlantUML 1.2020.16
@enduml
