<?xml version="1.0" encoding="UTF-8" standalone="no"?><svg xmlns="http://www.w3.org/2000/svg" xmlns:xlink="http://www.w3.org/1999/xlink" contentScriptType="application/ecmascript" contentStyleType="text/css" height="200px" preserveAspectRatio="none" style="width:309px;height:200px;" version="1.1" viewBox="0 0 309 200" width="309px" zoomAndPan="magnify"><defs><filter height="300%" id="fabgnbcjcdgvz" width="300%" x="-1" y="-1"><feGaussianBlur result="blurOut" stdDeviation="2.0"/><feColorMatrix in="blurOut" result="blurOut2" type="matrix" values="0 0 0 0 0 0 0 0 0 0 0 0 0 0 0 0 0 0 .4 0"/><feOffset dx="4.0" dy="4.0" in="blurOut2" result="blurOut3"/><feBlend in="SourceGraphic" in2="blurOut3" mode="normal"/></filter></defs><g><!--MD5=[ece9d26ae2a49f41e4104adf8e8baac3]
class it.tidalwave.role.spi.SystemRoleFactory.Inner--><a href="SystemRoleFactory.Inner.html" target="_top" title="SystemRoleFactory.Inner.html" xlink:actuate="onRequest" xlink:href="SystemRoleFactory.Inner.html" xlink:show="new" xlink:title="SystemRoleFactory.Inner.html" xlink:type="simple"><rect codeLine="5" fill="#FEFECE" filter="url(#fabgnbcjcdgvz)" height="38.2656" id="it.tidalwave.role.spi.SystemRoleFactory.Inner" style="stroke: #A80036; stroke-width: 1.5;" width="200" x="48.5" y="126"/><ellipse cx="63.5" cy="145.1328" fill="#ADD1B2" rx="11" ry="11" style="stroke: #A80036; stroke-width: 1.0;"/><path d="M65.9731,151.2759 Q65.3921,151.5747 64.7529,151.7241 Q64.1138,151.8735 63.4082,151.8735 Q60.9014,151.8735 59.5815,150.2217 Q58.2617,148.5698 58.2617,145.4487 Q58.2617,142.3193 59.5815,140.6675 Q60.9014,139.0156 63.4082,139.0156 Q64.1138,139.0156 64.7612,139.165 Q65.4087,139.3145 65.9731,139.6133 L65.9731,142.3359 Q65.3423,141.7549 64.7488,141.4851 Q64.1553,141.2153 63.5244,141.2153 Q62.1797,141.2153 61.4949,142.282 Q60.8101,143.3486 60.8101,145.4487 Q60.8101,147.5405 61.4949,148.6072 Q62.1797,149.6738 63.5244,149.6738 Q64.1553,149.6738 64.7488,149.4041 Q65.3423,149.1343 65.9731,148.5532 Z "/><text fill="#000000" font-family="sans-serif" font-size="14" lengthAdjust="spacingAndGlyphs" textLength="168" x="77.5" y="144.5352">SystemRoleFactory.Inner</text><text fill="#000000" font-family="sans-serif" font-size="10" lengthAdjust="spacingAndGlyphs" textLength="96" x="113.5" y="157.1563">it.tidalwave.role.spi</text></a><!--MD5=[9a44e33e67d5ed1ae026c9139a03e4c2]
class it.tidalwave.role.spi.SystemRoleFactory--><a href="SystemRoleFactory.html" target="_top" title="SystemRoleFactory.html" xlink:actuate="onRequest" xlink:href="SystemRoleFactory.html" xlink:show="new" xlink:title="SystemRoleFactory.html" xlink:type="simple"><rect codeLine="8" fill="#FEFECE" filter="url(#fabgnbcjcdgvz)" height="59.2207" id="it.tidalwave.role.spi.SystemRoleFactory" style="stroke: #A80036; stroke-width: 1.5;" width="283" x="7" y="7"/><ellipse cx="80.25" cy="26.1328" fill="#B4A7E5" rx="11" ry="11" style="stroke: #A80036; stroke-width: 1.0;"/><path d="M76.6777,22.3979 L76.6777,20.2397 L84.0571,20.2397 L84.0571,22.3979 L81.5918,22.3979 L81.5918,30.4746 L84.0571,30.4746 L84.0571,32.6328 L76.6777,32.6328 L76.6777,30.4746 L79.1431,30.4746 L79.1431,22.3979 Z "/><text fill="#000000" font-family="sans-serif" font-size="14" font-style="italic" lengthAdjust="spacingAndGlyphs" textLength="128" x="100.75" y="25.5352">SystemRoleFactory</text><text fill="#000000" font-family="sans-serif" font-size="10" font-style="italic" lengthAdjust="spacingAndGlyphs" textLength="96" x="116.75" y="38.1563">it.tidalwave.role.spi</text><line style="stroke: #A80036; stroke-width: 1.5;" x1="8" x2="289" y1="45.2656" y2="45.2656"/><ellipse cx="18" cy="56.2656" fill="#84BE84" rx="3" ry="3" style="stroke: #038048; stroke-width: 1.0;"/><text fill="#000000" font-family="sans-serif" font-size="11" font-style="italic" lengthAdjust="spacingAndGlyphs" textLength="257" x="27" y="59.9004">findRoles(Object, Class&lt;? extends T&gt;): List&lt;T&gt;</text></a><!--MD5=[ed1c73b644d01de891a9673d4a499178]
reverse link it.tidalwave.role.spi.SystemRoleFactory to it.tidalwave.role.spi.SystemRoleFactory.Inner--><path codeLine="12" d="M148.5,81.2183 C148.5,96.8526 148.5,113.5773 148.5,125.9766 " fill="none" id="it.tidalwave.role.spi.SystemRoleFactory-backto-it.tidalwave.role.spi.SystemRoleFactory.Inner" style="stroke: #A80036; stroke-width: 1.0;"/><ellipse cx="148.5" cy="74.1481" fill="#FFFFFF" rx="8" ry="8" style="stroke: #A80036; stroke-width: 1.0;"/><line style="stroke: #A80036; stroke-width: 1.0;" x1="148.5" x2="148.5" y1="82.1481" y2="66.1481"/><line style="stroke: #A80036; stroke-width: 1.0;" x1="140.5" x2="156.5" y1="74.1481" y2="74.1481"/><text fill="#888888" font-family="sans-serif" font-size="10" lengthAdjust="spacingAndGlyphs" textLength="188" x="51.5" y="186.9336">UMLDoclet 2.0.12, PlantUML 1.2020.16</text><!--MD5=[cf3f60cde518fb1b3b672b70795e5831]
@startuml
    set namespaceSeparator none
    hide empty fields
    hide empty methods

    class "<size:14>SystemRoleFactory.Inner\n<size:10>it.tidalwave.role.spi" as it.tidalwave.role.spi.SystemRoleFactory.Inner [[SystemRoleFactory.Inner.html]] {
    }

    interface "<size:14>SystemRoleFactory\n<size:10>it.tidalwave.role.spi" as it.tidalwave.role.spi.SystemRoleFactory [[SystemRoleFactory.html]] {
        {abstract} +findRoles(Object, Class<? extends T>): List<T>
    }

    it.tidalwave.role.spi.SystemRoleFactory +- - it.tidalwave.role.spi.SystemRoleFactory.Inner

    center footer UMLDoclet 2.0.12, PlantUML 1.2020.16
@enduml

PlantUML version 1.2020.16(Sun Aug 23 22:20:43 CEST 2020)
(APACHE source distribution)
Java Runtime: OpenJDK Runtime Environment
JVM: OpenJDK 64-Bit Server VM
Default Encoding: UTF-8
Language: en
Country: GB
--></g></svg>