@startuml
    set namespaceSeparator none
    hide empty fields
    hide empty methods

    class "<size:14>MercurialWorkingDirectoryTest\n<size:10>it.tidalwave.northernwind.frontend.filesystem.hg.impl" as it.tidalwave.northernwind.frontend.filesystem.hg.impl.MercurialWorkingDirectoryTest [[MercurialWorkingDirectoryTest.html]]

    class "<size:14>ScmWorkingDirectoryTestSupport\n<size:10>it.tidalwave.northernwind.frontend.filesystem.scm.spi" as it.tidalwave.northernwind.frontend.filesystem.scm.spi.ScmWorkingDirectoryTestSupport [[http://tidalwave.tidalwave.it/northernwind/it-tidalwave-northernwind-modules/it-tidalwave-northernwind-filesystem/it-tidalwave-northernwind-core-filesystem-scm/apidocs/it/tidalwave/northernwind/frontend/filesystem/scm/spi/ScmWorkingDirectoryTestSupport.html?is-external=true]]

    it.tidalwave.northernwind.frontend.filesystem.scm.spi.ScmWorkingDirectoryTestSupport <|-- it.tidalwave.northernwind.frontend.filesystem.hg.impl.MercurialWorkingDirectoryTest

    center footer UMLDoclet 2.0.12, PlantUML 1.2020.16
@enduml
