<?xml version="1.0" encoding="UTF-8" standalone="no"?><svg xmlns="http://www.w3.org/2000/svg" xmlns:xlink="http://www.w3.org/1999/xlink" contentScriptType="application/ecmascript" contentStyleType="text/css" height="221px" preserveAspectRatio="none" style="width:322px;height:221px;" version="1.1" viewBox="0 0 322 221" width="322px" zoomAndPan="magnify"><defs><filter height="300%" id="f1x1ha79ze3r68" width="300%" x="-1" y="-1"><feGaussianBlur result="blurOut" stdDeviation="2.0"/><feColorMatrix in="blurOut" result="blurOut2" type="matrix" values="0 0 0 0 0 0 0 0 0 0 0 0 0 0 0 0 0 0 .4 0"/><feOffset dx="4.0" dy="4.0" in="blurOut2" result="blurOut3"/><feBlend in="SourceGraphic" in2="blurOut3" mode="normal"/></filter></defs><g><!--MD5=[29543afcec57b1cb0aafccef2e9e3c94]
class it.tidalwave.northernwind.frontend.filesystem.hg.impl.MercurialPreparer--><a href="MercurialPreparer.html" target="_top" title="MercurialPreparer.html" xlink:actuate="onRequest" xlink:href="MercurialPreparer.html" xlink:show="new" xlink:title="MercurialPreparer.html" xlink:type="simple"><rect codeLine="5" fill="#FEFECE" filter="url(#f1x1ha79ze3r68)" height="59.2207" id="it.tidalwave.northernwind.frontend.filesystem.hg.impl.MercurialPreparer" style="stroke: #A80036; stroke-width: 1.5;" width="294" x="9" y="126"/><ellipse cx="24" cy="145.1328" fill="#ADD1B2" rx="11" ry="11" style="stroke: #A80036; stroke-width: 1.0;"/><path d="M26.4731,151.2759 Q25.8921,151.5747 25.2529,151.7241 Q24.6138,151.8735 23.9082,151.8735 Q21.4014,151.8735 20.0815,150.2217 Q18.7617,148.5698 18.7617,145.4487 Q18.7617,142.3193 20.0815,140.6675 Q21.4014,139.0156 23.9082,139.0156 Q24.6138,139.0156 25.2612,139.165 Q25.9087,139.3145 26.4731,139.6133 L26.4731,142.3359 Q25.8423,141.7549 25.2488,141.4851 Q24.6553,141.2153 24.0244,141.2153 Q22.6797,141.2153 21.9949,142.282 Q21.3101,143.3486 21.3101,145.4487 Q21.3101,147.5405 21.9949,148.6072 Q22.6797,149.6738 24.0244,149.6738 Q24.6553,149.6738 25.2488,149.4041 Q25.8423,149.1343 26.4731,148.5532 Z "/><text fill="#000000" font-family="sans-serif" font-size="14" lengthAdjust="spacingAndGlyphs" textLength="123" x="107.5" y="144.5352">MercurialPreparer</text><text fill="#000000" font-family="sans-serif" font-size="10" lengthAdjust="spacingAndGlyphs" textLength="262" x="38" y="157.1563">it.tidalwave.northernwind.frontend.filesystem.hg.impl</text><line style="stroke: #A80036; stroke-width: 1.5;" x1="10" x2="302" y1="164.2656" y2="164.2656"/><polygon fill="#FFFF44" points="20,170.2656,24,174.2656,20,178.2656,16,174.2656" style="stroke: #B38D22; stroke-width: 1.0;"/><text fill="#000000" font-family="sans-serif" font-size="11" lengthAdjust="spacingAndGlyphs" textLength="184" x="29" y="178.9004">stripChangesetsAfter(String): void</text></a><!--MD5=[715d7dcbf8373cbab67708348e154ea6]
class it.tidalwave.northernwind.frontend.filesystem.scm.spi.ScmPreparer--><a href="http://tidalwave.tidalwave.it/northernwind/it-tidalwave-northernwind-modules/it-tidalwave-northernwind-filesystem/it-tidalwave-northernwind-core-filesystem-scm/apidocs/it/tidalwave/northernwind/frontend/filesystem/scm/spi/ScmPreparer.html?is-external=true" target="_top" title="http://tidalwave.tidalwave.it/northernwind/it-tidalwave-northernwind-modules/it-tidalwave-northernwind-filesystem/it-tidalwave-northernwind-core-filesystem-scm/apidocs/it/tidalwave/northernwind/frontend/filesystem/scm/spi/ScmPreparer.html?is-external=true" xlink:actuate="onRequest" xlink:href="http://tidalwave.tidalwave.it/northernwind/it-tidalwave-northernwind-modules/it-tidalwave-northernwind-filesystem/it-tidalwave-northernwind-core-filesystem-scm/apidocs/it/tidalwave/northernwind/frontend/filesystem/scm/spi/ScmPreparer.html?is-external=true" xlink:show="new" xlink:title="http://tidalwave.tidalwave.it/northernwind/it-tidalwave-northernwind-modules/it-tidalwave-northernwind-filesystem/it-tidalwave-northernwind-core-filesystem-scm/apidocs/it/tidalwave/northernwind/frontend/filesystem/scm/spi/ScmPreparer.html?is-external=true" xlink:type="simple"><rect codeLine="9" fill="#FEFECE" filter="url(#f1x1ha79ze3r68)" height="59.2207" id="it.tidalwave.northernwind.frontend.filesystem.scm.spi.ScmPreparer" style="stroke: #A80036; stroke-width: 1.5;" width="294" x="9" y="7"/><ellipse cx="24" cy="26.1328" fill="#A9DCDF" rx="11" ry="11" style="stroke: #A80036; stroke-width: 1.0;"/><path d="M23.8633,21.481 L22.7095,26.5527 L25.0254,26.5527 Z M22.3691,19.2397 L25.3657,19.2397 L28.7109,31.6328 L26.2622,31.6328 L25.4985,28.5698 L22.2197,28.5698 L21.4727,31.6328 L19.0239,31.6328 Z "/><text fill="#000000" font-family="sans-serif" font-size="14" font-style="italic" lengthAdjust="spacingAndGlyphs" textLength="87" x="125.5" y="25.5352">ScmPreparer</text><text fill="#000000" font-family="sans-serif" font-size="10" font-style="italic" lengthAdjust="spacingAndGlyphs" textLength="262" x="38" y="38.1563">it.tidalwave.northernwind.frontend.filesystem.scm.spi</text><line style="stroke: #A80036; stroke-width: 1.5;" x1="10" x2="302" y1="45.2656" y2="45.2656"/><polygon fill="#FFFF44" points="20,51.2656,24,55.2656,20,59.2656,16,55.2656" style="stroke: #B38D22; stroke-width: 1.0;"/><text fill="#000000" font-family="sans-serif" font-size="11" font-style="italic" lengthAdjust="spacingAndGlyphs" textLength="184" x="29" y="59.9004">stripChangesetsAfter(String): void</text></a><!--MD5=[b6939491a5b1a3a4b74ae98ac80bfef2]
reverse link it.tidalwave.northernwind.frontend.filesystem.scm.spi.ScmPreparer to it.tidalwave.northernwind.frontend.filesystem.hg.impl.MercurialPreparer--><path codeLine="13" d="M156,86.3288 C156,99.7348 156,113.8139 156,125.7447 " fill="none" id="it.tidalwave.northernwind.frontend.filesystem.scm.spi.ScmPreparer-backto-it.tidalwave.northernwind.frontend.filesystem.hg.impl.MercurialPreparer" style="stroke: #A80036; stroke-width: 1.0;"/><polygon fill="none" points="149.0001,86.2218,156,66.2218,163.0001,86.2217,149.0001,86.2218" style="stroke: #A80036; stroke-width: 1.0;"/><text fill="#888888" font-family="sans-serif" font-size="10" lengthAdjust="spacingAndGlyphs" textLength="188" x="58" y="207.8887">UMLDoclet 2.0.12, PlantUML 1.2020.16</text><!--MD5=[c59dccebc25438127a2ebbdc02df2745]
@startuml
    set namespaceSeparator none
    hide empty fields
    hide empty methods

    class "<size:14>MercurialPreparer\n<size:10>it.tidalwave.northernwind.frontend.filesystem.hg.impl" as it.tidalwave.northernwind.frontend.filesystem.hg.impl.MercurialPreparer [[MercurialPreparer.html]] {
        #stripChangesetsAfter(String): void
    }

    abstract class "<size:14>ScmPreparer\n<size:10>it.tidalwave.northernwind.frontend.filesystem.scm.spi" as it.tidalwave.northernwind.frontend.filesystem.scm.spi.ScmPreparer [[http://tidalwave.tidalwave.it/northernwind/it-tidalwave-northernwind-modules/it-tidalwave-northernwind-filesystem/it-tidalwave-northernwind-core-filesystem-scm/apidocs/it/tidalwave/northernwind/frontend/filesystem/scm/spi/ScmPreparer.html?is-external=true]] {
        {abstract} #stripChangesetsAfter(String): void
    }

    it.tidalwave.northernwind.frontend.filesystem.scm.spi.ScmPreparer <|- - it.tidalwave.northernwind.frontend.filesystem.hg.impl.MercurialPreparer

    center footer UMLDoclet 2.0.12, PlantUML 1.2020.16
@enduml

PlantUML version 1.2020.16(Sun Aug 23 22:20:43 CEST 2020)
(APACHE source distribution)
Java Runtime: OpenJDK Runtime Environment
JVM: OpenJDK 64-Bit Server VM
Default Encoding: UTF-8
Language: en
Country: GB
--></g></svg>