@startuml
    namespace it.tidalwave.northernwind.frontend.filesystem.hg.impl {

        class MercurialPreparer [[MercurialPreparer.html]] {
            #stripChangesetsAfter(String): void
        }

        class MercurialFileSystemProviderTest [[MercurialFileSystemProviderTest.html]]

        class MercurialWorkingDirectoryTest [[MercurialWorkingDirectoryTest.html]]

        it.tidalwave.northernwind.frontend.filesystem.scm.spi.ScmPreparer <|-- MercurialPreparer
        it.tidalwave.northernwind.frontend.filesystem.scm.spi.ScmFileSystemProviderTestSupport <|-- MercurialFileSystemProviderTest
        it.tidalwave.northernwind.frontend.filesystem.scm.spi.ScmWorkingDirectoryTestSupport <|-- MercurialWorkingDirectoryTest
    }

    namespace it.tidalwave.northernwind.frontend.filesystem.scm.spi {
        abstract class ScmPreparer [[http://tidalwave.tidalwave.it/northernwind/it-tidalwave-northernwind-modules/it-tidalwave-northernwind-filesystem/it-tidalwave-northernwind-core-filesystem-scm/apidocs/it/tidalwave/northernwind/frontend/filesystem/scm/spi/ScmPreparer.html?is-external=true]] {
            {static} +REPOSITORY_FOLDER: Path
            {static} +TAG_PUBLISHED_0_8: Tag
            {static} +TAG_PUBLISHED_0_9: Tag
            {static} +ALL_TAGS_UP_TO_PUBLISHED_0_8: List<Tag>
            {static} +ALL_TAGS_UP_TO_PUBLISHED_0_9: List<Tag>
            {abstract} #stripChangesetsAfter(String): void
        }
        class ScmFileSystemProviderTestSupport [[http://tidalwave.tidalwave.it/northernwind/it-tidalwave-northernwind-modules/it-tidalwave-northernwind-filesystem/it-tidalwave-northernwind-core-filesystem-scm/apidocs/it/tidalwave/northernwind/frontend/filesystem/scm/spi/ScmFileSystemProviderTestSupport.html?is-external=true]] {
        }
        class ScmWorkingDirectoryTestSupport [[http://tidalwave.tidalwave.it/northernwind/it-tidalwave-northernwind-modules/it-tidalwave-northernwind-filesystem/it-tidalwave-northernwind-core-filesystem-scm/apidocs/it/tidalwave/northernwind/frontend/filesystem/scm/spi/ScmWorkingDirectoryTestSupport.html?is-external=true]] {
        }
    }

    center footer UMLDoclet 2.0.12, PlantUML 1.2020.16
@enduml
