<?xml version="1.0" encoding="UTF-8" standalone="no"?><svg xmlns="http://www.w3.org/2000/svg" xmlns:xlink="http://www.w3.org/1999/xlink" contentScriptType="application/ecmascript" contentStyleType="text/css" height="425px" preserveAspectRatio="none" style="width:558px;height:425px;" version="1.1" viewBox="0 0 558 425" width="558px" zoomAndPan="magnify"><defs><filter height="300%" id="f1nuol4u4y6ts2" width="300%" x="-1" y="-1"><feGaussianBlur result="blurOut" stdDeviation="2.0"/><feColorMatrix in="blurOut" result="blurOut2" type="matrix" values="0 0 0 0 0 0 0 0 0 0 0 0 0 0 0 0 0 0 .4 0"/><feOffset dx="4.0" dy="4.0" in="blurOut2" result="blurOut3"/><feBlend in="SourceGraphic" in2="blurOut3" mode="normal"/></filter></defs><g><!--MD5=[7fbd89cb535f5525230a6a702ace51be]
cluster it.tidalwave.northernwind.frontend.ui.component.htmlfragment--><polygon fill="#FFFFFF" filter="url(#f1nuol4u4y6ts2)" points="44,166,501,166,508,188.4883,511,188.4883,511,396,44,396,44,166" style="stroke: #000000; stroke-width: 1.5;"/><line style="stroke: #000000; stroke-width: 1.5;" x1="44" x2="508" y1="188.4883" y2="188.4883"/><text fill="#000000" font-family="sans-serif" font-size="14" font-weight="bold" lengthAdjust="spacingAndGlyphs" textLength="451" x="48" y="181.5352">it.tidalwave.northernwind.frontend.ui.component.htmlfragment</text><!--MD5=[90c2144f63705a3044483f7c3d43505d]
cluster it.tidalwave.northernwind.frontend.ui--><polygon fill="#FFFFFF" filter="url(#f1nuol4u4y6ts2)" points="16,6,287,6,294,28.4883,297,28.4883,297,141,16,141,16,6" style="stroke: #000000; stroke-width: 1.5;"/><line style="stroke: #000000; stroke-width: 1.5;" x1="16" x2="294" y1="28.4883" y2="28.4883"/><text fill="#000000" font-family="sans-serif" font-size="14" font-weight="bold" lengthAdjust="spacingAndGlyphs" textLength="265" x="20" y="21.5352">it.tidalwave.northernwind.frontend.ui</text><!--MD5=[a7ca9ec2a63815c8336b48c8b310b176]
cluster it.tidalwave.role--><polygon fill="#FFFFFF" filter="url(#f1nuol4u4y6ts2)" points="310,12.5,430,12.5,437,34.9883,536,34.9883,536,134.5,310,134.5,310,12.5" style="stroke: #000000; stroke-width: 1.5;"/><line style="stroke: #000000; stroke-width: 1.5;" x1="310" x2="437" y1="34.9883" y2="34.9883"/><text fill="#000000" font-family="sans-serif" font-size="14" font-weight="bold" lengthAdjust="spacingAndGlyphs" textLength="114" x="314" y="28.0352">it.tidalwave.role</text><!--MD5=[8a53f421be265a6dad3f7972ce71103d]
class it.tidalwave.northernwind.frontend.ui.component.htmlfragment.HtmlFragmentViewController--><a href="HtmlFragmentViewController.html" target="_top" title="HtmlFragmentViewController.html" xlink:actuate="onRequest" xlink:href="HtmlFragmentViewController.html" xlink:show="new" xlink:title="HtmlFragmentViewController.html" xlink:type="simple"><rect codeLine="3" fill="#FEFECE" filter="url(#f1nuol4u4y6ts2)" height="48" id="it.tidalwave.northernwind.frontend.ui.component.htmlfragment.HtmlFragmentViewController" style="stroke: #A80036; stroke-width: 1.5;" width="196" x="65" y="206"/><ellipse cx="80" cy="222" fill="#B4A7E5" rx="11" ry="11" style="stroke: #A80036; stroke-width: 1.0;"/><path d="M76.4277,218.2651 L76.4277,216.1069 L83.8071,216.1069 L83.8071,218.2651 L81.3418,218.2651 L81.3418,226.3418 L83.8071,226.3418 L83.8071,228.5 L76.4277,228.5 L76.4277,226.3418 L78.8931,226.3418 L78.8931,218.2651 Z "/><text fill="#000000" font-family="sans-serif" font-size="12" font-style="italic" lengthAdjust="spacingAndGlyphs" textLength="164" x="94" y="226.5352">HtmlFragmentViewController</text><line style="stroke: #A80036; stroke-width: 1.5;" x1="66" x2="260" y1="238" y2="238"/><line style="stroke: #A80036; stroke-width: 1.5;" x1="66" x2="260" y1="246" y2="246"/></a><!--MD5=[f071426a17433f9c353c0ab9cfbe936d]
class it.tidalwave.northernwind.frontend.ui.component.htmlfragment.DefaultHtmlFragmentViewController--><a href="DefaultHtmlFragmentViewController.html" target="_top" title="DefaultHtmlFragmentViewController.html" xlink:actuate="onRequest" xlink:href="DefaultHtmlFragmentViewController.html" xlink:show="new" xlink:title="DefaultHtmlFragmentViewController.html" xlink:type="simple"><rect codeLine="5" fill="#FEFECE" filter="url(#f1nuol4u4y6ts2)" height="60.9551" id="it.tidalwave.northernwind.frontend.ui.component.htmlfragment.DefaultHtmlFragmentViewController" style="stroke: #A80036; stroke-width: 1.5;" width="237" x="52.5" y="327"/><ellipse cx="67.5" cy="343" fill="#ADD1B2" rx="11" ry="11" style="stroke: #A80036; stroke-width: 1.0;"/><path d="M69.9731,349.1431 Q69.3921,349.4419 68.7529,349.5913 Q68.1138,349.7407 67.4082,349.7407 Q64.9014,349.7407 63.5815,348.0889 Q62.2617,346.437 62.2617,343.3159 Q62.2617,340.1865 63.5815,338.5347 Q64.9014,336.8828 67.4082,336.8828 Q68.1138,336.8828 68.7612,337.0322 Q69.4087,337.1816 69.9731,337.4805 L69.9731,340.2031 Q69.3423,339.6221 68.7488,339.3523 Q68.1553,339.0825 67.5244,339.0825 Q66.1797,339.0825 65.4949,340.1492 Q64.8101,341.2158 64.8101,343.3159 Q64.8101,345.4077 65.4949,346.4744 Q66.1797,347.541 67.5244,347.541 Q68.1553,347.541 68.7488,347.2712 Q69.3423,347.0015 69.9731,346.4204 Z "/><text fill="#000000" font-family="sans-serif" font-size="12" lengthAdjust="spacingAndGlyphs" textLength="205" x="81.5" y="347.5352">DefaultHtmlFragmentViewController</text><line style="stroke: #A80036; stroke-width: 1.5;" x1="53.5" x2="288.5" y1="359" y2="359"/><line style="stroke: #A80036; stroke-width: 1.5;" x1="53.5" x2="288.5" y1="367" y2="367"/><ellipse cx="63.5" cy="378" fill="#84BE84" rx="3" ry="3" style="stroke: #038048; stroke-width: 1.0;"/><text fill="#000000" font-family="sans-serif" font-size="11" lengthAdjust="spacingAndGlyphs" textLength="178" x="72.5" y="381.6348">renderView(RenderContext): void</text></a><!--MD5=[0bfcafca44b932469414a4f54a0f13ee]
class it.tidalwave.northernwind.frontend.ui.component.htmlfragment.HtmlFragmentView--><a href="HtmlFragmentView.html" target="_top" title="HtmlFragmentView.html" xlink:actuate="onRequest" xlink:href="HtmlFragmentView.html" xlink:show="new" xlink:title="HtmlFragmentView.html" xlink:type="simple"><rect codeLine="9" fill="#FEFECE" filter="url(#f1nuol4u4y6ts2)" height="73.9102" id="it.tidalwave.northernwind.frontend.ui.component.htmlfragment.HtmlFragmentView" style="stroke: #A80036; stroke-width: 1.5;" width="170" x="333" y="193"/><ellipse cx="361.5" cy="209" fill="#B4A7E5" rx="11" ry="11" style="stroke: #A80036; stroke-width: 1.0;"/><path d="M357.9277,205.2651 L357.9277,203.1069 L365.3071,203.1069 L365.3071,205.2651 L362.8418,205.2651 L362.8418,213.3418 L365.3071,213.3418 L365.3071,215.5 L357.9277,215.5 L357.9277,213.3418 L360.3931,213.3418 L360.3931,205.2651 Z "/><text fill="#000000" font-family="sans-serif" font-size="12" font-style="italic" lengthAdjust="spacingAndGlyphs" textLength="108" x="378.5" y="213.5352">HtmlFragmentView</text><line style="stroke: #A80036; stroke-width: 1.5;" x1="334" x2="502" y1="225" y2="225"/><line style="stroke: #A80036; stroke-width: 1.5;" x1="334" x2="502" y1="233" y2="233"/><ellipse cx="344" cy="244" fill="#84BE84" rx="3" ry="3" style="stroke: #038048; stroke-width: 1.0;"/><text fill="#000000" font-family="sans-serif" font-size="11" font-style="italic" lengthAdjust="spacingAndGlyphs" textLength="128" x="353" y="247.6348">setContent(String): void</text><ellipse cx="344" cy="256.9551" fill="#84BE84" rx="3" ry="3" style="stroke: #038048; stroke-width: 1.0;"/><text fill="#000000" font-family="sans-serif" font-size="11" font-style="italic" lengthAdjust="spacingAndGlyphs" textLength="144" x="353" y="260.5898">setClassName(String): void</text></a><!--MD5=[fd49f22f3a54ad6da4c032e73965af1a]
class it.tidalwave.northernwind.frontend.ui.ViewController--><a href="../../ViewController.html" target="_top" title="../../ViewController.html" xlink:actuate="onRequest" xlink:href="../../ViewController.html" xlink:show="new" xlink:title="../../ViewController.html" xlink:type="simple"><rect codeLine="20" fill="#FEFECE" filter="url(#f1nuol4u4y6ts2)" height="99.8203" id="it.tidalwave.northernwind.frontend.ui.ViewController" style="stroke: #A80036; stroke-width: 1.5;" width="248" x="35" y="33"/><ellipse cx="113.25" cy="49" fill="#B4A7E5" rx="11" ry="11" style="stroke: #A80036; stroke-width: 1.0;"/><path d="M109.6777,45.2651 L109.6777,43.1069 L117.0571,43.1069 L117.0571,45.2651 L114.5918,45.2651 L114.5918,53.3418 L117.0571,53.3418 L117.0571,55.5 L109.6777,55.5 L109.6777,53.3418 L112.1431,53.3418 L112.1431,45.2651 Z "/><text fill="#000000" font-family="sans-serif" font-size="12" font-style="italic" lengthAdjust="spacingAndGlyphs" textLength="83" x="133.75" y="53.5352">ViewController</text><line style="stroke: #A80036; stroke-width: 1.5;" x1="36" x2="282" y1="65" y2="65"/><line style="stroke: #A80036; stroke-width: 1.5;" x1="36" x2="282" y1="73" y2="73"/><ellipse cx="46" cy="84" fill="#84BE84" rx="3" ry="3" style="stroke: #038048; stroke-width: 1.0;"/><text fill="#000000" font-family="sans-serif" font-size="11" lengthAdjust="spacingAndGlyphs" textLength="81" x="55" y="87.6348">initialize(): void</text><ellipse cx="46" cy="96.9551" fill="#84BE84" rx="3" ry="3" style="stroke: #038048; stroke-width: 1.0;"/><text fill="#000000" font-family="sans-serif" font-size="11" lengthAdjust="spacingAndGlyphs" textLength="215" x="55" y="100.5898">prepareRendering(RenderContext): void</text><ellipse cx="46" cy="109.9102" fill="#84BE84" rx="3" ry="3" style="stroke: #038048; stroke-width: 1.0;"/><text fill="#000000" font-family="sans-serif" font-size="11" lengthAdjust="spacingAndGlyphs" textLength="178" x="55" y="113.5449">renderView(RenderContext): void</text><ellipse cx="46" cy="122.8652" fill="#84BE84" rx="3" ry="3" style="stroke: #038048; stroke-width: 1.0;"/><text fill="#000000" font-family="sans-serif" font-size="11" lengthAdjust="spacingAndGlyphs" textLength="222" x="55" y="126.5">findVirtualSiteNodes(): Finder&lt;SiteNode&gt;</text></a><!--MD5=[f40774d2c0efa8b70d7c747ac61cb911]
class it.tidalwave.role.Identifiable--><rect codeLine="29" fill="#FEFECE" filter="url(#f1nuol4u4y6ts2)" height="86.8652" id="it.tidalwave.role.Identifiable" style="stroke: #A80036; stroke-width: 1.5;" width="209" x="318.5" y="39.5"/><ellipse cx="386.75" cy="55.5" fill="#B4A7E5" rx="11" ry="11" style="stroke: #A80036; stroke-width: 1.0;"/><path d="M383.1777,51.7651 L383.1777,49.6069 L390.5571,49.6069 L390.5571,51.7651 L388.0918,51.7651 L388.0918,59.8418 L390.5571,59.8418 L390.5571,62 L383.1777,62 L383.1777,59.8418 L385.6431,59.8418 L385.6431,51.7651 Z "/><text fill="#000000" font-family="sans-serif" font-size="12" font-style="italic" lengthAdjust="spacingAndGlyphs" textLength="64" x="407.25" y="60.0352">Identifiable</text><line style="stroke: #A80036; stroke-width: 1.5;" x1="319.5" x2="526.5" y1="71.5" y2="71.5"/><ellipse cx="329.5" cy="82.5" fill="none" rx="3" ry="3" style="stroke: #038048; stroke-width: 1.0;"/><text fill="#000000" font-family="sans-serif" font-size="11" lengthAdjust="spacingAndGlyphs" text-decoration="underline" textLength="183" x="338.5" y="86.1348">_Identifiable_: Class&lt;Identifiable&gt;</text><line style="stroke: #A80036; stroke-width: 1.5;" x1="319.5" x2="526.5" y1="92.4551" y2="92.4551"/><ellipse cx="329.5" cy="103.4551" fill="#84BE84" rx="3" ry="3" style="stroke: #038048; stroke-width: 1.0;"/><text fill="#000000" font-family="sans-serif" font-size="11" font-style="italic" lengthAdjust="spacingAndGlyphs" textLength="51" x="338.5" y="107.0898">getId(): Id</text><ellipse cx="329.5" cy="116.4102" fill="#84BE84" rx="3" ry="3" style="stroke: #038048; stroke-width: 1.0;"/><text fill="#000000" font-family="sans-serif" font-size="11" lengthAdjust="spacingAndGlyphs" text-decoration="underline" textLength="94" x="338.5" y="120.0449">of(Id): Identifiable</text><!--MD5=[815464b5602752099ef146e03bc390e9]
reverse link it.tidalwave.northernwind.frontend.ui.ViewController to it.tidalwave.northernwind.frontend.ui.component.htmlfragment.HtmlFragmentViewController--><path codeLine="14" d="M160.9152,153.3822 C161.4305,172.3218 161.9534,191.5378 162.3466,205.9881 " fill="none" id="it.tidalwave.northernwind.frontend.ui.ViewController-backto-it.tidalwave.northernwind.frontend.ui.component.htmlfragment.HtmlFragmentViewController" style="stroke: #A80036; stroke-width: 1.0;"/><polygon fill="none" points="153.9121,153.361,160.3654,133.1779,167.9069,152.9801,153.9121,153.361" style="stroke: #A80036; stroke-width: 1.0;"/><!--MD5=[5438092152dd9bd9d5db68f9e8b97301]
reverse link it.tidalwave.northernwind.frontend.ui.component.htmlfragment.HtmlFragmentViewController to it.tidalwave.northernwind.frontend.ui.component.htmlfragment.DefaultHtmlFragmentViewController--><path codeLine="15" d="M165.7842,274.3739 C166.8747,291.7531 168.0984,311.2552 169.0863,326.9998 " fill="none" id="it.tidalwave.northernwind.frontend.ui.component.htmlfragment.HtmlFragmentViewController-backto-it.tidalwave.northernwind.frontend.ui.component.htmlfragment.DefaultHtmlFragmentViewController" style="stroke: #A80036; stroke-width: 1.0; stroke-dasharray: 7.0,7.0;"/><polygon fill="none" points="158.7898,274.681,164.5236,254.2819,172.7624,273.8042,158.7898,274.681" style="stroke: #A80036; stroke-width: 1.0;"/><!--MD5=[8cb783dedc9d3510e29fe6ca67496820]
reverse link it.tidalwave.role.Identifiable to it.tidalwave.northernwind.frontend.ui.component.htmlfragment.HtmlFragmentView--><path codeLine="16" d="M420.8322,146.7323 C420.2987,162.4174 419.7447,178.7066 419.2696,192.6741 " fill="none" id="it.tidalwave.role.Identifiable-backto-it.tidalwave.northernwind.frontend.ui.component.htmlfragment.HtmlFragmentView" style="stroke: #A80036; stroke-width: 1.0;"/><polygon fill="none" points="413.8374,146.4573,421.5134,126.7068,427.8294,146.9333,413.8374,146.4573" style="stroke: #A80036; stroke-width: 1.0;"/><text fill="#888888" font-family="sans-serif" font-size="10" lengthAdjust="spacingAndGlyphs" textLength="188" x="176" y="411.668">UMLDoclet 2.0.12, PlantUML 1.2020.16</text><!--MD5=[e744edfc19a91508cec6035529b141d1]
@startuml
    namespace it.tidalwave.northernwind.frontend.ui.component.htmlfragment {

        interface HtmlFragmentViewController [[HtmlFragmentViewController.html]]

        class DefaultHtmlFragmentViewController [[DefaultHtmlFragmentViewController.html]] {
            +renderView(RenderContext): void
        }

        interface HtmlFragmentView [[HtmlFragmentView.html]] {
            {abstract} +setContent(String): void
            {abstract} +setClassName(String): void
        }

        it.tidalwave.northernwind.frontend.ui.ViewController <|- - HtmlFragmentViewController
        HtmlFragmentViewController <|.. DefaultHtmlFragmentViewController
        it.tidalwave.role.Identifiable <|- - HtmlFragmentView
    }

    namespace it.tidalwave.northernwind.frontend.ui {
        interface ViewController [[../../ViewController.html]] {
            +initialize(): void
            +prepareRendering(RenderContext): void
            +renderView(RenderContext): void
            +findVirtualSiteNodes(): Finder<SiteNode>
        }
    }

    namespace it.tidalwave.role {
        interface Identifiable {
            {static} +_Identifiable_: Class<Identifiable>
            {abstract} +getId(): Id
            {static} +of(Id): Identifiable
        }
    }

    center footer UMLDoclet 2.0.12, PlantUML 1.2020.16
@enduml

PlantUML version 1.2020.16(Sun Aug 23 22:20:43 CEST 2020)
(APACHE source distribution)
Java Runtime: OpenJDK Runtime Environment
JVM: OpenJDK 64-Bit Server VM
Default Encoding: UTF-8
Language: en
Country: GB
--></g></svg>