<?xml version="1.0" encoding="UTF-8" standalone="no"?><svg xmlns="http://www.w3.org/2000/svg" xmlns:xlink="http://www.w3.org/1999/xlink" contentScriptType="application/ecmascript" contentStyleType="text/css" height="268px" preserveAspectRatio="none" style="width:348px;height:268px;" version="1.1" viewBox="0 0 348 268" width="348px" zoomAndPan="magnify"><defs><filter height="300%" id="fb6yy39xwc5my" width="300%" x="-1" y="-1"><feGaussianBlur result="blurOut" stdDeviation="2.0"/><feColorMatrix in="blurOut" result="blurOut2" type="matrix" values="0 0 0 0 0 0 0 0 0 0 0 0 0 0 0 0 0 0 .4 0"/><feOffset dx="4.0" dy="4.0" in="blurOut2" result="blurOut3"/><feBlend in="SourceGraphic" in2="blurOut3" mode="normal"/></filter></defs><g><!--MD5=[997fceec911359e4d74a0843976dd956]
class it.tidalwave.northernwind.frontend.media.impl.interpolator.MetadataInterpolatorSupport--><a href="MetadataInterpolatorSupport.html" target="_top" title="MetadataInterpolatorSupport.html" xlink:actuate="onRequest" xlink:href="MetadataInterpolatorSupport.html" xlink:show="new" xlink:title="MetadataInterpolatorSupport.html" xlink:type="simple"><rect codeLine="5" fill="#FEFECE" filter="url(#fb6yy39xwc5my)" height="93.1309" id="it.tidalwave.northernwind.frontend.media.impl.interpolator.MetadataInterpolatorSupport" style="stroke: #A80036; stroke-width: 1.5;" width="320" x="9" y="139"/><ellipse cx="24" cy="158.1328" fill="#A9DCDF" rx="11" ry="11" style="stroke: #A80036; stroke-width: 1.0;"/><path d="M23.8633,153.481 L22.7095,158.5527 L25.0254,158.5527 Z M22.3691,151.2397 L25.3657,151.2397 L28.7109,163.6328 L26.2622,163.6328 L25.4985,160.5698 L22.2197,160.5698 L21.4727,163.6328 L19.0239,163.6328 Z "/><text fill="#000000" font-family="sans-serif" font-size="14" font-style="italic" lengthAdjust="spacingAndGlyphs" textLength="200" x="82" y="157.5352">MetadataInterpolatorSupport</text><text fill="#000000" font-family="sans-serif" font-size="10" font-style="italic" lengthAdjust="spacingAndGlyphs" textLength="288" x="38" y="170.1563">it.tidalwave.northernwind.frontend.media.impl.interpolator</text><line style="stroke: #A80036; stroke-width: 1.5;" x1="10" x2="328" y1="177.2656" y2="177.2656"/><polygon fill="none" points="20,183.2656,24,187.2656,20,191.2656,16,187.2656" style="stroke: #B38D22; stroke-width: 1.0;"/><text fill="#000000" font-family="sans-serif" font-size="11" lengthAdjust="spacingAndGlyphs" textLength="72" x="29" y="191.9004">macro: String</text><line style="stroke: #A80036; stroke-width: 1.5;" x1="10" x2="328" y1="198.2207" y2="198.2207"/><polygon fill="#FFFF44" points="20,204.2207,24,208.2207,20,212.2207,16,208.2207" style="stroke: #B38D22; stroke-width: 1.0;"/><text fill="#000000" font-family="sans-serif" font-size="11" lengthAdjust="spacingAndGlyphs" text-decoration="underline" textLength="131" x="29" y="212.8555">formatted(String): String</text><polygon fill="#FFFF44" points="20,217.1758,24,221.1758,20,225.1758,16,221.1758" style="stroke: #B38D22; stroke-width: 1.0;"/><text fill="#000000" font-family="sans-serif" font-size="11" lengthAdjust="spacingAndGlyphs" text-decoration="underline" textLength="231" x="29" y="225.8105">lookup(Map&lt;String, String&gt;, String): String</text></a><!--MD5=[81cb70aa29908fbce2fff591398aedcd]
class it.tidalwave.northernwind.frontend.media.impl.interpolator.MetadataInterpolator--><a href="MetadataInterpolator.html" target="_top" title="MetadataInterpolator.html" xlink:actuate="onRequest" xlink:href="MetadataInterpolator.html" xlink:show="new" xlink:title="MetadataInterpolator.html" xlink:type="simple"><rect codeLine="11" fill="#FEFECE" filter="url(#fb6yy39xwc5my)" height="72.1758" id="it.tidalwave.northernwind.frontend.media.impl.interpolator.MetadataInterpolator" style="stroke: #A80036; stroke-width: 1.5;" width="320" x="9" y="7"/><ellipse cx="24" cy="26.1328" fill="#B4A7E5" rx="11" ry="11" style="stroke: #A80036; stroke-width: 1.0;"/><path d="M20.4277,22.3979 L20.4277,20.2397 L27.8071,20.2397 L27.8071,22.3979 L25.3418,22.3979 L25.3418,30.4746 L27.8071,30.4746 L27.8071,32.6328 L20.4277,32.6328 L20.4277,30.4746 L22.8931,30.4746 L22.8931,22.3979 Z "/><text fill="#000000" font-family="sans-serif" font-size="14" font-style="italic" lengthAdjust="spacingAndGlyphs" textLength="145" x="109.5" y="25.5352">MetadataInterpolator</text><text fill="#000000" font-family="sans-serif" font-size="10" font-style="italic" lengthAdjust="spacingAndGlyphs" textLength="288" x="38" y="38.1563">it.tidalwave.northernwind.frontend.media.impl.interpolator</text><line style="stroke: #A80036; stroke-width: 1.5;" x1="10" x2="328" y1="45.2656" y2="45.2656"/><ellipse cx="20" cy="56.2656" fill="#84BE84" rx="3" ry="3" style="stroke: #038048; stroke-width: 1.0;"/><text fill="#000000" font-family="sans-serif" font-size="11" font-style="italic" lengthAdjust="spacingAndGlyphs" textLength="96" x="29" y="59.9004">getMacro(): String</text><ellipse cx="20" cy="69.2207" fill="#84BE84" rx="3" ry="3" style="stroke: #038048; stroke-width: 1.0;"/><text fill="#000000" font-family="sans-serif" font-size="11" font-style="italic" lengthAdjust="spacingAndGlyphs" textLength="185" x="29" y="72.8555">interpolate(String, Context): String</text></a><!--MD5=[0458a973ec7bed5e77b9b3848950f5f2]
reverse link it.tidalwave.northernwind.frontend.media.impl.interpolator.MetadataInterpolator to it.tidalwave.northernwind.frontend.media.impl.interpolator.MetadataInterpolatorSupport--><path codeLine="16" d="M169,99.6531 C169,112.7012 169,126.4317 169,138.9912 " fill="none" id="it.tidalwave.northernwind.frontend.media.impl.interpolator.MetadataInterpolator-backto-it.tidalwave.northernwind.frontend.media.impl.interpolator.MetadataInterpolatorSupport" style="stroke: #A80036; stroke-width: 1.0; stroke-dasharray: 7.0,7.0;"/><polygon fill="none" points="162.0001,99.3275,169,79.3275,176.0001,99.3274,162.0001,99.3275" style="stroke: #A80036; stroke-width: 1.0;"/><text fill="#888888" font-family="sans-serif" font-size="10" lengthAdjust="spacingAndGlyphs" textLength="188" x="71" y="254.7988">UMLDoclet 2.0.12, PlantUML 1.2020.16</text><!--MD5=[554daee880f4052bf47a75b5f087af30]
@startuml
    set namespaceSeparator none
    hide empty fields
    hide empty methods

    abstract class "<size:14>MetadataInterpolatorSupport\n<size:10>it.tidalwave.northernwind.frontend.media.impl.interpolator" as it.tidalwave.northernwind.frontend.media.impl.interpolator.MetadataInterpolatorSupport [[MetadataInterpolatorSupport.html]] {
        #macro: String
        {static} #formatted(String): String
        {static} #lookup(Map<String, String>, String): String
    }

    interface "<size:14>MetadataInterpolator\n<size:10>it.tidalwave.northernwind.frontend.media.impl.interpolator" as it.tidalwave.northernwind.frontend.media.impl.interpolator.MetadataInterpolator [[MetadataInterpolator.html]] {
        {abstract} +getMacro(): String
        {abstract} +interpolate(String, Context): String
    }

    it.tidalwave.northernwind.frontend.media.impl.interpolator.MetadataInterpolator <|.. it.tidalwave.northernwind.frontend.media.impl.interpolator.MetadataInterpolatorSupport

    center footer UMLDoclet 2.0.12, PlantUML 1.2020.16
@enduml

PlantUML version 1.2020.16(Sun Aug 23 22:20:43 CEST 2020)
(APACHE source distribution)
Java Runtime: OpenJDK Runtime Environment
JVM: OpenJDK 64-Bit Server VM
Default Encoding: UTF-8
Language: en
Country: GB
--></g></svg>