@startuml
    set namespaceSeparator none
    hide empty fields
    hide empty methods

    interface "<size:14>AsDelegate\n<size:10>it.tidalwave.util.spi" as it.tidalwave.util.spi.AsDelegate [[AsDelegate.html]] {
        {abstract} +as(Class<? extends T>): Collection<T>
    }

    center footer UMLDoclet 2.0.12, PlantUML 1.2020.16
@enduml
