<?xml version="1.0" encoding="UTF-8" standalone="no"?><svg xmlns="http://www.w3.org/2000/svg" xmlns:xlink="http://www.w3.org/1999/xlink" contentScriptType="application/ecmascript" contentStyleType="text/css" height="358px" preserveAspectRatio="none" style="width:481px;height:358px;" version="1.1" viewBox="0 0 481 358" width="481px" zoomAndPan="magnify"><defs><filter height="300%" id="fkoliqzf7fae" width="300%" x="-1" y="-1"><feGaussianBlur result="blurOut" stdDeviation="2.0"/><feColorMatrix in="blurOut" result="blurOut2" type="matrix" values="0 0 0 0 0 0 0 0 0 0 0 0 0 0 0 0 0 0 .4 0"/><feOffset dx="4.0" dy="4.0" in="blurOut2" result="blurOut3"/><feBlend in="SourceGraphic" in2="blurOut3" mode="normal"/></filter></defs><g><!--MD5=[729f866a98888b2a2f12e527d5164767]
class it.tidalwave.util.spi.DefaultProcessExecutor.DefaultConsoleOutput--><a href="DefaultProcessExecutor.DefaultConsoleOutput.html" target="_top" title="DefaultProcessExecutor.DefaultConsoleOutput.html" xlink:actuate="onRequest" xlink:href="DefaultProcessExecutor.DefaultConsoleOutput.html" xlink:show="new" xlink:title="DefaultProcessExecutor.DefaultConsoleOutput.html" xlink:type="simple"><rect codeLine="5" fill="#FEFECE" filter="url(#fkoliqzf7fae)" height="121.4912" id="it.tidalwave.util.spi.DefaultProcessExecutor.DefaultConsoleOutput" style="stroke: #A80036; stroke-width: 1.5;" width="327" x="84" y="201"/><ellipse cx="99" cy="219.7988" fill="#ADD1B2" rx="11" ry="11" style="stroke: #A80036; stroke-width: 1.0;"/><path d="M96.9063,219.6426 Q96.9063,221.5176 97.4844,222.5332 Q98.0625,223.5332 99.2188,223.5332 Q100.5625,223.5332 101.2188,221.5176 L103.4844,221.9395 Q102.375,225.4707 99.2031,225.4707 Q96.8594,225.4707 95.6406,223.9863 Q94.4219,222.502 94.4219,219.6426 Q94.4219,213.9238 99.125,213.9238 Q100.6719,213.9238 101.7031,214.7363 Q102.75,215.5488 103.25,217.1582 L100.9844,217.7051 Q100.75,216.8301 100.2656,216.3457 Q99.7813,215.8457 99.1563,215.8457 Q96.9063,215.8457 96.9063,219.6426 Z "/><text fill="#000000" font-family="sans-serif" font-size="14" lengthAdjust="spacingAndGlyphs" textLength="295" x="113" y="219.1318">DefaultProcessExecutor.DefaultConsoleOutput</text><text fill="#000000" font-family="sans-serif" font-size="10" lengthAdjust="spacingAndGlyphs" textLength="88" x="216.5" y="231.4785">it.tidalwave.util.spi</text><line style="stroke: #A80036; stroke-width: 1.5;" x1="85" x2="410" y1="238.5977" y2="238.5977"/><ellipse cx="95" cy="249.5977" fill="#84BE84" rx="3" ry="3" style="stroke: #038048; stroke-width: 1.0;"/><text fill="#000000" font-family="sans-serif" font-size="11" lengthAdjust="spacingAndGlyphs" textLength="107" x="104" y="252.9155">start(): ConsoleOutput</text><ellipse cx="95" cy="262.2466" fill="#84BE84" rx="3" ry="3" style="stroke: #038048; stroke-width: 1.0;"/><text fill="#000000" font-family="sans-serif" font-size="11" lengthAdjust="spacingAndGlyphs" textLength="167" x="104" y="265.5645">latestLineMatches(String): boolean</text><ellipse cx="95" cy="274.8955" fill="#84BE84" rx="3" ry="3" style="stroke: #038048; stroke-width: 1.0;"/><text fill="#000000" font-family="sans-serif" font-size="11" lengthAdjust="spacingAndGlyphs" textLength="203" x="104" y="278.2134">filteredAndSplitBy(String, String): Scanner</text><ellipse cx="95" cy="287.5444" fill="#84BE84" rx="3" ry="3" style="stroke: #038048; stroke-width: 1.0;"/><text fill="#000000" font-family="sans-serif" font-size="11" lengthAdjust="spacingAndGlyphs" textLength="145" x="104" y="290.8623">filteredBy(String): List&lt;String&gt;</text><ellipse cx="95" cy="300.1934" fill="#84BE84" rx="3" ry="3" style="stroke: #038048; stroke-width: 1.0;"/><text fill="#000000" font-family="sans-serif" font-size="11" lengthAdjust="spacingAndGlyphs" textLength="150" x="104" y="303.5112">waitFor(String): ConsoleOutput</text><ellipse cx="95" cy="312.8423" fill="#84BE84" rx="3" ry="3" style="stroke: #038048; stroke-width: 1.0;"/><text fill="#000000" font-family="sans-serif" font-size="11" lengthAdjust="spacingAndGlyphs" textLength="58" x="104" y="316.1602">clear(): void</text></a><!--MD5=[09158e14d6249027360fe5d43c757557]
class it.tidalwave.util.ProcessExecutor.ConsoleOutput--><a href="../ProcessExecutor.ConsoleOutput.html" target="_top" title="../ProcessExecutor.ConsoleOutput.html" xlink:actuate="onRequest" xlink:href="../ProcessExecutor.ConsoleOutput.html" xlink:show="new" xlink:title="../ProcessExecutor.ConsoleOutput.html" xlink:type="simple"><rect codeLine="14" fill="#FEFECE" filter="url(#fkoliqzf7fae)" height="134.1401" id="it.tidalwave.util.ProcessExecutor.ConsoleOutput" style="stroke: #A80036; stroke-width: 1.5;" width="237" x="7" y="7"/><ellipse cx="22" cy="25.7988" fill="#B4A7E5" rx="11" ry="11" style="stroke: #A80036; stroke-width: 1.0;"/><path d="M18.2969,20.0957 L25.9063,20.0957 L25.9063,21.9863 L23.3281,21.9863 L23.3281,29.4082 L25.9063,29.4082 L25.9063,31.2988 L18.2969,31.2988 L18.2969,29.4082 L20.8906,29.4082 L20.8906,21.9863 L18.2969,21.9863 L18.2969,20.0957 Z "/><text fill="#000000" font-family="sans-serif" font-size="14" font-style="italic" lengthAdjust="spacingAndGlyphs" textLength="205" x="36" y="25.1318">ProcessExecutor.ConsoleOutput</text><text fill="#000000" font-family="sans-serif" font-size="10" font-style="italic" lengthAdjust="spacingAndGlyphs" textLength="73" x="102" y="37.4785">it.tidalwave.util</text><line style="stroke: #A80036; stroke-width: 1.5;" x1="8" x2="243" y1="44.5977" y2="44.5977"/><ellipse cx="18" cy="55.5977" fill="#84BE84" rx="3" ry="3" style="stroke: #038048; stroke-width: 1.0;"/><text fill="#000000" font-family="sans-serif" font-size="11" font-style="italic" lengthAdjust="spacingAndGlyphs" textLength="173" x="27" y="58.9155">latestLineMatches(String): boolean</text><ellipse cx="18" cy="68.2466" fill="#84BE84" rx="3" ry="3" style="stroke: #038048; stroke-width: 1.0;"/><text fill="#000000" font-family="sans-serif" font-size="11" font-style="italic" lengthAdjust="spacingAndGlyphs" textLength="148" x="27" y="71.5645">filteredBy(String): List&lt;String&gt;</text><ellipse cx="18" cy="80.8955" fill="#84BE84" rx="3" ry="3" style="stroke: #038048; stroke-width: 1.0;"/><text fill="#000000" font-family="sans-serif" font-size="11" font-style="italic" lengthAdjust="spacingAndGlyphs" textLength="206" x="27" y="84.2134">filteredAndSplitBy(String, String): Scanner</text><ellipse cx="18" cy="93.5444" fill="#84BE84" rx="3" ry="3" style="stroke: #038048; stroke-width: 1.0;"/><text fill="#000000" font-family="sans-serif" font-size="11" font-style="italic" lengthAdjust="spacingAndGlyphs" textLength="153" x="27" y="96.8623">waitFor(String): ConsoleOutput</text><ellipse cx="18" cy="106.1934" fill="#84BE84" rx="3" ry="3" style="stroke: #038048; stroke-width: 1.0;"/><text fill="#000000" font-family="sans-serif" font-size="11" font-style="italic" lengthAdjust="spacingAndGlyphs" textLength="59" x="27" y="109.5112">clear(): void</text><ellipse cx="18" cy="118.8423" fill="#84BE84" rx="3" ry="3" style="stroke: #038048; stroke-width: 1.0;"/><text fill="#000000" font-family="sans-serif" font-size="11" font-style="italic" lengthAdjust="spacingAndGlyphs" textLength="129" x="27" y="122.1602">setListener(Listener): void</text><ellipse cx="18" cy="131.4912" fill="#84BE84" rx="3" ry="3" style="stroke: #038048; stroke-width: 1.0;"/><text fill="#000000" font-family="sans-serif" font-size="11" font-style="italic" lengthAdjust="spacingAndGlyphs" textLength="109" x="27" y="134.8091">getListener(): Listener</text></a><!--MD5=[9e23257f40a6c19f00504128e1c5e028]
class it.tidalwave.util.spi.DefaultProcessExecutor--><a href="DefaultProcessExecutor.html" target="_top" title="DefaultProcessExecutor.html" xlink:actuate="onRequest" xlink:href="DefaultProcessExecutor.html" xlink:show="new" xlink:title="DefaultProcessExecutor.html" xlink:type="simple"><rect codeLine="23" fill="#FEFECE" filter="url(#fkoliqzf7fae)" height="37.5977" id="it.tidalwave.util.spi.DefaultProcessExecutor" style="stroke: #A80036; stroke-width: 1.5;" width="183" x="279" y="55"/><ellipse cx="294" cy="73.7988" fill="#ADD1B2" rx="11" ry="11" style="stroke: #A80036; stroke-width: 1.0;"/><path d="M291.9063,73.6426 Q291.9063,75.5176 292.4844,76.5332 Q293.0625,77.5332 294.2188,77.5332 Q295.5625,77.5332 296.2188,75.5176 L298.4844,75.9395 Q297.375,79.4707 294.2031,79.4707 Q291.8594,79.4707 290.6406,77.9863 Q289.4219,76.502 289.4219,73.6426 Q289.4219,67.9238 294.125,67.9238 Q295.6719,67.9238 296.7031,68.7363 Q297.75,69.5488 298.25,71.1582 L295.9844,71.7051 Q295.75,70.8301 295.2656,70.3457 Q294.7813,69.8457 294.1563,69.8457 Q291.9063,69.8457 291.9063,73.6426 Z "/><text fill="#000000" font-family="sans-serif" font-size="14" lengthAdjust="spacingAndGlyphs" textLength="151" x="308" y="73.1318">DefaultProcessExecutor</text><text fill="#000000" font-family="sans-serif" font-size="10" lengthAdjust="spacingAndGlyphs" textLength="88" x="339.5" y="85.4785">it.tidalwave.util.spi</text></a><!--MD5=[aa3e8c63c203bd12411cb9974cf5989d]
reverse link it.tidalwave.util.ProcessExecutor.ConsoleOutput to it.tidalwave.util.spi.DefaultProcessExecutor.DefaultConsoleOutput--><path codeLine="25" d="M180.03,157.92 C189.54,172.38 199.26,187.15 208.25,200.83 " fill="none" id="it.tidalwave.util.ProcessExecutor.ConsoleOutput-backto-it.tidalwave.util.spi.DefaultProcessExecutor.DefaultConsoleOutput" style="stroke: #A80036; stroke-width: 1.0; stroke-dasharray: 7.0,7.0;"/><polygon fill="none" points="174.17,161.74,169.03,141.18,185.87,154.05,174.17,161.74" style="stroke: #A80036; stroke-width: 1.0;"/><!--MD5=[dfbf5c450aea64c750208737f9b5187f]
reverse link it.tidalwave.util.spi.DefaultProcessExecutor to it.tidalwave.util.spi.DefaultProcessExecutor.DefaultConsoleOutput--><path codeLine="26" d="M350.07,105.81 C332.94,131.65 307.97,169.3 286.96,200.99 " fill="none" id="it.tidalwave.util.spi.DefaultProcessExecutor-backto-it.tidalwave.util.spi.DefaultProcessExecutor.DefaultConsoleOutput" style="stroke: #A80036; stroke-width: 1.0;"/><ellipse cx="354.0547" cy="99.7846" fill="#FFFFFF" rx="8" ry="8" style="stroke: #A80036; stroke-width: 1.0;"/><line style="stroke: #A80036; stroke-width: 1.0;" x1="349.6294" x2="358.48" y1="106.4492" y2="93.12"/><line style="stroke: #A80036; stroke-width: 1.0;" x1="347.3901" x2="360.7193" y1="95.3593" y2="104.2099"/><text fill="#888888" font-family="sans-serif" font-size="10" lengthAdjust="spacingAndGlyphs" textLength="190" x="136.5" y="344.8711">UMLDoclet 2.0.12, PlantUML 1.2020.16</text><!--MD5=[e1a41d9116601b8a0b98c31f897791ce]
@startuml
    set namespaceSeparator none
    hide empty fields
    hide empty methods

    class "<size:14>DefaultProcessExecutor.DefaultConsoleOutput\n<size:10>it.tidalwave.util.spi" as it.tidalwave.util.spi.DefaultProcessExecutor.DefaultConsoleOutput [[DefaultProcessExecutor.DefaultConsoleOutput.html]] {
        +start(): ConsoleOutput
        +latestLineMatches(String): boolean
        +filteredAndSplitBy(String, String): Scanner
        +filteredBy(String): List<String>
        +waitFor(String): ConsoleOutput
        +clear(): void
    }

    interface "<size:14>ProcessExecutor.ConsoleOutput\n<size:10>it.tidalwave.util" as it.tidalwave.util.ProcessExecutor.ConsoleOutput [[../ProcessExecutor.ConsoleOutput.html]] {
        {abstract} +latestLineMatches(String): boolean
        {abstract} +filteredBy(String): List<String>
        {abstract} +filteredAndSplitBy(String, String): Scanner
        {abstract} +waitFor(String): ConsoleOutput
        {abstract} +clear(): void
        {abstract} +setListener(Listener): void
        {abstract} +getListener(): Listener
    }
    class "<size:14>DefaultProcessExecutor\n<size:10>it.tidalwave.util.spi" as it.tidalwave.util.spi.DefaultProcessExecutor [[DefaultProcessExecutor.html]]

    it.tidalwave.util.ProcessExecutor.ConsoleOutput <|.. it.tidalwave.util.spi.DefaultProcessExecutor.DefaultConsoleOutput
    it.tidalwave.util.spi.DefaultProcessExecutor +- - it.tidalwave.util.spi.DefaultProcessExecutor.DefaultConsoleOutput

    center footer UMLDoclet 2.0.12, PlantUML 1.2020.16
@enduml

PlantUML version 1.2020.16(Sun Aug 23 22:20:43 CEST 2020)
(APACHE source distribution)
Java Runtime: OpenJDK Runtime Environment
JVM: OpenJDK 64-Bit Server VM
Default Encoding: UTF-8
Language: en
Country: US
--></g></svg>