<?xml version="1.0" encoding="UTF-8" standalone="no"?><svg xmlns="http://www.w3.org/2000/svg" xmlns:xlink="http://www.w3.org/1999/xlink" contentScriptType="application/ecmascript" contentStyleType="text/css" height="214px" preserveAspectRatio="none" style="width:315px;height:214px;" version="1.1" viewBox="0 0 315 214" width="315px" zoomAndPan="magnify"><defs><filter height="300%" id="f6kro5bp5v5jb" width="300%" x="-1" y="-1"><feGaussianBlur result="blurOut" stdDeviation="2.0"/><feColorMatrix in="blurOut" result="blurOut2" type="matrix" values="0 0 0 0 0 0 0 0 0 0 0 0 0 0 0 0 0 0 .4 0"/><feOffset dx="4.0" dy="4.0" in="blurOut2" result="blurOut3"/><feBlend in="SourceGraphic" in2="blurOut3" mode="normal"/></filter></defs><g><!--MD5=[5280aa60a07ef1013ea92140cd773bb8]
class it.tidalwave.util.spi.SimpleFinderSupport--><a href="SimpleFinderSupport.html" target="_top" title="SimpleFinderSupport.html" xlink:actuate="onRequest" xlink:href="SimpleFinderSupport.html" xlink:show="new" xlink:title="SimpleFinderSupport.html" xlink:type="simple"><rect codeLine="5" fill="#FEFECE" filter="url(#f6kro5bp5v5jb)" height="70.8955" id="it.tidalwave.util.spi.SimpleFinderSupport" style="stroke: #A80036; stroke-width: 1.5;" width="287" x="9" y="108"/><ellipse cx="76.25" cy="126.7988" fill="#A9DCDF" rx="11" ry="11" style="stroke: #A80036; stroke-width: 1.0;"/><path d="M81.4531,131.2988 L79.0156,131.2988 L78.25,128.5645 L74.4688,128.5645 L73.7031,131.2988 L71.25,131.2988 L74.9219,120.0957 L77.7813,120.0957 L81.4531,131.2988 Z M76.3594,121.6113 Q76.2813,121.9551 76.1094,122.6582 Q75.9375,123.3457 74.9844,126.7207 L77.7344,126.7207 Q76.7656,123.2988 76.5938,122.627 Q76.4219,121.9551 76.3594,121.6113 Z "/><text fill="#000000" font-family="sans-serif" font-size="14" font-style="italic" lengthAdjust="spacingAndGlyphs" textLength="133" x="96.75" y="126.1318">SimpleFinderSupport</text><text fill="#000000" font-family="sans-serif" font-size="10" font-style="italic" lengthAdjust="spacingAndGlyphs" textLength="90" x="118.25" y="138.4785">it.tidalwave.util.spi</text><rect fill="#FFFFFF" height="15.7988" style="stroke: #000000; stroke-width: 1.0; stroke-dasharray: 2.0,2.0;" width="9" x="290" y="105"/><text fill="#000000" font-family="sans-serif" font-size="12" font-style="italic" lengthAdjust="spacingAndGlyphs" textLength="7" x="291" y="117.2559">T</text><line style="stroke: #A80036; stroke-width: 1.5;" x1="10" x2="295" y1="145.5977" y2="145.5977"/><polygon fill="#FFFF44" points="20,151.5977,24,155.5977,20,159.5977,16,155.5977" style="stroke: #B38D22; stroke-width: 1.0;"/><text fill="#000000" font-family="sans-serif" font-size="11" lengthAdjust="spacingAndGlyphs" textLength="135" x="29" y="159.9155">SimpleFinderSupport(String)</text><polygon fill="#FFFF44" points="20,164.2466,24,168.2466,20,172.2466,16,168.2466" style="stroke: #B38D22; stroke-width: 1.0;"/><text fill="#000000" font-family="sans-serif" font-size="11" lengthAdjust="spacingAndGlyphs" textLength="261" x="29" y="172.5645">SimpleFinderSupport(SimpleFinderSupport&lt;T&gt;, Object)</text></a><!--MD5=[d63e98a45e8384519e3fc4fd1371e7a4]
class it.tidalwave.util.spi.HierarchicFinderSupport--><a href="HierarchicFinderSupport.html" target="_top" title="HierarchicFinderSupport.html" xlink:actuate="onRequest" xlink:href="HierarchicFinderSupport.html" xlink:show="new" xlink:title="HierarchicFinderSupport.html" xlink:type="simple"><rect codeLine="10" fill="#FEFECE" filter="url(#f6kro5bp5v5jb)" height="37.5977" id="it.tidalwave.util.spi.HierarchicFinderSupport" style="stroke: #A80036; stroke-width: 1.5;" width="259" x="23" y="10"/><ellipse cx="38" cy="28.7988" fill="#ADD1B2" rx="11" ry="11" style="stroke: #A80036; stroke-width: 1.0;"/><path d="M35.9063,28.6426 Q35.9063,30.5176 36.4844,31.5332 Q37.0625,32.5332 38.2188,32.5332 Q39.5625,32.5332 40.2188,30.5176 L42.4844,30.9395 Q41.375,34.4707 38.2031,34.4707 Q35.8594,34.4707 34.6406,32.9863 Q33.4219,31.502 33.4219,28.6426 Q33.4219,22.9238 38.125,22.9238 Q39.6719,22.9238 40.7031,23.7363 Q41.75,24.5488 42.25,26.1582 L39.9844,26.7051 Q39.75,25.8301 39.2656,25.3457 Q38.7813,24.8457 38.1563,24.8457 Q35.9063,24.8457 35.9063,28.6426 Z "/><text fill="#000000" font-family="sans-serif" font-size="14" lengthAdjust="spacingAndGlyphs" textLength="154" x="52" y="28.1318">HierarchicFinderSupport</text><text fill="#000000" font-family="sans-serif" font-size="10" lengthAdjust="spacingAndGlyphs" textLength="88" x="85" y="40.4785">it.tidalwave.util.spi</text><rect fill="#FFFFFF" height="15.7988" style="stroke: #000000; stroke-width: 1.0; stroke-dasharray: 2.0,2.0;" width="71" x="214" y="7"/><text fill="#000000" font-family="sans-serif" font-size="12" font-style="italic" lengthAdjust="spacingAndGlyphs" textLength="69" x="215" y="19.2559">T, Finder&lt;T&gt;</text></a><!--MD5=[937ae8df90f3341161436f79c80582ea]
reverse link it.tidalwave.util.spi.HierarchicFinderSupport to it.tidalwave.util.spi.SimpleFinderSupport--><path codeLine="12" d="M152.5,68.3 C152.5,81.06 152.5,95.19 152.5,107.67 " fill="none" id="it.tidalwave.util.spi.HierarchicFinderSupport-backto-it.tidalwave.util.spi.SimpleFinderSupport" style="stroke: #A80036; stroke-width: 1.0;"/><polygon fill="none" points="145.5,68.08,152.5,48.08,159.5,68.08,145.5,68.08" style="stroke: #A80036; stroke-width: 1.0;"/><text fill="#888888" font-family="sans-serif" font-size="10" lengthAdjust="spacingAndGlyphs" textLength="190" x="53.5" y="201.2754">UMLDoclet 2.0.12, PlantUML 1.2020.16</text><!--MD5=[d15dc3794aefa69c8f49c524cdfe7efd]
@startuml
    set namespaceSeparator none
    hide empty fields
    hide empty methods

    abstract class "<size:14>SimpleFinderSupport\n<size:10>it.tidalwave.util.spi" as it.tidalwave.util.spi.SimpleFinderSupport<T> [[SimpleFinderSupport.html]] {
        #SimpleFinderSupport(String)
        #SimpleFinderSupport(SimpleFinderSupport<T>, Object)
    }

    class "<size:14>HierarchicFinderSupport\n<size:10>it.tidalwave.util.spi" as it.tidalwave.util.spi.HierarchicFinderSupport<T, Finder<T>> [[HierarchicFinderSupport.html]]

    it.tidalwave.util.spi.HierarchicFinderSupport <|- - it.tidalwave.util.spi.SimpleFinderSupport

    center footer UMLDoclet 2.0.12, PlantUML 1.2020.16
@enduml

PlantUML version 1.2020.16(Sun Aug 23 22:20:43 CEST 2020)
(APACHE source distribution)
Java Runtime: OpenJDK Runtime Environment
JVM: OpenJDK 64-Bit Server VM
Default Encoding: UTF-8
Language: en
Country: US
--></g></svg>