@startuml
    set namespaceSeparator none
    hide empty fields
    hide empty methods

    abstract class "<size:14>XStreamMarshallableSupport\n<size:10>it.tidalwave.thesefoolishthings.examples.dci.marshal.role" as it.tidalwave.thesefoolishthings.examples.dci.marshal.role.XStreamMarshallableSupport<T> [[XStreamMarshallableSupport.html]] {
        +marshal(OutputStream): void
    }

    interface "<size:14>Marshallable\n<size:10>it.tidalwave.role.io" as it.tidalwave.role.io.Marshallable [[https://tidalwave.bitbucket.io/thesefoolishthings/modules/it-tidalwave-role/apidocs/it/tidalwave/role/io/Marshallable.html?is-external=true]] {
        {abstract} +marshal(OutputStream): void
    }

    it.tidalwave.role.io.Marshallable <|.. it.tidalwave.thesefoolishthings.examples.dci.marshal.role.XStreamMarshallableSupport

    center footer UMLDoclet 2.0.12, PlantUML 1.2020.16
@enduml
