@startuml
    set namespaceSeparator none
    hide empty fields
    hide empty methods

    abstract class "<size:14>RoleManagerSupport\n<size:10>it.tidalwave.role.spi" as it.tidalwave.role.spi.RoleManagerSupport [[RoleManagerSupport.html]] {
        +findRoles(Object, Class<ROLE_TYPE>): List<? extends ROLE_TYPE>
        #scan(Collection<Class<?>>): void
        {abstract} #getBean(Class<T>): T
        {abstract} #findContextTypeForRole(Class<?>): Class<?>
        {abstract} #findDatumTypesForRole(Class<?>): Class<?>[]
        +logRoles(): void
    }

    interface "<size:14>RoleManager\n<size:10>it.tidalwave.role.spi" as it.tidalwave.role.spi.RoleManager [[RoleManager.html]] {
        {abstract} +findRoles(Object, Class<T>): List<? extends T>
    }

    it.tidalwave.role.spi.RoleManager <|.. it.tidalwave.role.spi.RoleManagerSupport

    center footer UMLDoclet 2.0.12, PlantUML 1.2020.16
@enduml
