<?xml version="1.0" encoding="UTF-8" standalone="no"?><svg xmlns="http://www.w3.org/2000/svg" xmlns:xlink="http://www.w3.org/1999/xlink" contentScriptType="application/ecmascript" contentStyleType="text/css" height="356px" preserveAspectRatio="none" style="width:1221px;height:356px;" version="1.1" viewBox="0 0 1221 356" width="1221px" zoomAndPan="magnify"><defs><filter height="300%" id="f1to1ykbf6oqgg" width="300%" x="-1" y="-1"><feGaussianBlur result="blurOut" stdDeviation="2.0"/><feColorMatrix in="blurOut" result="blurOut2" type="matrix" values="0 0 0 0 0 0 0 0 0 0 0 0 0 0 0 0 0 0 .4 0"/><feOffset dx="4.0" dy="4.0" in="blurOut2" result="blurOut3"/><feBlend in="SourceGraphic" in2="blurOut3" mode="normal"/></filter></defs><g><!--MD5=[2ae8e90f12a9613f2ae0c44dee3e59b7]
cluster it.tidalwave.bluemarine2.ui.audio.renderer.impl.javafx--><polygon fill="#FFFFFF" filter="url(#f1to1ykbf6oqgg)" points="16,166,403,166,410,188.4883,1120,188.4883,1120,327,16,327,16,166" style="stroke: #000000; stroke-width: 1.5;"/><line style="stroke: #000000; stroke-width: 1.5;" x1="16" x2="410" y1="188.4883" y2="188.4883"/><text fill="#000000" font-family="sans-serif" font-size="14" font-weight="bold" lengthAdjust="spacingAndGlyphs" textLength="381" x="20" y="181.5352">it.tidalwave.bluemarine2.ui.audio.renderer.impl.javafx</text><!--MD5=[d38139648762d9f61b21e8bbe833c4a2]
cluster it.tidalwave.bluemarine2.ui.audio.renderer--><polygon fill="#FFFFFF" filter="url(#f1to1ykbf6oqgg)" points="216,6,521,6,528,28.4883,836,28.4883,836,141,216,141,216,6" style="stroke: #000000; stroke-width: 1.5;"/><line style="stroke: #000000; stroke-width: 1.5;" x1="216" x2="528" y1="28.4883" y2="28.4883"/><text fill="#000000" font-family="sans-serif" font-size="14" font-weight="bold" lengthAdjust="spacingAndGlyphs" textLength="299" x="220" y="21.5352">it.tidalwave.bluemarine2.ui.audio.renderer</text><!--MD5=[7e88933943485b3273a8c4a4af8ecba9]
cluster it.tidalwave.bluemarine2.ui.audio.renderer.spi--><polygon fill="#FFFFFF" filter="url(#f1to1ykbf6oqgg)" points="859,12.5,1189,12.5,1196,34.9883,1199,34.9883,1199,134.5,859,134.5,859,12.5" style="stroke: #000000; stroke-width: 1.5;"/><line style="stroke: #000000; stroke-width: 1.5;" x1="859" x2="1196" y1="34.9883" y2="34.9883"/><text fill="#000000" font-family="sans-serif" font-size="14" font-weight="bold" lengthAdjust="spacingAndGlyphs" textLength="324" x="863" y="28.0352">it.tidalwave.bluemarine2.ui.audio.renderer.spi</text><!--MD5=[b13b111fabfa32bbb0f7ea27272bdc4e]
class it.tidalwave.bluemarine2.ui.audio.renderer.impl.javafx.JavaFxAudioRendererPresentation--><a href="JavaFxAudioRendererPresentation.html" target="_top" title="JavaFxAudioRendererPresentation.html" xlink:actuate="onRequest" xlink:href="JavaFxAudioRendererPresentation.html" xlink:show="new" xlink:title="JavaFxAudioRendererPresentation.html" xlink:type="simple"><rect codeLine="3" fill="#FEFECE" filter="url(#f1to1ykbf6oqgg)" height="60.9551" id="it.tidalwave.bluemarine2.ui.audio.renderer.impl.javafx.JavaFxAudioRendererPresentation" style="stroke: #A80036; stroke-width: 1.5;" width="227" x="663.5" y="225.5"/><ellipse cx="678.5" cy="241.5" fill="#ADD1B2" rx="11" ry="11" style="stroke: #A80036; stroke-width: 1.0;"/><path d="M680.9731,247.6431 Q680.3921,247.9419 679.7529,248.0913 Q679.1138,248.2407 678.4082,248.2407 Q675.9014,248.2407 674.5815,246.5889 Q673.2617,244.937 673.2617,241.8159 Q673.2617,238.6865 674.5815,237.0347 Q675.9014,235.3828 678.4082,235.3828 Q679.1138,235.3828 679.7612,235.5322 Q680.4087,235.6816 680.9731,235.9805 L680.9731,238.7031 Q680.3423,238.1221 679.7488,237.8523 Q679.1553,237.5825 678.5244,237.5825 Q677.1797,237.5825 676.4949,238.6492 Q675.8101,239.7158 675.8101,241.8159 Q675.8101,243.9077 676.4949,244.9744 Q677.1797,246.041 678.5244,246.041 Q679.1553,246.041 679.7488,245.7712 Q680.3423,245.5015 680.9731,244.9204 Z "/><text fill="#000000" font-family="sans-serif" font-size="12" lengthAdjust="spacingAndGlyphs" textLength="195" x="692.5" y="246.0352">JavaFxAudioRendererPresentation</text><line style="stroke: #A80036; stroke-width: 1.5;" x1="664.5" x2="889.5" y1="257.5" y2="257.5"/><line style="stroke: #A80036; stroke-width: 1.5;" x1="664.5" x2="889.5" y1="265.5" y2="265.5"/><ellipse cx="674.5" cy="276.5" fill="#84BE84" rx="3" ry="3" style="stroke: #038048; stroke-width: 1.0;"/><text fill="#000000" font-family="sans-serif" font-size="11" lengthAdjust="spacingAndGlyphs" textLength="115" x="683.5" y="280.1348">showUp(Object): void</text></a><!--MD5=[982963380d082ded850ea345d8fffb66]
class it.tidalwave.bluemarine2.ui.audio.renderer.impl.javafx.JavaFxMediaPlayer--><a href="JavaFxMediaPlayer.html" target="_top" title="JavaFxMediaPlayer.html" xlink:actuate="onRequest" xlink:href="JavaFxMediaPlayer.html" xlink:show="new" xlink:title="JavaFxMediaPlayer.html" xlink:type="simple"><rect codeLine="7" fill="#FEFECE" filter="url(#f1to1ykbf6oqgg)" height="125.7305" id="it.tidalwave.bluemarine2.ui.audio.renderer.impl.javafx.JavaFxMediaPlayer" style="stroke: #A80036; stroke-width: 1.5;" width="187" x="925.5" y="193"/><ellipse cx="962.1" cy="209" fill="#ADD1B2" rx="11" ry="11" style="stroke: #A80036; stroke-width: 1.0;"/><path d="M964.5731,215.1431 Q963.9921,215.4419 963.3529,215.5913 Q962.7138,215.7407 962.0082,215.7407 Q959.5014,215.7407 958.1815,214.0889 Q956.8617,212.437 956.8617,209.3159 Q956.8617,206.1865 958.1815,204.5347 Q959.5014,202.8828 962.0082,202.8828 Q962.7138,202.8828 963.3612,203.0322 Q964.0087,203.1816 964.5731,203.4805 L964.5731,206.2031 Q963.9423,205.6221 963.3488,205.3523 Q962.7553,205.0825 962.1244,205.0825 Q960.7797,205.0825 960.0949,206.1492 Q959.4101,207.2158 959.4101,209.3159 Q959.4101,211.4077 960.0949,212.4744 Q960.7797,213.541 962.1244,213.541 Q962.7553,213.541 963.3488,213.2712 Q963.9423,213.0015 964.5731,212.4204 Z "/><text fill="#000000" font-family="sans-serif" font-size="12" lengthAdjust="spacingAndGlyphs" textLength="107" x="980.9" y="213.5352">JavaFxMediaPlayer</text><line style="stroke: #A80036; stroke-width: 1.5;" x1="926.5" x2="1111.5" y1="225" y2="225"/><line style="stroke: #A80036; stroke-width: 1.5;" x1="926.5" x2="1111.5" y1="233" y2="233"/><ellipse cx="936.5" cy="244" fill="#84BE84" rx="3" ry="3" style="stroke: #038048; stroke-width: 1.0;"/><text fill="#000000" font-family="sans-serif" font-size="11" lengthAdjust="spacingAndGlyphs" textLength="161" x="945.5" y="247.6348">setMediaItem(MediaItem): void</text><ellipse cx="936.5" cy="256.9551" fill="#84BE84" rx="3" ry="3" style="stroke: #038048; stroke-width: 1.0;"/><text fill="#000000" font-family="sans-serif" font-size="11" lengthAdjust="spacingAndGlyphs" textLength="59" x="945.5" y="260.5898">play(): void</text><ellipse cx="936.5" cy="269.9102" fill="#84BE84" rx="3" ry="3" style="stroke: #038048; stroke-width: 1.0;"/><text fill="#000000" font-family="sans-serif" font-size="11" lengthAdjust="spacingAndGlyphs" textLength="61" x="945.5" y="273.5449">stop(): void</text><ellipse cx="936.5" cy="282.8652" fill="#84BE84" rx="3" ry="3" style="stroke: #038048; stroke-width: 1.0;"/><text fill="#000000" font-family="sans-serif" font-size="11" lengthAdjust="spacingAndGlyphs" textLength="69" x="945.5" y="286.5">pause(): void</text><ellipse cx="936.5" cy="295.8203" fill="#84BE84" rx="3" ry="3" style="stroke: #038048; stroke-width: 1.0;"/><text fill="#000000" font-family="sans-serif" font-size="11" lengthAdjust="spacingAndGlyphs" textLength="73" x="945.5" y="299.4551">rewind(): void</text><ellipse cx="936.5" cy="308.7754" fill="#84BE84" rx="3" ry="3" style="stroke: #038048; stroke-width: 1.0;"/><text fill="#000000" font-family="sans-serif" font-size="11" lengthAdjust="spacingAndGlyphs" textLength="101" x="945.5" y="312.4102">fastForward(): void</text></a><!--MD5=[09f78da42da203ed83291cb005ab6faf]
class it.tidalwave.bluemarine2.ui.audio.renderer.impl.javafx.JavaFxAudioRendererPresentationDelegate--><a href="JavaFxAudioRendererPresentationDelegate.html" target="_top" title="JavaFxAudioRendererPresentationDelegate.html" xlink:actuate="onRequest" xlink:href="JavaFxAudioRendererPresentationDelegate.html" xlink:show="new" xlink:title="JavaFxAudioRendererPresentationDelegate.html" xlink:type="simple"><rect codeLine="16" fill="#FEFECE" filter="url(#f1to1ykbf6oqgg)" height="112.7754" id="it.tidalwave.bluemarine2.ui.audio.renderer.impl.javafx.JavaFxAudioRendererPresentationDelegate" style="stroke: #A80036; stroke-width: 1.5;" width="604" x="24" y="199.5"/><ellipse cx="198.75" cy="215.5" fill="#ADD1B2" rx="11" ry="11" style="stroke: #A80036; stroke-width: 1.0;"/><path d="M201.2231,221.6431 Q200.6421,221.9419 200.0029,222.0913 Q199.3638,222.2407 198.6582,222.2407 Q196.1514,222.2407 194.8315,220.5889 Q193.5117,218.937 193.5117,215.8159 Q193.5117,212.6865 194.8315,211.0347 Q196.1514,209.3828 198.6582,209.3828 Q199.3638,209.3828 200.0112,209.5322 Q200.6587,209.6816 201.2231,209.9805 L201.2231,212.7031 Q200.5923,212.1221 199.9988,211.8523 Q199.4053,211.5825 198.7744,211.5825 Q197.4297,211.5825 196.7449,212.6492 Q196.0601,213.7158 196.0601,215.8159 Q196.0601,217.9077 196.7449,218.9744 Q197.4297,220.041 198.7744,220.041 Q199.4053,220.041 199.9988,219.7712 Q200.5923,219.5015 201.2231,218.9204 Z "/><text fill="#000000" font-family="sans-serif" font-size="12" lengthAdjust="spacingAndGlyphs" textLength="246" x="219.25" y="220.0352">JavaFxAudioRendererPresentationDelegate</text><line style="stroke: #A80036; stroke-width: 1.5;" x1="25" x2="627" y1="231.5" y2="231.5"/><line style="stroke: #A80036; stroke-width: 1.5;" x1="25" x2="627" y1="239.5" y2="239.5"/><ellipse cx="35" cy="250.5" fill="#84BE84" rx="3" ry="3" style="stroke: #038048; stroke-width: 1.0;"/><text fill="#000000" font-family="sans-serif" font-size="11" lengthAdjust="spacingAndGlyphs" textLength="165" x="44" y="254.1348">onKeyReleased(KeyEvent): void</text><ellipse cx="35" cy="263.4551" fill="#84BE84" rx="3" ry="3" style="stroke: #038048; stroke-width: 1.0;"/><text fill="#000000" font-family="sans-serif" font-size="11" lengthAdjust="spacingAndGlyphs" textLength="578" x="44" y="267.0898">bind(Properties, UserAction, UserAction, UserAction, UserAction, UserAction, UserAction, UserAction): void</text><ellipse cx="35" cy="276.4102" fill="#84BE84" rx="3" ry="3" style="stroke: #038048; stroke-width: 1.0;"/><text fill="#000000" font-family="sans-serif" font-size="11" lengthAdjust="spacingAndGlyphs" textLength="115" x="44" y="280.0449">showUp(Object): void</text><ellipse cx="35" cy="289.3652" fill="#84BE84" rx="3" ry="3" style="stroke: #038048; stroke-width: 1.0;"/><text fill="#000000" font-family="sans-serif" font-size="11" lengthAdjust="spacingAndGlyphs" textLength="139" x="44" y="293">focusOnPlayButton(): void</text><ellipse cx="35" cy="302.3203" fill="#84BE84" rx="3" ry="3" style="stroke: #038048; stroke-width: 1.0;"/><text fill="#000000" font-family="sans-serif" font-size="11" lengthAdjust="spacingAndGlyphs" textLength="142" x="44" y="305.9551">focusOnStopButton(): void</text></a><!--MD5=[e54d9b4289238a23bee5c76046e78f18]
class it.tidalwave.bluemarine2.ui.audio.renderer.AudioRendererPresentation--><a href="http://blueMarine.tidalwave.it/bluemarine2-modules/it-tidalwave-bluemarine2-ui/apidocs/it/tidalwave/bluemarine2/ui/audio/renderer/AudioRendererPresentation.html?is-external=true" target="_top" title="http://blueMarine.tidalwave.it/bluemarine2-modules/it-tidalwave-bluemarine2-ui/apidocs/it/tidalwave/bluemarine2/ui/audio/renderer/AudioRendererPresentation.html?is-external=true" xlink:actuate="onRequest" xlink:href="http://blueMarine.tidalwave.it/bluemarine2-modules/it-tidalwave-bluemarine2-ui/apidocs/it/tidalwave/bluemarine2/ui/audio/renderer/AudioRendererPresentation.html?is-external=true" xlink:show="new" xlink:title="http://blueMarine.tidalwave.it/bluemarine2-modules/it-tidalwave-bluemarine2-ui/apidocs/it/tidalwave/bluemarine2/ui/audio/renderer/AudioRendererPresentation.html?is-external=true" xlink:type="simple"><rect codeLine="30" fill="#FEFECE" filter="url(#f1to1ykbf6oqgg)" height="99.8203" id="it.tidalwave.bluemarine2.ui.audio.renderer.AudioRendererPresentation" style="stroke: #A80036; stroke-width: 1.5;" width="604" x="224" y="33"/><ellipse cx="442.75" cy="49" fill="#B4A7E5" rx="11" ry="11" style="stroke: #A80036; stroke-width: 1.0;"/><path d="M439.1777,45.2651 L439.1777,43.1069 L446.5571,43.1069 L446.5571,45.2651 L444.0918,45.2651 L444.0918,53.3418 L446.5571,53.3418 L446.5571,55.5 L439.1777,55.5 L439.1777,53.3418 L441.6431,53.3418 L441.6431,45.2651 Z "/><text fill="#000000" font-family="sans-serif" font-size="12" font-style="italic" lengthAdjust="spacingAndGlyphs" textLength="158" x="463.25" y="53.5352">AudioRendererPresentation</text><line style="stroke: #A80036; stroke-width: 1.5;" x1="225" x2="827" y1="65" y2="65"/><line style="stroke: #A80036; stroke-width: 1.5;" x1="225" x2="827" y1="73" y2="73"/><ellipse cx="235" cy="84" fill="#84BE84" rx="3" ry="3" style="stroke: #038048; stroke-width: 1.0;"/><text fill="#000000" font-family="sans-serif" font-size="11" font-style="italic" lengthAdjust="spacingAndGlyphs" textLength="578" x="244" y="87.6348">bind(Properties, UserAction, UserAction, UserAction, UserAction, UserAction, UserAction, UserAction): void</text><ellipse cx="235" cy="96.9551" fill="#84BE84" rx="3" ry="3" style="stroke: #038048; stroke-width: 1.0;"/><text fill="#000000" font-family="sans-serif" font-size="11" font-style="italic" lengthAdjust="spacingAndGlyphs" textLength="115" x="244" y="100.5898">showUp(Object): void</text><ellipse cx="235" cy="109.9102" fill="#84BE84" rx="3" ry="3" style="stroke: #038048; stroke-width: 1.0;"/><text fill="#000000" font-family="sans-serif" font-size="11" font-style="italic" lengthAdjust="spacingAndGlyphs" textLength="139" x="244" y="113.5449">focusOnPlayButton(): void</text><ellipse cx="235" cy="122.8652" fill="#84BE84" rx="3" ry="3" style="stroke: #038048; stroke-width: 1.0;"/><text fill="#000000" font-family="sans-serif" font-size="11" font-style="italic" lengthAdjust="spacingAndGlyphs" textLength="142" x="244" y="126.5">focusOnStopButton(): void</text></a><!--MD5=[88827d91c3ab9842dc5c2fc6cb47ec0b]
class it.tidalwave.bluemarine2.ui.audio.renderer.spi.MediaPlayerSupport--><a href="http://blueMarine.tidalwave.it/bluemarine2-modules/it-tidalwave-bluemarine2-ui/apidocs/it/tidalwave/bluemarine2/ui/audio/renderer/spi/MediaPlayerSupport.html?is-external=true" target="_top" title="http://blueMarine.tidalwave.it/bluemarine2-modules/it-tidalwave-bluemarine2-ui/apidocs/it/tidalwave/bluemarine2/ui/audio/renderer/spi/MediaPlayerSupport.html?is-external=true" xlink:actuate="onRequest" xlink:href="http://blueMarine.tidalwave.it/bluemarine2-modules/it-tidalwave-bluemarine2-ui/apidocs/it/tidalwave/bluemarine2/ui/audio/renderer/spi/MediaPlayerSupport.html?is-external=true" xlink:show="new" xlink:title="http://blueMarine.tidalwave.it/bluemarine2-modules/it-tidalwave-bluemarine2-ui/apidocs/it/tidalwave/bluemarine2/ui/audio/renderer/spi/MediaPlayerSupport.html?is-external=true" xlink:type="simple"><rect codeLine="39" fill="#FEFECE" filter="url(#f1to1ykbf6oqgg)" height="86.8652" id="it.tidalwave.bluemarine2.ui.audio.renderer.spi.MediaPlayerSupport" style="stroke: #A80036; stroke-width: 1.5;" width="272" x="883" y="39.5"/><ellipse cx="957.25" cy="55.5" fill="#A9DCDF" rx="11" ry="11" style="stroke: #A80036; stroke-width: 1.0;"/><path d="M957.1133,50.8481 L955.9595,55.9199 L958.2754,55.9199 Z M955.6191,48.6069 L958.6157,48.6069 L961.9609,61 L959.5122,61 L958.7485,57.937 L955.4697,57.937 L954.7227,61 L952.2739,61 Z "/><text fill="#000000" font-family="sans-serif" font-size="12" font-style="italic" lengthAdjust="spacingAndGlyphs" textLength="115" x="977.75" y="60.0352">MediaPlayerSupport</text><line style="stroke: #A80036; stroke-width: 1.5;" x1="884" x2="1154" y1="71.5" y2="71.5"/><polygon fill="none" points="894,77.5,898,81.5,894,85.5,890,81.5" style="stroke: #B38D22; stroke-width: 1.0;"/><text fill="#000000" font-family="sans-serif" font-size="11" lengthAdjust="spacingAndGlyphs" textLength="115" x="903" y="86.1348">mediaItem: MediaItem</text><polygon fill="none" points="894,90.4551,898,94.4551,894,98.4551,890,94.4551" style="stroke: #B38D22; stroke-width: 1.0;"/><text fill="#000000" font-family="sans-serif" font-size="11" lengthAdjust="spacingAndGlyphs" textLength="246" x="903" y="99.0898">playTimeProperty: ObjectProperty&lt;Duration&gt;</text><polygon fill="none" points="894,103.4102,898,107.4102,894,111.4102,890,107.4102" style="stroke: #B38D22; stroke-width: 1.0;"/><text fill="#000000" font-family="sans-serif" font-size="11" lengthAdjust="spacingAndGlyphs" textLength="217" x="903" y="112.0449">statusProperty: ObjectProperty&lt;Status&gt;</text><line style="stroke: #A80036; stroke-width: 1.5;" x1="884" x2="1154" y1="118.3652" y2="118.3652"/></a><!--MD5=[68c88d38483114fbeaea48bbce4f0457]
reverse link it.tidalwave.bluemarine2.ui.audio.renderer.AudioRendererPresentation to it.tidalwave.bluemarine2.ui.audio.renderer.impl.javafx.JavaFxAudioRendererPresentation--><path codeLine="24" d="M615.2632,144.524 C655.0251,171.9296 700.095,202.9938 732.5395,225.3559 " fill="none" id="it.tidalwave.bluemarine2.ui.audio.renderer.AudioRendererPresentation-backto-it.tidalwave.bluemarine2.ui.audio.renderer.impl.javafx.JavaFxAudioRendererPresentation" style="stroke: #A80036; stroke-width: 1.0; stroke-dasharray: 7.0,7.0;"/><polygon fill="none" points="611.0945,150.1525,598.5996,133.0388,619.0396,138.6253,611.0945,150.1525" style="stroke: #A80036; stroke-width: 1.0;"/><!--MD5=[e0fd339b755443efea1ba20976a70954]
reverse link it.tidalwave.bluemarine2.ui.audio.renderer.spi.MediaPlayerSupport to it.tidalwave.bluemarine2.ui.audio.renderer.impl.javafx.JavaFxMediaPlayer--><path codeLine="25" d="M1019,146.6902 C1019,161.7193 1019,177.7377 1019,192.7474 " fill="none" id="it.tidalwave.bluemarine2.ui.audio.renderer.spi.MediaPlayerSupport-backto-it.tidalwave.bluemarine2.ui.audio.renderer.impl.javafx.JavaFxMediaPlayer" style="stroke: #A80036; stroke-width: 1.0;"/><polygon fill="none" points="1012.0001,146.6552,1019,126.6552,1026.0001,146.6552,1012.0001,146.6552" style="stroke: #A80036; stroke-width: 1.0;"/><!--MD5=[2b0c374120a732e74744e865bd6f7109]
reverse link it.tidalwave.bluemarine2.ui.audio.renderer.AudioRendererPresentation to it.tidalwave.bluemarine2.ui.audio.renderer.impl.javafx.JavaFxAudioRendererPresentationDelegate--><path codeLine="26" d="M452.8019,146.3164 C432.7163,163.6904 411.0731,182.4118 391.4529,199.3833 " fill="none" id="it.tidalwave.bluemarine2.ui.audio.renderer.AudioRendererPresentation-backto-it.tidalwave.bluemarine2.ui.audio.renderer.impl.javafx.JavaFxAudioRendererPresentationDelegate" style="stroke: #A80036; stroke-width: 1.0; stroke-dasharray: 7.0,7.0;"/><polygon fill="none" points="448.446,140.8288,468.1517,133.0388,457.6049,151.4172,448.446,140.8288" style="stroke: #A80036; stroke-width: 1.0;"/><text fill="#888888" font-family="sans-serif" font-size="10" lengthAdjust="spacingAndGlyphs" textLength="188" x="507.5" y="342.668">UMLDoclet 2.0.12, PlantUML 1.2020.16</text><!--MD5=[9549c669a25733374287b716231a4579]
@startuml
    namespace it.tidalwave.bluemarine2.ui.audio.renderer.impl.javafx {

        class JavaFxAudioRendererPresentation [[JavaFxAudioRendererPresentation.html]] {
            +showUp(Object): void
        }

        class JavaFxMediaPlayer [[JavaFxMediaPlayer.html]] {
            +setMediaItem(MediaItem): void
            +play(): void
            +stop(): void
            +pause(): void
            +rewind(): void
            +fastForward(): void
        }

        class JavaFxAudioRendererPresentationDelegate [[JavaFxAudioRendererPresentationDelegate.html]] {
            +onKeyReleased(KeyEvent): void
            +bind(Properties, UserAction, UserAction, UserAction, UserAction, UserAction, UserAction, UserAction): void
            +showUp(Object): void
            +focusOnPlayButton(): void
            +focusOnStopButton(): void
        }

        it.tidalwave.bluemarine2.ui.audio.renderer.AudioRendererPresentation <|.. JavaFxAudioRendererPresentation
        it.tidalwave.bluemarine2.ui.audio.renderer.spi.MediaPlayerSupport <|- - JavaFxMediaPlayer
        it.tidalwave.bluemarine2.ui.audio.renderer.AudioRendererPresentation <|.. JavaFxAudioRendererPresentationDelegate
    }

    namespace it.tidalwave.bluemarine2.ui.audio.renderer {
        interface AudioRendererPresentation [[http://blueMarine.tidalwave.it/bluemarine2-modules/it-tidalwave-bluemarine2-ui/apidocs/it/tidalwave/bluemarine2/ui/audio/renderer/AudioRendererPresentation.html?is-external=true]] {
            {abstract} +bind(Properties, UserAction, UserAction, UserAction, UserAction, UserAction, UserAction, UserAction): void
            {abstract} +showUp(Object): void
            {abstract} +focusOnPlayButton(): void
            {abstract} +focusOnStopButton(): void
        }
    }

    namespace it.tidalwave.bluemarine2.ui.audio.renderer.spi {
        abstract class MediaPlayerSupport [[http://blueMarine.tidalwave.it/bluemarine2-modules/it-tidalwave-bluemarine2-ui/apidocs/it/tidalwave/bluemarine2/ui/audio/renderer/spi/MediaPlayerSupport.html?is-external=true]] {
            #mediaItem: MediaItem
            #playTimeProperty: ObjectProperty<Duration>
            #statusProperty: ObjectProperty<Status>
        }
    }

    center footer UMLDoclet 2.0.12, PlantUML 1.2020.16
@enduml

PlantUML version 1.2020.16(Sun Aug 23 22:20:43 CEST 2020)
(APACHE source distribution)
Java Runtime: OpenJDK Runtime Environment
JVM: OpenJDK 64-Bit Server VM
Default Encoding: UTF-8
Language: en
Country: GB
--></g></svg>