<?xml version="1.0" encoding="UTF-8" standalone="no"?><svg xmlns="http://www.w3.org/2000/svg" xmlns:xlink="http://www.w3.org/1999/xlink" contentScriptType="application/ecmascript" contentStyleType="text/css" height="333px" preserveAspectRatio="none" style="width:623px;height:333px;" version="1.1" viewBox="0 0 623 333" width="623px" zoomAndPan="magnify"><defs><filter height="300%" id="f1uoe7m7dzvyo" width="300%" x="-1" y="-1"><feGaussianBlur result="blurOut" stdDeviation="2.0"/><feColorMatrix in="blurOut" result="blurOut2" type="matrix" values="0 0 0 0 0 0 0 0 0 0 0 0 0 0 0 0 0 0 .4 0"/><feOffset dx="4.0" dy="4.0" in="blurOut2" result="blurOut3"/><feBlend in="SourceGraphic" in2="blurOut3" mode="normal"/></filter></defs><g><!--MD5=[599d8ce795d7fb3f6db3226bbf1bc46e]
class it.tidalwave.actor.MessageSupport--><a href="MessageSupport.html" target="_top" title="MessageSupport.html" xlink:actuate="onRequest" xlink:href="MessageSupport.html" xlink:show="new" xlink:title="MessageSupport.html" xlink:type="simple"><rect codeLine="5" fill="#FEFECE" filter="url(#f1uoe7m7dzvyo)" height="157.9063" id="it.tidalwave.actor.MessageSupport" style="stroke: #A80036; stroke-width: 1.5;" width="234" x="234.5" y="139"/><ellipse cx="290.25" cy="158.1328" fill="#A9DCDF" rx="11" ry="11" style="stroke: #A80036; stroke-width: 1.0;"/><path d="M290.1133,153.481 L288.9595,158.5527 L291.2754,158.5527 Z M288.6191,151.2397 L291.6157,151.2397 L294.9609,163.6328 L292.5122,163.6328 L291.7485,160.5698 L288.4697,160.5698 L287.7227,163.6328 L285.2739,163.6328 Z "/><text fill="#000000" font-family="sans-serif" font-size="14" font-style="italic" lengthAdjust="spacingAndGlyphs" textLength="114" x="310.75" y="157.5352">MessageSupport</text><text fill="#000000" font-family="sans-serif" font-size="10" font-style="italic" lengthAdjust="spacingAndGlyphs" textLength="85" x="325.25" y="170.1563">it.tidalwave.actor</text><line style="stroke: #A80036; stroke-width: 1.5;" x1="235.5" x2="467.5" y1="177.2656" y2="177.2656"/><polygon fill="none" points="245.5,183.2656,249.5,187.2656,245.5,191.2656,241.5,187.2656" style="stroke: #B38D22; stroke-width: 1.0;"/><text fill="#000000" font-family="sans-serif" font-size="11" lengthAdjust="spacingAndGlyphs" textLength="188" x="254.5" y="191.9004">collaboration: DefaultCollaboration</text><line style="stroke: #A80036; stroke-width: 1.5;" x1="235.5" x2="467.5" y1="198.2207" y2="198.2207"/><polygon fill="#FFFF44" points="245.5,204.2207,249.5,208.2207,245.5,212.2207,241.5,208.2207" style="stroke: #B38D22; stroke-width: 1.0;"/><text fill="#000000" font-family="sans-serif" font-size="11" lengthAdjust="spacingAndGlyphs" textLength="97" x="254.5" y="212.8555">MessageSupport()</text><polygon fill="#FFFF44" points="245.5,217.1758,249.5,221.1758,245.5,225.1758,241.5,221.1758" style="stroke: #B38D22; stroke-width: 1.0;"/><text fill="#000000" font-family="sans-serif" font-size="11" lengthAdjust="spacingAndGlyphs" textLength="170" x="254.5" y="225.8105">MessageSupport(Collaboration)</text><ellipse cx="245.5" cy="235.1309" fill="#84BE84" rx="3" ry="3" style="stroke: #038048; stroke-width: 1.0;"/><text fill="#000000" font-family="sans-serif" font-size="11" lengthAdjust="spacingAndGlyphs" textLength="177" x="254.5" y="238.7656">getCollaboration(): Collaboration</text><ellipse cx="245.5" cy="248.0859" fill="#84BE84" rx="3" ry="3" style="stroke: #038048; stroke-width: 1.0;"/><text fill="#000000" font-family="sans-serif" font-size="11" lengthAdjust="spacingAndGlyphs" textLength="113" x="254.5" y="251.7207">send(): Collaboration</text><ellipse cx="245.5" cy="261.041" fill="#84BE84" rx="3" ry="3" style="stroke: #038048; stroke-width: 1.0;"/><text fill="#000000" font-family="sans-serif" font-size="11" lengthAdjust="spacingAndGlyphs" textLength="154" x="254.5" y="264.6758">sendDirectly(): Collaboration</text><ellipse cx="245.5" cy="273.9961" fill="#84BE84" rx="3" ry="3" style="stroke: #038048; stroke-width: 1.0;"/><text fill="#000000" font-family="sans-serif" font-size="11" lengthAdjust="spacingAndGlyphs" textLength="208" x="254.5" y="277.6309">sendLater(int, TimeUnit): Collaboration</text><ellipse cx="245.5" cy="286.9512" fill="#84BE84" rx="3" ry="3" style="stroke: #038048; stroke-width: 1.0;"/><text fill="#000000" font-family="sans-serif" font-size="11" lengthAdjust="spacingAndGlyphs" textLength="87" x="254.5" y="290.5859">as(Class&lt;T&gt;): T</text></a><!--MD5=[b3163528fe3315bab641bcb5f2a790d2]
class it.tidalwave.actor.Collaboration.Provider--><a href="Collaboration.Provider.html" target="_top" title="Collaboration.Provider.html" xlink:actuate="onRequest" xlink:href="Collaboration.Provider.html" xlink:show="new" xlink:title="Collaboration.Provider.html" xlink:type="simple"><rect codeLine="16" fill="#FEFECE" filter="url(#f1uoe7m7dzvyo)" height="59.2207" id="it.tidalwave.actor.Collaboration.Provider" style="stroke: #A80036; stroke-width: 1.5;" width="203" x="7" y="13.5"/><ellipse cx="29.2" cy="32.6328" fill="#B4A7E5" rx="11" ry="11" style="stroke: #A80036; stroke-width: 1.0;"/><path d="M25.6277,28.8979 L25.6277,26.7397 L33.0071,26.7397 L33.0071,28.8979 L30.5418,28.8979 L30.5418,36.9746 L33.0071,36.9746 L33.0071,39.1328 L25.6277,39.1328 L25.6277,36.9746 L28.0931,36.9746 L28.0931,28.8979 Z "/><text fill="#000000" font-family="sans-serif" font-size="14" font-style="italic" lengthAdjust="spacingAndGlyphs" textLength="155" x="44.8" y="32.0352">Collaboration.Provider</text><text fill="#000000" font-family="sans-serif" font-size="10" font-style="italic" lengthAdjust="spacingAndGlyphs" textLength="85" x="79.8" y="44.6563">it.tidalwave.actor</text><line style="stroke: #A80036; stroke-width: 1.5;" x1="8" x2="209" y1="51.7656" y2="51.7656"/><ellipse cx="18" cy="62.7656" fill="#84BE84" rx="3" ry="3" style="stroke: #038048; stroke-width: 1.0;"/><text fill="#000000" font-family="sans-serif" font-size="11" font-style="italic" lengthAdjust="spacingAndGlyphs" textLength="177" x="27" y="66.4004">getCollaboration(): Collaboration</text></a><!--MD5=[dab04e1bf87902def4158d0914d2f9d5]
class it.tidalwave.util.As--><a href="http://tidalwave.it/projects/thesefoolishthings/modules/it-tidalwave-util/apidocs/it/tidalwave/util/As.html?is-external=true" target="_top" title="http://tidalwave.it/projects/thesefoolishthings/modules/it-tidalwave-util/apidocs/it/tidalwave/util/As.html?is-external=true" xlink:actuate="onRequest" xlink:href="http://tidalwave.it/projects/thesefoolishthings/modules/it-tidalwave-util/apidocs/it/tidalwave/util/As.html?is-external=true" xlink:show="new" xlink:title="http://tidalwave.it/projects/thesefoolishthings/modules/it-tidalwave-util/apidocs/it/tidalwave/util/As.html?is-external=true" xlink:type="simple"><rect codeLine="19" fill="#FEFECE" filter="url(#f1uoe7m7dzvyo)" height="72.1758" id="it.tidalwave.util.As" style="stroke: #A80036; stroke-width: 1.5;" width="214" x="244.5" y="7"/><ellipse cx="309.25" cy="26.1328" fill="#B4A7E5" rx="11" ry="11" style="stroke: #A80036; stroke-width: 1.0;"/><path d="M305.6777,22.3979 L305.6777,20.2397 L313.0571,20.2397 L313.0571,22.3979 L310.5918,22.3979 L310.5918,30.4746 L313.0571,30.4746 L313.0571,32.6328 L305.6777,32.6328 L305.6777,30.4746 L308.1431,30.4746 L308.1431,22.3979 Z "/><text fill="#000000" font-family="sans-serif" font-size="14" font-style="italic" lengthAdjust="spacingAndGlyphs" textLength="17" x="359.25" y="25.5352">As</text><text fill="#000000" font-family="sans-serif" font-size="10" font-style="italic" lengthAdjust="spacingAndGlyphs" textLength="76" x="329.75" y="38.1563">it.tidalwave.util</text><line style="stroke: #A80036; stroke-width: 1.5;" x1="245.5" x2="457.5" y1="45.2656" y2="45.2656"/><ellipse cx="255.5" cy="56.2656" fill="#84BE84" rx="3" ry="3" style="stroke: #038048; stroke-width: 1.0;"/><text fill="#000000" font-family="sans-serif" font-size="11" font-style="italic" lengthAdjust="spacingAndGlyphs" textLength="188" x="264.5" y="59.9004">maybeAs(Class&lt;T&gt;): Optional&lt;T&gt;</text><ellipse cx="255.5" cy="69.2207" fill="#84BE84" rx="3" ry="3" style="stroke: #038048; stroke-width: 1.0;"/><text fill="#000000" font-family="sans-serif" font-size="11" font-style="italic" lengthAdjust="spacingAndGlyphs" textLength="187" x="264.5" y="72.8555">asMany(Class&lt;T&gt;): Collection&lt;T&gt;</text></a><!--MD5=[5a5af9b0547913863cbe0ddf55a9ab5e]
class java.io.Serializable--><rect codeLine="23" fill="#FEFECE" filter="url(#f1uoe7m7dzvyo)" height="38.2656" id="java.io.Serializable" style="stroke: #A80036; stroke-width: 1.5;" width="111" x="493" y="24"/><ellipse cx="508" cy="43.1328" fill="#B4A7E5" rx="11" ry="11" style="stroke: #A80036; stroke-width: 1.0;"/><path d="M504.4277,39.3979 L504.4277,37.2397 L511.8071,37.2397 L511.8071,39.3979 L509.3418,39.3979 L509.3418,47.4746 L511.8071,47.4746 L511.8071,49.6328 L504.4277,49.6328 L504.4277,47.4746 L506.8931,47.4746 L506.8931,39.3979 Z "/><text fill="#000000" font-family="sans-serif" font-size="14" font-style="italic" lengthAdjust="spacingAndGlyphs" textLength="79" x="522" y="42.5352">Serializable</text><text fill="#000000" font-family="sans-serif" font-size="10" font-style="italic" lengthAdjust="spacingAndGlyphs" textLength="32" x="545.5" y="55.1563">java.io</text><!--MD5=[6a9986ee02f67d9595af70ddcca09393]
reverse link it.tidalwave.actor.Collaboration.Provider to it.tidalwave.actor.MessageSupport--><path codeLine="25" d="M166.1604,84.525 C188.8169,100.8414 215.6099,120.1368 241.6791,138.9109 " fill="none" id="it.tidalwave.actor.Collaboration.Provider-backto-it.tidalwave.actor.MessageSupport" style="stroke: #A80036; stroke-width: 1.0; stroke-dasharray: 7.0,7.0;"/><polygon fill="none" points="161.8603,90.0546,149.7216,72.6864,170.0418,78.694,161.8603,90.0546" style="stroke: #A80036; stroke-width: 1.0;"/><!--MD5=[b5bfe33a5cd958331edcb4032042ad5a]
reverse link it.tidalwave.util.As to it.tidalwave.actor.MessageSupport--><path codeLine="26" d="M351.5,99.3138 C351.5,111.9187 351.5,125.517 351.5,138.854 " fill="none" id="it.tidalwave.util.As-backto-it.tidalwave.actor.MessageSupport" style="stroke: #A80036; stroke-width: 1.0; stroke-dasharray: 7.0,7.0;"/><polygon fill="none" points="344.5001,99.2601,351.5,79.2601,358.5001,99.2601,344.5001,99.2601" style="stroke: #A80036; stroke-width: 1.0;"/><!--MD5=[d8bd7a5c063c96c5c4eac222db2d3eba]
reverse link java.io.Serializable to it.tidalwave.actor.MessageSupport--><path codeLine="27" d="M511.9698,75.4507 C491.8548,93.3193 465.9336,116.3458 440.8158,138.6585 " fill="none" id="java.io.Serializable-backto-it.tidalwave.actor.MessageSupport" style="stroke: #A80036; stroke-width: 1.0; stroke-dasharray: 7.0,7.0;"/><polygon fill="none" points="507.4412,70.1105,527.0425,62.0612,516.739,80.5771,507.4412,70.1105" style="stroke: #A80036; stroke-width: 1.0;"/><text fill="#888888" font-family="sans-serif" font-size="10" lengthAdjust="spacingAndGlyphs" textLength="188" x="208.5" y="319.5742">UMLDoclet 2.0.12, PlantUML 1.2020.16</text><!--MD5=[5f0297234d23bdd2c6ea78279dcf99a7]
@startuml
    set namespaceSeparator none
    hide empty fields
    hide empty methods

    abstract class "<size:14>MessageSupport\n<size:10>it.tidalwave.actor" as it.tidalwave.actor.MessageSupport [[MessageSupport.html]] {
        #collaboration: DefaultCollaboration
        #MessageSupport()
        #MessageSupport(Collaboration)
        +getCollaboration(): Collaboration
        +send(): Collaboration
        +sendDirectly(): Collaboration
        +sendLater(int, TimeUnit): Collaboration
        +as(Class<T>): T
    }

    interface "<size:14>Collaboration.Provider\n<size:10>it.tidalwave.actor" as it.tidalwave.actor.Collaboration.Provider [[Collaboration.Provider.html]] {
        {abstract} +getCollaboration(): Collaboration
    }
    interface "<size:14>As\n<size:10>it.tidalwave.util" as it.tidalwave.util.As [[http://tidalwave.it/projects/thesefoolishthings/modules/it-tidalwave-util/apidocs/it/tidalwave/util/As.html?is-external=true]] {
        {abstract} +maybeAs(Class<T>): Optional<T>
        {abstract} +asMany(Class<T>): Collection<T>
    }
    interface "<size:14>Serializable\n<size:10>java.io" as java.io.Serializable

    it.tidalwave.actor.Collaboration.Provider <|.. it.tidalwave.actor.MessageSupport
    it.tidalwave.util.As <|.. it.tidalwave.actor.MessageSupport
    java.io.Serializable <|.. it.tidalwave.actor.MessageSupport

    center footer UMLDoclet 2.0.12, PlantUML 1.2020.16
@enduml

PlantUML version 1.2020.16(Sun Aug 23 22:20:43 CEST 2020)
(APACHE source distribution)
Java Runtime: OpenJDK Runtime Environment
JVM: OpenJDK 64-Bit Server VM
Default Encoding: UTF-8
Language: en
Country: GB
--></g></svg>