<?xml version="1.0" encoding="UTF-8" standalone="no"?><svg xmlns="http://www.w3.org/2000/svg" xmlns:xlink="http://www.w3.org/1999/xlink" contentScriptType="application/ecmascript" contentStyleType="text/css" height="146px" preserveAspectRatio="none" style="width:449px;height:146px;" version="1.1" viewBox="0 0 449 146" width="449px" zoomAndPan="magnify"><defs><filter height="300%" id="f14nerdqvgxsle" width="300%" x="-1" y="-1"><feGaussianBlur result="blurOut" stdDeviation="2.0"/><feColorMatrix in="blurOut" result="blurOut2" type="matrix" values="0 0 0 0 0 0 0 0 0 0 0 0 0 0 0 0 0 0 .4 0"/><feOffset dx="4.0" dy="4.0" in="blurOut2" result="blurOut3"/><feBlend in="SourceGraphic" in2="blurOut3" mode="normal"/></filter></defs><g><!--MD5=[6bd818e0eb43c21488fdd46a248cdfb3]
cluster it.tidalwave.thesefoolishthings.examples.dci.displayable--><polygon fill="#FFFFFF" filter="url(#f14nerdqvgxsle)" points="16,6,417,6,424,28.0986,427,28.0986,427,118,16,118,16,6" style="stroke: #000000; stroke-width: 1.5;"/><line style="stroke: #000000; stroke-width: 1.5;" x1="16" x2="424" y1="28.0986" y2="28.0986"/><text fill="#000000" font-family="sans-serif" font-size="14" font-weight="bold" lengthAdjust="spacingAndGlyphs" textLength="395" x="20" y="21.1318">it.tidalwave.thesefoolishthings.examples.dci.displayable</text><!--MD5=[20066b837a8d5fec1ecd0713ae552ee8]
class it.tidalwave.thesefoolishthings.examples.dci.displayable.MainTest--><a href="MainTest.html" target="_top" title="MainTest.html" xlink:actuate="onRequest" xlink:href="MainTest.html" xlink:show="new" xlink:title="MainTest.html" xlink:type="simple"><rect codeLine="3" fill="#FEFECE" filter="url(#f14nerdqvgxsle)" height="60.6489" id="it.tidalwave.thesefoolishthings.examples.dci.displayable.MainTest" style="stroke: #A80036; stroke-width: 1.5;" width="138" x="152" y="41"/><ellipse cx="192.2" cy="57" fill="#ADD1B2" rx="11" ry="11" style="stroke: #A80036; stroke-width: 1.0;"/><path d="M190.1063,56.8438 Q190.1063,58.7188 190.6844,59.7344 Q191.2625,60.7344 192.4188,60.7344 Q193.7625,60.7344 194.4188,58.7188 L196.6844,59.1406 Q195.575,62.6719 192.4031,62.6719 Q190.0594,62.6719 188.8406,61.1875 Q187.6219,59.7031 187.6219,56.8438 Q187.6219,51.125 192.325,51.125 Q193.8719,51.125 194.9031,51.9375 Q195.95,52.75 196.45,54.3594 L194.1844,54.9063 Q193.95,54.0313 193.4656,53.5469 Q192.9813,53.0469 192.3563,53.0469 Q190.1063,53.0469 190.1063,56.8438 Z "/><text fill="#000000" font-family="sans-serif" font-size="12" lengthAdjust="spacingAndGlyphs" textLength="50" x="211.8" y="61.3564">MainTest</text><line style="stroke: #A80036; stroke-width: 1.5;" x1="153" x2="289" y1="73" y2="73"/><line style="stroke: #A80036; stroke-width: 1.5;" x1="153" x2="289" y1="81" y2="81"/><ellipse cx="163" cy="92" fill="#84BE84" rx="3" ry="3" style="stroke: #038048; stroke-width: 1.0;"/><text fill="#000000" font-family="sans-serif" font-size="11" lengthAdjust="spacingAndGlyphs" textLength="112" x="172" y="95.3179">must_not_crash(): void</text></a><text fill="#888888" font-family="sans-serif" font-size="10" lengthAdjust="spacingAndGlyphs" textLength="190" x="120.5" y="133.3799">UMLDoclet 2.0.12, PlantUML 1.2020.16</text><!--MD5=[18fefdba0ea33b54be4a548551ffaa33]
@startuml
    namespace it.tidalwave.thesefoolishthings.examples.dci.displayable {

        class MainTest [[MainTest.html]] {
            +must_not_crash(): void
        }

    }

    center footer UMLDoclet 2.0.12, PlantUML 1.2020.16
@enduml

PlantUML version 1.2020.16(Sun Aug 23 22:20:43 CEST 2020)
(APACHE source distribution)
Java Runtime: OpenJDK Runtime Environment
JVM: OpenJDK 64-Bit Server VM
Default Encoding: UTF-8
Language: en
Country: US
--></g></svg>