@startuml
    set namespaceSeparator none
    hide empty fields
    hide empty methods

    class "<size:14>JavaFXContentExplorerPresentation\n<size:10>it.tidalwave.northernwind.rca.ui.impl.javafx.contentexplorer" as it.tidalwave.northernwind.rca.ui.impl.javafx.contentexplorer.JavaFXContentExplorerPresentation [[JavaFXContentExplorerPresentation.html]] {
    }

    interface "<size:14>ContentExplorerPresentation\n<size:10>it.tidalwave.northernwind.rca.ui.contentexplorer" as it.tidalwave.northernwind.rca.ui.contentexplorer.ContentExplorerPresentation [[http://tidalwave.tidalwave.it/northernwind-rca/northernwind-rca-modules/it-tidalwave-northernwind-rca-ui-content-explorer/apidocs/it/tidalwave/northernwind/rca/ui/contentexplorer/ContentExplorerPresentation.html?is-external=true]] {
        {abstract} +populate(PresentationModel): void
        {abstract} +expandFirstLevel(): void
    }

    it.tidalwave.northernwind.rca.ui.contentexplorer.ContentExplorerPresentation <|.. it.tidalwave.northernwind.rca.ui.impl.javafx.contentexplorer.JavaFXContentExplorerPresentation

    center footer UMLDoclet 2.0.12, PlantUML 1.2020.16
@enduml
