@startuml
    set namespaceSeparator none
    hide empty fields
    hide empty methods

    class "<size:14>JavaFXSiteOpenerPresentationDelegate\n<size:10>it.tidalwave.northernwind.rca.ui.impl.javafx.siteopener" as it.tidalwave.northernwind.rca.ui.impl.javafx.siteopener.JavaFXSiteOpenerPresentationDelegate [[JavaFXSiteOpenerPresentationDelegate.html]] {
        +bind(Bindings): void
        +notifyInvitationToSelectAFolder(UserNotificationWithFeedback): void
    }

    interface "<size:14>SiteOpenerPresentation\n<size:10>it.tidalwave.northernwind.rca.ui.siteopener" as it.tidalwave.northernwind.rca.ui.siteopener.SiteOpenerPresentation [[http://tidalwave.tidalwave.it/northernwind-rca/northernwind-rca-modules/it-tidalwave-northernwind-rca-ui-site-opener/apidocs/it/tidalwave/northernwind/rca/ui/siteopener/SiteOpenerPresentation.html?is-external=true]] {
        {abstract} +bind(Bindings): void
        {abstract} +notifyInvitationToSelectAFolder(UserNotificationWithFeedback): void
    }

    it.tidalwave.northernwind.rca.ui.siteopener.SiteOpenerPresentation <|.. it.tidalwave.northernwind.rca.ui.impl.javafx.siteopener.JavaFXSiteOpenerPresentationDelegate

    center footer UMLDoclet 2.0.12, PlantUML 1.2020.16
@enduml
