GROUP,PACKAGE,CLASS,INSTRUCTION_MISSED,INSTRUCTION_COVERED,BRANCH_MISSED,BRANCH_COVERED,LINE_MISSED,LINE_COVERED,COMPLEXITY_MISSED,COMPLEXITY_COVERED,METHOD_MISSED,METHOD_COVERED
TheseFoolishThings :: Examples :: Finder :: JPA Finder,it.tidalwave.thesefoolishthings.examples.jpafinderexample.role,Findable,4,3,0,0,1,1,1,1,1,1
TheseFoolishThings :: Examples :: Finder :: JPA Finder,it.tidalwave.thesefoolishthings.examples.jpafinderexample.impl,JpaPersonRegistry,0,21,0,0,0,3,0,3,0,3
TheseFoolishThings :: Examples :: Finder :: JPA Finder,it.tidalwave.thesefoolishthings.examples.jpafinderexample.impl,PersonJpaPersistable,0,7,0,0,0,2,0,1,0,1
TheseFoolishThings :: Examples :: Finder :: JPA Finder,it.tidalwave.thesefoolishthings.examples.jpafinderexample.impl,TxManagerImpl,10,32,2,0,4,11,1,3,0,3
TheseFoolishThings :: Examples :: Finder :: JPA Finder,it.tidalwave.thesefoolishthings.examples.jpafinderexample.impl,PersonEntity,0,29,0,0,0,6,0,2,0,2
TheseFoolishThings :: Examples :: Finder :: JPA Finder,it.tidalwave.thesefoolishthings.examples.jpafinderexample.impl,JpaFinder.JpaqlSortCriterion,0,20,0,4,0,2,0,3,0,1
TheseFoolishThings :: Examples :: Finder :: JPA Finder,it.tidalwave.thesefoolishthings.examples.jpafinderexample.impl,JpaPersistableSupport,26,9,0,0,4,1,4,1,4,1
TheseFoolishThings :: Examples :: Finder :: JPA Finder,it.tidalwave.thesefoolishthings.examples.jpafinderexample.impl,JpaFinder,42,164,3,1,9,20,5,12,3,12
TheseFoolishThings :: Examples :: Finder :: JPA Finder,it.tidalwave.thesefoolishthings.examples.jpafinderexample,PersonRegistry3,0,5,0,0,0,2,0,1,0,1
TheseFoolishThings :: Examples :: Finder :: JPA Finder,it.tidalwave.thesefoolishthings.examples.jpafinderexample,Main,3,85,0,0,1,22,1,2,1,2
TheseFoolishThings :: Examples :: Finder :: JPA Finder,it.tidalwave.thesefoolishthings.examples.jpafinderexample,HardwiredSystemRoleFactoryProvider.HardwiredRoleFactory,0,7,0,0,0,3,0,2,0,2
TheseFoolishThings :: Examples :: Finder :: JPA Finder,it.tidalwave.thesefoolishthings.examples.jpafinderexample,TxManager.__,3,4,0,0,1,1,1,1,1,1
TheseFoolishThings :: Examples :: Finder :: JPA Finder,it.tidalwave.thesefoolishthings.examples.jpafinderexample,TxManager,1,15,0,0,1,5,1,3,1,3
TheseFoolishThings :: Examples :: Finder :: JPA Finder,it.tidalwave.thesefoolishthings.examples.jpafinderexample,HardwiredSystemRoleFactoryProvider,0,15,0,0,0,5,0,3,0,3
