<?xml version="1.0" encoding="UTF-8" standalone="no"?><svg xmlns="http://www.w3.org/2000/svg" xmlns:xlink="http://www.w3.org/1999/xlink" contentScriptType="application/ecmascript" contentStyleType="text/css" height="425px" preserveAspectRatio="none" style="width:2499px;height:425px;" version="1.1" viewBox="0 0 2499 425" width="2499px" zoomAndPan="magnify"><defs><filter height="300%" id="f124gws3wo0gu7" width="300%" x="-1" y="-1"><feGaussianBlur result="blurOut" stdDeviation="2.0"/><feColorMatrix in="blurOut" result="blurOut2" type="matrix" values="0 0 0 0 0 0 0 0 0 0 0 0 0 0 0 0 0 0 .4 0"/><feOffset dx="4.0" dy="4.0" in="blurOut2" result="blurOut3"/><feBlend in="SourceGraphic" in2="blurOut3" mode="normal"/></filter></defs><g><!--MD5=[233f81fedd7104b5e424dfaba4ae35c9]
cluster it.tidalwave.thesefoolishthings.examples.dci.marshal.role--><polygon fill="#FFFFFF" filter="url(#f124gws3wo0gu7)" points="16,140,431,140,438,162.4883,2477,162.4883,2477,396,16,396,16,140" style="stroke: #000000; stroke-width: 1.5;"/><line style="stroke: #000000; stroke-width: 1.5;" x1="16" x2="438" y1="162.4883" y2="162.4883"/><text fill="#000000" font-family="sans-serif" font-size="14" font-weight="bold" lengthAdjust="spacingAndGlyphs" textLength="409" x="20" y="155.5352">it.tidalwave.thesefoolishthings.examples.dci.marshal.role</text><!--MD5=[f624c859ad0e1eb814b90c4c4550318d]
cluster it.tidalwave.role.io--><polygon fill="#FFFFFF" filter="url(#f124gws3wo0gu7)" points="1140,6,1277,6,1284,28.4883,1674,28.4883,1674,115,1140,115,1140,6" style="stroke: #000000; stroke-width: 1.5;"/><line style="stroke: #000000; stroke-width: 1.5;" x1="1140" x2="1284" y1="28.4883" y2="28.4883"/><text fill="#000000" font-family="sans-serif" font-size="14" font-weight="bold" lengthAdjust="spacingAndGlyphs" textLength="131" x="1144" y="21.5352">it.tidalwave.role.io</text><!--MD5=[eddfbe9831153fdcf5049fde5211410a]
class it.tidalwave.thesefoolishthings.examples.dci.marshal.role.MarshallableLoadable--><a href="MarshallableLoadable.html" target="_top" title="MarshallableLoadable.html" xlink:actuate="onRequest" xlink:href="MarshallableLoadable.html" xlink:show="new" xlink:title="MarshallableLoadable.html" xlink:type="simple"><rect codeLine="3" fill="#FEFECE" filter="url(#f124gws3wo0gu7)" height="73.9102" id="it.tidalwave.thesefoolishthings.examples.dci.marshal.role.MarshallableLoadable" style="stroke: #A80036; stroke-width: 1.5;" width="250" x="24" y="314"/><ellipse cx="81.75" cy="330" fill="#ADD1B2" rx="11" ry="11" style="stroke: #A80036; stroke-width: 1.0;"/><path d="M84.2231,336.1431 Q83.6421,336.4419 83.0029,336.5913 Q82.3638,336.7407 81.6582,336.7407 Q79.1514,336.7407 77.8315,335.0889 Q76.5117,333.437 76.5117,330.3159 Q76.5117,327.1865 77.8315,325.5347 Q79.1514,323.8828 81.6582,323.8828 Q82.3638,323.8828 83.0112,324.0322 Q83.6587,324.1816 84.2231,324.4805 L84.2231,327.2031 Q83.5923,326.6221 82.9988,326.3523 Q82.4053,326.0825 81.7744,326.0825 Q80.4297,326.0825 79.7449,327.1492 Q79.0601,328.2158 79.0601,330.3159 Q79.0601,332.4077 79.7449,333.4744 Q80.4297,334.541 81.7744,334.541 Q82.4053,334.541 82.9988,334.2712 Q83.5923,334.0015 84.2231,333.4204 Z "/><text fill="#000000" font-family="sans-serif" font-size="12" lengthAdjust="spacingAndGlyphs" textLength="126" x="102.25" y="334.5352">MarshallableLoadable</text><line style="stroke: #A80036; stroke-width: 1.5;" x1="25" x2="273" y1="346" y2="346"/><line style="stroke: #A80036; stroke-width: 1.5;" x1="25" x2="273" y1="354" y2="354"/><ellipse cx="35" cy="365" fill="#84BE84" rx="3" ry="3" style="stroke: #038048; stroke-width: 1.0;"/><text fill="#000000" font-family="sans-serif" font-size="11" lengthAdjust="spacingAndGlyphs" textLength="158" x="44" y="368.6348">MarshallableLoadable(Object)</text><ellipse cx="35" cy="377.9551" fill="#84BE84" rx="3" ry="3" style="stroke: #038048; stroke-width: 1.0;"/><text fill="#000000" font-family="sans-serif" font-size="11" lengthAdjust="spacingAndGlyphs" textLength="224" x="44" y="381.5898">loadFrom(Path, Charset, OpenOption...): T</text></a><!--MD5=[cc58f2cae0ad43b9a7b553b248beb807]
class it.tidalwave.thesefoolishthings.examples.dci.marshal.role.PersonXStreamMarshallable--><a href="PersonXStreamMarshallable.html" target="_top" title="PersonXStreamMarshallable.html" xlink:actuate="onRequest" xlink:href="PersonXStreamMarshallable.html" xlink:show="new" xlink:title="PersonXStreamMarshallable.html" xlink:type="simple"><rect codeLine="8" fill="#FEFECE" filter="url(#f124gws3wo0gu7)" height="60.9551" id="it.tidalwave.thesefoolishthings.examples.dci.marshal.role.PersonXStreamMarshallable" style="stroke: #A80036; stroke-width: 1.5;" width="312" x="643" y="320.5"/><ellipse cx="714.75" cy="336.5" fill="#ADD1B2" rx="11" ry="11" style="stroke: #A80036; stroke-width: 1.0;"/><path d="M717.2231,342.6431 Q716.6421,342.9419 716.0029,343.0913 Q715.3638,343.2407 714.6582,343.2407 Q712.1514,343.2407 710.8315,341.5889 Q709.5117,339.937 709.5117,336.8159 Q709.5117,333.6865 710.8315,332.0347 Q712.1514,330.3828 714.6582,330.3828 Q715.3638,330.3828 716.0112,330.5322 Q716.6587,330.6816 717.2231,330.9805 L717.2231,333.7031 Q716.5923,333.1221 715.9988,332.8523 Q715.4053,332.5825 714.7744,332.5825 Q713.4297,332.5825 712.7449,333.6492 Q712.0601,334.7158 712.0601,336.8159 Q712.0601,338.9077 712.7449,339.9744 Q713.4297,341.041 714.7744,341.041 Q715.4053,341.041 715.9988,340.7712 Q716.5923,340.5015 717.2231,339.9204 Z "/><text fill="#000000" font-family="sans-serif" font-size="12" lengthAdjust="spacingAndGlyphs" textLength="160" x="735.25" y="341.0352">PersonXStreamMarshallable</text><line style="stroke: #A80036; stroke-width: 1.5;" x1="644" x2="954" y1="352.5" y2="352.5"/><line style="stroke: #A80036; stroke-width: 1.5;" x1="644" x2="954" y1="360.5" y2="360.5"/><ellipse cx="654" cy="371.5" fill="#84BE84" rx="3" ry="3" style="stroke: #038048; stroke-width: 1.0;"/><text fill="#000000" font-family="sans-serif" font-size="11" lengthAdjust="spacingAndGlyphs" textLength="286" x="663" y="375.1348">PersonXStreamMarshallable(Person, XStreamContext)</text></a><!--MD5=[2359ff398a9b5cd16c37cdfe28513f75]
class it.tidalwave.thesefoolishthings.examples.dci.marshal.role.Savable--><a href="Savable.html" target="_top" title="Savable.html" xlink:actuate="onRequest" xlink:href="Savable.html" xlink:show="new" xlink:title="Savable.html" xlink:type="simple"><rect codeLine="12" fill="#FEFECE" filter="url(#f124gws3wo0gu7)" height="86.8652" id="it.tidalwave.thesefoolishthings.examples.dci.marshal.role.Savable" style="stroke: #A80036; stroke-width: 1.5;" width="253" x="2215.5" y="167"/><ellipse cx="2315.75" cy="183" fill="#B4A7E5" rx="11" ry="11" style="stroke: #A80036; stroke-width: 1.0;"/><path d="M2312.1777,179.2651 L2312.1777,177.1069 L2319.5571,177.1069 L2319.5571,179.2651 L2317.0918,179.2651 L2317.0918,187.3418 L2319.5571,187.3418 L2319.5571,189.5 L2312.1777,189.5 L2312.1777,187.3418 L2314.6431,187.3418 L2314.6431,179.2651 Z "/><text fill="#000000" font-family="sans-serif" font-size="12" font-style="italic" lengthAdjust="spacingAndGlyphs" textLength="44" x="2336.25" y="187.5352">Savable</text><line style="stroke: #A80036; stroke-width: 1.5;" x1="2216.5" x2="2467.5" y1="199" y2="199"/><ellipse cx="2226.5" cy="210" fill="none" rx="3" ry="3" style="stroke: #038048; stroke-width: 1.0;"/><text fill="#000000" font-family="sans-serif" font-size="11" lengthAdjust="spacingAndGlyphs" text-decoration="underline" textLength="145" x="2235.5" y="213.6348">_Savable_: Class&lt;Savable&gt;</text><line style="stroke: #A80036; stroke-width: 1.5;" x1="2216.5" x2="2467.5" y1="219.9551" y2="219.9551"/><ellipse cx="2226.5" cy="230.9551" fill="#84BE84" rx="3" ry="3" style="stroke: #038048; stroke-width: 1.0;"/><text fill="#000000" font-family="sans-serif" font-size="11" lengthAdjust="spacingAndGlyphs" textLength="98" x="2235.5" y="234.5898">saveTo(Path): void</text><ellipse cx="2226.5" cy="243.9102" fill="#84BE84" rx="3" ry="3" style="stroke: #038048; stroke-width: 1.0;"/><text fill="#000000" font-family="sans-serif" font-size="11" font-style="italic" lengthAdjust="spacingAndGlyphs" textLength="227" x="2235.5" y="247.5449">saveTo(Path, Charset, OpenOption...): void</text></a><!--MD5=[cb3d22d91817004d717be42ba854d452]
class it.tidalwave.thesefoolishthings.examples.dci.marshal.role.MarshallableSavable--><a href="MarshallableSavable.html" target="_top" title="MarshallableSavable.html" xlink:actuate="onRequest" xlink:href="MarshallableSavable.html" xlink:show="new" xlink:title="MarshallableSavable.html" xlink:type="simple"><rect codeLine="18" fill="#FEFECE" filter="url(#f124gws3wo0gu7)" height="73.9102" id="it.tidalwave.thesefoolishthings.examples.dci.marshal.role.MarshallableSavable" style="stroke: #A80036; stroke-width: 1.5;" width="253" x="2215.5" y="314"/><ellipse cx="2279.25" cy="330" fill="#ADD1B2" rx="11" ry="11" style="stroke: #A80036; stroke-width: 1.0;"/><path d="M2281.7231,336.1431 Q2281.1421,336.4419 2280.5029,336.5913 Q2279.8638,336.7407 2279.1582,336.7407 Q2276.6514,336.7407 2275.3315,335.0889 Q2274.0117,333.437 2274.0117,330.3159 Q2274.0117,327.1865 2275.3315,325.5347 Q2276.6514,323.8828 2279.1582,323.8828 Q2279.8638,323.8828 2280.5112,324.0322 Q2281.1587,324.1816 2281.7231,324.4805 L2281.7231,327.2031 Q2281.0923,326.6221 2280.4988,326.3523 Q2279.9053,326.0825 2279.2744,326.0825 Q2277.9297,326.0825 2277.2449,327.1492 Q2276.5601,328.2158 2276.5601,330.3159 Q2276.5601,332.4077 2277.2449,333.4744 Q2277.9297,334.541 2279.2744,334.541 Q2279.9053,334.541 2280.4988,334.2712 Q2281.0923,334.0015 2281.7231,333.4204 Z "/><text fill="#000000" font-family="sans-serif" font-size="12" lengthAdjust="spacingAndGlyphs" textLength="117" x="2299.75" y="334.5352">MarshallableSavable</text><line style="stroke: #A80036; stroke-width: 1.5;" x1="2216.5" x2="2467.5" y1="346" y2="346"/><line style="stroke: #A80036; stroke-width: 1.5;" x1="2216.5" x2="2467.5" y1="354" y2="354"/><ellipse cx="2226.5" cy="365" fill="#84BE84" rx="3" ry="3" style="stroke: #038048; stroke-width: 1.0;"/><text fill="#000000" font-family="sans-serif" font-size="11" lengthAdjust="spacingAndGlyphs" textLength="150" x="2235.5" y="368.6348">MarshallableSavable(Object)</text><ellipse cx="2226.5" cy="377.9551" fill="#84BE84" rx="3" ry="3" style="stroke: #038048; stroke-width: 1.0;"/><text fill="#000000" font-family="sans-serif" font-size="11" lengthAdjust="spacingAndGlyphs" textLength="227" x="2235.5" y="381.5898">saveTo(Path, Charset, OpenOption...): void</text></a><!--MD5=[3a538ebd2e48893826b3cd9433e5e0ea]
class it.tidalwave.thesefoolishthings.examples.dci.marshal.role.XStreamUnmarshallableSupport--><a href="XStreamUnmarshallableSupport.html" target="_top" title="XStreamUnmarshallableSupport.html" xlink:actuate="onRequest" xlink:href="XStreamUnmarshallableSupport.html" xlink:show="new" xlink:title="XStreamUnmarshallableSupport.html" xlink:type="simple"><rect codeLine="23" fill="#FEFECE" filter="url(#f124gws3wo0gu7)" height="60.9551" id="it.tidalwave.thesefoolishthings.examples.dci.marshal.role.XStreamUnmarshallableSupport" style="stroke: #A80036; stroke-width: 1.5;" width="226" x="1502" y="180"/><ellipse cx="1517" cy="196" fill="#A9DCDF" rx="11" ry="11" style="stroke: #A80036; stroke-width: 1.0;"/><path d="M1516.8633,191.3481 L1515.7095,196.4199 L1518.0254,196.4199 Z M1515.3691,189.1069 L1518.3657,189.1069 L1521.7109,201.5 L1519.2622,201.5 L1518.4985,198.437 L1515.2197,198.437 L1514.4727,201.5 L1512.0239,201.5 Z "/><text fill="#000000" font-family="sans-serif" font-size="12" font-style="italic" lengthAdjust="spacingAndGlyphs" textLength="182" x="1531" y="200.5352">XStreamUnmarshallableSupport</text><rect fill="#FFFFFF" height="16.1328" style="stroke: #000000; stroke-width: 1.0; stroke-dasharray: 2.0,2.0;" width="10" x="1721" y="177"/><text fill="#000000" font-family="sans-serif" font-size="12" font-style="italic" lengthAdjust="spacingAndGlyphs" textLength="8" x="1722" y="189.6016">T</text><line style="stroke: #A80036; stroke-width: 1.5;" x1="1503" x2="1727" y1="212" y2="212"/><line style="stroke: #A80036; stroke-width: 1.5;" x1="1503" x2="1727" y1="220" y2="220"/><ellipse cx="1513" cy="231" fill="#84BE84" rx="3" ry="3" style="stroke: #038048; stroke-width: 1.0;"/><text fill="#000000" font-family="sans-serif" font-size="11" lengthAdjust="spacingAndGlyphs" textLength="143" x="1522" y="234.6348">unmarshal(InputStream): T</text></a><!--MD5=[4187b0bf3f72957bb00af553f8af2dab]
class it.tidalwave.thesefoolishthings.examples.dci.marshal.role.ListOfPersonsXStreamMarshallable--><a href="ListOfPersonsXStreamMarshallable.html" target="_top" title="ListOfPersonsXStreamMarshallable.html" xlink:actuate="onRequest" xlink:href="ListOfPersonsXStreamMarshallable.html" xlink:show="new" xlink:title="ListOfPersonsXStreamMarshallable.html" xlink:type="simple"><rect codeLine="27" fill="#FEFECE" filter="url(#f124gws3wo0gu7)" height="60.9551" id="it.tidalwave.thesefoolishthings.examples.dci.marshal.role.ListOfPersonsXStreamMarshallable" style="stroke: #A80036; stroke-width: 1.5;" width="388" x="990" y="320.5"/><ellipse cx="1080.75" cy="336.5" fill="#ADD1B2" rx="11" ry="11" style="stroke: #A80036; stroke-width: 1.0;"/><path d="M1083.2231,342.6431 Q1082.6421,342.9419 1082.0029,343.0913 Q1081.3638,343.2407 1080.6582,343.2407 Q1078.1514,343.2407 1076.8315,341.5889 Q1075.5117,339.937 1075.5117,336.8159 Q1075.5117,333.6865 1076.8315,332.0347 Q1078.1514,330.3828 1080.6582,330.3828 Q1081.3638,330.3828 1082.0112,330.5322 Q1082.6587,330.6816 1083.2231,330.9805 L1083.2231,333.7031 Q1082.5923,333.1221 1081.9988,332.8523 Q1081.4053,332.5825 1080.7744,332.5825 Q1079.4297,332.5825 1078.7449,333.6492 Q1078.0601,334.7158 1078.0601,336.8159 Q1078.0601,338.9077 1078.7449,339.9744 Q1079.4297,341.041 1080.7744,341.041 Q1081.4053,341.041 1081.9988,340.7712 Q1082.5923,340.5015 1083.2231,339.9204 Z "/><text fill="#000000" font-family="sans-serif" font-size="12" lengthAdjust="spacingAndGlyphs" textLength="198" x="1101.25" y="341.0352">ListOfPersonsXStreamMarshallable</text><line style="stroke: #A80036; stroke-width: 1.5;" x1="991" x2="1377" y1="352.5" y2="352.5"/><line style="stroke: #A80036; stroke-width: 1.5;" x1="991" x2="1377" y1="360.5" y2="360.5"/><ellipse cx="1001" cy="371.5" fill="#84BE84" rx="3" ry="3" style="stroke: #038048; stroke-width: 1.0;"/><text fill="#000000" font-family="sans-serif" font-size="11" lengthAdjust="spacingAndGlyphs" textLength="362" x="1010" y="375.1348">ListOfPersonsXStreamMarshallable(ListOfPersons, XStreamContext)</text></a><!--MD5=[e0f6fce4b516d1c8a41b1dd27946bb49]
class it.tidalwave.thesefoolishthings.examples.dci.marshal.role.XStreamMarshallableSupport--><a href="XStreamMarshallableSupport.html" target="_top" title="XStreamMarshallableSupport.html" xlink:actuate="onRequest" xlink:href="XStreamMarshallableSupport.html" xlink:show="new" xlink:title="XStreamMarshallableSupport.html" xlink:type="simple"><rect codeLine="31" fill="#FEFECE" filter="url(#f124gws3wo0gu7)" height="60.9551" id="it.tidalwave.thesefoolishthings.examples.dci.marshal.role.XStreamMarshallableSupport" style="stroke: #A80036; stroke-width: 1.5;" width="210" x="1079" y="180"/><ellipse cx="1094" cy="196" fill="#A9DCDF" rx="11" ry="11" style="stroke: #A80036; stroke-width: 1.0;"/><path d="M1093.8633,191.3481 L1092.7095,196.4199 L1095.0254,196.4199 Z M1092.3691,189.1069 L1095.3657,189.1069 L1098.7109,201.5 L1096.2622,201.5 L1095.4985,198.437 L1092.2197,198.437 L1091.4727,201.5 L1089.0239,201.5 Z "/><text fill="#000000" font-family="sans-serif" font-size="12" font-style="italic" lengthAdjust="spacingAndGlyphs" textLength="166" x="1108" y="200.5352">XStreamMarshallableSupport</text><rect fill="#FFFFFF" height="16.1328" style="stroke: #000000; stroke-width: 1.0; stroke-dasharray: 2.0,2.0;" width="10" x="1282" y="177"/><text fill="#000000" font-family="sans-serif" font-size="12" font-style="italic" lengthAdjust="spacingAndGlyphs" textLength="8" x="1283" y="189.6016">T</text><line style="stroke: #A80036; stroke-width: 1.5;" x1="1080" x2="1288" y1="212" y2="212"/><line style="stroke: #A80036; stroke-width: 1.5;" x1="1080" x2="1288" y1="220" y2="220"/><ellipse cx="1090" cy="231" fill="#84BE84" rx="3" ry="3" style="stroke: #038048; stroke-width: 1.0;"/><text fill="#000000" font-family="sans-serif" font-size="11" lengthAdjust="spacingAndGlyphs" textLength="155" x="1099" y="234.6348">marshal(OutputStream): void</text></a><!--MD5=[41d0c57d17707017761ef1170f3de101]
class it.tidalwave.thesefoolishthings.examples.dci.marshal.role.XStreamContext--><a href="XStreamContext.html" target="_top" title="XStreamContext.html" xlink:actuate="onRequest" xlink:href="XStreamContext.html" xlink:show="new" xlink:title="XStreamContext.html" xlink:type="simple"><rect codeLine="35" fill="#FEFECE" filter="url(#f124gws3wo0gu7)" height="60.9551" id="it.tidalwave.thesefoolishthings.examples.dci.marshal.role.XStreamContext" style="stroke: #A80036; stroke-width: 1.5;" width="145" x="389.5" y="180"/><ellipse cx="413.95" cy="196" fill="#B4A7E5" rx="11" ry="11" style="stroke: #A80036; stroke-width: 1.0;"/><path d="M410.3777,192.2651 L410.3777,190.1069 L417.7571,190.1069 L417.7571,192.2651 L415.2918,192.2651 L415.2918,200.3418 L417.7571,200.3418 L417.7571,202.5 L410.3777,202.5 L410.3777,200.3418 L412.8431,200.3418 L412.8431,192.2651 Z "/><text fill="#000000" font-family="sans-serif" font-size="12" font-style="italic" lengthAdjust="spacingAndGlyphs" textLength="92" x="430.05" y="200.5352">XStreamContext</text><line style="stroke: #A80036; stroke-width: 1.5;" x1="390.5" x2="533.5" y1="212" y2="212"/><line style="stroke: #A80036; stroke-width: 1.5;" x1="390.5" x2="533.5" y1="220" y2="220"/><ellipse cx="400.5" cy="231" fill="#84BE84" rx="3" ry="3" style="stroke: #038048; stroke-width: 1.0;"/><text fill="#000000" font-family="sans-serif" font-size="11" font-style="italic" lengthAdjust="spacingAndGlyphs" textLength="119" x="409.5" y="234.6348">getXStream(): XStream</text></a><!--MD5=[3e524311970916bec8d9c0cf56711668]
class it.tidalwave.thesefoolishthings.examples.dci.marshal.role.XStreamContext1--><a href="XStreamContext1.html" target="_top" title="XStreamContext1.html" xlink:actuate="onRequest" xlink:href="XStreamContext1.html" xlink:show="new" xlink:title="XStreamContext1.html" xlink:type="simple"><rect codeLine="39" fill="#FEFECE" filter="url(#f124gws3wo0gu7)" height="48" id="it.tidalwave.thesefoolishthings.examples.dci.marshal.role.XStreamContext1" style="stroke: #A80036; stroke-width: 1.5;" width="132" x="309" y="327"/><ellipse cx="324" cy="343" fill="#ADD1B2" rx="11" ry="11" style="stroke: #A80036; stroke-width: 1.0;"/><path d="M326.4731,349.1431 Q325.8921,349.4419 325.2529,349.5913 Q324.6138,349.7407 323.9082,349.7407 Q321.4014,349.7407 320.0815,348.0889 Q318.7617,346.437 318.7617,343.3159 Q318.7617,340.1865 320.0815,338.5347 Q321.4014,336.8828 323.9082,336.8828 Q324.6138,336.8828 325.2612,337.0322 Q325.9087,337.1816 326.4731,337.4805 L326.4731,340.2031 Q325.8423,339.6221 325.2488,339.3523 Q324.6553,339.0825 324.0244,339.0825 Q322.6797,339.0825 321.9949,340.1492 Q321.3101,341.2158 321.3101,343.3159 Q321.3101,345.4077 321.9949,346.4744 Q322.6797,347.541 324.0244,347.541 Q324.6553,347.541 325.2488,347.2712 Q325.8423,347.0015 326.4731,346.4204 Z "/><text fill="#000000" font-family="sans-serif" font-size="12" lengthAdjust="spacingAndGlyphs" textLength="100" x="338" y="347.5352">XStreamContext1</text><line style="stroke: #A80036; stroke-width: 1.5;" x1="310" x2="440" y1="359" y2="359"/><line style="stroke: #A80036; stroke-width: 1.5;" x1="310" x2="440" y1="367" y2="367"/></a><!--MD5=[9903235556f0993872370632e3db5478]
class it.tidalwave.thesefoolishthings.examples.dci.marshal.role.ListOfPersonsXStreamUnmarshallable--><a href="ListOfPersonsXStreamUnmarshallable.html" target="_top" title="ListOfPersonsXStreamUnmarshallable.html" xlink:actuate="onRequest" xlink:href="ListOfPersonsXStreamUnmarshallable.html" xlink:show="new" xlink:title="ListOfPersonsXStreamUnmarshallable.html" xlink:type="simple"><rect codeLine="42" fill="#FEFECE" filter="url(#f124gws3wo0gu7)" height="60.9551" id="it.tidalwave.thesefoolishthings.examples.dci.marshal.role.ListOfPersonsXStreamUnmarshallable" style="stroke: #A80036; stroke-width: 1.5;" width="404" x="1413" y="320.5"/><ellipse cx="1503.75" cy="336.5" fill="#ADD1B2" rx="11" ry="11" style="stroke: #A80036; stroke-width: 1.0;"/><path d="M1506.2231,342.6431 Q1505.6421,342.9419 1505.0029,343.0913 Q1504.3638,343.2407 1503.6582,343.2407 Q1501.1514,343.2407 1499.8315,341.5889 Q1498.5117,339.937 1498.5117,336.8159 Q1498.5117,333.6865 1499.8315,332.0347 Q1501.1514,330.3828 1503.6582,330.3828 Q1504.3638,330.3828 1505.0112,330.5322 Q1505.6587,330.6816 1506.2231,330.9805 L1506.2231,333.7031 Q1505.5923,333.1221 1504.9988,332.8523 Q1504.4053,332.5825 1503.7744,332.5825 Q1502.4297,332.5825 1501.7449,333.6492 Q1501.0601,334.7158 1501.0601,336.8159 Q1501.0601,338.9077 1501.7449,339.9744 Q1502.4297,341.041 1503.7744,341.041 Q1504.4053,341.041 1504.9988,340.7712 Q1505.5923,340.5015 1506.2231,339.9204 Z "/><text fill="#000000" font-family="sans-serif" font-size="12" lengthAdjust="spacingAndGlyphs" textLength="214" x="1524.25" y="341.0352">ListOfPersonsXStreamUnmarshallable</text><line style="stroke: #A80036; stroke-width: 1.5;" x1="1414" x2="1816" y1="352.5" y2="352.5"/><line style="stroke: #A80036; stroke-width: 1.5;" x1="1414" x2="1816" y1="360.5" y2="360.5"/><ellipse cx="1424" cy="371.5" fill="#84BE84" rx="3" ry="3" style="stroke: #038048; stroke-width: 1.0;"/><text fill="#000000" font-family="sans-serif" font-size="11" lengthAdjust="spacingAndGlyphs" textLength="378" x="1433" y="375.1348">ListOfPersonsXStreamUnmarshallable(ListOfPersons, XStreamContext)</text></a><!--MD5=[da1ff61abec5d5bbe82a179d1c6b9936]
class it.tidalwave.thesefoolishthings.examples.dci.marshal.role.Loadable--><a href="Loadable.html" target="_top" title="Loadable.html" xlink:actuate="onRequest" xlink:href="Loadable.html" xlink:show="new" xlink:title="Loadable.html" xlink:type="simple"><rect codeLine="46" fill="#FEFECE" filter="url(#f124gws3wo0gu7)" height="86.8652" id="it.tidalwave.thesefoolishthings.examples.dci.marshal.role.Loadable" style="stroke: #A80036; stroke-width: 1.5;" width="250" x="24" y="167"/><ellipse cx="118.25" cy="183" fill="#B4A7E5" rx="11" ry="11" style="stroke: #A80036; stroke-width: 1.0;"/><path d="M114.6777,179.2651 L114.6777,177.1069 L122.0571,177.1069 L122.0571,179.2651 L119.5918,179.2651 L119.5918,187.3418 L122.0571,187.3418 L122.0571,189.5 L114.6777,189.5 L114.6777,187.3418 L117.1431,187.3418 L117.1431,179.2651 Z "/><text fill="#000000" font-family="sans-serif" font-size="12" font-style="italic" lengthAdjust="spacingAndGlyphs" textLength="53" x="138.75" y="187.5352">Loadable</text><line style="stroke: #A80036; stroke-width: 1.5;" x1="25" x2="273" y1="199" y2="199"/><ellipse cx="35" cy="210" fill="none" rx="3" ry="3" style="stroke: #038048; stroke-width: 1.0;"/><text fill="#000000" font-family="sans-serif" font-size="11" lengthAdjust="spacingAndGlyphs" text-decoration="underline" textLength="161" x="44" y="213.6348">_Loadable_: Class&lt;Loadable&gt;</text><line style="stroke: #A80036; stroke-width: 1.5;" x1="25" x2="273" y1="219.9551" y2="219.9551"/><ellipse cx="35" cy="230.9551" fill="#84BE84" rx="3" ry="3" style="stroke: #038048; stroke-width: 1.0;"/><text fill="#000000" font-family="sans-serif" font-size="11" lengthAdjust="spacingAndGlyphs" textLength="95" x="44" y="234.5898">loadFrom(Path): T</text><ellipse cx="35" cy="243.9102" fill="#84BE84" rx="3" ry="3" style="stroke: #038048; stroke-width: 1.0;"/><text fill="#000000" font-family="sans-serif" font-size="11" font-style="italic" lengthAdjust="spacingAndGlyphs" textLength="224" x="44" y="247.5449">loadFrom(Path, Charset, OpenOption...): T</text></a><!--MD5=[fba3df141c1476ee6deb18882dcaf270]
class it.tidalwave.thesefoolishthings.examples.dci.marshal.role.XStreamContext2--><a href="XStreamContext2.html" target="_top" title="XStreamContext2.html" xlink:actuate="onRequest" xlink:href="XStreamContext2.html" xlink:show="new" xlink:title="XStreamContext2.html" xlink:type="simple"><rect codeLine="52" fill="#FEFECE" filter="url(#f124gws3wo0gu7)" height="48" id="it.tidalwave.thesefoolishthings.examples.dci.marshal.role.XStreamContext2" style="stroke: #A80036; stroke-width: 1.5;" width="132" x="476" y="327"/><ellipse cx="491" cy="343" fill="#ADD1B2" rx="11" ry="11" style="stroke: #A80036; stroke-width: 1.0;"/><path d="M493.4731,349.1431 Q492.8921,349.4419 492.2529,349.5913 Q491.6138,349.7407 490.9082,349.7407 Q488.4014,349.7407 487.0815,348.0889 Q485.7617,346.437 485.7617,343.3159 Q485.7617,340.1865 487.0815,338.5347 Q488.4014,336.8828 490.9082,336.8828 Q491.6138,336.8828 492.2612,337.0322 Q492.9087,337.1816 493.4731,337.4805 L493.4731,340.2031 Q492.8423,339.6221 492.2488,339.3523 Q491.6553,339.0825 491.0244,339.0825 Q489.6797,339.0825 488.9949,340.1492 Q488.3101,341.2158 488.3101,343.3159 Q488.3101,345.4077 488.9949,346.4744 Q489.6797,347.541 491.0244,347.541 Q491.6553,347.541 492.2488,347.2712 Q492.8423,347.0015 493.4731,346.4204 Z "/><text fill="#000000" font-family="sans-serif" font-size="12" lengthAdjust="spacingAndGlyphs" textLength="100" x="505" y="347.5352">XStreamContext2</text><line style="stroke: #A80036; stroke-width: 1.5;" x1="477" x2="607" y1="359" y2="359"/><line style="stroke: #A80036; stroke-width: 1.5;" x1="477" x2="607" y1="367" y2="367"/></a><!--MD5=[be97a60809416c6a855ea39c3227960e]
class it.tidalwave.thesefoolishthings.examples.dci.marshal.role.PersonXStreamUnmarshallable--><a href="PersonXStreamUnmarshallable.html" target="_top" title="PersonXStreamUnmarshallable.html" xlink:actuate="onRequest" xlink:href="PersonXStreamUnmarshallable.html" xlink:show="new" xlink:title="PersonXStreamUnmarshallable.html" xlink:type="simple"><rect codeLine="55" fill="#FEFECE" filter="url(#f124gws3wo0gu7)" height="60.9551" id="it.tidalwave.thesefoolishthings.examples.dci.marshal.role.PersonXStreamUnmarshallable" style="stroke: #A80036; stroke-width: 1.5;" width="328" x="1852" y="320.5"/><ellipse cx="1923.75" cy="336.5" fill="#ADD1B2" rx="11" ry="11" style="stroke: #A80036; stroke-width: 1.0;"/><path d="M1926.2231,342.6431 Q1925.6421,342.9419 1925.0029,343.0913 Q1924.3638,343.2407 1923.6582,343.2407 Q1921.1514,343.2407 1919.8315,341.5889 Q1918.5117,339.937 1918.5117,336.8159 Q1918.5117,333.6865 1919.8315,332.0347 Q1921.1514,330.3828 1923.6582,330.3828 Q1924.3638,330.3828 1925.0112,330.5322 Q1925.6587,330.6816 1926.2231,330.9805 L1926.2231,333.7031 Q1925.5923,333.1221 1924.9988,332.8523 Q1924.4053,332.5825 1923.7744,332.5825 Q1922.4297,332.5825 1921.7449,333.6492 Q1921.0601,334.7158 1921.0601,336.8159 Q1921.0601,338.9077 1921.7449,339.9744 Q1922.4297,341.041 1923.7744,341.041 Q1924.4053,341.041 1924.9988,340.7712 Q1925.5923,340.5015 1926.2231,339.9204 Z "/><text fill="#000000" font-family="sans-serif" font-size="12" lengthAdjust="spacingAndGlyphs" textLength="176" x="1944.25" y="341.0352">PersonXStreamUnmarshallable</text><line style="stroke: #A80036; stroke-width: 1.5;" x1="1853" x2="2179" y1="352.5" y2="352.5"/><line style="stroke: #A80036; stroke-width: 1.5;" x1="1853" x2="2179" y1="360.5" y2="360.5"/><ellipse cx="1863" cy="371.5" fill="#84BE84" rx="3" ry="3" style="stroke: #038048; stroke-width: 1.0;"/><text fill="#000000" font-family="sans-serif" font-size="11" lengthAdjust="spacingAndGlyphs" textLength="302" x="1872" y="375.1348">PersonXStreamUnmarshallable(Person, XStreamContext)</text></a><!--MD5=[b3950ca7eb4308f1b70587082a242658]
class it.tidalwave.role.io.Unmarshallable--><a href="../../../../../role/io/Unmarshallable.html" target="_top" title="../../../../../role/io/Unmarshallable.html" xlink:actuate="onRequest" xlink:href="../../../../../role/io/Unmarshallable.html" xlink:show="new" xlink:title="../../../../../role/io/Unmarshallable.html" xlink:type="simple"><rect codeLine="72" fill="#FEFECE" filter="url(#f124gws3wo0gu7)" height="73.9102" id="it.tidalwave.role.io.Unmarshallable" style="stroke: #A80036; stroke-width: 1.5;" width="257" x="1408.5" y="33"/><ellipse cx="1488.25" cy="49" fill="#B4A7E5" rx="11" ry="11" style="stroke: #A80036; stroke-width: 1.0;"/><path d="M1484.6777,45.2651 L1484.6777,43.1069 L1492.0571,43.1069 L1492.0571,45.2651 L1489.5918,45.2651 L1489.5918,53.3418 L1492.0571,53.3418 L1492.0571,55.5 L1484.6777,55.5 L1484.6777,53.3418 L1487.1431,53.3418 L1487.1431,45.2651 Z "/><text fill="#000000" font-family="sans-serif" font-size="12" font-style="italic" lengthAdjust="spacingAndGlyphs" textLength="89" x="1508.75" y="53.5352">Unmarshallable</text><line style="stroke: #A80036; stroke-width: 1.5;" x1="1409.5" x2="1664.5" y1="65" y2="65"/><ellipse cx="1419.5" cy="76" fill="none" rx="3" ry="3" style="stroke: #038048; stroke-width: 1.0;"/><text fill="#000000" font-family="sans-serif" font-size="11" lengthAdjust="spacingAndGlyphs" text-decoration="underline" textLength="231" x="1428.5" y="79.6348">_Unmarshallable_: Class&lt;Unmarshallable&gt;</text><line style="stroke: #A80036; stroke-width: 1.5;" x1="1409.5" x2="1664.5" y1="85.9551" y2="85.9551"/><ellipse cx="1419.5" cy="96.9551" fill="#84BE84" rx="3" ry="3" style="stroke: #038048; stroke-width: 1.0;"/><text fill="#000000" font-family="sans-serif" font-size="11" font-style="italic" lengthAdjust="spacingAndGlyphs" textLength="143" x="1428.5" y="100.5898">unmarshal(InputStream): T</text></a><!--MD5=[1d6daf24c31beaff6fb6a993bb7422e1]
class it.tidalwave.role.io.Marshallable--><a href="../../../../../role/io/Marshallable.html" target="_top" title="../../../../../role/io/Marshallable.html" xlink:actuate="onRequest" xlink:href="../../../../../role/io/Marshallable.html" xlink:show="new" xlink:title="../../../../../role/io/Marshallable.html" xlink:type="simple"><rect codeLine="76" fill="#FEFECE" filter="url(#f124gws3wo0gu7)" height="73.9102" id="it.tidalwave.role.io.Marshallable" style="stroke: #A80036; stroke-width: 1.5;" width="225" x="1148.5" y="33"/><ellipse cx="1220.25" cy="49" fill="#B4A7E5" rx="11" ry="11" style="stroke: #A80036; stroke-width: 1.0;"/><path d="M1216.6777,45.2651 L1216.6777,43.1069 L1224.0571,43.1069 L1224.0571,45.2651 L1221.5918,45.2651 L1221.5918,53.3418 L1224.0571,53.3418 L1224.0571,55.5 L1216.6777,55.5 L1216.6777,53.3418 L1219.1431,53.3418 L1219.1431,45.2651 Z "/><text fill="#000000" font-family="sans-serif" font-size="12" font-style="italic" lengthAdjust="spacingAndGlyphs" textLength="73" x="1240.75" y="53.5352">Marshallable</text><line style="stroke: #A80036; stroke-width: 1.5;" x1="1149.5" x2="1372.5" y1="65" y2="65"/><ellipse cx="1159.5" cy="76" fill="none" rx="3" ry="3" style="stroke: #038048; stroke-width: 1.0;"/><text fill="#000000" font-family="sans-serif" font-size="11" lengthAdjust="spacingAndGlyphs" text-decoration="underline" textLength="199" x="1168.5" y="79.6348">_Marshallable_: Class&lt;Marshallable&gt;</text><line style="stroke: #A80036; stroke-width: 1.5;" x1="1149.5" x2="1372.5" y1="85.9551" y2="85.9551"/><ellipse cx="1159.5" cy="96.9551" fill="#84BE84" rx="3" ry="3" style="stroke: #038048; stroke-width: 1.0;"/><text fill="#000000" font-family="sans-serif" font-size="11" font-style="italic" lengthAdjust="spacingAndGlyphs" textLength="155" x="1168.5" y="100.5898">marshal(OutputStream): void</text></a><!--MD5=[6630afd887d24a7c8aa6dd5e1e8fb3b8]
reverse link it.tidalwave.thesefoolishthings.examples.dci.marshal.role.Loadable to it.tidalwave.thesefoolishthings.examples.dci.marshal.role.MarshallableLoadable--><path codeLine="59" d="M149,274.2887 C149,287.8752 149,301.7868 149,313.9676 " fill="none" id="it.tidalwave.thesefoolishthings.examples.dci.marshal.role.Loadable-backto-it.tidalwave.thesefoolishthings.examples.dci.marshal.role.MarshallableLoadable" style="stroke: #A80036; stroke-width: 1.0; stroke-dasharray: 7.0,7.0;"/><polygon fill="none" points="142.0001,274.1849,149,254.1849,156.0001,274.1849,142.0001,274.1849" style="stroke: #A80036; stroke-width: 1.0;"/><!--MD5=[f3157fbdcbff50770b7f5fb61035a0ef]
reverse link it.tidalwave.thesefoolishthings.examples.dci.marshal.role.XStreamMarshallableSupport to it.tidalwave.thesefoolishthings.examples.dci.marshal.role.PersonXStreamMarshallable--><path codeLine="60" d="M1080.882,248.1314 C1018.8963,270.7521 941.0178,299.1727 882.835,320.4057 " fill="none" id="it.tidalwave.thesefoolishthings.examples.dci.marshal.role.XStreamMarshallableSupport-backto-it.tidalwave.thesefoolishthings.examples.dci.marshal.role.PersonXStreamMarshallable" style="stroke: #A80036; stroke-width: 1.0;"/><polygon fill="none" points="1078.7981,241.4404,1099.9859,241.1597,1083.5976,254.592,1078.7981,241.4404" style="stroke: #A80036; stroke-width: 1.0;"/><!--MD5=[53b4618fc5ac55c642244ca8faef812c]
reverse link it.tidalwave.thesefoolishthings.examples.dci.marshal.role.Savable to it.tidalwave.thesefoolishthings.examples.dci.marshal.role.MarshallableSavable--><path codeLine="61" d="M2342,274.2887 C2342,287.8752 2342,301.7868 2342,313.9676 " fill="none" id="it.tidalwave.thesefoolishthings.examples.dci.marshal.role.Savable-backto-it.tidalwave.thesefoolishthings.examples.dci.marshal.role.MarshallableSavable" style="stroke: #A80036; stroke-width: 1.0; stroke-dasharray: 7.0,7.0;"/><polygon fill="none" points="2335.0001,274.1849,2342,254.1849,2349.0001,274.1849,2335.0001,274.1849" style="stroke: #A80036; stroke-width: 1.0;"/><!--MD5=[2343fc11fd883878c458adffddbd6f78]
reverse link it.tidalwave.role.io.Unmarshallable to it.tidalwave.thesefoolishthings.examples.dci.marshal.role.XStreamUnmarshallableSupport--><path codeLine="62" d="M1567.4467,124.8431 C1577.7877,143.4702 1588.9726,163.6173 1597.8954,179.6898 " fill="none" id="it.tidalwave.role.io.Unmarshallable-backto-it.tidalwave.thesefoolishthings.examples.dci.marshal.role.XStreamUnmarshallableSupport" style="stroke: #A80036; stroke-width: 1.0; stroke-dasharray: 7.0,7.0;"/><polygon fill="none" points="1561.2853,128.1663,1557.6978,107.2825,1573.5255,121.371,1561.2853,128.1663" style="stroke: #A80036; stroke-width: 1.0;"/><!--MD5=[70c5fc2d28016dbdc19dcce548b37517]
reverse link it.tidalwave.thesefoolishthings.examples.dci.marshal.role.XStreamMarshallableSupport to it.tidalwave.thesefoolishthings.examples.dci.marshal.role.ListOfPersonsXStreamMarshallable--><path codeLine="63" d="M1184,261.5063 C1184,281.1858 1184,303.0484 1184,320.2386 " fill="none" id="it.tidalwave.thesefoolishthings.examples.dci.marshal.role.XStreamMarshallableSupport-backto-it.tidalwave.thesefoolishthings.examples.dci.marshal.role.ListOfPersonsXStreamMarshallable" style="stroke: #A80036; stroke-width: 1.0;"/><polygon fill="none" points="1177.0001,261.3334,1184,241.3333,1191.0001,261.3333,1177.0001,261.3334" style="stroke: #A80036; stroke-width: 1.0;"/><!--MD5=[f981a1c5802dcb04663aecbedaf21848]
reverse link it.tidalwave.role.io.Marshallable to it.tidalwave.thesefoolishthings.examples.dci.marshal.role.XStreamMarshallableSupport--><path codeLine="64" d="M1230.9436,124.8431 C1220.7352,143.4702 1209.6937,163.6173 1200.8853,179.6898 " fill="none" id="it.tidalwave.role.io.Marshallable-backto-it.tidalwave.thesefoolishthings.examples.dci.marshal.role.XStreamMarshallableSupport" style="stroke: #A80036; stroke-width: 1.0; stroke-dasharray: 7.0,7.0;"/><polygon fill="none" points="1224.8169,121.4571,1240.5676,107.2825,1237.0941,128.1856,1224.8169,121.4571" style="stroke: #A80036; stroke-width: 1.0;"/><!--MD5=[3e7e873f63c90dcd1a37eaf22c085dba]
reverse link it.tidalwave.thesefoolishthings.examples.dci.marshal.role.XStreamContext to it.tidalwave.thesefoolishthings.examples.dci.marshal.role.XStreamContext1--><path codeLine="65" d="M432.3259,258.4219 C418.0795,281.429 401.6251,308.002 390.0092,326.761 " fill="none" id="it.tidalwave.thesefoolishthings.examples.dci.marshal.role.XStreamContext-backto-it.tidalwave.thesefoolishthings.examples.dci.marshal.role.XStreamContext1" style="stroke: #A80036; stroke-width: 1.0; stroke-dasharray: 7.0,7.0;"/><polygon fill="none" points="426.4268,254.6521,442.9075,241.3333,438.3297,262.0226,426.4268,254.6521" style="stroke: #A80036; stroke-width: 1.0;"/><!--MD5=[f9cac79c628eaa951cdcc8765c5867d3]
reverse link it.tidalwave.thesefoolishthings.examples.dci.marshal.role.XStreamUnmarshallableSupport to it.tidalwave.thesefoolishthings.examples.dci.marshal.role.ListOfPersonsXStreamUnmarshallable--><path codeLine="66" d="M1615,261.5063 C1615,281.1858 1615,303.0484 1615,320.2386 " fill="none" id="it.tidalwave.thesefoolishthings.examples.dci.marshal.role.XStreamUnmarshallableSupport-backto-it.tidalwave.thesefoolishthings.examples.dci.marshal.role.ListOfPersonsXStreamUnmarshallable" style="stroke: #A80036; stroke-width: 1.0;"/><polygon fill="none" points="1608.0001,261.3334,1615,241.3333,1622.0001,261.3333,1608.0001,261.3334" style="stroke: #A80036; stroke-width: 1.0;"/><!--MD5=[0d58d9cbb405523ce91d37d20b8278ac]
reverse link it.tidalwave.thesefoolishthings.examples.dci.marshal.role.XStreamContext to it.tidalwave.thesefoolishthings.examples.dci.marshal.role.XStreamContext2--><path codeLine="67" d="M489.4802,258.7622 C502.5356,281.6906 517.5698,308.0944 528.1984,326.761 " fill="none" id="it.tidalwave.thesefoolishthings.examples.dci.marshal.role.XStreamContext-backto-it.tidalwave.thesefoolishthings.examples.dci.marshal.role.XStreamContext2" style="stroke: #A80036; stroke-width: 1.0; stroke-dasharray: 7.0,7.0;"/><polygon fill="none" points="483.3695,262.1771,479.5563,241.3333,495.5355,255.2497,483.3695,262.1771" style="stroke: #A80036; stroke-width: 1.0;"/><!--MD5=[c66a00df1c9ed65caa90cd10e432c73b]
reverse link it.tidalwave.thesefoolishthings.examples.dci.marshal.role.XStreamUnmarshallableSupport to it.tidalwave.thesefoolishthings.examples.dci.marshal.role.PersonXStreamUnmarshallable--><path codeLine="68" d="M1721.5678,247.8386 C1786.264,270.5065 1867.8184,299.081 1928.6809,320.4057 " fill="none" id="it.tidalwave.thesefoolishthings.examples.dci.marshal.role.XStreamUnmarshallableSupport-backto-it.tidalwave.thesefoolishthings.examples.dci.marshal.role.PersonXStreamUnmarshallable" style="stroke: #A80036; stroke-width: 1.0;"/><polygon fill="none" points="1719.0659,254.3793,1702.5056,241.1597,1723.6953,241.1668,1719.0659,254.3793" style="stroke: #A80036; stroke-width: 1.0;"/><text fill="#888888" font-family="sans-serif" font-size="10" lengthAdjust="spacingAndGlyphs" textLength="188" x="1146.5" y="411.668">UMLDoclet 2.0.12, PlantUML 1.2020.16</text><!--MD5=[e8fe472f1c85d8bb06e81861c3326855]
@startuml
    namespace it.tidalwave.thesefoolishthings.examples.dci.marshal.role {

        class MarshallableLoadable [[MarshallableLoadable.html]] {
            +MarshallableLoadable(Object)
            +loadFrom(Path, Charset, OpenOption...): T
        }

        class PersonXStreamMarshallable [[PersonXStreamMarshallable.html]] {
            +PersonXStreamMarshallable(Person, XStreamContext)
        }

        interface Savable [[Savable.html]] {
            {static} +_Savable_: Class<Savable>
            +saveTo(Path): void
            {abstract} +saveTo(Path, Charset, OpenOption...): void
        }

        class MarshallableSavable [[MarshallableSavable.html]] {
            +MarshallableSavable(Object)
            +saveTo(Path, Charset, OpenOption...): void
        }

        abstract class XStreamUnmarshallableSupport<T> [[XStreamUnmarshallableSupport.html]] {
            +unmarshal(InputStream): T
        }

        class ListOfPersonsXStreamMarshallable [[ListOfPersonsXStreamMarshallable.html]] {
            +ListOfPersonsXStreamMarshallable(ListOfPersons, XStreamContext)
        }

        abstract class XStreamMarshallableSupport<T> [[XStreamMarshallableSupport.html]] {
            +marshal(OutputStream): void
        }

        interface XStreamContext [[XStreamContext.html]] {
            {abstract} +getXStream(): XStream
        }

        class XStreamContext1 [[XStreamContext1.html]] {
        }

        class ListOfPersonsXStreamUnmarshallable [[ListOfPersonsXStreamUnmarshallable.html]] {
            +ListOfPersonsXStreamUnmarshallable(ListOfPersons, XStreamContext)
        }

        interface Loadable [[Loadable.html]] {
            {static} +_Loadable_: Class<Loadable>
            +loadFrom(Path): T
            {abstract} +loadFrom(Path, Charset, OpenOption...): T
        }

        class XStreamContext2 [[XStreamContext2.html]] {
        }

        class PersonXStreamUnmarshallable [[PersonXStreamUnmarshallable.html]] {
            +PersonXStreamUnmarshallable(Person, XStreamContext)
        }

        Loadable <|.. MarshallableLoadable
        XStreamMarshallableSupport <|- - PersonXStreamMarshallable
        Savable <|.. MarshallableSavable
        it.tidalwave.role.io.Unmarshallable <|.. XStreamUnmarshallableSupport
        XStreamMarshallableSupport <|- - ListOfPersonsXStreamMarshallable
        it.tidalwave.role.io.Marshallable <|.. XStreamMarshallableSupport
        XStreamContext <|.. XStreamContext1
        XStreamUnmarshallableSupport <|- - ListOfPersonsXStreamUnmarshallable
        XStreamContext <|.. XStreamContext2
        XStreamUnmarshallableSupport <|- - PersonXStreamUnmarshallable
    }

    namespace it.tidalwave.role.io {
        interface Unmarshallable [[../../../../../role/io/Unmarshallable.html]] {
            {static} +_Unmarshallable_: Class<Unmarshallable>
            {abstract} +unmarshal(InputStream): T
        }
        interface Marshallable [[../../../../../role/io/Marshallable.html]] {
            {static} +_Marshallable_: Class<Marshallable>
            {abstract} +marshal(OutputStream): void
        }
    }

    center footer UMLDoclet 2.0.12, PlantUML 1.2020.16
@enduml

PlantUML version 1.2020.16(Sun Aug 23 22:20:43 CEST 2020)
(APACHE source distribution)
Java Runtime: OpenJDK Runtime Environment
JVM: OpenJDK 64-Bit Server VM
Default Encoding: UTF-8
Language: en
Country: GB
--></g></svg>