@startuml
    set namespaceSeparator none
    hide empty fields
    hide empty methods

    interface "<size:14>Composite\n<size:10>it.tidalwave.role" as it.tidalwave.role.Composite<TYPE, SPECIALIZED_FINDER extends Finder<? extends TYPE>> [[Composite.html]] {
        {static} +_Composite_: Class<Composite>
        {static} +DEFAULT: Composite<Object, Finder<Object>>
        {abstract} +findChildren(): SPECIALIZED_FINDER extends Finder<? extends TYPE>
    }
    interface "<size:14>Composite.Visitor\n<size:10>it.tidalwave.role" as it.tidalwave.role.Composite.Visitor<T, R> [[Composite.Visitor.html]]
    class "<size:14>Composite.VisitorSupport\n<size:10>it.tidalwave.role" as it.tidalwave.role.Composite.VisitorSupport<T, R> [[Composite.VisitorSupport.html]]

    it.tidalwave.role.Composite +-- it.tidalwave.role.Composite.Visitor
    it.tidalwave.role.Composite +-- it.tidalwave.role.Composite.VisitorSupport

    center footer UMLDoclet 2.0.12, PlantUML 1.2020.16
@enduml
