<?xml version="1.0" encoding="UTF-8" standalone="no"?><svg xmlns="http://www.w3.org/2000/svg" xmlns:xlink="http://www.w3.org/1999/xlink" contentScriptType="application/ecmascript" contentStyleType="text/css" height="263px" preserveAspectRatio="none" style="width:495px;height:263px;" version="1.1" viewBox="0 0 495 263" width="495px" zoomAndPan="magnify"><defs><filter height="300%" id="fbz3bryri54y" width="300%" x="-1" y="-1"><feGaussianBlur result="blurOut" stdDeviation="2.0"/><feColorMatrix in="blurOut" result="blurOut2" type="matrix" values="0 0 0 0 0 0 0 0 0 0 0 0 0 0 0 0 0 0 .4 0"/><feOffset dx="4.0" dy="4.0" in="blurOut2" result="blurOut3"/><feBlend in="SourceGraphic" in2="blurOut3" mode="normal"/></filter></defs><g><!--MD5=[96fda046302279efd0df60a539f9f1f0]
class it.tidalwave.role.Composite.Visitor--><a href="Composite.Visitor.html" target="_top" title="Composite.Visitor.html" xlink:actuate="onRequest" xlink:href="Composite.Visitor.html" xlink:show="new" xlink:title="Composite.Visitor.html" xlink:type="simple"><rect codeLine="5" fill="#FEFECE" filter="url(#fbz3bryri54y)" height="98.0859" id="it.tidalwave.role.Composite.Visitor" style="stroke: #A80036; stroke-width: 1.5;" width="182" x="150.5" y="129"/><ellipse cx="165.5" cy="148.1328" fill="#B4A7E5" rx="11" ry="11" style="stroke: #A80036; stroke-width: 1.0;"/><path d="M161.9277,144.3979 L161.9277,142.2397 L169.3071,142.2397 L169.3071,144.3979 L166.8418,144.3979 L166.8418,152.4746 L169.3071,152.4746 L169.3071,154.6328 L161.9277,154.6328 L161.9277,152.4746 L164.3931,152.4746 L164.3931,144.3979 Z "/><text fill="#000000" font-family="sans-serif" font-size="14" font-style="italic" lengthAdjust="spacingAndGlyphs" textLength="122" x="179.5" y="147.5352">Composite.Visitor</text><text fill="#000000" font-family="sans-serif" font-size="10" font-style="italic" lengthAdjust="spacingAndGlyphs" textLength="79" x="201" y="160.1563">it.tidalwave.role</text><rect fill="#FFFFFF" height="16.1328" style="stroke: #000000; stroke-width: 1.0; stroke-dasharray: 2.0,2.0;" width="26" x="309.5" y="126"/><text fill="#000000" font-family="sans-serif" font-size="12" font-style="italic" lengthAdjust="spacingAndGlyphs" textLength="24" x="310.5" y="138.6016">T, R</text><line style="stroke: #A80036; stroke-width: 1.5;" x1="151.5" x2="331.5" y1="167.2656" y2="167.2656"/><ellipse cx="161.5" cy="178.2656" fill="#84BE84" rx="3" ry="3" style="stroke: #038048; stroke-width: 1.0;"/><text fill="#000000" font-family="sans-serif" font-size="11" font-style="italic" lengthAdjust="spacingAndGlyphs" textLength="85" x="170.5" y="181.9004">preVisit(T): void</text><ellipse cx="161.5" cy="191.2207" fill="#84BE84" rx="3" ry="3" style="stroke: #038048; stroke-width: 1.0;"/><text fill="#000000" font-family="sans-serif" font-size="11" font-style="italic" lengthAdjust="spacingAndGlyphs" textLength="66" x="170.5" y="194.8555">visit(T): void</text><ellipse cx="161.5" cy="204.1758" fill="#84BE84" rx="3" ry="3" style="stroke: #038048; stroke-width: 1.0;"/><text fill="#000000" font-family="sans-serif" font-size="11" font-style="italic" lengthAdjust="spacingAndGlyphs" textLength="91" x="170.5" y="207.8105">postVisit(T): void</text><ellipse cx="161.5" cy="217.1309" fill="#84BE84" rx="3" ry="3" style="stroke: #038048; stroke-width: 1.0;"/><text fill="#000000" font-family="sans-serif" font-size="11" font-style="italic" lengthAdjust="spacingAndGlyphs" textLength="67" x="170.5" y="220.7656">getValue(): R</text></a><!--MD5=[28f428c66ea6dc6ddd3e830eb1887f56]
class it.tidalwave.role.Composite--><a href="Composite.html" target="_top" title="Composite.html" xlink:actuate="onRequest" xlink:href="Composite.html" xlink:show="new" xlink:title="Composite.html" xlink:type="simple"><rect codeLine="12" fill="#FEFECE" filter="url(#fbz3bryri54y)" height="59.2207" id="it.tidalwave.role.Composite" style="stroke: #A80036; stroke-width: 1.5;" width="469" x="7" y="10"/><ellipse cx="22" cy="29.1328" fill="#B4A7E5" rx="11" ry="11" style="stroke: #A80036; stroke-width: 1.0;"/><path d="M18.4277,25.3979 L18.4277,23.2397 L25.8071,23.2397 L25.8071,25.3979 L23.3418,25.3979 L23.3418,33.4746 L25.8071,33.4746 L25.8071,35.6328 L18.4277,35.6328 L18.4277,33.4746 L20.8931,33.4746 L20.8931,25.3979 Z "/><text fill="#000000" font-family="sans-serif" font-size="14" font-style="italic" lengthAdjust="spacingAndGlyphs" textLength="74" x="38.5" y="28.5352">Composite</text><text fill="#000000" font-family="sans-serif" font-size="10" font-style="italic" lengthAdjust="spacingAndGlyphs" textLength="79" x="36" y="41.1563">it.tidalwave.role</text><rect fill="#FFFFFF" height="16.1328" style="stroke: #000000; stroke-width: 1.0; stroke-dasharray: 2.0,2.0;" width="356" x="123" y="7"/><text fill="#000000" font-family="sans-serif" font-size="12" font-style="italic" lengthAdjust="spacingAndGlyphs" textLength="354" x="124" y="19.6016">TYPE, SPECIALIZED_FINDER extends Finder&lt;? extends TYPE&gt;</text><line style="stroke: #A80036; stroke-width: 1.5;" x1="8" x2="475" y1="48.2656" y2="48.2656"/><ellipse cx="18" cy="59.2656" fill="#84BE84" rx="3" ry="3" style="stroke: #038048; stroke-width: 1.0;"/><text fill="#000000" font-family="sans-serif" font-size="11" font-style="italic" lengthAdjust="spacingAndGlyphs" textLength="373" x="27" y="62.9004">findChildren(): SPECIALIZED_FINDER extends Finder&lt;? extends TYPE&gt;</text></a><!--MD5=[c0a6916de380d2acc83b64a898d5fdf8]
reverse link it.tidalwave.role.Composite to it.tidalwave.role.Composite.Visitor--><path codeLine="16" d="M241.5,84.4624 C241.5,98.6954 241.5,114.4957 241.5,128.9973 " fill="none" id="it.tidalwave.role.Composite-backto-it.tidalwave.role.Composite.Visitor" style="stroke: #A80036; stroke-width: 1.0;"/><ellipse cx="241.5001" cy="77.2117" fill="#FFFFFF" rx="8" ry="8" style="stroke: #A80036; stroke-width: 1.0;"/><line style="stroke: #A80036; stroke-width: 1.0;" x1="241.5002" x2="241.5" y1="85.2117" y2="69.2117"/><line style="stroke: #A80036; stroke-width: 1.0;" x1="233.5001" x2="249.5001" y1="77.2118" y2="77.2116"/><text fill="#888888" font-family="sans-serif" font-size="10" lengthAdjust="spacingAndGlyphs" textLength="188" x="144.5" y="249.7539">UMLDoclet 2.0.12, PlantUML 1.2020.16</text><!--MD5=[7ac9b656a5f8aaed2c2e981016b71c23]
@startuml
    set namespaceSeparator none
    hide empty fields
    hide empty methods

    interface "<size:14>Composite.Visitor\n<size:10>it.tidalwave.role" as it.tidalwave.role.Composite.Visitor<T, R> [[Composite.Visitor.html]] {
        {abstract} +preVisit(T): void
        {abstract} +visit(T): void
        {abstract} +postVisit(T): void
        {abstract} +getValue(): R
    }

    interface "<size:14>Composite\n<size:10>it.tidalwave.role" as it.tidalwave.role.Composite<TYPE, SPECIALIZED_FINDER extends Finder<? extends TYPE>> [[Composite.html]] {
        {abstract} +findChildren(): SPECIALIZED_FINDER extends Finder<? extends TYPE>
    }

    it.tidalwave.role.Composite +- - it.tidalwave.role.Composite.Visitor

    center footer UMLDoclet 2.0.12, PlantUML 1.2020.16
@enduml

PlantUML version 1.2020.16(Sun Aug 23 22:20:43 CEST 2020)
(APACHE source distribution)
Java Runtime: OpenJDK Runtime Environment
JVM: OpenJDK 64-Bit Server VM
Default Encoding: UTF-8
Language: en
Country: GB
--></g></svg>