<?xml version="1.0" encoding="UTF-8" standalone="no"?><svg xmlns="http://www.w3.org/2000/svg" xmlns:xlink="http://www.w3.org/1999/xlink" contentScriptType="application/ecmascript" contentStyleType="text/css" height="535px" preserveAspectRatio="none" style="width:295px;height:535px;" version="1.1" viewBox="0 0 295 535" width="295px" zoomAndPan="magnify"><defs><filter height="300%" id="f11l00nk7n0coh" width="300%" x="-1" y="-1"><feGaussianBlur result="blurOut" stdDeviation="2.0"/><feColorMatrix in="blurOut" result="blurOut2" type="matrix" values="0 0 0 0 0 0 0 0 0 0 0 0 0 0 0 0 0 0 .4 0"/><feOffset dx="4.0" dy="4.0" in="blurOut2" result="blurOut3"/><feBlend in="SourceGraphic" in2="blurOut3" mode="normal"/></filter></defs><g><!--MD5=[52e88d8a0522f52cd954389849b78736]
class it.tidalwave.thesefoolishthings.examples.person.ListOfPersons--><a href="ListOfPersons.html" target="_top" title="ListOfPersons.html" xlink:actuate="onRequest" xlink:href="ListOfPersons.html" xlink:show="new" xlink:title="ListOfPersons.html" xlink:type="simple"><rect codeLine="5" fill="#FEFECE" filter="url(#f11l00nk7n0coh)" height="85.1309" id="it.tidalwave.thesefoolishthings.examples.person.ListOfPersons" style="stroke: #A80036; stroke-width: 1.5;" width="268" x="7.5" y="414"/><ellipse cx="22.5" cy="433.1328" fill="#ADD1B2" rx="11" ry="11" style="stroke: #A80036; stroke-width: 1.0;"/><path d="M24.9731,439.2759 Q24.3921,439.5747 23.7529,439.7241 Q23.1138,439.8735 22.4082,439.8735 Q19.9014,439.8735 18.5815,438.2217 Q17.2617,436.5698 17.2617,433.4487 Q17.2617,430.3193 18.5815,428.6675 Q19.9014,427.0156 22.4082,427.0156 Q23.1138,427.0156 23.7612,427.165 Q24.4087,427.3145 24.9731,427.6133 L24.9731,430.3359 Q24.3423,429.7549 23.7488,429.4851 Q23.1553,429.2153 22.5244,429.2153 Q21.1797,429.2153 20.4949,430.282 Q19.8101,431.3486 19.8101,433.4487 Q19.8101,435.5405 20.4949,436.6072 Q21.1797,437.6738 22.5244,437.6738 Q23.1553,437.6738 23.7488,437.4041 Q24.3423,437.1343 24.9731,436.5532 Z "/><text fill="#000000" font-family="sans-serif" font-size="14" lengthAdjust="spacingAndGlyphs" textLength="93" x="108" y="432.5352">ListOfPersons</text><text fill="#000000" font-family="sans-serif" font-size="10" lengthAdjust="spacingAndGlyphs" textLength="236" x="36.5" y="445.1563">it.tidalwave.thesefoolishthings.examples.person</text><line style="stroke: #A80036; stroke-width: 1.5;" x1="8.5" x2="274.5" y1="452.2656" y2="452.2656"/><ellipse cx="18.5" cy="463.2656" fill="#84BE84" rx="3" ry="3" style="stroke: #038048; stroke-width: 1.0;"/><text fill="#000000" font-family="sans-serif" font-size="11" lengthAdjust="spacingAndGlyphs" textLength="157" x="27.5" y="466.9004">ListOfPersons(List&lt;Person&gt;)</text><ellipse cx="18.5" cy="476.2207" fill="#84BE84" rx="3" ry="3" style="stroke: #038048; stroke-width: 1.0;"/><text fill="#000000" font-family="sans-serif" font-size="11" lengthAdjust="spacingAndGlyphs" text-decoration="underline" textLength="122" x="27.5" y="479.8555">empty(): ListOfPersons</text><ellipse cx="18.5" cy="489.1758" fill="#84BE84" rx="3" ry="3" style="stroke: #038048; stroke-width: 1.0;"/><text fill="#000000" font-family="sans-serif" font-size="11" lengthAdjust="spacingAndGlyphs" text-decoration="underline" textLength="146" x="27.5" y="492.8105">of(Person...): ListOfPersons</text></a><!--MD5=[6b7a9fc05e2cf62df8c1411c2048df3f]
class java.util.List--><rect codeLine="11" fill="#FEFECE" filter="url(#f11l00nk7n0coh)" height="344.2324" id="java.util.List" style="stroke: #A80036; stroke-width: 1.5;" width="269" x="7" y="10"/><ellipse cx="96.25" cy="29.1328" fill="#B4A7E5" rx="11" ry="11" style="stroke: #A80036; stroke-width: 1.0;"/><path d="M92.6777,25.3979 L92.6777,23.2397 L100.0571,23.2397 L100.0571,25.3979 L97.5918,25.3979 L97.5918,33.4746 L100.0571,33.4746 L100.0571,35.6328 L92.6777,35.6328 L92.6777,33.4746 L95.1431,33.4746 L95.1431,25.3979 Z "/><text fill="#000000" font-family="sans-serif" font-size="14" font-style="italic" lengthAdjust="spacingAndGlyphs" textLength="23" x="124.75" y="28.5352">List</text><text fill="#000000" font-family="sans-serif" font-size="10" font-style="italic" lengthAdjust="spacingAndGlyphs" textLength="39" x="116.75" y="41.1563">java.util</text><rect fill="#FFFFFF" height="16.1328" style="stroke: #000000; stroke-width: 1.0; stroke-dasharray: 2.0,2.0;" width="41" x="238" y="7"/><text fill="#000000" font-family="sans-serif" font-size="12" font-style="italic" lengthAdjust="spacingAndGlyphs" textLength="39" x="239" y="19.6016">Person</text><line style="stroke: #A80036; stroke-width: 1.5;" x1="8" x2="275" y1="48.2656" y2="48.2656"/><ellipse cx="18" cy="59.2656" fill="#84BE84" rx="3" ry="3" style="stroke: #038048; stroke-width: 1.0;"/><text fill="#000000" font-family="sans-serif" font-size="11" font-style="italic" lengthAdjust="spacingAndGlyphs" textLength="49" x="27" y="62.9004">size(): int</text><ellipse cx="18" cy="72.2207" fill="#84BE84" rx="3" ry="3" style="stroke: #038048; stroke-width: 1.0;"/><text fill="#000000" font-family="sans-serif" font-size="11" font-style="italic" lengthAdjust="spacingAndGlyphs" textLength="99" x="27" y="75.8555">isEmpty(): boolean</text><ellipse cx="18" cy="85.1758" fill="#84BE84" rx="3" ry="3" style="stroke: #038048; stroke-width: 1.0;"/><text fill="#000000" font-family="sans-serif" font-size="11" font-style="italic" lengthAdjust="spacingAndGlyphs" textLength="138" x="27" y="88.8105">contains(Object): boolean</text><ellipse cx="18" cy="98.1309" fill="#84BE84" rx="3" ry="3" style="stroke: #038048; stroke-width: 1.0;"/><text fill="#000000" font-family="sans-serif" font-size="11" font-style="italic" lengthAdjust="spacingAndGlyphs" textLength="118" x="27" y="101.7656">iterator(): Iterator&lt;E&gt;</text><ellipse cx="18" cy="111.0859" fill="#84BE84" rx="3" ry="3" style="stroke: #038048; stroke-width: 1.0;"/><text fill="#000000" font-family="sans-serif" font-size="11" font-style="italic" lengthAdjust="spacingAndGlyphs" textLength="98" x="27" y="114.7207">toArray(): Object[]</text><ellipse cx="18" cy="124.041" fill="#84BE84" rx="3" ry="3" style="stroke: #038048; stroke-width: 1.0;"/><text fill="#000000" font-family="sans-serif" font-size="11" font-style="italic" lengthAdjust="spacingAndGlyphs" textLength="85" x="27" y="127.6758">toArray(T[]): T[]</text><ellipse cx="18" cy="136.9961" fill="#84BE84" rx="3" ry="3" style="stroke: #038048; stroke-width: 1.0;"/><text fill="#000000" font-family="sans-serif" font-size="11" font-style="italic" lengthAdjust="spacingAndGlyphs" textLength="114" x="27" y="140.6309">add(Person): boolean</text><ellipse cx="18" cy="149.9512" fill="#84BE84" rx="3" ry="3" style="stroke: #038048; stroke-width: 1.0;"/><text fill="#000000" font-family="sans-serif" font-size="11" font-style="italic" lengthAdjust="spacingAndGlyphs" textLength="132" x="27" y="153.5859">remove(Object): boolean</text><ellipse cx="18" cy="162.9063" fill="#84BE84" rx="3" ry="3" style="stroke: #038048; stroke-width: 1.0;"/><text fill="#000000" font-family="sans-serif" font-size="11" font-style="italic" lengthAdjust="spacingAndGlyphs" textLength="194" x="27" y="166.541">containsAll(Collection&lt;?&gt;): boolean</text><ellipse cx="18" cy="175.8613" fill="#84BE84" rx="3" ry="3" style="stroke: #038048; stroke-width: 1.0;"/><text fill="#000000" font-family="sans-serif" font-size="11" font-style="italic" lengthAdjust="spacingAndGlyphs" textLength="223" x="27" y="179.4961">addAll(Collection&lt;? extends E&gt;): boolean</text><ellipse cx="18" cy="188.8164" fill="#84BE84" rx="3" ry="3" style="stroke: #038048; stroke-width: 1.0;"/><text fill="#000000" font-family="sans-serif" font-size="11" font-style="italic" lengthAdjust="spacingAndGlyphs" textLength="243" x="27" y="192.4512">addAll(int, Collection&lt;? extends E&gt;): boolean</text><ellipse cx="18" cy="201.7715" fill="#84BE84" rx="3" ry="3" style="stroke: #038048; stroke-width: 1.0;"/><text fill="#000000" font-family="sans-serif" font-size="11" font-style="italic" lengthAdjust="spacingAndGlyphs" textLength="188" x="27" y="205.4063">removeAll(Collection&lt;?&gt;): boolean</text><ellipse cx="18" cy="214.7266" fill="#84BE84" rx="3" ry="3" style="stroke: #038048; stroke-width: 1.0;"/><text fill="#000000" font-family="sans-serif" font-size="11" font-style="italic" lengthAdjust="spacingAndGlyphs" textLength="179" x="27" y="218.3613">retainAll(Collection&lt;?&gt;): boolean</text><ellipse cx="18" cy="227.6816" fill="#84BE84" rx="3" ry="3" style="stroke: #038048; stroke-width: 1.0;"/><text fill="#000000" font-family="sans-serif" font-size="11" font-style="italic" lengthAdjust="spacingAndGlyphs" textLength="63" x="27" y="231.3164">clear(): void</text><ellipse cx="18" cy="240.6367" fill="#84BE84" rx="3" ry="3" style="stroke: #038048; stroke-width: 1.0;"/><text fill="#000000" font-family="sans-serif" font-size="11" font-style="italic" lengthAdjust="spacingAndGlyphs" textLength="82" x="27" y="244.2715">get(int): Person</text><ellipse cx="18" cy="253.5918" fill="#84BE84" rx="3" ry="3" style="stroke: #038048; stroke-width: 1.0;"/><text fill="#000000" font-family="sans-serif" font-size="11" font-style="italic" lengthAdjust="spacingAndGlyphs" textLength="124" x="27" y="257.2266">set(int, Person): Person</text><ellipse cx="18" cy="266.5469" fill="#84BE84" rx="3" ry="3" style="stroke: #038048; stroke-width: 1.0;"/><text fill="#000000" font-family="sans-serif" font-size="11" font-style="italic" lengthAdjust="spacingAndGlyphs" textLength="114" x="27" y="270.1816">add(int, Person): void</text><ellipse cx="18" cy="279.502" fill="#84BE84" rx="3" ry="3" style="stroke: #038048; stroke-width: 1.0;"/><text fill="#000000" font-family="sans-serif" font-size="11" font-style="italic" lengthAdjust="spacingAndGlyphs" textLength="105" x="27" y="283.1367">remove(int): Person</text><ellipse cx="18" cy="292.457" fill="#84BE84" rx="3" ry="3" style="stroke: #038048; stroke-width: 1.0;"/><text fill="#000000" font-family="sans-serif" font-size="11" font-style="italic" lengthAdjust="spacingAndGlyphs" textLength="106" x="27" y="296.0918">indexOf(Object): int</text><ellipse cx="18" cy="305.4121" fill="#84BE84" rx="3" ry="3" style="stroke: #038048; stroke-width: 1.0;"/><text fill="#000000" font-family="sans-serif" font-size="11" font-style="italic" lengthAdjust="spacingAndGlyphs" textLength="125" x="27" y="309.0469">lastIndexOf(Object): int</text><ellipse cx="18" cy="318.3672" fill="#84BE84" rx="3" ry="3" style="stroke: #038048; stroke-width: 1.0;"/><text fill="#000000" font-family="sans-serif" font-size="11" font-style="italic" lengthAdjust="spacingAndGlyphs" textLength="153" x="27" y="322.002">listIterator(): ListIterator&lt;E&gt;</text><ellipse cx="18" cy="331.3223" fill="#84BE84" rx="3" ry="3" style="stroke: #038048; stroke-width: 1.0;"/><text fill="#000000" font-family="sans-serif" font-size="11" font-style="italic" lengthAdjust="spacingAndGlyphs" textLength="167" x="27" y="334.957">listIterator(int): ListIterator&lt;E&gt;</text><ellipse cx="18" cy="344.2773" fill="#84BE84" rx="3" ry="3" style="stroke: #038048; stroke-width: 1.0;"/><text fill="#000000" font-family="sans-serif" font-size="11" font-style="italic" lengthAdjust="spacingAndGlyphs" textLength="130" x="27" y="347.9121">subList(int, int): List&lt;E&gt;</text><!--MD5=[698c8660a3a2376db5fe992976bcff96]
reverse link java.util.List to it.tidalwave.thesefoolishthings.examples.person.ListOfPersons--><path codeLine="37" d="M141.5,374.4358 C141.5,388.8259 141.5,402.2449 141.5,413.8918 " fill="none" id="java.util.List-backto-it.tidalwave.thesefoolishthings.examples.person.ListOfPersons" style="stroke: #A80036; stroke-width: 1.0; stroke-dasharray: 7.0,7.0;"/><polygon fill="none" points="134.5001,374.2864,141.5,354.2863,148.5001,374.2863,134.5001,374.2864" style="stroke: #A80036; stroke-width: 1.0;"/><text fill="#888888" font-family="sans-serif" font-size="10" lengthAdjust="spacingAndGlyphs" textLength="188" x="44.5" y="521.7988">UMLDoclet 2.0.12, PlantUML 1.2020.16</text><!--MD5=[472a9a0dd57dd64856e48854d0f1d9fb]
@startuml
    set namespaceSeparator none
    hide empty fields
    hide empty methods

    class "<size:14>ListOfPersons\n<size:10>it.tidalwave.thesefoolishthings.examples.person" as it.tidalwave.thesefoolishthings.examples.person.ListOfPersons [[ListOfPersons.html]] {
        +ListOfPersons(List<Person>)
        {static} +empty(): ListOfPersons
        {static} +of(Person...): ListOfPersons
    }

    interface "<size:14>List\n<size:10>java.util" as java.util.List<Person> {
        {abstract} +size(): int
        {abstract} +isEmpty(): boolean
        {abstract} +contains(Object): boolean
        {abstract} +iterator(): Iterator<E>
        {abstract} +toArray(): Object[]
        {abstract} +toArray(T[]): T[]
        {abstract} +add(Person): boolean
        {abstract} +remove(Object): boolean
        {abstract} +containsAll(Collection<?>): boolean
        {abstract} +addAll(Collection<? extends E>): boolean
        {abstract} +addAll(int, Collection<? extends E>): boolean
        {abstract} +removeAll(Collection<?>): boolean
        {abstract} +retainAll(Collection<?>): boolean
        {abstract} +clear(): void
        {abstract} +get(int): Person
        {abstract} +set(int, Person): Person
        {abstract} +add(int, Person): void
        {abstract} +remove(int): Person
        {abstract} +indexOf(Object): int
        {abstract} +lastIndexOf(Object): int
        {abstract} +listIterator(): ListIterator<E>
        {abstract} +listIterator(int): ListIterator<E>
        {abstract} +subList(int, int): List<E>
    }

    java.util.List <|.. it.tidalwave.thesefoolishthings.examples.person.ListOfPersons

    center footer UMLDoclet 2.0.12, PlantUML 1.2020.16
@enduml

PlantUML version 1.2020.16(Sun Aug 23 22:20:43 CEST 2020)
(APACHE source distribution)
Java Runtime: OpenJDK Runtime Environment
JVM: OpenJDK 64-Bit Server VM
Default Encoding: UTF-8
Language: en
Country: GB
--></g></svg>