<?xml version="1.0" encoding="UTF-8" standalone="no"?><svg xmlns="http://www.w3.org/2000/svg" xmlns:xlink="http://www.w3.org/1999/xlink" contentScriptType="application/ecmascript" contentStyleType="text/css" height="325px" preserveAspectRatio="none" style="width:595px;height:325px;" version="1.1" viewBox="0 0 595 325" width="595px" zoomAndPan="magnify"><defs><filter height="300%" id="f19tdny8sqrqf2" width="300%" x="-1" y="-1"><feGaussianBlur result="blurOut" stdDeviation="2.0"/><feColorMatrix in="blurOut" result="blurOut2" type="matrix" values="0 0 0 0 0 0 0 0 0 0 0 0 0 0 0 0 0 0 .4 0"/><feOffset dx="4.0" dy="4.0" in="blurOut2" result="blurOut3"/><feBlend in="SourceGraphic" in2="blurOut3" mode="normal"/></filter></defs><g><!--MD5=[abb7e53047cba51e8fb02537a7f06fd6]
class it.tidalwave.northernwind.core.model.spi.ResourceFileFinderSupport--><a href="ResourceFileFinderSupport.html" target="_top" title="ResourceFileFinderSupport.html" xlink:actuate="onRequest" xlink:href="ResourceFileFinderSupport.html" xlink:show="new" xlink:title="ResourceFileFinderSupport.html" xlink:type="simple"><rect codeLine="5" fill="#FEFECE" filter="url(#f19tdny8sqrqf2)" height="123.9961" id="it.tidalwave.northernwind.core.model.spi.ResourceFileFinderSupport" style="stroke: #A80036; stroke-width: 1.5;" width="486" x="75" y="165"/><ellipse cx="214.25" cy="184.1328" fill="#ADD1B2" rx="11" ry="11" style="stroke: #A80036; stroke-width: 1.0;"/><path d="M216.7231,190.2759 Q216.1421,190.5747 215.5029,190.7241 Q214.8638,190.8735 214.1582,190.8735 Q211.6514,190.8735 210.3315,189.2217 Q209.0117,187.5698 209.0117,184.4487 Q209.0117,181.3193 210.3315,179.6675 Q211.6514,178.0156 214.1582,178.0156 Q214.8638,178.0156 215.5112,178.165 Q216.1587,178.3145 216.7231,178.6133 L216.7231,181.3359 Q216.0923,180.7549 215.4988,180.4851 Q214.9053,180.2153 214.2744,180.2153 Q212.9297,180.2153 212.2449,181.282 Q211.5601,182.3486 211.5601,184.4487 Q211.5601,186.5405 212.2449,187.6072 Q212.9297,188.6738 214.2744,188.6738 Q214.9053,188.6738 215.4988,188.4041 Q216.0923,188.1343 216.7231,187.5532 Z "/><text fill="#000000" font-family="sans-serif" font-size="14" lengthAdjust="spacingAndGlyphs" textLength="186" x="241.25" y="183.5352">ResourceFileFinderSupport</text><text fill="#000000" font-family="sans-serif" font-size="10" lengthAdjust="spacingAndGlyphs" textLength="199" x="234.75" y="196.1563">it.tidalwave.northernwind.core.model.spi</text><line style="stroke: #A80036; stroke-width: 1.5;" x1="76" x2="560" y1="203.2656" y2="203.2656"/><ellipse cx="86" cy="214.2656" fill="#84BE84" rx="3" ry="3" style="stroke: #038048; stroke-width: 1.0;"/><text fill="#000000" font-family="sans-serif" font-size="11" lengthAdjust="spacingAndGlyphs" textLength="339" x="95" y="217.9004">ResourceFileFinderSupport(ResourceFileFinderSupport, Object)</text><ellipse cx="86" cy="227.2207" fill="#84BE84" rx="3" ry="3" style="stroke: #038048; stroke-width: 1.0;"/><text fill="#000000" font-family="sans-serif" font-size="11" lengthAdjust="spacingAndGlyphs" text-decoration="underline" textLength="368" x="95" y="230.8555">withComputeResults(Function&lt;Finder, List&lt;ResourceFile&gt;&gt;): Finder</text><ellipse cx="86" cy="240.1758" fill="#84BE84" rx="3" ry="3" style="stroke: #038048; stroke-width: 1.0;"/><text fill="#000000" font-family="sans-serif" font-size="11" lengthAdjust="spacingAndGlyphs" text-decoration="underline" textLength="460" x="95" y="243.8105">withComputeResults(String, Function&lt;Finder, ? extends List&lt;ResourceFile&gt;&gt;): Finder</text><ellipse cx="86" cy="253.1309" fill="#84BE84" rx="3" ry="3" style="stroke: #038048; stroke-width: 1.0;"/><text fill="#000000" font-family="sans-serif" font-size="11" lengthAdjust="spacingAndGlyphs" textLength="167" x="95" y="256.7656">withRecursion(boolean): Finder</text><ellipse cx="86" cy="266.0859" fill="#84BE84" rx="3" ry="3" style="stroke: #038048; stroke-width: 1.0;"/><text fill="#000000" font-family="sans-serif" font-size="11" lengthAdjust="spacingAndGlyphs" textLength="132" x="95" y="269.7207">withName(String): Finder</text><polygon fill="#FFFF44" points="86,274.041,90,278.041,86,282.041,82,278.041" style="stroke: #B38D22; stroke-width: 1.0;"/><text fill="#000000" font-family="sans-serif" font-size="11" lengthAdjust="spacingAndGlyphs" textLength="205" x="95" y="282.6758">computeResults(): List&lt;ResourceFile&gt;</text></a><!--MD5=[d63e98a45e8384519e3fc4fd1371e7a4]
class it.tidalwave.util.spi.HierarchicFinderSupport--><rect codeLine="14" fill="#FEFECE" filter="url(#f19tdny8sqrqf2)" height="38.2656" id="it.tidalwave.util.spi.HierarchicFinderSupport" style="stroke: #A80036; stroke-width: 1.5;" width="320" x="7" y="37"/><ellipse cx="22" cy="56.1328" fill="#ADD1B2" rx="11" ry="11" style="stroke: #A80036; stroke-width: 1.0;"/><path d="M24.4731,62.2759 Q23.8921,62.5747 23.2529,62.7241 Q22.6138,62.8735 21.9082,62.8735 Q19.4014,62.8735 18.0815,61.2217 Q16.7617,59.5698 16.7617,56.4487 Q16.7617,53.3193 18.0815,51.6675 Q19.4014,50.0156 21.9082,50.0156 Q22.6138,50.0156 23.2612,50.165 Q23.9087,50.3145 24.4731,50.6133 L24.4731,53.3359 Q23.8423,52.7549 23.2488,52.4851 Q22.6553,52.2153 22.0244,52.2153 Q20.6797,52.2153 19.9949,53.282 Q19.3101,54.3486 19.3101,56.4487 Q19.3101,58.5405 19.9949,59.6072 Q20.6797,60.6738 22.0244,60.6738 Q22.6553,60.6738 23.2488,60.4041 Q23.8423,60.1343 24.4731,59.5532 Z "/><text fill="#000000" font-family="sans-serif" font-size="14" lengthAdjust="spacingAndGlyphs" textLength="168" x="36" y="55.5352">HierarchicFinderSupport</text><text fill="#000000" font-family="sans-serif" font-size="10" lengthAdjust="spacingAndGlyphs" textLength="93" x="73.5" y="68.1563">it.tidalwave.util.spi</text><rect fill="#FFFFFF" height="16.1328" style="stroke: #000000; stroke-width: 1.0; stroke-dasharray: 2.0,2.0;" width="118" x="212" y="34"/><text fill="#000000" font-family="sans-serif" font-size="12" font-style="italic" lengthAdjust="spacingAndGlyphs" textLength="116" x="213" y="46.6016">ResourceFile, Finder</text><!--MD5=[645bdfad8edd0c176a07cebd73b16112]
class it.tidalwave.northernwind.core.model.ResourceFile.Finder--><a href="../ResourceFile.Finder.html" target="_top" title="../ResourceFile.Finder.html" xlink:actuate="onRequest" xlink:href="../ResourceFile.Finder.html" xlink:show="new" xlink:title="../ResourceFile.Finder.html" xlink:type="simple"><rect codeLine="15" fill="#FEFECE" filter="url(#f19tdny8sqrqf2)" height="98.0859" id="it.tidalwave.northernwind.core.model.ResourceFile.Finder" style="stroke: #A80036; stroke-width: 1.5;" width="214" x="362" y="7"/><ellipse cx="377" cy="26.1328" fill="#B4A7E5" rx="11" ry="11" style="stroke: #A80036; stroke-width: 1.0;"/><path d="M373.4277,22.3979 L373.4277,20.2397 L380.8071,20.2397 L380.8071,22.3979 L378.3418,22.3979 L378.3418,30.4746 L380.8071,30.4746 L380.8071,32.6328 L373.4277,32.6328 L373.4277,30.4746 L375.8931,30.4746 L375.8931,22.3979 Z "/><text fill="#000000" font-family="sans-serif" font-size="14" font-style="italic" lengthAdjust="spacingAndGlyphs" textLength="135" x="414.5" y="25.5352">ResourceFile.Finder</text><text fill="#000000" font-family="sans-serif" font-size="10" font-style="italic" lengthAdjust="spacingAndGlyphs" textLength="182" x="391" y="38.1563">it.tidalwave.northernwind.core.model</text><line style="stroke: #A80036; stroke-width: 1.5;" x1="363" x2="575" y1="45.2656" y2="45.2656"/><ellipse cx="373" cy="56.2656" fill="#84BE84" rx="3" ry="3" style="stroke: #038048; stroke-width: 1.0;"/><text fill="#000000" font-family="sans-serif" font-size="11" font-style="italic" lengthAdjust="spacingAndGlyphs" textLength="167" x="382" y="59.9004">withRecursion(boolean): Finder</text><ellipse cx="373" cy="69.2207" fill="#84BE84" rx="3" ry="3" style="stroke: #038048; stroke-width: 1.0;"/><text fill="#000000" font-family="sans-serif" font-size="11" font-style="italic" lengthAdjust="spacingAndGlyphs" textLength="132" x="382" y="72.8555">withName(String): Finder</text><ellipse cx="373" cy="82.1758" fill="#84BE84" rx="3" ry="3" style="stroke: #038048; stroke-width: 1.0;"/><text fill="#000000" font-family="sans-serif" font-size="11" font-style="italic" lengthAdjust="spacingAndGlyphs" textLength="93" x="382" y="85.8105">getName(): String</text><ellipse cx="373" cy="95.1309" fill="#84BE84" rx="3" ry="3" style="stroke: #038048; stroke-width: 1.0;"/><text fill="#000000" font-family="sans-serif" font-size="11" font-style="italic" lengthAdjust="spacingAndGlyphs" textLength="118" x="382" y="98.7656">isRecursive(): boolean</text></a><!--MD5=[538d8e365cd547bcb1e34b8076f6e08f]
reverse link it.tidalwave.util.spi.HierarchicFinderSupport to it.tidalwave.northernwind.core.model.spi.ResourceFileFinderSupport--><path codeLine="22" d="M197.4167,90.4454 C216.2436,111.766 240.9719,139.7696 263.1318,164.8645 " fill="none" id="it.tidalwave.util.spi.HierarchicFinderSupport-backto-it.tidalwave.northernwind.core.model.spi.ResourceFileFinderSupport" style="stroke: #A80036; stroke-width: 1.0;"/><polygon fill="none" points="192.0193,94.9085,184.0281,75.2835,202.5134,85.6417,192.0193,94.9085" style="stroke: #A80036; stroke-width: 1.0;"/><!--MD5=[92b06f81e330b28be2bae5a7bb8b9151]
reverse link it.tidalwave.northernwind.core.model.ResourceFile.Finder to it.tidalwave.northernwind.core.model.spi.ResourceFileFinderSupport--><path codeLine="23" d="M412.1477,120.3824 C399.2814,134.9528 385.6445,150.396 372.8623,164.8712 " fill="none" id="it.tidalwave.northernwind.core.model.ResourceFile.Finder-backto-it.tidalwave.northernwind.core.model.spi.ResourceFileFinderSupport" style="stroke: #A80036; stroke-width: 1.0; stroke-dasharray: 7.0,7.0;"/><polygon fill="none" points="407.2441,115.36,425.7295,105.0017,417.7383,124.6268,407.2441,115.36" style="stroke: #A80036; stroke-width: 1.0;"/><text fill="#888888" font-family="sans-serif" font-size="10" lengthAdjust="spacingAndGlyphs" textLength="188" x="194.5" y="311.6641">UMLDoclet 2.0.12, PlantUML 1.2020.16</text><!--MD5=[17c43c501cfb37326a31d33e2d21672c]
@startuml
    set namespaceSeparator none
    hide empty fields
    hide empty methods

    class "<size:14>ResourceFileFinderSupport\n<size:10>it.tidalwave.northernwind.core.model.spi" as it.tidalwave.northernwind.core.model.spi.ResourceFileFinderSupport [[ResourceFileFinderSupport.html]] {
        +ResourceFileFinderSupport(ResourceFileFinderSupport, Object)
        {static} +withComputeResults(Function<Finder, List<ResourceFile>>): Finder
        {static} +withComputeResults(String, Function<Finder, ? extends List<ResourceFile>>): Finder
        +withRecursion(boolean): Finder
        +withName(String): Finder
        #computeResults(): List<ResourceFile>
    }

    class "<size:14>HierarchicFinderSupport\n<size:10>it.tidalwave.util.spi" as it.tidalwave.util.spi.HierarchicFinderSupport<ResourceFile, Finder>
    interface "<size:14>ResourceFile.Finder\n<size:10>it.tidalwave.northernwind.core.model" as it.tidalwave.northernwind.core.model.ResourceFile.Finder [[../ResourceFile.Finder.html]] {
        {abstract} +withRecursion(boolean): Finder
        {abstract} +withName(String): Finder
        {abstract} +getName(): String
        {abstract} +isRecursive(): boolean
    }

    it.tidalwave.util.spi.HierarchicFinderSupport <|- - it.tidalwave.northernwind.core.model.spi.ResourceFileFinderSupport
    it.tidalwave.northernwind.core.model.ResourceFile.Finder <|.. it.tidalwave.northernwind.core.model.spi.ResourceFileFinderSupport

    center footer UMLDoclet 2.0.12, PlantUML 1.2020.16
@enduml

PlantUML version 1.2020.16(Sun Aug 23 22:20:43 CEST 2020)
(APACHE source distribution)
Java Runtime: OpenJDK Runtime Environment
JVM: OpenJDK 64-Bit Server VM
Default Encoding: UTF-8
Language: en
Country: GB
--></g></svg>