GROUP,PACKAGE,CLASS,INSTRUCTION_MISSED,INSTRUCTION_COVERED,BRANCH_MISSED,BRANCH_COVERED,LINE_MISSED,LINE_COVERED,COMPLEXITY_MISSED,COMPLEXITY_COVERED,METHOD_MISSED,METHOD_COVERED
Zephyr - UI Structure Explorer/it-tidalwave-northernwind-rca-ui-commons,it.tidalwave.northernwind.model.impl.admin.role,SiteNodeDisplayable,6,0,0,0,3,0,2,0,2,0
Zephyr - UI Structure Explorer/it-tidalwave-northernwind-rca-ui-commons,it.tidalwave.northernwind.model.impl.admin.role,ContentPresentationModelFactory,33,50,2,0,7,11,4,4,3,4
Zephyr - UI Structure Explorer/it-tidalwave-northernwind-rca-ui-commons,it.tidalwave.northernwind.model.impl.admin.role,ContentPresentable,5,0,0,0,2,0,1,0,1,0
Zephyr - UI Structure Explorer/it-tidalwave-northernwind-rca-ui-commons,it.tidalwave.northernwind.model.impl.admin.role,ResourcePropertiesPresentable,29,0,2,0,3,0,4,0,3,0
Zephyr - UI Structure Explorer/it-tidalwave-northernwind-rca-ui-commons,it.tidalwave.northernwind.model.impl.admin.role,ContentDisplayable,6,0,0,0,3,0,2,0,2,0
Zephyr - UI Structure Explorer/it-tidalwave-northernwind-rca-ui-commons,it.tidalwave.northernwind.model.impl.admin.role,ResourcePropertiesSaveable,105,0,6,0,17,0,7,0,4,0
Zephyr - UI Structure Explorer/it-tidalwave-northernwind-rca-ui-commons,it.tidalwave.northernwind.model.impl.admin.role,ResourcePropertiesPresentable.PropertyPmFinder,131,0,6,0,20,0,8,0,5,0
Zephyr - UI Structure Explorer/it-tidalwave-northernwind-rca-ui-commons,it.tidalwave.northernwind.model.impl.admin.role,SiteNodePresentable,4,0,0,0,2,0,1,0,1,0
Zephyr - UI Structure Explorer/it-tidalwave-northernwind-rca-ui-commons,it.tidalwave.northernwind.model.impl.admin.role,ResourceDisplayableSupport,30,0,2,0,4,0,4,0,3,0
Zephyr - UI Structure Explorer/it-tidalwave-northernwind-rca-ui-commons,it.tidalwave.northernwind.model.admin.role,WritableFolder,3,0,0,0,1,0,1,0,1,0
Zephyr - UI Structure Explorer/it-tidalwave-northernwind-rca-ui-commons,it.tidalwave.northernwind.model.admin.role,Saveable,3,0,0,0,1,0,1,0,1,0
Zephyr - UI Structure Explorer/it-tidalwave-northernwind-rca-ui-commons,it.tidalwave.northernwind.model.admin,Properties.new Key() {...},0,4,0,0,0,1,0,1,0,1
Zephyr - UI Structure Explorer/it-tidalwave-northernwind-rca-ui-commons,it.tidalwave.northernwind.model.admin,Properties.new Key() {...},0,4,0,0,0,1,0,1,0,1
Zephyr - UI Structure Explorer/it-tidalwave-northernwind-rca-ui-commons,it.tidalwave.northernwind.model.admin,Properties.new Key() {...},0,4,0,0,0,1,0,1,0,1
Zephyr - UI Structure Explorer/it-tidalwave-northernwind-rca-ui-commons,it.tidalwave.northernwind.model.admin,Properties.new Key() {...},0,4,0,0,0,1,0,1,0,1
Zephyr - UI Structure Explorer/it-tidalwave-northernwind-rca-ui-commons,it.tidalwave.northernwind.model.admin,Properties.new Key() {...},0,4,0,0,0,1,0,1,0,1
Zephyr - UI Structure Explorer/it-tidalwave-northernwind-rca-ui-commons,it.tidalwave.northernwind.model.admin,Properties.new Key() {...},0,4,0,0,0,1,0,1,0,1
Zephyr - UI Structure Explorer/it-tidalwave-northernwind-rca-ui-commons,it.tidalwave.northernwind.model.admin,Properties.new Key() {...},0,4,0,0,0,1,0,1,0,1
Zephyr - UI Structure Explorer/it-tidalwave-northernwind-rca-ui-commons,it.tidalwave.northernwind.model.admin,Properties.new Key() {...},0,4,0,0,0,1,0,1,0,1
Zephyr - UI Structure Explorer/it-tidalwave-northernwind-rca-ui-commons,it.tidalwave.northernwind.model.admin,Properties,0,41,0,0,0,8,0,1,0,1
Zephyr - UI Structure Explorer/it-tidalwave-northernwind-rca-ui-commons,it.tidalwave.northernwind.rca.ui.event,ContentSelectedEvent,9,22,1,1,0,4,2,4,1,4
Zephyr - UI Structure Explorer/it-tidalwave-northernwind-rca-ui-commons,it.tidalwave.northernwind.rca.ui.event,OpenSiteEvent,56,0,4,0,7,0,7,0,5,0
Zephyr - UI Structure Explorer/it-tidalwave-northernwind-rca-ui-commons,it.tidalwave.northernwind.rca.ui.event,CreateContentRequest,86,0,16,0,2,0,15,0,7,0
Zephyr - UI Structure Explorer/it-tidalwave-northernwind-rca-ui-commons,it.tidalwave.northernwind.rca.ui.event,SiteNodeSelectedEvent,9,22,1,1,0,4,2,4,1,4
Zephyr - UI Structure Explorer/it-tidalwave-northernwind-rca-ui-commons,it.tidalwave.northernwind.rca.ui.event,ContentCreatedEvent,133,0,26,0,3,0,21,0,8,0
Zephyr - UI Structure Explorer/it-tidalwave-northernwind-rca-ui-commons,it.tidalwave.northernwind.frontend.filesystem.impl,ResourceFileNetBeansPlatformWritableFolder,11,47,2,2,1,11,2,5,0,5
Zephyr - UI Structure Explorer/it-tidalwave-northernwind-rca-ui-commons,it.tidalwave.northernwind.rca.util,PropertyUtilities.Format,0,25,0,2,0,6,0,5,0,4
Zephyr - UI Structure Explorer/it-tidalwave-northernwind-rca-ui-commons,it.tidalwave.northernwind.rca.util,PropertyUtilities,7,27,0,0,1,6,3,5,3,5
