@startuml
    set namespaceSeparator none
    hide empty fields
    hide empty methods

    annotation "<size:14>ThreadConfined\n<size:10>it.tidalwave.util.thread.annotation" as it.tidalwave.util.thread.annotation.ThreadConfined [[ThreadConfined.html]]

    center footer UMLDoclet 2.0.12, PlantUML 1.2020.16
@enduml
