@startuml
    set namespaceSeparator none
    hide empty fields
    hide empty methods

    class "<size:14>HardwiredSystemRoleFactoryProvider\n<size:10>it.tidalwave.thesefoolishthings.examples.jpafinderexample" as it.tidalwave.thesefoolishthings.examples.jpafinderexample.HardwiredSystemRoleFactoryProvider [[HardwiredSystemRoleFactoryProvider.html]] {
        +getSystemRoleFactory(): SystemRoleFactory
    }

    interface "<size:14>SystemRoleFactoryProvider\n<size:10>it.tidalwave.role.spi" as it.tidalwave.role.spi.SystemRoleFactoryProvider [[../../../role/spi/SystemRoleFactoryProvider.html]] {
        {abstract} +getSystemRoleFactory(): SystemRoleFactory
    }

    it.tidalwave.role.spi.SystemRoleFactoryProvider <|.. it.tidalwave.thesefoolishthings.examples.jpafinderexample.HardwiredSystemRoleFactoryProvider

    center footer UMLDoclet 2.0.12, PlantUML 1.2020.16
@enduml
