@startuml
    set namespaceSeparator none
    hide empty fields
    hide empty methods

    interface "<size:14>RssFeedViewController\n<size:10>it.tidalwave.northernwind.frontend.ui.component.rssfeed" as it.tidalwave.northernwind.frontend.ui.component.rssfeed.RssFeedViewController [[RssFeedViewController.html]] {
        {static} +P_CREATOR: Key<String>
        {static} +P_LINK: Key<String>
    }

    interface "<size:14>ViewController\n<size:10>it.tidalwave.northernwind.frontend.ui" as it.tidalwave.northernwind.frontend.ui.ViewController [[../../ViewController.html]]

    it.tidalwave.northernwind.frontend.ui.ViewController <|-- it.tidalwave.northernwind.frontend.ui.component.rssfeed.RssFeedViewController

    center footer UMLDoclet 2.0.12, PlantUML 1.2020.16
@enduml
