<?xml version="1.0" encoding="UTF-8" standalone="no"?><svg xmlns="http://www.w3.org/2000/svg" xmlns:xlink="http://www.w3.org/1999/xlink" contentScriptType="application/ecmascript" contentStyleType="text/css" height="144px" preserveAspectRatio="none" style="width:515px;height:144px;" version="1.1" viewBox="0 0 515 144" width="515px" zoomAndPan="magnify"><defs><filter height="300%" id="fr3e593qyy0gw" width="300%" x="-1" y="-1"><feGaussianBlur result="blurOut" stdDeviation="2.0"/><feColorMatrix in="blurOut" result="blurOut2" type="matrix" values="0 0 0 0 0 0 0 0 0 0 0 0 0 0 0 0 0 0 .4 0"/><feOffset dx="4.0" dy="4.0" in="blurOut2" result="blurOut3"/><feBlend in="SourceGraphic" in2="blurOut3" mode="normal"/></filter></defs><g><!--MD5=[38688d9ab7fb6e4df29b7d1920abd853]
cluster it.tidalwave.thesefoolishthings.examples.dci.marshal.xstream--><polygon fill="#FFFFFF" filter="url(#fr3e593qyy0gw)" points="16,6,461,6,468,28.4883,493,28.4883,493,115,16,115,16,6" style="stroke: #000000; stroke-width: 1.5;"/><line style="stroke: #000000; stroke-width: 1.5;" x1="16" x2="468" y1="28.4883" y2="28.4883"/><text fill="#000000" font-family="sans-serif" font-size="14" font-weight="bold" lengthAdjust="spacingAndGlyphs" textLength="439" x="20" y="21.5352">it.tidalwave.thesefoolishthings.examples.dci.marshal.xstream</text><!--MD5=[ec18b812acad9cd463ca43b8a1c0a113]
class it.tidalwave.thesefoolishthings.examples.dci.marshal.xstream.DciMarshalXStreamExample--><a href="DciMarshalXStreamExample.html" target="_top" title="DciMarshalXStreamExample.html" xlink:actuate="onRequest" xlink:href="DciMarshalXStreamExample.html" xlink:show="new" xlink:title="DciMarshalXStreamExample.html" xlink:type="simple"><rect codeLine="3" fill="#FEFECE" filter="url(#fr3e593qyy0gw)" height="60.9551" id="it.tidalwave.thesefoolishthings.examples.dci.marshal.xstream.DciMarshalXStreamExample" style="stroke: #A80036; stroke-width: 1.5;" width="193" x="291.5" y="39.5"/><ellipse cx="306.5" cy="55.5" fill="#ADD1B2" rx="11" ry="11" style="stroke: #A80036; stroke-width: 1.0;"/><path d="M308.9731,61.6431 Q308.3921,61.9419 307.7529,62.0913 Q307.1138,62.2407 306.4082,62.2407 Q303.9014,62.2407 302.5815,60.5889 Q301.2617,58.937 301.2617,55.8159 Q301.2617,52.6865 302.5815,51.0347 Q303.9014,49.3828 306.4082,49.3828 Q307.1138,49.3828 307.7612,49.5322 Q308.4087,49.6816 308.9731,49.9805 L308.9731,52.7031 Q308.3423,52.1221 307.7488,51.8523 Q307.1553,51.5825 306.5244,51.5825 Q305.1797,51.5825 304.4949,52.6492 Q303.8101,53.7158 303.8101,55.8159 Q303.8101,57.9077 304.4949,58.9744 Q305.1797,60.041 306.5244,60.041 Q307.1553,60.041 307.7488,59.7712 Q308.3423,59.5015 308.9731,58.9204 Z "/><text fill="#000000" font-family="sans-serif" font-size="12" lengthAdjust="spacingAndGlyphs" textLength="161" x="320.5" y="60.0352">DciMarshalXStreamExample</text><line style="stroke: #A80036; stroke-width: 1.5;" x1="292.5" x2="483.5" y1="71.5" y2="71.5"/><line style="stroke: #A80036; stroke-width: 1.5;" x1="292.5" x2="483.5" y1="79.5" y2="79.5"/><ellipse cx="302.5" cy="90.5" fill="#84BE84" rx="3" ry="3" style="stroke: #038048; stroke-width: 1.0;"/><text fill="#000000" font-family="sans-serif" font-size="11" lengthAdjust="spacingAndGlyphs" textLength="56" x="311.5" y="94.1348">run(): void</text></a><!--MD5=[ac288db3a1487a7a4df38e5d9cff166b]
class it.tidalwave.thesefoolishthings.examples.dci.marshal.xstream.Main--><a href="Main.html" target="_top" title="Main.html" xlink:actuate="onRequest" xlink:href="Main.html" xlink:show="new" xlink:title="Main.html" xlink:type="simple"><rect codeLine="7" fill="#FEFECE" filter="url(#fr3e593qyy0gw)" height="73.9102" id="it.tidalwave.thesefoolishthings.examples.dci.marshal.xstream.Main" style="stroke: #A80036; stroke-width: 1.5;" width="233" x="23.5" y="33"/><ellipse cx="122.25" cy="49" fill="#ADD1B2" rx="11" ry="11" style="stroke: #A80036; stroke-width: 1.0;"/><path d="M124.7231,55.1431 Q124.1421,55.4419 123.5029,55.5913 Q122.8638,55.7407 122.1582,55.7407 Q119.6514,55.7407 118.3315,54.0889 Q117.0117,52.437 117.0117,49.3159 Q117.0117,46.1865 118.3315,44.5347 Q119.6514,42.8828 122.1582,42.8828 Q122.8638,42.8828 123.5112,43.0322 Q124.1587,43.1816 124.7231,43.4805 L124.7231,46.2031 Q124.0923,45.6221 123.4988,45.3523 Q122.9053,45.0825 122.2744,45.0825 Q120.9297,45.0825 120.2449,46.1492 Q119.5601,47.2158 119.5601,49.3159 Q119.5601,51.4077 120.2449,52.4744 Q120.9297,53.541 122.2744,53.541 Q122.9053,53.541 123.4988,53.2712 Q124.0923,53.0015 124.7231,52.4204 Z "/><text fill="#000000" font-family="sans-serif" font-size="12" lengthAdjust="spacingAndGlyphs" textLength="27" x="142.75" y="53.5352">Main</text><line style="stroke: #A80036; stroke-width: 1.5;" x1="24.5" x2="255.5" y1="65" y2="65"/><line style="stroke: #A80036; stroke-width: 1.5;" x1="24.5" x2="255.5" y1="73" y2="73"/><ellipse cx="34.5" cy="84" fill="#84BE84" rx="3" ry="3" style="stroke: #038048; stroke-width: 1.0;"/><text fill="#000000" font-family="sans-serif" font-size="11" lengthAdjust="spacingAndGlyphs" textLength="207" x="43.5" y="87.6348">example(): DciMarshalXStreamExample</text><ellipse cx="34.5" cy="96.9551" fill="#84BE84" rx="3" ry="3" style="stroke: #038048; stroke-width: 1.0;"/><text fill="#000000" font-family="sans-serif" font-size="11" lengthAdjust="spacingAndGlyphs" text-decoration="underline" textLength="104" x="43.5" y="100.5898">main(String...): void</text></a><text fill="#888888" font-family="sans-serif" font-size="10" lengthAdjust="spacingAndGlyphs" textLength="188" x="154.5" y="130.668">UMLDoclet 2.0.12, PlantUML 1.2020.16</text><!--MD5=[9148deddab027a400cafb67cbc5ee05e]
@startuml
    namespace it.tidalwave.thesefoolishthings.examples.dci.marshal.xstream {

        class DciMarshalXStreamExample [[DciMarshalXStreamExample.html]] {
            +run(): void
        }

        class Main [[Main.html]] {
            +example(): DciMarshalXStreamExample
            {static} +main(String...): void
        }

    }

    center footer UMLDoclet 2.0.12, PlantUML 1.2020.16
@enduml

PlantUML version 1.2020.16(Sun Aug 23 22:20:43 CEST 2020)
(APACHE source distribution)
Java Runtime: OpenJDK Runtime Environment
JVM: OpenJDK 64-Bit Server VM
Default Encoding: UTF-8
Language: en
Country: GB
--></g></svg>