<?xml version="1.0" encoding="UTF-8" standalone="no"?><svg xmlns="http://www.w3.org/2000/svg" xmlns:xlink="http://www.w3.org/1999/xlink" contentScriptType="application/ecmascript" contentStyleType="text/css" height="213px" preserveAspectRatio="none" style="width:852px;height:213px;" version="1.1" viewBox="0 0 852 213" width="852px" zoomAndPan="magnify"><defs><filter height="300%" id="fbh9g3ar6isc8" width="300%" x="-1" y="-1"><feGaussianBlur result="blurOut" stdDeviation="2.0"/><feColorMatrix in="blurOut" result="blurOut2" type="matrix" values="0 0 0 0 0 0 0 0 0 0 0 0 0 0 0 0 0 0 .4 0"/><feOffset dx="4.0" dy="4.0" in="blurOut2" result="blurOut3"/><feBlend in="SourceGraphic" in2="blurOut3" mode="normal"/></filter></defs><g><!--MD5=[6eb0e8a185444f1657ae80999fc82d9d]
class it.tidalwave.northernwind.frontend.ui.component.calendar.htmltemplate.HtmlTemplateCalendarView--><a href="HtmlTemplateCalendarView.html" target="_top" title="HtmlTemplateCalendarView.html" xlink:actuate="onRequest" xlink:href="HtmlTemplateCalendarView.html" xlink:show="new" xlink:title="HtmlTemplateCalendarView.html" xlink:type="simple"><rect codeLine="5" fill="#FEFECE" filter="url(#fbh9g3ar6isc8)" height="72.1758" id="it.tidalwave.northernwind.frontend.ui.component.calendar.htmltemplate.HtmlTemplateCalendarView" style="stroke: #A80036; stroke-width: 1.5;" width="826" x="7" y="105"/><ellipse cx="239.25" cy="124.1328" fill="#ADD1B2" rx="11" ry="11" style="stroke: #A80036; stroke-width: 1.0;"/><path d="M241.7231,130.2759 Q241.1421,130.5747 240.5029,130.7241 Q239.8638,130.8735 239.1582,130.8735 Q236.6514,130.8735 235.3315,129.2217 Q234.0117,127.5698 234.0117,124.4487 Q234.0117,121.3193 235.3315,119.6675 Q236.6514,118.0156 239.1582,118.0156 Q239.8638,118.0156 240.5112,118.165 Q241.1587,118.3145 241.7231,118.6133 L241.7231,121.3359 Q241.0923,120.7549 240.4988,120.4851 Q239.9053,120.2153 239.2744,120.2153 Q237.9297,120.2153 237.2449,121.282 Q236.5601,122.3486 236.5601,124.4487 Q236.5601,126.5405 237.2449,127.6072 Q237.9297,128.6738 239.2744,128.6738 Q239.9053,128.6738 240.4988,128.4041 Q241.0923,128.1343 241.7231,127.5532 Z "/><text fill="#000000" font-family="sans-serif" font-size="14" lengthAdjust="spacingAndGlyphs" textLength="190" x="341.25" y="123.5352">HtmlTemplateCalendarView</text><text fill="#000000" font-family="sans-serif" font-size="10" lengthAdjust="spacingAndGlyphs" textLength="353" x="259.75" y="136.1563">it.tidalwave.northernwind.frontend.ui.component.calendar.htmltemplate</text><line style="stroke: #A80036; stroke-width: 1.5;" x1="8" x2="832" y1="143.2656" y2="143.2656"/><ellipse cx="18" cy="154.2656" fill="#84BE84" rx="3" ry="3" style="stroke: #038048; stroke-width: 1.0;"/><text fill="#000000" font-family="sans-serif" font-size="11" lengthAdjust="spacingAndGlyphs" textLength="189" x="27" y="157.9004">HtmlTemplateCalendarView(Id, Site)</text><ellipse cx="18" cy="167.2207" fill="#84BE84" rx="3" ry="3" style="stroke: #038048; stroke-width: 1.0;"/><text fill="#000000" font-family="sans-serif" font-size="11" lengthAdjust="spacingAndGlyphs" textLength="800" x="27" y="170.8555">render(Optional&lt;String&gt;, Optional&lt;ResourcePath&gt;, Map&lt;Integer, String&gt;, String, Aggregates, Map&lt;Integer, List&lt;Map&lt;String, Object&gt;&gt;&gt;, int): void</text></a><!--MD5=[29faf4ef4f5626ea036e882b9bdb2503]
class it.tidalwave.northernwind.frontend.ui.component.htmlfragment.htmltemplate.HtmlTemplateHtmlFragmentView--><a href="../../htmlfragment/htmltemplate/HtmlTemplateHtmlFragmentView.html" target="_top" title="../../htmlfragment/htmltemplate/HtmlTemplateHtmlFragmentView.html" xlink:actuate="onRequest" xlink:href="../../htmlfragment/htmltemplate/HtmlTemplateHtmlFragmentView.html" xlink:show="new" xlink:title="../../htmlfragment/htmltemplate/HtmlTemplateHtmlFragmentView.html" xlink:type="simple"><rect codeLine="10" fill="#FEFECE" filter="url(#fbh9g3ar6isc8)" height="38.2656" id="it.tidalwave.northernwind.frontend.ui.component.htmlfragment.htmltemplate.HtmlTemplateHtmlFragmentView" style="stroke: #A80036; stroke-width: 1.5;" width="410" x="16" y="7"/><ellipse cx="31" cy="26.1328" fill="#ADD1B2" rx="11" ry="11" style="stroke: #A80036; stroke-width: 1.0;"/><path d="M33.4731,32.2759 Q32.8921,32.5747 32.2529,32.7241 Q31.6138,32.8735 30.9082,32.8735 Q28.4014,32.8735 27.0815,31.2217 Q25.7617,29.5698 25.7617,26.4487 Q25.7617,23.3193 27.0815,21.6675 Q28.4014,20.0156 30.9082,20.0156 Q31.6138,20.0156 32.2612,20.165 Q32.9087,20.3145 33.4731,20.6133 L33.4731,23.3359 Q32.8423,22.7549 32.2488,22.4851 Q31.6553,22.2153 31.0244,22.2153 Q29.6797,22.2153 28.9949,23.282 Q28.3101,24.3486 28.3101,26.4487 Q28.3101,28.5405 28.9949,29.6072 Q29.6797,30.6738 31.0244,30.6738 Q31.6553,30.6738 32.2488,30.4041 Q32.8423,30.1343 33.4731,29.5532 Z "/><text fill="#000000" font-family="sans-serif" font-size="14" lengthAdjust="spacingAndGlyphs" textLength="226" x="121" y="25.5352">HtmlTemplateHtmlFragmentView</text><text fill="#000000" font-family="sans-serif" font-size="10" lengthAdjust="spacingAndGlyphs" textLength="378" x="45" y="38.1563">it.tidalwave.northernwind.frontend.ui.component.htmlfragment.htmltemplate</text></a><!--MD5=[8f03c15f8bdc17448621063bf633b6ab]
class it.tidalwave.northernwind.frontend.ui.component.calendar.CalendarView--><a href="http://tidalwave.tidalwave.it/northernwind/it-tidalwave-northernwind-modules/it-tidalwave-northernwind-frontend-components/apidocs/it/tidalwave/northernwind/frontend/ui/component/calendar/CalendarView.html?is-external=true" target="_top" title="http://tidalwave.tidalwave.it/northernwind/it-tidalwave-northernwind-modules/it-tidalwave-northernwind-frontend-components/apidocs/it/tidalwave/northernwind/frontend/ui/component/calendar/CalendarView.html?is-external=true" xlink:actuate="onRequest" xlink:href="http://tidalwave.tidalwave.it/northernwind/it-tidalwave-northernwind-modules/it-tidalwave-northernwind-frontend-components/apidocs/it/tidalwave/northernwind/frontend/ui/component/calendar/CalendarView.html?is-external=true" xlink:show="new" xlink:title="http://tidalwave.tidalwave.it/northernwind/it-tidalwave-northernwind-modules/it-tidalwave-northernwind-frontend-components/apidocs/it/tidalwave/northernwind/frontend/ui/component/calendar/CalendarView.html?is-external=true" xlink:type="simple"><rect codeLine="11" fill="#FEFECE" filter="url(#fbh9g3ar6isc8)" height="38.2656" id="it.tidalwave.northernwind.frontend.ui.component.calendar.CalendarView" style="stroke: #A80036; stroke-width: 1.5;" width="316" x="461" y="7"/><ellipse cx="476" cy="26.1328" fill="#B4A7E5" rx="11" ry="11" style="stroke: #A80036; stroke-width: 1.0;"/><path d="M472.4277,22.3979 L472.4277,20.2397 L479.8071,20.2397 L479.8071,22.3979 L477.3418,22.3979 L477.3418,30.4746 L479.8071,30.4746 L479.8071,32.6328 L472.4277,32.6328 L472.4277,30.4746 L474.8931,30.4746 L474.8931,22.3979 Z "/><text fill="#000000" font-family="sans-serif" font-size="14" font-style="italic" lengthAdjust="spacingAndGlyphs" textLength="94" x="585" y="25.5352">CalendarView</text><text fill="#000000" font-family="sans-serif" font-size="10" font-style="italic" lengthAdjust="spacingAndGlyphs" textLength="284" x="490" y="38.1563">it.tidalwave.northernwind.frontend.ui.component.calendar</text></a><!--MD5=[745382e79940fdcd91e4f5b46fad8fb8]
reverse link it.tidalwave.northernwind.frontend.ui.component.htmlfragment.htmltemplate.HtmlTemplateHtmlFragmentView to it.tidalwave.northernwind.frontend.ui.component.calendar.htmltemplate.HtmlTemplateCalendarView--><path codeLine="13" d="M271.7249,55.3134 C297.8568,70.4147 329.9525,88.9625 357.5918,104.935 " fill="none" id="it.tidalwave.northernwind.frontend.ui.component.htmlfragment.htmltemplate.HtmlTemplateHtmlFragmentView-backto-it.tidalwave.northernwind.frontend.ui.component.calendar.htmltemplate.HtmlTemplateCalendarView" style="stroke: #A80036; stroke-width: 1.0;"/><polygon fill="none" points="268.1221,61.3162,254.3081,45.2484,275.1271,49.1947,268.1221,61.3162" style="stroke: #A80036; stroke-width: 1.0;"/><!--MD5=[475fde2918f2e9f15202512a8f687ea4]
reverse link it.tidalwave.northernwind.frontend.ui.component.calendar.CalendarView to it.tidalwave.northernwind.frontend.ui.component.calendar.htmltemplate.HtmlTemplateCalendarView--><path codeLine="14" d="M568.2751,55.3134 C542.1432,70.4147 510.0475,88.9625 482.4082,104.935 " fill="none" id="it.tidalwave.northernwind.frontend.ui.component.calendar.CalendarView-backto-it.tidalwave.northernwind.frontend.ui.component.calendar.htmltemplate.HtmlTemplateCalendarView" style="stroke: #A80036; stroke-width: 1.0; stroke-dasharray: 7.0,7.0;"/><polygon fill="none" points="564.8729,49.1947,585.6919,45.2484,571.8779,61.3162,564.8729,49.1947" style="stroke: #A80036; stroke-width: 1.0;"/><text fill="#888888" font-family="sans-serif" font-size="10" lengthAdjust="spacingAndGlyphs" textLength="188" x="323" y="199.8438">UMLDoclet 2.0.12, PlantUML 1.2020.16</text><!--MD5=[6682c569c7e070e5fb87126385864fee]
@startuml
    set namespaceSeparator none
    hide empty fields
    hide empty methods

    class "<size:14>HtmlTemplateCalendarView\n<size:10>it.tidalwave.northernwind.frontend.ui.component.calendar.htmltemplate" as it.tidalwave.northernwind.frontend.ui.component.calendar.htmltemplate.HtmlTemplateCalendarView [[HtmlTemplateCalendarView.html]] {
        +HtmlTemplateCalendarView(Id, Site)
        +render(Optional<String>, Optional<ResourcePath>, Map<Integer, String>, String, Aggregates, Map<Integer, List<Map<String, Object>>>, int): void
    }

    class "<size:14>HtmlTemplateHtmlFragmentView\n<size:10>it.tidalwave.northernwind.frontend.ui.component.htmlfragment.htmltemplate" as it.tidalwave.northernwind.frontend.ui.component.htmlfragment.htmltemplate.HtmlTemplateHtmlFragmentView [[../../htmlfragment/htmltemplate/HtmlTemplateHtmlFragmentView.html]]
    interface "<size:14>CalendarView\n<size:10>it.tidalwave.northernwind.frontend.ui.component.calendar" as it.tidalwave.northernwind.frontend.ui.component.calendar.CalendarView [[http://tidalwave.tidalwave.it/northernwind/it-tidalwave-northernwind-modules/it-tidalwave-northernwind-frontend-components/apidocs/it/tidalwave/northernwind/frontend/ui/component/calendar/CalendarView.html?is-external=true]]

    it.tidalwave.northernwind.frontend.ui.component.htmlfragment.htmltemplate.HtmlTemplateHtmlFragmentView <|- - it.tidalwave.northernwind.frontend.ui.component.calendar.htmltemplate.HtmlTemplateCalendarView
    it.tidalwave.northernwind.frontend.ui.component.calendar.CalendarView <|.. it.tidalwave.northernwind.frontend.ui.component.calendar.htmltemplate.HtmlTemplateCalendarView

    center footer UMLDoclet 2.0.12, PlantUML 1.2020.16
@enduml

PlantUML version 1.2020.16(Sun Aug 23 22:20:43 CEST 2020)
(APACHE source distribution)
Java Runtime: OpenJDK Runtime Environment
JVM: OpenJDK 64-Bit Server VM
Default Encoding: UTF-8
Language: en
Country: GB
--></g></svg>