<?xml version="1.0" encoding="UTF-8" standalone="no"?><svg xmlns="http://www.w3.org/2000/svg" xmlns:xlink="http://www.w3.org/1999/xlink" contentScriptType="application/ecmascript" contentStyleType="text/css" height="242px" preserveAspectRatio="none" style="width:361px;height:242px;" version="1.1" viewBox="0 0 361 242" width="361px" zoomAndPan="magnify"><defs><filter height="300%" id="f1tnagmk9j5miy" width="300%" x="-1" y="-1"><feGaussianBlur result="blurOut" stdDeviation="2.0"/><feColorMatrix in="blurOut" result="blurOut2" type="matrix" values="0 0 0 0 0 0 0 0 0 0 0 0 0 0 0 0 0 0 .4 0"/><feOffset dx="4.0" dy="4.0" in="blurOut2" result="blurOut3"/><feBlend in="SourceGraphic" in2="blurOut3" mode="normal"/></filter></defs><g><!--MD5=[7a20ad32942a1e6881be05ac2a98b763]
class it.tidalwave.northernwind.core.model.spi.DefaultMediaRequestProcessor--><a href="DefaultMediaRequestProcessor.html" target="_top" title="DefaultMediaRequestProcessor.html" xlink:actuate="onRequest" xlink:href="DefaultMediaRequestProcessor.html" xlink:show="new" xlink:title="DefaultMediaRequestProcessor.html" xlink:type="simple"><rect codeLine="5" fill="#FEFECE" filter="url(#f1tnagmk9j5miy)" height="80.1758" id="it.tidalwave.northernwind.core.model.spi.DefaultMediaRequestProcessor" style="stroke: #A80036; stroke-width: 1.5;" width="333" x="9" y="126"/><ellipse cx="24" cy="145.1328" fill="#ADD1B2" rx="11" ry="11" style="stroke: #A80036; stroke-width: 1.0;"/><path d="M26.4731,151.2759 Q25.8921,151.5747 25.2529,151.7241 Q24.6138,151.8735 23.9082,151.8735 Q21.4014,151.8735 20.0815,150.2217 Q18.7617,148.5698 18.7617,145.4487 Q18.7617,142.3193 20.0815,140.6675 Q21.4014,139.0156 23.9082,139.0156 Q24.6138,139.0156 25.2612,139.165 Q25.9087,139.3145 26.4731,139.6133 L26.4731,142.3359 Q25.8423,141.7549 25.2488,141.4851 Q24.6553,141.2153 24.0244,141.2153 Q22.6797,141.2153 21.9949,142.282 Q21.3101,143.3486 21.3101,145.4487 Q21.3101,147.5405 21.9949,148.6072 Q22.6797,149.6738 24.0244,149.6738 Q24.6553,149.6738 25.2488,149.4041 Q25.8423,149.1343 26.4731,148.5532 Z "/><text fill="#000000" font-family="sans-serif" font-size="14" lengthAdjust="spacingAndGlyphs" textLength="212" x="38" y="144.5352">DefaultMediaRequestProcessor</text><text fill="#000000" font-family="sans-serif" font-size="10" lengthAdjust="spacingAndGlyphs" textLength="199" x="44.5" y="157.1563">it.tidalwave.northernwind.core.model.spi</text><rect fill="#FFFFFF" height="16.1328" style="stroke: #000000; stroke-width: 1.0; stroke-dasharray: 2.0,2.0;" width="87" x="258" y="123"/><text fill="#000000" font-family="sans-serif" font-size="12" font-style="italic" lengthAdjust="spacingAndGlyphs" textLength="85" x="259" y="135.6016">ResponseType</text><line style="stroke: #A80036; stroke-width: 1.5;" x1="10" x2="341" y1="164.2656" y2="164.2656"/><polygon fill="none" points="20,170.2656,24,174.2656,20,178.2656,16,174.2656" style="stroke: #B38D22; stroke-width: 1.0;"/><text fill="#000000" font-family="sans-serif" font-size="11" lengthAdjust="spacingAndGlyphs" textLength="276" x="29" y="178.9004">responseHolder: ResponseHolder&lt;ResponseType&gt;</text><line style="stroke: #A80036; stroke-width: 1.5;" x1="10" x2="341" y1="185.2207" y2="185.2207"/><ellipse cx="20" cy="196.2207" fill="#84BE84" rx="3" ry="3" style="stroke: #038048; stroke-width: 1.0;"/><text fill="#000000" font-family="sans-serif" font-size="11" lengthAdjust="spacingAndGlyphs" textLength="133" x="29" y="199.8555">process(Request): Status</text></a><!--MD5=[704de6b8ed38b98894edd2778e035021]
class it.tidalwave.northernwind.core.model.RequestProcessor--><rect codeLine="10" fill="#FEFECE" filter="url(#f1tnagmk9j5miy)" height="59.2207" id="it.tidalwave.northernwind.core.model.RequestProcessor" style="stroke: #A80036; stroke-width: 1.5;" width="214" x="68.5" y="7"/><ellipse cx="83.5" cy="26.1328" fill="#B4A7E5" rx="11" ry="11" style="stroke: #A80036; stroke-width: 1.0;"/><path d="M79.9277,22.3979 L79.9277,20.2397 L87.3071,20.2397 L87.3071,22.3979 L84.8418,22.3979 L84.8418,30.4746 L87.3071,30.4746 L87.3071,32.6328 L79.9277,32.6328 L79.9277,30.4746 L82.3931,30.4746 L82.3931,22.3979 Z "/><text fill="#000000" font-family="sans-serif" font-size="14" font-style="italic" lengthAdjust="spacingAndGlyphs" textLength="122" x="127.5" y="25.5352">RequestProcessor</text><text fill="#000000" font-family="sans-serif" font-size="10" font-style="italic" lengthAdjust="spacingAndGlyphs" textLength="182" x="97.5" y="38.1563">it.tidalwave.northernwind.core.model</text><line style="stroke: #A80036; stroke-width: 1.5;" x1="69.5" x2="281.5" y1="45.2656" y2="45.2656"/><ellipse cx="79.5" cy="56.2656" fill="#84BE84" rx="3" ry="3" style="stroke: #038048; stroke-width: 1.0;"/><text fill="#000000" font-family="sans-serif" font-size="11" font-style="italic" lengthAdjust="spacingAndGlyphs" textLength="133" x="88.5" y="59.9004">process(Request): Status</text><!--MD5=[cd136abd8d5c963ad97af7c1754b8757]
reverse link it.tidalwave.northernwind.core.model.RequestProcessor to it.tidalwave.northernwind.core.model.spi.DefaultMediaRequestProcessor--><path codeLine="14" d="M175.5,86.2729 C175.5,99.2935 175.5,113.1689 175.5,125.6328 " fill="none" id="it.tidalwave.northernwind.core.model.RequestProcessor-backto-it.tidalwave.northernwind.core.model.spi.DefaultMediaRequestProcessor" style="stroke: #A80036; stroke-width: 1.0; stroke-dasharray: 7.0,7.0;"/><polygon fill="none" points="168.5001,86.21,175.5,66.2099,182.5001,86.2099,168.5001,86.21" style="stroke: #A80036; stroke-width: 1.0;"/><text fill="#888888" font-family="sans-serif" font-size="10" lengthAdjust="spacingAndGlyphs" textLength="188" x="77.5" y="228.8438">UMLDoclet 2.0.12, PlantUML 1.2020.16</text><!--MD5=[1354ae631c3e7b6033519b8899665eee]
@startuml
    set namespaceSeparator none
    hide empty fields
    hide empty methods

    class "<size:14>DefaultMediaRequestProcessor\n<size:10>it.tidalwave.northernwind.core.model.spi" as it.tidalwave.northernwind.core.model.spi.DefaultMediaRequestProcessor<ResponseType> [[DefaultMediaRequestProcessor.html]] {
        #responseHolder: ResponseHolder<ResponseType>
        +process(Request): Status
    }

    interface "<size:14>RequestProcessor\n<size:10>it.tidalwave.northernwind.core.model" as it.tidalwave.northernwind.core.model.RequestProcessor {
        {abstract} +process(Request): Status
    }

    it.tidalwave.northernwind.core.model.RequestProcessor <|.. it.tidalwave.northernwind.core.model.spi.DefaultMediaRequestProcessor

    center footer UMLDoclet 2.0.12, PlantUML 1.2020.16
@enduml

PlantUML version 1.2020.16(Sun Aug 23 22:20:43 CEST 2020)
(APACHE source distribution)
Java Runtime: OpenJDK Runtime Environment
JVM: OpenJDK 64-Bit Server VM
Default Encoding: UTF-8
Language: en
Country: GB
--></g></svg>