<?xml version="1.0" encoding="UTF-8" standalone="no"?><svg xmlns="http://www.w3.org/2000/svg" xmlns:xlink="http://www.w3.org/1999/xlink" contentScriptType="application/ecmascript" contentStyleType="text/css" height="221px" preserveAspectRatio="none" style="width:336px;height:221px;" version="1.1" viewBox="0 0 336 221" width="336px" zoomAndPan="magnify"><defs><filter height="300%" id="fhq74afxbpgc" width="300%" x="-1" y="-1"><feGaussianBlur result="blurOut" stdDeviation="2.0"/><feColorMatrix in="blurOut" result="blurOut2" type="matrix" values="0 0 0 0 0 0 0 0 0 0 0 0 0 0 0 0 0 0 .4 0"/><feOffset dx="4.0" dy="4.0" in="blurOut2" result="blurOut3"/><feBlend in="SourceGraphic" in2="blurOut3" mode="normal"/></filter></defs><g><!--MD5=[5f0bc9c7fdc87d27fb96043d16a5b244]
class it.tidalwave.northernwind.frontend.ui.component.rssfeed.RssFeedView--><a href="RssFeedView.html" target="_top" title="RssFeedView.html" xlink:actuate="onRequest" xlink:href="RssFeedView.html" xlink:show="new" xlink:title="RssFeedView.html" xlink:type="simple"><rect codeLine="5" fill="#FEFECE" filter="url(#fhq74afxbpgc)" height="59.2207" id="it.tidalwave.northernwind.frontend.ui.component.rssfeed.RssFeedView" style="stroke: #A80036; stroke-width: 1.5;" width="310" x="7" y="126"/><ellipse cx="22" cy="145.1328" fill="#B4A7E5" rx="11" ry="11" style="stroke: #A80036; stroke-width: 1.0;"/><path d="M18.4277,141.3979 L18.4277,139.2397 L25.8071,139.2397 L25.8071,141.3979 L23.3418,141.3979 L23.3418,149.4746 L25.8071,149.4746 L25.8071,151.6328 L18.4277,151.6328 L18.4277,149.4746 L20.8931,149.4746 L20.8931,141.3979 Z "/><text fill="#000000" font-family="sans-serif" font-size="14" font-style="italic" lengthAdjust="spacingAndGlyphs" textLength="88" x="131" y="144.5352">RssFeedView</text><text fill="#000000" font-family="sans-serif" font-size="10" font-style="italic" lengthAdjust="spacingAndGlyphs" textLength="278" x="36" y="157.1563">it.tidalwave.northernwind.frontend.ui.component.rssfeed</text><line style="stroke: #A80036; stroke-width: 1.5;" x1="8" x2="316" y1="164.2656" y2="164.2656"/><ellipse cx="18" cy="175.2656" fill="#84BE84" rx="3" ry="3" style="stroke: #038048; stroke-width: 1.0;"/><text fill="#000000" font-family="sans-serif" font-size="11" font-style="italic" lengthAdjust="spacingAndGlyphs" textLength="128" x="27" y="178.9004">setContent(String): void</text></a><!--MD5=[338fe56ad8fc8a3f207ba96532f48943]
class it.tidalwave.northernwind.frontend.ui.component.blog.BlogView--><rect codeLine="9" fill="#FEFECE" filter="url(#fhq74afxbpgc)" height="59.2207" id="it.tidalwave.northernwind.frontend.ui.component.blog.BlogView" style="stroke: #A80036; stroke-width: 1.5;" width="295" x="14.5" y="7"/><ellipse cx="29.5" cy="26.1328" fill="#B4A7E5" rx="11" ry="11" style="stroke: #A80036; stroke-width: 1.0;"/><path d="M25.9277,22.3979 L25.9277,20.2397 L33.3071,20.2397 L33.3071,22.3979 L30.8418,22.3979 L30.8418,30.4746 L33.3071,30.4746 L33.3071,32.6328 L25.9277,32.6328 L25.9277,30.4746 L28.3931,30.4746 L28.3931,22.3979 Z "/><text fill="#000000" font-family="sans-serif" font-size="14" font-style="italic" lengthAdjust="spacingAndGlyphs" textLength="62" x="144" y="25.5352">BlogView</text><text fill="#000000" font-family="sans-serif" font-size="10" font-style="italic" lengthAdjust="spacingAndGlyphs" textLength="263" x="43.5" y="38.1563">it.tidalwave.northernwind.frontend.ui.component.blog</text><line style="stroke: #A80036; stroke-width: 1.5;" x1="15.5" x2="308.5" y1="45.2656" y2="45.2656"/><ellipse cx="25.5" cy="56.2656" fill="#84BE84" rx="3" ry="3" style="stroke: #038048; stroke-width: 1.0;"/><text fill="#000000" font-family="sans-serif" font-size="11" font-style="italic" lengthAdjust="spacingAndGlyphs" textLength="108" x="34.5" y="59.9004">setTitle(String): void</text><!--MD5=[ed250697d96e298006f0227f5ed86cfd]
reverse link it.tidalwave.northernwind.frontend.ui.component.blog.BlogView to it.tidalwave.northernwind.frontend.ui.component.rssfeed.RssFeedView--><path codeLine="13" d="M162,86.3288 C162,99.7348 162,113.8139 162,125.7447 " fill="none" id="it.tidalwave.northernwind.frontend.ui.component.blog.BlogView-backto-it.tidalwave.northernwind.frontend.ui.component.rssfeed.RssFeedView" style="stroke: #A80036; stroke-width: 1.0;"/><polygon fill="none" points="155.0001,86.2218,162,66.2218,169.0001,86.2217,155.0001,86.2218" style="stroke: #A80036; stroke-width: 1.0;"/><text fill="#888888" font-family="sans-serif" font-size="10" lengthAdjust="spacingAndGlyphs" textLength="188" x="65" y="207.8887">UMLDoclet 2.0.12, PlantUML 1.2020.16</text><!--MD5=[5f6b7965739f066334d07af949ca1e2d]
@startuml
    set namespaceSeparator none
    hide empty fields
    hide empty methods

    interface "<size:14>RssFeedView\n<size:10>it.tidalwave.northernwind.frontend.ui.component.rssfeed" as it.tidalwave.northernwind.frontend.ui.component.rssfeed.RssFeedView [[RssFeedView.html]] {
        {abstract} +setContent(String): void
    }

    interface "<size:14>BlogView\n<size:10>it.tidalwave.northernwind.frontend.ui.component.blog" as it.tidalwave.northernwind.frontend.ui.component.blog.BlogView {
        {abstract} +setTitle(String): void
    }

    it.tidalwave.northernwind.frontend.ui.component.blog.BlogView <|- - it.tidalwave.northernwind.frontend.ui.component.rssfeed.RssFeedView

    center footer UMLDoclet 2.0.12, PlantUML 1.2020.16
@enduml

PlantUML version 1.2020.16(Sun Aug 23 22:20:43 CEST 2020)
(APACHE source distribution)
Java Runtime: OpenJDK Runtime Environment
JVM: OpenJDK 64-Bit Server VM
Default Encoding: UTF-8
Language: en
Country: GB
--></g></svg>