<?xml version="1.0" encoding="UTF-8" standalone="no"?><svg xmlns="http://www.w3.org/2000/svg" xmlns:xlink="http://www.w3.org/1999/xlink" contentScriptType="application/ecmascript" contentStyleType="text/css" height="568px" preserveAspectRatio="none" style="width:880px;height:568px;" version="1.1" viewBox="0 0 880 568" width="880px" zoomAndPan="magnify"><defs><filter height="300%" id="f1449k45pimw0w" width="300%" x="-1" y="-1"><feGaussianBlur result="blurOut" stdDeviation="2.0"/><feColorMatrix in="blurOut" result="blurOut2" type="matrix" values="0 0 0 0 0 0 0 0 0 0 0 0 0 0 0 0 0 0 .4 0"/><feOffset dx="4.0" dy="4.0" in="blurOut2" result="blurOut3"/><feBlend in="SourceGraphic" in2="blurOut3" mode="normal"/></filter></defs><g><!--MD5=[ec27dbc2818038cdcd877bb917520bd9]
cluster it.tidalwave.ui.javafx--><polygon fill="#FFFFFF" filter="url(#f1449k45pimw0w)" points="16,153,168,153,175,175.4883,858,175.4883,858,539,16,539,16,153" style="stroke: #000000; stroke-width: 1.5;"/><line style="stroke: #000000; stroke-width: 1.5;" x1="16" x2="175" y1="175.4883" y2="175.4883"/><text fill="#000000" font-family="sans-serif" font-size="14" font-weight="bold" lengthAdjust="spacingAndGlyphs" textLength="146" x="20" y="168.5352">it.tidalwave.ui.javafx</text><!--MD5=[315bf7c36bcdbdaee5bb7549ab6e8767]
cluster javafx.application--><polygon fill="#FFFFFF" filter="url(#f1449k45pimw0w)" points="610,6,742,6,749,28.4883,810,28.4883,810,128,610,128,610,6" style="stroke: #000000; stroke-width: 1.5;"/><line style="stroke: #000000; stroke-width: 1.5;" x1="610" x2="749" y1="28.4883" y2="28.4883"/><text fill="#000000" font-family="sans-serif" font-size="14" font-weight="bold" lengthAdjust="spacingAndGlyphs" textLength="126" x="614" y="21.5352">javafx.application</text><!--MD5=[aa4dd6fd68d95560ead69b48420dc8ce]
class it.tidalwave.ui.javafx.JavaFXApplicationWithSplash--><a href="JavaFXApplicationWithSplash.html" target="_top" title="JavaFXApplicationWithSplash.html" xlink:actuate="onRequest" xlink:href="JavaFXApplicationWithSplash.html" xlink:show="new" xlink:title="JavaFXApplicationWithSplash.html" xlink:type="simple"><rect codeLine="3" fill="#FEFECE" filter="url(#f1449k45pimw0w)" height="177.5508" id="it.tidalwave.ui.javafx.JavaFXApplicationWithSplash" style="stroke: #A80036; stroke-width: 1.5;" width="279" x="570.5" y="180"/><ellipse cx="624.25" cy="196" fill="#A9DCDF" rx="11" ry="11" style="stroke: #A80036; stroke-width: 1.0;"/><path d="M624.1133,191.3481 L622.9595,196.4199 L625.2754,196.4199 Z M622.6191,189.1069 L625.6157,189.1069 L628.9609,201.5 L626.5122,201.5 L625.7485,198.437 L622.4697,198.437 L621.7227,201.5 L619.2739,201.5 Z "/><text fill="#000000" font-family="sans-serif" font-size="12" font-style="italic" lengthAdjust="spacingAndGlyphs" textLength="163" x="644.75" y="200.5352">JavaFXApplicationWithSplash</text><line style="stroke: #A80036; stroke-width: 1.5;" x1="571.5" x2="848.5" y1="212" y2="212"/><polygon fill="none" points="581.5,218,585.5,222,581.5,226,577.5,222" style="stroke: #B38D22; stroke-width: 1.0;"/><text fill="#000000" font-family="sans-serif" font-size="11" lengthAdjust="spacingAndGlyphs" textLength="123" x="590.5" y="226.6348">applicationFxml: String</text><polygon fill="none" points="581.5,230.9551,585.5,234.9551,581.5,238.9551,577.5,234.9551" style="stroke: #B38D22; stroke-width: 1.0;"/><text fill="#000000" font-family="sans-serif" font-size="11" lengthAdjust="spacingAndGlyphs" textLength="99" x="590.5" y="239.5898">splashFxml: String</text><line style="stroke: #A80036; stroke-width: 1.5;" x1="571.5" x2="848.5" y1="245.9102" y2="245.9102"/><ellipse cx="581.5" cy="256.9102" fill="#84BE84" rx="3" ry="3" style="stroke: #038048; stroke-width: 1.0;"/><text fill="#000000" font-family="sans-serif" font-size="11" lengthAdjust="spacingAndGlyphs" textLength="54" x="590.5" y="260.5449">init(): void</text><ellipse cx="581.5" cy="269.8652" fill="#84BE84" rx="3" ry="3" style="stroke: #038048; stroke-width: 1.0;"/><text fill="#000000" font-family="sans-serif" font-size="11" lengthAdjust="spacingAndGlyphs" textLength="91" x="590.5" y="273.5">start(Stage): void</text><polygon fill="#FFFF44" points="581.5,277.8203,585.5,281.8203,581.5,285.8203,577.5,281.8203" style="stroke: #B38D22; stroke-width: 1.0;"/><text fill="#000000" font-family="sans-serif" font-size="11" lengthAdjust="spacingAndGlyphs" textLength="253" x="590.5" y="286.4551">onStageCreated(Stage, NodeAndDelegate): void</text><polygon fill="#FFFF44" points="581.5,290.7754,585.5,294.7754,581.5,298.7754,577.5,294.7754" style="stroke: #B38D22; stroke-width: 1.0;"/><text fill="#000000" font-family="sans-serif" font-size="11" font-style="italic" lengthAdjust="spacingAndGlyphs" textLength="177" x="590.5" y="299.4102">createParent(): NodeAndDelegate</text><polygon fill="#FFFF44" points="581.5,303.7305,585.5,307.7305,581.5,311.7305,577.5,307.7305" style="stroke: #B38D22; stroke-width: 1.0;"/><text fill="#000000" font-family="sans-serif" font-size="11" font-style="italic" lengthAdjust="spacingAndGlyphs" textLength="155" x="590.5" y="312.3652">initializeInBackground(): void</text><polygon fill="#FFFF44" points="581.5,316.6855,585.5,320.6855,581.5,324.6855,577.5,320.6855" style="stroke: #B38D22; stroke-width: 1.0;"/><text fill="#000000" font-family="sans-serif" font-size="11" lengthAdjust="spacingAndGlyphs" textLength="92" x="590.5" y="325.3203">onClosing(): void</text><polygon fill="#FFFF44" points="581.5,329.6406,585.5,333.6406,581.5,337.6406,577.5,333.6406" style="stroke: #B38D22; stroke-width: 1.0;"/><text fill="#000000" font-family="sans-serif" font-size="11" lengthAdjust="spacingAndGlyphs" textLength="127" x="590.5" y="338.2754">getExecutor(): Executor</text><ellipse cx="581.5" cy="347.5957" fill="#84BE84" rx="3" ry="3" style="stroke: #038048; stroke-width: 1.0;"/><text fill="#000000" font-family="sans-serif" font-size="11" lengthAdjust="spacingAndGlyphs" text-decoration="underline" textLength="88" x="590.5" y="351.2305">isOSX(): boolean</text></a><!--MD5=[3d22d246c7098303eec35d1a72cd2749]
class it.tidalwave.ui.javafx.Splash--><a href="Splash.html" target="_top" title="Splash.html" xlink:actuate="onRequest" xlink:href="Splash.html" xlink:show="new" xlink:title="Splash.html" xlink:type="simple"><rect codeLine="16" fill="#FEFECE" filter="url(#f1449k45pimw0w)" height="86.8652" id="it.tidalwave.ui.javafx.Splash" style="stroke: #A80036; stroke-width: 1.5;" width="120" x="415" y="225.5"/><ellipse cx="452.95" cy="241.5" fill="#ADD1B2" rx="11" ry="11" style="stroke: #A80036; stroke-width: 1.0;"/><path d="M455.4231,247.6431 Q454.8421,247.9419 454.2029,248.0913 Q453.5638,248.2407 452.8582,248.2407 Q450.3514,248.2407 449.0315,246.5889 Q447.7117,244.937 447.7117,241.8159 Q447.7117,238.6865 449.0315,237.0347 Q450.3514,235.3828 452.8582,235.3828 Q453.5638,235.3828 454.2112,235.5322 Q454.8587,235.6816 455.4231,235.9805 L455.4231,238.7031 Q454.7923,238.1221 454.1988,237.8523 Q453.6053,237.5825 452.9744,237.5825 Q451.6297,237.5825 450.9449,238.6492 Q450.2601,239.7158 450.2601,241.8159 Q450.2601,243.9077 450.9449,244.9744 Q451.6297,246.041 452.9744,246.041 Q453.6053,246.041 454.1988,245.7712 Q454.7923,245.5015 455.4231,244.9204 Z "/><text fill="#000000" font-family="sans-serif" font-size="12" lengthAdjust="spacingAndGlyphs" textLength="37" x="472.05" y="246.0352">Splash</text><line style="stroke: #A80036; stroke-width: 1.5;" x1="416" x2="534" y1="257.5" y2="257.5"/><line style="stroke: #A80036; stroke-width: 1.5;" x1="416" x2="534" y1="265.5" y2="265.5"/><ellipse cx="426" cy="276.5" fill="#84BE84" rx="3" ry="3" style="stroke: #038048; stroke-width: 1.0;"/><text fill="#000000" font-family="sans-serif" font-size="11" lengthAdjust="spacingAndGlyphs" textLength="54" x="435" y="280.1348">init(): void</text><ellipse cx="426" cy="289.4551" fill="#84BE84" rx="3" ry="3" style="stroke: #038048; stroke-width: 1.0;"/><text fill="#000000" font-family="sans-serif" font-size="11" lengthAdjust="spacingAndGlyphs" textLength="94" x="435" y="293.0898">show(Stage): void</text><ellipse cx="426" cy="302.4102" fill="#84BE84" rx="3" ry="3" style="stroke: #038048; stroke-width: 1.0;"/><text fill="#000000" font-family="sans-serif" font-size="11" lengthAdjust="spacingAndGlyphs" textLength="78" x="435" y="306.0449">dismiss(): void</text></a><!--MD5=[76af6d14fb3412df0b0e4694bc2d5a5d]
class it.tidalwave.ui.javafx.JavaFXSpringApplication--><a href="JavaFXSpringApplication.html" target="_top" title="JavaFXSpringApplication.html" xlink:actuate="onRequest" xlink:href="JavaFXSpringApplication.html" xlink:show="new" xlink:title="JavaFXSpringApplication.html" xlink:type="simple"><rect codeLine="22" fill="#FEFECE" filter="url(#f1449k45pimw0w)" height="112.7754" id="it.tidalwave.ui.javafx.JavaFXSpringApplication" style="stroke: #A80036; stroke-width: 1.5;" width="279" x="570.5" y="418"/><ellipse cx="636.75" cy="434" fill="#ADD1B2" rx="11" ry="11" style="stroke: #A80036; stroke-width: 1.0;"/><path d="M639.2231,440.1431 Q638.6421,440.4419 638.0029,440.5913 Q637.3638,440.7407 636.6582,440.7407 Q634.1514,440.7407 632.8315,439.0889 Q631.5117,437.437 631.5117,434.3159 Q631.5117,431.1865 632.8315,429.5347 Q634.1514,427.8828 636.6582,427.8828 Q637.3638,427.8828 638.0112,428.0322 Q638.6587,428.1816 639.2231,428.4805 L639.2231,431.2031 Q638.5923,430.6221 637.9988,430.3523 Q637.4053,430.0825 636.7744,430.0825 Q635.4297,430.0825 634.7449,431.1492 Q634.0601,432.2158 634.0601,434.3159 Q634.0601,436.4077 634.7449,437.4744 Q635.4297,438.541 636.7744,438.541 Q637.4053,438.541 637.9988,438.2712 Q638.5923,438.0015 639.2231,437.4204 Z "/><text fill="#000000" font-family="sans-serif" font-size="12" lengthAdjust="spacingAndGlyphs" textLength="138" x="657.25" y="438.5352">JavaFXSpringApplication</text><line style="stroke: #A80036; stroke-width: 1.5;" x1="571.5" x2="848.5" y1="450" y2="450"/><line style="stroke: #A80036; stroke-width: 1.5;" x1="571.5" x2="848.5" y1="458" y2="458"/><polygon fill="#FFFF44" points="581.5,464,585.5,468,581.5,472,577.5,468" style="stroke: #B38D22; stroke-width: 1.0;"/><text fill="#000000" font-family="sans-serif" font-size="11" lengthAdjust="spacingAndGlyphs" textLength="177" x="590.5" y="472.6348">createParent(): NodeAndDelegate</text><polygon fill="#FFFF44" points="581.5,476.9551,585.5,480.9551,581.5,484.9551,577.5,480.9551" style="stroke: #B38D22; stroke-width: 1.0;"/><text fill="#000000" font-family="sans-serif" font-size="11" lengthAdjust="spacingAndGlyphs" textLength="155" x="590.5" y="485.5898">initializeInBackground(): void</text><polygon fill="#FFFF44" points="581.5,489.9102,585.5,493.9102,581.5,497.9102,577.5,493.9102" style="stroke: #B38D22; stroke-width: 1.0;"/><text fill="#000000" font-family="sans-serif" font-size="11" lengthAdjust="spacingAndGlyphs" textLength="253" x="590.5" y="498.5449">onStageCreated(Stage, NodeAndDelegate): void</text><polygon fill="#FFFF44" points="581.5,502.8652,585.5,506.8652,581.5,510.8652,577.5,506.8652" style="stroke: #B38D22; stroke-width: 1.0;"/><text fill="#000000" font-family="sans-serif" font-size="11" lengthAdjust="spacingAndGlyphs" textLength="226" x="590.5" y="511.5">onStageCreated(ApplicationContext): void</text><polygon fill="#FFFF44" points="581.5,515.8203,585.5,519.8203,581.5,523.8203,577.5,519.8203" style="stroke: #B38D22; stroke-width: 1.0;"/><text fill="#000000" font-family="sans-serif" font-size="11" lengthAdjust="spacingAndGlyphs" textLength="92" x="590.5" y="524.4551">onClosing(): void</text></a><!--MD5=[e37891f8175e7b84ff9fcb42eb97ea99]
class it.tidalwave.ui.javafx.JavaFXSafeProxyCreator--><a href="JavaFXSafeProxyCreator.html" target="_top" title="JavaFXSafeProxyCreator.html" xlink:actuate="onRequest" xlink:href="JavaFXSafeProxyCreator.html" xlink:show="new" xlink:title="JavaFXSafeProxyCreator.html" xlink:type="simple"><rect codeLine="30" fill="#FEFECE" filter="url(#f1449k45pimw0w)" height="99.8203" id="it.tidalwave.ui.javafx.JavaFXSafeProxyCreator" style="stroke: #A80036; stroke-width: 1.5;" width="355" x="24.5" y="219"/><ellipse cx="129.25" cy="235" fill="#ADD1B2" rx="11" ry="11" style="stroke: #A80036; stroke-width: 1.0;"/><path d="M131.7231,241.1431 Q131.1421,241.4419 130.5029,241.5913 Q129.8638,241.7407 129.1582,241.7407 Q126.6514,241.7407 125.3315,240.0889 Q124.0117,238.437 124.0117,235.3159 Q124.0117,232.1865 125.3315,230.5347 Q126.6514,228.8828 129.1582,228.8828 Q129.8638,228.8828 130.5112,229.0322 Q131.1587,229.1816 131.7231,229.4805 L131.7231,232.2031 Q131.0923,231.6221 130.4988,231.3523 Q129.9053,231.0825 129.2744,231.0825 Q127.9297,231.0825 127.2449,232.1492 Q126.5601,233.2158 126.5601,235.3159 Q126.5601,237.4077 127.2449,238.4744 Q127.9297,239.541 129.2744,239.541 Q129.9053,239.541 130.4988,239.2712 Q131.0923,239.0015 131.7231,238.4204 Z "/><text fill="#000000" font-family="sans-serif" font-size="12" lengthAdjust="spacingAndGlyphs" textLength="137" x="149.75" y="239.5352">JavaFXSafeProxyCreator</text><line style="stroke: #A80036; stroke-width: 1.5;" x1="25.5" x2="378.5" y1="251" y2="251"/><ellipse cx="35.5" cy="262" fill="none" rx="3" ry="3" style="stroke: #038048; stroke-width: 1.0;"/><text fill="#000000" font-family="sans-serif" font-size="11" lengthAdjust="spacingAndGlyphs" text-decoration="underline" textLength="173" x="44.5" y="265.6348">BEANS: Map&lt;Class&lt;?&gt;, Object&gt;</text><line style="stroke: #A80036; stroke-width: 1.5;" x1="25.5" x2="378.5" y1="271.9551" y2="271.9551"/><ellipse cx="35.5" cy="282.9551" fill="#84BE84" rx="3" ry="3" style="stroke: #038048; stroke-width: 1.0;"/><text fill="#000000" font-family="sans-serif" font-size="11" lengthAdjust="spacingAndGlyphs" text-decoration="underline" textLength="291" x="44.5" y="286.5898">createNodeAndDelegate(Class&lt;?&gt;): NodeAndDelegate</text><ellipse cx="35.5" cy="295.9102" fill="#84BE84" rx="3" ry="3" style="stroke: #038048; stroke-width: 1.0;"/><text fill="#000000" font-family="sans-serif" font-size="11" lengthAdjust="spacingAndGlyphs" text-decoration="underline" textLength="329" x="44.5" y="299.5449">createNodeAndDelegate(Class&lt;?&gt;, String): NodeAndDelegate</text><ellipse cx="35.5" cy="308.8652" fill="#84BE84" rx="3" ry="3" style="stroke: #038048; stroke-width: 1.0;"/><text fill="#000000" font-family="sans-serif" font-size="11" lengthAdjust="spacingAndGlyphs" text-decoration="underline" textLength="174" x="44.5" y="312.5">createSafeProxy(T, Class&lt;T&gt;): T</text></a><!--MD5=[35d5f5f9b01d1896a4f998e2bf55c526]
class it.tidalwave.ui.javafx.JavaFXSafeProxyCreator.NodeAndDelegate--><a href="JavaFXSafeProxyCreator.NodeAndDelegate.html" target="_top" title="JavaFXSafeProxyCreator.NodeAndDelegate.html" xlink:actuate="onRequest" xlink:href="JavaFXSafeProxyCreator.NodeAndDelegate.html" xlink:show="new" xlink:title="JavaFXSafeProxyCreator.NodeAndDelegate.html" xlink:type="simple"><rect codeLine="37" fill="#FEFECE" filter="url(#f1449k45pimw0w)" height="73.9102" id="it.tidalwave.ui.javafx.JavaFXSafeProxyCreator.NodeAndDelegate" style="stroke: #A80036; stroke-width: 1.5;" width="278" x="63" y="437.5"/><ellipse cx="78" cy="453.5" fill="#ADD1B2" rx="11" ry="11" style="stroke: #A80036; stroke-width: 1.0;"/><path d="M80.4731,459.6431 Q79.8921,459.9419 79.2529,460.0913 Q78.6138,460.2407 77.9082,460.2407 Q75.4014,460.2407 74.0815,458.5889 Q72.7617,456.937 72.7617,453.8159 Q72.7617,450.6865 74.0815,449.0347 Q75.4014,447.3828 77.9082,447.3828 Q78.6138,447.3828 79.2612,447.5322 Q79.9087,447.6816 80.4731,447.9805 L80.4731,450.7031 Q79.8423,450.1221 79.2488,449.8523 Q78.6553,449.5825 78.0244,449.5825 Q76.6797,449.5825 75.9949,450.6492 Q75.3101,451.7158 75.3101,453.8159 Q75.3101,455.9077 75.9949,456.9744 Q76.6797,458.041 78.0244,458.041 Q78.6553,458.041 79.2488,457.7712 Q79.8423,457.5015 80.4731,456.9204 Z "/><text fill="#000000" font-family="sans-serif" font-size="12" lengthAdjust="spacingAndGlyphs" textLength="246" x="92" y="458.0352">JavaFXSafeProxyCreator.NodeAndDelegate</text><line style="stroke: #A80036; stroke-width: 1.5;" x1="64" x2="340" y1="469.5" y2="469.5"/><line style="stroke: #A80036; stroke-width: 1.5;" x1="64" x2="340" y1="477.5" y2="477.5"/><ellipse cx="74" cy="488.5" fill="#84BE84" rx="3" ry="3" style="stroke: #038048; stroke-width: 1.0;"/><text fill="#000000" font-family="sans-serif" font-size="11" lengthAdjust="spacingAndGlyphs" textLength="84" x="83" y="492.1348">getDelegate(): T</text><ellipse cx="74" cy="501.4551" fill="#84BE84" rx="3" ry="3" style="stroke: #038048; stroke-width: 1.0;"/><text fill="#000000" font-family="sans-serif" font-size="11" lengthAdjust="spacingAndGlyphs" text-decoration="underline" textLength="225" x="83" y="505.0898">load(Class&lt;T&gt;, String): NodeAndDelegate</text></a><!--MD5=[e3612552781b2b3849880f2b7cc3064d]
class javafx.application.Application--><rect codeLine="48" fill="#FEFECE" filter="url(#f1449k45pimw0w)" height="86.8652" id="javafx.application.Application" style="stroke: #A80036; stroke-width: 1.5;" width="183" x="618.5" y="33"/><ellipse cx="673.75" cy="49" fill="#A9DCDF" rx="11" ry="11" style="stroke: #A80036; stroke-width: 1.0;"/><path d="M673.6133,44.3481 L672.4595,49.4199 L674.7754,49.4199 Z M672.1191,42.1069 L675.1157,42.1069 L678.4609,54.5 L676.0122,54.5 L675.2485,51.437 L671.9697,51.437 L671.2227,54.5 L668.7739,54.5 Z "/><text fill="#000000" font-family="sans-serif" font-size="12" font-style="italic" lengthAdjust="spacingAndGlyphs" textLength="64" x="694.25" y="53.5352">Application</text><line style="stroke: #A80036; stroke-width: 1.5;" x1="619.5" x2="800.5" y1="65" y2="65"/><ellipse cx="629.5" cy="76" fill="none" rx="3" ry="3" style="stroke: #038048; stroke-width: 1.0;"/><text fill="#000000" font-family="sans-serif" font-size="11" lengthAdjust="spacingAndGlyphs" text-decoration="underline" textLength="156" x="638.5" y="79.6348">STYLESHEET_CASPIAN: String</text><ellipse cx="629.5" cy="88.9551" fill="none" rx="3" ry="3" style="stroke: #038048; stroke-width: 1.0;"/><text fill="#000000" font-family="sans-serif" font-size="11" lengthAdjust="spacingAndGlyphs" text-decoration="underline" textLength="157" x="638.5" y="92.5898">STYLESHEET_MODENA: String</text><line style="stroke: #A80036; stroke-width: 1.5;" x1="619.5" x2="800.5" y1="98.9102" y2="98.9102"/><ellipse cx="629.5" cy="109.9102" fill="#84BE84" rx="3" ry="3" style="stroke: #038048; stroke-width: 1.0;"/><text fill="#000000" font-family="sans-serif" font-size="11" font-style="italic" lengthAdjust="spacingAndGlyphs" textLength="91" x="638.5" y="113.5449">start(Stage): void</text><!--MD5=[b18ffff8e3f59110ebf66e36771bf986]
reverse link javafx.application.Application to it.tidalwave.ui.javafx.JavaFXApplicationWithSplash--><path codeLine="42" d="M710,140.4691 C710,153.1021 710,166.5741 710,179.8643 " fill="none" id="javafx.application.Application-backto-it.tidalwave.ui.javafx.JavaFXApplicationWithSplash" style="stroke: #A80036; stroke-width: 1.0;"/><polygon fill="none" points="703.0001,140.1813,710,120.1812,717.0001,140.1812,703.0001,140.1813" style="stroke: #A80036; stroke-width: 1.0;"/><!--MD5=[5911d9cf3f24931fb3f5bab815461c49]
reverse link it.tidalwave.ui.javafx.JavaFXApplicationWithSplash to it.tidalwave.ui.javafx.JavaFXSpringApplication--><path codeLine="43" d="M710,378.2941 C710,391.9843 710,405.5191 710,417.9208 " fill="none" id="it.tidalwave.ui.javafx.JavaFXApplicationWithSplash-backto-it.tidalwave.ui.javafx.JavaFXSpringApplication" style="stroke: #A80036; stroke-width: 1.0;"/><polygon fill="none" points="703.0001,378.2388,710,358.2387,717.0001,378.2387,703.0001,378.2388" style="stroke: #A80036; stroke-width: 1.0;"/><!--MD5=[1ce23dcf562d7c17a3c31b46015922ac]
reverse link it.tidalwave.ui.javafx.JavaFXSafeProxyCreator to it.tidalwave.ui.javafx.JavaFXSafeProxyCreator.NodeAndDelegate--><path codeLine="44" d="M202,334.1194 C202,368.127 202,408.5158 202,437.2208 " fill="none" id="it.tidalwave.ui.javafx.JavaFXSafeProxyCreator-backto-it.tidalwave.ui.javafx.JavaFXSafeProxyCreator.NodeAndDelegate" style="stroke: #A80036; stroke-width: 1.0;"/><ellipse cx="202.0001" cy="327.0082" fill="#FFFFFF" rx="8" ry="8" style="stroke: #A80036; stroke-width: 1.0;"/><line style="stroke: #A80036; stroke-width: 1.0;" x1="202.0002" x2="202" y1="335.0082" y2="319.0082"/><line style="stroke: #A80036; stroke-width: 1.0;" x1="194.0001" x2="210.0001" y1="327.0083" y2="327.0081"/><text fill="#888888" font-family="sans-serif" font-size="10" lengthAdjust="spacingAndGlyphs" textLength="188" x="337" y="554.668">UMLDoclet 2.0.12, PlantUML 1.2020.16</text><!--MD5=[2fcdc73b2a2068d9e464e36c2661528c]
@startuml
    namespace it.tidalwave.ui.javafx {

        abstract class JavaFXApplicationWithSplash [[JavaFXApplicationWithSplash.html]] {
            #applicationFxml: String
            #splashFxml: String
            +init(): void
            +start(Stage): void
            #onStageCreated(Stage, NodeAndDelegate): void
            {abstract} #createParent(): NodeAndDelegate
            {abstract} #initializeInBackground(): void
            #onClosing(): void
            #getExecutor(): Executor
            {static} +isOSX(): boolean
        }

        class Splash [[Splash.html]] {
            +init(): void
            +show(Stage): void
            +dismiss(): void
        }

        class JavaFXSpringApplication [[JavaFXSpringApplication.html]] {
            #createParent(): NodeAndDelegate
            #initializeInBackground(): void
            #onStageCreated(Stage, NodeAndDelegate): void
            #onStageCreated(ApplicationContext): void
            #onClosing(): void
        }

        class JavaFXSafeProxyCreator [[JavaFXSafeProxyCreator.html]] {
            {static} +BEANS: Map<Class<?>, Object>
            {static} +createNodeAndDelegate(Class<?>): NodeAndDelegate
            {static} +createNodeAndDelegate(Class<?>, String): NodeAndDelegate
            {static} +createSafeProxy(T, Class<T>): T
        }

        class it.tidalwave.ui.javafx.JavaFXSafeProxyCreator.NodeAndDelegate [[JavaFXSafeProxyCreator.NodeAndDelegate.html]] {
            +getDelegate(): T
            {static} +load(Class<T>, String): NodeAndDelegate
        }

        javafx.application.Application <|- - JavaFXApplicationWithSplash
        JavaFXApplicationWithSplash <|- - JavaFXSpringApplication
        JavaFXSafeProxyCreator +- - it.tidalwave.ui.javafx.JavaFXSafeProxyCreator.NodeAndDelegate
    }

    namespace javafx.application {
        abstract class Application {
            {static} +STYLESHEET_CASPIAN: String
            {static} +STYLESHEET_MODENA: String
            {abstract} +start(Stage): void
        }
    }

    center footer UMLDoclet 2.0.12, PlantUML 1.2020.16
@enduml

PlantUML version 1.2020.16(Sun Aug 23 22:20:43 CEST 2020)
(APACHE source distribution)
Java Runtime: OpenJDK Runtime Environment
JVM: OpenJDK 64-Bit Server VM
Default Encoding: UTF-8
Language: en
Country: GB
--></g></svg>