@startuml
    set namespaceSeparator none
    hide empty fields
    hide empty methods

    class "<size:14>Formatters\n<size:10>it.tidalwave.accounting.model.spi.util" as it.tidalwave.accounting.model.spi.util.Formatters [[Formatters.html]] {
        {static} +DATE_FORMATTER: DateTimeFormatter
        {static} +DATETIME_FORMATTER: DateTimeFormatter
        {static} +MONEY_FORMATTER: MoneyFormat
        {static} +DURATION_FORMATTER: DurationFormat
    }

    center footer UMLDoclet 2.0.12, PlantUML 1.2020.16
@enduml
