<?xml version="1.0" encoding="UTF-8" standalone="no"?><svg xmlns="http://www.w3.org/2000/svg" xmlns:xlink="http://www.w3.org/1999/xlink" contentScriptType="application/ecmascript" contentStyleType="text/css" height="157px" preserveAspectRatio="none" style="width:242px;height:157px;" version="1.1" viewBox="0 0 242 157" width="242px" zoomAndPan="magnify"><defs><filter height="300%" id="f1oov29kdvf91h" width="300%" x="-1" y="-1"><feGaussianBlur result="blurOut" stdDeviation="2.0"/><feColorMatrix in="blurOut" result="blurOut2" type="matrix" values="0 0 0 0 0 0 0 0 0 0 0 0 0 0 0 0 0 0 .4 0"/><feOffset dx="4.0" dy="4.0" in="blurOut2" result="blurOut3"/><feBlend in="SourceGraphic" in2="blurOut3" mode="normal"/></filter></defs><g><!--MD5=[b1b2f3b843206ff158c03e8e70145c39]
cluster it.tidalwave.image.tools--><polygon fill="#FFFFFF" filter="url(#f1oov29kdvf91h)" points="16,6,192,6,199,28.4883,220,28.4883,220,128,16,128,16,6" style="stroke: #000000; stroke-width: 1.5;"/><line style="stroke: #000000; stroke-width: 1.5;" x1="16" x2="199" y1="28.4883" y2="28.4883"/><text fill="#000000" font-family="sans-serif" font-size="14" font-weight="bold" lengthAdjust="spacingAndGlyphs" textLength="170" x="20" y="21.5352">it.tidalwave.image.tools</text><!--MD5=[fa9e632cbf524d3367aff9f0b5211359]
class it.tidalwave.image.tools.TestReportFormatter--><a href="TestReportFormatter.html" target="_top" title="TestReportFormatter.html" xlink:actuate="onRequest" xlink:href="TestReportFormatter.html" xlink:show="new" xlink:title="TestReportFormatter.html" xlink:type="simple"><rect codeLine="3" fill="#FEFECE" filter="url(#f1oov29kdvf91h)" height="86.8652" id="it.tidalwave.image.tools.TestReportFormatter" style="stroke: #A80036; stroke-width: 1.5;" width="188" x="24" y="33"/><ellipse cx="55.2" cy="49" fill="#ADD1B2" rx="11" ry="11" style="stroke: #A80036; stroke-width: 1.0;"/><path d="M57.6731,55.1431 Q57.0921,55.4419 56.4529,55.5913 Q55.8138,55.7407 55.1082,55.7407 Q52.6014,55.7407 51.2815,54.0889 Q49.9617,52.437 49.9617,49.3159 Q49.9617,46.1865 51.2815,44.5347 Q52.6014,42.8828 55.1082,42.8828 Q55.8138,42.8828 56.4612,43.0322 Q57.1087,43.1816 57.6731,43.4805 L57.6731,46.2031 Q57.0423,45.6221 56.4488,45.3523 Q55.8553,45.0825 55.2244,45.0825 Q53.8797,45.0825 53.1949,46.1492 Q52.5101,47.2158 52.5101,49.3159 Q52.5101,51.4077 53.1949,52.4744 Q53.8797,53.541 55.2244,53.541 Q55.8553,53.541 56.4488,53.2712 Q57.0423,53.0015 57.6731,52.4204 Z "/><text fill="#000000" font-family="sans-serif" font-size="12" lengthAdjust="spacingAndGlyphs" textLength="120" x="72.8" y="53.5352">TestReportFormatter</text><line style="stroke: #A80036; stroke-width: 1.5;" x1="25" x2="211" y1="65" y2="65"/><line style="stroke: #A80036; stroke-width: 1.5;" x1="25" x2="211" y1="73" y2="73"/><ellipse cx="35" cy="84" fill="#84BE84" rx="3" ry="3" style="stroke: #038048; stroke-width: 1.0;"/><text fill="#000000" font-family="sans-serif" font-size="11" lengthAdjust="spacingAndGlyphs" textLength="162" x="44" y="87.6348">TestReportFormatter(File, File)</text><ellipse cx="35" cy="96.9551" fill="#84BE84" rx="3" ry="3" style="stroke: #038048; stroke-width: 1.0;"/><text fill="#000000" font-family="sans-serif" font-size="11" lengthAdjust="spacingAndGlyphs" textLength="56" x="44" y="100.5898">run(): void</text><ellipse cx="35" cy="109.9102" fill="#84BE84" rx="3" ry="3" style="stroke: #038048; stroke-width: 1.0;"/><text fill="#000000" font-family="sans-serif" font-size="11" lengthAdjust="spacingAndGlyphs" text-decoration="underline" textLength="103" x="44" y="113.5449">main(String[]): void</text></a><text fill="#888888" font-family="sans-serif" font-size="10" lengthAdjust="spacingAndGlyphs" textLength="188" x="18" y="143.668">UMLDoclet 2.0.12, PlantUML 1.2020.16</text><!--MD5=[bce636372f0c25ea16e99e29d670fea2]
@startuml
    namespace it.tidalwave.image.tools {

        class TestReportFormatter [[TestReportFormatter.html]] {
            +TestReportFormatter(File, File)
            +run(): void
            {static} +main(String[]): void
        }

    }

    center footer UMLDoclet 2.0.12, PlantUML 1.2020.16
@enduml

PlantUML version 1.2020.16(Sun Aug 23 22:20:43 CEST 2020)
(APACHE source distribution)
Java Runtime: OpenJDK Runtime Environment
JVM: OpenJDK 64-Bit Server VM
Default Encoding: UTF-8
Language: en
Country: GB
--></g></svg>