@startuml
    set namespaceSeparator none
    hide empty fields
    hide empty methods

    class "<size:14>TestReportFormatter\n<size:10>it.tidalwave.image.tools" as it.tidalwave.image.tools.TestReportFormatter [[TestReportFormatter.html]] {
        +TestReportFormatter(File, File)
        +run(): void
        {static} +main(String[]): void
    }

    center footer UMLDoclet 2.0.12, PlantUML 1.2020.16
@enduml
