@startuml
    set namespaceSeparator none
    hide empty fields
    hide empty methods

    interface "<size:14>LayoutFinder\n<size:10>it.tidalwave.northernwind.frontend.ui" as it.tidalwave.northernwind.frontend.ui.LayoutFinder [[LayoutFinder.html]] {
        {abstract} +withId(Id): LayoutFinder
    }

    interface "<size:14>ExtendedFinderSupport\n<size:10>it.tidalwave.util.spi" as it.tidalwave.util.spi.ExtendedFinderSupport<Layout, LayoutFinder> {
        {abstract} +from(int): LayoutFinder
        {abstract} +max(int): LayoutFinder
        {abstract} +sort(SortCriterion): LayoutFinder
        {abstract} +sort(SortCriterion, SortDirection): LayoutFinder
        {abstract} +withContext(Object): LayoutFinder
    }

    it.tidalwave.util.spi.ExtendedFinderSupport <|-- it.tidalwave.northernwind.frontend.ui.LayoutFinder

    center footer UMLDoclet 2.0.12, PlantUML 1.2020.16
@enduml
