<?xml version="1.0" encoding="UTF-8" standalone="no"?><svg xmlns="http://www.w3.org/2000/svg" xmlns:xlink="http://www.w3.org/1999/xlink" contentScriptType="application/ecmascript" contentStyleType="text/css" height="96px" preserveAspectRatio="none" style="width:273px;height:96px;" version="1.1" viewBox="0 0 273 96" width="273px" zoomAndPan="magnify"><defs><filter height="300%" id="f3zdjt048yhhx" width="300%" x="-1" y="-1"><feGaussianBlur result="blurOut" stdDeviation="2.0"/><feColorMatrix in="blurOut" result="blurOut2" type="matrix" values="0 0 0 0 0 0 0 0 0 0 0 0 0 0 0 0 0 0 .4 0"/><feOffset dx="4.0" dy="4.0" in="blurOut2" result="blurOut3"/><feBlend in="SourceGraphic" in2="blurOut3" mode="normal"/></filter></defs><g><!--MD5=[3f0f080e182d44bf4c2506f8ebf8a6f6]
class it.tidalwave.northernwind.frontend.ui.SiteViewController--><a href="SiteViewController.html" target="_top" title="SiteViewController.html" xlink:actuate="onRequest" xlink:href="SiteViewController.html" xlink:show="new" xlink:title="SiteViewController.html" xlink:type="simple"><rect codeLine="5" fill="#FEFECE" filter="url(#f3zdjt048yhhx)" height="59.2207" id="it.tidalwave.northernwind.frontend.ui.SiteViewController" style="stroke: #A80036; stroke-width: 1.5;" width="247" x="7" y="7"/><ellipse cx="36.85" cy="26.1328" fill="#B4A7E5" rx="11" ry="11" style="stroke: #A80036; stroke-width: 1.0;"/><path d="M33.2777,22.3979 L33.2777,20.2397 L40.6571,20.2397 L40.6571,22.3979 L38.1918,22.3979 L38.1918,30.4746 L40.6571,30.4746 L40.6571,32.6328 L33.2777,32.6328 L33.2777,30.4746 L35.7431,30.4746 L35.7431,22.3979 Z "/><text fill="#000000" font-family="sans-serif" font-size="14" font-style="italic" lengthAdjust="spacingAndGlyphs" textLength="127" x="81.65" y="25.5352">SiteViewController</text><text fill="#000000" font-family="sans-serif" font-size="10" font-style="italic" lengthAdjust="spacingAndGlyphs" textLength="182" x="54.15" y="38.1563">it.tidalwave.northernwind.frontend.ui</text><line style="stroke: #A80036; stroke-width: 1.5;" x1="8" x2="253" y1="45.2656" y2="45.2656"/><ellipse cx="18" cy="56.2656" fill="#84BE84" rx="3" ry="3" style="stroke: #038048; stroke-width: 1.0;"/><text fill="#000000" font-family="sans-serif" font-size="11" font-style="italic" lengthAdjust="spacingAndGlyphs" textLength="221" x="27" y="59.9004">processRequest(Request): ResponseType</text></a><text fill="#888888" font-family="sans-serif" font-size="10" lengthAdjust="spacingAndGlyphs" textLength="188" x="36.5" y="82.8887">UMLDoclet 2.0.12, PlantUML 1.2020.16</text><!--MD5=[68d15ede61ccd9904f15852d1a148fa8]
@startuml
    set namespaceSeparator none
    hide empty fields
    hide empty methods

    interface "<size:14>SiteViewController\n<size:10>it.tidalwave.northernwind.frontend.ui" as it.tidalwave.northernwind.frontend.ui.SiteViewController [[SiteViewController.html]] {
        {abstract} +processRequest(Request): ResponseType
    }

    center footer UMLDoclet 2.0.12, PlantUML 1.2020.16
@enduml

PlantUML version 1.2020.16(Sun Aug 23 22:20:43 CEST 2020)
(APACHE source distribution)
Java Runtime: OpenJDK Runtime Environment
JVM: OpenJDK 64-Bit Server VM
Default Encoding: UTF-8
Language: en
Country: GB
--></g></svg>