<?xml version="1.0" encoding="UTF-8" standalone="no"?><svg xmlns="http://www.w3.org/2000/svg" xmlns:xlink="http://www.w3.org/1999/xlink" contentScriptType="application/ecmascript" contentStyleType="text/css" height="239px" preserveAspectRatio="none" style="width:324px;height:239px;" version="1.1" viewBox="0 0 324 239" width="324px" zoomAndPan="magnify"><defs><filter height="300%" id="fexjnoo1xjfx6" width="300%" x="-1" y="-1"><feGaussianBlur result="blurOut" stdDeviation="2.0"/><feColorMatrix in="blurOut" result="blurOut2" type="matrix" values="0 0 0 0 0 0 0 0 0 0 0 0 0 0 0 0 0 0 .4 0"/><feOffset dx="4.0" dy="4.0" in="blurOut2" result="blurOut3"/><feBlend in="SourceGraphic" in2="blurOut3" mode="normal"/></filter></defs><g><!--MD5=[d980edcfad66ceee390769e00f66d323]
class it.tidalwave.image.render.event.EditableImageRendererListener--><a href="EditableImageRendererListener.html" target="_top" title="EditableImageRendererListener.html" xlink:actuate="onRequest" xlink:href="EditableImageRendererListener.html" xlink:show="new" xlink:title="EditableImageRendererListener.html" xlink:type="simple"><rect codeLine="5" fill="#FEFECE" filter="url(#fexjnoo1xjfx6)" height="98.0859" id="it.tidalwave.image.render.event.EditableImageRendererListener" style="stroke: #A80036; stroke-width: 1.5;" width="298" x="7" y="105"/><ellipse cx="45.4" cy="124.1328" fill="#B4A7E5" rx="11" ry="11" style="stroke: #A80036; stroke-width: 1.0;"/><path d="M41.8277,120.3979 L41.8277,118.2397 L49.2071,118.2397 L49.2071,120.3979 L46.7418,120.3979 L46.7418,128.4746 L49.2071,128.4746 L49.2071,130.6328 L41.8277,130.6328 L41.8277,128.4746 L44.2931,128.4746 L44.2931,120.3979 Z "/><text fill="#000000" font-family="sans-serif" font-size="14" font-style="italic" lengthAdjust="spacingAndGlyphs" textLength="214" x="64.6" y="123.5352">EditableImageRendererListener</text><text fill="#000000" font-family="sans-serif" font-size="10" font-style="italic" lengthAdjust="spacingAndGlyphs" textLength="155" x="94.1" y="136.1563">it.tidalwave.image.render.event</text><line style="stroke: #A80036; stroke-width: 1.5;" x1="8" x2="304" y1="143.2656" y2="143.2656"/><ellipse cx="18" cy="154.2656" fill="#84BE84" rx="3" ry="3" style="stroke: #038048; stroke-width: 1.0;"/><text fill="#000000" font-family="sans-serif" font-size="11" font-style="italic" lengthAdjust="spacingAndGlyphs" textLength="264" x="27" y="157.9004">scaleChanged(EditableImageRendererEvent): void</text><ellipse cx="18" cy="167.2207" fill="#84BE84" rx="3" ry="3" style="stroke: #038048; stroke-width: 1.0;"/><text fill="#000000" font-family="sans-serif" font-size="11" font-style="italic" lengthAdjust="spacingAndGlyphs" textLength="266" x="27" y="170.8555">angleChanged(EditableImageRendererEvent): void</text><ellipse cx="18" cy="180.1758" fill="#84BE84" rx="3" ry="3" style="stroke: #038048; stroke-width: 1.0;"/><text fill="#000000" font-family="sans-serif" font-size="11" font-style="italic" lengthAdjust="spacingAndGlyphs" textLength="260" x="27" y="183.8105">toolActivated(EditableImageRendererEvent): void</text><ellipse cx="18" cy="193.1309" fill="#84BE84" rx="3" ry="3" style="stroke: #038048; stroke-width: 1.0;"/><text fill="#000000" font-family="sans-serif" font-size="11" font-style="italic" lengthAdjust="spacingAndGlyphs" textLength="272" x="27" y="196.7656">toolDeactivated(EditableImageRendererEvent): void</text></a><!--MD5=[2e9c224325141eb2b85f38781449ef2e]
class java.util.EventListener--><rect codeLine="12" fill="#FEFECE" filter="url(#fexjnoo1xjfx6)" height="38.2656" id="java.util.EventListener" style="stroke: #A80036; stroke-width: 1.5;" width="123" x="94.5" y="7"/><ellipse cx="109.5" cy="26.1328" fill="#B4A7E5" rx="11" ry="11" style="stroke: #A80036; stroke-width: 1.0;"/><path d="M105.9277,22.3979 L105.9277,20.2397 L113.3071,20.2397 L113.3071,22.3979 L110.8418,22.3979 L110.8418,30.4746 L113.3071,30.4746 L113.3071,32.6328 L105.9277,32.6328 L105.9277,30.4746 L108.3931,30.4746 L108.3931,22.3979 Z "/><text fill="#000000" font-family="sans-serif" font-size="14" font-style="italic" lengthAdjust="spacingAndGlyphs" textLength="91" x="123.5" y="25.5352">EventListener</text><text fill="#000000" font-family="sans-serif" font-size="10" font-style="italic" lengthAdjust="spacingAndGlyphs" textLength="39" x="149.5" y="38.1563">java.util</text><!--MD5=[c3bcef484b5b8365282fef3ee3aaceb8]
reverse link java.util.EventListener to it.tidalwave.image.render.event.EditableImageRendererListener--><path codeLine="14" d="M156,65.4693 C156,77.9024 156,91.7909 156,104.8136 " fill="none" id="java.util.EventListener-backto-it.tidalwave.image.render.event.EditableImageRendererListener" style="stroke: #A80036; stroke-width: 1.0;"/><polygon fill="none" points="149.0001,65.1629,156,45.1629,163.0001,65.1629,149.0001,65.1629" style="stroke: #A80036; stroke-width: 1.0;"/><text fill="#888888" font-family="sans-serif" font-size="10" lengthAdjust="spacingAndGlyphs" textLength="188" x="59" y="225.7539">UMLDoclet 2.0.12, PlantUML 1.2020.16</text><!--MD5=[d915f5b84dab9cbbe222548d356708a2]
@startuml
    set namespaceSeparator none
    hide empty fields
    hide empty methods

    interface "<size:14>EditableImageRendererListener\n<size:10>it.tidalwave.image.render.event" as it.tidalwave.image.render.event.EditableImageRendererListener [[EditableImageRendererListener.html]] {
        {abstract} +scaleChanged(EditableImageRendererEvent): void
        {abstract} +angleChanged(EditableImageRendererEvent): void
        {abstract} +toolActivated(EditableImageRendererEvent): void
        {abstract} +toolDeactivated(EditableImageRendererEvent): void
    }

    interface "<size:14>EventListener\n<size:10>java.util" as java.util.EventListener

    java.util.EventListener <|- - it.tidalwave.image.render.event.EditableImageRendererListener

    center footer UMLDoclet 2.0.12, PlantUML 1.2020.16
@enduml

PlantUML version 1.2020.16(Sun Aug 23 22:20:43 CEST 2020)
(APACHE source distribution)
Java Runtime: OpenJDK Runtime Environment
JVM: OpenJDK 64-Bit Server VM
Default Encoding: UTF-8
Language: en
Country: GB
--></g></svg>