GROUP,PACKAGE,CLASS,INSTRUCTION_MISSED,INSTRUCTION_COVERED,BRANCH_MISSED,BRANCH_COVERED,LINE_MISSED,LINE_COVERED,COMPLEXITY_MISSED,COMPLEXITY_COVERED,METHOD_MISSED,METHOD_COVERED
SteelBlue :: Examples :: Presentation,it.tidalwave.ui.example.presentation.impl,DefaultMainPanelPresentationControl,8,419,0,0,3,65,1,30,1,30
SteelBlue :: Examples :: Presentation,it.tidalwave.ui.example.presentation.impl,FileEntityPresentable,0,124,0,0,0,18,0,6,0,6
SteelBlue :: Examples :: Presentation,it.tidalwave.ui.example.presentation.impl,MainPanelUserActionProvider,17,0,0,0,1,0,1,0,1,0
