@startuml
    set namespaceSeparator none
    hide empty fields
    hide empty methods

    interface "<size:14>PathAwareEntity\n<size:10>it.tidalwave.bluemarine2.model.spi" as it.tidalwave.bluemarine2.model.spi.PathAwareEntity [[PathAwareEntity.html]] {
        {static} +_PathAwareEntity_: Class<PathAwareEntity>
        {abstract} +getParent(): Optional<PathAwareEntity>
        {abstract} +getPath(): Path
        +getRelativePath(): Path
    }

    interface "<size:14>Entity\n<size:10>it.tidalwave.bluemarine2.model.spi" as it.tidalwave.bluemarine2.model.spi.Entity [[Entity.html]]

    it.tidalwave.bluemarine2.model.spi.Entity <|-- it.tidalwave.bluemarine2.model.spi.PathAwareEntity

    center footer UMLDoclet 2.0.12, PlantUML 1.2020.16
@enduml
