@startuml
    namespace it.tidalwave.bluemarine2.upnp.mediaserver.impl.device {

        class DefaultDevicePublisherTest [[DefaultDevicePublisherTest.html]] {
            +must_properly_publish_a_device(): void
        }

        it.tidalwave.bluemarine2.upnp.mediaserver.impl.ClingTestSupport <|-- DefaultDevicePublisherTest
    }

    namespace it.tidalwave.bluemarine2.upnp.mediaserver.impl {
        class ClingTestSupport [[../ClingTestSupport.html]] {
            #upnpService: UpnpService
        }
    }

    center footer UMLDoclet 2.0.12, PlantUML 1.2020.16
@enduml
