@startuml
    set namespaceSeparator none
    hide empty fields
    hide empty methods

    abstract class "<size:14>DefaultHtmlTextWithTitleViewController\n<size:10>it.tidalwave.northernwind.frontend.ui.component.htmltextwithtitle" as it.tidalwave.northernwind.frontend.ui.component.htmltextwithtitle.DefaultHtmlTextWithTitleViewController [[DefaultHtmlTextWithTitleViewController.html]] {
        +renderView(RenderContext): void
        {abstract} #render(List<? extends TextWithTitle>): void
    }

    interface "<size:14>HtmlTextWithTitleViewController\n<size:10>it.tidalwave.northernwind.frontend.ui.component.htmltextwithtitle" as it.tidalwave.northernwind.frontend.ui.component.htmltextwithtitle.HtmlTextWithTitleViewController [[HtmlTextWithTitleViewController.html]]
    class "<size:14>DefaultHtmlTextWithTitleViewController.TextWithTitle\n<size:10>it.tidalwave.northernwind.frontend.ui.component.htmltextwithtitle" as it.tidalwave.northernwind.frontend.ui.component.htmltextwithtitle.DefaultHtmlTextWithTitleViewController.TextWithTitle [[DefaultHtmlTextWithTitleViewController.TextWithTitle.html]]

    it.tidalwave.northernwind.frontend.ui.component.htmltextwithtitle.HtmlTextWithTitleViewController <|.. it.tidalwave.northernwind.frontend.ui.component.htmltextwithtitle.DefaultHtmlTextWithTitleViewController
    it.tidalwave.northernwind.frontend.ui.component.htmltextwithtitle.DefaultHtmlTextWithTitleViewController +-- it.tidalwave.northernwind.frontend.ui.component.htmltextwithtitle.DefaultHtmlTextWithTitleViewController.TextWithTitle

    center footer UMLDoclet 2.0.12, PlantUML 1.2020.16
@enduml
