<?xml version="1.0" encoding="UTF-8" standalone="no"?><svg xmlns="http://www.w3.org/2000/svg" xmlns:xlink="http://www.w3.org/1999/xlink" contentScriptType="application/ecmascript" contentStyleType="text/css" height="311px" preserveAspectRatio="none" style="width:427px;height:311px;" version="1.1" viewBox="0 0 427 311" width="427px" zoomAndPan="magnify"><defs><filter height="300%" id="fowm7ajjkxv4i" width="300%" x="-1" y="-1"><feGaussianBlur result="blurOut" stdDeviation="2.0"/><feColorMatrix in="blurOut" result="blurOut2" type="matrix" values="0 0 0 0 0 0 0 0 0 0 0 0 0 0 0 0 0 0 .4 0"/><feOffset dx="4.0" dy="4.0" in="blurOut2" result="blurOut3"/><feBlend in="SourceGraphic" in2="blurOut3" mode="normal"/></filter></defs><g><!--MD5=[ceabe3fdc6a2479515a12024e287d8d7]
class it.tidalwave.northernwind.frontend.ui.component.htmltextwithtitle.DefaultHtmlTextWithTitleViewController--><a href="DefaultHtmlTextWithTitleViewController.html" target="_top" title="DefaultHtmlTextWithTitleViewController.html" xlink:actuate="onRequest" xlink:href="DefaultHtmlTextWithTitleViewController.html" xlink:show="new" xlink:title="DefaultHtmlTextWithTitleViewController.html" xlink:type="simple"><rect codeLine="5" fill="#FEFECE" filter="url(#fowm7ajjkxv4i)" height="72.1758" id="it.tidalwave.northernwind.frontend.ui.component.htmltextwithtitle.DefaultHtmlTextWithTitleViewController" style="stroke: #A80036; stroke-width: 1.5;" width="357" x="29" y="105"/><ellipse cx="44" cy="124.1328" fill="#A9DCDF" rx="11" ry="11" style="stroke: #A80036; stroke-width: 1.0;"/><path d="M43.8633,119.481 L42.7095,124.5527 L45.0254,124.5527 Z M42.3691,117.2397 L45.3657,117.2397 L48.7109,129.6328 L46.2622,129.6328 L45.4985,126.5698 L42.2197,126.5698 L41.4727,129.6328 L39.0239,129.6328 Z "/><text fill="#000000" font-family="sans-serif" font-size="14" font-style="italic" lengthAdjust="spacingAndGlyphs" textLength="274" x="83.5" y="123.5352">DefaultHtmlTextWithTitleViewController</text><text fill="#000000" font-family="sans-serif" font-size="10" font-style="italic" lengthAdjust="spacingAndGlyphs" textLength="325" x="58" y="136.1563">it.tidalwave.northernwind.frontend.ui.component.htmltextwithtitle</text><line style="stroke: #A80036; stroke-width: 1.5;" x1="30" x2="385" y1="143.2656" y2="143.2656"/><ellipse cx="40" cy="154.2656" fill="#84BE84" rx="3" ry="3" style="stroke: #038048; stroke-width: 1.0;"/><text fill="#000000" font-family="sans-serif" font-size="11" lengthAdjust="spacingAndGlyphs" textLength="178" x="49" y="157.9004">renderView(RenderContext): void</text><polygon fill="#FFFF44" points="40,162.2207,44,166.2207,40,170.2207,36,166.2207" style="stroke: #B38D22; stroke-width: 1.0;"/><text fill="#000000" font-family="sans-serif" font-size="11" font-style="italic" lengthAdjust="spacingAndGlyphs" textLength="234" x="49" y="170.8555">render(List&lt;? extends TextWithTitle&gt;): void</text></a><!--MD5=[85c0448c0cf9513d430f5d941346efd1]
class it.tidalwave.northernwind.frontend.ui.component.htmltextwithtitle.HtmlTextWithTitleViewController--><a href="HtmlTextWithTitleViewController.html" target="_top" title="HtmlTextWithTitleViewController.html" xlink:actuate="onRequest" xlink:href="HtmlTextWithTitleViewController.html" xlink:show="new" xlink:title="HtmlTextWithTitleViewController.html" xlink:type="simple"><rect codeLine="10" fill="#FEFECE" filter="url(#fowm7ajjkxv4i)" height="38.2656" id="it.tidalwave.northernwind.frontend.ui.component.htmltextwithtitle.HtmlTextWithTitleViewController" style="stroke: #A80036; stroke-width: 1.5;" width="357" x="29" y="7"/><ellipse cx="44" cy="26.1328" fill="#B4A7E5" rx="11" ry="11" style="stroke: #A80036; stroke-width: 1.0;"/><path d="M40.4277,22.3979 L40.4277,20.2397 L47.8071,20.2397 L47.8071,22.3979 L45.3418,22.3979 L45.3418,30.4746 L47.8071,30.4746 L47.8071,32.6328 L40.4277,32.6328 L40.4277,30.4746 L42.8931,30.4746 L42.8931,22.3979 Z "/><text fill="#000000" font-family="sans-serif" font-size="14" font-style="italic" lengthAdjust="spacingAndGlyphs" textLength="225" x="108" y="25.5352">HtmlTextWithTitleViewController</text><text fill="#000000" font-family="sans-serif" font-size="10" font-style="italic" lengthAdjust="spacingAndGlyphs" textLength="325" x="58" y="38.1563">it.tidalwave.northernwind.frontend.ui.component.htmltextwithtitle</text></a><!--MD5=[4c5fac1faa1a8792e557c6487b63460e]
class it.tidalwave.northernwind.frontend.ui.component.htmltextwithtitle.DefaultHtmlTextWithTitleViewController.TextWithTitle--><a href="DefaultHtmlTextWithTitleViewController.TextWithTitle.html" target="_top" title="DefaultHtmlTextWithTitleViewController.TextWithTitle.html" xlink:actuate="onRequest" xlink:href="DefaultHtmlTextWithTitleViewController.TextWithTitle.html" xlink:show="new" xlink:title="DefaultHtmlTextWithTitleViewController.TextWithTitle.html" xlink:type="simple"><rect codeLine="11" fill="#FEFECE" filter="url(#fowm7ajjkxv4i)" height="38.2656" id="it.tidalwave.northernwind.frontend.ui.component.htmltextwithtitle.DefaultHtmlTextWithTitleViewController.TextWithTitle" style="stroke: #A80036; stroke-width: 1.5;" width="401" x="7" y="237"/><ellipse cx="22" cy="256.1328" fill="#ADD1B2" rx="11" ry="11" style="stroke: #A80036; stroke-width: 1.0;"/><path d="M24.4731,262.2759 Q23.8921,262.5747 23.2529,262.7241 Q22.6138,262.8735 21.9082,262.8735 Q19.4014,262.8735 18.0815,261.2217 Q16.7617,259.5698 16.7617,256.4487 Q16.7617,253.3193 18.0815,251.6675 Q19.4014,250.0156 21.9082,250.0156 Q22.6138,250.0156 23.2612,250.165 Q23.9087,250.3145 24.4731,250.6133 L24.4731,253.3359 Q23.8423,252.7549 23.2488,252.4851 Q22.6553,252.2153 22.0244,252.2153 Q20.6797,252.2153 19.9949,253.282 Q19.3101,254.3486 19.3101,256.4487 Q19.3101,258.5405 19.9949,259.6072 Q20.6797,260.6738 22.0244,260.6738 Q22.6553,260.6738 23.2488,260.4041 Q23.8423,260.1343 24.4731,259.5532 Z "/><text fill="#000000" font-family="sans-serif" font-size="14" lengthAdjust="spacingAndGlyphs" textLength="369" x="36" y="255.5352">DefaultHtmlTextWithTitleViewController.TextWithTitle</text><text fill="#000000" font-family="sans-serif" font-size="10" lengthAdjust="spacingAndGlyphs" textLength="325" x="58" y="268.1563">it.tidalwave.northernwind.frontend.ui.component.htmltextwithtitle</text></a><!--MD5=[ded9dd0be901b540ec565743d0432df7]
reverse link it.tidalwave.northernwind.frontend.ui.component.htmltextwithtitle.HtmlTextWithTitleViewController to it.tidalwave.northernwind.frontend.ui.component.htmltextwithtitle.DefaultHtmlTextWithTitleViewController--><path codeLine="13" d="M207.5,65.5888 C207.5,78.3573 207.5,92.4348 207.5,104.935 " fill="none" id="it.tidalwave.northernwind.frontend.ui.component.htmltextwithtitle.HtmlTextWithTitleViewController-backto-it.tidalwave.northernwind.frontend.ui.component.htmltextwithtitle.DefaultHtmlTextWithTitleViewController" style="stroke: #A80036; stroke-width: 1.0; stroke-dasharray: 7.0,7.0;"/><polygon fill="none" points="200.5001,65.2484,207.5,45.2484,214.5001,65.2484,200.5001,65.2484" style="stroke: #A80036; stroke-width: 1.0;"/><!--MD5=[2b81abb5e2e6c1732043baa3a251fe36]
reverse link it.tidalwave.northernwind.frontend.ui.component.htmltextwithtitle.DefaultHtmlTextWithTitleViewController to it.tidalwave.northernwind.frontend.ui.component.htmltextwithtitle.DefaultHtmlTextWithTitleViewController.TextWithTitle--><path codeLine="14" d="M207.5,192.4527 C207.5,208.2168 207.5,224.5939 207.5,236.7739 " fill="none" id="it.tidalwave.northernwind.frontend.ui.component.htmltextwithtitle.DefaultHtmlTextWithTitleViewController-backto-it.tidalwave.northernwind.frontend.ui.component.htmltextwithtitle.DefaultHtmlTextWithTitleViewController.TextWithTitle" style="stroke: #A80036; stroke-width: 1.0;"/><ellipse cx="207.5" cy="185.0712" fill="#FFFFFF" rx="8" ry="8" style="stroke: #A80036; stroke-width: 1.0;"/><line style="stroke: #A80036; stroke-width: 1.0;" x1="207.5" x2="207.5" y1="193.0712" y2="177.0712"/><line style="stroke: #A80036; stroke-width: 1.0;" x1="199.5" x2="215.5" y1="185.0712" y2="185.0712"/><text fill="#888888" font-family="sans-serif" font-size="10" lengthAdjust="spacingAndGlyphs" textLength="188" x="110.5" y="297.9336">UMLDoclet 2.0.12, PlantUML 1.2020.16</text><!--MD5=[aae6f4dff81a9016e5cbc06bf4a22ee9]
@startuml
    set namespaceSeparator none
    hide empty fields
    hide empty methods

    abstract class "<size:14>DefaultHtmlTextWithTitleViewController\n<size:10>it.tidalwave.northernwind.frontend.ui.component.htmltextwithtitle" as it.tidalwave.northernwind.frontend.ui.component.htmltextwithtitle.DefaultHtmlTextWithTitleViewController [[DefaultHtmlTextWithTitleViewController.html]] {
        +renderView(RenderContext): void
        {abstract} #render(List<? extends TextWithTitle>): void
    }

    interface "<size:14>HtmlTextWithTitleViewController\n<size:10>it.tidalwave.northernwind.frontend.ui.component.htmltextwithtitle" as it.tidalwave.northernwind.frontend.ui.component.htmltextwithtitle.HtmlTextWithTitleViewController [[HtmlTextWithTitleViewController.html]]
    class "<size:14>DefaultHtmlTextWithTitleViewController.TextWithTitle\n<size:10>it.tidalwave.northernwind.frontend.ui.component.htmltextwithtitle" as it.tidalwave.northernwind.frontend.ui.component.htmltextwithtitle.DefaultHtmlTextWithTitleViewController.TextWithTitle [[DefaultHtmlTextWithTitleViewController.TextWithTitle.html]]

    it.tidalwave.northernwind.frontend.ui.component.htmltextwithtitle.HtmlTextWithTitleViewController <|.. it.tidalwave.northernwind.frontend.ui.component.htmltextwithtitle.DefaultHtmlTextWithTitleViewController
    it.tidalwave.northernwind.frontend.ui.component.htmltextwithtitle.DefaultHtmlTextWithTitleViewController +- - it.tidalwave.northernwind.frontend.ui.component.htmltextwithtitle.DefaultHtmlTextWithTitleViewController.TextWithTitle

    center footer UMLDoclet 2.0.12, PlantUML 1.2020.16
@enduml

PlantUML version 1.2020.16(Sun Aug 23 22:20:43 CEST 2020)
(APACHE source distribution)
Java Runtime: OpenJDK Runtime Environment
JVM: OpenJDK 64-Bit Server VM
Default Encoding: UTF-8
Language: en
Country: GB
--></g></svg>