<?xml version="1.0" encoding="UTF-8" standalone="no"?><svg xmlns="http://www.w3.org/2000/svg" xmlns:xlink="http://www.w3.org/1999/xlink" contentScriptType="application/ecmascript" contentStyleType="text/css" height="572px" preserveAspectRatio="none" style="width:558px;height:572px;" version="1.1" viewBox="0 0 558 572" width="558px" zoomAndPan="magnify"><defs><filter height="300%" id="f156kx2ju1baan" width="300%" x="-1" y="-1"><feGaussianBlur result="blurOut" stdDeviation="2.0"/><feColorMatrix in="blurOut" result="blurOut2" type="matrix" values="0 0 0 0 0 0 0 0 0 0 0 0 0 0 0 0 0 0 .4 0"/><feOffset dx="4.0" dy="4.0" in="blurOut2" result="blurOut3"/><feBlend in="SourceGraphic" in2="blurOut3" mode="normal"/></filter></defs><g><!--MD5=[07a42571b673fa7383647b59d098c966]
cluster it.tidalwave.northernwind.frontend.ui.component.htmltextwithtitle--><polygon fill="#FFFFFF" filter="url(#f156kx2ju1baan)" points="40,166,521,166,528,188.4883,531,188.4883,531,543,40,543,40,166" style="stroke: #000000; stroke-width: 1.5;"/><line style="stroke: #000000; stroke-width: 1.5;" x1="40" x2="528" y1="188.4883" y2="188.4883"/><text fill="#000000" font-family="sans-serif" font-size="14" font-weight="bold" lengthAdjust="spacingAndGlyphs" textLength="475" x="44" y="181.5352">it.tidalwave.northernwind.frontend.ui.component.htmltextwithtitle</text><!--MD5=[a7ca9ec2a63815c8336b48c8b310b176]
cluster it.tidalwave.role--><polygon fill="#FFFFFF" filter="url(#f156kx2ju1baan)" points="16,12.5,136,12.5,143,34.9883,242,34.9883,242,134.5,16,134.5,16,12.5" style="stroke: #000000; stroke-width: 1.5;"/><line style="stroke: #000000; stroke-width: 1.5;" x1="16" x2="143" y1="34.9883" y2="34.9883"/><text fill="#000000" font-family="sans-serif" font-size="14" font-weight="bold" lengthAdjust="spacingAndGlyphs" textLength="114" x="20" y="28.0352">it.tidalwave.role</text><!--MD5=[90c2144f63705a3044483f7c3d43505d]
cluster it.tidalwave.northernwind.frontend.ui--><polygon fill="#FFFFFF" filter="url(#f156kx2ju1baan)" points="255,6,526,6,533,28.4883,536,28.4883,536,141,255,141,255,6" style="stroke: #000000; stroke-width: 1.5;"/><line style="stroke: #000000; stroke-width: 1.5;" x1="255" x2="533" y1="28.4883" y2="28.4883"/><text fill="#000000" font-family="sans-serif" font-size="14" font-weight="bold" lengthAdjust="spacingAndGlyphs" textLength="265" x="259" y="21.5352">it.tidalwave.northernwind.frontend.ui</text><!--MD5=[8e6cbe167d5f079ee267ea7043687618]
class it.tidalwave.northernwind.frontend.ui.component.htmltextwithtitle.HtmlTextWithTitleView--><a href="HtmlTextWithTitleView.html" target="_top" title="HtmlTextWithTitleView.html" xlink:actuate="onRequest" xlink:href="HtmlTextWithTitleView.html" xlink:show="new" xlink:title="HtmlTextWithTitleView.html" xlink:type="simple"><rect codeLine="3" fill="#FEFECE" filter="url(#f156kx2ju1baan)" height="60.9551" id="it.tidalwave.northernwind.frontend.ui.component.htmltextwithtitle.HtmlTextWithTitleView" style="stroke: #A80036; stroke-width: 1.5;" width="170" x="48" y="193"/><ellipse cx="67.05" cy="209" fill="#B4A7E5" rx="11" ry="11" style="stroke: #A80036; stroke-width: 1.0;"/><path d="M63.4777,205.2651 L63.4777,203.1069 L70.8571,203.1069 L70.8571,205.2651 L68.3918,205.2651 L68.3918,213.3418 L70.8571,213.3418 L70.8571,215.5 L63.4777,215.5 L63.4777,213.3418 L65.9431,213.3418 L65.9431,205.2651 Z "/><text fill="#000000" font-family="sans-serif" font-size="12" font-style="italic" lengthAdjust="spacingAndGlyphs" textLength="129" x="81.95" y="213.5352">HtmlTextWithTitleView</text><line style="stroke: #A80036; stroke-width: 1.5;" x1="49" x2="217" y1="225" y2="225"/><line style="stroke: #A80036; stroke-width: 1.5;" x1="49" x2="217" y1="233" y2="233"/><ellipse cx="59" cy="244" fill="#84BE84" rx="3" ry="3" style="stroke: #038048; stroke-width: 1.0;"/><text fill="#000000" font-family="sans-serif" font-size="11" font-style="italic" lengthAdjust="spacingAndGlyphs" textLength="144" x="68" y="247.6348">setClassName(String): void</text></a><!--MD5=[ceabe3fdc6a2479515a12024e287d8d7]
class it.tidalwave.northernwind.frontend.ui.component.htmltextwithtitle.DefaultHtmlTextWithTitleViewController--><a href="DefaultHtmlTextWithTitleViewController.html" target="_top" title="DefaultHtmlTextWithTitleViewController.html" xlink:actuate="onRequest" xlink:href="DefaultHtmlTextWithTitleViewController.html" xlink:show="new" xlink:title="DefaultHtmlTextWithTitleViewController.html" xlink:type="simple"><rect codeLine="7" fill="#FEFECE" filter="url(#f156kx2ju1baan)" height="73.9102" id="it.tidalwave.northernwind.frontend.ui.component.htmltextwithtitle.DefaultHtmlTextWithTitleViewController" style="stroke: #A80036; stroke-width: 1.5;" width="260" x="236" y="314"/><ellipse cx="251.9" cy="330" fill="#A9DCDF" rx="11" ry="11" style="stroke: #A80036; stroke-width: 1.0;"/><path d="M251.7633,325.3481 L250.6095,330.4199 L252.9254,330.4199 Z M250.2691,323.1069 L253.2657,323.1069 L256.6109,335.5 L254.1622,335.5 L253.3985,332.437 L250.1197,332.437 L249.3727,335.5 L246.9239,335.5 Z "/><text fill="#000000" font-family="sans-serif" font-size="12" font-style="italic" lengthAdjust="spacingAndGlyphs" textLength="226" x="266.1" y="334.5352">DefaultHtmlTextWithTitleViewController</text><line style="stroke: #A80036; stroke-width: 1.5;" x1="237" x2="495" y1="346" y2="346"/><line style="stroke: #A80036; stroke-width: 1.5;" x1="237" x2="495" y1="354" y2="354"/><ellipse cx="247" cy="365" fill="#84BE84" rx="3" ry="3" style="stroke: #038048; stroke-width: 1.0;"/><text fill="#000000" font-family="sans-serif" font-size="11" lengthAdjust="spacingAndGlyphs" textLength="178" x="256" y="368.6348">renderView(RenderContext): void</text><polygon fill="#FFFF44" points="247,372.9551,251,376.9551,247,380.9551,243,376.9551" style="stroke: #B38D22; stroke-width: 1.0;"/><text fill="#000000" font-family="sans-serif" font-size="11" font-style="italic" lengthAdjust="spacingAndGlyphs" textLength="234" x="256" y="381.5898">render(List&lt;? extends TextWithTitle&gt;): void</text></a><!--MD5=[4c5fac1faa1a8792e557c6487b63460e]
class it.tidalwave.northernwind.frontend.ui.component.htmltextwithtitle.DefaultHtmlTextWithTitleViewController.TextWithTitle--><a href="DefaultHtmlTextWithTitleViewController.TextWithTitle.html" target="_top" title="DefaultHtmlTextWithTitleViewController.TextWithTitle.html" xlink:actuate="onRequest" xlink:href="DefaultHtmlTextWithTitleViewController.TextWithTitle.html" xlink:show="new" xlink:title="DefaultHtmlTextWithTitleViewController.TextWithTitle.html" xlink:type="simple"><rect codeLine="12" fill="#FEFECE" filter="url(#f156kx2ju1baan)" height="86.8652" id="it.tidalwave.northernwind.frontend.ui.component.htmltextwithtitle.DefaultHtmlTextWithTitleViewController.TextWithTitle" style="stroke: #A80036; stroke-width: 1.5;" width="337" x="185.5" y="448"/><ellipse cx="200.5" cy="464" fill="#ADD1B2" rx="11" ry="11" style="stroke: #A80036; stroke-width: 1.0;"/><path d="M202.9731,470.1431 Q202.3921,470.4419 201.7529,470.5913 Q201.1138,470.7407 200.4082,470.7407 Q197.9014,470.7407 196.5815,469.0889 Q195.2617,467.437 195.2617,464.3159 Q195.2617,461.1865 196.5815,459.5347 Q197.9014,457.8828 200.4082,457.8828 Q201.1138,457.8828 201.7612,458.0322 Q202.4087,458.1816 202.9731,458.4805 L202.9731,461.2031 Q202.3423,460.6221 201.7488,460.3523 Q201.1553,460.0825 200.5244,460.0825 Q199.1797,460.0825 198.4949,461.1492 Q197.8101,462.2158 197.8101,464.3159 Q197.8101,466.4077 198.4949,467.4744 Q199.1797,468.541 200.5244,468.541 Q201.1553,468.541 201.7488,468.2712 Q202.3423,468.0015 202.9731,467.4204 Z "/><text fill="#000000" font-family="sans-serif" font-size="12" lengthAdjust="spacingAndGlyphs" textLength="305" x="214.5" y="468.5352">DefaultHtmlTextWithTitleViewController.TextWithTitle</text><line style="stroke: #A80036; stroke-width: 1.5;" x1="186.5" x2="521.5" y1="480" y2="480"/><ellipse cx="196.5" cy="491" fill="none" rx="3" ry="3" style="stroke: #038048; stroke-width: 1.0;"/><text fill="#000000" font-family="sans-serif" font-size="11" lengthAdjust="spacingAndGlyphs" textLength="122" x="205.5" y="494.6348">title: Optional&lt;String&gt;</text><ellipse cx="196.5" cy="503.9551" fill="none" rx="3" ry="3" style="stroke: #038048; stroke-width: 1.0;"/><text fill="#000000" font-family="sans-serif" font-size="11" lengthAdjust="spacingAndGlyphs" textLength="123" x="205.5" y="507.5898">text: Optional&lt;String&gt;</text><ellipse cx="196.5" cy="516.9102" fill="none" rx="3" ry="3" style="stroke: #038048; stroke-width: 1.0;"/><text fill="#000000" font-family="sans-serif" font-size="11" lengthAdjust="spacingAndGlyphs" textLength="44" x="205.5" y="520.5449">level: int</text><line style="stroke: #A80036; stroke-width: 1.5;" x1="186.5" x2="521.5" y1="526.8652" y2="526.8652"/></a><!--MD5=[85c0448c0cf9513d430f5d941346efd1]
class it.tidalwave.northernwind.frontend.ui.component.htmltextwithtitle.HtmlTextWithTitleViewController--><a href="HtmlTextWithTitleViewController.html" target="_top" title="HtmlTextWithTitleViewController.html" xlink:actuate="onRequest" xlink:href="HtmlTextWithTitleViewController.html" xlink:show="new" xlink:title="HtmlTextWithTitleViewController.html" xlink:type="simple"><rect codeLine="18" fill="#FEFECE" filter="url(#f156kx2ju1baan)" height="48" id="it.tidalwave.northernwind.frontend.ui.component.htmltextwithtitle.HtmlTextWithTitleViewController" style="stroke: #A80036; stroke-width: 1.5;" width="217" x="270.5" y="199.5"/><ellipse cx="285.5" cy="215.5" fill="#B4A7E5" rx="11" ry="11" style="stroke: #A80036; stroke-width: 1.0;"/><path d="M281.9277,211.7651 L281.9277,209.6069 L289.3071,209.6069 L289.3071,211.7651 L286.8418,211.7651 L286.8418,219.8418 L289.3071,219.8418 L289.3071,222 L281.9277,222 L281.9277,219.8418 L284.3931,219.8418 L284.3931,211.7651 Z "/><text fill="#000000" font-family="sans-serif" font-size="12" font-style="italic" lengthAdjust="spacingAndGlyphs" textLength="185" x="299.5" y="220.0352">HtmlTextWithTitleViewController</text><line style="stroke: #A80036; stroke-width: 1.5;" x1="271.5" x2="486.5" y1="231.5" y2="231.5"/><line style="stroke: #A80036; stroke-width: 1.5;" x1="271.5" x2="486.5" y1="239.5" y2="239.5"/></a><!--MD5=[f40774d2c0efa8b70d7c747ac61cb911]
class it.tidalwave.role.Identifiable--><rect codeLine="27" fill="#FEFECE" filter="url(#f156kx2ju1baan)" height="86.8652" id="it.tidalwave.role.Identifiable" style="stroke: #A80036; stroke-width: 1.5;" width="209" x="24.5" y="39.5"/><ellipse cx="92.75" cy="55.5" fill="#B4A7E5" rx="11" ry="11" style="stroke: #A80036; stroke-width: 1.0;"/><path d="M89.1777,51.7651 L89.1777,49.6069 L96.5571,49.6069 L96.5571,51.7651 L94.0918,51.7651 L94.0918,59.8418 L96.5571,59.8418 L96.5571,62 L89.1777,62 L89.1777,59.8418 L91.6431,59.8418 L91.6431,51.7651 Z "/><text fill="#000000" font-family="sans-serif" font-size="12" font-style="italic" lengthAdjust="spacingAndGlyphs" textLength="64" x="113.25" y="60.0352">Identifiable</text><line style="stroke: #A80036; stroke-width: 1.5;" x1="25.5" x2="232.5" y1="71.5" y2="71.5"/><ellipse cx="35.5" cy="82.5" fill="none" rx="3" ry="3" style="stroke: #038048; stroke-width: 1.0;"/><text fill="#000000" font-family="sans-serif" font-size="11" lengthAdjust="spacingAndGlyphs" text-decoration="underline" textLength="183" x="44.5" y="86.1348">_Identifiable_: Class&lt;Identifiable&gt;</text><line style="stroke: #A80036; stroke-width: 1.5;" x1="25.5" x2="232.5" y1="92.4551" y2="92.4551"/><ellipse cx="35.5" cy="103.4551" fill="#84BE84" rx="3" ry="3" style="stroke: #038048; stroke-width: 1.0;"/><text fill="#000000" font-family="sans-serif" font-size="11" font-style="italic" lengthAdjust="spacingAndGlyphs" textLength="51" x="44.5" y="107.0898">getId(): Id</text><ellipse cx="35.5" cy="116.4102" fill="#84BE84" rx="3" ry="3" style="stroke: #038048; stroke-width: 1.0;"/><text fill="#000000" font-family="sans-serif" font-size="11" lengthAdjust="spacingAndGlyphs" text-decoration="underline" textLength="94" x="44.5" y="120.0449">of(Id): Identifiable</text><!--MD5=[fd49f22f3a54ad6da4c032e73965af1a]
class it.tidalwave.northernwind.frontend.ui.ViewController--><a href="../../ViewController.html" target="_top" title="../../ViewController.html" xlink:actuate="onRequest" xlink:href="../../ViewController.html" xlink:show="new" xlink:title="../../ViewController.html" xlink:type="simple"><rect codeLine="35" fill="#FEFECE" filter="url(#f156kx2ju1baan)" height="99.8203" id="it.tidalwave.northernwind.frontend.ui.ViewController" style="stroke: #A80036; stroke-width: 1.5;" width="248" x="269" y="33"/><ellipse cx="347.25" cy="49" fill="#B4A7E5" rx="11" ry="11" style="stroke: #A80036; stroke-width: 1.0;"/><path d="M343.6777,45.2651 L343.6777,43.1069 L351.0571,43.1069 L351.0571,45.2651 L348.5918,45.2651 L348.5918,53.3418 L351.0571,53.3418 L351.0571,55.5 L343.6777,55.5 L343.6777,53.3418 L346.1431,53.3418 L346.1431,45.2651 Z "/><text fill="#000000" font-family="sans-serif" font-size="12" font-style="italic" lengthAdjust="spacingAndGlyphs" textLength="83" x="367.75" y="53.5352">ViewController</text><line style="stroke: #A80036; stroke-width: 1.5;" x1="270" x2="516" y1="65" y2="65"/><line style="stroke: #A80036; stroke-width: 1.5;" x1="270" x2="516" y1="73" y2="73"/><ellipse cx="280" cy="84" fill="#84BE84" rx="3" ry="3" style="stroke: #038048; stroke-width: 1.0;"/><text fill="#000000" font-family="sans-serif" font-size="11" lengthAdjust="spacingAndGlyphs" textLength="81" x="289" y="87.6348">initialize(): void</text><ellipse cx="280" cy="96.9551" fill="#84BE84" rx="3" ry="3" style="stroke: #038048; stroke-width: 1.0;"/><text fill="#000000" font-family="sans-serif" font-size="11" lengthAdjust="spacingAndGlyphs" textLength="215" x="289" y="100.5898">prepareRendering(RenderContext): void</text><ellipse cx="280" cy="109.9102" fill="#84BE84" rx="3" ry="3" style="stroke: #038048; stroke-width: 1.0;"/><text fill="#000000" font-family="sans-serif" font-size="11" lengthAdjust="spacingAndGlyphs" textLength="178" x="289" y="113.5449">renderView(RenderContext): void</text><ellipse cx="280" cy="122.8652" fill="#84BE84" rx="3" ry="3" style="stroke: #038048; stroke-width: 1.0;"/><text fill="#000000" font-family="sans-serif" font-size="11" lengthAdjust="spacingAndGlyphs" textLength="222" x="289" y="126.5">findVirtualSiteNodes(): Finder&lt;SiteNode&gt;</text></a><!--MD5=[3ef6bb7d7a5e89a946e77a8b6d1d3748]
reverse link it.tidalwave.role.Identifiable to it.tidalwave.northernwind.frontend.ui.component.htmltextwithtitle.HtmlTextWithTitleView--><path codeLine="20" d="M130.8164,146.8028 C131.2717,162.7919 131.7397,179.2302 132.125,192.7671 " fill="none" id="it.tidalwave.role.Identifiable-backto-it.tidalwave.northernwind.frontend.ui.component.htmltextwithtitle.HtmlTextWithTitleView" style="stroke: #A80036; stroke-width: 1.0;"/><polygon fill="none" points="123.8158,146.8761,130.2437,126.6849,137.8101,146.4776,123.8158,146.8761" style="stroke: #A80036; stroke-width: 1.0;"/><!--MD5=[ded9dd0be901b540ec565743d0432df7]
reverse link it.tidalwave.northernwind.frontend.ui.component.htmltextwithtitle.HtmlTextWithTitleViewController to it.tidalwave.northernwind.frontend.ui.component.htmltextwithtitle.DefaultHtmlTextWithTitleViewController--><path codeLine="21" d="M374.4793,267.8377 C372.9517,282.8199 371.2629,299.3834 369.7971,313.7589 " fill="none" id="it.tidalwave.northernwind.frontend.ui.component.htmltextwithtitle.HtmlTextWithTitleViewController-backto-it.tidalwave.northernwind.frontend.ui.component.htmltextwithtitle.DefaultHtmlTextWithTitleViewController" style="stroke: #A80036; stroke-width: 1.0; stroke-dasharray: 7.0,7.0;"/><polygon fill="none" points="367.5315,266.9687,376.5242,247.7819,381.4593,268.3888,367.5315,266.9687" style="stroke: #A80036; stroke-width: 1.0;"/><!--MD5=[2b81abb5e2e6c1732043baa3a251fe36]
reverse link it.tidalwave.northernwind.frontend.ui.component.htmltextwithtitle.DefaultHtmlTextWithTitleViewController to it.tidalwave.northernwind.frontend.ui.component.htmltextwithtitle.DefaultHtmlTextWithTitleViewController.TextWithTitle--><path codeLine="22" d="M361.5121,403.5453 C360.267,418.1242 358.9288,433.7914 357.7319,447.8053 " fill="none" id="it.tidalwave.northernwind.frontend.ui.component.htmltextwithtitle.DefaultHtmlTextWithTitleViewController-backto-it.tidalwave.northernwind.frontend.ui.component.htmltextwithtitle.DefaultHtmlTextWithTitleViewController.TextWithTitle" style="stroke: #A80036; stroke-width: 1.0;"/><ellipse cx="362.1349" cy="396.2535" fill="#FFFFFF" rx="8" ry="8" style="stroke: #A80036; stroke-width: 1.0;"/><line style="stroke: #A80036; stroke-width: 1.0;" x1="361.454" x2="362.8157" y1="404.2245" y2="388.2825"/><line style="stroke: #A80036; stroke-width: 1.0;" x1="354.1639" x2="370.1058" y1="395.5726" y2="396.9343"/><!--MD5=[8c2cc1a5dc8c47959ca4c7776c56cefb]
reverse link it.tidalwave.northernwind.frontend.ui.ViewController to it.tidalwave.northernwind.frontend.ui.component.htmltextwithtitle.HtmlTextWithTitleViewController--><path codeLine="23" d="M385.9898,153.352 C384.3339,169.971 382.6786,186.5823 381.3949,199.4657 " fill="none" id="it.tidalwave.northernwind.frontend.ui.ViewController-backto-it.tidalwave.northernwind.frontend.ui.component.htmltextwithtitle.HtmlTextWithTitleViewController" style="stroke: #A80036; stroke-width: 1.0;"/><polygon fill="none" points="379.0366,152.5342,387.9852,133.3269,392.9676,153.9224,379.0366,152.5342" style="stroke: #A80036; stroke-width: 1.0;"/><text fill="#888888" font-family="sans-serif" font-size="10" lengthAdjust="spacingAndGlyphs" textLength="188" x="176" y="558.668">UMLDoclet 2.0.12, PlantUML 1.2020.16</text><!--MD5=[11be4ab6df5fb49be50ba0fa866b08d2]
@startuml
    namespace it.tidalwave.northernwind.frontend.ui.component.htmltextwithtitle {

        interface HtmlTextWithTitleView [[HtmlTextWithTitleView.html]] {
            {abstract} +setClassName(String): void
        }

        abstract class DefaultHtmlTextWithTitleViewController [[DefaultHtmlTextWithTitleViewController.html]] {
            +renderView(RenderContext): void
            {abstract} #render(List<? extends TextWithTitle>): void
        }

        class it.tidalwave.northernwind.frontend.ui.component.htmltextwithtitle.DefaultHtmlTextWithTitleViewController.TextWithTitle [[DefaultHtmlTextWithTitleViewController.TextWithTitle.html]] {
            +title: Optional<String>
            +text: Optional<String>
            +level: int
        }

        interface HtmlTextWithTitleViewController [[HtmlTextWithTitleViewController.html]]

        it.tidalwave.role.Identifiable <|- - HtmlTextWithTitleView
        HtmlTextWithTitleViewController <|.. DefaultHtmlTextWithTitleViewController
        DefaultHtmlTextWithTitleViewController +- - it.tidalwave.northernwind.frontend.ui.component.htmltextwithtitle.DefaultHtmlTextWithTitleViewController.TextWithTitle
        it.tidalwave.northernwind.frontend.ui.ViewController <|- - HtmlTextWithTitleViewController
    }

    namespace it.tidalwave.role {
        interface Identifiable {
            {static} +_Identifiable_: Class<Identifiable>
            {abstract} +getId(): Id
            {static} +of(Id): Identifiable
        }
    }

    namespace it.tidalwave.northernwind.frontend.ui {
        interface ViewController [[../../ViewController.html]] {
            +initialize(): void
            +prepareRendering(RenderContext): void
            +renderView(RenderContext): void
            +findVirtualSiteNodes(): Finder<SiteNode>
        }
    }

    center footer UMLDoclet 2.0.12, PlantUML 1.2020.16
@enduml

PlantUML version 1.2020.16(Sun Aug 23 22:20:43 CEST 2020)
(APACHE source distribution)
Java Runtime: OpenJDK Runtime Environment
JVM: OpenJDK 64-Bit Server VM
Default Encoding: UTF-8
Language: en
Country: GB
--></g></svg>