<?xml version="1.0" encoding="UTF-8" standalone="no"?><svg xmlns="http://www.w3.org/2000/svg" xmlns:xlink="http://www.w3.org/1999/xlink" contentScriptType="application/ecmascript" contentStyleType="text/css" height="170px" preserveAspectRatio="none" style="width:583px;height:170px;" version="1.1" viewBox="0 0 583 170" width="583px" zoomAndPan="magnify"><defs><filter height="300%" id="f1iv89auksc4y8" width="300%" x="-1" y="-1"><feGaussianBlur result="blurOut" stdDeviation="2.0"/><feColorMatrix in="blurOut" result="blurOut2" type="matrix" values="0 0 0 0 0 0 0 0 0 0 0 0 0 0 0 0 0 0 .4 0"/><feOffset dx="4.0" dy="4.0" in="blurOut2" result="blurOut3"/><feBlend in="SourceGraphic" in2="blurOut3" mode="normal"/></filter></defs><g><!--MD5=[882746d34bb401aa4ee4ab8fe6093cd9]
cluster it.tidalwave.northernwind.rca.ui.structureeditor--><polygon fill="#FFFFFF" filter="url(#f1iv89auksc4y8)" points="16,6,357,6,364,28.4883,561,28.4883,561,141,16,141,16,6" style="stroke: #000000; stroke-width: 1.5;"/><line style="stroke: #000000; stroke-width: 1.5;" x1="16" x2="364" y1="28.4883" y2="28.4883"/><text fill="#000000" font-family="sans-serif" font-size="14" font-weight="bold" lengthAdjust="spacingAndGlyphs" textLength="335" x="20" y="21.5352">it.tidalwave.northernwind.rca.ui.structureeditor</text><!--MD5=[9e658332489d7bd845257d922fc294b6]
class it.tidalwave.northernwind.rca.ui.structureeditor.StructureEditorPresentation--><a href="StructureEditorPresentation.html" target="_top" title="StructureEditorPresentation.html" xlink:actuate="onRequest" xlink:href="StructureEditorPresentation.html" xlink:show="new" xlink:title="StructureEditorPresentation.html" xlink:type="simple"><rect codeLine="3" fill="#FEFECE" filter="url(#f1iv89auksc4y8)" height="99.8203" id="it.tidalwave.northernwind.rca.ui.structureeditor.StructureEditorPresentation" style="stroke: #A80036; stroke-width: 1.5;" width="264" x="289" y="33"/><ellipse cx="338.75" cy="49" fill="#B4A7E5" rx="11" ry="11" style="stroke: #A80036; stroke-width: 1.0;"/><path d="M335.1777,45.2651 L335.1777,43.1069 L342.5571,43.1069 L342.5571,45.2651 L340.0918,45.2651 L340.0918,53.3418 L342.5571,53.3418 L342.5571,55.5 L335.1777,55.5 L335.1777,53.3418 L337.6431,53.3418 L337.6431,45.2651 Z "/><text fill="#000000" font-family="sans-serif" font-size="12" font-style="italic" lengthAdjust="spacingAndGlyphs" textLength="156" x="359.25" y="53.5352">StructureEditorPresentation</text><line style="stroke: #A80036; stroke-width: 1.5;" x1="290" x2="552" y1="65" y2="65"/><line style="stroke: #A80036; stroke-width: 1.5;" x1="290" x2="552" y1="73" y2="73"/><ellipse cx="300" cy="84" fill="#84BE84" rx="3" ry="3" style="stroke: #038048; stroke-width: 1.0;"/><text fill="#000000" font-family="sans-serif" font-size="11" font-style="italic" lengthAdjust="spacingAndGlyphs" textLength="80" x="309" y="87.6348">showUp(): void</text><ellipse cx="300" cy="96.9551" fill="#84BE84" rx="3" ry="3" style="stroke: #038048; stroke-width: 1.0;"/><text fill="#000000" font-family="sans-serif" font-size="11" font-style="italic" lengthAdjust="spacingAndGlyphs" textLength="63" x="309" y="100.5898">clear(): void</text><ellipse cx="300" cy="109.9102" fill="#84BE84" rx="3" ry="3" style="stroke: #038048; stroke-width: 1.0;"/><text fill="#000000" font-family="sans-serif" font-size="11" font-style="italic" lengthAdjust="spacingAndGlyphs" textLength="116" x="309" y="113.5449">populate(String): void</text><ellipse cx="300" cy="122.8652" fill="#84BE84" rx="3" ry="3" style="stroke: #038048; stroke-width: 1.0;"/><text fill="#000000" font-family="sans-serif" font-size="11" font-style="italic" lengthAdjust="spacingAndGlyphs" textLength="238" x="309" y="126.5">populateProperties(PresentationModel): void</text></a><!--MD5=[5c84af4fe7eca8ff1e4f6768bcbc8357]
class it.tidalwave.northernwind.rca.ui.structureeditor.StructureEditorPresentationControl--><a href="StructureEditorPresentationControl.html" target="_top" title="StructureEditorPresentationControl.html" xlink:actuate="onRequest" xlink:href="StructureEditorPresentationControl.html" xlink:show="new" xlink:title="StructureEditorPresentationControl.html" xlink:type="simple"><rect codeLine="10" fill="#FEFECE" filter="url(#f1iv89auksc4y8)" height="48" id="it.tidalwave.northernwind.rca.ui.structureeditor.StructureEditorPresentationControl" style="stroke: #A80036; stroke-width: 1.5;" width="229" x="24.5" y="59"/><ellipse cx="39.5" cy="75" fill="#B4A7E5" rx="11" ry="11" style="stroke: #A80036; stroke-width: 1.0;"/><path d="M35.9277,71.2651 L35.9277,69.1069 L43.3071,69.1069 L43.3071,71.2651 L40.8418,71.2651 L40.8418,79.3418 L43.3071,79.3418 L43.3071,81.5 L35.9277,81.5 L35.9277,79.3418 L38.3931,79.3418 L38.3931,71.2651 Z "/><text fill="#000000" font-family="sans-serif" font-size="12" font-style="italic" lengthAdjust="spacingAndGlyphs" textLength="197" x="53.5" y="79.5352">StructureEditorPresentationControl</text><line style="stroke: #A80036; stroke-width: 1.5;" x1="25.5" x2="252.5" y1="91" y2="91"/><line style="stroke: #A80036; stroke-width: 1.5;" x1="25.5" x2="252.5" y1="99" y2="99"/></a><text fill="#888888" font-family="sans-serif" font-size="10" lengthAdjust="spacingAndGlyphs" textLength="188" x="188.5" y="156.668">UMLDoclet 2.0.12, PlantUML 1.2020.16</text><!--MD5=[cf5c7ab2d456d9ceb1bfa11da4fef415]
@startuml
    namespace it.tidalwave.northernwind.rca.ui.structureeditor {

        interface StructureEditorPresentation [[StructureEditorPresentation.html]] {
            {abstract} +showUp(): void
            {abstract} +clear(): void
            {abstract} +populate(String): void
            {abstract} +populateProperties(PresentationModel): void
        }

        interface StructureEditorPresentationControl [[StructureEditorPresentationControl.html]]

    }

    center footer UMLDoclet 2.0.12, PlantUML 1.2020.16
@enduml

PlantUML version 1.2020.16(Sun Aug 23 22:20:43 CEST 2020)
(APACHE source distribution)
Java Runtime: OpenJDK Runtime Environment
JVM: OpenJDK 64-Bit Server VM
Default Encoding: UTF-8
Language: en
Country: GB
--></g></svg>