<?xml version="1.0" encoding="UTF-8" standalone="no"?><svg xmlns="http://www.w3.org/2000/svg" xmlns:xlink="http://www.w3.org/1999/xlink" contentScriptType="application/ecmascript" contentStyleType="text/css" height="278px" preserveAspectRatio="none" style="width:440px;height:278px;" version="1.1" viewBox="0 0 440 278" width="440px" zoomAndPan="magnify"><defs><filter height="300%" id="ft3rcdftd0j4x" width="300%" x="-1" y="-1"><feGaussianBlur result="blurOut" stdDeviation="2.0"/><feColorMatrix in="blurOut" result="blurOut2" type="matrix" values="0 0 0 0 0 0 0 0 0 0 0 0 0 0 0 0 0 0 .4 0"/><feOffset dx="4.0" dy="4.0" in="blurOut2" result="blurOut3"/><feBlend in="SourceGraphic" in2="blurOut3" mode="normal"/></filter></defs><g><!--MD5=[b7c129bd91c6edc7f39b36a878293ed8]
class it.tidalwave.northernwind.frontend.ui.component.gallery.htmltemplate.bluette.BluetteGalleryAdapter--><a href="BluetteGalleryAdapter.html" target="_top" title="BluetteGalleryAdapter.html" xlink:actuate="onRequest" xlink:href="BluetteGalleryAdapter.html" xlink:show="new" xlink:title="BluetteGalleryAdapter.html" xlink:type="simple"><rect codeLine="5" fill="#FEFECE" filter="url(#ft3rcdftd0j4x)" height="136.9512" id="it.tidalwave.northernwind.frontend.ui.component.gallery.htmltemplate.bluette.BluetteGalleryAdapter" style="stroke: #A80036; stroke-width: 1.5;" width="414" x="7" y="105"/><ellipse cx="22" cy="124.1328" fill="#ADD1B2" rx="11" ry="11" style="stroke: #A80036; stroke-width: 1.0;"/><path d="M24.4731,130.2759 Q23.8921,130.5747 23.2529,130.7241 Q22.6138,130.8735 21.9082,130.8735 Q19.4014,130.8735 18.0815,129.2217 Q16.7617,127.5698 16.7617,124.4487 Q16.7617,121.3193 18.0815,119.6675 Q19.4014,118.0156 21.9082,118.0156 Q22.6138,118.0156 23.2612,118.165 Q23.9087,118.3145 24.4731,118.6133 L24.4731,121.3359 Q23.8423,120.7549 23.2488,120.4851 Q22.6553,120.2153 22.0244,120.2153 Q20.6797,120.2153 19.9949,121.282 Q19.3101,122.3486 19.3101,124.4487 Q19.3101,126.5405 19.9949,127.6072 Q20.6797,128.6738 22.0244,128.6738 Q22.6553,128.6738 23.2488,128.4041 Q23.8423,128.1343 24.4731,127.5532 Z "/><text fill="#000000" font-family="sans-serif" font-size="14" lengthAdjust="spacingAndGlyphs" textLength="149" x="152.5" y="123.5352">BluetteGalleryAdapter</text><text fill="#000000" font-family="sans-serif" font-size="10" lengthAdjust="spacingAndGlyphs" textLength="382" x="36" y="136.1563">it.tidalwave.northernwind.frontend.ui.component.gallery.htmltemplate.bluette</text><line style="stroke: #A80036; stroke-width: 1.5;" x1="8" x2="420" y1="143.2656" y2="143.2656"/><ellipse cx="18" cy="154.2656" fill="#84BE84" rx="3" ry="3" style="stroke: #038048; stroke-width: 1.0;"/><text fill="#000000" font-family="sans-serif" font-size="11" lengthAdjust="spacingAndGlyphs" textLength="316" x="27" y="157.9004">BluetteGalleryAdapter(SiteNode, GalleryView, ModelFactory)</text><ellipse cx="18" cy="167.2207" fill="#84BE84" rx="3" ry="3" style="stroke: #038048; stroke-width: 1.0;"/><text fill="#000000" font-family="sans-serif" font-size="11" lengthAdjust="spacingAndGlyphs" textLength="130" x="27" y="170.8555">getInlinedScript(): String</text><ellipse cx="18" cy="180.1758" fill="#84BE84" rx="3" ry="3" style="stroke: #038048; stroke-width: 1.0;"/><text fill="#000000" font-family="sans-serif" font-size="11" lengthAdjust="spacingAndGlyphs" textLength="217" x="27" y="183.8105">prepareCatalog(List&lt;GalleryItem&gt;): void</text><ellipse cx="18" cy="193.1309" fill="#84BE84" rx="3" ry="3" style="stroke: #038048; stroke-width: 1.0;"/><text fill="#000000" font-family="sans-serif" font-size="11" lengthAdjust="spacingAndGlyphs" textLength="279" x="27" y="196.7656">prepareGallery(GalleryItem, List&lt;GalleryItem&gt;): void</text><ellipse cx="18" cy="206.0859" fill="#84BE84" rx="3" ry="3" style="stroke: #038048; stroke-width: 1.0;"/><text fill="#000000" font-family="sans-serif" font-size="11" lengthAdjust="spacingAndGlyphs" textLength="322" x="27" y="209.7207">prepareFallbackGallery(GalleryItem, List&lt;GalleryItem&gt;): void</text><ellipse cx="18" cy="219.041" fill="#84BE84" rx="3" ry="3" style="stroke: #038048; stroke-width: 1.0;"/><text fill="#000000" font-family="sans-serif" font-size="11" lengthAdjust="spacingAndGlyphs" textLength="267" x="27" y="222.6758">prepareFallbackLightbox(List&lt;GalleryItem&gt;): void</text><ellipse cx="18" cy="231.9961" fill="#84BE84" rx="3" ry="3" style="stroke: #038048; stroke-width: 1.0;"/><text fill="#000000" font-family="sans-serif" font-size="11" lengthAdjust="spacingAndGlyphs" textLength="154" x="27" y="235.6309">render(RenderContext): void</text></a><!--MD5=[395486fded579a007b3eff5898e337f9]
class it.tidalwave.northernwind.frontend.ui.component.gallery.spi.GalleryAdapterSupport--><a href="../../spi/GalleryAdapterSupport.html" target="_top" title="../../spi/GalleryAdapterSupport.html" xlink:actuate="onRequest" xlink:href="../../spi/GalleryAdapterSupport.html" xlink:show="new" xlink:title="../../spi/GalleryAdapterSupport.html" xlink:type="simple"><rect codeLine="15" fill="#FEFECE" filter="url(#ft3rcdftd0j4x)" height="38.2656" id="it.tidalwave.northernwind.frontend.ui.component.gallery.spi.GalleryAdapterSupport" style="stroke: #A80036; stroke-width: 1.5;" width="324" x="52" y="7"/><ellipse cx="67" cy="26.1328" fill="#A9DCDF" rx="11" ry="11" style="stroke: #A80036; stroke-width: 1.0;"/><path d="M66.8633,21.481 L65.7095,26.5527 L68.0254,26.5527 Z M65.3691,19.2397 L68.3657,19.2397 L71.7109,31.6328 L69.2622,31.6328 L68.4985,28.5698 L65.2197,28.5698 L64.4727,31.6328 L62.0239,31.6328 Z "/><text fill="#000000" font-family="sans-serif" font-size="14" font-style="italic" lengthAdjust="spacingAndGlyphs" textLength="157" x="148.5" y="25.5352">GalleryAdapterSupport</text><text fill="#000000" font-family="sans-serif" font-size="10" font-style="italic" lengthAdjust="spacingAndGlyphs" textLength="292" x="81" y="38.1563">it.tidalwave.northernwind.frontend.ui.component.gallery.spi</text></a><!--MD5=[8f8f875f157eddd04c083aa317340828]
reverse link it.tidalwave.northernwind.frontend.ui.component.gallery.spi.GalleryAdapterSupport to it.tidalwave.northernwind.frontend.ui.component.gallery.htmltemplate.bluette.BluetteGalleryAdapter--><path codeLine="17" d="M214,65.5397 C214,77.635 214,91.3073 214,104.7566 " fill="none" id="it.tidalwave.northernwind.frontend.ui.component.gallery.spi.GalleryAdapterSupport-backto-it.tidalwave.northernwind.frontend.ui.component.gallery.htmltemplate.bluette.BluetteGalleryAdapter" style="stroke: #A80036; stroke-width: 1.0;"/><polygon fill="none" points="207.0001,65.2831,214,45.283,221.0001,65.283,207.0001,65.2831" style="stroke: #A80036; stroke-width: 1.0;"/><text fill="#888888" font-family="sans-serif" font-size="10" lengthAdjust="spacingAndGlyphs" textLength="188" x="117" y="264.6191">UMLDoclet 2.0.12, PlantUML 1.2020.16</text><!--MD5=[93e15cd89dcb55e2726a64c5b154e112]
@startuml
    set namespaceSeparator none
    hide empty fields
    hide empty methods

    class "<size:14>BluetteGalleryAdapter\n<size:10>it.tidalwave.northernwind.frontend.ui.component.gallery.htmltemplate.bluette" as it.tidalwave.northernwind.frontend.ui.component.gallery.htmltemplate.bluette.BluetteGalleryAdapter [[BluetteGalleryAdapter.html]] {
        +BluetteGalleryAdapter(SiteNode, GalleryView, ModelFactory)
        +getInlinedScript(): String
        +prepareCatalog(List<GalleryItem>): void
        +prepareGallery(GalleryItem, List<GalleryItem>): void
        +prepareFallbackGallery(GalleryItem, List<GalleryItem>): void
        +prepareFallbackLightbox(List<GalleryItem>): void
        +render(RenderContext): void
    }

    abstract class "<size:14>GalleryAdapterSupport\n<size:10>it.tidalwave.northernwind.frontend.ui.component.gallery.spi" as it.tidalwave.northernwind.frontend.ui.component.gallery.spi.GalleryAdapterSupport [[../../spi/GalleryAdapterSupport.html]]

    it.tidalwave.northernwind.frontend.ui.component.gallery.spi.GalleryAdapterSupport <|- - it.tidalwave.northernwind.frontend.ui.component.gallery.htmltemplate.bluette.BluetteGalleryAdapter

    center footer UMLDoclet 2.0.12, PlantUML 1.2020.16
@enduml

PlantUML version 1.2020.16(Sun Aug 23 22:20:43 CEST 2020)
(APACHE source distribution)
Java Runtime: OpenJDK Runtime Environment
JVM: OpenJDK 64-Bit Server VM
Default Encoding: UTF-8
Language: en
Country: GB
--></g></svg>