@startuml
    set namespaceSeparator none
    hide empty fields
    hide empty methods

    interface "<size:14>CalendarViewController\n<size:10>it.tidalwave.northernwind.frontend.ui.component.calendar" as it.tidalwave.northernwind.frontend.ui.component.calendar.CalendarViewController [[CalendarViewController.html]] {
        {static} +P_ENTRIES: Key<String>
        {static} +P_SELECTED_YEAR: Key<Integer>
        {static} +P_FIRST_YEAR: Key<Integer>
        {static} +P_LAST_YEAR: Key<Integer>
        {static} +P_COLUMNS: Key<Integer>
    }

    interface "<size:14>ViewController\n<size:10>it.tidalwave.northernwind.frontend.ui" as it.tidalwave.northernwind.frontend.ui.ViewController [[http://tidalwave.it/projects/northernwind/it-tidalwave-northernwind-modules/it-tidalwave-northernwind-core/apidocs/it/tidalwave/northernwind/frontend/ui/ViewController.html?is-external=true]]

    it.tidalwave.northernwind.frontend.ui.ViewController <|-- it.tidalwave.northernwind.frontend.ui.component.calendar.CalendarViewController

    center footer UMLDoclet 2.0.12, PlantUML 1.2020.16
@enduml
