<?xml version="1.0" encoding="UTF-8" standalone="no"?><svg xmlns="http://www.w3.org/2000/svg" xmlns:xlink="http://www.w3.org/1999/xlink" contentScriptType="application/ecmascript" contentStyleType="text/css" height="689px" preserveAspectRatio="none" style="width:588px;height:689px;" version="1.1" viewBox="0 0 588 689" width="588px" zoomAndPan="magnify"><defs><filter height="300%" id="f1gboc0n7termt" width="300%" x="-1" y="-1"><feGaussianBlur result="blurOut" stdDeviation="2.0"/><feColorMatrix in="blurOut" result="blurOut2" type="matrix" values="0 0 0 0 0 0 0 0 0 0 0 0 0 0 0 0 0 0 .4 0"/><feOffset dx="4.0" dy="4.0" in="blurOut2" result="blurOut3"/><feBlend in="SourceGraphic" in2="blurOut3" mode="normal"/></filter></defs><g><!--MD5=[23c27d91ee6c10a5c621d455a1c60ca4]
cluster it.tidalwave.northernwind.frontend.ui.component.calendar--><polygon fill="#FFFFFF" filter="url(#f1gboc0n7termt)" points="16,166,433,166,440,188.4883,498,188.4883,498,660,16,660,16,166" style="stroke: #000000; stroke-width: 1.5;"/><line style="stroke: #000000; stroke-width: 1.5;" x1="16" x2="440" y1="188.4883" y2="188.4883"/><text fill="#000000" font-family="sans-serif" font-size="14" font-weight="bold" lengthAdjust="spacingAndGlyphs" textLength="411" x="20" y="181.5352">it.tidalwave.northernwind.frontend.ui.component.calendar</text><!--MD5=[90c2144f63705a3044483f7c3d43505d]
cluster it.tidalwave.northernwind.frontend.ui--><polygon fill="#FFFFFF" filter="url(#f1gboc0n7termt)" points="45,6,316,6,323,28.4883,326,28.4883,326,141,45,141,45,6" style="stroke: #000000; stroke-width: 1.5;"/><line style="stroke: #000000; stroke-width: 1.5;" x1="45" x2="323" y1="28.4883" y2="28.4883"/><text fill="#000000" font-family="sans-serif" font-size="14" font-weight="bold" lengthAdjust="spacingAndGlyphs" textLength="265" x="49" y="21.5352">it.tidalwave.northernwind.frontend.ui</text><!--MD5=[a7ca9ec2a63815c8336b48c8b310b176]
cluster it.tidalwave.role--><polygon fill="#FFFFFF" filter="url(#f1gboc0n7termt)" points="340,12.5,460,12.5,467,34.9883,566,34.9883,566,134.5,340,134.5,340,12.5" style="stroke: #000000; stroke-width: 1.5;"/><line style="stroke: #000000; stroke-width: 1.5;" x1="340" x2="467" y1="34.9883" y2="34.9883"/><text fill="#000000" font-family="sans-serif" font-size="14" font-weight="bold" lengthAdjust="spacingAndGlyphs" textLength="114" x="344" y="28.0352">it.tidalwave.role</text><!--MD5=[fe1a0f5d18fb7bb3635a1805324d2e7f]
class it.tidalwave.northernwind.frontend.ui.component.calendar.CalendarViewController--><a href="CalendarViewController.html" target="_top" title="CalendarViewController.html" xlink:actuate="onRequest" xlink:href="CalendarViewController.html" xlink:show="new" xlink:title="CalendarViewController.html" xlink:type="simple"><rect codeLine="3" fill="#FEFECE" filter="url(#f1gboc0n7termt)" height="112.7754" id="it.tidalwave.northernwind.frontend.ui.component.calendar.CalendarViewController" style="stroke: #A80036; stroke-width: 1.5;" width="206" x="103" y="193"/><ellipse cx="135.55" cy="209" fill="#B4A7E5" rx="11" ry="11" style="stroke: #A80036; stroke-width: 1.0;"/><path d="M131.9777,205.2651 L131.9777,203.1069 L139.3571,203.1069 L139.3571,205.2651 L136.8918,205.2651 L136.8918,213.3418 L139.3571,213.3418 L139.3571,215.5 L131.9777,215.5 L131.9777,213.3418 L134.4431,213.3418 L134.4431,205.2651 Z "/><text fill="#000000" font-family="sans-serif" font-size="12" font-style="italic" lengthAdjust="spacingAndGlyphs" textLength="135" x="153.45" y="213.5352">CalendarViewController</text><line style="stroke: #A80036; stroke-width: 1.5;" x1="104" x2="308" y1="225" y2="225"/><ellipse cx="114" cy="236" fill="none" rx="3" ry="3" style="stroke: #038048; stroke-width: 1.0;"/><text fill="#000000" font-family="sans-serif" font-size="11" lengthAdjust="spacingAndGlyphs" text-decoration="underline" textLength="130" x="123" y="239.6348">P_ENTRIES: Key&lt;String&gt;</text><ellipse cx="114" cy="248.9551" fill="none" rx="3" ry="3" style="stroke: #038048; stroke-width: 1.0;"/><text fill="#000000" font-family="sans-serif" font-size="11" lengthAdjust="spacingAndGlyphs" text-decoration="underline" textLength="180" x="123" y="252.5898">P_SELECTED_YEAR: Key&lt;Integer&gt;</text><ellipse cx="114" cy="261.9102" fill="none" rx="3" ry="3" style="stroke: #038048; stroke-width: 1.0;"/><text fill="#000000" font-family="sans-serif" font-size="11" lengthAdjust="spacingAndGlyphs" text-decoration="underline" textLength="156" x="123" y="265.5449">P_FIRST_YEAR: Key&lt;Integer&gt;</text><ellipse cx="114" cy="274.8652" fill="none" rx="3" ry="3" style="stroke: #038048; stroke-width: 1.0;"/><text fill="#000000" font-family="sans-serif" font-size="11" lengthAdjust="spacingAndGlyphs" text-decoration="underline" textLength="154" x="123" y="278.5">P_LAST_YEAR: Key&lt;Integer&gt;</text><ellipse cx="114" cy="287.8203" fill="none" rx="3" ry="3" style="stroke: #038048; stroke-width: 1.0;"/><text fill="#000000" font-family="sans-serif" font-size="11" lengthAdjust="spacingAndGlyphs" text-decoration="underline" textLength="147" x="123" y="291.4551">P_COLUMNS: Key&lt;Integer&gt;</text><line style="stroke: #A80036; stroke-width: 1.5;" x1="104" x2="308" y1="297.7754" y2="297.7754"/></a><!--MD5=[8f03c15f8bdc17448621063bf633b6ab]
class it.tidalwave.northernwind.frontend.ui.component.calendar.CalendarView--><a href="CalendarView.html" target="_top" title="CalendarView.html" xlink:actuate="onRequest" xlink:href="CalendarView.html" xlink:show="new" xlink:title="CalendarView.html" xlink:type="simple"><rect codeLine="11" fill="#FEFECE" filter="url(#f1gboc0n7termt)" height="48" id="it.tidalwave.northernwind.frontend.ui.component.calendar.CalendarView" style="stroke: #A80036; stroke-width: 1.5;" width="111" x="379.5" y="225.5"/><ellipse cx="394.5" cy="241.5" fill="#B4A7E5" rx="11" ry="11" style="stroke: #A80036; stroke-width: 1.0;"/><path d="M390.9277,237.7651 L390.9277,235.6069 L398.3071,235.6069 L398.3071,237.7651 L395.8418,237.7651 L395.8418,245.8418 L398.3071,245.8418 L398.3071,248 L390.9277,248 L390.9277,245.8418 L393.3931,245.8418 L393.3931,237.7651 Z "/><text fill="#000000" font-family="sans-serif" font-size="12" font-style="italic" lengthAdjust="spacingAndGlyphs" textLength="79" x="408.5" y="246.0352">CalendarView</text><line style="stroke: #A80036; stroke-width: 1.5;" x1="380.5" x2="489.5" y1="257.5" y2="257.5"/><line style="stroke: #A80036; stroke-width: 1.5;" x1="380.5" x2="489.5" y1="265.5" y2="265.5"/></a><!--MD5=[0c7a6892c60e147b9c0ef3d2272b2f16]
class it.tidalwave.northernwind.frontend.ui.component.calendar.DefaultCalendarViewController--><a href="DefaultCalendarViewController.html" target="_top" title="DefaultCalendarViewController.html" xlink:actuate="onRequest" xlink:href="DefaultCalendarViewController.html" xlink:show="new" xlink:title="DefaultCalendarViewController.html" xlink:type="simple"><rect codeLine="13" fill="#FEFECE" filter="url(#f1gboc0n7termt)" height="125.7305" id="it.tidalwave.northernwind.frontend.ui.component.calendar.DefaultCalendarViewController" style="stroke: #A80036; stroke-width: 1.5;" width="465" x="24.5" y="366"/><ellipse cx="164.75" cy="382" fill="#A9DCDF" rx="11" ry="11" style="stroke: #A80036; stroke-width: 1.0;"/><path d="M164.6133,377.3481 L163.4595,382.4199 L165.7754,382.4199 Z M163.1191,375.1069 L166.1157,375.1069 L169.4609,387.5 L167.0122,387.5 L166.2485,384.437 L162.9697,384.437 L162.2227,387.5 L159.7739,387.5 Z "/><text fill="#000000" font-family="sans-serif" font-size="12" font-style="italic" lengthAdjust="spacingAndGlyphs" textLength="176" x="185.25" y="386.5352">DefaultCalendarViewController</text><line style="stroke: #A80036; stroke-width: 1.5;" x1="25.5" x2="488.5" y1="398" y2="398"/><polygon fill="none" points="35.5,404,39.5,408,35.5,412,31.5,408" style="stroke: #B38D22; stroke-width: 1.0;"/><text fill="#000000" font-family="sans-serif" font-size="11" lengthAdjust="spacingAndGlyphs" textLength="250" x="44.5" y="412.6348">requestLocaleManager: RequestLocaleManager</text><line style="stroke: #A80036; stroke-width: 1.5;" x1="25.5" x2="488.5" y1="418.9551" y2="418.9551"/><ellipse cx="35.5" cy="429.9551" fill="#84BE84" rx="3" ry="3" style="stroke: #038048; stroke-width: 1.0;"/><text fill="#000000" font-family="sans-serif" font-size="11" lengthAdjust="spacingAndGlyphs" textLength="215" x="44.5" y="433.5898">prepareRendering(RenderContext): void</text><ellipse cx="35.5" cy="442.9102" fill="#84BE84" rx="3" ry="3" style="stroke: #038048; stroke-width: 1.0;"/><text fill="#000000" font-family="sans-serif" font-size="11" lengthAdjust="spacingAndGlyphs" textLength="178" x="44.5" y="446.5449">renderView(RenderContext): void</text><polygon fill="#FFFF44" points="35.5,450.8652,39.5,454.8652,35.5,458.8652,31.5,454.8652" style="stroke: #B38D22; stroke-width: 1.0;"/><text fill="#000000" font-family="sans-serif" font-size="11" font-style="italic" lengthAdjust="spacingAndGlyphs" textLength="439" x="44.5" y="459.5">render(Optional&lt;String&gt;, int, int, int, SortedMap&lt;Integer, List&lt;Entry&gt;&gt;, int): void</text><polygon fill="#FFFF44" points="35.5,463.8203,39.5,467.8203,35.5,471.8203,31.5,467.8203" style="stroke: #B38D22; stroke-width: 1.0;"/><text fill="#000000" font-family="sans-serif" font-size="11" lengthAdjust="spacingAndGlyphs" textLength="215" x="44.5" y="472.4551">getViewProperties(): ResourceProperties</text><polygon fill="#FFFF44" points="35.5,476.7754,39.5,480.7754,35.5,484.7754,31.5,480.7754" style="stroke: #B38D22; stroke-width: 1.0;"/><text fill="#000000" font-family="sans-serif" font-size="11" lengthAdjust="spacingAndGlyphs" textLength="139" x="44.5" y="485.4102">createYearLink(int): String</text></a><!--MD5=[8fc61ba4b0907f3f41f106b30f2cb0da]
class it.tidalwave.northernwind.frontend.ui.component.calendar.DefaultCalendarViewController.Entry--><a href="DefaultCalendarViewController.Entry.html" target="_top" title="DefaultCalendarViewController.Entry.html" xlink:actuate="onRequest" xlink:href="DefaultCalendarViewController.Entry.html" xlink:show="new" xlink:title="DefaultCalendarViewController.Entry.html" xlink:type="simple"><rect codeLine="22" fill="#FEFECE" filter="url(#f1gboc0n7termt)" height="99.8203" id="it.tidalwave.northernwind.frontend.ui.component.calendar.DefaultCalendarViewController.Entry" style="stroke: #A80036; stroke-width: 1.5;" width="241" x="136.5" y="552"/><ellipse cx="151.5" cy="568" fill="#ADD1B2" rx="11" ry="11" style="stroke: #A80036; stroke-width: 1.0;"/><path d="M153.9731,574.1431 Q153.3921,574.4419 152.7529,574.5913 Q152.1138,574.7407 151.4082,574.7407 Q148.9014,574.7407 147.5815,573.0889 Q146.2617,571.437 146.2617,568.3159 Q146.2617,565.1865 147.5815,563.5347 Q148.9014,561.8828 151.4082,561.8828 Q152.1138,561.8828 152.7612,562.0322 Q153.4087,562.1816 153.9731,562.4805 L153.9731,565.2031 Q153.3423,564.6221 152.7488,564.3523 Q152.1553,564.0825 151.5244,564.0825 Q150.1797,564.0825 149.4949,565.1492 Q148.8101,566.2158 148.8101,568.3159 Q148.8101,570.4077 149.4949,571.4744 Q150.1797,572.541 151.5244,572.541 Q152.1553,572.541 152.7488,572.2712 Q153.3423,572.0015 153.9731,571.4204 Z "/><text fill="#000000" font-family="sans-serif" font-size="12" lengthAdjust="spacingAndGlyphs" textLength="209" x="165.5" y="572.5352">DefaultCalendarViewController.Entry</text><line style="stroke: #A80036; stroke-width: 1.5;" x1="137.5" x2="376.5" y1="584" y2="584"/><ellipse cx="147.5" cy="595" fill="none" rx="3" ry="3" style="stroke: #038048; stroke-width: 1.0;"/><text fill="#000000" font-family="sans-serif" font-size="11" lengthAdjust="spacingAndGlyphs" textLength="55" x="156.5" y="598.6348">month: int</text><ellipse cx="147.5" cy="607.9551" fill="none" rx="3" ry="3" style="stroke: #038048; stroke-width: 1.0;"/><text fill="#000000" font-family="sans-serif" font-size="11" lengthAdjust="spacingAndGlyphs" textLength="67" x="156.5" y="611.5898">name: String</text><ellipse cx="147.5" cy="620.9102" fill="none" rx="3" ry="3" style="stroke: #038048; stroke-width: 1.0;"/><text fill="#000000" font-family="sans-serif" font-size="11" lengthAdjust="spacingAndGlyphs" textLength="57" x="156.5" y="624.5449">link: String</text><ellipse cx="147.5" cy="633.8652" fill="none" rx="3" ry="3" style="stroke: #038048; stroke-width: 1.0;"/><text fill="#000000" font-family="sans-serif" font-size="11" lengthAdjust="spacingAndGlyphs" textLength="125" x="156.5" y="637.5">type: Optional&lt;String&gt;</text><line style="stroke: #A80036; stroke-width: 1.5;" x1="137.5" x2="376.5" y1="643.8203" y2="643.8203"/></a><!--MD5=[fd49f22f3a54ad6da4c032e73965af1a]
class it.tidalwave.northernwind.frontend.ui.ViewController--><a href="http://tidalwave.it/projects/northernwind/it-tidalwave-northernwind-modules/it-tidalwave-northernwind-core/apidocs/it/tidalwave/northernwind/frontend/ui/ViewController.html?is-external=true" target="_top" title="http://tidalwave.it/projects/northernwind/it-tidalwave-northernwind-modules/it-tidalwave-northernwind-core/apidocs/it/tidalwave/northernwind/frontend/ui/ViewController.html?is-external=true" xlink:actuate="onRequest" xlink:href="http://tidalwave.it/projects/northernwind/it-tidalwave-northernwind-modules/it-tidalwave-northernwind-core/apidocs/it/tidalwave/northernwind/frontend/ui/ViewController.html?is-external=true" xlink:show="new" xlink:title="http://tidalwave.it/projects/northernwind/it-tidalwave-northernwind-modules/it-tidalwave-northernwind-core/apidocs/it/tidalwave/northernwind/frontend/ui/ViewController.html?is-external=true" xlink:type="simple"><rect codeLine="36" fill="#FEFECE" filter="url(#f1gboc0n7termt)" height="99.8203" id="it.tidalwave.northernwind.frontend.ui.ViewController" style="stroke: #A80036; stroke-width: 1.5;" width="248" x="65" y="33"/><ellipse cx="143.25" cy="49" fill="#B4A7E5" rx="11" ry="11" style="stroke: #A80036; stroke-width: 1.0;"/><path d="M139.6777,45.2651 L139.6777,43.1069 L147.0571,43.1069 L147.0571,45.2651 L144.5918,45.2651 L144.5918,53.3418 L147.0571,53.3418 L147.0571,55.5 L139.6777,55.5 L139.6777,53.3418 L142.1431,53.3418 L142.1431,45.2651 Z "/><text fill="#000000" font-family="sans-serif" font-size="12" font-style="italic" lengthAdjust="spacingAndGlyphs" textLength="83" x="163.75" y="53.5352">ViewController</text><line style="stroke: #A80036; stroke-width: 1.5;" x1="66" x2="312" y1="65" y2="65"/><line style="stroke: #A80036; stroke-width: 1.5;" x1="66" x2="312" y1="73" y2="73"/><ellipse cx="76" cy="84" fill="#84BE84" rx="3" ry="3" style="stroke: #038048; stroke-width: 1.0;"/><text fill="#000000" font-family="sans-serif" font-size="11" lengthAdjust="spacingAndGlyphs" textLength="81" x="85" y="87.6348">initialize(): void</text><ellipse cx="76" cy="96.9551" fill="#84BE84" rx="3" ry="3" style="stroke: #038048; stroke-width: 1.0;"/><text fill="#000000" font-family="sans-serif" font-size="11" lengthAdjust="spacingAndGlyphs" textLength="215" x="85" y="100.5898">prepareRendering(RenderContext): void</text><ellipse cx="76" cy="109.9102" fill="#84BE84" rx="3" ry="3" style="stroke: #038048; stroke-width: 1.0;"/><text fill="#000000" font-family="sans-serif" font-size="11" lengthAdjust="spacingAndGlyphs" textLength="178" x="85" y="113.5449">renderView(RenderContext): void</text><ellipse cx="76" cy="122.8652" fill="#84BE84" rx="3" ry="3" style="stroke: #038048; stroke-width: 1.0;"/><text fill="#000000" font-family="sans-serif" font-size="11" lengthAdjust="spacingAndGlyphs" textLength="222" x="85" y="126.5">findVirtualSiteNodes(): Finder&lt;SiteNode&gt;</text></a><!--MD5=[f40774d2c0efa8b70d7c747ac61cb911]
class it.tidalwave.role.Identifiable--><rect codeLine="45" fill="#FEFECE" filter="url(#f1gboc0n7termt)" height="86.8652" id="it.tidalwave.role.Identifiable" style="stroke: #A80036; stroke-width: 1.5;" width="209" x="348.5" y="39.5"/><ellipse cx="416.75" cy="55.5" fill="#B4A7E5" rx="11" ry="11" style="stroke: #A80036; stroke-width: 1.0;"/><path d="M413.1777,51.7651 L413.1777,49.6069 L420.5571,49.6069 L420.5571,51.7651 L418.0918,51.7651 L418.0918,59.8418 L420.5571,59.8418 L420.5571,62 L413.1777,62 L413.1777,59.8418 L415.6431,59.8418 L415.6431,51.7651 Z "/><text fill="#000000" font-family="sans-serif" font-size="12" font-style="italic" lengthAdjust="spacingAndGlyphs" textLength="64" x="437.25" y="60.0352">Identifiable</text><line style="stroke: #A80036; stroke-width: 1.5;" x1="349.5" x2="556.5" y1="71.5" y2="71.5"/><ellipse cx="359.5" cy="82.5" fill="none" rx="3" ry="3" style="stroke: #038048; stroke-width: 1.0;"/><text fill="#000000" font-family="sans-serif" font-size="11" lengthAdjust="spacingAndGlyphs" text-decoration="underline" textLength="183" x="368.5" y="86.1348">_Identifiable_: Class&lt;Identifiable&gt;</text><line style="stroke: #A80036; stroke-width: 1.5;" x1="349.5" x2="556.5" y1="92.4551" y2="92.4551"/><ellipse cx="359.5" cy="103.4551" fill="#84BE84" rx="3" ry="3" style="stroke: #038048; stroke-width: 1.0;"/><text fill="#000000" font-family="sans-serif" font-size="11" font-style="italic" lengthAdjust="spacingAndGlyphs" textLength="51" x="368.5" y="107.0898">getId(): Id</text><ellipse cx="359.5" cy="116.4102" fill="#84BE84" rx="3" ry="3" style="stroke: #038048; stroke-width: 1.0;"/><text fill="#000000" font-family="sans-serif" font-size="11" lengthAdjust="spacingAndGlyphs" text-decoration="underline" textLength="94" x="368.5" y="120.0449">of(Id): Identifiable</text><!--MD5=[79765df11b38bc4b1f0188daf08dc5be]
reverse link it.tidalwave.northernwind.frontend.ui.ViewController to it.tidalwave.northernwind.frontend.ui.component.calendar.CalendarViewController--><path codeLine="29" d="M196.1981,153.4987 C197.5393,166.6348 198.9248,180.2049 200.2168,192.8584 " fill="none" id="it.tidalwave.northernwind.frontend.ui.ViewController-backto-it.tidalwave.northernwind.frontend.ui.component.calendar.CalendarViewController" style="stroke: #A80036; stroke-width: 1.0;"/><polygon fill="none" points="189.2145,154.0149,194.1467,133.4073,203.1421,152.5928,189.2145,154.0149" style="stroke: #A80036; stroke-width: 1.0;"/><!--MD5=[d4e0cede341d791da47bb592e33d3188]
reverse link it.tidalwave.role.Identifiable to it.tidalwave.northernwind.frontend.ui.component.calendar.CalendarView--><path codeLine="30" d="M446.0936,146.8844 C443.1353,174.2486 439.8575,204.5681 437.6372,225.1056 " fill="none" id="it.tidalwave.role.Identifiable-backto-it.tidalwave.northernwind.frontend.ui.component.calendar.CalendarView" style="stroke: #A80036; stroke-width: 1.0;"/><polygon fill="none" points="439.1615,145.8777,448.2707,126.7459,453.0804,147.3825,439.1615,145.8777" style="stroke: #A80036; stroke-width: 1.0;"/><!--MD5=[31a173abf64d0171b5eba00149724e04]
reverse link it.tidalwave.northernwind.frontend.ui.component.calendar.CalendarViewController to it.tidalwave.northernwind.frontend.ui.component.calendar.DefaultCalendarViewController--><path codeLine="31" d="M227.7222,325.9536 C231.4883,339.2088 235.3668,352.8597 239.0193,365.715 " fill="none" id="it.tidalwave.northernwind.frontend.ui.component.calendar.CalendarViewController-backto-it.tidalwave.northernwind.frontend.ui.component.calendar.DefaultCalendarViewController" style="stroke: #A80036; stroke-width: 1.0; stroke-dasharray: 7.0,7.0;"/><polygon fill="none" points="220.8694,327.4466,222.1367,306.2949,234.3364,323.6203,220.8694,327.4466" style="stroke: #A80036; stroke-width: 1.0;"/><!--MD5=[011be2459a5039e32e58578049d99997]
reverse link it.tidalwave.northernwind.frontend.ui.component.calendar.DefaultCalendarViewController to it.tidalwave.northernwind.frontend.ui.component.calendar.DefaultCalendarViewController.Entry--><path codeLine="32" d="M257,507.8405 C257,522.8019 257,538.0714 257,551.8396 " fill="none" id="it.tidalwave.northernwind.frontend.ui.component.calendar.DefaultCalendarViewController-backto-it.tidalwave.northernwind.frontend.ui.component.calendar.DefaultCalendarViewController.Entry" style="stroke: #A80036; stroke-width: 1.0;"/><ellipse cx="257.0001" cy="500.4365" fill="#FFFFFF" rx="8" ry="8" style="stroke: #A80036; stroke-width: 1.0;"/><line style="stroke: #A80036; stroke-width: 1.0;" x1="257.0002" x2="257" y1="508.4365" y2="492.4365"/><line style="stroke: #A80036; stroke-width: 1.0;" x1="249.0001" x2="265.0001" y1="500.4366" y2="500.4364"/><text fill="#888888" font-family="sans-serif" font-size="10" lengthAdjust="spacingAndGlyphs" textLength="188" x="191" y="675.668">UMLDoclet 2.0.12, PlantUML 1.2020.16</text><!--MD5=[4b72f56e322eeaf80040db903746d098]
@startuml
    namespace it.tidalwave.northernwind.frontend.ui.component.calendar {

        interface CalendarViewController [[CalendarViewController.html]] {
            {static} +P_ENTRIES: Key<String>
            {static} +P_SELECTED_YEAR: Key<Integer>
            {static} +P_FIRST_YEAR: Key<Integer>
            {static} +P_LAST_YEAR: Key<Integer>
            {static} +P_COLUMNS: Key<Integer>
        }

        interface CalendarView [[CalendarView.html]]

        abstract class DefaultCalendarViewController [[DefaultCalendarViewController.html]] {
            #requestLocaleManager: RequestLocaleManager
            +prepareRendering(RenderContext): void
            +renderView(RenderContext): void
            {abstract} #render(Optional<String>, int, int, int, SortedMap<Integer, List<Entry>>, int): void
            #getViewProperties(): ResourceProperties
            #createYearLink(int): String
        }

        class it.tidalwave.northernwind.frontend.ui.component.calendar.DefaultCalendarViewController.Entry [[DefaultCalendarViewController.Entry.html]] {
            +month: int
            +name: String
            +link: String
            +type: Optional<String>
        }

        it.tidalwave.northernwind.frontend.ui.ViewController <|- - CalendarViewController
        it.tidalwave.role.Identifiable <|- - CalendarView
        CalendarViewController <|.. DefaultCalendarViewController
        DefaultCalendarViewController +- - it.tidalwave.northernwind.frontend.ui.component.calendar.DefaultCalendarViewController.Entry
    }

    namespace it.tidalwave.northernwind.frontend.ui {
        interface ViewController [[http://tidalwave.it/projects/northernwind/it-tidalwave-northernwind-modules/it-tidalwave-northernwind-core/apidocs/it/tidalwave/northernwind/frontend/ui/ViewController.html?is-external=true]] {
            +initialize(): void
            +prepareRendering(RenderContext): void
            +renderView(RenderContext): void
            +findVirtualSiteNodes(): Finder<SiteNode>
        }
    }

    namespace it.tidalwave.role {
        interface Identifiable {
            {static} +_Identifiable_: Class<Identifiable>
            {abstract} +getId(): Id
            {static} +of(Id): Identifiable
        }
    }

    center footer UMLDoclet 2.0.12, PlantUML 1.2020.16
@enduml

PlantUML version 1.2020.16(Sun Aug 23 22:20:43 CEST 2020)
(APACHE source distribution)
Java Runtime: OpenJDK Runtime Environment
JVM: OpenJDK 64-Bit Server VM
Default Encoding: UTF-8
Language: en
Country: GB
--></g></svg>