@startuml
    set namespaceSeparator none
    hide circle
    hide empty fields
    hide empty methods

    it.tidalwave.thesefoolishthings.examples.person --> it.tidalwave.util
    it.tidalwave.thesefoolishthings.examples.person --> it.tidalwave.role.io
    it.tidalwave.thesefoolishthings.examples.person --> it.tidalwave.thesefoolishthings.examples.dci.marshal.xstream
    it.tidalwave.thesefoolishthings.examples.dci.marshal.xstream --> it.tidalwave.role
    it.tidalwave.thesefoolishthings.examples.dci.marshal.xstream --> com.thoughtworks.xstream
    it.tidalwave.thesefoolishthings.examples.dci.marshal.xstream --> com.thoughtworks.xstream.converters

    ' Package links
    class "it.tidalwave.thesefoolishthings.examples.person" [[it/tidalwave/thesefoolishthings/examples/person/package-summary.html]] {
    }
    class "it.tidalwave.util" [[http://tidalwave.it/projects/thesefoolishthings/modules/it-tidalwave-util/apidocs/it/tidalwave/util/package-summary.html?is-external=true]] {
    }
    class "it.tidalwave.role.io" [[http://tidalwave.it/projects/thesefoolishthings/modules/it-tidalwave-role/apidocs/it/tidalwave/role/io/package-summary.html?is-external=true]] {
    }
    class "it.tidalwave.thesefoolishthings.examples.dci.marshal.xstream" [[it/tidalwave/thesefoolishthings/examples/dci/marshal/xstream/package-summary.html]] {
    }
    class "it.tidalwave.role" [[http://tidalwave.it/projects/thesefoolishthings/modules/it-tidalwave-role/apidocs/it/tidalwave/role/package-summary.html?is-external=true]] {
    }

    center footer UMLDoclet 2.0.12, PlantUML 1.2020.16
@enduml
