<?xml version="1.0" encoding="UTF-8" standalone="no"?><svg xmlns="http://www.w3.org/2000/svg" xmlns:xlink="http://www.w3.org/1999/xlink" contentScriptType="application/ecmascript" contentStyleType="text/css" height="200px" preserveAspectRatio="none" style="width:624px;height:200px;" version="1.1" viewBox="0 0 624 200" width="624px" zoomAndPan="magnify"><defs><filter height="300%" id="f1ldhfril10pjq" width="300%" x="-1" y="-1"><feGaussianBlur result="blurOut" stdDeviation="2.0"/><feColorMatrix in="blurOut" result="blurOut2" type="matrix" values="0 0 0 0 0 0 0 0 0 0 0 0 0 0 0 0 0 0 .4 0"/><feOffset dx="4.0" dy="4.0" in="blurOut2" result="blurOut3"/><feBlend in="SourceGraphic" in2="blurOut3" mode="normal"/></filter></defs><g><!--MD5=[8f20dfcbde3044fa81109f9ae0fed585]
class it.tidalwave.accounting.importer.ibiz.spi.IBizProjectImporter--><a href="IBizProjectImporter.html" target="_top" title="IBizProjectImporter.html" xlink:actuate="onRequest" xlink:href="IBizProjectImporter.html" xlink:show="new" xlink:title="IBizProjectImporter.html" xlink:type="simple"><rect codeLine="5" fill="#FEFECE" filter="url(#f1ldhfril10pjq)" height="59.2207" id="it.tidalwave.accounting.importer.ibiz.spi.IBizProjectImporter" style="stroke: #A80036; stroke-width: 1.5;" width="228" x="192.5" y="7"/><ellipse cx="207.5" cy="26.1328" fill="#B4A7E5" rx="11" ry="11" style="stroke: #A80036; stroke-width: 1.0;"/><path d="M203.9277,22.3979 L203.9277,20.2397 L211.3071,20.2397 L211.3071,22.3979 L208.8418,22.3979 L208.8418,30.4746 L211.3071,30.4746 L211.3071,32.6328 L203.9277,32.6328 L203.9277,30.4746 L206.3931,30.4746 L206.3931,22.3979 Z "/><text fill="#000000" font-family="sans-serif" font-size="14" font-style="italic" lengthAdjust="spacingAndGlyphs" textLength="131" x="254" y="25.5352">IBizProjectImporter</text><text fill="#000000" font-family="sans-serif" font-size="10" font-style="italic" lengthAdjust="spacingAndGlyphs" textLength="196" x="221.5" y="38.1563">it.tidalwave.accounting.importer.ibiz.spi</text><line style="stroke: #A80036; stroke-width: 1.5;" x1="193.5" x2="419.5" y1="45.2656" y2="45.2656"/><ellipse cx="203.5" cy="56.2656" fill="#84BE84" rx="3" ry="3" style="stroke: #038048; stroke-width: 1.0;"/><text fill="#000000" font-family="sans-serif" font-size="11" font-style="italic" lengthAdjust="spacingAndGlyphs" textLength="116" x="212.5" y="59.9004">importProjects(): void</text></a><!--MD5=[5e79c00a548c6c3d9922cd5899d4e1b3]
class it.tidalwave.accounting.importer.ibiz.spi.IBizProjectImporter.IBizJobEventType--><a href="IBizProjectImporter.IBizJobEventType.html" target="_top" title="IBizProjectImporter.IBizJobEventType.html" xlink:actuate="onRequest" xlink:href="IBizProjectImporter.IBizJobEventType.html" xlink:show="new" xlink:title="IBizProjectImporter.IBizJobEventType.html" xlink:type="simple"><rect codeLine="8" fill="#FEFECE" filter="url(#f1ldhfril10pjq)" height="38.2656" id="it.tidalwave.accounting.importer.ibiz.spi.IBizProjectImporter.IBizJobEventType" style="stroke: #A80036; stroke-width: 1.5;" width="283" x="7" y="126"/><ellipse cx="22" cy="145.1328" fill="#EB937F" rx="11" ry="11" style="stroke: #A80036; stroke-width: 1.0;"/><path d="M25.6143,151.6328 L17.8945,151.6328 L17.8945,139.2397 L25.6143,139.2397 L25.6143,141.3979 L20.3433,141.3979 L20.3433,144.0708 L25.1162,144.0708 L25.1162,146.229 L20.3433,146.229 L20.3433,149.4746 L25.6143,149.4746 Z "/><text fill="#000000" font-family="sans-serif" font-size="14" lengthAdjust="spacingAndGlyphs" textLength="251" x="36" y="144.5352">IBizProjectImporter.IBizJobEventType</text><text fill="#000000" font-family="sans-serif" font-size="10" lengthAdjust="spacingAndGlyphs" textLength="196" x="63.5" y="157.1563">it.tidalwave.accounting.importer.ibiz.spi</text></a><!--MD5=[de591b3c9fd15f2c875348f595bf5b5e]
class it.tidalwave.accounting.importer.ibiz.spi.IBizProjectImporter.IBizProjectStatus--><a href="IBizProjectImporter.IBizProjectStatus.html" target="_top" title="IBizProjectImporter.IBizProjectStatus.html" xlink:actuate="onRequest" xlink:href="IBizProjectImporter.IBizProjectStatus.html" xlink:show="new" xlink:title="IBizProjectImporter.IBizProjectStatus.html" xlink:type="simple"><rect codeLine="9" fill="#FEFECE" filter="url(#f1ldhfril10pjq)" height="38.2656" id="it.tidalwave.accounting.importer.ibiz.spi.IBizProjectImporter.IBizProjectStatus" style="stroke: #A80036; stroke-width: 1.5;" width="280" x="325.5" y="126"/><ellipse cx="340.5" cy="145.1328" fill="#EB937F" rx="11" ry="11" style="stroke: #A80036; stroke-width: 1.0;"/><path d="M344.1143,151.6328 L336.3945,151.6328 L336.3945,139.2397 L344.1143,139.2397 L344.1143,141.3979 L338.8433,141.3979 L338.8433,144.0708 L343.6162,144.0708 L343.6162,146.229 L338.8433,146.229 L338.8433,149.4746 L344.1143,149.4746 Z "/><text fill="#000000" font-family="sans-serif" font-size="14" lengthAdjust="spacingAndGlyphs" textLength="248" x="354.5" y="144.5352">IBizProjectImporter.IBizProjectStatus</text><text fill="#000000" font-family="sans-serif" font-size="10" lengthAdjust="spacingAndGlyphs" textLength="196" x="380.5" y="157.1563">it.tidalwave.accounting.importer.ibiz.spi</text></a><!--MD5=[1692187e8e9897fb7415645461e427f0]
reverse link it.tidalwave.accounting.importer.ibiz.spi.IBizProjectImporter to it.tidalwave.accounting.importer.ibiz.spi.IBizProjectImporter.IBizJobEventType--><path codeLine="11" d="M250.8689,74.7024 C225.5876,92.0633 196.7975,111.8337 176.2023,125.9766 " fill="none" id="it.tidalwave.accounting.importer.ibiz.spi.IBizProjectImporter-backto-it.tidalwave.accounting.importer.ibiz.spi.IBizProjectImporter.IBizJobEventType" style="stroke: #A80036; stroke-width: 1.0;"/><ellipse cx="256.731" cy="70.6768" fill="#FFFFFF" rx="8" ry="8" style="stroke: #A80036; stroke-width: 1.0;"/><line style="stroke: #A80036; stroke-width: 1.0;" x1="250.1363" x2="263.3258" y1="75.2055" y2="66.1481"/><line style="stroke: #A80036; stroke-width: 1.0;" x1="252.2023" x2="261.2598" y1="64.0821" y2="77.2716"/><!--MD5=[4ac6bf5d640f5ba5b2cdf3da09303e5c]
reverse link it.tidalwave.accounting.importer.ibiz.spi.IBizProjectImporter to it.tidalwave.accounting.importer.ibiz.spi.IBizProjectImporter.IBizProjectStatus--><path codeLine="12" d="M362.4832,74.7024 C387.9245,92.0633 416.8968,111.8337 437.6224,125.9766 " fill="none" id="it.tidalwave.accounting.importer.ibiz.spi.IBizProjectImporter-backto-it.tidalwave.accounting.importer.ibiz.spi.IBizProjectImporter.IBizProjectStatus" style="stroke: #A80036; stroke-width: 1.0;"/><ellipse cx="356.5555" cy="70.6574" fill="#FFFFFF" rx="8" ry="8" style="stroke: #A80036; stroke-width: 1.0;"/><line style="stroke: #A80036; stroke-width: 1.0;" x1="363.1635" x2="349.9474" y1="75.1666" y2="66.1481"/><line style="stroke: #A80036; stroke-width: 1.0;" x1="352.0462" x2="361.0647" y1="77.2654" y2="64.0493"/><text fill="#888888" font-family="sans-serif" font-size="10" lengthAdjust="spacingAndGlyphs" textLength="188" x="209.25" y="186.9336">UMLDoclet 2.0.12, PlantUML 1.2020.16</text><!--MD5=[3b6d427bde8246b5b8cb127e7ef0d5f1]
@startuml
    set namespaceSeparator none
    hide empty fields
    hide empty methods

    interface "<size:14>IBizProjectImporter\n<size:10>it.tidalwave.accounting.importer.ibiz.spi" as it.tidalwave.accounting.importer.ibiz.spi.IBizProjectImporter [[IBizProjectImporter.html]] {
        {abstract} +importProjects(): void
    }
    enum "<size:14>IBizProjectImporter.IBizJobEventType\n<size:10>it.tidalwave.accounting.importer.ibiz.spi" as it.tidalwave.accounting.importer.ibiz.spi.IBizProjectImporter.IBizJobEventType [[IBizProjectImporter.IBizJobEventType.html]]
    enum "<size:14>IBizProjectImporter.IBizProjectStatus\n<size:10>it.tidalwave.accounting.importer.ibiz.spi" as it.tidalwave.accounting.importer.ibiz.spi.IBizProjectImporter.IBizProjectStatus [[IBizProjectImporter.IBizProjectStatus.html]]

    it.tidalwave.accounting.importer.ibiz.spi.IBizProjectImporter +- - it.tidalwave.accounting.importer.ibiz.spi.IBizProjectImporter.IBizJobEventType
    it.tidalwave.accounting.importer.ibiz.spi.IBizProjectImporter +- - it.tidalwave.accounting.importer.ibiz.spi.IBizProjectImporter.IBizProjectStatus

    center footer UMLDoclet 2.0.12, PlantUML 1.2020.16
@enduml

PlantUML version 1.2020.16(Sun Aug 23 22:20:43 CEST 2020)
(APACHE source distribution)
Java Runtime: OpenJDK Runtime Environment
JVM: OpenJDK 64-Bit Server VM
Default Encoding: UTF-8
Language: en
Country: GB
--></g></svg>