<?xml version="1.0" encoding="UTF-8" standalone="no"?><svg xmlns="http://www.w3.org/2000/svg" xmlns:xlink="http://www.w3.org/1999/xlink" contentScriptType="application/ecmascript" contentStyleType="text/css" height="260px" preserveAspectRatio="none" style="width:306px;height:260px;" version="1.1" viewBox="0 0 306 260" width="306px" zoomAndPan="magnify"><defs><filter height="300%" id="f1rueimf60bvdl" width="300%" x="-1" y="-1"><feGaussianBlur result="blurOut" stdDeviation="2.0"/><feColorMatrix in="blurOut" result="blurOut2" type="matrix" values="0 0 0 0 0 0 0 0 0 0 0 0 0 0 0 0 0 0 .4 0"/><feOffset dx="4.0" dy="4.0" in="blurOut2" result="blurOut3"/><feBlend in="SourceGraphic" in2="blurOut3" mode="normal"/></filter></defs><g><!--MD5=[de591b3c9fd15f2c875348f595bf5b5e]
class it.tidalwave.accounting.importer.ibiz.spi.IBizProjectImporter.IBizProjectStatus--><a href="IBizProjectImporter.IBizProjectStatus.html" target="_top" title="IBizProjectImporter.IBizProjectStatus.html" xlink:actuate="onRequest" xlink:href="IBizProjectImporter.IBizProjectStatus.html" xlink:show="new" xlink:title="IBizProjectImporter.IBizProjectStatus.html" xlink:type="simple"><rect codeLine="5" fill="#FEFECE" filter="url(#f1rueimf60bvdl)" height="98.0859" id="it.tidalwave.accounting.importer.ibiz.spi.IBizProjectImporter.IBizProjectStatus" style="stroke: #A80036; stroke-width: 1.5;" width="280" x="7" y="126"/><ellipse cx="22" cy="145.1328" fill="#EB937F" rx="11" ry="11" style="stroke: #A80036; stroke-width: 1.0;"/><path d="M25.6143,151.6328 L17.8945,151.6328 L17.8945,139.2397 L25.6143,139.2397 L25.6143,141.3979 L20.3433,141.3979 L20.3433,144.0708 L25.1162,144.0708 L25.1162,146.229 L20.3433,146.229 L20.3433,149.4746 L25.6143,149.4746 Z "/><text fill="#000000" font-family="sans-serif" font-size="14" lengthAdjust="spacingAndGlyphs" textLength="248" x="36" y="144.5352">IBizProjectImporter.IBizProjectStatus</text><text fill="#000000" font-family="sans-serif" font-size="10" lengthAdjust="spacingAndGlyphs" textLength="196" x="62" y="157.1563">it.tidalwave.accounting.importer.ibiz.spi</text><line style="stroke: #A80036; stroke-width: 1.5;" x1="8" x2="286" y1="164.2656" y2="164.2656"/><ellipse cx="18" cy="175.2656" fill="none" rx="3" ry="3" style="stroke: #038048; stroke-width: 1.0;"/><text fill="#000000" font-family="sans-serif" font-size="11" lengthAdjust="spacingAndGlyphs" text-decoration="underline" textLength="43" x="27" y="178.9004">OPENED</text><ellipse cx="18" cy="188.2207" fill="none" rx="3" ry="3" style="stroke: #038048; stroke-width: 1.0;"/><text fill="#000000" font-family="sans-serif" font-size="11" lengthAdjust="spacingAndGlyphs" text-decoration="underline" textLength="43" x="27" y="191.8555">CLOSED</text><ellipse cx="18" cy="201.1758" fill="none" rx="3" ry="3" style="stroke: #038048; stroke-width: 1.0;"/><text fill="#000000" font-family="sans-serif" font-size="11" lengthAdjust="spacingAndGlyphs" text-decoration="underline" textLength="54" x="27" y="204.8105">ON_HOLD</text><ellipse cx="18" cy="214.1309" fill="none" rx="3" ry="3" style="stroke: #038048; stroke-width: 1.0;"/><text fill="#000000" font-family="sans-serif" font-size="11" lengthAdjust="spacingAndGlyphs" text-decoration="underline" textLength="47" x="27" y="217.7656">DELETED</text></a><!--MD5=[8f20dfcbde3044fa81109f9ae0fed585]
class it.tidalwave.accounting.importer.ibiz.spi.IBizProjectImporter--><a href="IBizProjectImporter.html" target="_top" title="IBizProjectImporter.html" xlink:actuate="onRequest" xlink:href="IBizProjectImporter.html" xlink:show="new" xlink:title="IBizProjectImporter.html" xlink:type="simple"><rect codeLine="12" fill="#FEFECE" filter="url(#f1rueimf60bvdl)" height="59.2207" id="it.tidalwave.accounting.importer.ibiz.spi.IBizProjectImporter" style="stroke: #A80036; stroke-width: 1.5;" width="228" x="33" y="7"/><ellipse cx="48" cy="26.1328" fill="#B4A7E5" rx="11" ry="11" style="stroke: #A80036; stroke-width: 1.0;"/><path d="M44.4277,22.3979 L44.4277,20.2397 L51.8071,20.2397 L51.8071,22.3979 L49.3418,22.3979 L49.3418,30.4746 L51.8071,30.4746 L51.8071,32.6328 L44.4277,32.6328 L44.4277,30.4746 L46.8931,30.4746 L46.8931,22.3979 Z "/><text fill="#000000" font-family="sans-serif" font-size="14" font-style="italic" lengthAdjust="spacingAndGlyphs" textLength="131" x="94.5" y="25.5352">IBizProjectImporter</text><text fill="#000000" font-family="sans-serif" font-size="10" font-style="italic" lengthAdjust="spacingAndGlyphs" textLength="196" x="62" y="38.1563">it.tidalwave.accounting.importer.ibiz.spi</text><line style="stroke: #A80036; stroke-width: 1.5;" x1="34" x2="260" y1="45.2656" y2="45.2656"/><ellipse cx="44" cy="56.2656" fill="#84BE84" rx="3" ry="3" style="stroke: #038048; stroke-width: 1.0;"/><text fill="#000000" font-family="sans-serif" font-size="11" font-style="italic" lengthAdjust="spacingAndGlyphs" textLength="116" x="53" y="59.9004">importProjects(): void</text></a><!--MD5=[4ac6bf5d640f5ba5b2cdf3da09303e5c]
reverse link it.tidalwave.accounting.importer.ibiz.spi.IBizProjectImporter to it.tidalwave.accounting.importer.ibiz.spi.IBizProjectImporter.IBizProjectStatus--><path codeLine="16" d="M147,81.4624 C147,95.6954 147,111.4957 147,125.9973 " fill="none" id="it.tidalwave.accounting.importer.ibiz.spi.IBizProjectImporter-backto-it.tidalwave.accounting.importer.ibiz.spi.IBizProjectImporter.IBizProjectStatus" style="stroke: #A80036; stroke-width: 1.0;"/><ellipse cx="147.0001" cy="74.2117" fill="#FFFFFF" rx="8" ry="8" style="stroke: #A80036; stroke-width: 1.0;"/><line style="stroke: #A80036; stroke-width: 1.0;" x1="147.0002" x2="147" y1="82.2117" y2="66.2117"/><line style="stroke: #A80036; stroke-width: 1.0;" x1="139.0001" x2="155.0001" y1="74.2118" y2="74.2116"/><text fill="#888888" font-family="sans-serif" font-size="10" lengthAdjust="spacingAndGlyphs" textLength="188" x="50" y="246.7539">UMLDoclet 2.0.12, PlantUML 1.2020.16</text><!--MD5=[6eac7cc2ee58e660318e830381d9fcb3]
@startuml
    set namespaceSeparator none
    hide empty fields
    hide empty methods

    enum "<size:14>IBizProjectImporter.IBizProjectStatus\n<size:10>it.tidalwave.accounting.importer.ibiz.spi" as it.tidalwave.accounting.importer.ibiz.spi.IBizProjectImporter.IBizProjectStatus [[IBizProjectImporter.IBizProjectStatus.html]] {
        {static} +OPENED
        {static} +CLOSED
        {static} +ON_HOLD
        {static} +DELETED
    }

    interface "<size:14>IBizProjectImporter\n<size:10>it.tidalwave.accounting.importer.ibiz.spi" as it.tidalwave.accounting.importer.ibiz.spi.IBizProjectImporter [[IBizProjectImporter.html]] {
        {abstract} +importProjects(): void
    }

    it.tidalwave.accounting.importer.ibiz.spi.IBizProjectImporter +- - it.tidalwave.accounting.importer.ibiz.spi.IBizProjectImporter.IBizProjectStatus

    center footer UMLDoclet 2.0.12, PlantUML 1.2020.16
@enduml

PlantUML version 1.2020.16(Sun Aug 23 22:20:43 CEST 2020)
(APACHE source distribution)
Java Runtime: OpenJDK Runtime Environment
JVM: OpenJDK 64-Bit Server VM
Default Encoding: UTF-8
Language: en
Country: GB
--></g></svg>