@startuml
    set namespaceSeparator none
    hide empty fields
    hide empty methods

    class "<size:14>HtmlTemplateSitemapViewController\n<size:10>it.tidalwave.northernwind.frontend.ui.component.sitemap.htmltemplate" as it.tidalwave.northernwind.frontend.ui.component.sitemap.htmltemplate.HtmlTemplateSitemapViewController [[HtmlTemplateSitemapViewController.html]] {
        +HtmlTemplateSitemapViewController(SiteNode, HtmlTemplateSitemapView)
        #render(Set<Entry>): void
    }

    abstract class "<size:14>DefaultSitemapViewController\n<size:10>it.tidalwave.northernwind.frontend.ui.component.sitemap" as it.tidalwave.northernwind.frontend.ui.component.sitemap.DefaultSitemapViewController [[../DefaultSitemapViewController.html]] {
        {abstract} #render(Set<Entry>): void
    }

    it.tidalwave.northernwind.frontend.ui.component.sitemap.DefaultSitemapViewController <|-- it.tidalwave.northernwind.frontend.ui.component.sitemap.htmltemplate.HtmlTemplateSitemapViewController

    center footer UMLDoclet 2.0.12, PlantUML 1.2020.16
@enduml
