@startuml
    set namespaceSeparator none
    hide empty fields
    hide empty methods

    interface "<size:14>TrackFinder\n<size:10>it.tidalwave.bluemarine2.model.finder.audio" as it.tidalwave.bluemarine2.model.finder.audio.TrackFinder [[TrackFinder.html]] {
        {abstract} +madeBy(Id): TrackFinder
        +madeBy(MusicArtist): TrackFinder
        {abstract} +inRecord(Id): TrackFinder
        +inRecord(Record): TrackFinder
    }

    interface "<size:14>SourceAwareFinder\n<size:10>it.tidalwave.bluemarine2.model.spi" as it.tidalwave.bluemarine2.model.spi.SourceAwareFinder<Track, TrackFinder> [[../../spi/SourceAwareFinder.html]] {
        {abstract} +withId(Id): TrackFinder
        {abstract} +importedFrom(Id): TrackFinder
        {abstract} +importedFrom(Optional<Id>): TrackFinder
        {abstract} +withFallback(Id): TrackFinder
        {abstract} +withFallback(Optional<Id>): TrackFinder
    }
    interface "<size:14>ExtendedFinderSupport\n<size:10>it.tidalwave.util.spi" as it.tidalwave.util.spi.ExtendedFinderSupport<Track, TrackFinder> {
        {abstract} +from(int): TrackFinder
        {abstract} +max(int): TrackFinder
        {abstract} +sort(SortCriterion): TrackFinder
        {abstract} +sort(SortCriterion, SortDirection): TrackFinder
        {abstract} +withContext(Object): TrackFinder
    }

    it.tidalwave.bluemarine2.model.spi.SourceAwareFinder <|-- it.tidalwave.bluemarine2.model.finder.audio.TrackFinder
    it.tidalwave.util.spi.ExtendedFinderSupport <|-- it.tidalwave.bluemarine2.model.finder.audio.TrackFinder

    center footer UMLDoclet 2.0.12, PlantUML 1.2020.16
@enduml
