@startuml
    set namespaceSeparator none
    hide empty fields
    hide empty methods

    class "<size:14>SimpleCompositePresentableTest.MockDatum\n<size:10>it.tidalwave.role.ui.spi" as it.tidalwave.role.ui.spi.SimpleCompositePresentableTest.MockDatum [[SimpleCompositePresentableTest.MockDatum.html]] {
        +MockDatum(String)
        +withChildren(MockDatum...): MockDatum
        +withChildren(List<MockDatum>): MockDatum
        +as(Class<T>): T
        +as(Class<T>, NotFoundBehaviour<T>): T
        +asMany(Class<T>): Collection<T>
    }

    interface "<size:14>As\n<size:10>it.tidalwave.util" as it.tidalwave.util.As [[http://tidalwave.it/projects/thesefoolishthings/modules/it-tidalwave-util/apidocs/it/tidalwave/util/As.html?is-external=true]] {
        {abstract} +as(Class<T>): T
        {abstract} +as(Class<T>, NotFoundBehaviour<T>): T
        {abstract} +asMany(Class<T>): Collection<T>
    }
    interface "<size:14>Identifiable\n<size:10>it.tidalwave.role" as it.tidalwave.role.Identifiable [[../../../../../../apidocs/it/tidalwave/role/Identifiable.html]] {
        {abstract} +getId(): Id
    }
    class "<size:14>SimpleCompositePresentableTest\n<size:10>it.tidalwave.role.ui.spi" as it.tidalwave.role.ui.spi.SimpleCompositePresentableTest [[SimpleCompositePresentableTest.html]]

    it.tidalwave.util.As <|.. it.tidalwave.role.ui.spi.SimpleCompositePresentableTest.MockDatum
    it.tidalwave.role.Identifiable <|.. it.tidalwave.role.ui.spi.SimpleCompositePresentableTest.MockDatum
    it.tidalwave.role.ui.spi.SimpleCompositePresentableTest +-- it.tidalwave.role.ui.spi.SimpleCompositePresentableTest.MockDatum

    center footer UMLDoclet 2.0.12, PlantUML 1.2020.16
@enduml
