@startuml
    set namespaceSeparator none
    hide circle
    hide empty fields
    hide empty methods

    it.tidalwave.northernwind.core.model.spi --> it.tidalwave.northernwind.core.model
    it.tidalwave.northernwind.core.model.spi --> it.tidalwave.util
    it.tidalwave.northernwind.core.model.spi --> org.slf4j
    it.tidalwave.northernwind.core.model.spi --> it.tidalwave.northernwind.frontend.ui
    it.tidalwave.northernwind.core.model.spi --> it.tidalwave.util.spi
    it.tidalwave.northernwind.core.model.spi --> it.tidalwave.northernwind.util.test
    it.tidalwave.northernwind.core.model.spi --> it.tidalwave.messagebus
    it.tidalwave.northernwind.core.model.spi --> it.tidalwave.northernwind.core.impl.model
    it.tidalwave.northernwind.frontend.ui.spi --> it.tidalwave.role
    it.tidalwave.northernwind.frontend.ui.spi --> it.tidalwave.northernwind.frontend.ui
    it.tidalwave.northernwind.frontend.ui.spi --> it.tidalwave.northernwind.core.model
    it.tidalwave.northernwind.frontend.ui.spi --> it.tidalwave.util
    it.tidalwave.northernwind.frontend.ui.spi --> it.tidalwave.northernwind.core.model.spi

    ' Package links
    class "it.tidalwave.northernwind.core.model.spi" [[it/tidalwave/northernwind/core/model/spi/package-summary.html]] {
    }
    class "it.tidalwave.northernwind.util.test" [[http://tidalwave.it/projects/northernwind/it-tidalwave-northernwind-modules/it-tidalwave-northernwind-common-tests/apidocs/it/tidalwave/northernwind/util/test/package-summary.html?is-external=true]] {
    }
    class "it.tidalwave.northernwind.frontend.ui.spi" [[it/tidalwave/northernwind/frontend/ui/spi/package-summary.html]] {
    }

    center footer UMLDoclet 2.0.12, PlantUML 1.2020.16
@enduml
