<?xml version="1.0" encoding="UTF-8" standalone="no"?><svg xmlns="http://www.w3.org/2000/svg" xmlns:xlink="http://www.w3.org/1999/xlink" contentScriptType="application/ecmascript" contentStyleType="text/css" height="151px" preserveAspectRatio="none" style="width:303px;height:151px;" version="1.1" viewBox="0 0 303 151" width="303px" zoomAndPan="magnify"><defs><filter height="300%" id="f1drop8d5lsc2z" width="300%" x="-1" y="-1"><feGaussianBlur result="blurOut" stdDeviation="2.0"/><feColorMatrix in="blurOut" result="blurOut2" type="matrix" values="0 0 0 0 0 0 0 0 0 0 0 0 0 0 0 0 0 0 .4 0"/><feOffset dx="4.0" dy="4.0" in="blurOut2" result="blurOut3"/><feBlend in="SourceGraphic" in2="blurOut3" mode="normal"/></filter></defs><g><!--MD5=[0ba0502b047cb3ff0ad6bd3fc2c51bf8]
class it.tidalwave.northernwind.rca.embeddedserver--><a href="it/tidalwave/northernwind/rca/embeddedserver/package-summary.html" target="_top" title="it/tidalwave/northernwind/rca/embeddedserver/package-summary.html" xlink:actuate="onRequest" xlink:href="it/tidalwave/northernwind/rca/embeddedserver/package-summary.html" xlink:show="new" xlink:title="it/tidalwave/northernwind/rca/embeddedserver/package-summary.html" xlink:type="simple"><rect codeLine="9" fill="#FEFECE" filter="url(#f1drop8d5lsc2z)" height="24.1328" id="it.tidalwave.northernwind.rca.embeddedserver" style="stroke: #A80036; stroke-width: 1.5;" width="277" x="7" y="7"/><text fill="#000000" font-family="sans-serif" font-size="12" lengthAdjust="spacingAndGlyphs" textLength="271" x="10" y="23.6016">it.tidalwave.northernwind.rca.embeddedserver</text></a><!--MD5=[dafedc1692a57fca91cb3b15a9a21c81]
class java.lang--><rect fill="#FEFECE" filter="url(#f1drop8d5lsc2z)" height="24.1328" id="java.lang" style="stroke: #A80036; stroke-width: 1.5;" width="58" x="116.5" y="91"/><text fill="#000000" font-family="sans-serif" font-size="12" lengthAdjust="spacingAndGlyphs" textLength="52" x="119.5" y="107.6016">java.lang</text><!--MD5=[03f6a0606f21fce5cdaa51a8f15ec460]
link it.tidalwave.northernwind.rca.embeddedserver to java.lang--><path codeLine="6" d="M145.5,31.0352 C145.5,45.3818 145.5,69.4615 145.5,85.777 " fill="none" id="it.tidalwave.northernwind.rca.embeddedserver-to-java.lang" style="stroke: #A80036; stroke-width: 1.0;"/><polygon fill="#A80036" points="145.5,90.9872,149.5,81.9872,145.5,85.9872,141.5,81.9872,145.5,90.9872" style="stroke: #A80036; stroke-width: 1.0;"/><text fill="#888888" font-family="sans-serif" font-size="10" lengthAdjust="spacingAndGlyphs" textLength="188" x="48.5" y="137.8008">UMLDoclet 2.0.12, PlantUML 1.2020.16</text><!--MD5=[888950adde66125294c1c0ea33a9a88a]
@startuml
    set namespaceSeparator none
    hide circle
    hide empty fields
    hide empty methods

    it.tidalwave.northernwind.rca.embeddedserver - -> java.lang

    ' Package links
    class "it.tidalwave.northernwind.rca.embeddedserver" [[it/tidalwave/northernwind/rca/embeddedserver/package-summary.html]] {
    }

    center footer UMLDoclet 2.0.12, PlantUML 1.2020.16
@enduml

@startuml
    set namespaceSeparator none
    hide circle
    hide empty fields
    hide empty methods

    it.tidalwave.northernwind.rca.embeddedserver - -> java.lang

    class "it.tidalwave.northernwind.rca.embeddedserver" [[it/tidalwave/northernwind/rca/embeddedserver/package-summary.html]] {
    }

    center footer UMLDoclet 2.0.12, PlantUML 1.2020.16
@enduml

PlantUML version 1.2020.16(Sun Aug 23 22:20:43 CEST 2020)
(APACHE source distribution)
Java Runtime: OpenJDK Runtime Environment
JVM: OpenJDK 64-Bit Server VM
Default Encoding: UTF-8
Language: en
Country: GB
--></g></svg>