@startuml
    set namespaceSeparator none
    hide empty fields
    hide empty methods

    interface "<size:14>BreadCrumbView\n<size:10>it.tidalwave.northernwind.frontend.ui.component.breadcrumb" as it.tidalwave.northernwind.frontend.ui.component.breadcrumb.BreadCrumbView [[BreadCrumbView.html]]

    interface "<size:14>Identifiable\n<size:10>it.tidalwave.role" as it.tidalwave.role.Identifiable {
        {abstract} +getId(): Id
    }

    it.tidalwave.role.Identifiable <|-- it.tidalwave.northernwind.frontend.ui.component.breadcrumb.BreadCrumbView

    center footer UMLDoclet 2.0.12, PlantUML 1.2020.16
@enduml
