<?xml version="1.0" encoding="UTF-8" standalone="no"?><svg xmlns="http://www.w3.org/2000/svg" xmlns:xlink="http://www.w3.org/1999/xlink" contentScriptType="application/ecmascript" contentStyleType="text/css" height="234px" preserveAspectRatio="none" style="width:450px;height:234px;" version="1.1" viewBox="0 0 450 234" width="450px" zoomAndPan="magnify"><defs><filter height="300%" id="f1ht6dfujdf6rz" width="300%" x="-1" y="-1"><feGaussianBlur result="blurOut" stdDeviation="2.0"/><feColorMatrix in="blurOut" result="blurOut2" type="matrix" values="0 0 0 0 0 0 0 0 0 0 0 0 0 0 0 0 0 0 .4 0"/><feOffset dx="4.0" dy="4.0" in="blurOut2" result="blurOut3"/><feBlend in="SourceGraphic" in2="blurOut3" mode="normal"/></filter></defs><g><!--MD5=[543698cae32377b6e965da808171d7a6]
class it.tidalwave.northernwind.frontend.ui.component.sitemap.htmltemplate.HtmlTemplateSitemapViewController--><a href="HtmlTemplateSitemapViewController.html" target="_top" title="HtmlTemplateSitemapViewController.html" xlink:actuate="onRequest" xlink:href="HtmlTemplateSitemapViewController.html" xlink:show="new" xlink:title="HtmlTemplateSitemapViewController.html" xlink:type="simple"><rect codeLine="5" fill="#FEFECE" filter="url(#f1ht6dfujdf6rz)" height="72.1758" id="it.tidalwave.northernwind.frontend.ui.component.sitemap.htmltemplate.HtmlTemplateSitemapViewController" style="stroke: #A80036; stroke-width: 1.5;" width="422" x="9" y="126"/><ellipse cx="42" cy="145.1328" fill="#ADD1B2" rx="11" ry="11" style="stroke: #A80036; stroke-width: 1.0;"/><path d="M44.4731,151.2759 Q43.8921,151.5747 43.2529,151.7241 Q42.6138,151.8735 41.9082,151.8735 Q39.4014,151.8735 38.0815,150.2217 Q36.7617,148.5698 36.7617,145.4487 Q36.7617,142.3193 38.0815,140.6675 Q39.4014,139.0156 41.9082,139.0156 Q42.6138,139.0156 43.2612,139.165 Q43.9087,139.3145 44.4731,139.6133 L44.4731,142.3359 Q43.8423,141.7549 43.2488,141.4851 Q42.6553,141.2153 42.0244,141.2153 Q40.6797,141.2153 39.9949,142.282 Q39.3101,143.3486 39.3101,145.4487 Q39.3101,147.5405 39.9949,148.6072 Q40.6797,149.6738 42.0244,149.6738 Q42.6553,149.6738 43.2488,149.4041 Q43.8423,149.1343 44.4731,148.5532 Z "/><text fill="#000000" font-family="sans-serif" font-size="14" lengthAdjust="spacingAndGlyphs" textLength="253" x="108.5" y="144.5352">HtmlTemplateSitemapViewController</text><text fill="#000000" font-family="sans-serif" font-size="10" lengthAdjust="spacingAndGlyphs" textLength="350" x="60" y="157.1563">it.tidalwave.northernwind.frontend.ui.component.sitemap.htmltemplate</text><line style="stroke: #A80036; stroke-width: 1.5;" x1="10" x2="430" y1="164.2656" y2="164.2656"/><ellipse cx="20" cy="175.2656" fill="#84BE84" rx="3" ry="3" style="stroke: #038048; stroke-width: 1.0;"/><text fill="#000000" font-family="sans-serif" font-size="11" lengthAdjust="spacingAndGlyphs" textLength="396" x="29" y="178.9004">HtmlTemplateSitemapViewController(SiteNode, HtmlTemplateSitemapView)</text><polygon fill="#FFFF44" points="20,183.2207,24,187.2207,20,191.2207,16,187.2207" style="stroke: #B38D22; stroke-width: 1.0;"/><text fill="#000000" font-family="sans-serif" font-size="11" lengthAdjust="spacingAndGlyphs" textLength="189" x="29" y="191.8555">render(Set&lt;? extends Entry&gt;): void</text></a><!--MD5=[103ed2cc93e2b7652679577292c97827]
class it.tidalwave.northernwind.frontend.ui.component.sitemap.DefaultSitemapViewController--><a href="../DefaultSitemapViewController.html" target="_top" title="../DefaultSitemapViewController.html" xlink:actuate="onRequest" xlink:href="../DefaultSitemapViewController.html" xlink:show="new" xlink:title="../DefaultSitemapViewController.html" xlink:type="simple"><rect codeLine="10" fill="#FEFECE" filter="url(#f1ht6dfujdf6rz)" height="59.2207" id="it.tidalwave.northernwind.frontend.ui.component.sitemap.DefaultSitemapViewController" style="stroke: #A80036; stroke-width: 1.5;" width="313" x="63.5" y="7"/><ellipse cx="78.5" cy="26.1328" fill="#A9DCDF" rx="11" ry="11" style="stroke: #A80036; stroke-width: 1.0;"/><path d="M78.3633,21.481 L77.2095,26.5527 L79.5254,26.5527 Z M76.8691,19.2397 L79.8657,19.2397 L83.2109,31.6328 L80.7622,31.6328 L79.9985,28.5698 L76.7197,28.5698 L75.9727,31.6328 L73.5239,31.6328 Z "/><text fill="#000000" font-family="sans-serif" font-size="14" font-style="italic" lengthAdjust="spacingAndGlyphs" textLength="206" x="130" y="25.5352">DefaultSitemapViewController</text><text fill="#000000" font-family="sans-serif" font-size="10" font-style="italic" lengthAdjust="spacingAndGlyphs" textLength="281" x="92.5" y="38.1563">it.tidalwave.northernwind.frontend.ui.component.sitemap</text><line style="stroke: #A80036; stroke-width: 1.5;" x1="64.5" x2="375.5" y1="45.2656" y2="45.2656"/><polygon fill="#FFFF44" points="74.5,51.2656,78.5,55.2656,74.5,59.2656,70.5,55.2656" style="stroke: #B38D22; stroke-width: 1.0;"/><text fill="#000000" font-family="sans-serif" font-size="11" font-style="italic" lengthAdjust="spacingAndGlyphs" textLength="189" x="83.5" y="59.9004">render(Set&lt;? extends Entry&gt;): void</text></a><!--MD5=[08e1f3a209aa1037cf724aa162f886fe]
reverse link it.tidalwave.northernwind.frontend.ui.component.sitemap.DefaultSitemapViewController to it.tidalwave.northernwind.frontend.ui.component.sitemap.htmltemplate.HtmlTemplateSitemapViewController--><path codeLine="14" d="M220,86.5049 C220,99.6211 220,113.5128 220,125.7555 " fill="none" id="it.tidalwave.northernwind.frontend.ui.component.sitemap.DefaultSitemapViewController-backto-it.tidalwave.northernwind.frontend.ui.component.sitemap.htmltemplate.HtmlTemplateSitemapViewController" style="stroke: #A80036; stroke-width: 1.0;"/><polygon fill="none" points="213.0001,86.2418,220,66.2417,227.0001,86.2417,213.0001,86.2418" style="stroke: #A80036; stroke-width: 1.0;"/><text fill="#888888" font-family="sans-serif" font-size="10" lengthAdjust="spacingAndGlyphs" textLength="188" x="122" y="220.8438">UMLDoclet 2.0.12, PlantUML 1.2020.16</text><!--MD5=[69b76c2eb8876747a0916d1981b0f027]
@startuml
    set namespaceSeparator none
    hide empty fields
    hide empty methods

    class "<size:14>HtmlTemplateSitemapViewController\n<size:10>it.tidalwave.northernwind.frontend.ui.component.sitemap.htmltemplate" as it.tidalwave.northernwind.frontend.ui.component.sitemap.htmltemplate.HtmlTemplateSitemapViewController [[HtmlTemplateSitemapViewController.html]] {
        +HtmlTemplateSitemapViewController(SiteNode, HtmlTemplateSitemapView)
        #render(Set<? extends Entry>): void
    }

    abstract class "<size:14>DefaultSitemapViewController\n<size:10>it.tidalwave.northernwind.frontend.ui.component.sitemap" as it.tidalwave.northernwind.frontend.ui.component.sitemap.DefaultSitemapViewController [[../DefaultSitemapViewController.html]] {
        {abstract} #render(Set<? extends Entry>): void
    }

    it.tidalwave.northernwind.frontend.ui.component.sitemap.DefaultSitemapViewController <|- - it.tidalwave.northernwind.frontend.ui.component.sitemap.htmltemplate.HtmlTemplateSitemapViewController

    center footer UMLDoclet 2.0.12, PlantUML 1.2020.16
@enduml

PlantUML version 1.2020.16(Sun Aug 23 22:20:43 CEST 2020)
(APACHE source distribution)
Java Runtime: OpenJDK Runtime Environment
JVM: OpenJDK 64-Bit Server VM
Default Encoding: UTF-8
Language: en
Country: GB
--></g></svg>