<?xml version="1.0" encoding="UTF-8" standalone="no"?><svg xmlns="http://www.w3.org/2000/svg" xmlns:xlink="http://www.w3.org/1999/xlink" contentScriptType="application/ecmascript" contentStyleType="text/css" height="200px" preserveAspectRatio="none" style="width:279px;height:200px;" version="1.1" viewBox="0 0 279 200" width="279px" zoomAndPan="magnify"><defs><filter height="300%" id="f1xqwavbpupovn" width="300%" x="-1" y="-1"><feGaussianBlur result="blurOut" stdDeviation="2.0"/><feColorMatrix in="blurOut" result="blurOut2" type="matrix" values="0 0 0 0 0 0 0 0 0 0 0 0 0 0 0 0 0 0 .4 0"/><feOffset dx="4.0" dy="4.0" in="blurOut2" result="blurOut3"/><feBlend in="SourceGraphic" in2="blurOut3" mode="normal"/></filter></defs><g><!--MD5=[5971eb6dabb04faa5a59c3fcda4dac68]
class it.tidalwave.role.spi.DefaultContextManagerProvider--><a href="DefaultContextManagerProvider.html" target="_top" title="DefaultContextManagerProvider.html" xlink:actuate="onRequest" xlink:href="DefaultContextManagerProvider.html" xlink:show="new" xlink:title="DefaultContextManagerProvider.html" xlink:type="simple"><rect codeLine="5" fill="#FEFECE" filter="url(#f1xqwavbpupovn)" height="38.2656" id="it.tidalwave.role.spi.DefaultContextManagerProvider" style="stroke: #A80036; stroke-width: 1.5;" width="253" x="7" y="126"/><ellipse cx="22" cy="145.1328" fill="#ADD1B2" rx="11" ry="11" style="stroke: #A80036; stroke-width: 1.0;"/><path d="M24.4731,151.2759 Q23.8921,151.5747 23.2529,151.7241 Q22.6138,151.8735 21.9082,151.8735 Q19.4014,151.8735 18.0815,150.2217 Q16.7617,148.5698 16.7617,145.4487 Q16.7617,142.3193 18.0815,140.6675 Q19.4014,139.0156 21.9082,139.0156 Q22.6138,139.0156 23.2612,139.165 Q23.9087,139.3145 24.4731,139.6133 L24.4731,142.3359 Q23.8423,141.7549 23.2488,141.4851 Q22.6553,141.2153 22.0244,141.2153 Q20.6797,141.2153 19.9949,142.282 Q19.3101,143.3486 19.3101,145.4487 Q19.3101,147.5405 19.9949,148.6072 Q20.6797,149.6738 22.0244,149.6738 Q22.6553,149.6738 23.2488,149.4041 Q23.8423,149.1343 24.4731,148.5532 Z "/><text fill="#000000" font-family="sans-serif" font-size="14" lengthAdjust="spacingAndGlyphs" textLength="221" x="36" y="144.5352">DefaultContextManagerProvider</text><text fill="#000000" font-family="sans-serif" font-size="10" lengthAdjust="spacingAndGlyphs" textLength="96" x="98.5" y="157.1563">it.tidalwave.role.spi</text></a><!--MD5=[162f4bee203f500ae281472bc18a82ef]
class it.tidalwave.role.spi.ContextManagerProvider--><a href="ContextManagerProvider.html" target="_top" title="ContextManagerProvider.html" xlink:actuate="onRequest" xlink:href="ContextManagerProvider.html" xlink:show="new" xlink:title="ContextManagerProvider.html" xlink:type="simple"><rect codeLine="8" fill="#FEFECE" filter="url(#f1xqwavbpupovn)" height="59.2207" id="it.tidalwave.role.spi.ContextManagerProvider" style="stroke: #A80036; stroke-width: 1.5;" width="235" x="16" y="7"/><ellipse cx="44.95" cy="26.1328" fill="#B4A7E5" rx="11" ry="11" style="stroke: #A80036; stroke-width: 1.0;"/><path d="M41.3777,22.3979 L41.3777,20.2397 L48.7571,20.2397 L48.7571,22.3979 L46.2918,22.3979 L46.2918,30.4746 L48.7571,30.4746 L48.7571,32.6328 L41.3777,32.6328 L41.3777,30.4746 L43.8431,30.4746 L43.8431,22.3979 Z "/><text fill="#000000" font-family="sans-serif" font-size="14" font-style="italic" lengthAdjust="spacingAndGlyphs" textLength="172" x="62.05" y="25.5352">ContextManagerProvider</text><text fill="#000000" font-family="sans-serif" font-size="10" font-style="italic" lengthAdjust="spacingAndGlyphs" textLength="96" x="100.05" y="38.1563">it.tidalwave.role.spi</text><line style="stroke: #A80036; stroke-width: 1.5;" x1="17" x2="250" y1="45.2656" y2="45.2656"/><ellipse cx="27" cy="56.2656" fill="#84BE84" rx="3" ry="3" style="stroke: #038048; stroke-width: 1.0;"/><text fill="#000000" font-family="sans-serif" font-size="11" font-style="italic" lengthAdjust="spacingAndGlyphs" textLength="209" x="36" y="59.9004">getContextManager(): ContextManager</text></a><!--MD5=[8b7028cb99a64f18660cfffc5ec05265]
reverse link it.tidalwave.role.spi.ContextManagerProvider to it.tidalwave.role.spi.DefaultContextManagerProvider--><path codeLine="12" d="M133.5,86.6274 C133.5,100.6286 133.5,114.9981 133.5,125.9766 " fill="none" id="it.tidalwave.role.spi.ContextManagerProvider-backto-it.tidalwave.role.spi.DefaultContextManagerProvider" style="stroke: #A80036; stroke-width: 1.0; stroke-dasharray: 7.0,7.0;"/><polygon fill="none" points="126.5001,86.1481,133.5,66.1481,140.5001,86.1481,126.5001,86.1481" style="stroke: #A80036; stroke-width: 1.0;"/><text fill="#888888" font-family="sans-serif" font-size="10" lengthAdjust="spacingAndGlyphs" textLength="188" x="36.5" y="186.9336">UMLDoclet 2.0.12, PlantUML 1.2020.16</text><!--MD5=[82c7dbdafa75f30230eba47fd2f2f1ef]
@startuml
    set namespaceSeparator none
    hide empty fields
    hide empty methods

    class "<size:14>DefaultContextManagerProvider\n<size:10>it.tidalwave.role.spi" as it.tidalwave.role.spi.DefaultContextManagerProvider [[DefaultContextManagerProvider.html]] {
    }

    interface "<size:14>ContextManagerProvider\n<size:10>it.tidalwave.role.spi" as it.tidalwave.role.spi.ContextManagerProvider [[ContextManagerProvider.html]] {
        {abstract} +getContextManager(): ContextManager
    }

    it.tidalwave.role.spi.ContextManagerProvider <|.. it.tidalwave.role.spi.DefaultContextManagerProvider

    center footer UMLDoclet 2.0.12, PlantUML 1.2020.16
@enduml

PlantUML version 1.2020.16(Sun Aug 23 22:20:43 CEST 2020)
(APACHE source distribution)
Java Runtime: OpenJDK Runtime Environment
JVM: OpenJDK 64-Bit Server VM
Default Encoding: UTF-8
Language: en
Country: GB
--></g></svg>