<?xml version="1.0" encoding="UTF-8" standalone="no"?><svg xmlns="http://www.w3.org/2000/svg" xmlns:xlink="http://www.w3.org/1999/xlink" contentScriptType="application/ecmascript" contentStyleType="text/css" height="221px" preserveAspectRatio="none" style="width:374px;height:221px;" version="1.1" viewBox="0 0 374 221" width="374px" zoomAndPan="magnify"><defs><filter height="300%" id="f1n5shc0hpzmfs" width="300%" x="-1" y="-1"><feGaussianBlur result="blurOut" stdDeviation="2.0"/><feColorMatrix in="blurOut" result="blurOut2" type="matrix" values="0 0 0 0 0 0 0 0 0 0 0 0 0 0 0 0 0 0 .4 0"/><feOffset dx="4.0" dy="4.0" in="blurOut2" result="blurOut3"/><feBlend in="SourceGraphic" in2="blurOut3" mode="normal"/></filter></defs><g><!--MD5=[bbe53ab68869e156a4fb1cad8631bd1f]
class it.tidalwave.bluemarine2.ui.stillimage.explorer.impl.javafx.JavaFxStillImageExplorerPresentationDelegate--><a href="JavaFxStillImageExplorerPresentationDelegate.html" target="_top" title="JavaFxStillImageExplorerPresentationDelegate.html" xlink:actuate="onRequest" xlink:href="JavaFxStillImageExplorerPresentationDelegate.html" xlink:show="new" xlink:title="JavaFxStillImageExplorerPresentationDelegate.html" xlink:type="simple"><rect codeLine="5" fill="#FEFECE" filter="url(#f1n5shc0hpzmfs)" height="59.2207" id="it.tidalwave.bluemarine2.ui.stillimage.explorer.impl.javafx.JavaFxStillImageExplorerPresentationDelegate" style="stroke: #A80036; stroke-width: 1.5;" width="348" x="7" y="126"/><ellipse cx="22" cy="145.1328" fill="#ADD1B2" rx="11" ry="11" style="stroke: #A80036; stroke-width: 1.0;"/><path d="M24.4731,151.2759 Q23.8921,151.5747 23.2529,151.7241 Q22.6138,151.8735 21.9082,151.8735 Q19.4014,151.8735 18.0815,150.2217 Q16.7617,148.5698 16.7617,145.4487 Q16.7617,142.3193 18.0815,140.6675 Q19.4014,139.0156 21.9082,139.0156 Q22.6138,139.0156 23.2612,139.165 Q23.9087,139.3145 24.4731,139.6133 L24.4731,142.3359 Q23.8423,141.7549 23.2488,141.4851 Q22.6553,141.2153 22.0244,141.2153 Q20.6797,141.2153 19.9949,142.282 Q19.3101,143.3486 19.3101,145.4487 Q19.3101,147.5405 19.9949,148.6072 Q20.6797,149.6738 22.0244,149.6738 Q22.6553,149.6738 23.2488,149.4041 Q23.8423,149.1343 24.4731,148.5532 Z "/><text fill="#000000" font-family="sans-serif" font-size="14" lengthAdjust="spacingAndGlyphs" textLength="316" x="36" y="144.5352">JavaFxStillImageExplorerPresentationDelegate</text><text fill="#000000" font-family="sans-serif" font-size="10" lengthAdjust="spacingAndGlyphs" textLength="285" x="51.5" y="157.1563">it.tidalwave.bluemarine2.ui.stillimage.explorer.impl.javafx</text><line style="stroke: #A80036; stroke-width: 1.5;" x1="8" x2="354" y1="164.2656" y2="164.2656"/><ellipse cx="18" cy="175.2656" fill="#84BE84" rx="3" ry="3" style="stroke: #038048; stroke-width: 1.0;"/><text fill="#000000" font-family="sans-serif" font-size="11" lengthAdjust="spacingAndGlyphs" textLength="80" x="27" y="178.9004">showUp(): void</text></a><!--MD5=[4ec332fa1f483e38802e52fded9254eb]
class it.tidalwave.bluemarine2.ui.stillimage.explorer.StillImageExplorerPresentation--><a href="http://blueMarine.tidalwave.it/bluemarine2-modules/it-tidalwave-bluemarine2-ui/apidocs/it/tidalwave/bluemarine2/ui/stillimage/explorer/StillImageExplorerPresentation.html?is-external=true" target="_top" title="http://blueMarine.tidalwave.it/bluemarine2-modules/it-tidalwave-bluemarine2-ui/apidocs/it/tidalwave/bluemarine2/ui/stillimage/explorer/StillImageExplorerPresentation.html?is-external=true" xlink:actuate="onRequest" xlink:href="http://blueMarine.tidalwave.it/bluemarine2-modules/it-tidalwave-bluemarine2-ui/apidocs/it/tidalwave/bluemarine2/ui/stillimage/explorer/StillImageExplorerPresentation.html?is-external=true" xlink:show="new" xlink:title="http://blueMarine.tidalwave.it/bluemarine2-modules/it-tidalwave-bluemarine2-ui/apidocs/it/tidalwave/bluemarine2/ui/stillimage/explorer/StillImageExplorerPresentation.html?is-external=true" xlink:type="simple"><rect codeLine="9" fill="#FEFECE" filter="url(#f1n5shc0hpzmfs)" height="59.2207" id="it.tidalwave.bluemarine2.ui.stillimage.explorer.StillImageExplorerPresentation" style="stroke: #A80036; stroke-width: 1.5;" width="260" x="51" y="7"/><ellipse cx="66" cy="26.1328" fill="#B4A7E5" rx="11" ry="11" style="stroke: #A80036; stroke-width: 1.0;"/><path d="M62.4277,22.3979 L62.4277,20.2397 L69.8071,20.2397 L69.8071,22.3979 L67.3418,22.3979 L67.3418,30.4746 L69.8071,30.4746 L69.8071,32.6328 L62.4277,32.6328 L62.4277,30.4746 L64.8931,30.4746 L64.8931,22.3979 Z "/><text fill="#000000" font-family="sans-serif" font-size="14" font-style="italic" lengthAdjust="spacingAndGlyphs" textLength="212" x="88" y="25.5352">StillImageExplorerPresentation</text><text fill="#000000" font-family="sans-serif" font-size="10" font-style="italic" lengthAdjust="spacingAndGlyphs" textLength="228" x="80" y="38.1563">it.tidalwave.bluemarine2.ui.stillimage.explorer</text><line style="stroke: #A80036; stroke-width: 1.5;" x1="52" x2="310" y1="45.2656" y2="45.2656"/><ellipse cx="62" cy="56.2656" fill="#84BE84" rx="3" ry="3" style="stroke: #038048; stroke-width: 1.0;"/><text fill="#000000" font-family="sans-serif" font-size="11" font-style="italic" lengthAdjust="spacingAndGlyphs" textLength="80" x="71" y="59.9004">showUp(): void</text></a><!--MD5=[211057c04c38f09463775f34e1c8faf4]
reverse link it.tidalwave.bluemarine2.ui.stillimage.explorer.StillImageExplorerPresentation to it.tidalwave.bluemarine2.ui.stillimage.explorer.impl.javafx.JavaFxStillImageExplorerPresentationDelegate--><path codeLine="13" d="M181,86.3288 C181,99.7348 181,113.8139 181,125.7447 " fill="none" id="it.tidalwave.bluemarine2.ui.stillimage.explorer.StillImageExplorerPresentation-backto-it.tidalwave.bluemarine2.ui.stillimage.explorer.impl.javafx.JavaFxStillImageExplorerPresentationDelegate" style="stroke: #A80036; stroke-width: 1.0; stroke-dasharray: 7.0,7.0;"/><polygon fill="none" points="174.0001,86.2218,181,66.2218,188.0001,86.2217,174.0001,86.2218" style="stroke: #A80036; stroke-width: 1.0;"/><text fill="#888888" font-family="sans-serif" font-size="10" lengthAdjust="spacingAndGlyphs" textLength="188" x="84" y="207.8887">UMLDoclet 2.0.12, PlantUML 1.2020.16</text><!--MD5=[1fb46a1d3688780082fbc629e9c4200f]
@startuml
    set namespaceSeparator none
    hide empty fields
    hide empty methods

    class "<size:14>JavaFxStillImageExplorerPresentationDelegate\n<size:10>it.tidalwave.bluemarine2.ui.stillimage.explorer.impl.javafx" as it.tidalwave.bluemarine2.ui.stillimage.explorer.impl.javafx.JavaFxStillImageExplorerPresentationDelegate [[JavaFxStillImageExplorerPresentationDelegate.html]] {
        +showUp(): void
    }

    interface "<size:14>StillImageExplorerPresentation\n<size:10>it.tidalwave.bluemarine2.ui.stillimage.explorer" as it.tidalwave.bluemarine2.ui.stillimage.explorer.StillImageExplorerPresentation [[http://blueMarine.tidalwave.it/bluemarine2-modules/it-tidalwave-bluemarine2-ui/apidocs/it/tidalwave/bluemarine2/ui/stillimage/explorer/StillImageExplorerPresentation.html?is-external=true]] {
        {abstract} +showUp(): void
    }

    it.tidalwave.bluemarine2.ui.stillimage.explorer.StillImageExplorerPresentation <|.. it.tidalwave.bluemarine2.ui.stillimage.explorer.impl.javafx.JavaFxStillImageExplorerPresentationDelegate

    center footer UMLDoclet 2.0.12, PlantUML 1.2020.16
@enduml

PlantUML version 1.2020.16(Sun Aug 23 22:20:43 CEST 2020)
(APACHE source distribution)
Java Runtime: OpenJDK Runtime Environment
JVM: OpenJDK 64-Bit Server VM
Default Encoding: UTF-8
Language: en
Country: GB
--></g></svg>