<?xml version="1.0" encoding="UTF-8" standalone="no"?><svg xmlns="http://www.w3.org/2000/svg" xmlns:xlink="http://www.w3.org/1999/xlink" contentScriptType="application/ecmascript" contentStyleType="text/css" height="96px" preserveAspectRatio="none" style="width:264px;height:96px;" version="1.1" viewBox="0 0 264 96" width="264px" zoomAndPan="magnify"><defs><filter height="300%" id="fanparypdv5kd" width="300%" x="-1" y="-1"><feGaussianBlur result="blurOut" stdDeviation="2.0"/><feColorMatrix in="blurOut" result="blurOut2" type="matrix" values="0 0 0 0 0 0 0 0 0 0 0 0 0 0 0 0 0 0 .4 0"/><feOffset dx="4.0" dy="4.0" in="blurOut2" result="blurOut3"/><feBlend in="SourceGraphic" in2="blurOut3" mode="normal"/></filter></defs><g><!--MD5=[7aa0cc8df65d70d6c6ec0fcea39efe67]
class it.tidalwave.bluemarine2.ui.video.explorer.VideoExplorerPresentation--><a href="VideoExplorerPresentation.html" target="_top" title="VideoExplorerPresentation.html" xlink:actuate="onRequest" xlink:href="VideoExplorerPresentation.html" xlink:show="new" xlink:title="VideoExplorerPresentation.html" xlink:type="simple"><rect codeLine="5" fill="#FEFECE" filter="url(#fanparypdv5kd)" height="59.2207" id="it.tidalwave.bluemarine2.ui.video.explorer.VideoExplorerPresentation" style="stroke: #A80036; stroke-width: 1.5;" width="238" x="7" y="7"/><ellipse cx="22" cy="26.1328" fill="#B4A7E5" rx="11" ry="11" style="stroke: #A80036; stroke-width: 1.0;"/><path d="M18.4277,22.3979 L18.4277,20.2397 L25.8071,20.2397 L25.8071,22.3979 L23.3418,22.3979 L23.3418,30.4746 L25.8071,30.4746 L25.8071,32.6328 L18.4277,32.6328 L18.4277,30.4746 L20.8931,30.4746 L20.8931,22.3979 Z "/><text fill="#000000" font-family="sans-serif" font-size="14" font-style="italic" lengthAdjust="spacingAndGlyphs" textLength="184" x="47" y="25.5352">VideoExplorerPresentation</text><text fill="#000000" font-family="sans-serif" font-size="10" font-style="italic" lengthAdjust="spacingAndGlyphs" textLength="206" x="36" y="38.1563">it.tidalwave.bluemarine2.ui.video.explorer</text><line style="stroke: #A80036; stroke-width: 1.5;" x1="8" x2="244" y1="45.2656" y2="45.2656"/><ellipse cx="18" cy="56.2656" fill="#84BE84" rx="3" ry="3" style="stroke: #038048; stroke-width: 1.0;"/><text fill="#000000" font-family="sans-serif" font-size="11" font-style="italic" lengthAdjust="spacingAndGlyphs" textLength="80" x="27" y="59.9004">showUp(): void</text></a><text fill="#888888" font-family="sans-serif" font-size="10" lengthAdjust="spacingAndGlyphs" textLength="188" x="32" y="82.8887">UMLDoclet 2.0.12, PlantUML 1.2020.16</text><!--MD5=[b1c72d421056d1ed317fd14626b02dfe]
@startuml
    set namespaceSeparator none
    hide empty fields
    hide empty methods

    interface "<size:14>VideoExplorerPresentation\n<size:10>it.tidalwave.bluemarine2.ui.video.explorer" as it.tidalwave.bluemarine2.ui.video.explorer.VideoExplorerPresentation [[VideoExplorerPresentation.html]] {
        {abstract} +showUp(): void
    }

    center footer UMLDoclet 2.0.12, PlantUML 1.2020.16
@enduml

PlantUML version 1.2020.16(Sun Aug 23 22:20:43 CEST 2020)
(APACHE source distribution)
Java Runtime: OpenJDK Runtime Environment
JVM: OpenJDK 64-Bit Server VM
Default Encoding: UTF-8
Language: en
Country: GB
--></g></svg>