<?xml version="1.0" encoding="UTF-8" standalone="no"?><svg xmlns="http://www.w3.org/2000/svg" xmlns:xlink="http://www.w3.org/1999/xlink" contentScriptType="application/ecmascript" contentStyleType="text/css" height="151px" preserveAspectRatio="none" style="width:557px;height:151px;" version="1.1" viewBox="0 0 557 151" width="557px" zoomAndPan="magnify"><defs><filter height="300%" id="f1v9jo0ha3mtt1" width="300%" x="-1" y="-1"><feGaussianBlur result="blurOut" stdDeviation="2.0"/><feColorMatrix in="blurOut" result="blurOut2" type="matrix" values="0 0 0 0 0 0 0 0 0 0 0 0 0 0 0 0 0 0 .4 0"/><feOffset dx="4.0" dy="4.0" in="blurOut2" result="blurOut3"/><feBlend in="SourceGraphic" in2="blurOut3" mode="normal"/></filter></defs><g><!--MD5=[db3b7fd6b79a8983c5199da7ba38ea6a]
class it.tidalwave.northernwind.frontend.filesystem.git.impl--><a href="it/tidalwave/northernwind/frontend/filesystem/git/impl/package-summary.html" target="_top" title="it/tidalwave/northernwind/frontend/filesystem/git/impl/package-summary.html" xlink:actuate="onRequest" xlink:href="it/tidalwave/northernwind/frontend/filesystem/git/impl/package-summary.html" xlink:show="new" xlink:title="it/tidalwave/northernwind/frontend/filesystem/git/impl/package-summary.html" xlink:type="simple"><rect codeLine="11" fill="#FEFECE" filter="url(#f1v9jo0ha3mtt1)" height="24.1328" id="it.tidalwave.northernwind.frontend.filesystem.git.impl" style="stroke: #A80036; stroke-width: 1.5;" width="312" x="226.5" y="7"/><text fill="#000000" font-family="sans-serif" font-size="12" lengthAdjust="spacingAndGlyphs" textLength="306" x="229.5" y="23.6016">it.tidalwave.northernwind.frontend.filesystem.git.impl</text></a><!--MD5=[2eed7e1161d51a30db903d7b4fbf19d1]
class it.tidalwave.northernwind.frontend.filesystem.scm.spi--><a href="http://tidalwave.tidalwave.it/northernwind/it-tidalwave-northernwind-modules/it-tidalwave-northernwind-filesystem/it-tidalwave-northernwind-core-filesystem-scm/apidocs/it/tidalwave/northernwind/frontend/filesystem/scm/spi/package-summary.html?is-external=true" target="_top" title="http://tidalwave.tidalwave.it/northernwind/it-tidalwave-northernwind-modules/it-tidalwave-northernwind-filesystem/it-tidalwave-northernwind-core-filesystem-scm/apidocs/it/tidalwave/northernwind/frontend/filesystem/scm/spi/package-summary.html?is-external=true" xlink:actuate="onRequest" xlink:href="http://tidalwave.tidalwave.it/northernwind/it-tidalwave-northernwind-modules/it-tidalwave-northernwind-filesystem/it-tidalwave-northernwind-core-filesystem-scm/apidocs/it/tidalwave/northernwind/frontend/filesystem/scm/spi/package-summary.html?is-external=true" xlink:show="new" xlink:title="http://tidalwave.tidalwave.it/northernwind/it-tidalwave-northernwind-modules/it-tidalwave-northernwind-filesystem/it-tidalwave-northernwind-core-filesystem-scm/apidocs/it/tidalwave/northernwind/frontend/filesystem/scm/spi/package-summary.html?is-external=true" xlink:type="simple"><rect codeLine="13" fill="#FEFECE" filter="url(#f1v9jo0ha3mtt1)" height="24.1328" id="it.tidalwave.northernwind.frontend.filesystem.scm.spi" style="stroke: #A80036; stroke-width: 1.5;" width="313" x="7" y="91"/><text fill="#000000" font-family="sans-serif" font-size="12" lengthAdjust="spacingAndGlyphs" textLength="307" x="10" y="107.6016">it.tidalwave.northernwind.frontend.filesystem.scm.spi</text></a><!--MD5=[b38b3a8d6b00b78b55a3da79514951c5]
class org.slf4j--><rect fill="#FEFECE" filter="url(#f1v9jo0ha3mtt1)" height="24.1328" id="org.slf4j" style="stroke: #A80036; stroke-width: 1.5;" width="54" x="355.5" y="91"/><text fill="#000000" font-family="sans-serif" font-size="12" lengthAdjust="spacingAndGlyphs" textLength="48" x="358.5" y="107.6016">org.slf4j</text><!--MD5=[e2825e41240dc3ac7b156e1d527e9be0]
class it.tidalwave.util--><rect fill="#FEFECE" filter="url(#f1v9jo0ha3mtt1)" height="24.1328" id="it.tidalwave.util" style="stroke: #A80036; stroke-width: 1.5;" width="92" x="444.5" y="91"/><text fill="#000000" font-family="sans-serif" font-size="12" lengthAdjust="spacingAndGlyphs" textLength="86" x="447.5" y="107.6016">it.tidalwave.util</text><!--MD5=[9f43ebc19a0e158f58f6ef7286500047]
link it.tidalwave.northernwind.frontend.filesystem.git.impl to it.tidalwave.northernwind.frontend.filesystem.scm.spi--><path codeLine="6" d="M351.1226,31.0352 C311.0357,46.411 241.8015,72.9665 199.5775,89.1621 " fill="none" id="it.tidalwave.northernwind.frontend.filesystem.git.impl-to-it.tidalwave.northernwind.frontend.filesystem.scm.spi" style="stroke: #A80036; stroke-width: 1.0;"/><polygon fill="#A80036" points="194.8192,90.9872,204.6548,91.4985,199.4875,89.1965,201.7896,84.0292,194.8192,90.9872" style="stroke: #A80036; stroke-width: 1.0;"/><!--MD5=[fa1a24c9576de5579db3f91bb33b1188]
link it.tidalwave.northernwind.frontend.filesystem.git.impl to org.slf4j--><path codeLine="7" d="M382.5,31.0352 C382.5,45.3818 382.5,69.4615 382.5,85.777 " fill="none" id="it.tidalwave.northernwind.frontend.filesystem.git.impl-to-org.slf4j" style="stroke: #A80036; stroke-width: 1.0;"/><polygon fill="#A80036" points="382.5,90.9872,386.5,81.9872,382.5,85.9872,378.5,81.9872,382.5,90.9872" style="stroke: #A80036; stroke-width: 1.0;"/><!--MD5=[c2689f4dee211e13f3a2dd47a171750e]
link it.tidalwave.northernwind.frontend.filesystem.git.impl to it.tidalwave.util--><path codeLine="8" d="M397.9738,31.0352 C417.2214,46.0055 450.0949,71.5738 471.0339,87.8597 " fill="none" id="it.tidalwave.northernwind.frontend.filesystem.git.impl-to-it.tidalwave.util" style="stroke: #A80036; stroke-width: 1.0;"/><polygon fill="#A80036" points="475.0549,90.9872,470.4068,82.3042,471.1082,87.9174,465.495,88.6189,475.0549,90.9872" style="stroke: #A80036; stroke-width: 1.0;"/><text fill="#888888" font-family="sans-serif" font-size="10" lengthAdjust="spacingAndGlyphs" textLength="188" x="175.75" y="137.8008">UMLDoclet 2.0.12, PlantUML 1.2020.16</text><!--MD5=[befe417c3dc2c001f1ec9a9ebccb2ab8]
@startuml
    set namespaceSeparator none
    hide circle
    hide empty fields
    hide empty methods

    it.tidalwave.northernwind.frontend.filesystem.git.impl - -> it.tidalwave.northernwind.frontend.filesystem.scm.spi
    it.tidalwave.northernwind.frontend.filesystem.git.impl - -> org.slf4j
    it.tidalwave.northernwind.frontend.filesystem.git.impl - -> it.tidalwave.util

    ' Package links
    class "it.tidalwave.northernwind.frontend.filesystem.git.impl" [[it/tidalwave/northernwind/frontend/filesystem/git/impl/package-summary.html]] {
    }
    class "it.tidalwave.northernwind.frontend.filesystem.scm.spi" [[http://tidalwave.tidalwave.it/northernwind/it-tidalwave-northernwind-modules/it-tidalwave-northernwind-filesystem/it-tidalwave-northernwind-core-filesystem-scm/apidocs/it/tidalwave/northernwind/frontend/filesystem/scm/spi/package-summary.html?is-external=true]] {
    }

    center footer UMLDoclet 2.0.12, PlantUML 1.2020.16
@enduml

@startuml
    set namespaceSeparator none
    hide circle
    hide empty fields
    hide empty methods

    it.tidalwave.northernwind.frontend.filesystem.git.impl - -> it.tidalwave.northernwind.frontend.filesystem.scm.spi
    it.tidalwave.northernwind.frontend.filesystem.git.impl - -> org.slf4j
    it.tidalwave.northernwind.frontend.filesystem.git.impl - -> it.tidalwave.util

    class "it.tidalwave.northernwind.frontend.filesystem.git.impl" [[it/tidalwave/northernwind/frontend/filesystem/git/impl/package-summary.html]] {
    }
    class "it.tidalwave.northernwind.frontend.filesystem.scm.spi" [[http://tidalwave.tidalwave.it/northernwind/it-tidalwave-northernwind-modules/it-tidalwave-northernwind-filesystem/it-tidalwave-northernwind-core-filesystem-scm/apidocs/it/tidalwave/northernwind/frontend/filesystem/scm/spi/package-summary.html?is-external=true]] {
    }

    center footer UMLDoclet 2.0.12, PlantUML 1.2020.16
@enduml

PlantUML version 1.2020.16(Sun Aug 23 22:20:43 CEST 2020)
(APACHE source distribution)
Java Runtime: OpenJDK Runtime Environment
JVM: OpenJDK 64-Bit Server VM
Default Encoding: UTF-8
Language: en
Country: GB
--></g></svg>