@startuml
    namespace it.tidalwave.role.spring.spi {

        class SpringSystemRoleFactoryProvider [[SpringSystemRoleFactoryProvider.html]] {
            +getSystemRoleFactory(): SystemRoleFactory
        }

        class AnnotationSpringSystemRoleFactory [[AnnotationSpringSystemRoleFactory.html]] {
            #getBean(Class<T>): Optional<T>
        }

        class DciContextWithAutoThreadBindingAspect [[DciContextWithAutoThreadBindingAspect.html]] {
            +advice(ProceedingJoinPoint): Object
        }

        it.tidalwave.role.spi.SystemRoleFactoryProvider <|.. SpringSystemRoleFactoryProvider
        it.tidalwave.role.spi.SystemRoleFactorySupport <|-- AnnotationSpringSystemRoleFactory
    }

    namespace it.tidalwave.role.spi {
        interface SystemRoleFactoryProvider [[../../spi/SystemRoleFactoryProvider.html]] {
            {abstract} +getSystemRoleFactory(): SystemRoleFactory
        }
        abstract class SystemRoleFactorySupport [[../../spi/SystemRoleFactorySupport.html]] {
        }
    }

    center footer UMLDoclet 2.0.12, PlantUML 1.2020.16
@enduml
