@startuml
    namespace it.tidalwave.northernwind.rca.ui.siteopener {

        interface SiteOpenerPresentationControl [[SiteOpenerPresentationControl.html]] {
            {abstract} +initialize(): void
        }

        interface SiteOpenerPresentation [[SiteOpenerPresentation.html]] {
            {abstract} +bind(Bindings): void
            {abstract} +notifyInvitationToSelectAFolder(UserNotificationWithFeedback): void
        }

        class it.tidalwave.northernwind.rca.ui.siteopener.SiteOpenerPresentation.Bindings [[SiteOpenerPresentation.Bindings.html]] {
            +folderToOpen: BoundProperty<Path>
            +openSiteAction: UserAction
        }

        SiteOpenerPresentation +-- it.tidalwave.northernwind.rca.ui.siteopener.SiteOpenerPresentation.Bindings
    }

    center footer UMLDoclet 2.0.12, PlantUML 1.2020.16
@enduml
