@startuml
    set namespaceSeparator none
    hide empty fields
    hide empty methods

    class "<size:14>MockRequestProcessor4\n<size:10>it.tidalwave.northernwind.frontend.ui.spi.mock" as it.tidalwave.northernwind.frontend.ui.spi.mock.MockRequestProcessor4 [[MockRequestProcessor4.html]]

    class "<size:14>MockRequestProcessorSupport\n<size:10>it.tidalwave.northernwind.frontend.ui.spi.mock" as it.tidalwave.northernwind.frontend.ui.spi.mock.MockRequestProcessorSupport [[MockRequestProcessorSupport.html]]

    it.tidalwave.northernwind.frontend.ui.spi.mock.MockRequestProcessorSupport <|-- it.tidalwave.northernwind.frontend.ui.spi.mock.MockRequestProcessor4

    center footer UMLDoclet 2.0.12, PlantUML 1.2020.16
@enduml
