@startuml
    set namespaceSeparator none
    hide empty fields
    hide empty methods

    interface "<size:14>ContentEditorPresentationControl\n<size:10>it.tidalwave.northernwind.rca.ui.contenteditor" as it.tidalwave.northernwind.rca.ui.contenteditor.ContentEditorPresentationControl [[ContentEditorPresentationControl.html]] {
        {abstract} +initialize(): void
    }

    center footer UMLDoclet 2.0.12, PlantUML 1.2020.16
@enduml
