@startuml
    ' Copyright to this UML and generated images belongs to the author of the corresponding Java sources.

    ' This UML was generated by UMLDoclet (C) Copyright 2016-2024 Talsma ICT.
    ' UMLDoclet 2.2.1 is licensed under the Apache License, version 2.0
    ' and contains parts of PlantUML 1.2024.7 (ASL) Copyright 2009-2024, Arnaud Roques.

    !pragma layout smetana

    set namespaceSeparator none
    hide empty fields
    hide empty methods

    interface "<size:14>ContextManager\n<size:10>it.tidalwave.util" as it.tidalwave.util.ContextManager [[ContextManager.html]] {
        {static} +getInstance(): ContextManager
        {static} +set(ContextManagerProvider): void
        {static} +reset(): void
        {abstract} +getContexts(): List<Object>
        {abstract} +findContextOfType(Class<T>): Optional<T>
        {abstract} +addGlobalContext(Object): void
        {abstract} +removeGlobalContext(Object): void
        {abstract} +addLocalContext(Object): void
        {abstract} +removeLocalContext(Object): void
        +--runWithContext--(Object, Task<V, T extends Throwable>): V
        +--runWithContexts--(List<Object>, Task<V, T extends Throwable>): V
        +--runWithContext--(Object, Supplier<V>): V
        +--runWithContexts--(List<Object>, Supplier<V>): V
        +runWithContexts(Runnable, Object...): void
        +runWithContexts(Supplier<T>, Object...): T
        +runEWithContexts(RunnableWithException<E extends Throwable>, Object...): void
        {abstract} +runEWithContexts(SupplierWithException<T, E extends Throwable>, Object...): T
        +binder(Object...): Binder
    }
    class "<size:14>ContextManager.Inner\n<size:10>it.tidalwave.util" as it.tidalwave.util.ContextManager.Inner [[ContextManager.Inner.html]]
    interface "<size:14>ContextManager.RunnableWithException\n<size:10>it.tidalwave.util" as it.tidalwave.util.ContextManager.RunnableWithException<E extends Throwable> [[ContextManager.RunnableWithException.html]]
    interface "<size:14>ContextManager.SupplierWithException\n<size:10>it.tidalwave.util" as it.tidalwave.util.ContextManager.SupplierWithException<T, E extends Throwable> [[ContextManager.SupplierWithException.html]]
    class "<size:14>ContextManager.Binder\n<size:10>it.tidalwave.util" as it.tidalwave.util.ContextManager.Binder [[ContextManager.Binder.html]]

    it.tidalwave.util.ContextManager +-- it.tidalwave.util.ContextManager.Inner
    it.tidalwave.util.ContextManager +-- it.tidalwave.util.ContextManager.RunnableWithException
    it.tidalwave.util.ContextManager +-- it.tidalwave.util.ContextManager.SupplierWithException
    it.tidalwave.util.ContextManager +-- it.tidalwave.util.ContextManager.Binder

    <style>
        footer {
            HyperLinkColor #8
            HyperLinkUnderlineThickness 0
        }
    </style>
    footer \n[[https://github.com/talsma-ict/umldoclet UMLDoclet 2.2.1]]
    ' Generated 2024-12-19T00:13:34.630741+01:00[Europe/Rome]
@enduml
