<?xml version="1.0" encoding="UTF-8" standalone="no"?><svg xmlns="http://www.w3.org/2000/svg" xmlns:xlink="http://www.w3.org/1999/xlink" contentScriptType="application/ecmascript" contentStyleType="text/css" height="221px" preserveAspectRatio="none" style="width:351px;height:221px;" version="1.1" viewBox="0 0 351 221" width="351px" zoomAndPan="magnify"><defs><filter height="300%" id="fnp92lnukyibk" width="300%" x="-1" y="-1"><feGaussianBlur result="blurOut" stdDeviation="2.0"/><feColorMatrix in="blurOut" result="blurOut2" type="matrix" values="0 0 0 0 0 0 0 0 0 0 0 0 0 0 0 0 0 0 .4 0"/><feOffset dx="4.0" dy="4.0" in="blurOut2" result="blurOut3"/><feBlend in="SourceGraphic" in2="blurOut3" mode="normal"/></filter></defs><g><!--MD5=[3a538ebd2e48893826b3cd9433e5e0ea]
class it.tidalwave.thesefoolishthings.examples.dci.marshal.role.XStreamUnmarshallableSupport--><a href="XStreamUnmarshallableSupport.html" target="_top" title="XStreamUnmarshallableSupport.html" xlink:actuate="onRequest" xlink:href="XStreamUnmarshallableSupport.html" xlink:show="new" xlink:title="XStreamUnmarshallableSupport.html" xlink:type="simple"><rect codeLine="5" fill="#FEFECE" filter="url(#fnp92lnukyibk)" height="59.2207" id="it.tidalwave.thesefoolishthings.examples.dci.marshal.role.XStreamUnmarshallableSupport" style="stroke: #A80036; stroke-width: 1.5;" width="325" x="7" y="126"/><ellipse cx="22" cy="145.1328" fill="#A9DCDF" rx="11" ry="11" style="stroke: #A80036; stroke-width: 1.0;"/><path d="M21.8633,140.481 L20.7095,145.5527 L23.0254,145.5527 Z M20.3691,138.2397 L23.3657,138.2397 L26.7109,150.6328 L24.2622,150.6328 L23.4985,147.5698 L20.2197,147.5698 L19.4727,150.6328 L17.0239,150.6328 Z "/><text fill="#000000" font-family="sans-serif" font-size="14" font-style="italic" lengthAdjust="spacingAndGlyphs" textLength="219" x="67" y="144.5352">XStreamUnmarshallableSupport</text><text fill="#000000" font-family="sans-serif" font-size="10" font-style="italic" lengthAdjust="spacingAndGlyphs" textLength="281" x="36" y="157.1563">it.tidalwave.thesefoolishthings.examples.dci.marshal.role</text><rect fill="#FFFFFF" height="16.1328" style="stroke: #000000; stroke-width: 1.0; stroke-dasharray: 2.0,2.0;" width="10" x="325" y="123"/><text fill="#000000" font-family="sans-serif" font-size="12" font-style="italic" lengthAdjust="spacingAndGlyphs" textLength="8" x="326" y="135.6016">T</text><line style="stroke: #A80036; stroke-width: 1.5;" x1="8" x2="331" y1="164.2656" y2="164.2656"/><ellipse cx="18" cy="175.2656" fill="#84BE84" rx="3" ry="3" style="stroke: #038048; stroke-width: 1.0;"/><text fill="#000000" font-family="sans-serif" font-size="11" lengthAdjust="spacingAndGlyphs" textLength="143" x="27" y="178.9004">unmarshal(InputStream): T</text></a><!--MD5=[b3950ca7eb4308f1b70587082a242658]
class it.tidalwave.role.io.Unmarshallable--><a href="../../../../../role/io/Unmarshallable.html" target="_top" title="../../../../../role/io/Unmarshallable.html" xlink:actuate="onRequest" xlink:href="../../../../../role/io/Unmarshallable.html" xlink:show="new" xlink:title="../../../../../role/io/Unmarshallable.html" xlink:type="simple"><rect codeLine="9" fill="#FEFECE" filter="url(#fnp92lnukyibk)" height="59.2207" id="it.tidalwave.role.io.Unmarshallable" style="stroke: #A80036; stroke-width: 1.5;" width="169" x="85" y="7"/><ellipse cx="113.5" cy="26.1328" fill="#B4A7E5" rx="11" ry="11" style="stroke: #A80036; stroke-width: 1.0;"/><path d="M109.9277,22.3979 L109.9277,20.2397 L117.3071,20.2397 L117.3071,22.3979 L114.8418,22.3979 L114.8418,30.4746 L117.3071,30.4746 L117.3071,32.6328 L109.9277,32.6328 L109.9277,30.4746 L112.3931,30.4746 L112.3931,22.3979 Z "/><text fill="#000000" font-family="sans-serif" font-size="14" font-style="italic" lengthAdjust="spacingAndGlyphs" textLength="107" x="130.5" y="25.5352">Unmarshallable</text><text fill="#000000" font-family="sans-serif" font-size="10" font-style="italic" lengthAdjust="spacingAndGlyphs" textLength="91" x="138.5" y="38.1563">it.tidalwave.role.io</text><line style="stroke: #A80036; stroke-width: 1.5;" x1="86" x2="253" y1="45.2656" y2="45.2656"/><ellipse cx="96" cy="56.2656" fill="#84BE84" rx="3" ry="3" style="stroke: #038048; stroke-width: 1.0;"/><text fill="#000000" font-family="sans-serif" font-size="11" font-style="italic" lengthAdjust="spacingAndGlyphs" textLength="143" x="105" y="59.9004">unmarshal(InputStream): T</text></a><!--MD5=[2343fc11fd883878c458adffddbd6f78]
reverse link it.tidalwave.role.io.Unmarshallable to it.tidalwave.thesefoolishthings.examples.dci.marshal.role.XStreamUnmarshallableSupport--><path codeLine="13" d="M169.5,86.3288 C169.5,99.7348 169.5,113.8139 169.5,125.7447 " fill="none" id="it.tidalwave.role.io.Unmarshallable-backto-it.tidalwave.thesefoolishthings.examples.dci.marshal.role.XStreamUnmarshallableSupport" style="stroke: #A80036; stroke-width: 1.0; stroke-dasharray: 7.0,7.0;"/><polygon fill="none" points="162.5001,86.2218,169.5,66.2218,176.5001,86.2217,162.5001,86.2218" style="stroke: #A80036; stroke-width: 1.0;"/><text fill="#888888" font-family="sans-serif" font-size="10" lengthAdjust="spacingAndGlyphs" textLength="188" x="72.5" y="207.8887">UMLDoclet 2.0.12, PlantUML 1.2020.16</text><!--MD5=[b1926dc89c68b3eb2dc57e5d3d51ddc7]
@startuml
    set namespaceSeparator none
    hide empty fields
    hide empty methods

    abstract class "<size:14>XStreamUnmarshallableSupport\n<size:10>it.tidalwave.thesefoolishthings.examples.dci.marshal.role" as it.tidalwave.thesefoolishthings.examples.dci.marshal.role.XStreamUnmarshallableSupport<T> [[XStreamUnmarshallableSupport.html]] {
        +unmarshal(InputStream): T
    }

    interface "<size:14>Unmarshallable\n<size:10>it.tidalwave.role.io" as it.tidalwave.role.io.Unmarshallable [[../../../../../role/io/Unmarshallable.html]] {
        {abstract} +unmarshal(InputStream): T
    }

    it.tidalwave.role.io.Unmarshallable <|.. it.tidalwave.thesefoolishthings.examples.dci.marshal.role.XStreamUnmarshallableSupport

    center footer UMLDoclet 2.0.12, PlantUML 1.2020.16
@enduml

PlantUML version 1.2020.16(Sun Aug 23 22:20:43 CEST 2020)
(APACHE source distribution)
Java Runtime: OpenJDK Runtime Environment
JVM: OpenJDK 64-Bit Server VM
Default Encoding: UTF-8
Language: en
Country: GB
--></g></svg>