@startuml
    set namespaceSeparator none
    hide circle
    hide empty fields
    hide empty methods

    it.tidalwave.northernwind.util.test --> java.lang
    it.tidalwave.northernwind.util.test --> java.nio.file
    it.tidalwave.northernwind.util.test --> java.io

    ' Package links
    class "it.tidalwave.northernwind.util.test" [[it/tidalwave/northernwind/util/test/package-summary.html]] {
    }

    center footer UMLDoclet 2.0.12, PlantUML 1.2020.16
@enduml
