<?xml version="1.0" encoding="UTF-8" standalone="no"?><svg xmlns="http://www.w3.org/2000/svg" xmlns:xlink="http://www.w3.org/1999/xlink" contentScriptType="application/ecmascript" contentStyleType="text/css" height="337px" preserveAspectRatio="none" style="width:298px;height:337px;" version="1.1" viewBox="0 0 298 337" width="298px" zoomAndPan="magnify"><defs><filter height="300%" id="fg7bk6rdokbit" width="300%" x="-1" y="-1"><feGaussianBlur result="blurOut" stdDeviation="2.0"/><feColorMatrix in="blurOut" result="blurOut2" type="matrix" values="0 0 0 0 0 0 0 0 0 0 0 0 0 0 0 0 0 0 .4 0"/><feOffset dx="4.0" dy="4.0" in="blurOut2" result="blurOut3"/><feBlend in="SourceGraphic" in2="blurOut3" mode="normal"/></filter></defs><g><!--MD5=[a8ff9ba90a6bfa4e7ee77060b1a2f5c5]
class it.tidalwave.mistral.example.histogramviewer.XYPlotter--><a href="XYPlotter.html" target="_top" title="XYPlotter.html" xlink:actuate="onRequest" xlink:href="XYPlotter.html" xlink:show="new" xlink:title="XYPlotter.html" xlink:type="simple"><rect codeLine="5" fill="#FEFECE" filter="url(#fg7bk6rdokbit)" height="196.7715" id="it.tidalwave.mistral.example.histogramviewer.XYPlotter" style="stroke: #A80036; stroke-width: 1.5;" width="272" x="7" y="105"/><ellipse cx="29.65" cy="124.1328" fill="#ADD1B2" rx="11" ry="11" style="stroke: #A80036; stroke-width: 1.0;"/><path d="M32.1231,130.2759 Q31.5421,130.5747 30.9029,130.7241 Q30.2638,130.8735 29.5582,130.8735 Q27.0514,130.8735 25.7315,129.2217 Q24.4117,127.5698 24.4117,124.4487 Q24.4117,121.3193 25.7315,119.6675 Q27.0514,118.0156 29.5582,118.0156 Q30.2638,118.0156 30.9112,118.165 Q31.5587,118.3145 32.1231,118.6133 L32.1231,121.3359 Q31.4923,120.7549 30.8988,120.4851 Q30.3053,120.2153 29.6744,120.2153 Q28.3297,120.2153 27.6449,121.282 Q26.9601,122.3486 26.9601,124.4487 Q26.9601,126.5405 27.6449,127.6072 Q28.3297,128.6738 29.6744,128.6738 Q30.3053,128.6738 30.8988,128.4041 Q31.4923,128.1343 32.1231,127.5532 Z "/><text fill="#000000" font-family="sans-serif" font-size="14" lengthAdjust="spacingAndGlyphs" textLength="63" x="125.35" y="123.5352">XYPlotter</text><text fill="#000000" font-family="sans-serif" font-size="10" lengthAdjust="spacingAndGlyphs" textLength="223" x="45.35" y="136.1563">it.tidalwave.mistral.example.histogramviewer</text><line style="stroke: #A80036; stroke-width: 1.5;" x1="8" x2="278" y1="143.2656" y2="143.2656"/><ellipse cx="18" cy="154.2656" fill="none" rx="3" ry="3" style="stroke: #038048; stroke-width: 1.0;"/><text fill="#000000" font-family="sans-serif" font-size="11" lengthAdjust="spacingAndGlyphs" text-decoration="underline" textLength="58" x="27" y="157.9004">LINEAR: int</text><ellipse cx="18" cy="167.2207" fill="none" rx="3" ry="3" style="stroke: #038048; stroke-width: 1.0;"/><text fill="#000000" font-family="sans-serif" font-size="11" lengthAdjust="spacingAndGlyphs" text-decoration="underline" textLength="43" x="27" y="170.8555">LOG: int</text><line style="stroke: #A80036; stroke-width: 1.5;" x1="8" x2="278" y1="177.1758" y2="177.1758"/><ellipse cx="18" cy="188.1758" fill="#84BE84" rx="3" ry="3" style="stroke: #038048; stroke-width: 1.0;"/><text fill="#000000" font-family="sans-serif" font-size="11" lengthAdjust="spacingAndGlyphs" textLength="117" x="27" y="191.8105">setXAxisLinear(): void</text><ellipse cx="18" cy="201.1309" fill="#84BE84" rx="3" ry="3" style="stroke: #038048; stroke-width: 1.0;"/><text fill="#000000" font-family="sans-serif" font-size="11" lengthAdjust="spacingAndGlyphs" textLength="162" x="27" y="204.7656">setXAxisLogarithmic(int): void</text><ellipse cx="18" cy="214.0859" fill="#84BE84" rx="3" ry="3" style="stroke: #038048; stroke-width: 1.0;"/><text fill="#000000" font-family="sans-serif" font-size="11" lengthAdjust="spacingAndGlyphs" textLength="98" x="27" y="217.7207">setAreaPlot(): void</text><ellipse cx="18" cy="227.041" fill="#84BE84" rx="3" ry="3" style="stroke: #038048; stroke-width: 1.0;"/><text fill="#000000" font-family="sans-serif" font-size="11" lengthAdjust="spacingAndGlyphs" textLength="161" x="27" y="230.6758">isXAxisLogarithmic(): boolean</text><ellipse cx="18" cy="239.9961" fill="#84BE84" rx="3" ry="3" style="stroke: #038048; stroke-width: 1.0;"/><text fill="#000000" font-family="sans-serif" font-size="11" lengthAdjust="spacingAndGlyphs" textLength="87" x="27" y="243.6309">clearData(): void</text><ellipse cx="18" cy="252.9512" fill="#84BE84" rx="3" ry="3" style="stroke: #038048; stroke-width: 1.0;"/><text fill="#000000" font-family="sans-serif" font-size="11" lengthAdjust="spacingAndGlyphs" textLength="246" x="27" y="256.5859">addUnsignedData(Object, short[], Color): void</text><ellipse cx="18" cy="265.9063" fill="#84BE84" rx="3" ry="3" style="stroke: #038048; stroke-width: 1.0;"/><text fill="#000000" font-family="sans-serif" font-size="11" lengthAdjust="spacingAndGlyphs" textLength="180" x="27" y="269.541">addData(Object, int[], Color): void</text><ellipse cx="18" cy="278.8613" fill="#84BE84" rx="3" ry="3" style="stroke: #038048; stroke-width: 1.0;"/><text fill="#000000" font-family="sans-serif" font-size="11" lengthAdjust="spacingAndGlyphs" textLength="112" x="27" y="282.4961">paint(Graphics): void</text><ellipse cx="18" cy="291.8164" fill="#84BE84" rx="3" ry="3" style="stroke: #038048; stroke-width: 1.0;"/><text fill="#000000" font-family="sans-serif" font-size="11" lengthAdjust="spacingAndGlyphs" textLength="135" x="27" y="295.4512">setOverlay(Overlay): void</text></a><!--MD5=[3ea458d433f53e831f622a7b045ec21c]
class javax.swing.JComponent--><rect codeLine="19" fill="#FEFECE" filter="url(#fg7bk6rdokbit)" height="38.2656" id="javax.swing.JComponent" style="stroke: #A80036; stroke-width: 1.5;" width="117" x="84.5" y="7"/><ellipse cx="99.5" cy="26.1328" fill="#A9DCDF" rx="11" ry="11" style="stroke: #A80036; stroke-width: 1.0;"/><path d="M99.3633,21.481 L98.2095,26.5527 L100.5254,26.5527 Z M97.8691,19.2397 L100.8657,19.2397 L104.2109,31.6328 L101.7622,31.6328 L100.9985,28.5698 L97.7197,28.5698 L96.9727,31.6328 L94.5239,31.6328 Z "/><text fill="#000000" font-family="sans-serif" font-size="14" font-style="italic" lengthAdjust="spacingAndGlyphs" textLength="85" x="113.5" y="25.5352">JComponent</text><text fill="#000000" font-family="sans-serif" font-size="10" font-style="italic" lengthAdjust="spacingAndGlyphs" textLength="57" x="127.5" y="38.1563">javax.swing</text><!--MD5=[4ab84304b0361c1fa2a52bac6aa35617]
reverse link javax.swing.JComponent to it.tidalwave.mistral.example.histogramviewer.XYPlotter--><path codeLine="21" d="M143,65.6337 C143,77.4685 143,91.0042 143,104.8655 " fill="none" id="javax.swing.JComponent-backto-it.tidalwave.mistral.example.histogramviewer.XYPlotter" style="stroke: #A80036; stroke-width: 1.0;"/><polygon fill="none" points="136.0001,65.3335,143,45.3335,150.0001,65.3335,136.0001,65.3335" style="stroke: #A80036; stroke-width: 1.0;"/><text fill="#888888" font-family="sans-serif" font-size="10" lengthAdjust="spacingAndGlyphs" textLength="188" x="46" y="324.4395">UMLDoclet 2.0.12, PlantUML 1.2020.16</text><!--MD5=[392c0f7a7dbbf43b66383187762ab337]
@startuml
    set namespaceSeparator none
    hide empty fields
    hide empty methods

    class "<size:14>XYPlotter\n<size:10>it.tidalwave.mistral.example.histogramviewer" as it.tidalwave.mistral.example.histogramviewer.XYPlotter [[XYPlotter.html]] {
        {static} +LINEAR: int
        {static} +LOG: int
        +setXAxisLinear(): void
        +setXAxisLogarithmic(int): void
        +setAreaPlot(): void
        +isXAxisLogarithmic(): boolean
        +clearData(): void
        +addUnsignedData(Object, short[], Color): void
        +addData(Object, int[], Color): void
        +paint(Graphics): void
        +setOverlay(Overlay): void
    }

    abstract class "<size:14>JComponent\n<size:10>javax.swing" as javax.swing.JComponent

    javax.swing.JComponent <|- - it.tidalwave.mistral.example.histogramviewer.XYPlotter

    center footer UMLDoclet 2.0.12, PlantUML 1.2020.16
@enduml

PlantUML version 1.2020.16(Sun Aug 23 22:20:43 CEST 2020)
(APACHE source distribution)
Java Runtime: OpenJDK Runtime Environment
JVM: OpenJDK 64-Bit Server VM
Default Encoding: UTF-8
Language: en
Country: GB
--></g></svg>