@startuml
    namespace it.tidalwave.dci.annotation {

        annotation DciContext [[DciContext.html]]

        annotation DciRole [[DciRole.html]]

        class it.tidalwave.dci.annotation.DciRole.NoContext [[DciRole.NoContext.html]]

        DciRole +-- it.tidalwave.dci.annotation.DciRole.NoContext
    }

    center footer UMLDoclet 2.0.12, PlantUML 1.2020.16
@enduml
