@startuml
    namespace it.tidalwave.thesefoolishthings.examples.dci.swing.role {

        interface ObservableListProvider [[ObservableListProvider.html]] {
            {static} +_ObservableListProvider_: Class<ObservableListProvider>
            {abstract} +createObservableList(): ObservableList<T>
        }

        class TableColumnDescriptor [[TableColumnDescriptor.html]] {
        }

        interface TableHeaderDescriptor [[TableHeaderDescriptor.html]] {
            {static} +_TableHeaderDescriptor_: Class<TableHeaderDescriptor>
            {abstract} +getColumnDescriptors(): List<TableColumnDescriptor>
        }

    }

    center footer UMLDoclet 2.0.12, PlantUML 1.2020.16
@enduml
