<?xml version="1.0" encoding="UTF-8" standalone="no"?><svg xmlns="http://www.w3.org/2000/svg" xmlns:xlink="http://www.w3.org/1999/xlink" contentScriptType="application/ecmascript" contentStyleType="text/css" height="234px" preserveAspectRatio="none" style="width:441px;height:234px;" version="1.1" viewBox="0 0 441 234" width="441px" zoomAndPan="magnify"><defs><filter height="300%" id="f1w4wtdupfadyy" width="300%" x="-1" y="-1"><feGaussianBlur result="blurOut" stdDeviation="2.0"/><feColorMatrix in="blurOut" result="blurOut2" type="matrix" values="0 0 0 0 0 0 0 0 0 0 0 0 0 0 0 0 0 0 .4 0"/><feOffset dx="4.0" dy="4.0" in="blurOut2" result="blurOut3"/><feBlend in="SourceGraphic" in2="blurOut3" mode="normal"/></filter></defs><g><!--MD5=[8cceb5141f9e16d2992b56a1045082e6]
class it.tidalwave.thesefoolishthings.examples.person.JpaPersistableSupport--><a href="JpaPersistableSupport.html" target="_top" title="JpaPersistableSupport.html" xlink:actuate="onRequest" xlink:href="JpaPersistableSupport.html" xlink:show="new" xlink:title="JpaPersistableSupport.html" xlink:type="simple"><rect codeLine="5" fill="#FEFECE" filter="url(#f1w4wtdupfadyy)" height="72.1758" id="it.tidalwave.thesefoolishthings.examples.person.JpaPersistableSupport" style="stroke: #A80036; stroke-width: 1.5;" width="268" x="80.5" y="126"/><ellipse cx="95.5" cy="145.1328" fill="#A9DCDF" rx="11" ry="11" style="stroke: #A80036; stroke-width: 1.0;"/><path d="M95.3633,140.481 L94.2095,145.5527 L96.5254,145.5527 Z M93.8691,138.2397 L96.8657,138.2397 L100.2109,150.6328 L97.7622,150.6328 L96.9985,147.5698 L93.7197,147.5698 L92.9727,150.6328 L90.5239,150.6328 Z "/><text fill="#000000" font-family="sans-serif" font-size="14" font-style="italic" lengthAdjust="spacingAndGlyphs" textLength="150" x="152.5" y="144.5352">JpaPersistableSupport</text><text fill="#000000" font-family="sans-serif" font-size="10" font-style="italic" lengthAdjust="spacingAndGlyphs" textLength="236" x="109.5" y="157.1563">it.tidalwave.thesefoolishthings.examples.person</text><line style="stroke: #A80036; stroke-width: 1.5;" x1="81.5" x2="347.5" y1="164.2656" y2="164.2656"/><ellipse cx="91.5" cy="175.2656" fill="#84BE84" rx="3" ry="3" style="stroke: #038048; stroke-width: 1.0;"/><text fill="#000000" font-family="sans-serif" font-size="11" lengthAdjust="spacingAndGlyphs" textLength="74" x="100.5" y="178.9004">persist(): void</text><ellipse cx="91.5" cy="188.2207" fill="#84BE84" rx="3" ry="3" style="stroke: #038048; stroke-width: 1.0;"/><text fill="#000000" font-family="sans-serif" font-size="11" lengthAdjust="spacingAndGlyphs" textLength="77" x="100.5" y="191.8555">remove(): void</text></a><!--MD5=[5a5af9b0547913863cbe0ddf55a9ab5e]
class java.io.Serializable--><rect codeLine="10" fill="#FEFECE" filter="url(#f1w4wtdupfadyy)" height="38.2656" id="java.io.Serializable" style="stroke: #A80036; stroke-width: 1.5;" width="111" x="7" y="17.5"/><ellipse cx="22" cy="36.6328" fill="#B4A7E5" rx="11" ry="11" style="stroke: #A80036; stroke-width: 1.0;"/><path d="M18.4277,32.8979 L18.4277,30.7397 L25.8071,30.7397 L25.8071,32.8979 L23.3418,32.8979 L23.3418,40.9746 L25.8071,40.9746 L25.8071,43.1328 L18.4277,43.1328 L18.4277,40.9746 L20.8931,40.9746 L20.8931,32.8979 Z "/><text fill="#000000" font-family="sans-serif" font-size="14" font-style="italic" lengthAdjust="spacingAndGlyphs" textLength="79" x="36" y="36.0352">Serializable</text><text fill="#000000" font-family="sans-serif" font-size="10" font-style="italic" lengthAdjust="spacingAndGlyphs" textLength="32" x="59.5" y="48.6563">java.io</text><!--MD5=[675092851b022aecb08720cc4f18e782]
class it.tidalwave.role.io.Persistable--><a href="../../../role/io/Persistable.html" target="_top" title="../../../role/io/Persistable.html" xlink:actuate="onRequest" xlink:href="../../../role/io/Persistable.html" xlink:show="new" xlink:title="../../../role/io/Persistable.html" xlink:type="simple"><rect codeLine="11" fill="#FEFECE" filter="url(#f1w4wtdupfadyy)" height="59.2207" id="it.tidalwave.role.io.Persistable" style="stroke: #A80036; stroke-width: 1.5;" width="123" x="153" y="7"/><ellipse cx="168" cy="26.1328" fill="#B4A7E5" rx="11" ry="11" style="stroke: #A80036; stroke-width: 1.0;"/><path d="M164.4277,22.3979 L164.4277,20.2397 L171.8071,20.2397 L171.8071,22.3979 L169.3418,22.3979 L169.3418,30.4746 L171.8071,30.4746 L171.8071,32.6328 L164.4277,32.6328 L164.4277,30.4746 L166.8931,30.4746 L166.8931,22.3979 Z "/><text fill="#000000" font-family="sans-serif" font-size="14" font-style="italic" lengthAdjust="spacingAndGlyphs" textLength="74" x="190.5" y="25.5352">Persistable</text><text fill="#000000" font-family="sans-serif" font-size="10" font-style="italic" lengthAdjust="spacingAndGlyphs" textLength="91" x="182" y="38.1563">it.tidalwave.role.io</text><line style="stroke: #A80036; stroke-width: 1.5;" x1="154" x2="275" y1="45.2656" y2="45.2656"/><ellipse cx="164" cy="56.2656" fill="#84BE84" rx="3" ry="3" style="stroke: #038048; stroke-width: 1.0;"/><text fill="#000000" font-family="sans-serif" font-size="11" font-style="italic" lengthAdjust="spacingAndGlyphs" textLength="74" x="173" y="59.9004">persist(): void</text></a><!--MD5=[9f1499dda238812d62a98ae179449596]
class it.tidalwave.role.Removable--><a href="../../../role/Removable.html" target="_top" title="../../../role/Removable.html" xlink:actuate="onRequest" xlink:href="../../../role/Removable.html" xlink:show="new" xlink:title="../../../role/Removable.html" xlink:type="simple"><rect codeLine="14" fill="#FEFECE" filter="url(#f1w4wtdupfadyy)" height="59.2207" id="it.tidalwave.role.Removable" style="stroke: #A80036; stroke-width: 1.5;" width="111" x="311" y="7"/><ellipse cx="326" cy="26.1328" fill="#B4A7E5" rx="11" ry="11" style="stroke: #A80036; stroke-width: 1.0;"/><path d="M322.4277,22.3979 L322.4277,20.2397 L329.8071,20.2397 L329.8071,22.3979 L327.3418,22.3979 L327.3418,30.4746 L329.8071,30.4746 L329.8071,32.6328 L322.4277,32.6328 L322.4277,30.4746 L324.8931,30.4746 L324.8931,22.3979 Z "/><text fill="#000000" font-family="sans-serif" font-size="14" font-style="italic" lengthAdjust="spacingAndGlyphs" textLength="75" x="342" y="25.5352">Removable</text><text fill="#000000" font-family="sans-serif" font-size="10" font-style="italic" lengthAdjust="spacingAndGlyphs" textLength="79" x="340" y="38.1563">it.tidalwave.role</text><line style="stroke: #A80036; stroke-width: 1.5;" x1="312" x2="421" y1="45.2656" y2="45.2656"/><ellipse cx="322" cy="56.2656" fill="#84BE84" rx="3" ry="3" style="stroke: #038048; stroke-width: 1.0;"/><text fill="#000000" font-family="sans-serif" font-size="11" font-style="italic" lengthAdjust="spacingAndGlyphs" textLength="77" x="331" y="59.9004">remove(): void</text></a><!--MD5=[2d14123ed7b4d71d5ddc7a0409d6de61]
reverse link java.io.Serializable to it.tidalwave.thesefoolishthings.examples.person.JpaPersistableSupport--><path codeLine="18" d="M101.2873,68.525 C122.4596,86.0061 148.7475,107.7109 170.6612,125.8041 " fill="none" id="java.io.Serializable-backto-it.tidalwave.thesefoolishthings.examples.person.JpaPersistableSupport" style="stroke: #A80036; stroke-width: 1.0; stroke-dasharray: 7.0,7.0;"/><polygon fill="none" points="96.5512,73.6924,85.5855,55.5607,105.4648,62.8966,96.5512,73.6924" style="stroke: #A80036; stroke-width: 1.0;"/><!--MD5=[e7ca26d404a8473d692ea573a7938dac]
reverse link it.tidalwave.role.io.Persistable to it.tidalwave.thesefoolishthings.examples.person.JpaPersistableSupport--><path codeLine="19" d="M214.5,86.5049 C214.5,99.6211 214.5,113.5128 214.5,125.7555 " fill="none" id="it.tidalwave.role.io.Persistable-backto-it.tidalwave.thesefoolishthings.examples.person.JpaPersistableSupport" style="stroke: #A80036; stroke-width: 1.0; stroke-dasharray: 7.0,7.0;"/><polygon fill="none" points="207.5001,86.2418,214.5,66.2417,221.5001,86.2417,207.5001,86.2418" style="stroke: #A80036; stroke-width: 1.0;"/><!--MD5=[d3d235c10b1350f44f9b0a951e5b5628]
reverse link it.tidalwave.role.Removable to it.tidalwave.thesefoolishthings.examples.person.JpaPersistableSupport--><path codeLine="20" d="M314.9318,79.0777 C296.4661,94.3241 275.847,111.3484 258.1191,125.9855 " fill="none" id="it.tidalwave.role.Removable-backto-it.tidalwave.thesefoolishthings.examples.person.JpaPersistableSupport" style="stroke: #A80036; stroke-width: 1.0; stroke-dasharray: 7.0,7.0;"/><polygon fill="none" points="310.5988,73.5776,330.4781,66.2417,319.5124,84.3734,310.5988,73.5776" style="stroke: #A80036; stroke-width: 1.0;"/><text fill="#888888" font-family="sans-serif" font-size="10" lengthAdjust="spacingAndGlyphs" textLength="188" x="117.5" y="220.8438">UMLDoclet 2.0.12, PlantUML 1.2020.16</text><!--MD5=[3367efc71429efd178ee2a7f542cffa5]
@startuml
    set namespaceSeparator none
    hide empty fields
    hide empty methods

    abstract class "<size:14>JpaPersistableSupport\n<size:10>it.tidalwave.thesefoolishthings.examples.person" as it.tidalwave.thesefoolishthings.examples.person.JpaPersistableSupport [[JpaPersistableSupport.html]] {
        +persist(): void
        +remove(): void
    }

    interface "<size:14>Serializable\n<size:10>java.io" as java.io.Serializable
    interface "<size:14>Persistable\n<size:10>it.tidalwave.role.io" as it.tidalwave.role.io.Persistable [[../../../role/io/Persistable.html]] {
        {abstract} +persist(): void
    }
    interface "<size:14>Removable\n<size:10>it.tidalwave.role" as it.tidalwave.role.Removable [[../../../role/Removable.html]] {
        {abstract} +remove(): void
    }

    java.io.Serializable <|.. it.tidalwave.thesefoolishthings.examples.person.JpaPersistableSupport
    it.tidalwave.role.io.Persistable <|.. it.tidalwave.thesefoolishthings.examples.person.JpaPersistableSupport
    it.tidalwave.role.Removable <|.. it.tidalwave.thesefoolishthings.examples.person.JpaPersistableSupport

    center footer UMLDoclet 2.0.12, PlantUML 1.2020.16
@enduml

PlantUML version 1.2020.16(Sun Aug 23 22:20:43 CEST 2020)
(APACHE source distribution)
Java Runtime: OpenJDK Runtime Environment
JVM: OpenJDK 64-Bit Server VM
Default Encoding: UTF-8
Language: en
Country: GB
--></g></svg>