@startuml
    set namespaceSeparator none
    hide empty fields
    hide empty methods

    class "<size:14>ListOfPersons\n<size:10>it.tidalwave.thesefoolishthings.examples.person" as it.tidalwave.thesefoolishthings.examples.person.ListOfPersons [[ListOfPersons.html]] {
        +ListOfPersons(List<Person>)
    }

    interface "<size:14>List\n<size:10>java.util" as java.util.List<Person> {
        {abstract} +size(): int
        {abstract} +isEmpty(): boolean
        {abstract} +contains(Object): boolean
        {abstract} +iterator(): Iterator<E>
        {abstract} +toArray(): Object[]
        {abstract} +toArray(T[]): T[]
        {abstract} +add(Person): boolean
        {abstract} +remove(Object): boolean
        {abstract} +containsAll(Collection<?>): boolean
        {abstract} +addAll(Collection<? extends E>): boolean
        {abstract} +addAll(int, Collection<? extends E>): boolean
        {abstract} +removeAll(Collection<?>): boolean
        {abstract} +retainAll(Collection<?>): boolean
        {abstract} +clear(): void
        {abstract} +get(int): Person
        {abstract} +set(int, Person): Person
        {abstract} +add(int, Person): void
        {abstract} +remove(int): Person
        {abstract} +indexOf(Object): int
        {abstract} +lastIndexOf(Object): int
        {abstract} +listIterator(): ListIterator<E>
        {abstract} +listIterator(int): ListIterator<E>
        {abstract} +subList(int, int): List<E>
    }

    java.util.List <|.. it.tidalwave.thesefoolishthings.examples.person.ListOfPersons

    center footer UMLDoclet 2.0.12, PlantUML 1.2020.16
@enduml
