@startuml
    namespace it.tidalwave.thesefoolishthings.examples.person {

        class PersonDisplayable [[PersonDisplayable.html]] {
            +getDisplayName(): String
        }

        class PersonRenderable [[PersonRenderable.html]] {
            +renderTo(String, Consumer<String>): void
        }

        it.tidalwave.role.ui.Displayable <|.. PersonDisplayable
        it.tidalwave.thesefoolishthings.examples.dci.displayable.role.Renderable <|.. PersonRenderable
    }

    namespace it.tidalwave.role.ui {
        interface Displayable [[https://tidalwave.bitbucket.io/thesefoolishthings/modules/it-tidalwave-role/apidocs/it/tidalwave/role/ui/Displayable.html?is-external=true]] {
            {static} +_Displayable_: Class<Displayable>
            {static} +DEFAULT: Displayable
            {abstract} +getDisplayName(): String
            +display(Consumer<String>): void
            {static} +of(String): Displayable
            {static} +of(String, String): Displayable
            {static} +of(Supplier<String>): Displayable
            {static} +of(Function<T, String>, T): Displayable
            {static} +fromBundle(Class<?>, String): LocalizedDisplayable
            {static} +comparing(): Comparator<Displayable>
            {static} +asComparing(): Comparator<As>
        }
    }

    namespace it.tidalwave.thesefoolishthings.examples.dci.displayable.role {
        interface Renderable [[../dci/displayable/role/Renderable.html]] {
            {static} +_Renderable_: Class<Renderable>
            {abstract} +renderTo(String, Consumer<String>): void
        }
    }

    center footer UMLDoclet 2.0.12, PlantUML 1.2020.16
@enduml
