<?xml version="1.0" encoding="UTF-8" standalone="no"?><svg xmlns="http://www.w3.org/2000/svg" xmlns:xlink="http://www.w3.org/1999/xlink" contentScriptType="application/ecmascript" contentStyleType="text/css" height="268px" preserveAspectRatio="none" style="width:339px;height:268px;" version="1.1" viewBox="0 0 339 268" width="339px" zoomAndPan="magnify"><defs><filter height="300%" id="f1iedmiynad5lu" width="300%" x="-1" y="-1"><feGaussianBlur result="blurOut" stdDeviation="2.0"/><feColorMatrix in="blurOut" result="blurOut2" type="matrix" values="0 0 0 0 0 0 0 0 0 0 0 0 0 0 0 0 0 0 .4 0"/><feOffset dx="4.0" dy="4.0" in="blurOut2" result="blurOut3"/><feBlend in="SourceGraphic" in2="blurOut3" mode="normal"/></filter></defs><g><!--MD5=[b91f6ae4edfcc5dd6d38e8c22b70658e]
class it.tidalwave.role.ui.LocalizedDisplayable--><a href="LocalizedDisplayable.html" target="_top" title="LocalizedDisplayable.html" xlink:actuate="onRequest" xlink:href="LocalizedDisplayable.html" xlink:show="new" xlink:title="LocalizedDisplayable.html" xlink:type="simple"><rect codeLine="5" fill="#FEFECE" filter="url(#f1iedmiynad5lu)" height="106.0859" id="it.tidalwave.role.ui.LocalizedDisplayable" style="stroke: #A80036; stroke-width: 1.5;" width="313" x="7" y="126"/><ellipse cx="88.25" cy="145.1328" fill="#B4A7E5" rx="11" ry="11" style="stroke: #A80036; stroke-width: 1.0;"/><path d="M84.6777,141.3979 L84.6777,139.2397 L92.0571,139.2397 L92.0571,141.3979 L89.5918,141.3979 L89.5918,149.4746 L92.0571,149.4746 L92.0571,151.6328 L84.6777,151.6328 L84.6777,149.4746 L87.1431,149.4746 L87.1431,141.3979 Z "/><text fill="#000000" font-family="sans-serif" font-size="14" font-style="italic" lengthAdjust="spacingAndGlyphs" textLength="142" x="108.75" y="144.5352">LocalizedDisplayable</text><text fill="#000000" font-family="sans-serif" font-size="10" font-style="italic" lengthAdjust="spacingAndGlyphs" textLength="91" x="134.25" y="157.1563">it.tidalwave.role.ui</text><line style="stroke: #A80036; stroke-width: 1.5;" x1="8" x2="319" y1="164.2656" y2="164.2656"/><ellipse cx="18" cy="175.2656" fill="none" rx="3" ry="3" style="stroke: #038048; stroke-width: 1.0;"/><text fill="#000000" font-family="sans-serif" font-size="11" lengthAdjust="spacingAndGlyphs" text-decoration="underline" textLength="287" x="27" y="178.9004">_LocalizedDisplayable_: Class&lt;LocalizedDisplayable&gt;</text><line style="stroke: #A80036; stroke-width: 1.5;" x1="8" x2="319" y1="185.2207" y2="185.2207"/><ellipse cx="18" cy="196.2207" fill="#84BE84" rx="3" ry="3" style="stroke: #038048; stroke-width: 1.0;"/><text fill="#000000" font-family="sans-serif" font-size="11" font-style="italic" lengthAdjust="spacingAndGlyphs" textLength="166" x="27" y="199.8555">getDisplayName(Locale): String</text><ellipse cx="18" cy="209.1758" fill="#84BE84" rx="3" ry="3" style="stroke: #038048; stroke-width: 1.0;"/><text fill="#000000" font-family="sans-serif" font-size="11" font-style="italic" lengthAdjust="spacingAndGlyphs" textLength="218" x="27" y="212.8105">getDisplayNames(): Map&lt;Locale, String&gt;</text><ellipse cx="18" cy="222.1309" fill="#84BE84" rx="3" ry="3" style="stroke: #038048; stroke-width: 1.0;"/><text fill="#000000" font-family="sans-serif" font-size="11" font-style="italic" lengthAdjust="spacingAndGlyphs" textLength="174" x="27" y="225.7656">getLocales(): SortedSet&lt;Locale&gt;</text></a><!--MD5=[e05cef5f540740c7b774d94550632b59]
class it.tidalwave.role.ui.Displayable--><a href="Displayable.html" target="_top" title="Displayable.html" xlink:actuate="onRequest" xlink:href="Displayable.html" xlink:show="new" xlink:title="Displayable.html" xlink:type="simple"><rect codeLine="12" fill="#FEFECE" filter="url(#f1iedmiynad5lu)" height="59.2207" id="it.tidalwave.role.ui.Displayable" style="stroke: #A80036; stroke-width: 1.5;" width="158" x="84.5" y="7"/><ellipse cx="115.25" cy="26.1328" fill="#B4A7E5" rx="11" ry="11" style="stroke: #A80036; stroke-width: 1.0;"/><path d="M111.6777,22.3979 L111.6777,20.2397 L119.0571,20.2397 L119.0571,22.3979 L116.5918,22.3979 L116.5918,30.4746 L119.0571,30.4746 L119.0571,32.6328 L111.6777,32.6328 L111.6777,30.4746 L114.1431,30.4746 L114.1431,22.3979 Z "/><text fill="#000000" font-family="sans-serif" font-size="14" font-style="italic" lengthAdjust="spacingAndGlyphs" textLength="78" x="139.25" y="25.5352">Displayable</text><text fill="#000000" font-family="sans-serif" font-size="10" font-style="italic" lengthAdjust="spacingAndGlyphs" textLength="91" x="132.75" y="38.1563">it.tidalwave.role.ui</text><line style="stroke: #A80036; stroke-width: 1.5;" x1="85.5" x2="241.5" y1="45.2656" y2="45.2656"/><ellipse cx="95.5" cy="56.2656" fill="#84BE84" rx="3" ry="3" style="stroke: #038048; stroke-width: 1.0;"/><text fill="#000000" font-family="sans-serif" font-size="11" font-style="italic" lengthAdjust="spacingAndGlyphs" textLength="132" x="104.5" y="59.9004">getDisplayName(): String</text></a><!--MD5=[54616d4a0e04934fa14a7319296f0cee]
reverse link it.tidalwave.role.ui.Displayable to it.tidalwave.role.ui.LocalizedDisplayable--><path codeLine="16" d="M163.5,86.2863 C163.5,99.0948 163.5,112.9241 163.5,125.8939 " fill="none" id="it.tidalwave.role.ui.Displayable-backto-it.tidalwave.role.ui.LocalizedDisplayable" style="stroke: #A80036; stroke-width: 1.0;"/><polygon fill="none" points="156.5001,86.0261,163.5,66.0261,170.5001,86.0261,156.5001,86.0261" style="stroke: #A80036; stroke-width: 1.0;"/><text fill="#888888" font-family="sans-serif" font-size="10" lengthAdjust="spacingAndGlyphs" textLength="188" x="66.5" y="254.7539">UMLDoclet 2.0.12, PlantUML 1.2020.16</text><!--MD5=[80123d5cee6fb0cb91fd45be6c3ad3b7]
@startuml
    set namespaceSeparator none
    hide empty fields
    hide empty methods

    interface "<size:14>LocalizedDisplayable\n<size:10>it.tidalwave.role.ui" as it.tidalwave.role.ui.LocalizedDisplayable [[LocalizedDisplayable.html]] {
        {static} +_LocalizedDisplayable_: Class<LocalizedDisplayable>
        {abstract} +getDisplayName(Locale): String
        {abstract} +getDisplayNames(): Map<Locale, String>
        {abstract} +getLocales(): SortedSet<Locale>
    }

    interface "<size:14>Displayable\n<size:10>it.tidalwave.role.ui" as it.tidalwave.role.ui.Displayable [[Displayable.html]] {
        {abstract} +getDisplayName(): String
    }

    it.tidalwave.role.ui.Displayable <|- - it.tidalwave.role.ui.LocalizedDisplayable

    center footer UMLDoclet 2.0.12, PlantUML 1.2020.16
@enduml

PlantUML version 1.2020.16(Sun Aug 23 22:20:43 CEST 2020)
(APACHE source distribution)
Java Runtime: OpenJDK Runtime Environment
JVM: OpenJDK 64-Bit Server VM
Default Encoding: UTF-8
Language: en
Country: GB
--></g></svg>