<?xml version="1.0" encoding="UTF-8" standalone="no"?><svg xmlns="http://www.w3.org/2000/svg" xmlns:xlink="http://www.w3.org/1999/xlink" contentScriptType="application/ecmascript" contentStyleType="text/css" height="278px" preserveAspectRatio="none" style="width:482px;height:278px;" version="1.1" viewBox="0 0 482 278" width="482px" zoomAndPan="magnify"><defs><filter height="300%" id="f1mn82y8pkxdcc" width="300%" x="-1" y="-1"><feGaussianBlur result="blurOut" stdDeviation="2.0"/><feColorMatrix in="blurOut" result="blurOut2" type="matrix" values="0 0 0 0 0 0 0 0 0 0 0 0 0 0 0 0 0 0 .4 0"/><feOffset dx="4.0" dy="4.0" in="blurOut2" result="blurOut3"/><feBlend in="SourceGraphic" in2="blurOut3" mode="normal"/></filter></defs><g><!--MD5=[afa04856234c470f037fe89f180cae5b]
class it.tidalwave.util.ContextManager.Inner--><a href="ContextManager.Inner.html" target="_top" title="ContextManager.Inner.html" xlink:actuate="onRequest" xlink:href="ContextManager.Inner.html" xlink:show="new" xlink:title="ContextManager.Inner.html" xlink:type="simple"><rect codeLine="5" fill="#FEFECE" filter="url(#f1mn82y8pkxdcc)" height="38.2656" id="it.tidalwave.util.ContextManager.Inner" style="stroke: #A80036; stroke-width: 1.5;" width="187" x="141.5" y="204"/><ellipse cx="156.5" cy="223.1328" fill="#ADD1B2" rx="11" ry="11" style="stroke: #A80036; stroke-width: 1.0;"/><path d="M158.9731,229.2759 Q158.3921,229.5747 157.7529,229.7241 Q157.1138,229.8735 156.4082,229.8735 Q153.9014,229.8735 152.5815,228.2217 Q151.2617,226.5698 151.2617,223.4487 Q151.2617,220.3193 152.5815,218.6675 Q153.9014,217.0156 156.4082,217.0156 Q157.1138,217.0156 157.7612,217.165 Q158.4087,217.3145 158.9731,217.6133 L158.9731,220.3359 Q158.3423,219.7549 157.7488,219.4851 Q157.1553,219.2153 156.5244,219.2153 Q155.1797,219.2153 154.4949,220.282 Q153.8101,221.3486 153.8101,223.4487 Q153.8101,225.5405 154.4949,226.6072 Q155.1797,227.6738 156.5244,227.6738 Q157.1553,227.6738 157.7488,227.4041 Q158.3423,227.1343 158.9731,226.5532 Z "/><text fill="#000000" font-family="sans-serif" font-size="14" lengthAdjust="spacingAndGlyphs" textLength="155" x="170.5" y="222.5352">ContextManager.Inner</text><text fill="#000000" font-family="sans-serif" font-size="10" lengthAdjust="spacingAndGlyphs" textLength="76" x="210" y="235.1563">it.tidalwave.util</text></a><!--MD5=[31235b3a9ca423220048212828738b0f]
class it.tidalwave.util.ContextManager--><a href="ContextManager.html" target="_top" title="ContextManager.html" xlink:actuate="onRequest" xlink:href="ContextManager.html" xlink:show="new" xlink:title="ContextManager.html" xlink:type="simple"><rect codeLine="8" fill="#FEFECE" filter="url(#f1mn82y8pkxdcc)" height="136.9512" id="it.tidalwave.util.ContextManager" style="stroke: #A80036; stroke-width: 1.5;" width="456" x="7" y="7"/><ellipse cx="173.25" cy="26.1328" fill="#B4A7E5" rx="11" ry="11" style="stroke: #A80036; stroke-width: 1.0;"/><path d="M169.6777,22.3979 L169.6777,20.2397 L177.0571,20.2397 L177.0571,22.3979 L174.5918,22.3979 L174.5918,30.4746 L177.0571,30.4746 L177.0571,32.6328 L169.6777,32.6328 L169.6777,30.4746 L172.1431,30.4746 L172.1431,22.3979 Z "/><text fill="#000000" font-family="sans-serif" font-size="14" font-style="italic" lengthAdjust="spacingAndGlyphs" textLength="115" x="193.75" y="25.5352">ContextManager</text><text fill="#000000" font-family="sans-serif" font-size="10" font-style="italic" lengthAdjust="spacingAndGlyphs" textLength="76" x="213.25" y="38.1563">it.tidalwave.util</text><line style="stroke: #A80036; stroke-width: 1.5;" x1="8" x2="462" y1="45.2656" y2="45.2656"/><ellipse cx="18" cy="56.2656" fill="#84BE84" rx="3" ry="3" style="stroke: #038048; stroke-width: 1.0;"/><text fill="#000000" font-family="sans-serif" font-size="11" font-style="italic" lengthAdjust="spacingAndGlyphs" textLength="152" x="27" y="59.9004">getContexts(): List&lt;Object&gt;</text><ellipse cx="18" cy="69.2207" fill="#84BE84" rx="3" ry="3" style="stroke: #038048; stroke-width: 1.0;"/><text fill="#000000" font-family="sans-serif" font-size="11" font-style="italic" lengthAdjust="spacingAndGlyphs" textLength="242" x="27" y="72.8555">findContextOfType(Class&lt;T&gt;): Optional&lt;T&gt;</text><ellipse cx="18" cy="82.1758" fill="#84BE84" rx="3" ry="3" style="stroke: #038048; stroke-width: 1.0;"/><text fill="#000000" font-family="sans-serif" font-size="11" font-style="italic" lengthAdjust="spacingAndGlyphs" textLength="169" x="27" y="85.8105">addGlobalContext(Object): void</text><ellipse cx="18" cy="95.1309" fill="#84BE84" rx="3" ry="3" style="stroke: #038048; stroke-width: 1.0;"/><text fill="#000000" font-family="sans-serif" font-size="11" font-style="italic" lengthAdjust="spacingAndGlyphs" textLength="189" x="27" y="98.7656">removeGlobalContext(Object): void</text><ellipse cx="18" cy="108.0859" fill="#84BE84" rx="3" ry="3" style="stroke: #038048; stroke-width: 1.0;"/><text fill="#000000" font-family="sans-serif" font-size="11" font-style="italic" lengthAdjust="spacingAndGlyphs" textLength="163" x="27" y="111.7207">addLocalContext(Object): void</text><ellipse cx="18" cy="121.041" fill="#84BE84" rx="3" ry="3" style="stroke: #038048; stroke-width: 1.0;"/><text fill="#000000" font-family="sans-serif" font-size="11" font-style="italic" lengthAdjust="spacingAndGlyphs" textLength="183" x="27" y="124.6758">removeLocalContext(Object): void</text><ellipse cx="18" cy="133.9961" fill="#84BE84" rx="3" ry="3" style="stroke: #038048; stroke-width: 1.0;"/><text fill="#000000" font-family="sans-serif" font-size="11" font-style="italic" lengthAdjust="spacingAndGlyphs" textLength="430" x="27" y="137.6309">runEWithContexts(SupplierWithException&lt;T, E extends Throwable&gt;, Object...): T</text></a><!--MD5=[221df0a5ed7fbe0ce65bb54f468ca227]
reverse link it.tidalwave.util.ContextManager to it.tidalwave.util.ContextManager.Inner--><path codeLine="18" d="M235,159.259 C235,176.0616 235,192.158 235,203.9719 " fill="none" id="it.tidalwave.util.ContextManager-backto-it.tidalwave.util.ContextManager.Inner" style="stroke: #A80036; stroke-width: 1.0;"/><ellipse cx="235.0001" cy="152.0683" fill="#FFFFFF" rx="8" ry="8" style="stroke: #A80036; stroke-width: 1.0;"/><line style="stroke: #A80036; stroke-width: 1.0;" x1="235.0002" x2="235" y1="160.0683" y2="144.0683"/><line style="stroke: #A80036; stroke-width: 1.0;" x1="227.0001" x2="243.0001" y1="152.0684" y2="152.0682"/><text fill="#888888" font-family="sans-serif" font-size="10" lengthAdjust="spacingAndGlyphs" textLength="188" x="138" y="264.9336">UMLDoclet 2.0.12, PlantUML 1.2020.16</text><!--MD5=[7ac9fb44a21460ebbd42329906621866]
@startuml
    set namespaceSeparator none
    hide empty fields
    hide empty methods

    class "<size:14>ContextManager.Inner\n<size:10>it.tidalwave.util" as it.tidalwave.util.ContextManager.Inner [[ContextManager.Inner.html]] {
    }

    interface "<size:14>ContextManager\n<size:10>it.tidalwave.util" as it.tidalwave.util.ContextManager [[ContextManager.html]] {
        {abstract} +getContexts(): List<Object>
        {abstract} +findContextOfType(Class<T>): Optional<T>
        {abstract} +addGlobalContext(Object): void
        {abstract} +removeGlobalContext(Object): void
        {abstract} +addLocalContext(Object): void
        {abstract} +removeLocalContext(Object): void
        {abstract} +runEWithContexts(SupplierWithException<T, E extends Throwable>, Object...): T
    }

    it.tidalwave.util.ContextManager +- - it.tidalwave.util.ContextManager.Inner

    center footer UMLDoclet 2.0.12, PlantUML 1.2020.16
@enduml

PlantUML version 1.2020.16(Sun Aug 23 22:20:43 CEST 2020)
(APACHE source distribution)
Java Runtime: OpenJDK Runtime Environment
JVM: OpenJDK 64-Bit Server VM
Default Encoding: UTF-8
Language: en
Country: GB
--></g></svg>