@startuml
    set namespaceSeparator none
    hide empty fields
    hide empty methods

    interface "<size:14>IdFactory\n<size:10>it.tidalwave.util" as it.tidalwave.util.IdFactory [[IdFactory.html]] {
        {static} +_IdFactory_: Class<IdFactory>
        {static} +DEFAULT: IdFactory
        {static} +MOCK: IdFactory
        {abstract} +createId(): Id
        +createId(Class<?>): Id
        +createId(Class<?>, Object): Id
    }
    class "<size:14>IdFactory.Private\n<size:10>it.tidalwave.util" as it.tidalwave.util.IdFactory.Private [[IdFactory.Private.html]]

    it.tidalwave.util.IdFactory +-- it.tidalwave.util.IdFactory.Private

    center footer UMLDoclet 2.0.12, PlantUML 1.2020.16
@enduml
