<?xml version="1.0" encoding="UTF-8" standalone="no"?><svg xmlns="http://www.w3.org/2000/svg" xmlns:xlink="http://www.w3.org/1999/xlink" contentScriptType="application/ecmascript" contentStyleType="text/css" height="260px" preserveAspectRatio="none" style="width:346px;height:260px;" version="1.1" viewBox="0 0 346 260" width="346px" zoomAndPan="magnify"><defs><filter height="300%" id="f19p9bvfchu5uk" width="300%" x="-1" y="-1"><feGaussianBlur result="blurOut" stdDeviation="2.0"/><feColorMatrix in="blurOut" result="blurOut2" type="matrix" values="0 0 0 0 0 0 0 0 0 0 0 0 0 0 0 0 0 0 .4 0"/><feOffset dx="4.0" dy="4.0" in="blurOut2" result="blurOut3"/><feBlend in="SourceGraphic" in2="blurOut3" mode="normal"/></filter></defs><g><!--MD5=[174480dea213be332214e1d362f0c46a]
class it.tidalwave.northernwind.rca.ui.impl.javafx.structureeditor.JavaFXStructureEditorPresentation--><a href="JavaFXStructureEditorPresentation.html" target="_top" title="JavaFXStructureEditorPresentation.html" xlink:actuate="onRequest" xlink:href="JavaFXStructureEditorPresentation.html" xlink:show="new" xlink:title="JavaFXStructureEditorPresentation.html" xlink:type="simple"><rect codeLine="5" fill="#FEFECE" filter="url(#f19p9bvfchu5uk)" height="59.2207" id="it.tidalwave.northernwind.rca.ui.impl.javafx.structureeditor.JavaFXStructureEditorPresentation" style="stroke: #A80036; stroke-width: 1.5;" width="320" x="7" y="165"/><ellipse cx="22" cy="184.1328" fill="#ADD1B2" rx="11" ry="11" style="stroke: #A80036; stroke-width: 1.0;"/><path d="M24.4731,190.2759 Q23.8921,190.5747 23.2529,190.7241 Q22.6138,190.8735 21.9082,190.8735 Q19.4014,190.8735 18.0815,189.2217 Q16.7617,187.5698 16.7617,184.4487 Q16.7617,181.3193 18.0815,179.6675 Q19.4014,178.0156 21.9082,178.0156 Q22.6138,178.0156 23.2612,178.165 Q23.9087,178.3145 24.4731,178.6133 L24.4731,181.3359 Q23.8423,180.7549 23.2488,180.4851 Q22.6553,180.2153 22.0244,180.2153 Q20.6797,180.2153 19.9949,181.282 Q19.3101,182.3486 19.3101,184.4487 Q19.3101,186.5405 19.9949,187.6072 Q20.6797,188.6738 22.0244,188.6738 Q22.6553,188.6738 23.2488,188.4041 Q23.8423,188.1343 24.4731,187.5532 Z "/><text fill="#000000" font-family="sans-serif" font-size="14" lengthAdjust="spacingAndGlyphs" textLength="234" x="63" y="183.5352">JavaFXStructureEditorPresentation</text><text fill="#000000" font-family="sans-serif" font-size="10" lengthAdjust="spacingAndGlyphs" textLength="288" x="36" y="196.1563">it.tidalwave.northernwind.rca.ui.impl.javafx.structureeditor</text><line style="stroke: #A80036; stroke-width: 1.5;" x1="8" x2="326" y1="203.2656" y2="203.2656"/><ellipse cx="18" cy="214.2656" fill="#84BE84" rx="3" ry="3" style="stroke: #038048; stroke-width: 1.0;"/><text fill="#000000" font-family="sans-serif" font-size="11" lengthAdjust="spacingAndGlyphs" textLength="80" x="27" y="217.9004">showUp(): void</text></a><!--MD5=[9e658332489d7bd845257d922fc294b6]
class it.tidalwave.northernwind.rca.ui.structureeditor.StructureEditorPresentation--><a href="http://tidalwave.tidalwave.it/northernwind-rca/northernwind-rca-modules/it-tidalwave-northernwind-rca-ui-structure-editor/apidocs/it/tidalwave/northernwind/rca/ui/structureeditor/StructureEditorPresentation.html?is-external=true" target="_top" title="http://tidalwave.tidalwave.it/northernwind-rca/northernwind-rca-modules/it-tidalwave-northernwind-rca-ui-structure-editor/apidocs/it/tidalwave/northernwind/rca/ui/structureeditor/StructureEditorPresentation.html?is-external=true" xlink:actuate="onRequest" xlink:href="http://tidalwave.tidalwave.it/northernwind-rca/northernwind-rca-modules/it-tidalwave-northernwind-rca-ui-structure-editor/apidocs/it/tidalwave/northernwind/rca/ui/structureeditor/StructureEditorPresentation.html?is-external=true" xlink:show="new" xlink:title="http://tidalwave.tidalwave.it/northernwind-rca/northernwind-rca-modules/it-tidalwave-northernwind-rca-ui-structure-editor/apidocs/it/tidalwave/northernwind/rca/ui/structureeditor/StructureEditorPresentation.html?is-external=true" xlink:type="simple"><rect codeLine="9" fill="#FEFECE" filter="url(#f19p9bvfchu5uk)" height="98.0859" id="it.tidalwave.northernwind.rca.ui.structureeditor.StructureEditorPresentation" style="stroke: #A80036; stroke-width: 1.5;" width="264" x="35" y="7"/><ellipse cx="50.45" cy="26.1328" fill="#B4A7E5" rx="11" ry="11" style="stroke: #A80036; stroke-width: 1.0;"/><path d="M46.8777,22.3979 L46.8777,20.2397 L54.2571,20.2397 L54.2571,22.3979 L51.7918,22.3979 L51.7918,30.4746 L54.2571,30.4746 L54.2571,32.6328 L46.8777,32.6328 L46.8777,30.4746 L49.3431,30.4746 L49.3431,22.3979 Z "/><text fill="#000000" font-family="sans-serif" font-size="14" font-style="italic" lengthAdjust="spacingAndGlyphs" textLength="190" x="85.05" y="25.5352">StructureEditorPresentation</text><text fill="#000000" font-family="sans-serif" font-size="10" font-style="italic" lengthAdjust="spacingAndGlyphs" textLength="231" x="64.55" y="38.1563">it.tidalwave.northernwind.rca.ui.structureeditor</text><line style="stroke: #A80036; stroke-width: 1.5;" x1="36" x2="298" y1="45.2656" y2="45.2656"/><ellipse cx="46" cy="56.2656" fill="#84BE84" rx="3" ry="3" style="stroke: #038048; stroke-width: 1.0;"/><text fill="#000000" font-family="sans-serif" font-size="11" font-style="italic" lengthAdjust="spacingAndGlyphs" textLength="80" x="55" y="59.9004">showUp(): void</text><ellipse cx="46" cy="69.2207" fill="#84BE84" rx="3" ry="3" style="stroke: #038048; stroke-width: 1.0;"/><text fill="#000000" font-family="sans-serif" font-size="11" font-style="italic" lengthAdjust="spacingAndGlyphs" textLength="63" x="55" y="72.8555">clear(): void</text><ellipse cx="46" cy="82.1758" fill="#84BE84" rx="3" ry="3" style="stroke: #038048; stroke-width: 1.0;"/><text fill="#000000" font-family="sans-serif" font-size="11" font-style="italic" lengthAdjust="spacingAndGlyphs" textLength="116" x="55" y="85.8105">populate(String): void</text><ellipse cx="46" cy="95.1309" fill="#84BE84" rx="3" ry="3" style="stroke: #038048; stroke-width: 1.0;"/><text fill="#000000" font-family="sans-serif" font-size="11" font-style="italic" lengthAdjust="spacingAndGlyphs" textLength="238" x="55" y="98.7656">populateProperties(PresentationModel): void</text></a><!--MD5=[7b2d944822394d3f7f3227a2a3504083]
reverse link it.tidalwave.northernwind.rca.ui.structureeditor.StructureEditorPresentation to it.tidalwave.northernwind.rca.ui.impl.javafx.structureeditor.JavaFXStructureEditorPresentation--><path codeLine="16" d="M167,125.3324 C167,139.2361 167,153.1353 167,164.7883 " fill="none" id="it.tidalwave.northernwind.rca.ui.structureeditor.StructureEditorPresentation-backto-it.tidalwave.northernwind.rca.ui.impl.javafx.structureeditor.JavaFXStructureEditorPresentation" style="stroke: #A80036; stroke-width: 1.0; stroke-dasharray: 7.0,7.0;"/><polygon fill="none" points="160.0001,125.2199,167,105.2199,174.0001,125.2199,160.0001,125.2199" style="stroke: #A80036; stroke-width: 1.0;"/><text fill="#888888" font-family="sans-serif" font-size="10" lengthAdjust="spacingAndGlyphs" textLength="188" x="70" y="246.8887">UMLDoclet 2.0.12, PlantUML 1.2020.16</text><!--MD5=[67a1ed54fe26b5716d0944498f16b54b]
@startuml
    set namespaceSeparator none
    hide empty fields
    hide empty methods

    class "<size:14>JavaFXStructureEditorPresentation\n<size:10>it.tidalwave.northernwind.rca.ui.impl.javafx.structureeditor" as it.tidalwave.northernwind.rca.ui.impl.javafx.structureeditor.JavaFXStructureEditorPresentation [[JavaFXStructureEditorPresentation.html]] {
        +showUp(): void
    }

    interface "<size:14>StructureEditorPresentation\n<size:10>it.tidalwave.northernwind.rca.ui.structureeditor" as it.tidalwave.northernwind.rca.ui.structureeditor.StructureEditorPresentation [[http://tidalwave.tidalwave.it/northernwind-rca/northernwind-rca-modules/it-tidalwave-northernwind-rca-ui-structure-editor/apidocs/it/tidalwave/northernwind/rca/ui/structureeditor/StructureEditorPresentation.html?is-external=true]] {
        {abstract} +showUp(): void
        {abstract} +clear(): void
        {abstract} +populate(String): void
        {abstract} +populateProperties(PresentationModel): void
    }

    it.tidalwave.northernwind.rca.ui.structureeditor.StructureEditorPresentation <|.. it.tidalwave.northernwind.rca.ui.impl.javafx.structureeditor.JavaFXStructureEditorPresentation

    center footer UMLDoclet 2.0.12, PlantUML 1.2020.16
@enduml

PlantUML version 1.2020.16(Sun Aug 23 22:20:43 CEST 2020)
(APACHE source distribution)
Java Runtime: OpenJDK Runtime Environment
JVM: OpenJDK 64-Bit Server VM
Default Encoding: UTF-8
Language: en
Country: GB
--></g></svg>