<?xml version="1.0" encoding="UTF-8" standalone="no"?><svg xmlns="http://www.w3.org/2000/svg" xmlns:xlink="http://www.w3.org/1999/xlink" contentScriptType="application/ecmascript" contentStyleType="text/css" height="96px" preserveAspectRatio="none" style="width:221px;height:96px;" version="1.1" viewBox="0 0 221 96" width="221px" zoomAndPan="magnify"><defs><filter height="300%" id="f96v647mcmm5z" width="300%" x="-1" y="-1"><feGaussianBlur result="blurOut" stdDeviation="2.0"/><feColorMatrix in="blurOut" result="blurOut2" type="matrix" values="0 0 0 0 0 0 0 0 0 0 0 0 0 0 0 0 0 0 .4 0"/><feOffset dx="4.0" dy="4.0" in="blurOut2" result="blurOut3"/><feBlend in="SourceGraphic" in2="blurOut3" mode="normal"/></filter></defs><g><!--MD5=[cc79d05e72f690856ca9ec2c3099410a]
class it.tidalwave.role.spi.RoleManagerProvider--><a href="RoleManagerProvider.html" target="_top" title="RoleManagerProvider.html" xlink:actuate="onRequest" xlink:href="RoleManagerProvider.html" xlink:show="new" xlink:title="RoleManagerProvider.html" xlink:type="simple"><rect codeLine="5" fill="#FEFECE" filter="url(#f96v647mcmm5z)" height="59.2207" id="it.tidalwave.role.spi.RoleManagerProvider" style="stroke: #A80036; stroke-width: 1.5;" width="195" x="7" y="7"/><ellipse cx="29.2" cy="26.1328" fill="#B4A7E5" rx="11" ry="11" style="stroke: #A80036; stroke-width: 1.0;"/><path d="M25.6277,22.3979 L25.6277,20.2397 L33.0071,20.2397 L33.0071,22.3979 L30.5418,22.3979 L30.5418,30.4746 L33.0071,30.4746 L33.0071,32.6328 L25.6277,32.6328 L25.6277,30.4746 L28.0931,30.4746 L28.0931,22.3979 Z "/><text fill="#000000" font-family="sans-serif" font-size="14" font-style="italic" lengthAdjust="spacingAndGlyphs" textLength="147" x="44.8" y="25.5352">RoleManagerProvider</text><text fill="#000000" font-family="sans-serif" font-size="10" font-style="italic" lengthAdjust="spacingAndGlyphs" textLength="96" x="70.3" y="38.1563">it.tidalwave.role.spi</text><line style="stroke: #A80036; stroke-width: 1.5;" x1="8" x2="201" y1="45.2656" y2="45.2656"/><ellipse cx="18" cy="56.2656" fill="#84BE84" rx="3" ry="3" style="stroke: #038048; stroke-width: 1.0;"/><text fill="#000000" font-family="sans-serif" font-size="11" font-style="italic" lengthAdjust="spacingAndGlyphs" textLength="169" x="27" y="59.9004">getRoleManager(): RoleManager</text></a><text fill="#888888" font-family="sans-serif" font-size="10" lengthAdjust="spacingAndGlyphs" textLength="188" x="10.5" y="82.8887">UMLDoclet 2.0.12, PlantUML 1.2020.16</text><!--MD5=[3d8124d2bc78e4aac5a6a0078173a245]
@startuml
    set namespaceSeparator none
    hide empty fields
    hide empty methods

    interface "<size:14>RoleManagerProvider\n<size:10>it.tidalwave.role.spi" as it.tidalwave.role.spi.RoleManagerProvider [[RoleManagerProvider.html]] {
        {abstract} +getRoleManager(): RoleManager
    }

    center footer UMLDoclet 2.0.12, PlantUML 1.2020.16
@enduml

PlantUML version 1.2020.16(Sun Aug 23 22:20:43 CEST 2020)
(APACHE source distribution)
Java Runtime: OpenJDK Runtime Environment
JVM: OpenJDK 64-Bit Server VM
Default Encoding: UTF-8
Language: en
Country: GB
--></g></svg>