<?xml version="1.0" encoding="UTF-8" standalone="no"?><svg xmlns="http://www.w3.org/2000/svg" xmlns:xlink="http://www.w3.org/1999/xlink" contentScriptType="application/ecmascript" contentStyleType="text/css" height="265px" preserveAspectRatio="none" style="width:479px;height:265px;" version="1.1" viewBox="0 0 479 265" width="479px" zoomAndPan="magnify"><defs><filter height="300%" id="f18l4xho9l2ehk" width="300%" x="-1" y="-1"><feGaussianBlur result="blurOut" stdDeviation="2.0"/><feColorMatrix in="blurOut" result="blurOut2" type="matrix" values="0 0 0 0 0 0 0 0 0 0 0 0 0 0 0 0 0 0 .4 0"/><feOffset dx="4.0" dy="4.0" in="blurOut2" result="blurOut3"/><feBlend in="SourceGraphic" in2="blurOut3" mode="normal"/></filter></defs><g><!--MD5=[f01720c4c78730e8c5921479071607f4]
cluster it.tidalwave.thesefoolishthings.examples.dci.persistable.jpa--><polygon fill="#FFFFFF" filter="url(#f18l4xho9l2ehk)" points="16,6,447,6,454,28.4883,457,28.4883,457,236,16,236,16,6" style="stroke: #000000; stroke-width: 1.5;"/><line style="stroke: #000000; stroke-width: 1.5;" x1="16" x2="454" y1="28.4883" y2="28.4883"/><text fill="#000000" font-family="sans-serif" font-size="14" font-weight="bold" lengthAdjust="spacingAndGlyphs" textLength="425" x="20" y="21.5352">it.tidalwave.thesefoolishthings.examples.dci.persistable.jpa</text><!--MD5=[1fa94ef7446a160afe9a226e32de8cd2]
class it.tidalwave.thesefoolishthings.examples.dci.persistable.jpa.DciPersistenceJpaExample--><a href="DciPersistenceJpaExample.html" target="_top" title="DciPersistenceJpaExample.html" xlink:actuate="onRequest" xlink:href="DciPersistenceJpaExample.html" xlink:show="new" xlink:title="DciPersistenceJpaExample.html" xlink:type="simple"><rect codeLine="3" fill="#FEFECE" filter="url(#f18l4xho9l2ehk)" height="60.9551" id="it.tidalwave.thesefoolishthings.examples.dci.persistable.jpa.DciPersistenceJpaExample" style="stroke: #A80036; stroke-width: 1.5;" width="184" x="62" y="33"/><ellipse cx="77" cy="49" fill="#ADD1B2" rx="11" ry="11" style="stroke: #A80036; stroke-width: 1.0;"/><path d="M79.4731,55.1431 Q78.8921,55.4419 78.2529,55.5913 Q77.6138,55.7407 76.9082,55.7407 Q74.4014,55.7407 73.0815,54.0889 Q71.7617,52.437 71.7617,49.3159 Q71.7617,46.1865 73.0815,44.5347 Q74.4014,42.8828 76.9082,42.8828 Q77.6138,42.8828 78.2612,43.0322 Q78.9087,43.1816 79.4731,43.4805 L79.4731,46.2031 Q78.8423,45.6221 78.2488,45.3523 Q77.6553,45.0825 77.0244,45.0825 Q75.6797,45.0825 74.9949,46.1492 Q74.3101,47.2158 74.3101,49.3159 Q74.3101,51.4077 74.9949,52.4744 Q75.6797,53.541 77.0244,53.541 Q77.6553,53.541 78.2488,53.2712 Q78.8423,53.0015 79.4731,52.4204 Z "/><text fill="#000000" font-family="sans-serif" font-size="12" lengthAdjust="spacingAndGlyphs" textLength="152" x="91" y="53.5352">DciPersistenceJpaExample</text><line style="stroke: #A80036; stroke-width: 1.5;" x1="63" x2="245" y1="65" y2="65"/><line style="stroke: #A80036; stroke-width: 1.5;" x1="63" x2="245" y1="73" y2="73"/><ellipse cx="73" cy="84" fill="#84BE84" rx="3" ry="3" style="stroke: #038048; stroke-width: 1.0;"/><text fill="#000000" font-family="sans-serif" font-size="11" lengthAdjust="spacingAndGlyphs" textLength="56" x="82" y="87.6348">run(): void</text></a><!--MD5=[f11ee6f90c983cd135d8fb7e0a8f3c4c]
class it.tidalwave.thesefoolishthings.examples.dci.persistable.jpa.Main--><a href="Main.html" target="_top" title="Main.html" xlink:actuate="onRequest" xlink:href="Main.html" xlink:show="new" xlink:title="Main.html" xlink:type="simple"><rect codeLine="7" fill="#FEFECE" filter="url(#f18l4xho9l2ehk)" height="60.9551" id="it.tidalwave.thesefoolishthings.examples.dci.persistable.jpa.Main" style="stroke: #A80036; stroke-width: 1.5;" width="130" x="281" y="33"/><ellipse cx="328.25" cy="49" fill="#ADD1B2" rx="11" ry="11" style="stroke: #A80036; stroke-width: 1.0;"/><path d="M330.7231,55.1431 Q330.1421,55.4419 329.5029,55.5913 Q328.8638,55.7407 328.1582,55.7407 Q325.6514,55.7407 324.3315,54.0889 Q323.0117,52.437 323.0117,49.3159 Q323.0117,46.1865 324.3315,44.5347 Q325.6514,42.8828 328.1582,42.8828 Q328.8638,42.8828 329.5112,43.0322 Q330.1587,43.1816 330.7231,43.4805 L330.7231,46.2031 Q330.0923,45.6221 329.4988,45.3523 Q328.9053,45.0825 328.2744,45.0825 Q326.9297,45.0825 326.2449,46.1492 Q325.5601,47.2158 325.5601,49.3159 Q325.5601,51.4077 326.2449,52.4744 Q326.9297,53.541 328.2744,53.541 Q328.9053,53.541 329.4988,53.2712 Q330.0923,53.0015 330.7231,52.4204 Z "/><text fill="#000000" font-family="sans-serif" font-size="12" lengthAdjust="spacingAndGlyphs" textLength="27" x="348.75" y="53.5352">Main</text><line style="stroke: #A80036; stroke-width: 1.5;" x1="282" x2="410" y1="65" y2="65"/><line style="stroke: #A80036; stroke-width: 1.5;" x1="282" x2="410" y1="73" y2="73"/><ellipse cx="292" cy="84" fill="#84BE84" rx="3" ry="3" style="stroke: #038048; stroke-width: 1.0;"/><text fill="#000000" font-family="sans-serif" font-size="11" lengthAdjust="spacingAndGlyphs" text-decoration="underline" textLength="104" x="301" y="87.6348">main(String...): void</text></a><!--MD5=[6094fed4618a2c8cd4b978dcf692980b]
class it.tidalwave.thesefoolishthings.examples.dci.persistable.jpa.JpaPersistenceContext--><a href="JpaPersistenceContext.html" target="_top" title="JpaPersistenceContext.html" xlink:actuate="onRequest" xlink:href="JpaPersistenceContext.html" xlink:show="new" xlink:title="JpaPersistenceContext.html" xlink:type="simple"><rect codeLine="11" fill="#FEFECE" filter="url(#f18l4xho9l2ehk)" height="73.9102" id="it.tidalwave.thesefoolishthings.examples.dci.persistable.jpa.JpaPersistenceContext" style="stroke: #A80036; stroke-width: 1.5;" width="160" x="74" y="154"/><ellipse cx="89" cy="170" fill="#ADD1B2" rx="11" ry="11" style="stroke: #A80036; stroke-width: 1.0;"/><path d="M91.4731,176.1431 Q90.8921,176.4419 90.2529,176.5913 Q89.6138,176.7407 88.9082,176.7407 Q86.4014,176.7407 85.0815,175.0889 Q83.7617,173.437 83.7617,170.3159 Q83.7617,167.1865 85.0815,165.5347 Q86.4014,163.8828 88.9082,163.8828 Q89.6138,163.8828 90.2612,164.0322 Q90.9087,164.1816 91.4731,164.4805 L91.4731,167.2031 Q90.8423,166.6221 90.2488,166.3523 Q89.6553,166.0825 89.0244,166.0825 Q87.6797,166.0825 86.9949,167.1492 Q86.3101,168.2158 86.3101,170.3159 Q86.3101,172.4077 86.9949,173.4744 Q87.6797,174.541 89.0244,174.541 Q89.6553,174.541 90.2488,174.2712 Q90.8423,174.0015 91.4731,173.4204 Z "/><text fill="#000000" font-family="sans-serif" font-size="12" lengthAdjust="spacingAndGlyphs" textLength="128" x="103" y="174.5352">JpaPersistenceContext</text><line style="stroke: #A80036; stroke-width: 1.5;" x1="75" x2="233" y1="186" y2="186"/><line style="stroke: #A80036; stroke-width: 1.5;" x1="75" x2="233" y1="194" y2="194"/><ellipse cx="85" cy="205" fill="#84BE84" rx="3" ry="3" style="stroke: #038048; stroke-width: 1.0;"/><text fill="#000000" font-family="sans-serif" font-size="11" lengthAdjust="spacingAndGlyphs" textLength="109" x="94" y="208.6348">persist(Object): void</text><ellipse cx="85" cy="217.9551" fill="#84BE84" rx="3" ry="3" style="stroke: #038048; stroke-width: 1.0;"/><text fill="#000000" font-family="sans-serif" font-size="11" lengthAdjust="spacingAndGlyphs" textLength="112" x="94" y="221.5898">remove(Object): void</text></a><!--MD5=[4512cf21905ae97aa83de1e0fda432b5]
link it.tidalwave.thesefoolishthings.examples.dci.persistable.jpa.DciPersistenceJpaExample to it.tidalwave.thesefoolishthings.examples.dci.persistable.jpa.Main--><!--MD5=[6a5fa31deeb00a3e6e3a7a845ee1329c]
link it.tidalwave.thesefoolishthings.examples.dci.persistable.jpa.DciPersistenceJpaExample to it.tidalwave.thesefoolishthings.examples.dci.persistable.jpa.JpaPersistenceContext--><text fill="#888888" font-family="sans-serif" font-size="10" lengthAdjust="spacingAndGlyphs" textLength="188" x="136.5" y="251.668">UMLDoclet 2.0.12, PlantUML 1.2020.16</text><!--MD5=[191bdc4493e480e56bb0c8501bfec59f]
@startuml
    namespace it.tidalwave.thesefoolishthings.examples.dci.persistable.jpa {

        class DciPersistenceJpaExample [[DciPersistenceJpaExample.html]] {
            +run(): void
        }

        class Main [[Main.html]] {
            {static} +main(String...): void
        }

        class JpaPersistenceContext [[JpaPersistenceContext.html]] {
            +persist(Object): void
            +remove(Object): void
        }

    }

    center footer UMLDoclet 2.0.12, PlantUML 1.2020.16
@enduml

PlantUML version 1.2020.16(Sun Aug 23 22:20:43 CEST 2020)
(APACHE source distribution)
Java Runtime: OpenJDK Runtime Environment
JVM: OpenJDK 64-Bit Server VM
Default Encoding: UTF-8
Language: en
Country: GB
--></g></svg>