@startuml
    set namespaceSeparator none
    hide empty fields
    hide empty methods

    class "<size:14>MainScreenPresentation.Bindings\n<size:10>it.tidalwave.role.ui.javafx.example.large.mainscreen" as it.tidalwave.role.ui.javafx.example.large.mainscreen.MainScreenPresentation.Bindings [[MainScreenPresentation.Bindings.html]] {
        +buttonAction: UserAction
        +actionDialogOk: UserAction
        +actionDialogCancelOk: UserAction
        +actionPickFile: UserAction
        +actionPickDirectory: UserAction
        +textProperty: BoundProperty<String>
        +booleanProperty: BoundProperty<Boolean>
    }

    interface "<size:14>MainScreenPresentation\n<size:10>it.tidalwave.role.ui.javafx.example.large.mainscreen" as it.tidalwave.role.ui.javafx.example.large.mainscreen.MainScreenPresentation [[MainScreenPresentation.html]] {
        {abstract} +bind(Bindings): void
        {abstract} +showUp(): void
        {abstract} +populate(PresentationModel, PresentationModel, PresentationModel): void
        {abstract} +notify(UserNotificationWithFeedback): void
        {abstract} +notify(String): void
        {abstract} +pickFile(BoundProperty<Path>, UserNotificationWithFeedback): void
        {abstract} +pickDirectory(BoundProperty<Path>, UserNotificationWithFeedback): void
    }

    it.tidalwave.role.ui.javafx.example.large.mainscreen.MainScreenPresentation +-- it.tidalwave.role.ui.javafx.example.large.mainscreen.MainScreenPresentation.Bindings

    center footer UMLDoclet 2.0.12, PlantUML 1.2020.16
@enduml
