<?xml version="1.0" encoding="UTF-8" standalone="no"?><svg xmlns="http://www.w3.org/2000/svg" xmlns:xlink="http://www.w3.org/1999/xlink" contentScriptType="application/ecmascript" contentStyleType="text/css" height="179px" preserveAspectRatio="none" style="width:200px;height:179px;" version="1.1" viewBox="0 0 200 179" width="200px" zoomAndPan="magnify"><defs><filter height="300%" id="fw9ke5erde8vl" width="300%" x="-1" y="-1"><feGaussianBlur result="blurOut" stdDeviation="2.0"/><feColorMatrix in="blurOut" result="blurOut2" type="matrix" values="0 0 0 0 0 0 0 0 0 0 0 0 0 0 0 0 0 0 .4 0"/><feOffset dx="4.0" dy="4.0" in="blurOut2" result="blurOut3"/><feBlend in="SourceGraphic" in2="blurOut3" mode="normal"/></filter></defs><g><!--MD5=[c36344b5f11e581b13670ec66ffab515]
class it.tidalwave.cec.CecEvent--><a href="CecEvent.html" target="_top" title="CecEvent.html" xlink:actuate="onRequest" xlink:href="CecEvent.html" xlink:show="new" xlink:title="CecEvent.html" xlink:type="simple"><rect codeLine="5" fill="#FEFECE" filter="url(#fw9ke5erde8vl)" height="38.2656" id="it.tidalwave.cec.CecEvent" style="stroke: #A80036; stroke-width: 1.5;" width="108" x="43" y="7"/><ellipse cx="58" cy="26.1328" fill="#A9DCDF" rx="11" ry="11" style="stroke: #A80036; stroke-width: 1.0;"/><path d="M57.8633,21.481 L56.7095,26.5527 L59.0254,26.5527 Z M56.3691,19.2397 L59.3657,19.2397 L62.7109,31.6328 L60.2622,31.6328 L59.4985,28.5698 L56.2197,28.5698 L55.4727,31.6328 L53.0239,31.6328 Z "/><text fill="#000000" font-family="sans-serif" font-size="14" font-style="italic" lengthAdjust="spacingAndGlyphs" textLength="62" x="79" y="25.5352">CecEvent</text><text fill="#000000" font-family="sans-serif" font-size="10" font-style="italic" lengthAdjust="spacingAndGlyphs" textLength="76" x="72" y="38.1563">it.tidalwave.cec</text></a><!--MD5=[87dda538855244b59c3189392af10a12]
class it.tidalwave.cec.CecEvent.EventType--><a href="CecEvent.EventType.html" target="_top" title="CecEvent.EventType.html" xlink:actuate="onRequest" xlink:href="CecEvent.EventType.html" xlink:show="new" xlink:title="CecEvent.EventType.html" xlink:type="simple"><rect codeLine="7" fill="#FEFECE" filter="url(#fw9ke5erde8vl)" height="38.2656" id="it.tidalwave.cec.CecEvent.EventType" style="stroke: #A80036; stroke-width: 1.5;" width="168" x="13" y="105"/><ellipse cx="28" cy="124.1328" fill="#EB937F" rx="11" ry="11" style="stroke: #A80036; stroke-width: 1.0;"/><path d="M31.6143,130.6328 L23.8945,130.6328 L23.8945,118.2397 L31.6143,118.2397 L31.6143,120.3979 L26.3433,120.3979 L26.3433,123.0708 L31.1162,123.0708 L31.1162,125.229 L26.3433,125.229 L26.3433,128.4746 L31.6143,128.4746 Z "/><text fill="#000000" font-family="sans-serif" font-size="14" lengthAdjust="spacingAndGlyphs" textLength="136" x="42" y="123.5352">CecEvent.EventType</text><text fill="#000000" font-family="sans-serif" font-size="10" lengthAdjust="spacingAndGlyphs" textLength="76" x="72" y="136.1563">it.tidalwave.cec</text></a><!--MD5=[72e9e1ed4412610a69593709a6fae9e2]
reverse link it.tidalwave.cec.CecEvent to it.tidalwave.cec.CecEvent.EventType--><path codeLine="9" d="M97,60.4087 C97,75.2562 97,92.0704 97,104.6786 " fill="none" id="it.tidalwave.cec.CecEvent-backto-it.tidalwave.cec.CecEvent.EventType" style="stroke: #A80036; stroke-width: 1.0;"/><ellipse cx="97.0001" cy="53.3616" fill="#FFFFFF" rx="8" ry="8" style="stroke: #A80036; stroke-width: 1.0;"/><line style="stroke: #A80036; stroke-width: 1.0;" x1="97.0002" x2="97" y1="61.3616" y2="45.3616"/><line style="stroke: #A80036; stroke-width: 1.0;" x1="89.0001" x2="105.0001" y1="53.3617" y2="53.3615"/><text fill="#888888" font-family="sans-serif" font-size="10" lengthAdjust="spacingAndGlyphs" textLength="188" x="0" y="165.9336">UMLDoclet 2.0.12, PlantUML 1.2020.16</text><!--MD5=[519820f6978afc2e0346b224219df529]
@startuml
    set namespaceSeparator none
    hide empty fields
    hide empty methods

    abstract class "<size:14>CecEvent\n<size:10>it.tidalwave.cec" as it.tidalwave.cec.CecEvent [[CecEvent.html]] {
    }
    enum "<size:14>CecEvent.EventType\n<size:10>it.tidalwave.cec" as it.tidalwave.cec.CecEvent.EventType [[CecEvent.EventType.html]]

    it.tidalwave.cec.CecEvent +- - it.tidalwave.cec.CecEvent.EventType

    center footer UMLDoclet 2.0.12, PlantUML 1.2020.16
@enduml

PlantUML version 1.2020.16(Sun Aug 23 22:20:43 CEST 2020)
(APACHE source distribution)
Java Runtime: OpenJDK Runtime Environment
JVM: OpenJDK 64-Bit Server VM
Default Encoding: UTF-8
Language: en
Country: GB
--></g></svg>