<?xml version="1.0" encoding="UTF-8" standalone="no"?><svg xmlns="http://www.w3.org/2000/svg" xmlns:xlink="http://www.w3.org/1999/xlink" contentScriptType="application/ecmascript" contentStyleType="text/css" height="213px" preserveAspectRatio="none" style="width:314px;height:213px;" version="1.1" viewBox="0 0 314 213" width="314px" zoomAndPan="magnify"><defs><filter height="300%" id="fhfdtbvlabg7w" width="300%" x="-1" y="-1"><feGaussianBlur result="blurOut" stdDeviation="2.0"/><feColorMatrix in="blurOut" result="blurOut2" type="matrix" values="0 0 0 0 0 0 0 0 0 0 0 0 0 0 0 0 0 0 .4 0"/><feOffset dx="4.0" dy="4.0" in="blurOut2" result="blurOut3"/><feBlend in="SourceGraphic" in2="blurOut3" mode="normal"/></filter></defs><g><!--MD5=[3fd5389c09aefcf041001612bd1da8ec]
class it.tidalwave.image.metadata.WangAnnotations.Attributes.LogFont--><a href="WangAnnotations.Attributes.LogFont.html" target="_top" title="WangAnnotations.Attributes.LogFont.html" xlink:actuate="onRequest" xlink:href="WangAnnotations.Attributes.LogFont.html" xlink:show="new" xlink:title="WangAnnotations.Attributes.LogFont.html" xlink:type="simple"><rect codeLine="5" fill="#FEFECE" filter="url(#fhfdtbvlabg7w)" height="72.1758" id="it.tidalwave.image.metadata.WangAnnotations.Attributes.LogFont" style="stroke: #A80036; stroke-width: 1.5;" width="286" x="9" y="105"/><ellipse cx="24" cy="124.1328" fill="#ADD1B2" rx="11" ry="11" style="stroke: #A80036; stroke-width: 1.0;"/><path d="M26.4731,130.2759 Q25.8921,130.5747 25.2529,130.7241 Q24.6138,130.8735 23.9082,130.8735 Q21.4014,130.8735 20.0815,129.2217 Q18.7617,127.5698 18.7617,124.4487 Q18.7617,121.3193 20.0815,119.6675 Q21.4014,118.0156 23.9082,118.0156 Q24.6138,118.0156 25.2612,118.165 Q25.9087,118.3145 26.4731,118.6133 L26.4731,121.3359 Q25.8423,120.7549 25.2488,120.4851 Q24.6553,120.2153 24.0244,120.2153 Q22.6797,120.2153 21.9949,121.282 Q21.3101,122.3486 21.3101,124.4487 Q21.3101,126.5405 21.9949,127.6072 Q22.6797,128.6738 24.0244,128.6738 Q24.6553,128.6738 25.2488,128.4041 Q25.8423,128.1343 26.4731,127.5532 Z "/><text fill="#000000" font-family="sans-serif" font-size="14" lengthAdjust="spacingAndGlyphs" textLength="254" x="38" y="123.5352">WangAnnotations.Attributes.LogFont</text><text fill="#000000" font-family="sans-serif" font-size="10" lengthAdjust="spacingAndGlyphs" textLength="140" x="95" y="136.1563">it.tidalwave.image.metadata</text><line style="stroke: #A80036; stroke-width: 1.5;" x1="10" x2="294" y1="143.2656" y2="143.2656"/><polygon fill="#FFFF44" points="20,149.2656,24,153.2656,20,157.2656,16,153.2656" style="stroke: #B38D22; stroke-width: 1.0;"/><text fill="#000000" font-family="sans-serif" font-size="11" lengthAdjust="spacingAndGlyphs" textLength="83" x="29" y="157.9004">LogFont(byte[])</text><ellipse cx="20" cy="167.2207" fill="#84BE84" rx="3" ry="3" style="stroke: #038048; stroke-width: 1.0;"/><text fill="#000000" font-family="sans-serif" font-size="11" lengthAdjust="spacingAndGlyphs" textLength="95" x="29" y="170.8555">createFont(): Font</text></a><!--MD5=[5d3e322f9402568ffb999750b24a71d8]
class it.tidalwave.image.metadata.WangAnnotations.Attributes--><a href="WangAnnotations.Attributes.html" target="_top" title="WangAnnotations.Attributes.html" xlink:actuate="onRequest" xlink:href="WangAnnotations.Attributes.html" xlink:show="new" xlink:title="WangAnnotations.Attributes.html" xlink:type="simple"><rect codeLine="10" fill="#FEFECE" filter="url(#fhfdtbvlabg7w)" height="38.2656" id="it.tidalwave.image.metadata.WangAnnotations.Attributes" style="stroke: #A80036; stroke-width: 1.5;" width="226" x="39" y="7"/><ellipse cx="54" cy="26.1328" fill="#ADD1B2" rx="11" ry="11" style="stroke: #A80036; stroke-width: 1.0;"/><path d="M56.4731,32.2759 Q55.8921,32.5747 55.2529,32.7241 Q54.6138,32.8735 53.9082,32.8735 Q51.4014,32.8735 50.0815,31.2217 Q48.7617,29.5698 48.7617,26.4487 Q48.7617,23.3193 50.0815,21.6675 Q51.4014,20.0156 53.9082,20.0156 Q54.6138,20.0156 55.2612,20.165 Q55.9087,20.3145 56.4731,20.6133 L56.4731,23.3359 Q55.8423,22.7549 55.2488,22.4851 Q54.6553,22.2153 54.0244,22.2153 Q52.6797,22.2153 51.9949,23.282 Q51.3101,24.3486 51.3101,26.4487 Q51.3101,28.5405 51.9949,29.6072 Q52.6797,30.6738 54.0244,30.6738 Q54.6553,30.6738 55.2488,30.4041 Q55.8423,30.1343 56.4731,29.5532 Z "/><text fill="#000000" font-family="sans-serif" font-size="14" lengthAdjust="spacingAndGlyphs" textLength="194" x="68" y="25.5352">WangAnnotations.Attributes</text><text fill="#000000" font-family="sans-serif" font-size="10" lengthAdjust="spacingAndGlyphs" textLength="140" x="95" y="38.1563">it.tidalwave.image.metadata</text></a><!--MD5=[f6cb640f0f2e6b1e4c6e22db5bd7fd0f]
reverse link it.tidalwave.image.metadata.WangAnnotations.Attributes to it.tidalwave.image.metadata.WangAnnotations.Attributes.LogFont--><path codeLine="12" d="M152,60.4665 C152,74.5047 152,90.7372 152,104.935 " fill="none" id="it.tidalwave.image.metadata.WangAnnotations.Attributes-backto-it.tidalwave.image.metadata.WangAnnotations.Attributes.LogFont" style="stroke: #A80036; stroke-width: 1.0;"/><ellipse cx="152" cy="53.2484" fill="#FFFFFF" rx="8" ry="8" style="stroke: #A80036; stroke-width: 1.0;"/><line style="stroke: #A80036; stroke-width: 1.0;" x1="152" x2="152" y1="61.2484" y2="45.2484"/><line style="stroke: #A80036; stroke-width: 1.0;" x1="144" x2="160" y1="53.2484" y2="53.2484"/><text fill="#888888" font-family="sans-serif" font-size="10" lengthAdjust="spacingAndGlyphs" textLength="188" x="54" y="199.8438">UMLDoclet 2.0.12, PlantUML 1.2020.16</text><!--MD5=[fc0884073ca489f9af2e09e62f6333d9]
@startuml
    set namespaceSeparator none
    hide empty fields
    hide empty methods

    class "<size:14>WangAnnotations.Attributes.LogFont\n<size:10>it.tidalwave.image.metadata" as it.tidalwave.image.metadata.WangAnnotations.Attributes.LogFont [[WangAnnotations.Attributes.LogFont.html]] {
        #LogFont(byte[])
        +createFont(): Font
    }

    class "<size:14>WangAnnotations.Attributes\n<size:10>it.tidalwave.image.metadata" as it.tidalwave.image.metadata.WangAnnotations.Attributes [[WangAnnotations.Attributes.html]]

    it.tidalwave.image.metadata.WangAnnotations.Attributes +- - it.tidalwave.image.metadata.WangAnnotations.Attributes.LogFont

    center footer UMLDoclet 2.0.12, PlantUML 1.2020.16
@enduml

PlantUML version 1.2020.16(Sun Aug 23 22:20:43 CEST 2020)
(APACHE source distribution)
Java Runtime: OpenJDK Runtime Environment
JVM: OpenJDK 64-Bit Server VM
Default Encoding: UTF-8
Language: en
Country: GB
--></g></svg>