@startuml
    set namespaceSeparator none
    hide empty fields
    hide empty methods

    class "<size:14>ResourcePathTest\n<size:10>it.tidalwave.northernwind.core.model" as it.tidalwave.northernwind.core.model.ResourcePathTest [[ResourcePathTest.html]] {
        +must_properly_create_an_empty_path(): void
        +must_reject_null_segments(): void
        +must_reject_empty_segments(): void
        +must_reject_segments_containing_slash(): void
        +must_properly_create_an_empty_path_from_string(String, String, List<String>): void
        +must_reject_invalid_paths(String): void
        +must_properly_compute_asString(List<String>, String): void
        +must_properly_compute_relative_paths(String, String, String): void
        +must_properly_reject_non_relative_paths(String, String): void
        +must_properly_compute_leading_segment(String, String, String): void
        +must_properly_compute_trailing_segment(String, String, String): void
        +must_properly_compute_without_leading(String, String, String): void
        +must_properly_compute_without_trailing(String, String, String): void
        +must_properly_compute_startsWith(String, String, boolean): void
        +must_properly_append_path(String, String, String, String): void
        +must_properly_append_string(String, String, String, String): void
        +must_properly_prepend_path(String, String, String, String): void
        +must_properly_prepend_string(String, String, String, String): void
        +must_properly_count_segments(String, String, List<String>): void
        +must_properly_compute_extension(String, String): void
        +must_properly_url_decode(String, String): void
    }

    center footer UMLDoclet 2.0.12, PlantUML 1.2020.16
@enduml
