<?xml version="1.0" encoding="UTF-8" standalone="no"?><svg xmlns="http://www.w3.org/2000/svg" xmlns:xlink="http://www.w3.org/1999/xlink" contentScriptType="application/ecmascript" contentStyleType="text/css" height="360px" preserveAspectRatio="none" style="width:1060px;height:360px;" version="1.1" viewBox="0 0 1060 360" width="1060px" zoomAndPan="magnify"><defs><filter height="300%" id="f8qf8y4irlg1n" width="300%" x="-1" y="-1"><feGaussianBlur result="blurOut" stdDeviation="2.0"/><feColorMatrix in="blurOut" result="blurOut2" type="matrix" values="0 0 0 0 0 0 0 0 0 0 0 0 0 0 0 0 0 0 .4 0"/><feOffset dx="4.0" dy="4.0" in="blurOut2" result="blurOut3"/><feBlend in="SourceGraphic" in2="blurOut3" mode="normal"/></filter></defs><g><!--MD5=[c0af0e04e73cfdf298ba2a7f0555dab3]
cluster it.tidalwave.northernwind.frontend.ui.spi.mock--><polygon fill="#FFFFFF" filter="url(#f8qf8y4irlg1n)" points="16,127,354,127,361,149.4883,1038,149.4883,1038,331,16,331,16,127" style="stroke: #000000; stroke-width: 1.5;"/><line style="stroke: #000000; stroke-width: 1.5;" x1="16" x2="361" y1="149.4883" y2="149.4883"/><text fill="#000000" font-family="sans-serif" font-size="14" font-weight="bold" lengthAdjust="spacingAndGlyphs" textLength="332" x="20" y="142.5352">it.tidalwave.northernwind.frontend.ui.spi.mock</text><!--MD5=[18327e9ecbefea3fbaea7e141faec2cd]
cluster it.tidalwave.northernwind.core.model.spi--><polygon fill="#FFFFFF" filter="url(#f8qf8y4irlg1n)" points="64,6,359,6,366,28.4883,369,28.4883,369,102,64,102,64,6" style="stroke: #000000; stroke-width: 1.5;"/><line style="stroke: #000000; stroke-width: 1.5;" x1="64" x2="366" y1="28.4883" y2="28.4883"/><text fill="#000000" font-family="sans-serif" font-size="14" font-weight="bold" lengthAdjust="spacingAndGlyphs" textLength="289" x="68" y="21.5352">it.tidalwave.northernwind.core.model.spi</text><!--MD5=[739e9bb822fe15eb97bc3207575fcd8d]
cluster it.tidalwave.northernwind.core.model--><polygon fill="#FFFFFF" filter="url(#f8qf8y4irlg1n)" points="415,6,685,6,692,28.4883,695,28.4883,695,102,415,102,415,6" style="stroke: #000000; stroke-width: 1.5;"/><line style="stroke: #000000; stroke-width: 1.5;" x1="415" x2="692" y1="28.4883" y2="28.4883"/><text fill="#000000" font-family="sans-serif" font-size="14" font-weight="bold" lengthAdjust="spacingAndGlyphs" textLength="264" x="419" y="21.5352">it.tidalwave.northernwind.core.model</text><!--MD5=[151df5aa16b5a7d4ffeca627a7791b95]
class it.tidalwave.northernwind.frontend.ui.spi.mock.MockRequestResettable1--><a href="MockRequestResettable1.html" target="_top" title="MockRequestResettable1.html" xlink:actuate="onRequest" xlink:href="MockRequestResettable1.html" xlink:show="new" xlink:title="MockRequestResettable1.html" xlink:type="simple"><rect codeLine="3" fill="#FEFECE" filter="url(#f8qf8y4irlg1n)" height="60.9551" id="it.tidalwave.northernwind.frontend.ui.spi.mock.MockRequestResettable1" style="stroke: #A80036; stroke-width: 1.5;" width="178" x="237" y="154"/><ellipse cx="252" cy="170" fill="#ADD1B2" rx="11" ry="11" style="stroke: #A80036; stroke-width: 1.0;"/><path d="M254.4731,176.1431 Q253.8921,176.4419 253.2529,176.5913 Q252.6138,176.7407 251.9082,176.7407 Q249.4014,176.7407 248.0815,175.0889 Q246.7617,173.437 246.7617,170.3159 Q246.7617,167.1865 248.0815,165.5347 Q249.4014,163.8828 251.9082,163.8828 Q252.6138,163.8828 253.2612,164.0322 Q253.9087,164.1816 254.4731,164.4805 L254.4731,167.2031 Q253.8423,166.6221 253.2488,166.3523 Q252.6553,166.0825 252.0244,166.0825 Q250.6797,166.0825 249.9949,167.1492 Q249.3101,168.2158 249.3101,170.3159 Q249.3101,172.4077 249.9949,173.4744 Q250.6797,174.541 252.0244,174.541 Q252.6553,174.541 253.2488,174.2712 Q253.8423,174.0015 254.4731,173.4204 Z "/><text fill="#000000" font-family="sans-serif" font-size="12" lengthAdjust="spacingAndGlyphs" textLength="146" x="266" y="174.5352">MockRequestResettable1</text><line style="stroke: #A80036; stroke-width: 1.5;" x1="238" x2="414" y1="186" y2="186"/><line style="stroke: #A80036; stroke-width: 1.5;" x1="238" x2="414" y1="194" y2="194"/><ellipse cx="248" cy="205" fill="#84BE84" rx="3" ry="3" style="stroke: #038048; stroke-width: 1.0;"/><text fill="#000000" font-family="sans-serif" font-size="11" lengthAdjust="spacingAndGlyphs" textLength="107" x="257" y="208.6348">requestReset(): void</text></a><!--MD5=[c427d92c916f4eeca6182472561c51e7]
class it.tidalwave.northernwind.frontend.ui.spi.mock.MockRequestProcessor4--><a href="MockRequestProcessor4.html" target="_top" title="MockRequestProcessor4.html" xlink:actuate="onRequest" xlink:href="MockRequestProcessor4.html" xlink:show="new" xlink:title="MockRequestProcessor4.html" xlink:type="simple"><rect codeLine="7" fill="#FEFECE" filter="url(#f8qf8y4irlg1n)" height="48" id="it.tidalwave.northernwind.frontend.ui.spi.mock.MockRequestProcessor4" style="stroke: #A80036; stroke-width: 1.5;" width="173" x="24.5" y="275"/><ellipse cx="39.5" cy="291" fill="#ADD1B2" rx="11" ry="11" style="stroke: #A80036; stroke-width: 1.0;"/><path d="M41.9731,297.1431 Q41.3921,297.4419 40.7529,297.5913 Q40.1138,297.7407 39.4082,297.7407 Q36.9014,297.7407 35.5815,296.0889 Q34.2617,294.437 34.2617,291.3159 Q34.2617,288.1865 35.5815,286.5347 Q36.9014,284.8828 39.4082,284.8828 Q40.1138,284.8828 40.7612,285.0322 Q41.4087,285.1816 41.9731,285.4805 L41.9731,288.2031 Q41.3423,287.6221 40.7488,287.3523 Q40.1553,287.0825 39.5244,287.0825 Q38.1797,287.0825 37.4949,288.1492 Q36.8101,289.2158 36.8101,291.3159 Q36.8101,293.4077 37.4949,294.4744 Q38.1797,295.541 39.5244,295.541 Q40.1553,295.541 40.7488,295.2712 Q41.3423,295.0015 41.9731,294.4204 Z "/><text fill="#000000" font-family="sans-serif" font-size="12" lengthAdjust="spacingAndGlyphs" textLength="141" x="53.5" y="295.5352">MockRequestProcessor4</text><line style="stroke: #A80036; stroke-width: 1.5;" x1="25.5" x2="196.5" y1="307" y2="307"/><line style="stroke: #A80036; stroke-width: 1.5;" x1="25.5" x2="196.5" y1="315" y2="315"/></a><!--MD5=[fa370c148b39ee43bf7a461f3ae53f4f]
class it.tidalwave.northernwind.frontend.ui.spi.mock.MockRequestProcessor2--><a href="MockRequestProcessor2.html" target="_top" title="MockRequestProcessor2.html" xlink:actuate="onRequest" xlink:href="MockRequestProcessor2.html" xlink:show="new" xlink:title="MockRequestProcessor2.html" xlink:type="simple"><rect codeLine="9" fill="#FEFECE" filter="url(#f8qf8y4irlg1n)" height="48" id="it.tidalwave.northernwind.frontend.ui.spi.mock.MockRequestProcessor2" style="stroke: #A80036; stroke-width: 1.5;" width="173" x="232.5" y="275"/><ellipse cx="247.5" cy="291" fill="#ADD1B2" rx="11" ry="11" style="stroke: #A80036; stroke-width: 1.0;"/><path d="M249.9731,297.1431 Q249.3921,297.4419 248.7529,297.5913 Q248.1138,297.7407 247.4082,297.7407 Q244.9014,297.7407 243.5815,296.0889 Q242.2617,294.437 242.2617,291.3159 Q242.2617,288.1865 243.5815,286.5347 Q244.9014,284.8828 247.4082,284.8828 Q248.1138,284.8828 248.7612,285.0322 Q249.4087,285.1816 249.9731,285.4805 L249.9731,288.2031 Q249.3423,287.6221 248.7488,287.3523 Q248.1553,287.0825 247.5244,287.0825 Q246.1797,287.0825 245.4949,288.1492 Q244.8101,289.2158 244.8101,291.3159 Q244.8101,293.4077 245.4949,294.4744 Q246.1797,295.541 247.5244,295.541 Q248.1553,295.541 248.7488,295.2712 Q249.3423,295.0015 249.9731,294.4204 Z "/><text fill="#000000" font-family="sans-serif" font-size="12" lengthAdjust="spacingAndGlyphs" textLength="141" x="261.5" y="295.5352">MockRequestProcessor2</text><line style="stroke: #A80036; stroke-width: 1.5;" x1="233.5" x2="404.5" y1="307" y2="307"/><line style="stroke: #A80036; stroke-width: 1.5;" x1="233.5" x2="404.5" y1="315" y2="315"/></a><!--MD5=[ff1792424f6654ce7cfef6e136d6c2e2]
class it.tidalwave.northernwind.frontend.ui.spi.mock.MockRequestProcessor5--><a href="MockRequestProcessor5.html" target="_top" title="MockRequestProcessor5.html" xlink:actuate="onRequest" xlink:href="MockRequestProcessor5.html" xlink:show="new" xlink:title="MockRequestProcessor5.html" xlink:type="simple"><rect codeLine="11" fill="#FEFECE" filter="url(#f8qf8y4irlg1n)" height="48" id="it.tidalwave.northernwind.frontend.ui.spi.mock.MockRequestProcessor5" style="stroke: #A80036; stroke-width: 1.5;" width="173" x="440.5" y="275"/><ellipse cx="455.5" cy="291" fill="#ADD1B2" rx="11" ry="11" style="stroke: #A80036; stroke-width: 1.0;"/><path d="M457.9731,297.1431 Q457.3921,297.4419 456.7529,297.5913 Q456.1138,297.7407 455.4082,297.7407 Q452.9014,297.7407 451.5815,296.0889 Q450.2617,294.437 450.2617,291.3159 Q450.2617,288.1865 451.5815,286.5347 Q452.9014,284.8828 455.4082,284.8828 Q456.1138,284.8828 456.7612,285.0322 Q457.4087,285.1816 457.9731,285.4805 L457.9731,288.2031 Q457.3423,287.6221 456.7488,287.3523 Q456.1553,287.0825 455.5244,287.0825 Q454.1797,287.0825 453.4949,288.1492 Q452.8101,289.2158 452.8101,291.3159 Q452.8101,293.4077 453.4949,294.4744 Q454.1797,295.541 455.5244,295.541 Q456.1553,295.541 456.7488,295.2712 Q457.3423,295.0015 457.9731,294.4204 Z "/><text fill="#000000" font-family="sans-serif" font-size="12" lengthAdjust="spacingAndGlyphs" textLength="141" x="469.5" y="295.5352">MockRequestProcessor5</text><line style="stroke: #A80036; stroke-width: 1.5;" x1="441.5" x2="612.5" y1="307" y2="307"/><line style="stroke: #A80036; stroke-width: 1.5;" x1="441.5" x2="612.5" y1="315" y2="315"/></a><!--MD5=[76185e6854505f0ba6d9e6715af7eced]
class it.tidalwave.northernwind.frontend.ui.spi.mock.MockRequestResettable2--><a href="MockRequestResettable2.html" target="_top" title="MockRequestResettable2.html" xlink:actuate="onRequest" xlink:href="MockRequestResettable2.html" xlink:show="new" xlink:title="MockRequestResettable2.html" xlink:type="simple"><rect codeLine="13" fill="#FEFECE" filter="url(#f8qf8y4irlg1n)" height="60.9551" id="it.tidalwave.northernwind.frontend.ui.spi.mock.MockRequestResettable2" style="stroke: #A80036; stroke-width: 1.5;" width="178" x="24" y="154"/><ellipse cx="39" cy="170" fill="#ADD1B2" rx="11" ry="11" style="stroke: #A80036; stroke-width: 1.0;"/><path d="M41.4731,176.1431 Q40.8921,176.4419 40.2529,176.5913 Q39.6138,176.7407 38.9082,176.7407 Q36.4014,176.7407 35.0815,175.0889 Q33.7617,173.437 33.7617,170.3159 Q33.7617,167.1865 35.0815,165.5347 Q36.4014,163.8828 38.9082,163.8828 Q39.6138,163.8828 40.2612,164.0322 Q40.9087,164.1816 41.4731,164.4805 L41.4731,167.2031 Q40.8423,166.6221 40.2488,166.3523 Q39.6553,166.0825 39.0244,166.0825 Q37.6797,166.0825 36.9949,167.1492 Q36.3101,168.2158 36.3101,170.3159 Q36.3101,172.4077 36.9949,173.4744 Q37.6797,174.541 39.0244,174.541 Q39.6553,174.541 40.2488,174.2712 Q40.8423,174.0015 41.4731,173.4204 Z "/><text fill="#000000" font-family="sans-serif" font-size="12" lengthAdjust="spacingAndGlyphs" textLength="146" x="53" y="174.5352">MockRequestResettable2</text><line style="stroke: #A80036; stroke-width: 1.5;" x1="25" x2="201" y1="186" y2="186"/><line style="stroke: #A80036; stroke-width: 1.5;" x1="25" x2="201" y1="194" y2="194"/><ellipse cx="35" cy="205" fill="#84BE84" rx="3" ry="3" style="stroke: #038048; stroke-width: 1.0;"/><text fill="#000000" font-family="sans-serif" font-size="11" lengthAdjust="spacingAndGlyphs" textLength="107" x="44" y="208.6348">requestReset(): void</text></a><!--MD5=[d9c401b53ef47d9ef8b5a65373ef5f8d]
class it.tidalwave.northernwind.frontend.ui.spi.mock.MockRequestProcessor3--><a href="MockRequestProcessor3.html" target="_top" title="MockRequestProcessor3.html" xlink:actuate="onRequest" xlink:href="MockRequestProcessor3.html" xlink:show="new" xlink:title="MockRequestProcessor3.html" xlink:type="simple"><rect codeLine="17" fill="#FEFECE" filter="url(#f8qf8y4irlg1n)" height="48" id="it.tidalwave.northernwind.frontend.ui.spi.mock.MockRequestProcessor3" style="stroke: #A80036; stroke-width: 1.5;" width="173" x="648.5" y="275"/><ellipse cx="663.5" cy="291" fill="#ADD1B2" rx="11" ry="11" style="stroke: #A80036; stroke-width: 1.0;"/><path d="M665.9731,297.1431 Q665.3921,297.4419 664.7529,297.5913 Q664.1138,297.7407 663.4082,297.7407 Q660.9014,297.7407 659.5815,296.0889 Q658.2617,294.437 658.2617,291.3159 Q658.2617,288.1865 659.5815,286.5347 Q660.9014,284.8828 663.4082,284.8828 Q664.1138,284.8828 664.7612,285.0322 Q665.4087,285.1816 665.9731,285.4805 L665.9731,288.2031 Q665.3423,287.6221 664.7488,287.3523 Q664.1553,287.0825 663.5244,287.0825 Q662.1797,287.0825 661.4949,288.1492 Q660.8101,289.2158 660.8101,291.3159 Q660.8101,293.4077 661.4949,294.4744 Q662.1797,295.541 663.5244,295.541 Q664.1553,295.541 664.7488,295.2712 Q665.3423,295.0015 665.9731,294.4204 Z "/><text fill="#000000" font-family="sans-serif" font-size="12" lengthAdjust="spacingAndGlyphs" textLength="141" x="677.5" y="295.5352">MockRequestProcessor3</text><line style="stroke: #A80036; stroke-width: 1.5;" x1="649.5" x2="820.5" y1="307" y2="307"/><line style="stroke: #A80036; stroke-width: 1.5;" x1="649.5" x2="820.5" y1="315" y2="315"/></a><!--MD5=[10500def3f7205a1627beb130dd9f6c6]
class it.tidalwave.northernwind.frontend.ui.spi.mock.MockRequestProcessor1--><a href="MockRequestProcessor1.html" target="_top" title="MockRequestProcessor1.html" xlink:actuate="onRequest" xlink:href="MockRequestProcessor1.html" xlink:show="new" xlink:title="MockRequestProcessor1.html" xlink:type="simple"><rect codeLine="19" fill="#FEFECE" filter="url(#f8qf8y4irlg1n)" height="48" id="it.tidalwave.northernwind.frontend.ui.spi.mock.MockRequestProcessor1" style="stroke: #A80036; stroke-width: 1.5;" width="173" x="856.5" y="275"/><ellipse cx="871.5" cy="291" fill="#ADD1B2" rx="11" ry="11" style="stroke: #A80036; stroke-width: 1.0;"/><path d="M873.9731,297.1431 Q873.3921,297.4419 872.7529,297.5913 Q872.1138,297.7407 871.4082,297.7407 Q868.9014,297.7407 867.5815,296.0889 Q866.2617,294.437 866.2617,291.3159 Q866.2617,288.1865 867.5815,286.5347 Q868.9014,284.8828 871.4082,284.8828 Q872.1138,284.8828 872.7612,285.0322 Q873.4087,285.1816 873.9731,285.4805 L873.9731,288.2031 Q873.3423,287.6221 872.7488,287.3523 Q872.1553,287.0825 871.5244,287.0825 Q870.1797,287.0825 869.4949,288.1492 Q868.8101,289.2158 868.8101,291.3159 Q868.8101,293.4077 869.4949,294.4744 Q870.1797,295.541 871.5244,295.541 Q872.1553,295.541 872.7488,295.2712 Q873.3423,295.0015 873.9731,294.4204 Z "/><text fill="#000000" font-family="sans-serif" font-size="12" lengthAdjust="spacingAndGlyphs" textLength="141" x="885.5" y="295.5352">MockRequestProcessor1</text><line style="stroke: #A80036; stroke-width: 1.5;" x1="857.5" x2="1028.5" y1="307" y2="307"/><line style="stroke: #A80036; stroke-width: 1.5;" x1="857.5" x2="1028.5" y1="315" y2="315"/></a><!--MD5=[c0e7ac5adb1643e4ab0a48e5257e1922]
class it.tidalwave.northernwind.frontend.ui.spi.mock.MockRequestProcessorSupport--><a href="MockRequestProcessorSupport.html" target="_top" title="MockRequestProcessorSupport.html" xlink:actuate="onRequest" xlink:href="MockRequestProcessorSupport.html" xlink:show="new" xlink:title="MockRequestProcessorSupport.html" xlink:type="simple"><rect codeLine="21" fill="#FEFECE" filter="url(#f8qf8y4irlg1n)" height="60.9551" id="it.tidalwave.northernwind.frontend.ui.spi.mock.MockRequestProcessorSupport" style="stroke: #A80036; stroke-width: 1.5;" width="210" x="450" y="154"/><ellipse cx="465" cy="170" fill="#ADD1B2" rx="11" ry="11" style="stroke: #A80036; stroke-width: 1.0;"/><path d="M467.4731,176.1431 Q466.8921,176.4419 466.2529,176.5913 Q465.6138,176.7407 464.9082,176.7407 Q462.4014,176.7407 461.0815,175.0889 Q459.7617,173.437 459.7617,170.3159 Q459.7617,167.1865 461.0815,165.5347 Q462.4014,163.8828 464.9082,163.8828 Q465.6138,163.8828 466.2612,164.0322 Q466.9087,164.1816 467.4731,164.4805 L467.4731,167.2031 Q466.8423,166.6221 466.2488,166.3523 Q465.6553,166.0825 465.0244,166.0825 Q463.6797,166.0825 462.9949,167.1492 Q462.3101,168.2158 462.3101,170.3159 Q462.3101,172.4077 462.9949,173.4744 Q463.6797,174.541 465.0244,174.541 Q465.6553,174.541 466.2488,174.2712 Q466.8423,174.0015 467.4731,173.4204 Z "/><text fill="#000000" font-family="sans-serif" font-size="12" lengthAdjust="spacingAndGlyphs" textLength="178" x="479" y="174.5352">MockRequestProcessorSupport</text><line style="stroke: #A80036; stroke-width: 1.5;" x1="451" x2="659" y1="186" y2="186"/><line style="stroke: #A80036; stroke-width: 1.5;" x1="451" x2="659" y1="194" y2="194"/><ellipse cx="461" cy="205" fill="#84BE84" rx="3" ry="3" style="stroke: #038048; stroke-width: 1.0;"/><text fill="#000000" font-family="sans-serif" font-size="11" lengthAdjust="spacingAndGlyphs" textLength="133" x="470" y="208.6348">process(Request): Status</text></a><!--MD5=[a43b82c5fe40b442c78467e8f3f1c9ce]
class it.tidalwave.northernwind.core.model.spi.RequestResettable--><a href="../../../../../../../../apidocs/it/tidalwave/northernwind/core/model/spi/RequestResettable.html" target="_top" title="../../../../../../../../apidocs/it/tidalwave/northernwind/core/model/spi/RequestResettable.html" xlink:actuate="onRequest" xlink:href="../../../../../../../../apidocs/it/tidalwave/northernwind/core/model/spi/RequestResettable.html" xlink:show="new" xlink:title="../../../../../../../../apidocs/it/tidalwave/northernwind/core/model/spi/RequestResettable.html" xlink:type="simple"><rect codeLine="36" fill="#FEFECE" filter="url(#f8qf8y4irlg1n)" height="60.9551" id="it.tidalwave.northernwind.core.model.spi.RequestResettable" style="stroke: #A80036; stroke-width: 1.5;" width="140" x="81" y="33"/><ellipse cx="96" cy="49" fill="#B4A7E5" rx="11" ry="11" style="stroke: #A80036; stroke-width: 1.0;"/><path d="M92.4277,45.2651 L92.4277,43.1069 L99.8071,43.1069 L99.8071,45.2651 L97.3418,45.2651 L97.3418,53.3418 L99.8071,53.3418 L99.8071,55.5 L92.4277,55.5 L92.4277,53.3418 L94.8931,53.3418 L94.8931,45.2651 Z "/><text fill="#000000" font-family="sans-serif" font-size="12" font-style="italic" lengthAdjust="spacingAndGlyphs" textLength="108" x="110" y="53.5352">RequestResettable</text><line style="stroke: #A80036; stroke-width: 1.5;" x1="82" x2="220" y1="65" y2="65"/><line style="stroke: #A80036; stroke-width: 1.5;" x1="82" x2="220" y1="73" y2="73"/><ellipse cx="92" cy="84" fill="#84BE84" rx="3" ry="3" style="stroke: #038048; stroke-width: 1.0;"/><text fill="#000000" font-family="sans-serif" font-size="11" font-style="italic" lengthAdjust="spacingAndGlyphs" textLength="107" x="101" y="87.6348">requestReset(): void</text></a><!--MD5=[704de6b8ed38b98894edd2778e035021]
class it.tidalwave.northernwind.core.model.RequestProcessor--><rect codeLine="42" fill="#FEFECE" filter="url(#f8qf8y4irlg1n)" height="60.9551" id="it.tidalwave.northernwind.core.model.RequestProcessor" style="stroke: #A80036; stroke-width: 1.5;" width="159" x="475.5" y="33"/><ellipse cx="501.3" cy="49" fill="#B4A7E5" rx="11" ry="11" style="stroke: #A80036; stroke-width: 1.0;"/><path d="M497.7277,45.2651 L497.7277,43.1069 L505.1071,43.1069 L505.1071,45.2651 L502.6418,45.2651 L502.6418,53.3418 L505.1071,53.3418 L505.1071,55.5 L497.7277,55.5 L497.7277,53.3418 L500.1931,53.3418 L500.1931,45.2651 Z "/><text fill="#000000" font-family="sans-serif" font-size="12" font-style="italic" lengthAdjust="spacingAndGlyphs" textLength="103" x="517.7" y="53.5352">RequestProcessor</text><line style="stroke: #A80036; stroke-width: 1.5;" x1="476.5" x2="633.5" y1="65" y2="65"/><line style="stroke: #A80036; stroke-width: 1.5;" x1="476.5" x2="633.5" y1="73" y2="73"/><ellipse cx="486.5" cy="84" fill="#84BE84" rx="3" ry="3" style="stroke: #038048; stroke-width: 1.0;"/><text fill="#000000" font-family="sans-serif" font-size="11" font-style="italic" lengthAdjust="spacingAndGlyphs" textLength="133" x="495.5" y="87.6348">process(Request): Status</text><!--MD5=[77739010281b53bf52bfc7242c1de530]
reverse link it.tidalwave.northernwind.core.model.spi.RequestResettable to it.tidalwave.northernwind.frontend.ui.spi.mock.MockRequestResettable1--><path codeLine="25" d="M211.7491,105.5037 C234.8095,121.4483 260.6126,139.2893 281.8542,153.9764 " fill="none" id="it.tidalwave.northernwind.core.model.spi.RequestResettable-backto-it.tidalwave.northernwind.frontend.ui.spi.mock.MockRequestResettable1" style="stroke: #A80036; stroke-width: 1.0; stroke-dasharray: 7.0,7.0;"/><polygon fill="none" points="207.6295,111.1656,195.1599,94.0334,215.5916,99.6502,207.6295,111.1656" style="stroke: #A80036; stroke-width: 1.0;"/><!--MD5=[d77627fbfc8e397700ebd58dd20da610]
reverse link it.tidalwave.northernwind.frontend.ui.spi.mock.MockRequestProcessorSupport to it.tidalwave.northernwind.frontend.ui.spi.mock.MockRequestProcessor4--><path codeLine="26" d="M430.3493,216.6453 C356.1416,235.7822 263.8379,259.5857 197.5792,276.6727 " fill="none" id="it.tidalwave.northernwind.frontend.ui.spi.mock.MockRequestProcessorSupport-backto-it.tidalwave.northernwind.frontend.ui.spi.mock.MockRequestProcessor4" style="stroke: #A80036; stroke-width: 1.0;"/><polygon fill="none" points="428.6638,209.851,449.7782,211.6349,432.1598,223.4075,428.6638,209.851" style="stroke: #A80036; stroke-width: 1.0;"/><!--MD5=[bf7c5e88ee461f691ddcadce75aea0d4]
reverse link it.tidalwave.northernwind.frontend.ui.spi.mock.MockRequestProcessorSupport to it.tidalwave.northernwind.frontend.ui.spi.mock.MockRequestProcessor2--><path codeLine="27" d="M473.7798,223.9056 C438.8543,240.8504 399.1525,260.1124 368.7032,274.8855 " fill="none" id="it.tidalwave.northernwind.frontend.ui.spi.mock.MockRequestProcessorSupport-backto-it.tidalwave.northernwind.frontend.ui.spi.mock.MockRequestProcessor2" style="stroke: #A80036; stroke-width: 1.0;"/><polygon fill="none" points="471.0168,217.4658,492.0663,215.0335,477.1279,230.0616,471.0168,217.4658" style="stroke: #A80036; stroke-width: 1.0;"/><!--MD5=[03b26156ae7e47374a24346b4f451af4]
reverse link it.tidalwave.northernwind.frontend.ui.spi.mock.MockRequestProcessorSupport to it.tidalwave.northernwind.frontend.ui.spi.mock.MockRequestProcessor5--><path codeLine="28" d="M542.7119,234.7497 C539.3146,248.6422 535.7807,263.0931 532.9268,274.7634 " fill="none" id="it.tidalwave.northernwind.frontend.ui.spi.mock.MockRequestProcessorSupport-backto-it.tidalwave.northernwind.frontend.ui.spi.mock.MockRequestProcessor5" style="stroke: #A80036; stroke-width: 1.0;"/><polygon fill="none" points="535.946,232.9486,547.4965,215.1839,549.5452,236.2743,535.946,232.9486" style="stroke: #A80036; stroke-width: 1.0;"/><!--MD5=[7a4a9e9d321194d694eda002884203b4]
reverse link it.tidalwave.northernwind.core.model.spi.RequestResettable to it.tidalwave.northernwind.frontend.ui.spi.mock.MockRequestResettable2--><path codeLine="29" d="M135.3509,113.3301 C131.0232,127.1105 126.4559,141.6535 122.5859,153.9764 " fill="none" id="it.tidalwave.northernwind.core.model.spi.RequestResettable-backto-it.tidalwave.northernwind.frontend.ui.spi.mock.MockRequestResettable2" style="stroke: #A80036; stroke-width: 1.0; stroke-dasharray: 7.0,7.0;"/><polygon fill="none" points="128.7401,111.0172,141.411,94.0334,142.0969,115.212,128.7401,111.0172" style="stroke: #A80036; stroke-width: 1.0;"/><!--MD5=[22af575d5d105641e5db20adc3abe83e]
reverse link it.tidalwave.northernwind.frontend.ui.spi.mock.MockRequestProcessorSupport to it.tidalwave.northernwind.frontend.ui.spi.mock.MockRequestProcessor3--><path codeLine="30" d="M620.1367,225.9342 C646.0168,242.3968 674.8733,260.7527 697.189,274.948 " fill="none" id="it.tidalwave.northernwind.frontend.ui.spi.mock.MockRequestProcessorSupport-backto-it.tidalwave.northernwind.frontend.ui.spi.mock.MockRequestProcessor3" style="stroke: #A80036; stroke-width: 1.0;"/><polygon fill="none" points="616.3548,231.8247,603.2367,215.1839,623.869,220.0121,616.3548,231.8247" style="stroke: #A80036; stroke-width: 1.0;"/><!--MD5=[e1a2ce0db57f2f455c4f750eca2ad1f6]
reverse link it.tidalwave.northernwind.frontend.ui.spi.mock.MockRequestProcessorSupport to it.tidalwave.northernwind.frontend.ui.spi.mock.MockRequestProcessor1--><path codeLine="31" d="M677.9467,220.782 C737.9161,238.4791 808.3959,259.2779 861.5974,274.9778 " fill="none" id="it.tidalwave.northernwind.frontend.ui.spi.mock.MockRequestProcessorSupport-backto-it.tidalwave.northernwind.frontend.ui.spi.mock.MockRequestProcessor1" style="stroke: #A80036; stroke-width: 1.0;"/><polygon fill="none" points="675.6681,227.408,658.4672,215.0335,679.6307,213.9805,675.6681,227.408" style="stroke: #A80036; stroke-width: 1.0;"/><!--MD5=[3d530ef44ef95f9c8b7eaf405adb0748]
reverse link it.tidalwave.northernwind.core.model.RequestProcessor to it.tidalwave.northernwind.frontend.ui.spi.mock.MockRequestProcessorSupport--><path codeLine="32" d="M555,114.2927 C555,127.7857 555,141.9401 555,153.9764 " fill="none" id="it.tidalwave.northernwind.core.model.RequestProcessor-backto-it.tidalwave.northernwind.frontend.ui.spi.mock.MockRequestProcessorSupport" style="stroke: #A80036; stroke-width: 1.0; stroke-dasharray: 7.0,7.0;"/><polygon fill="none" points="548.0001,114.0334,555,94.0334,562.0001,114.0334,548.0001,114.0334" style="stroke: #A80036; stroke-width: 1.0;"/><text fill="#888888" font-family="sans-serif" font-size="10" lengthAdjust="spacingAndGlyphs" textLength="188" x="427" y="346.668">UMLDoclet 2.0.12, PlantUML 1.2020.16</text><!--MD5=[08e52ecbd2b8a5c44049b6fb562c9d8c]
@startuml
    namespace it.tidalwave.northernwind.frontend.ui.spi.mock {

        class MockRequestResettable1 [[MockRequestResettable1.html]] {
            +requestReset(): void
        }

        class MockRequestProcessor4 [[MockRequestProcessor4.html]]

        class MockRequestProcessor2 [[MockRequestProcessor2.html]]

        class MockRequestProcessor5 [[MockRequestProcessor5.html]]

        class MockRequestResettable2 [[MockRequestResettable2.html]] {
            +requestReset(): void
        }

        class MockRequestProcessor3 [[MockRequestProcessor3.html]]

        class MockRequestProcessor1 [[MockRequestProcessor1.html]]

        class MockRequestProcessorSupport [[MockRequestProcessorSupport.html]] {
            +process(Request): Status
        }

        it.tidalwave.northernwind.core.model.spi.RequestResettable <|.. MockRequestResettable1
        MockRequestProcessorSupport <|- - MockRequestProcessor4
        MockRequestProcessorSupport <|- - MockRequestProcessor2
        MockRequestProcessorSupport <|- - MockRequestProcessor5
        it.tidalwave.northernwind.core.model.spi.RequestResettable <|.. MockRequestResettable2
        MockRequestProcessorSupport <|- - MockRequestProcessor3
        MockRequestProcessorSupport <|- - MockRequestProcessor1
        it.tidalwave.northernwind.core.model.RequestProcessor <|.. MockRequestProcessorSupport
    }

    namespace it.tidalwave.northernwind.core.model.spi {
        interface RequestResettable [[../../../../../../../../apidocs/it/tidalwave/northernwind/core/model/spi/RequestResettable.html]] {
            {abstract} +requestReset(): void
        }
    }

    namespace it.tidalwave.northernwind.core.model {
        interface RequestProcessor {
            {abstract} +process(Request): Status
        }
    }

    center footer UMLDoclet 2.0.12, PlantUML 1.2020.16
@enduml

PlantUML version 1.2020.16(Sun Aug 23 22:20:43 CEST 2020)
(APACHE source distribution)
Java Runtime: OpenJDK Runtime Environment
JVM: OpenJDK 64-Bit Server VM
Default Encoding: UTF-8
Language: en
Country: GB
--></g></svg>