<?xml version="1.0" encoding="UTF-8" standalone="no"?><svg xmlns="http://www.w3.org/2000/svg" xmlns:xlink="http://www.w3.org/1999/xlink" contentScriptType="application/ecmascript" contentStyleType="text/css" height="170px" preserveAspectRatio="none" style="width:574px;height:170px;" version="1.1" viewBox="0 0 574 170" width="574px" zoomAndPan="magnify"><defs><filter height="300%" id="f15kgfvemfmu2" width="300%" x="-1" y="-1"><feGaussianBlur result="blurOut" stdDeviation="2.0"/><feColorMatrix in="blurOut" result="blurOut2" type="matrix" values="0 0 0 0 0 0 0 0 0 0 0 0 0 0 0 0 0 0 .4 0"/><feOffset dx="4.0" dy="4.0" in="blurOut2" result="blurOut3"/><feBlend in="SourceGraphic" in2="blurOut3" mode="normal"/></filter></defs><g><!--MD5=[ddfbce297c9fec89683da030c8f38d0a]
cluster it.tidalwave.role.spring.spi--><polygon fill="#FFFFFF" filter="url(#f15kgfvemfmu2)" points="16,6,210,6,217,28.4883,552,28.4883,552,141,16,141,16,6" style="stroke: #000000; stroke-width: 1.5;"/><line style="stroke: #000000; stroke-width: 1.5;" x1="16" x2="217" y1="28.4883" y2="28.4883"/><text fill="#000000" font-family="sans-serif" font-size="14" font-weight="bold" lengthAdjust="spacingAndGlyphs" textLength="188" x="20" y="21.5352">it.tidalwave.role.spring.spi</text><!--MD5=[d885806ef6a0522b0e83c00fda361d8c]
class it.tidalwave.role.spring.spi.DciContextWithAutoThreadBindingAspectTest--><a href="DciContextWithAutoThreadBindingAspectTest.html" target="_top" title="DciContextWithAutoThreadBindingAspectTest.html" xlink:actuate="onRequest" xlink:href="DciContextWithAutoThreadBindingAspectTest.html" xlink:show="new" xlink:title="DciContextWithAutoThreadBindingAspectTest.html" xlink:type="simple"><rect codeLine="3" fill="#FEFECE" filter="url(#f15kgfvemfmu2)" height="99.8203" id="it.tidalwave.role.spring.spi.DciContextWithAutoThreadBindingAspectTest" style="stroke: #A80036; stroke-width: 1.5;" width="520" x="24" y="33"/><ellipse cx="149.75" cy="49" fill="#ADD1B2" rx="11" ry="11" style="stroke: #A80036; stroke-width: 1.0;"/><path d="M152.2231,55.1431 Q151.6421,55.4419 151.0029,55.5913 Q150.3638,55.7407 149.6582,55.7407 Q147.1514,55.7407 145.8315,54.0889 Q144.5117,52.437 144.5117,49.3159 Q144.5117,46.1865 145.8315,44.5347 Q147.1514,42.8828 149.6582,42.8828 Q150.3638,42.8828 151.0112,43.0322 Q151.6587,43.1816 152.2231,43.4805 L152.2231,46.2031 Q151.5923,45.6221 150.9988,45.3523 Q150.4053,45.0825 149.7744,45.0825 Q148.4297,45.0825 147.7449,46.1492 Q147.0601,47.2158 147.0601,49.3159 Q147.0601,51.4077 147.7449,52.4744 Q148.4297,53.541 149.7744,53.541 Q150.4053,53.541 150.9988,53.2712 Q151.5923,53.0015 152.2231,52.4204 Z "/><text fill="#000000" font-family="sans-serif" font-size="12" lengthAdjust="spacingAndGlyphs" textLength="260" x="170.25" y="53.5352">DciContextWithAutoThreadBindingAspectTest</text><line style="stroke: #A80036; stroke-width: 1.5;" x1="25" x2="543" y1="65" y2="65"/><line style="stroke: #A80036; stroke-width: 1.5;" x1="25" x2="543" y1="73" y2="73"/><ellipse cx="35" cy="84" fill="#84BE84" rx="3" ry="3" style="stroke: #038048; stroke-width: 1.0;"/><text fill="#000000" font-family="sans-serif" font-size="11" lengthAdjust="spacingAndGlyphs" textLength="67" x="44" y="87.6348">setup(): void</text><ellipse cx="35" cy="96.9551" fill="#84BE84" rx="3" ry="3" style="stroke: #038048; stroke-width: 1.0;"/><text fill="#000000" font-family="sans-serif" font-size="11" lengthAdjust="spacingAndGlyphs" textLength="315" x="44" y="100.5898">must_not_bind_context_when_no_annotation(String): void</text><ellipse cx="35" cy="109.9102" fill="#84BE84" rx="3" ry="3" style="stroke: #038048; stroke-width: 1.0;"/><text fill="#000000" font-family="sans-serif" font-size="11" lengthAdjust="spacingAndGlyphs" textLength="494" x="44" y="113.5449">must_not_bind_context_when_annotation_present_but_no_autoThreadBinding(String): void</text><ellipse cx="35" cy="122.8652" fill="#84BE84" rx="3" ry="3" style="stroke: #038048; stroke-width: 1.0;"/><text fill="#000000" font-family="sans-serif" font-size="11" lengthAdjust="spacingAndGlyphs" textLength="452" x="44" y="126.5">must_bind_context_when_annotation_present_and_autoThreadBinding(String): void</text></a><text fill="#888888" font-family="sans-serif" font-size="10" lengthAdjust="spacingAndGlyphs" textLength="188" x="184" y="156.668">UMLDoclet 2.0.12, PlantUML 1.2020.16</text><!--MD5=[7feecc839ca0319939e97d96d0191853]
@startuml
    namespace it.tidalwave.role.spring.spi {

        class DciContextWithAutoThreadBindingAspectTest [[DciContextWithAutoThreadBindingAspectTest.html]] {
            +setup(): void
            +must_not_bind_context_when_no_annotation(String): void
            +must_not_bind_context_when_annotation_present_but_no_autoThreadBinding(String): void
            +must_bind_context_when_annotation_present_and_autoThreadBinding(String): void
        }

    }

    center footer UMLDoclet 2.0.12, PlantUML 1.2020.16
@enduml

PlantUML version 1.2020.16(Sun Aug 23 22:20:43 CEST 2020)
(APACHE source distribution)
Java Runtime: OpenJDK Runtime Environment
JVM: OpenJDK 64-Bit Server VM
Default Encoding: UTF-8
Language: en
Country: GB
--></g></svg>