@startuml
    set namespaceSeparator none
    hide empty fields
    hide empty methods

    class "<size:14>Key\n<size:10>it.tidalwave.util" as it.tidalwave.util.Key<T> [[Key.html]] {
        +--Key--(String)
        +--Key--(StringValue)
        {static} +of(String, Class<T>): Key<T>
        {static} +of(String): Key<Object>
        {static} +allKeys(): Set<Key<?>>
        +stringValue(): String
        +compareTo(Key<?>): int
    }

    interface "<size:14>StringValue\n<size:10>it.tidalwave.util" as it.tidalwave.util.StringValue [[StringValue.html]] {
        {abstract} +stringValue(): String
    }
    interface "<size:14>Comparable\n<size:10>java.lang" as java.lang.Comparable<Key<?>> {
        {abstract} +compareTo(Key<?>): int
    }
    interface "<size:14>Serializable\n<size:10>java.io" as java.io.Serializable

    it.tidalwave.util.StringValue <|.. it.tidalwave.util.Key
    java.lang.Comparable <|.. it.tidalwave.util.Key
    java.io.Serializable <|.. it.tidalwave.util.Key

    center footer UMLDoclet 2.0.12, PlantUML 1.2020.16
@enduml
