<?xml version="1.0" encoding="UTF-8" standalone="no"?><svg xmlns="http://www.w3.org/2000/svg" xmlns:xlink="http://www.w3.org/1999/xlink" contentScriptType="application/ecmascript" contentStyleType="text/css" height="109px" preserveAspectRatio="none" style="width:525px;height:109px;" version="1.1" viewBox="0 0 525 109" width="525px" zoomAndPan="magnify"><defs><filter height="300%" id="f1alzuqy9tcc8d" width="300%" x="-1" y="-1"><feGaussianBlur result="blurOut" stdDeviation="2.0"/><feColorMatrix in="blurOut" result="blurOut2" type="matrix" values="0 0 0 0 0 0 0 0 0 0 0 0 0 0 0 0 0 0 .4 0"/><feOffset dx="4.0" dy="4.0" in="blurOut2" result="blurOut3"/><feBlend in="SourceGraphic" in2="blurOut3" mode="normal"/></filter></defs><g><!--MD5=[ecb722806deb13e2852f73b2149a33da]
class it.tidalwave.util.StreamOperations--><a href="StreamOperations.html" target="_top" title="StreamOperations.html" xlink:actuate="onRequest" xlink:href="StreamOperations.html" xlink:show="new" xlink:title="StreamOperations.html" xlink:type="simple"><rect codeLine="5" fill="#FEFECE" filter="url(#f1alzuqy9tcc8d)" height="72.1758" id="it.tidalwave.util.StreamOperations" style="stroke: #A80036; stroke-width: 1.5;" width="499" x="7" y="7"/><ellipse cx="190.25" cy="26.1328" fill="#ADD1B2" rx="11" ry="11" style="stroke: #A80036; stroke-width: 1.0;"/><path d="M192.7231,32.2759 Q192.1421,32.5747 191.5029,32.7241 Q190.8638,32.8735 190.1582,32.8735 Q187.6514,32.8735 186.3315,31.2217 Q185.0117,29.5698 185.0117,26.4487 Q185.0117,23.3193 186.3315,21.6675 Q187.6514,20.0156 190.1582,20.0156 Q190.8638,20.0156 191.5112,20.165 Q192.1587,20.3145 192.7231,20.6133 L192.7231,23.3359 Q192.0923,22.7549 191.4988,22.4851 Q190.9053,22.2153 190.2744,22.2153 Q188.9297,22.2153 188.2449,23.282 Q187.5601,24.3486 187.5601,26.4487 Q187.5601,28.5405 188.2449,29.6072 Q188.9297,30.6738 190.2744,30.6738 Q190.9053,30.6738 191.4988,30.4041 Q192.0923,30.1343 192.7231,29.5532 Z "/><text fill="#000000" font-family="sans-serif" font-size="14" lengthAdjust="spacingAndGlyphs" textLength="124" x="210.75" y="25.5352">StreamOperations</text><text fill="#000000" font-family="sans-serif" font-size="10" lengthAdjust="spacingAndGlyphs" textLength="76" x="234.75" y="38.1563">it.tidalwave.util</text><line style="stroke: #A80036; stroke-width: 1.5;" x1="8" x2="505" y1="45.2656" y2="45.2656"/><ellipse cx="18" cy="56.2656" fill="#84BE84" rx="3" ry="3" style="stroke: #038048; stroke-width: 1.0;"/><text fill="#000000" font-family="sans-serif" font-size="11" lengthAdjust="spacingAndGlyphs" text-decoration="underline" textLength="381" x="27" y="59.9004">zip(Stream&lt;? extends A&gt;, Stream&lt;? extends B&gt;): Stream&lt;Pair&lt;A, B&gt;&gt;</text><ellipse cx="18" cy="69.2207" fill="#84BE84" rx="3" ry="3" style="stroke: #038048; stroke-width: 1.0;"/><text fill="#000000" font-family="sans-serif" font-size="11" lengthAdjust="spacingAndGlyphs" text-decoration="underline" textLength="473" x="27" y="72.8555">zip(Stream&lt;A&gt;, Stream&lt;​B&gt;, BiFunction&lt;? super A, ? super B, ? extends R&gt;): Stream&lt;R&gt;</text></a><text fill="#888888" font-family="sans-serif" font-size="10" lengthAdjust="spacingAndGlyphs" textLength="188" x="162.5" y="95.8438">UMLDoclet 2.0.12, PlantUML 1.2020.16</text><!--MD5=[a1e5ff86e5da4d6003a66f8529987d88]
@startuml
    set namespaceSeparator none
    hide empty fields
    hide empty methods

    class "<size:14>StreamOperations\n<size:10>it.tidalwave.util" as it.tidalwave.util.StreamOperations [[StreamOperations.html]] {
        {static} +zip(Stream<? extends A>, Stream<? extends B>): Stream<Pair<A, B>>
        {static} +zip(Stream<A>, Stream<​B>, BiFunction<? super A, ? super B, ? extends R>): Stream<R>
    }

    center footer UMLDoclet 2.0.12, PlantUML 1.2020.16
@enduml

PlantUML version 1.2020.16(Sun Aug 23 22:20:43 CEST 2020)
(APACHE source distribution)
Java Runtime: OpenJDK Runtime Environment
JVM: OpenJDK 64-Bit Server VM
Default Encoding: UTF-8
Language: en
Country: GB
--></g></svg>