@startuml
    set namespaceSeparator none
    hide empty fields
    hide empty methods

    class "<size:14>FinderTest\n<size:10>it.tidalwave.util" as it.tidalwave.util.FinderTest [[FinderTest.html]] {
        +ofClone_must_behave_correctly(): void
        +ofClone_result_must_be_a_modifiable_list(): void
        +test1(): void
        +test2(): void
    }

    center footer UMLDoclet 2.0.12, PlantUML 1.2020.16
@enduml
