<?xml version="1.0" encoding="UTF-8" standalone="no"?><svg xmlns="http://www.w3.org/2000/svg" xmlns:xlink="http://www.w3.org/1999/xlink" contentScriptType="application/ecmascript" contentStyleType="text/css" height="122px" preserveAspectRatio="none" style="width:332px;height:122px;" version="1.1" viewBox="0 0 332 122" width="332px" zoomAndPan="magnify"><defs><filter height="300%" id="f1mp0w7amudefl" width="300%" x="-1" y="-1"><feGaussianBlur result="blurOut" stdDeviation="2.0"/><feColorMatrix in="blurOut" result="blurOut2" type="matrix" values="0 0 0 0 0 0 0 0 0 0 0 0 0 0 0 0 0 0 .4 0"/><feOffset dx="4.0" dy="4.0" in="blurOut2" result="blurOut3"/><feBlend in="SourceGraphic" in2="blurOut3" mode="normal"/></filter></defs><g><!--MD5=[d8ff34c00f9b208f720d4c0b993f5c6b]
class it.tidalwave.util.LazySupplierTest--><a href="LazySupplierTest.html" target="_top" title="LazySupplierTest.html" xlink:actuate="onRequest" xlink:href="LazySupplierTest.html" xlink:show="new" xlink:title="LazySupplierTest.html" xlink:type="simple"><rect codeLine="5" fill="#FEFECE" filter="url(#f1mp0w7amudefl)" height="85.1309" id="it.tidalwave.util.LazySupplierTest" style="stroke: #A80036; stroke-width: 1.5;" width="306" x="7" y="7"/><ellipse cx="97.75" cy="26.1328" fill="#ADD1B2" rx="11" ry="11" style="stroke: #A80036; stroke-width: 1.0;"/><path d="M100.2231,32.2759 Q99.6421,32.5747 99.0029,32.7241 Q98.3638,32.8735 97.6582,32.8735 Q95.1514,32.8735 93.8315,31.2217 Q92.5117,29.5698 92.5117,26.4487 Q92.5117,23.3193 93.8315,21.6675 Q95.1514,20.0156 97.6582,20.0156 Q98.3638,20.0156 99.0112,20.165 Q99.6587,20.3145 100.2231,20.6133 L100.2231,23.3359 Q99.5923,22.7549 98.9988,22.4851 Q98.4053,22.2153 97.7744,22.2153 Q96.4297,22.2153 95.7449,23.282 Q95.0601,24.3486 95.0601,26.4487 Q95.0601,28.5405 95.7449,29.6072 Q96.4297,30.6738 97.7744,30.6738 Q98.4053,30.6738 98.9988,30.4041 Q99.5923,30.1343 100.2231,29.5532 Z "/><text fill="#000000" font-family="sans-serif" font-size="14" lengthAdjust="spacingAndGlyphs" textLength="116" x="118.25" y="25.5352">LazySupplierTest</text><text fill="#000000" font-family="sans-serif" font-size="10" lengthAdjust="spacingAndGlyphs" textLength="76" x="138.25" y="38.1563">it.tidalwave.util</text><line style="stroke: #A80036; stroke-width: 1.5;" x1="8" x2="312" y1="45.2656" y2="45.2656"/><ellipse cx="18" cy="56.2656" fill="#84BE84" rx="3" ry="3" style="stroke: #038048; stroke-width: 1.0;"/><text fill="#000000" font-family="sans-serif" font-size="11" lengthAdjust="spacingAndGlyphs" textLength="226" x="27" y="59.9004">must_not_call_supplier_before_get(): void</text><ellipse cx="18" cy="69.2207" fill="#84BE84" rx="3" ry="3" style="stroke: #038048; stroke-width: 1.0;"/><text fill="#000000" font-family="sans-serif" font-size="11" lengthAdjust="spacingAndGlyphs" textLength="199" x="27" y="72.8555">must_call_supplier_only_once(): void</text><ellipse cx="18" cy="82.1758" fill="#84BE84" rx="3" ry="3" style="stroke: #038048; stroke-width: 1.0;"/><text fill="#000000" font-family="sans-serif" font-size="11" lengthAdjust="spacingAndGlyphs" textLength="280" x="27" y="85.8105">must_call_supplier_only_once_multithreaded(): void</text></a><text fill="#888888" font-family="sans-serif" font-size="10" lengthAdjust="spacingAndGlyphs" textLength="188" x="66" y="108.7988">UMLDoclet 2.0.12, PlantUML 1.2020.16</text><!--MD5=[c289aaa76668924c71ae8bdf8f1c2ae3]
@startuml
    set namespaceSeparator none
    hide empty fields
    hide empty methods

    class "<size:14>LazySupplierTest\n<size:10>it.tidalwave.util" as it.tidalwave.util.LazySupplierTest [[LazySupplierTest.html]] {
        +must_not_call_supplier_before_get(): void
        +must_call_supplier_only_once(): void
        +must_call_supplier_only_once_multithreaded(): void
    }

    center footer UMLDoclet 2.0.12, PlantUML 1.2020.16
@enduml

PlantUML version 1.2020.16(Sun Aug 23 22:20:43 CEST 2020)
(APACHE source distribution)
Java Runtime: OpenJDK Runtime Environment
JVM: OpenJDK 64-Bit Server VM
Default Encoding: UTF-8
Language: en
Country: GB
--></g></svg>