@startuml
    set namespaceSeparator none
    hide empty fields
    hide empty methods

    class "<size:14>PairTest\n<size:10>it.tidalwave.util" as it.tidalwave.util.PairTest [[PairTest.html]] {
        +test_Pair(): void
        +test_pairStream(): void
        +test_pairRange(): void
        +test_pairRangeClosed(): void
        +testDoubleNestedLoops(): void
        +test_indexedPairStream_from_array(): void
        +test_indexedPairStream_from_array_and_rebaser(): void
        +test_indexedPairStream__from_array_with_index_transformer(): void
        +test_indexedPairStream_from_list_as_iterable(): void
        +test_indexedPairStream_from_list_as_iterable_and_rebaser(): void
        +test_indexedPairStream__from_list_as_iterable_with_index_transformer(): void
        +test_indexedPairStream_from_stream(): void
        +test_indexedPairStream_from_stream_and_rebaser(): void
        +test_indexedPairStream__from_stream_with_index_transformer(): void
        +test_indexedPairStream_with_range_and_supplier(): void
        +test_indexedPairStream_with_range_and_supplier_and_rebaser(): void
        +test_indexedPairStream_with_range_and_supplier_and_index_transformer(): void
        +test_collector_to_map(): void
    }

    center footer UMLDoclet 2.0.12, PlantUML 1.2020.16
@enduml
