<?xml version="1.0" encoding="UTF-8" standalone="no"?><svg xmlns="http://www.w3.org/2000/svg" xmlns:xlink="http://www.w3.org/1999/xlink" contentScriptType="application/ecmascript" contentStyleType="text/css" height="130px" preserveAspectRatio="none" style="width:445px;height:130px;" version="1.1" viewBox="0 0 445 130" width="445px" zoomAndPan="magnify"><defs><filter height="300%" id="f1wyg9mnmzfb9k" width="300%" x="-1" y="-1"><feGaussianBlur result="blurOut" stdDeviation="2.0"/><feColorMatrix in="blurOut" result="blurOut2" type="matrix" values="0 0 0 0 0 0 0 0 0 0 0 0 0 0 0 0 0 0 .4 0"/><feOffset dx="4.0" dy="4.0" in="blurOut2" result="blurOut3"/><feBlend in="SourceGraphic" in2="blurOut3" mode="normal"/></filter></defs><g><!--MD5=[2febc7366d88a51845ac8a0a47b26f90]
class it.tidalwave.role.ui.PresentationModelFactory--><a href="PresentationModelFactory.html" target="_top" title="PresentationModelFactory.html" xlink:actuate="onRequest" xlink:href="PresentationModelFactory.html" xlink:show="new" xlink:title="PresentationModelFactory.html" xlink:type="simple"><rect codeLine="5" fill="#FEFECE" filter="url(#f1wyg9mnmzfb9k)" height="93.1309" id="it.tidalwave.role.ui.PresentationModelFactory" style="stroke: #A80036; stroke-width: 1.5;" width="419" x="7" y="7"/><ellipse cx="123.25" cy="26.1328" fill="#B4A7E5" rx="11" ry="11" style="stroke: #A80036; stroke-width: 1.0;"/><path d="M119.6777,22.3979 L119.6777,20.2397 L127.0571,20.2397 L127.0571,22.3979 L124.5918,22.3979 L124.5918,30.4746 L127.0571,30.4746 L127.0571,32.6328 L119.6777,32.6328 L119.6777,30.4746 L122.1431,30.4746 L122.1431,22.3979 Z "/><text fill="#000000" font-family="sans-serif" font-size="14" font-style="italic" lengthAdjust="spacingAndGlyphs" textLength="178" x="143.75" y="25.5352">PresentationModelFactory</text><text fill="#000000" font-family="sans-serif" font-size="10" font-style="italic" lengthAdjust="spacingAndGlyphs" textLength="91" x="187.25" y="38.1563">it.tidalwave.role.ui</text><line style="stroke: #A80036; stroke-width: 1.5;" x1="8" x2="425" y1="45.2656" y2="45.2656"/><ellipse cx="18" cy="56.2656" fill="none" rx="3" ry="3" style="stroke: #038048; stroke-width: 1.0;"/><text fill="#000000" font-family="sans-serif" font-size="11" lengthAdjust="spacingAndGlyphs" text-decoration="underline" textLength="343" x="27" y="59.9004">_PresentationModelFactory_: Class&lt;PresentationModelFactory&gt;</text><line style="stroke: #A80036; stroke-width: 1.5;" x1="8" x2="425" y1="66.2207" y2="66.2207"/><ellipse cx="18" cy="77.2207" fill="#84BE84" rx="3" ry="3" style="stroke: #038048; stroke-width: 1.0;"/><text fill="#000000" font-family="sans-serif" font-size="11" font-style="italic" lengthAdjust="spacingAndGlyphs" textLength="393" x="27" y="80.8555">createPresentationModel(Object, Collection&lt;Object&gt;): PresentationModel</text><ellipse cx="18" cy="90.1758" fill="#84BE84" rx="3" ry="3" style="stroke: #038048; stroke-width: 1.0;"/><text fill="#000000" font-family="sans-serif" font-size="11" lengthAdjust="spacingAndGlyphs" textLength="280" x="27" y="93.8105">createPresentationModel(Object): PresentationModel</text></a><text fill="#888888" font-family="sans-serif" font-size="10" lengthAdjust="spacingAndGlyphs" textLength="188" x="122.5" y="116.7988">UMLDoclet 2.0.12, PlantUML 1.2020.16</text><!--MD5=[ca6311cc1db5c3d04a57ae138803b563]
@startuml
    set namespaceSeparator none
    hide empty fields
    hide empty methods

    interface "<size:14>PresentationModelFactory\n<size:10>it.tidalwave.role.ui" as it.tidalwave.role.ui.PresentationModelFactory [[PresentationModelFactory.html]] {
        {static} +_PresentationModelFactory_: Class<PresentationModelFactory>
        {abstract} +createPresentationModel(Object, Collection<Object>): PresentationModel
        +createPresentationModel(Object): PresentationModel
    }

    center footer UMLDoclet 2.0.12, PlantUML 1.2020.16
@enduml

PlantUML version 1.2020.16(Sun Aug 23 22:20:43 CEST 2020)
(APACHE source distribution)
Java Runtime: OpenJDK Runtime Environment
JVM: OpenJDK 64-Bit Server VM
Default Encoding: UTF-8
Language: en
Country: GB
--></g></svg>