@startuml
    set namespaceSeparator none
    hide empty fields
    hide empty methods

    interface "<size:14>PresentationModel\n<size:10>it.tidalwave.role.ui" as it.tidalwave.role.ui.PresentationModel [[PresentationModel.html]] {
        {static} +PresentationModel: Class<PresentationModel>
        {static} +PROPERTY_CHILDREN: String
        {static} +CALLBACK_DISPOSE: String
        {abstract} +dispose(): void
        {abstract} +addPropertyChangeListener(PropertyChangeListener): void
        {abstract} +addPropertyChangeListener(String, PropertyChangeListener): void
        {abstract} +removePropertyChangeListener(PropertyChangeListener): void
        {abstract} +removePropertyChangeListener(String, PropertyChangeListener): void
        {abstract} +hasListeners(String): boolean
        {abstract} +getPropertyChangeListeners(): PropertyChangeListener[]
        {abstract} +getPropertyChangeListeners(String): PropertyChangeListener[]
        {static} +of(Object): PresentationModel
        {static} +of(Object, Object): PresentationModel
        {static} +of(Object, Collection<Object>): PresentationModel
        {static} +empty(): PresentationModel
        {static} +ofMaybePresentable(As, Collection<Object>): PresentationModel
        {static} +ofMaybePresentable(As): PresentationModel
    }

    interface "<size:14>As\n<size:10>it.tidalwave.util" as it.tidalwave.util.As [[../../util/As.html]] {
        {abstract} +as(Class<T>): T
        {abstract} +as(Class<T>, NotFoundBehaviour<T>): T
        {abstract} +asMany(Class<T>): Collection<T>
    }

    it.tidalwave.util.As <|-- it.tidalwave.role.ui.PresentationModel

    center footer UMLDoclet 2.0.12, PlantUML 1.2020.16
@enduml
