<?xml version="1.0" encoding="UTF-8" standalone="no"?><svg xmlns="http://www.w3.org/2000/svg" xmlns:xlink="http://www.w3.org/1999/xlink" contentScriptType="application/ecmascript" contentStyleType="text/css" height="117px" preserveAspectRatio="none" style="width:223px;height:117px;" version="1.1" viewBox="0 0 223 117" width="223px" zoomAndPan="magnify"><defs><filter height="300%" id="fnicyje8qxeyf" width="300%" x="-1" y="-1"><feGaussianBlur result="blurOut" stdDeviation="2.0"/><feColorMatrix in="blurOut" result="blurOut2" type="matrix" values="0 0 0 0 0 0 0 0 0 0 0 0 0 0 0 0 0 0 .4 0"/><feOffset dx="4.0" dy="4.0" in="blurOut2" result="blurOut3"/><feBlend in="SourceGraphic" in2="blurOut3" mode="normal"/></filter></defs><g><!--MD5=[68d5401b7af72b73dbf49a469a4064de]
class it.tidalwave.role.ui.Selectable--><a href="Selectable.html" target="_top" title="Selectable.html" xlink:actuate="onRequest" xlink:href="Selectable.html" xlink:show="new" xlink:title="Selectable.html" xlink:type="simple"><rect codeLine="5" fill="#FEFECE" filter="url(#fnicyje8qxeyf)" height="80.1758" id="it.tidalwave.role.ui.Selectable" style="stroke: #A80036; stroke-width: 1.5;" width="197" x="7" y="7"/><ellipse cx="55.75" cy="26.1328" fill="#B4A7E5" rx="11" ry="11" style="stroke: #A80036; stroke-width: 1.0;"/><path d="M52.1777,22.3979 L52.1777,20.2397 L59.5571,20.2397 L59.5571,22.3979 L57.0918,22.3979 L57.0918,30.4746 L59.5571,30.4746 L59.5571,32.6328 L52.1777,32.6328 L52.1777,30.4746 L54.6431,30.4746 L54.6431,22.3979 Z "/><text fill="#000000" font-family="sans-serif" font-size="14" font-style="italic" lengthAdjust="spacingAndGlyphs" textLength="69" x="87.25" y="25.5352">Selectable</text><text fill="#000000" font-family="sans-serif" font-size="10" font-style="italic" lengthAdjust="spacingAndGlyphs" textLength="91" x="76.25" y="38.1563">it.tidalwave.role.ui</text><line style="stroke: #A80036; stroke-width: 1.5;" x1="8" x2="203" y1="45.2656" y2="45.2656"/><ellipse cx="18" cy="56.2656" fill="none" rx="3" ry="3" style="stroke: #038048; stroke-width: 1.0;"/><text fill="#000000" font-family="sans-serif" font-size="11" lengthAdjust="spacingAndGlyphs" text-decoration="underline" textLength="171" x="27" y="59.9004">_Selectable_: Class&lt;Selectable&gt;</text><line style="stroke: #A80036; stroke-width: 1.5;" x1="8" x2="203" y1="66.2207" y2="66.2207"/><ellipse cx="18" cy="77.2207" fill="#84BE84" rx="3" ry="3" style="stroke: #038048; stroke-width: 1.0;"/><text fill="#000000" font-family="sans-serif" font-size="11" font-style="italic" lengthAdjust="spacingAndGlyphs" textLength="68" x="27" y="80.8555">select(): void</text></a><text fill="#888888" font-family="sans-serif" font-size="10" lengthAdjust="spacingAndGlyphs" textLength="188" x="11.5" y="103.8438">UMLDoclet 2.0.12, PlantUML 1.2020.16</text><!--MD5=[bea45214fafea8f68f47a287efdc32df]
@startuml
    set namespaceSeparator none
    hide empty fields
    hide empty methods

    interface "<size:14>Selectable\n<size:10>it.tidalwave.role.ui" as it.tidalwave.role.ui.Selectable [[Selectable.html]] {
        {static} +_Selectable_: Class<Selectable>
        {abstract} +select(): void
    }

    center footer UMLDoclet 2.0.12, PlantUML 1.2020.16
@enduml

PlantUML version 1.2020.16(Sun Aug 23 22:20:43 CEST 2020)
(APACHE source distribution)
Java Runtime: OpenJDK Runtime Environment
JVM: OpenJDK 64-Bit Server VM
Default Encoding: UTF-8
Language: en
Country: GB
--></g></svg>