<?xml version="1.0" encoding="UTF-8" standalone="no"?><svg xmlns="http://www.w3.org/2000/svg" xmlns:xlink="http://www.w3.org/1999/xlink" contentScriptType="application/ecmascript" contentStyleType="text/css" height="143px" preserveAspectRatio="none" style="width:200px;height:143px;" version="1.1" viewBox="0 0 200 143" width="200px" zoomAndPan="magnify"><defs><filter height="300%" id="fppksx6mycjxo" width="300%" x="-1" y="-1"><feGaussianBlur result="blurOut" stdDeviation="2.0"/><feColorMatrix in="blurOut" result="blurOut2" type="matrix" values="0 0 0 0 0 0 0 0 0 0 0 0 0 0 0 0 0 0 .4 0"/><feOffset dx="4.0" dy="4.0" in="blurOut2" result="blurOut3"/><feBlend in="SourceGraphic" in2="blurOut3" mode="normal"/></filter></defs><g><!--MD5=[23b54377a3191c9eea28c337126dc978]
class it.tidalwave.role.ui.Visible--><a href="Visible.html" target="_top" title="Visible.html" xlink:actuate="onRequest" xlink:href="Visible.html" xlink:show="new" xlink:title="Visible.html" xlink:type="simple"><rect codeLine="5" fill="#FEFECE" filter="url(#fppksx6mycjxo)" height="106.0859" id="it.tidalwave.role.ui.Visible" style="stroke: #A80036; stroke-width: 1.5;" width="161" x="13.5" y="7"/><ellipse cx="45.6" cy="26.1328" fill="#B4A7E5" rx="11" ry="11" style="stroke: #A80036; stroke-width: 1.0;"/><path d="M42.0277,22.3979 L42.0277,20.2397 L49.4071,20.2397 L49.4071,22.3979 L46.9418,22.3979 L46.9418,30.4746 L49.4071,30.4746 L49.4071,32.6328 L42.0277,32.6328 L42.0277,30.4746 L44.4931,30.4746 L44.4931,22.3979 Z "/><text fill="#000000" font-family="sans-serif" font-size="14" font-style="italic" lengthAdjust="spacingAndGlyphs" textLength="45" x="86.4" y="25.5352">Visible</text><text fill="#000000" font-family="sans-serif" font-size="10" font-style="italic" lengthAdjust="spacingAndGlyphs" textLength="91" x="63.4" y="38.1563">it.tidalwave.role.ui</text><line style="stroke: #A80036; stroke-width: 1.5;" x1="14.5" x2="173.5" y1="45.2656" y2="45.2656"/><ellipse cx="24.5" cy="56.2656" fill="none" rx="3" ry="3" style="stroke: #038048; stroke-width: 1.0;"/><text fill="#000000" font-family="sans-serif" font-size="11" lengthAdjust="spacingAndGlyphs" text-decoration="underline" textLength="135" x="33.5" y="59.9004">_Visible_: Class&lt;Visible&gt;</text><ellipse cx="24.5" cy="69.2207" fill="none" rx="3" ry="3" style="stroke: #038048; stroke-width: 1.0;"/><text fill="#000000" font-family="sans-serif" font-size="11" lengthAdjust="spacingAndGlyphs" text-decoration="underline" textLength="78" x="33.5" y="72.8555">VISIBLE: Visible</text><ellipse cx="24.5" cy="82.1758" fill="none" rx="3" ry="3" style="stroke: #038048; stroke-width: 1.0;"/><text fill="#000000" font-family="sans-serif" font-size="11" lengthAdjust="spacingAndGlyphs" text-decoration="underline" textLength="89" x="33.5" y="85.8105">INVISIBLE: Visible</text><line style="stroke: #A80036; stroke-width: 1.5;" x1="14.5" x2="173.5" y1="92.1309" y2="92.1309"/><ellipse cx="24.5" cy="103.1309" fill="#84BE84" rx="3" ry="3" style="stroke: #038048; stroke-width: 1.0;"/><text fill="#000000" font-family="sans-serif" font-size="11" font-style="italic" lengthAdjust="spacingAndGlyphs" textLength="101" x="33.5" y="106.7656">isVisible(): boolean</text></a><text fill="#888888" font-family="sans-serif" font-size="10" lengthAdjust="spacingAndGlyphs" textLength="188" x="0" y="129.7539">UMLDoclet 2.0.12, PlantUML 1.2020.16</text><!--MD5=[83a4ad82261cb691e3353af5ff603856]
@startuml
    set namespaceSeparator none
    hide empty fields
    hide empty methods

    interface "<size:14>Visible\n<size:10>it.tidalwave.role.ui" as it.tidalwave.role.ui.Visible [[Visible.html]] {
        {static} +_Visible_: Class<Visible>
        {static} +VISIBLE: Visible
        {static} +INVISIBLE: Visible
        {abstract} +isVisible(): boolean
    }

    center footer UMLDoclet 2.0.12, PlantUML 1.2020.16
@enduml

PlantUML version 1.2020.16(Sun Aug 23 22:20:43 CEST 2020)
(APACHE source distribution)
Java Runtime: OpenJDK Runtime Environment
JVM: OpenJDK 64-Bit Server VM
Default Encoding: UTF-8
Language: en
Country: GB
--></g></svg>