<?xml version="1.0" encoding="UTF-8" standalone="no"?><svg xmlns="http://www.w3.org/2000/svg" xmlns:xlink="http://www.w3.org/1999/xlink" contentScriptType="application/ecmascript" contentStyleType="text/css" height="265px" preserveAspectRatio="none" style="width:954px;height:265px;" version="1.1" viewBox="0 0 954 265" width="954px" zoomAndPan="magnify"><defs><filter height="300%" id="frr9xtjxoh4mq" width="300%" x="-1" y="-1"><feGaussianBlur result="blurOut" stdDeviation="2.0"/><feColorMatrix in="blurOut" result="blurOut2" type="matrix" values="0 0 0 0 0 0 0 0 0 0 0 0 0 0 0 0 0 0 .4 0"/><feOffset dx="4.0" dy="4.0" in="blurOut2" result="blurOut3"/><feBlend in="SourceGraphic" in2="blurOut3" mode="normal"/></filter></defs><g><!--MD5=[f52b335794e8068f8a8d73c97d887797]
cluster it.tidalwave.bluemarine2.ui.impl.javafx--><polygon fill="#FFFFFF" filter="url(#frr9xtjxoh4mq)" points="16,127,297,127,304,149.4883,932,149.4883,932,236,16,236,16,127" style="stroke: #000000; stroke-width: 1.5;"/><line style="stroke: #000000; stroke-width: 1.5;" x1="16" x2="304" y1="149.4883" y2="149.4883"/><text fill="#000000" font-family="sans-serif" font-size="14" font-weight="bold" lengthAdjust="spacingAndGlyphs" textLength="275" x="20" y="142.5352">it.tidalwave.bluemarine2.ui.impl.javafx</text><!--MD5=[ec27dbc2818038cdcd877bb917520bd9]
cluster it.tidalwave.ui.javafx--><polygon fill="#FFFFFF" filter="url(#frr9xtjxoh4mq)" points="57,12.5,209,12.5,216,34.9883,243,34.9883,243,95.5,57,95.5,57,12.5" style="stroke: #000000; stroke-width: 1.5;"/><line style="stroke: #000000; stroke-width: 1.5;" x1="57" x2="216" y1="34.9883" y2="34.9883"/><text fill="#000000" font-family="sans-serif" font-size="14" font-weight="bold" lengthAdjust="spacingAndGlyphs" textLength="146" x="61" y="28.0352">it.tidalwave.ui.javafx</text><!--MD5=[3493aa3c3375936b0052d2a4a0dce1cf]
cluster it.tidalwave.role.ui.javafx--><polygon fill="#FFFFFF" filter="url(#frr9xtjxoh4mq)" points="317,6,500,6,507,28.4883,627,28.4883,627,102,317,102,317,6" style="stroke: #000000; stroke-width: 1.5;"/><line style="stroke: #000000; stroke-width: 1.5;" x1="317" x2="507" y1="28.4883" y2="28.4883"/><text fill="#000000" font-family="sans-serif" font-size="14" font-weight="bold" lengthAdjust="spacingAndGlyphs" textLength="177" x="321" y="21.5352">it.tidalwave.role.ui.javafx</text><!--MD5=[f63f6e71e53bb7390843ba65294aa5bd]
class it.tidalwave.bluemarine2.ui.impl.javafx.JavaFXApplicationPresentationDelegate--><a href="JavaFXApplicationPresentationDelegate.html" target="_top" title="JavaFXApplicationPresentationDelegate.html" xlink:actuate="onRequest" xlink:href="JavaFXApplicationPresentationDelegate.html" xlink:show="new" xlink:title="JavaFXApplicationPresentationDelegate.html" xlink:type="simple"><rect codeLine="3" fill="#FEFECE" filter="url(#frr9xtjxoh4mq)" height="73.9102" id="it.tidalwave.bluemarine2.ui.impl.javafx.JavaFXApplicationPresentationDelegate" style="stroke: #A80036; stroke-width: 1.5;" width="256" x="668" y="154"/><ellipse cx="683" cy="170" fill="#ADD1B2" rx="11" ry="11" style="stroke: #A80036; stroke-width: 1.0;"/><path d="M685.4731,176.1431 Q684.8921,176.4419 684.2529,176.5913 Q683.6138,176.7407 682.9082,176.7407 Q680.4014,176.7407 679.0815,175.0889 Q677.7617,173.437 677.7617,170.3159 Q677.7617,167.1865 679.0815,165.5347 Q680.4014,163.8828 682.9082,163.8828 Q683.6138,163.8828 684.2612,164.0322 Q684.9087,164.1816 685.4731,164.4805 L685.4731,167.2031 Q684.8423,166.6221 684.2488,166.3523 Q683.6553,166.0825 683.0244,166.0825 Q681.6797,166.0825 680.9949,167.1492 Q680.3101,168.2158 680.3101,170.3159 Q680.3101,172.4077 680.9949,173.4744 Q681.6797,174.541 683.0244,174.541 Q683.6553,174.541 684.2488,174.2712 Q684.8423,174.0015 685.4731,173.4204 Z "/><text fill="#000000" font-family="sans-serif" font-size="12" lengthAdjust="spacingAndGlyphs" textLength="224" x="697" y="174.5352">JavaFXApplicationPresentationDelegate</text><line style="stroke: #A80036; stroke-width: 1.5;" x1="669" x2="923" y1="186" y2="186"/><line style="stroke: #A80036; stroke-width: 1.5;" x1="669" x2="923" y1="194" y2="194"/><ellipse cx="679" cy="205" fill="#84BE84" rx="3" ry="3" style="stroke: #038048; stroke-width: 1.0;"/><text fill="#000000" font-family="sans-serif" font-size="11" lengthAdjust="spacingAndGlyphs" textLength="81" x="688" y="208.6348">initialize(): void</text><ellipse cx="679" cy="217.9551" fill="#84BE84" rx="3" ry="3" style="stroke: #038048; stroke-width: 1.0;"/><text fill="#000000" font-family="sans-serif" font-size="11" lengthAdjust="spacingAndGlyphs" textLength="165" x="688" y="221.5898">onKeyReleased(KeyEvent): void</text></a><!--MD5=[53d41d4ce11ae515981299682cddd0cd]
class it.tidalwave.bluemarine2.ui.impl.javafx.Main--><a href="Main.html" target="_top" title="Main.html" xlink:actuate="onRequest" xlink:href="Main.html" xlink:show="new" xlink:title="Main.html" xlink:type="simple"><rect codeLine="8" fill="#FEFECE" filter="url(#frr9xtjxoh4mq)" height="73.9102" id="it.tidalwave.bluemarine2.ui.impl.javafx.Main" style="stroke: #A80036; stroke-width: 1.5;" width="252" x="24" y="154"/><ellipse cx="132.25" cy="170" fill="#ADD1B2" rx="11" ry="11" style="stroke: #A80036; stroke-width: 1.0;"/><path d="M134.7231,176.1431 Q134.1421,176.4419 133.5029,176.5913 Q132.8638,176.7407 132.1582,176.7407 Q129.6514,176.7407 128.3315,175.0889 Q127.0117,173.437 127.0117,170.3159 Q127.0117,167.1865 128.3315,165.5347 Q129.6514,163.8828 132.1582,163.8828 Q132.8638,163.8828 133.5112,164.0322 Q134.1587,164.1816 134.7231,164.4805 L134.7231,167.2031 Q134.0923,166.6221 133.4988,166.3523 Q132.9053,166.0825 132.2744,166.0825 Q130.9297,166.0825 130.2449,167.1492 Q129.5601,168.2158 129.5601,170.3159 Q129.5601,172.4077 130.2449,173.4744 Q130.9297,174.541 132.2744,174.541 Q132.9053,174.541 133.4988,174.2712 Q134.0923,174.0015 134.7231,173.4204 Z "/><text fill="#000000" font-family="sans-serif" font-size="12" lengthAdjust="spacingAndGlyphs" textLength="27" x="152.75" y="174.5352">Main</text><line style="stroke: #A80036; stroke-width: 1.5;" x1="25" x2="275" y1="186" y2="186"/><line style="stroke: #A80036; stroke-width: 1.5;" x1="25" x2="275" y1="194" y2="194"/><ellipse cx="35" cy="205" fill="#84BE84" rx="3" ry="3" style="stroke: #038048; stroke-width: 1.0;"/><text fill="#000000" font-family="sans-serif" font-size="11" lengthAdjust="spacingAndGlyphs" text-decoration="underline" textLength="104" x="44" y="208.6348">main(String...): void</text><polygon fill="#FFFF44" points="35,212.9551,39,216.9551,35,220.9551,31,216.9551" style="stroke: #B38D22; stroke-width: 1.0;"/><text fill="#000000" font-family="sans-serif" font-size="11" lengthAdjust="spacingAndGlyphs" textLength="226" x="44" y="221.5898">onStageCreated(ApplicationContext): void</text></a><!--MD5=[51749f728c7482291a709ba6554c0f2d]
class it.tidalwave.bluemarine2.ui.impl.javafx.BlueMarine2ApplicationPresentationAssembler--><a href="BlueMarine2ApplicationPresentationAssembler.html" target="_top" title="BlueMarine2ApplicationPresentationAssembler.html" xlink:actuate="onRequest" xlink:href="BlueMarine2ApplicationPresentationAssembler.html" xlink:show="new" xlink:title="BlueMarine2ApplicationPresentationAssembler.html" xlink:type="simple"><rect codeLine="13" fill="#FEFECE" filter="url(#frr9xtjxoh4mq)" height="60.9551" id="it.tidalwave.bluemarine2.ui.impl.javafx.BlueMarine2ApplicationPresentationAssembler" style="stroke: #A80036; stroke-width: 1.5;" width="321" x="311.5" y="160.5"/><ellipse cx="336.4" cy="176.5" fill="#ADD1B2" rx="11" ry="11" style="stroke: #A80036; stroke-width: 1.0;"/><path d="M338.8731,182.6431 Q338.2921,182.9419 337.6529,183.0913 Q337.0138,183.2407 336.3082,183.2407 Q333.8014,183.2407 332.4815,181.5889 Q331.1617,179.937 331.1617,176.8159 Q331.1617,173.6865 332.4815,172.0347 Q333.8014,170.3828 336.3082,170.3828 Q337.0138,170.3828 337.6612,170.5322 Q338.3087,170.6816 338.8731,170.9805 L338.8731,173.7031 Q338.2423,173.1221 337.6488,172.8523 Q337.0553,172.5825 336.4244,172.5825 Q335.0797,172.5825 334.3949,173.6492 Q333.7101,174.7158 333.7101,176.8159 Q333.7101,178.9077 334.3949,179.9744 Q335.0797,181.041 336.4244,181.041 Q337.0553,181.041 337.6488,180.7712 Q338.2423,180.5015 338.8731,179.9204 Z "/><text fill="#000000" font-family="sans-serif" font-size="12" lengthAdjust="spacingAndGlyphs" textLength="267" x="352.6" y="181.0352">BlueMarine2ApplicationPresentationAssembler</text><line style="stroke: #A80036; stroke-width: 1.5;" x1="312.5" x2="631.5" y1="192.5" y2="192.5"/><line style="stroke: #A80036; stroke-width: 1.5;" x1="312.5" x2="631.5" y1="200.5" y2="200.5"/><ellipse cx="322.5" cy="211.5" fill="#84BE84" rx="3" ry="3" style="stroke: #038048; stroke-width: 1.0;"/><text fill="#000000" font-family="sans-serif" font-size="11" lengthAdjust="spacingAndGlyphs" textLength="295" x="331.5" y="215.1348">assemble(JavaFXApplicationPresentationDelegate): void</text></a><!--MD5=[76af6d14fb3412df0b0e4694bc2d5a5d]
class it.tidalwave.ui.javafx.JavaFXSpringApplication--><rect codeLine="22" fill="#FEFECE" filter="url(#frr9xtjxoh4mq)" height="48" id="it.tidalwave.ui.javafx.JavaFXSpringApplication" style="stroke: #A80036; stroke-width: 1.5;" width="170" x="65" y="39.5"/><ellipse cx="80" cy="55.5" fill="#ADD1B2" rx="11" ry="11" style="stroke: #A80036; stroke-width: 1.0;"/><path d="M82.4731,61.6431 Q81.8921,61.9419 81.2529,62.0913 Q80.6138,62.2407 79.9082,62.2407 Q77.4014,62.2407 76.0815,60.5889 Q74.7617,58.937 74.7617,55.8159 Q74.7617,52.6865 76.0815,51.0347 Q77.4014,49.3828 79.9082,49.3828 Q80.6138,49.3828 81.2612,49.5322 Q81.9087,49.6816 82.4731,49.9805 L82.4731,52.7031 Q81.8423,52.1221 81.2488,51.8523 Q80.6553,51.5825 80.0244,51.5825 Q78.6797,51.5825 77.9949,52.6492 Q77.3101,53.7158 77.3101,55.8159 Q77.3101,57.9077 77.9949,58.9744 Q78.6797,60.041 80.0244,60.041 Q80.6553,60.041 81.2488,59.7712 Q81.8423,59.5015 82.4731,58.9204 Z "/><text fill="#000000" font-family="sans-serif" font-size="12" lengthAdjust="spacingAndGlyphs" textLength="138" x="94" y="60.0352">JavaFXSpringApplication</text><line style="stroke: #A80036; stroke-width: 1.5;" x1="66" x2="234" y1="71.5" y2="71.5"/><line style="stroke: #A80036; stroke-width: 1.5;" x1="66" x2="234" y1="79.5" y2="79.5"/><!--MD5=[bb1fdb0a508572758375a9dcc3a3dd56]
class it.tidalwave.role.ui.javafx.ApplicationPresentationAssembler--><rect codeLine="27" fill="#FEFECE" filter="url(#frr9xtjxoh4mq)" height="60.9551" id="it.tidalwave.role.ui.javafx.ApplicationPresentationAssembler" style="stroke: #A80036; stroke-width: 1.5;" width="293" x="325.5" y="33"/><ellipse cx="340.5" cy="49" fill="#B4A7E5" rx="11" ry="11" style="stroke: #A80036; stroke-width: 1.0;"/><path d="M336.9277,45.2651 L336.9277,43.1069 L344.3071,43.1069 L344.3071,45.2651 L341.8418,45.2651 L341.8418,53.3418 L344.3071,53.3418 L344.3071,55.5 L336.9277,55.5 L336.9277,53.3418 L339.3931,53.3418 L339.3931,45.2651 Z "/><text fill="#000000" font-family="sans-serif" font-size="12" font-style="italic" lengthAdjust="spacingAndGlyphs" textLength="196" x="354.5" y="53.5352">ApplicationPresentationAssembler</text><rect fill="#FFFFFF" height="16.1328" style="stroke: #000000; stroke-width: 1.0; stroke-dasharray: 2.0,2.0;" width="63" x="558.5" y="30"/><text fill="#000000" font-family="sans-serif" font-size="12" font-style="italic" lengthAdjust="spacingAndGlyphs" textLength="61" x="559.5" y="42.6016">DELEGATE</text><line style="stroke: #A80036; stroke-width: 1.5;" x1="326.5" x2="617.5" y1="65" y2="65"/><line style="stroke: #A80036; stroke-width: 1.5;" x1="326.5" x2="617.5" y1="73" y2="73"/><ellipse cx="336.5" cy="84" fill="#84BE84" rx="3" ry="3" style="stroke: #038048; stroke-width: 1.0;"/><text fill="#000000" font-family="sans-serif" font-size="11" font-style="italic" lengthAdjust="spacingAndGlyphs" textLength="142" x="345.5" y="87.6348">assemble(DELEGATE): void</text><!--MD5=[dfe381c0b27439559789f14a9d543351]
reverse link it.tidalwave.ui.javafx.JavaFXSpringApplication to it.tidalwave.bluemarine2.ui.impl.javafx.Main--><path codeLine="17" d="M150,107.8377 C150,122.8199 150,139.3834 150,153.7589 " fill="none" id="it.tidalwave.ui.javafx.JavaFXSpringApplication-backto-it.tidalwave.bluemarine2.ui.impl.javafx.Main" style="stroke: #A80036; stroke-width: 1.0;"/><polygon fill="none" points="143.0001,107.7819,150,87.7819,157.0001,107.7818,143.0001,107.7819" style="stroke: #A80036; stroke-width: 1.0;"/><!--MD5=[431410839b195aa29985a9fab5236b1f]
reverse link it.tidalwave.role.ui.javafx.ApplicationPresentationAssembler to it.tidalwave.bluemarine2.ui.impl.javafx.BlueMarine2ApplicationPresentationAssembler--><path codeLine="18" d="M472,114.2355 C472,129.809 472,146.4647 472,160.2679 " fill="none" id="it.tidalwave.role.ui.javafx.ApplicationPresentationAssembler-backto-it.tidalwave.bluemarine2.ui.impl.javafx.BlueMarine2ApplicationPresentationAssembler" style="stroke: #A80036; stroke-width: 1.0; stroke-dasharray: 7.0,7.0;"/><polygon fill="none" points="465.0001,114.0395,472,94.0394,479.0001,114.0394,465.0001,114.0395" style="stroke: #A80036; stroke-width: 1.0;"/><text fill="#888888" font-family="sans-serif" font-size="10" lengthAdjust="spacingAndGlyphs" textLength="188" x="374" y="251.668">UMLDoclet 2.0.12, PlantUML 1.2020.16</text><!--MD5=[db6e7fbe057e7dc220f0d77976d74ac8]
@startuml
    namespace it.tidalwave.bluemarine2.ui.impl.javafx {

        class JavaFXApplicationPresentationDelegate [[JavaFXApplicationPresentationDelegate.html]] {
            +initialize(): void
            +onKeyReleased(KeyEvent): void
        }

        class Main [[Main.html]] {
            {static} +main(String...): void
            #onStageCreated(ApplicationContext): void
        }

        class BlueMarine2ApplicationPresentationAssembler [[BlueMarine2ApplicationPresentationAssembler.html]] {
            +assemble(JavaFXApplicationPresentationDelegate): void
        }

        it.tidalwave.ui.javafx.JavaFXSpringApplication <|- - Main
        it.tidalwave.role.ui.javafx.ApplicationPresentationAssembler <|.. BlueMarine2ApplicationPresentationAssembler
    }

    namespace it.tidalwave.ui.javafx {
        class JavaFXSpringApplication {
        }
    }

    namespace it.tidalwave.role.ui.javafx {
        interface ApplicationPresentationAssembler<DELEGATE> {
            {abstract} +assemble(DELEGATE): void
        }
    }

    center footer UMLDoclet 2.0.12, PlantUML 1.2020.16
@enduml

PlantUML version 1.2020.16(Sun Aug 23 22:20:43 CEST 2020)
(APACHE source distribution)
Java Runtime: OpenJDK Runtime Environment
JVM: OpenJDK 64-Bit Server VM
Default Encoding: UTF-8
Language: en
Country: GB
--></g></svg>