<?xml version="1.0" encoding="UTF-8" standalone="no"?><svg xmlns="http://www.w3.org/2000/svg" xmlns:xlink="http://www.w3.org/1999/xlink" contentScriptType="application/ecmascript" contentStyleType="text/css" height="221px" preserveAspectRatio="none" style="width:200px;height:221px;" version="1.1" viewBox="0 0 200 221" width="200px" zoomAndPan="magnify"><defs><filter height="300%" id="f1hylybh5kq4mh" width="300%" x="-1" y="-1"><feGaussianBlur result="blurOut" stdDeviation="2.0"/><feColorMatrix in="blurOut" result="blurOut2" type="matrix" values="0 0 0 0 0 0 0 0 0 0 0 0 0 0 0 0 0 0 .4 0"/><feOffset dx="4.0" dy="4.0" in="blurOut2" result="blurOut3"/><feBlend in="SourceGraphic" in2="blurOut3" mode="normal"/></filter></defs><g><!--MD5=[f50c7468d08cc602d103ed6d45e93ee0]
class it.tidalwave.role.io.spi.FileTextReadable--><a href="FileTextReadable.html" target="_top" title="FileTextReadable.html" xlink:actuate="onRequest" xlink:href="FileTextReadable.html" xlink:show="new" xlink:title="FileTextReadable.html" xlink:type="simple"><rect codeLine="5" fill="#FEFECE" filter="url(#f1hylybh5kq4mh)" height="59.2207" id="it.tidalwave.role.io.spi.FileTextReadable" style="stroke: #A80036; stroke-width: 1.5;" width="150" x="22" y="126"/><ellipse cx="37" cy="145.1328" fill="#ADD1B2" rx="11" ry="11" style="stroke: #A80036; stroke-width: 1.0;"/><path d="M39.4731,151.2759 Q38.8921,151.5747 38.2529,151.7241 Q37.6138,151.8735 36.9082,151.8735 Q34.4014,151.8735 33.0815,150.2217 Q31.7617,148.5698 31.7617,145.4487 Q31.7617,142.3193 33.0815,140.6675 Q34.4014,139.0156 36.9082,139.0156 Q37.6138,139.0156 38.2612,139.165 Q38.9087,139.3145 39.4731,139.6133 L39.4731,142.3359 Q38.8423,141.7549 38.2488,141.4851 Q37.6553,141.2153 37.0244,141.2153 Q35.6797,141.2153 34.9949,142.282 Q34.3101,143.3486 34.3101,145.4487 Q34.3101,147.5405 34.9949,148.6072 Q35.6797,149.6738 37.0244,149.6738 Q37.6553,149.6738 38.2488,149.4041 Q38.8423,149.1343 39.4731,148.5532 Z "/><text fill="#000000" font-family="sans-serif" font-size="14" lengthAdjust="spacingAndGlyphs" textLength="118" x="51" y="144.5352">FileTextReadable</text><text fill="#000000" font-family="sans-serif" font-size="10" lengthAdjust="spacingAndGlyphs" textLength="108" x="56" y="157.1563">it.tidalwave.role.io.spi</text><line style="stroke: #A80036; stroke-width: 1.5;" x1="23" x2="171" y1="164.2656" y2="164.2656"/><ellipse cx="33" cy="175.2656" fill="#84BE84" rx="3" ry="3" style="stroke: #038048; stroke-width: 1.0;"/><text fill="#000000" font-family="sans-serif" font-size="11" lengthAdjust="spacingAndGlyphs" textLength="115" x="42" y="178.9004">openReader(): Reader</text></a><!--MD5=[0e5e728ae99ecbb96a97ddc8125ef291]
class it.tidalwave.role.io.TextReadable--><a href="../TextReadable.html" target="_top" title="../TextReadable.html" xlink:actuate="onRequest" xlink:href="../TextReadable.html" xlink:show="new" xlink:title="../TextReadable.html" xlink:type="simple"><rect codeLine="9" fill="#FEFECE" filter="url(#f1hylybh5kq4mh)" height="59.2207" id="it.tidalwave.role.io.TextReadable" style="stroke: #A80036; stroke-width: 1.5;" width="141" x="26.5" y="7"/><ellipse cx="48.25" cy="26.1328" fill="#B4A7E5" rx="11" ry="11" style="stroke: #A80036; stroke-width: 1.0;"/><path d="M44.6777,22.3979 L44.6777,20.2397 L52.0571,20.2397 L52.0571,22.3979 L49.5918,22.3979 L49.5918,30.4746 L52.0571,30.4746 L52.0571,32.6328 L44.6777,32.6328 L44.6777,30.4746 L47.1431,30.4746 L47.1431,22.3979 Z "/><text fill="#000000" font-family="sans-serif" font-size="14" font-style="italic" lengthAdjust="spacingAndGlyphs" textLength="94" x="63.75" y="25.5352">TextReadable</text><text fill="#000000" font-family="sans-serif" font-size="10" font-style="italic" lengthAdjust="spacingAndGlyphs" textLength="91" x="65.25" y="38.1563">it.tidalwave.role.io</text><line style="stroke: #A80036; stroke-width: 1.5;" x1="27.5" x2="166.5" y1="45.2656" y2="45.2656"/><ellipse cx="37.5" cy="56.2656" fill="#84BE84" rx="3" ry="3" style="stroke: #038048; stroke-width: 1.0;"/><text fill="#000000" font-family="sans-serif" font-size="11" font-style="italic" lengthAdjust="spacingAndGlyphs" textLength="115" x="46.5" y="59.9004">openReader(): Reader</text></a><!--MD5=[878747c732d7a1a905e7e005613b092d]
reverse link it.tidalwave.role.io.TextReadable to it.tidalwave.role.io.spi.FileTextReadable--><path codeLine="13" d="M97,86.3288 C97,99.7348 97,113.8139 97,125.7447 " fill="none" id="it.tidalwave.role.io.TextReadable-backto-it.tidalwave.role.io.spi.FileTextReadable" style="stroke: #A80036; stroke-width: 1.0; stroke-dasharray: 7.0,7.0;"/><polygon fill="none" points="90.0001,86.2218,97,66.2218,104.0001,86.2217,90.0001,86.2218" style="stroke: #A80036; stroke-width: 1.0;"/><text fill="#888888" font-family="sans-serif" font-size="10" lengthAdjust="spacingAndGlyphs" textLength="188" x="0" y="207.8887">UMLDoclet 2.0.12, PlantUML 1.2020.16</text><!--MD5=[b96e23c719bd01b56b077d0b62ce5b2c]
@startuml
    set namespaceSeparator none
    hide empty fields
    hide empty methods

    class "<size:14>FileTextReadable\n<size:10>it.tidalwave.role.io.spi" as it.tidalwave.role.io.spi.FileTextReadable [[FileTextReadable.html]] {
        +openReader(): Reader
    }

    interface "<size:14>TextReadable\n<size:10>it.tidalwave.role.io" as it.tidalwave.role.io.TextReadable [[../TextReadable.html]] {
        {abstract} +openReader(): Reader
    }

    it.tidalwave.role.io.TextReadable <|.. it.tidalwave.role.io.spi.FileTextReadable

    center footer UMLDoclet 2.0.12, PlantUML 1.2020.16
@enduml

PlantUML version 1.2020.16(Sun Aug 23 22:20:43 CEST 2020)
(APACHE source distribution)
Java Runtime: OpenJDK Runtime Environment
JVM: OpenJDK 64-Bit Server VM
Default Encoding: UTF-8
Language: en
Country: GB
--></g></svg>