@startuml
    set namespaceSeparator none
    hide empty fields
    hide empty methods

    class "<size:14>FileTextReadable\n<size:10>it.tidalwave.role.io.spi" as it.tidalwave.role.io.spi.FileTextReadable [[FileTextReadable.html]] {
        +openReader(): Reader
    }

    interface "<size:14>TextReadable\n<size:10>it.tidalwave.role.io" as it.tidalwave.role.io.TextReadable [[../TextReadable.html]] {
        {abstract} +openReader(): Reader
    }

    it.tidalwave.role.io.TextReadable <|.. it.tidalwave.role.io.spi.FileTextReadable

    center footer UMLDoclet 2.0.12, PlantUML 1.2020.16
@enduml
