@startuml
    namespace it.tidalwave.util.thread {

        class ThreadAssertions [[ThreadAssertions.html]] {
            {static} +assertThread(ThreadType): void
        }

        enum ThreadType [[ThreadType.html]] {
            {static} +ANY
            {static} +UI
            {static} +NOT_UI
        }

    }

    center footer UMLDoclet 2.0.12, PlantUML 1.2020.16
@enduml
