<?xml version="1.0" encoding="UTF-8" standalone="no"?><svg xmlns="http://www.w3.org/2000/svg" xmlns:xlink="http://www.w3.org/1999/xlink" contentScriptType="application/ecmascript" contentStyleType="text/css" height="291px" preserveAspectRatio="none" style="width:578px;height:291px;" version="1.1" viewBox="0 0 578 291" width="578px" zoomAndPan="magnify"><defs><filter height="300%" id="f1vex2ftaathn5" width="300%" x="-1" y="-1"><feGaussianBlur result="blurOut" stdDeviation="2.0"/><feColorMatrix in="blurOut" result="blurOut2" type="matrix" values="0 0 0 0 0 0 0 0 0 0 0 0 0 0 0 0 0 0 .4 0"/><feOffset dx="4.0" dy="4.0" in="blurOut2" result="blurOut3"/><feBlend in="SourceGraphic" in2="blurOut3" mode="normal"/></filter></defs><g><!--MD5=[813c02c18155faa9cb41cdbba1646274]
cluster it.tidalwave.thesefoolishthings.examples.dci.swing.role--><polygon fill="#FFFFFF" filter="url(#f1vex2ftaathn5)" points="16,6,411,6,418,28.0986,556,28.0986,556,263,16,263,16,6" style="stroke: #000000; stroke-width: 1.5;"/><line style="stroke: #000000; stroke-width: 1.5;" x1="16" x2="418" y1="28.0986" y2="28.0986"/><text fill="#000000" font-family="sans-serif" font-size="14" font-weight="bold" lengthAdjust="spacingAndGlyphs" textLength="389" x="20" y="21.1318">it.tidalwave.thesefoolishthings.examples.dci.swing.role</text><!--MD5=[d82f07e3cbe39862833336e0e84723a4]
class it.tidalwave.thesefoolishthings.examples.dci.swing.role.ObservableListProvider--><a href="ObservableListProvider.html" target="_top" title="ObservableListProvider.html" xlink:actuate="onRequest" xlink:href="ObservableListProvider.html" xlink:show="new" xlink:title="ObservableListProvider.html" xlink:type="simple"><rect codeLine="3" fill="#FEFECE" filter="url(#f1vex2ftaathn5)" height="73.2979" id="it.tidalwave.thesefoolishthings.examples.dci.swing.role.ObservableListProvider" style="stroke: #A80036; stroke-width: 1.5;" width="309" x="31.5" y="41"/><ellipse cx="116.75" cy="57" fill="#B4A7E5" rx="11" ry="11" style="stroke: #A80036; stroke-width: 1.0;"/><path d="M113.0469,51.2969 L120.6563,51.2969 L120.6563,53.1875 L118.0781,53.1875 L118.0781,60.6094 L120.6563,60.6094 L120.6563,62.5 L113.0469,62.5 L113.0469,60.6094 L115.6406,60.6094 L115.6406,53.1875 L113.0469,53.1875 L113.0469,51.2969 Z "/><text fill="#000000" font-family="sans-serif" font-size="12" font-style="italic" lengthAdjust="spacingAndGlyphs" textLength="130" x="137.25" y="61.3564">ObservableListProvider</text><line style="stroke: #A80036; stroke-width: 1.5;" x1="32.5" x2="339.5" y1="73" y2="73"/><ellipse cx="42.5" cy="84" fill="none" rx="3" ry="3" style="stroke: #038048; stroke-width: 1.0;"/><text fill="#000000" font-family="sans-serif" font-size="11" lengthAdjust="spacingAndGlyphs" text-decoration="underline" textLength="283" x="51.5" y="87.3179">_ObservableListProvider_: Class&lt;ObservableListProvider&gt;</text><line style="stroke: #A80036; stroke-width: 1.5;" x1="32.5" x2="339.5" y1="93.6489" y2="93.6489"/><ellipse cx="42.5" cy="104.6489" fill="#84BE84" rx="3" ry="3" style="stroke: #038048; stroke-width: 1.0;"/><text fill="#000000" font-family="sans-serif" font-size="11" font-style="italic" lengthAdjust="spacingAndGlyphs" textLength="218" x="51.5" y="107.9668">createObservableList(): ObservableList&lt;T&gt;</text></a><!--MD5=[3ec7e48e121e0e26322ab31d55212399]
class it.tidalwave.thesefoolishthings.examples.dci.swing.role.TableColumnDescriptor--><a href="TableColumnDescriptor.html" target="_top" title="TableColumnDescriptor.html" xlink:actuate="onRequest" xlink:href="TableColumnDescriptor.html" xlink:show="new" xlink:title="TableColumnDescriptor.html" xlink:type="simple"><rect codeLine="8" fill="#FEFECE" filter="url(#f1vex2ftaathn5)" height="48" id="it.tidalwave.thesefoolishthings.examples.dci.swing.role.TableColumnDescriptor" style="stroke: #A80036; stroke-width: 1.5;" width="164" x="376" y="53.5"/><ellipse cx="391" cy="69.5" fill="#ADD1B2" rx="11" ry="11" style="stroke: #A80036; stroke-width: 1.0;"/><path d="M388.9063,69.3438 Q388.9063,71.2188 389.4844,72.2344 Q390.0625,73.2344 391.2188,73.2344 Q392.5625,73.2344 393.2188,71.2188 L395.4844,71.6406 Q394.375,75.1719 391.2031,75.1719 Q388.8594,75.1719 387.6406,73.6875 Q386.4219,72.2031 386.4219,69.3438 Q386.4219,63.625 391.125,63.625 Q392.6719,63.625 393.7031,64.4375 Q394.75,65.25 395.25,66.8594 L392.9844,67.4063 Q392.75,66.5313 392.2656,66.0469 Q391.7813,65.5469 391.1563,65.5469 Q388.9063,65.5469 388.9063,69.3438 Z "/><text fill="#000000" font-family="sans-serif" font-size="12" lengthAdjust="spacingAndGlyphs" textLength="132" x="405" y="73.8564">TableColumnDescriptor</text><line style="stroke: #A80036; stroke-width: 1.5;" x1="377" x2="539" y1="85.5" y2="85.5"/><line style="stroke: #A80036; stroke-width: 1.5;" x1="377" x2="539" y1="93.5" y2="93.5"/></a><!--MD5=[25d47310c451efc650cb23d973f2681c]
class it.tidalwave.thesefoolishthings.examples.dci.swing.role.TableHeaderDescriptor--><a href="TableHeaderDescriptor.html" target="_top" title="TableHeaderDescriptor.html" xlink:actuate="onRequest" xlink:href="TableHeaderDescriptor.html" xlink:show="new" xlink:title="TableHeaderDescriptor.html" xlink:type="simple"><rect codeLine="11" fill="#FEFECE" filter="url(#f1vex2ftaathn5)" height="73.2979" id="it.tidalwave.thesefoolishthings.examples.dci.swing.role.TableHeaderDescriptor" style="stroke: #A80036; stroke-width: 1.5;" width="305" x="33.5" y="174"/><ellipse cx="117.25" cy="190" fill="#B4A7E5" rx="11" ry="11" style="stroke: #A80036; stroke-width: 1.0;"/><path d="M113.5469,184.2969 L121.1563,184.2969 L121.1563,186.1875 L118.5781,186.1875 L118.5781,193.6094 L121.1563,193.6094 L121.1563,195.5 L113.5469,195.5 L113.5469,193.6094 L116.1406,193.6094 L116.1406,186.1875 L113.5469,186.1875 L113.5469,184.2969 Z "/><text fill="#000000" font-family="sans-serif" font-size="12" font-style="italic" lengthAdjust="spacingAndGlyphs" textLength="129" x="137.75" y="194.3564">TableHeaderDescriptor</text><line style="stroke: #A80036; stroke-width: 1.5;" x1="34.5" x2="337.5" y1="206" y2="206"/><ellipse cx="44.5" cy="217" fill="none" rx="3" ry="3" style="stroke: #038048; stroke-width: 1.0;"/><text fill="#000000" font-family="sans-serif" font-size="11" lengthAdjust="spacingAndGlyphs" text-decoration="underline" textLength="279" x="53.5" y="220.3179">_TableHeaderDescriptor_: Class&lt;TableHeaderDescriptor&gt;</text><line style="stroke: #A80036; stroke-width: 1.5;" x1="34.5" x2="337.5" y1="226.6489" y2="226.6489"/><ellipse cx="44.5" cy="237.6489" fill="#84BE84" rx="3" ry="3" style="stroke: #038048; stroke-width: 1.0;"/><text fill="#000000" font-family="sans-serif" font-size="11" font-style="italic" lengthAdjust="spacingAndGlyphs" textLength="274" x="53.5" y="240.9668">getColumnDescriptors(): List&lt;TableColumnDescriptor&gt;</text></a><!--MD5=[034596eca497f95dc45a3341e4a5e1db]
link it.tidalwave.thesefoolishthings.examples.dci.swing.role.ObservableListProvider to it.tidalwave.thesefoolishthings.examples.dci.swing.role.TableColumnDescriptor--><!--MD5=[ad4d70867ae6c28318a020527e2df713]
link it.tidalwave.thesefoolishthings.examples.dci.swing.role.ObservableListProvider to it.tidalwave.thesefoolishthings.examples.dci.swing.role.TableHeaderDescriptor--><text fill="#888888" font-family="sans-serif" font-size="10" lengthAdjust="spacingAndGlyphs" textLength="190" x="185" y="278.3799">UMLDoclet 2.0.12, PlantUML 1.2020.16</text><!--MD5=[0f1caa14a4ba73ddb1eab6ad151696f4]
@startuml
    namespace it.tidalwave.thesefoolishthings.examples.dci.swing.role {

        interface ObservableListProvider [[ObservableListProvider.html]] {
            {static} +_ObservableListProvider_: Class<ObservableListProvider>
            {abstract} +createObservableList(): ObservableList<T>
        }

        class TableColumnDescriptor [[TableColumnDescriptor.html]] {
        }

        interface TableHeaderDescriptor [[TableHeaderDescriptor.html]] {
            {static} +_TableHeaderDescriptor_: Class<TableHeaderDescriptor>
            {abstract} +getColumnDescriptors(): List<TableColumnDescriptor>
        }

    }

    center footer UMLDoclet 2.0.12, PlantUML 1.2020.16
@enduml

PlantUML version 1.2020.16(Sun Aug 23 22:20:43 CEST 2020)
(APACHE source distribution)
Java Runtime: OpenJDK Runtime Environment
JVM: OpenJDK 64-Bit Server VM
Default Encoding: UTF-8
Language: en
Country: US
--></g></svg>