@startuml
    set namespaceSeparator none
    hide empty fields
    hide empty methods

    class "<size:14>AsExtensions\n<size:10>it.tidalwave.util.asexamples" as it.tidalwave.util.asexamples.AsExtensions [[AsExtensions.html]] {
        {static} +as(Object, Class<T>): T
        {static} +as(Object, Class<T>, NotFoundBehaviour<T>): T
        {static} +asMany(Object, Class<T>): Collection<T>
    }

    center footer UMLDoclet 2.0.12, PlantUML 1.2020.16
@enduml
