<?xml version="1.0" encoding="UTF-8" standalone="no"?><svg xmlns="http://www.w3.org/2000/svg" xmlns:xlink="http://www.w3.org/1999/xlink" contentScriptType="application/ecmascript" contentStyleType="text/css" height="200px" preserveAspectRatio="none" style="width:212px;height:200px;" version="1.1" viewBox="0 0 212 200" width="212px" zoomAndPan="magnify"><defs><filter height="300%" id="f1w7ixmux9tq3p" width="300%" x="-1" y="-1"><feGaussianBlur result="blurOut" stdDeviation="2.0"/><feColorMatrix in="blurOut" result="blurOut2" type="matrix" values="0 0 0 0 0 0 0 0 0 0 0 0 0 0 0 0 0 0 .4 0"/><feOffset dx="4.0" dy="4.0" in="blurOut2" result="blurOut3"/><feBlend in="SourceGraphic" in2="blurOut3" mode="normal"/></filter></defs><g><!--MD5=[6298218a70773b30e5e48cc2f6577d68]
class it.tidalwave.application.javafx.JavaFXToolBarModel--><a href="JavaFXToolBarModel.html" target="_top" title="JavaFXToolBarModel.html" xlink:actuate="onRequest" xlink:href="JavaFXToolBarModel.html" xlink:show="new" xlink:title="JavaFXToolBarModel.html" xlink:type="simple"><rect codeLine="5" fill="#FEFECE" filter="url(#f1w7ixmux9tq3p)" height="59.2207" id="it.tidalwave.application.javafx.JavaFXToolBarModel" style="stroke: #A80036; stroke-width: 1.5;" width="186" x="7" y="105"/><ellipse cx="25.15" cy="124.1328" fill="#ADD1B2" rx="11" ry="11" style="stroke: #A80036; stroke-width: 1.0;"/><path d="M27.6231,130.2759 Q27.0421,130.5747 26.4029,130.7241 Q25.7638,130.8735 25.0582,130.8735 Q22.5514,130.8735 21.2315,129.2217 Q19.9117,127.5698 19.9117,124.4487 Q19.9117,121.3193 21.2315,119.6675 Q22.5514,118.0156 25.0582,118.0156 Q25.7638,118.0156 26.4112,118.165 Q27.0587,118.3145 27.6231,118.6133 L27.6231,121.3359 Q26.9923,120.7549 26.3988,120.4851 Q25.8053,120.2153 25.1744,120.2153 Q23.8297,120.2153 23.1449,121.282 Q22.4601,122.3486 22.4601,124.4487 Q22.4601,126.5405 23.1449,127.6072 Q23.8297,128.6738 25.1744,128.6738 Q25.8053,128.6738 26.3988,128.4041 Q26.9923,128.1343 27.6231,127.5532 Z "/><text fill="#000000" font-family="sans-serif" font-size="14" lengthAdjust="spacingAndGlyphs" textLength="139" x="43.85" y="123.5352">JavaFXToolBarModel</text><text fill="#000000" font-family="sans-serif" font-size="10" lengthAdjust="spacingAndGlyphs" textLength="147" x="39.85" y="136.1563">it.tidalwave.application.javafx</text><line style="stroke: #A80036; stroke-width: 1.5;" x1="8" x2="192" y1="143.2656" y2="143.2656"/><ellipse cx="18" cy="154.2656" fill="#84BE84" rx="3" ry="3" style="stroke: #038048; stroke-width: 1.0;"/><text fill="#000000" font-family="sans-serif" font-size="11" lengthAdjust="spacingAndGlyphs" textLength="160" x="27" y="157.9004">populate(Object, Object): void</text></a><!--MD5=[3e9781c01f8a8ebcc447c2d763d2bb29]
class it.tidalwave.application.spi.ToolBarModelSupport--><a href="../spi/ToolBarModelSupport.html" target="_top" title="../spi/ToolBarModelSupport.html" xlink:actuate="onRequest" xlink:href="../spi/ToolBarModelSupport.html" xlink:show="new" xlink:title="../spi/ToolBarModelSupport.html" xlink:type="simple"><rect codeLine="9" fill="#FEFECE" filter="url(#f1w7ixmux9tq3p)" height="38.2656" id="it.tidalwave.application.spi.ToolBarModelSupport" style="stroke: #A80036; stroke-width: 1.5;" width="182" x="9" y="7"/><ellipse cx="24" cy="26.1328" fill="#A9DCDF" rx="11" ry="11" style="stroke: #A80036; stroke-width: 1.0;"/><path d="M23.8633,21.481 L22.7095,26.5527 L25.0254,26.5527 Z M22.3691,19.2397 L25.3657,19.2397 L28.7109,31.6328 L26.2622,31.6328 L25.4985,28.5698 L22.2197,28.5698 L21.4727,31.6328 L19.0239,31.6328 Z "/><text fill="#000000" font-family="sans-serif" font-size="14" font-style="italic" lengthAdjust="spacingAndGlyphs" textLength="150" x="38" y="25.5352">ToolBarModelSupport</text><text fill="#000000" font-family="sans-serif" font-size="10" font-style="italic" lengthAdjust="spacingAndGlyphs" textLength="131" x="47.5" y="38.1563">it.tidalwave.application.spi</text></a><!--MD5=[4fd6c1cf782e2a7c7a63c5f1968428b5]
reverse link it.tidalwave.application.spi.ToolBarModelSupport to it.tidalwave.application.javafx.JavaFXToolBarModel--><path codeLine="11" d="M100,65.3533 C100,78.4123 100,92.7197 100,104.9146 " fill="none" id="it.tidalwave.application.spi.ToolBarModelSupport-backto-it.tidalwave.application.javafx.JavaFXToolBarModel" style="stroke: #A80036; stroke-width: 1.0;"/><polygon fill="none" points="93.0001,65.1479,100,45.1479,107.0001,65.1478,93.0001,65.1479" style="stroke: #A80036; stroke-width: 1.0;"/><text fill="#888888" font-family="sans-serif" font-size="10" lengthAdjust="spacingAndGlyphs" textLength="188" x="3" y="186.8887">UMLDoclet 2.0.12, PlantUML 1.2020.16</text><!--MD5=[76f8b830b32db3af7dd306e69d8aafca]
@startuml
    set namespaceSeparator none
    hide empty fields
    hide empty methods

    class "<size:14>JavaFXToolBarModel\n<size:10>it.tidalwave.application.javafx" as it.tidalwave.application.javafx.JavaFXToolBarModel [[JavaFXToolBarModel.html]] {
        +populate(Object, Object): void
    }

    abstract class "<size:14>ToolBarModelSupport\n<size:10>it.tidalwave.application.spi" as it.tidalwave.application.spi.ToolBarModelSupport [[../spi/ToolBarModelSupport.html]]

    it.tidalwave.application.spi.ToolBarModelSupport <|- - it.tidalwave.application.javafx.JavaFXToolBarModel

    center footer UMLDoclet 2.0.12, PlantUML 1.2020.16
@enduml

PlantUML version 1.2020.16(Sun Aug 23 22:20:43 CEST 2020)
(APACHE source distribution)
Java Runtime: OpenJDK Runtime Environment
JVM: OpenJDK 64-Bit Server VM
Default Encoding: UTF-8
Language: en
Country: GB
--></g></svg>