@startuml
    set namespaceSeparator none
    hide empty fields
    hide empty methods

    interface "<size:14>LockableView\n<size:10>it.tidalwave.util.ui" as it.tidalwave.util.ui.LockableView [[LockableView.html]] {
        {abstract} +lock(UserNotification): void
        {abstract} +unlock(): void
    }

    center footer UMLDoclet 2.0.12, PlantUML 1.2020.16
@enduml
