<?xml version="1.0" encoding="UTF-8" standalone="no"?><svg xmlns="http://www.w3.org/2000/svg" xmlns:xlink="http://www.w3.org/1999/xlink" contentScriptType="application/ecmascript" contentStyleType="text/css" height="213px" preserveAspectRatio="none" style="width:332px;height:213px;" version="1.1" viewBox="0 0 332 213" width="332px" zoomAndPan="magnify"><defs><filter height="300%" id="f1k2gue2g3mmjr" width="300%" x="-1" y="-1"><feGaussianBlur result="blurOut" stdDeviation="2.0"/><feColorMatrix in="blurOut" result="blurOut2" type="matrix" values="0 0 0 0 0 0 0 0 0 0 0 0 0 0 0 0 0 0 .4 0"/><feOffset dx="4.0" dy="4.0" in="blurOut2" result="blurOut3"/><feBlend in="SourceGraphic" in2="blurOut3" mode="normal"/></filter></defs><g><!--MD5=[099cc9f03ebd143a245f56cced963dc9]
class it.tidalwave.util.ui.UserNotificationWithFeedback.Feedback--><a href="UserNotificationWithFeedback.Feedback.html" target="_top" title="UserNotificationWithFeedback.Feedback.html" xlink:actuate="onRequest" xlink:href="UserNotificationWithFeedback.Feedback.html" xlink:show="new" xlink:title="UserNotificationWithFeedback.Feedback.html" xlink:type="simple"><rect codeLine="5" fill="#FEFECE" filter="url(#f1k2gue2g3mmjr)" height="72.1758" id="it.tidalwave.util.ui.UserNotificationWithFeedback.Feedback" style="stroke: #A80036; stroke-width: 1.5;" width="306" x="7" y="105"/><ellipse cx="22" cy="124.1328" fill="#ADD1B2" rx="11" ry="11" style="stroke: #A80036; stroke-width: 1.0;"/><path d="M24.4731,130.2759 Q23.8921,130.5747 23.2529,130.7241 Q22.6138,130.8735 21.9082,130.8735 Q19.4014,130.8735 18.0815,129.2217 Q16.7617,127.5698 16.7617,124.4487 Q16.7617,121.3193 18.0815,119.6675 Q19.4014,118.0156 21.9082,118.0156 Q22.6138,118.0156 23.2612,118.165 Q23.9087,118.3145 24.4731,118.6133 L24.4731,121.3359 Q23.8423,120.7549 23.2488,120.4851 Q22.6553,120.2153 22.0244,120.2153 Q20.6797,120.2153 19.9949,121.282 Q19.3101,122.3486 19.3101,124.4487 Q19.3101,126.5405 19.9949,127.6072 Q20.6797,128.6738 22.0244,128.6738 Q22.6553,128.6738 23.2488,128.4041 Q23.8423,128.1343 24.4731,127.5532 Z "/><text fill="#000000" font-family="sans-serif" font-size="14" lengthAdjust="spacingAndGlyphs" textLength="274" x="36" y="123.5352">UserNotificationWithFeedback.Feedback</text><text fill="#000000" font-family="sans-serif" font-size="10" lengthAdjust="spacingAndGlyphs" textLength="88" x="129" y="136.1563">it.tidalwave.util.ui</text><line style="stroke: #A80036; stroke-width: 1.5;" x1="8" x2="312" y1="143.2656" y2="143.2656"/><ellipse cx="18" cy="154.2656" fill="#84BE84" rx="3" ry="3" style="stroke: #038048; stroke-width: 1.0;"/><text fill="#000000" font-family="sans-serif" font-size="11" lengthAdjust="spacingAndGlyphs" textLength="120" x="27" y="157.9004">canConfirm(): boolean</text><ellipse cx="18" cy="167.2207" fill="#84BE84" rx="3" ry="3" style="stroke: #038048; stroke-width: 1.0;"/><text fill="#000000" font-family="sans-serif" font-size="11" lengthAdjust="spacingAndGlyphs" textLength="112" x="27" y="170.8555">canCancel(): boolean</text></a><!--MD5=[fa2901d749da97d8ebb96e890f56c6f6]
class it.tidalwave.util.ui.UserNotificationWithFeedback--><a href="UserNotificationWithFeedback.html" target="_top" title="UserNotificationWithFeedback.html" xlink:actuate="onRequest" xlink:href="UserNotificationWithFeedback.html" xlink:show="new" xlink:title="UserNotificationWithFeedback.html" xlink:type="simple"><rect codeLine="10" fill="#FEFECE" filter="url(#f1k2gue2g3mmjr)" height="38.2656" id="it.tidalwave.util.ui.UserNotificationWithFeedback" style="stroke: #A80036; stroke-width: 1.5;" width="237" x="41.5" y="7"/><ellipse cx="56.5" cy="26.1328" fill="#ADD1B2" rx="11" ry="11" style="stroke: #A80036; stroke-width: 1.0;"/><path d="M58.9731,32.2759 Q58.3921,32.5747 57.7529,32.7241 Q57.1138,32.8735 56.4082,32.8735 Q53.9014,32.8735 52.5815,31.2217 Q51.2617,29.5698 51.2617,26.4487 Q51.2617,23.3193 52.5815,21.6675 Q53.9014,20.0156 56.4082,20.0156 Q57.1138,20.0156 57.7612,20.165 Q58.4087,20.3145 58.9731,20.6133 L58.9731,23.3359 Q58.3423,22.7549 57.7488,22.4851 Q57.1553,22.2153 56.5244,22.2153 Q55.1797,22.2153 54.4949,23.282 Q53.8101,24.3486 53.8101,26.4487 Q53.8101,28.5405 54.4949,29.6072 Q55.1797,30.6738 56.5244,30.6738 Q57.1553,30.6738 57.7488,30.4041 Q58.3423,30.1343 58.9731,29.5532 Z "/><text fill="#000000" font-family="sans-serif" font-size="14" lengthAdjust="spacingAndGlyphs" textLength="205" x="70.5" y="25.5352">UserNotificationWithFeedback</text><text fill="#000000" font-family="sans-serif" font-size="10" lengthAdjust="spacingAndGlyphs" textLength="88" x="129" y="38.1563">it.tidalwave.util.ui</text></a><!--MD5=[5ef9544a7d7815de219e1ee0010331ca]
reverse link it.tidalwave.util.ui.UserNotificationWithFeedback to it.tidalwave.util.ui.UserNotificationWithFeedback.Feedback--><path codeLine="12" d="M160,60.4665 C160,74.5047 160,90.7372 160,104.935 " fill="none" id="it.tidalwave.util.ui.UserNotificationWithFeedback-backto-it.tidalwave.util.ui.UserNotificationWithFeedback.Feedback" style="stroke: #A80036; stroke-width: 1.0;"/><ellipse cx="160" cy="53.2484" fill="#FFFFFF" rx="8" ry="8" style="stroke: #A80036; stroke-width: 1.0;"/><line style="stroke: #A80036; stroke-width: 1.0;" x1="160" x2="160" y1="61.2484" y2="45.2484"/><line style="stroke: #A80036; stroke-width: 1.0;" x1="152" x2="168" y1="53.2484" y2="53.2484"/><text fill="#888888" font-family="sans-serif" font-size="10" lengthAdjust="spacingAndGlyphs" textLength="188" x="63" y="199.8438">UMLDoclet 2.0.12, PlantUML 1.2020.16</text><!--MD5=[887582656be1b2edeafc356fe79cd44f]
@startuml
    set namespaceSeparator none
    hide empty fields
    hide empty methods

    class "<size:14>UserNotificationWithFeedback.Feedback\n<size:10>it.tidalwave.util.ui" as it.tidalwave.util.ui.UserNotificationWithFeedback.Feedback [[UserNotificationWithFeedback.Feedback.html]] {
        +canConfirm(): boolean
        +canCancel(): boolean
    }

    class "<size:14>UserNotificationWithFeedback\n<size:10>it.tidalwave.util.ui" as it.tidalwave.util.ui.UserNotificationWithFeedback [[UserNotificationWithFeedback.html]]

    it.tidalwave.util.ui.UserNotificationWithFeedback +- - it.tidalwave.util.ui.UserNotificationWithFeedback.Feedback

    center footer UMLDoclet 2.0.12, PlantUML 1.2020.16
@enduml

PlantUML version 1.2020.16(Sun Aug 23 22:20:43 CEST 2020)
(APACHE source distribution)
Java Runtime: OpenJDK Runtime Environment
JVM: OpenJDK 64-Bit Server VM
Default Encoding: UTF-8
Language: en
Country: GB
--></g></svg>