@startuml
    namespace it.tidalwave.northernwind.frontend.ui.component.container.htmltemplate {

        class HtmlTemplateContainerView [[HtmlTemplateContainerView.html]] {
            +HtmlTemplateContainerView(Id)
        }

        it.tidalwave.northernwind.frontend.ui.component.htmlfragment.htmltemplate.HtmlTemplateHtmlFragmentView <|-- HtmlTemplateContainerView
        it.tidalwave.northernwind.frontend.ui.component.container.ContainerView <|.. HtmlTemplateContainerView
    }

    namespace it.tidalwave.northernwind.frontend.ui.component.htmlfragment.htmltemplate {
        class HtmlTemplateHtmlFragmentView [[../../htmlfragment/htmltemplate/HtmlTemplateHtmlFragmentView.html]] {
        }
    }

    namespace it.tidalwave.northernwind.frontend.ui.component.container {
        interface ContainerView [[../ContainerView.html]] {
            {abstract} +setTemplate(String): void
            {abstract} +setClassName(String): void
        }
    }

    center footer UMLDoclet 2.0.12, PlantUML 1.2020.16
@enduml
