@startuml
    set namespaceSeparator none
    hide empty fields
    hide empty methods

    class "<size:14>MockConcreteRole2\n<size:10>it.tidalwave.role.spring.mock" as it.tidalwave.role.spring.mock.MockConcreteRole2 [[MockConcreteRole2.html]] {
    }

    interface "<size:14>MockRole2\n<size:10>it.tidalwave.role.spring.mock" as it.tidalwave.role.spring.mock.MockRole2 [[MockRole2.html]]

    it.tidalwave.role.spring.mock.MockRole2 <|.. it.tidalwave.role.spring.mock.MockConcreteRole2

    center footer UMLDoclet 2.0.12, PlantUML 1.2020.16
@enduml
