<?xml version="1.0" encoding="UTF-8" standalone="no"?><svg xmlns="http://www.w3.org/2000/svg" xmlns:xlink="http://www.w3.org/1999/xlink" contentScriptType="application/ecmascript" contentStyleType="text/css" height="151px" preserveAspectRatio="none" style="width:307px;height:151px;" version="1.1" viewBox="0 0 307 151" width="307px" zoomAndPan="magnify"><defs><filter height="300%" id="fdtya5ckzpyrl" width="300%" x="-1" y="-1"><feGaussianBlur result="blurOut" stdDeviation="2.0"/><feColorMatrix in="blurOut" result="blurOut2" type="matrix" values="0 0 0 0 0 0 0 0 0 0 0 0 0 0 0 0 0 0 .4 0"/><feOffset dx="4.0" dy="4.0" in="blurOut2" result="blurOut3"/><feBlend in="SourceGraphic" in2="blurOut3" mode="normal"/></filter></defs><g><!--MD5=[dc7be10117d2537fe6392dc262c9c8bd]
class it.tidalwave.thesefoolishthings.examples.person--><a href="it/tidalwave/thesefoolishthings/examples/person/package-summary.html" target="_top" title="it/tidalwave/thesefoolishthings/examples/person/package-summary.html" xlink:actuate="onRequest" xlink:href="it/tidalwave/thesefoolishthings/examples/person/package-summary.html" xlink:show="new" xlink:title="it/tidalwave/thesefoolishthings/examples/person/package-summary.html" xlink:type="simple"><rect codeLine="9" fill="#FEFECE" filter="url(#fdtya5ckzpyrl)" height="24.1328" id="it.tidalwave.thesefoolishthings.examples.person" style="stroke: #A80036; stroke-width: 1.5;" width="281" x="7" y="7"/><text fill="#000000" font-family="sans-serif" font-size="12" lengthAdjust="spacingAndGlyphs" textLength="275" x="10" y="23.6016">it.tidalwave.thesefoolishthings.examples.person</text></a><!--MD5=[e2825e41240dc3ac7b156e1d527e9be0]
class it.tidalwave.util--><a href="https://tidalwave.bitbucket.io/thesefoolishthings/modules/it-tidalwave-util/apidocs/it/tidalwave/util/package-summary.html?is-external=true" target="_top" title="https://tidalwave.bitbucket.io/thesefoolishthings/modules/it-tidalwave-util/apidocs/it/tidalwave/util/package-summary.html?is-external=true" xlink:actuate="onRequest" xlink:href="https://tidalwave.bitbucket.io/thesefoolishthings/modules/it-tidalwave-util/apidocs/it/tidalwave/util/package-summary.html?is-external=true" xlink:show="new" xlink:title="https://tidalwave.bitbucket.io/thesefoolishthings/modules/it-tidalwave-util/apidocs/it/tidalwave/util/package-summary.html?is-external=true" xlink:type="simple"><rect codeLine="11" fill="#FEFECE" filter="url(#fdtya5ckzpyrl)" height="24.1328" id="it.tidalwave.util" style="stroke: #A80036; stroke-width: 1.5;" width="92" x="101.5" y="91"/><text fill="#000000" font-family="sans-serif" font-size="12" lengthAdjust="spacingAndGlyphs" textLength="86" x="104.5" y="107.6016">it.tidalwave.util</text></a><!--MD5=[58fe540f21f559d88fb6a7275dca6f23]
link it.tidalwave.thesefoolishthings.examples.person to it.tidalwave.util--><path codeLine="6" d="M147.5,31.0352 C147.5,45.3818 147.5,69.4615 147.5,85.777 " fill="none" id="it.tidalwave.thesefoolishthings.examples.person-to-it.tidalwave.util" style="stroke: #A80036; stroke-width: 1.0;"/><polygon fill="#A80036" points="147.5,90.9872,151.5,81.9872,147.5,85.9872,143.5,81.9872,147.5,90.9872" style="stroke: #A80036; stroke-width: 1.0;"/><text fill="#888888" font-family="sans-serif" font-size="10" lengthAdjust="spacingAndGlyphs" textLength="188" x="50.5" y="137.8008">UMLDoclet 2.0.12, PlantUML 1.2020.16</text><!--MD5=[ecd1a93d413259b87e49bfd37d73947c]
@startuml
    set namespaceSeparator none
    hide circle
    hide empty fields
    hide empty methods

    it.tidalwave.thesefoolishthings.examples.person - -> it.tidalwave.util

    ' Package links
    class "it.tidalwave.thesefoolishthings.examples.person" [[it/tidalwave/thesefoolishthings/examples/person/package-summary.html]] {
    }
    class "it.tidalwave.util" [[https://tidalwave.bitbucket.io/thesefoolishthings/modules/it-tidalwave-util/apidocs/it/tidalwave/util/package-summary.html?is-external=true]] {
    }

    center footer UMLDoclet 2.0.12, PlantUML 1.2020.16
@enduml

@startuml
    set namespaceSeparator none
    hide circle
    hide empty fields
    hide empty methods

    it.tidalwave.thesefoolishthings.examples.person - -> it.tidalwave.util

    class "it.tidalwave.thesefoolishthings.examples.person" [[it/tidalwave/thesefoolishthings/examples/person/package-summary.html]] {
    }
    class "it.tidalwave.util" [[https://tidalwave.bitbucket.io/thesefoolishthings/modules/it-tidalwave-util/apidocs/it/tidalwave/util/package-summary.html?is-external=true]] {
    }

    center footer UMLDoclet 2.0.12, PlantUML 1.2020.16
@enduml

PlantUML version 1.2020.16(Sun Aug 23 22:20:43 CEST 2020)
(APACHE source distribution)
Java Runtime: OpenJDK Runtime Environment
JVM: OpenJDK 64-Bit Server VM
Default Encoding: UTF-8
Language: en
Country: GB
--></g></svg>