GROUP,PACKAGE,CLASS,INSTRUCTION_MISSED,INSTRUCTION_COVERED,BRANCH_MISSED,BRANCH_COVERED,LINE_MISSED,LINE_COVERED,COMPLEXITY_MISSED,COMPLEXITY_COVERED,METHOD_MISSED,METHOD_COVERED
TheseFoolishThings :: Examples :: Finder :: JPA Finder/it-tidalwave-thesefoolishthings-examples-data,it.tidalwave.thesefoolishthings.examples.person,ListOfPersons,249,0,14,0,8,0,46,0,39,0
TheseFoolishThings :: Examples :: Finder :: JPA Finder/it-tidalwave-thesefoolishthings-examples-data,it.tidalwave.thesefoolishthings.examples.person,DefaultPersonRegistry,18,0,0,0,5,0,3,0,3,0
TheseFoolishThings :: Examples :: Finder :: JPA Finder/it-tidalwave-thesefoolishthings-examples-data,it.tidalwave.thesefoolishthings.examples.person,PersonRegistryHelper,12,56,0,0,3,3,2,2,2,2
TheseFoolishThings :: Examples :: Finder :: JPA Finder/it-tidalwave-thesefoolishthings-examples-data,it.tidalwave.thesefoolishthings.examples.person,Person,133,45,32,2,0,8,20,7,3,7
TheseFoolishThings :: Examples :: Finder :: JPA Finder/it-tidalwave-role,it.tidalwave.role.ui,MutableDisplayable,13,0,0,0,3,0,3,0,3,0
TheseFoolishThings :: Examples :: Finder :: JPA Finder/it-tidalwave-role,it.tidalwave.role.ui,UserActionProvider,0,15,0,0,0,5,0,3,0,3
TheseFoolishThings :: Examples :: Finder :: JPA Finder/it-tidalwave-role,it.tidalwave.role.ui,MutableLocalizedDisplayable,13,0,0,0,3,0,3,0,3,0
TheseFoolishThings :: Examples :: Finder :: JPA Finder/it-tidalwave-role,it.tidalwave.role.ui,Selectable,3,0,0,0,1,0,1,0,1,0
TheseFoolishThings :: Examples :: Finder :: JPA Finder/it-tidalwave-role,it.tidalwave.role.ui,Visible,11,0,0,0,3,0,3,0,3,0
TheseFoolishThings :: Examples :: Finder :: JPA Finder/it-tidalwave-role,it.tidalwave.role.ui,MutableIconProvider,3,0,0,0,1,0,1,0,1,0
TheseFoolishThings :: Examples :: Finder :: JPA Finder/it-tidalwave-role,it.tidalwave.role.ui,PresentationModelFactory,5,3,0,0,1,1,1,1,1,1
TheseFoolishThings :: Examples :: Finder :: JPA Finder/it-tidalwave-role,it.tidalwave.role.ui,PresentationModel,35,40,0,0,7,9,4,5,4,5
TheseFoolishThings :: Examples :: Finder :: JPA Finder/it-tidalwave-role,it.tidalwave.role.ui,Displayable,32,20,0,0,7,4,7,3,7,3
TheseFoolishThings :: Examples :: Finder :: JPA Finder/it-tidalwave-role,it.tidalwave.role.ui,UserActionProvider.new UserActionProvider() {...},0,23,0,2,0,5,0,4,0,3
TheseFoolishThings :: Examples :: Finder :: JPA Finder/it-tidalwave-role,it.tidalwave.role.ui,Styleable,13,0,0,0,3,0,3,0,3,0
TheseFoolishThings :: Examples :: Finder :: JPA Finder/it-tidalwave-role,it.tidalwave.role.ui,UserAction,22,0,0,0,5,0,4,0,4,0
TheseFoolishThings :: Examples :: Finder :: JPA Finder/it-tidalwave-role,it.tidalwave.role.ui,LocalizedDisplayable,3,0,0,0,1,0,1,0,1,0
TheseFoolishThings :: Examples :: Finder :: JPA Finder/it-tidalwave-role,it.tidalwave.role.ui,BoundProperty,247,0,18,0,17,0,36,0,27,0
TheseFoolishThings :: Examples :: Finder :: JPA Finder/it-tidalwave-role,it.tidalwave.role.ui,PresentationModelAggregate,42,0,2,0,5,0,7,0,6,0
TheseFoolishThings :: Examples :: Finder :: JPA Finder/it-tidalwave-role,it.tidalwave.role.ui,IconProvider.new IconProvider() {...},17,0,0,0,3,0,2,0,2,0
TheseFoolishThings :: Examples :: Finder :: JPA Finder/it-tidalwave-role,it.tidalwave.role.ui,Presentable,23,3,0,0,4,1,3,1,3,1
TheseFoolishThings :: Examples :: Finder :: JPA Finder/it-tidalwave-role,it.tidalwave.role.ui,ActionProvider,3,0,0,0,1,0,1,0,1,0
TheseFoolishThings :: Examples :: Finder :: JPA Finder/it-tidalwave-role,it.tidalwave.role.ui,IconProvider,7,0,0,0,2,0,1,0,1,0
TheseFoolishThings :: Examples :: Finder :: JPA Finder/it-tidalwave-role,it.tidalwave.role.io,Unmarshallable,3,0,0,0,1,0,1,0,1,0
TheseFoolishThings :: Examples :: Finder :: JPA Finder/it-tidalwave-role,it.tidalwave.role.io,BinaryWritable.new BinaryWritable() {...},8,0,0,0,2,0,2,0,2,0
TheseFoolishThings :: Examples :: Finder :: JPA Finder/it-tidalwave-role,it.tidalwave.role.io,TextReadable,7,0,0,0,2,0,1,0,1,0
TheseFoolishThings :: Examples :: Finder :: JPA Finder/it-tidalwave-role,it.tidalwave.role.io,Persistable,3,0,0,0,1,0,1,0,1,0
TheseFoolishThings :: Examples :: Finder :: JPA Finder/it-tidalwave-role,it.tidalwave.role.io,TextWritable.new TextWritable() {...},8,0,0,0,2,0,2,0,2,0
TheseFoolishThings :: Examples :: Finder :: JPA Finder/it-tidalwave-role,it.tidalwave.role.io,TextReadable.new TextReadable() {...},8,0,0,0,2,0,2,0,2,0
TheseFoolishThings :: Examples :: Finder :: JPA Finder/it-tidalwave-role,it.tidalwave.role.io,TextWritable,7,0,0,0,2,0,1,0,1,0
TheseFoolishThings :: Examples :: Finder :: JPA Finder/it-tidalwave-role,it.tidalwave.role.io,BinaryReadable.new BinaryReadable() {...},8,0,0,0,2,0,2,0,2,0
TheseFoolishThings :: Examples :: Finder :: JPA Finder/it-tidalwave-role,it.tidalwave.role.io,Marshallable,3,0,0,0,1,0,1,0,1,0
TheseFoolishThings :: Examples :: Finder :: JPA Finder/it-tidalwave-role,it.tidalwave.role.io,BinaryReadable,7,0,0,0,2,0,1,0,1,0
TheseFoolishThings :: Examples :: Finder :: JPA Finder/it-tidalwave-role,it.tidalwave.role.io,BinaryWritable,7,0,0,0,2,0,1,0,1,0
TheseFoolishThings :: Examples :: Finder :: JPA Finder/it-tidalwave-role,it.tidalwave.role.io.spi,PathTextWritable,27,0,0,0,8,0,3,0,3,0
TheseFoolishThings :: Examples :: Finder :: JPA Finder/it-tidalwave-role,it.tidalwave.role.io.spi,PathBinaryWritable,15,0,0,0,5,0,2,0,2,0
TheseFoolishThings :: Examples :: Finder :: JPA Finder/it-tidalwave-role,it.tidalwave.role.io.spi,PathTextReadable,20,0,0,0,7,0,3,0,3,0
TheseFoolishThings :: Examples :: Finder :: JPA Finder/it-tidalwave-role,it.tidalwave.role.io.spi,PathBinaryReadable,15,0,0,0,5,0,2,0,2,0
TheseFoolishThings :: Examples :: Finder :: JPA Finder/it-tidalwave-role,it.tidalwave.role.ui.function,UnaryBoundFunctionSupport,35,0,0,0,10,0,4,0,4,0
TheseFoolishThings :: Examples :: Finder :: JPA Finder/it-tidalwave-role,it.tidalwave.role.ui.function,AndFunction,35,0,4,0,7,0,5,0,3,0
TheseFoolishThings :: Examples :: Finder :: JPA Finder/it-tidalwave-role,it.tidalwave.role.ui.function,OrFunction,35,0,4,0,7,0,5,0,3,0
TheseFoolishThings :: Examples :: Finder :: JPA Finder/it-tidalwave-role,it.tidalwave.role.ui.function,NonEmptyFunction,39,0,4,0,8,0,6,0,4,0
TheseFoolishThings :: Examples :: Finder :: JPA Finder/it-tidalwave-role,it.tidalwave.role.ui.function,BooleanBoundFunctionSupport.new PropertyChangeListener() {...},28,0,0,0,5,0,2,0,2,0
TheseFoolishThings :: Examples :: Finder :: JPA Finder/it-tidalwave-role,it.tidalwave.role.ui.function,BoundFunctionSupport,134,0,2,0,9,0,19,0,18,0
TheseFoolishThings :: Examples :: Finder :: JPA Finder/it-tidalwave-role,it.tidalwave.role.ui.function,WeakCopyFunctionSupport,35,0,2,0,12,0,6,0,5,0
TheseFoolishThings :: Examples :: Finder :: JPA Finder/it-tidalwave-role,it.tidalwave.role.ui.function,BooleanBoundFunctionSupport,40,0,2,0,8,0,3,0,2,0
TheseFoolishThings :: Examples :: Finder :: JPA Finder/it-tidalwave-role,it.tidalwave.role.ui.function,CopyIfEmptyOrConform,23,0,4,0,4,0,5,0,3,0
TheseFoolishThings :: Examples :: Finder :: JPA Finder/it-tidalwave-role,it.tidalwave.role.impl,DefaultSimpleComposite,9,11,1,1,0,2,2,2,1,2
TheseFoolishThings :: Examples :: Finder :: JPA Finder/it-tidalwave-role,it.tidalwave.role.impl,DefaultIdentifiable,32,0,2,0,3,0,4,0,3,0
TheseFoolishThings :: Examples :: Finder :: JPA Finder/it-tidalwave-role,it.tidalwave.role.impl,MapAggregate,46,0,0,0,12,0,6,0,6,0
TheseFoolishThings :: Examples :: Finder :: JPA Finder/it-tidalwave-role,it.tidalwave.role.ui.impl,DisplayableComparator,0,21,0,0,0,5,0,4,0,4
TheseFoolishThings :: Examples :: Finder :: JPA Finder/it-tidalwave-role,it.tidalwave.role.ui.impl,DefaultUserAction,108,0,4,0,14,0,15,0,13,0
TheseFoolishThings :: Examples :: Finder :: JPA Finder/it-tidalwave-role,it.tidalwave.role.ui.impl,DefaultStyleable,28,0,0,0,8,0,4,0,4,0
TheseFoolishThings :: Examples :: Finder :: JPA Finder/it-tidalwave-role,it.tidalwave.role.ui.impl,DefaultPresentable,18,0,2,0,2,0,3,0,2,0
TheseFoolishThings :: Examples :: Finder :: JPA Finder/it-tidalwave-role,it.tidalwave.role.ui.impl,DefaultPresentationModel,176,69,8,6,19,17,24,8,19,6
TheseFoolishThings :: Examples :: Finder :: JPA Finder/it-tidalwave-role,it.tidalwave.role.ui.impl,AsDisplayableComparator,0,27,0,0,0,5,0,4,0,4
TheseFoolishThings :: Examples :: Finder :: JPA Finder/it-tidalwave-role,it.tidalwave.role.ui.impl,DefaultMutableDisplayable,135,0,0,0,30,0,12,0,12,0
TheseFoolishThings :: Examples :: Finder :: JPA Finder/it-tidalwave-role,it.tidalwave.role.ui.impl,DefaultDisplayable,17,48,0,0,3,11,3,4,3,4
TheseFoolishThings :: Examples :: Finder :: JPA Finder/it-tidalwave-role,it.tidalwave.role,PlainTextRenderable,16,0,0,0,5,0,3,0,3,0
TheseFoolishThings :: Examples :: Finder :: JPA Finder/it-tidalwave-role,it.tidalwave.role,Sortable,7,0,0,0,2,0,1,0,1,0
TheseFoolishThings :: Examples :: Finder :: JPA Finder/it-tidalwave-role,it.tidalwave.role,Aggregate,28,0,0,0,6,0,6,0,6,0
TheseFoolishThings :: Examples :: Finder :: JPA Finder/it-tidalwave-role,it.tidalwave.role,Composite.new Composite() {...},5,0,0,0,2,0,2,0,2,0
TheseFoolishThings :: Examples :: Finder :: JPA Finder/it-tidalwave-role,it.tidalwave.role,Removable,6,0,0,0,2,0,2,0,2,0
TheseFoolishThings :: Examples :: Finder :: JPA Finder/it-tidalwave-role,it.tidalwave.role,StringRenderable,16,0,0,0,5,0,3,0,3,0
TheseFoolishThings :: Examples :: Finder :: JPA Finder/it-tidalwave-role,it.tidalwave.role,HtmlRenderable,3,0,0,0,1,0,1,0,1,0
TheseFoolishThings :: Examples :: Finder :: JPA Finder/it-tidalwave-role,it.tidalwave.role,Identifiable,8,0,0,0,2,0,2,0,2,0
TheseFoolishThings :: Examples :: Finder :: JPA Finder/it-tidalwave-role,it.tidalwave.role,Composite.Visitor,5,0,0,0,4,0,4,0,4,0
TheseFoolishThings :: Examples :: Finder :: JPA Finder/it-tidalwave-role,it.tidalwave.role,Sortable.new Sortable() {...},9,0,0,0,5,0,5,0,5,0
TheseFoolishThings :: Examples :: Finder :: JPA Finder/it-tidalwave-role,it.tidalwave.role,SimpleComposite,0,12,0,0,0,3,0,3,0,3
TheseFoolishThings :: Examples :: Finder :: JPA Finder/it-tidalwave-role,it.tidalwave.role,Composite,7,0,0,0,2,0,1,0,1,0
TheseFoolishThings :: Examples :: Finder :: JPA Finder/it-tidalwave-role,it.tidalwave.role.ui.spi,SimpleCompositePresentable.SCPFinder.new Task() {...},0,52,0,0,0,8,0,6,0,6
TheseFoolishThings :: Examples :: Finder :: JPA Finder/it-tidalwave-role,it.tidalwave.role.ui.spi,SimpleCompositePresentable.new Task() {...},0,51,0,2,0,6,0,3,0,2
TheseFoolishThings :: Examples :: Finder :: JPA Finder/it-tidalwave-role,it.tidalwave.role.ui.spi,PresentationModelCollectors,73,0,0,0,11,0,9,0,9,0
TheseFoolishThings :: Examples :: Finder :: JPA Finder/it-tidalwave-role,it.tidalwave.role.ui.spi,SimpleCompositePresentable,0,84,0,4,0,19,0,8,0,6
TheseFoolishThings :: Examples :: Finder :: JPA Finder/it-tidalwave-role,it.tidalwave.role.ui.spi,DefaultUserActionProvider,0,10,0,0,0,3,0,3,0,3
TheseFoolishThings :: Examples :: Finder :: JPA Finder/it-tidalwave-role,it.tidalwave.role.ui.spi,MutableIconProviderSupport,27,0,0,0,9,0,5,0,5,0
TheseFoolishThings :: Examples :: Finder :: JPA Finder/it-tidalwave-role,it.tidalwave.role.ui.spi,DefaultPresentationModelFactory,0,9,0,0,0,2,0,2,0,2
TheseFoolishThings :: Examples :: Finder :: JPA Finder/it-tidalwave-role,it.tidalwave.role.ui.spi,ActionProviderSupport,10,0,0,0,3,0,3,0,3,0
TheseFoolishThings :: Examples :: Finder :: JPA Finder/it-tidalwave-role,it.tidalwave.role.ui.spi,SimpleCompositePresentable.SCPFinder,29,23,2,2,5,2,3,2,1,2
TheseFoolishThings :: Examples :: Finder :: JPA Finder/it-tidalwave-util,it.tidalwave.util.thread,ThreadAssertions,17,0,2,0,5,0,4,0,3,0
TheseFoolishThings :: Examples :: Finder :: JPA Finder/it-tidalwave-util,it.tidalwave.util.thread,ThreadType,34,0,0,0,2,0,1,0,1,0
TheseFoolishThings :: Examples :: Finder :: JPA Finder/it-tidalwave-util,it.tidalwave.util.ui,UserNotificationWithFeedback,89,0,0,0,16,0,12,0,12,0
TheseFoolishThings :: Examples :: Finder :: JPA Finder/it-tidalwave-util,it.tidalwave.util.ui,UserNotification,61,0,0,0,8,0,9,0,9,0
TheseFoolishThings :: Examples :: Finder :: JPA Finder/it-tidalwave-util,it.tidalwave.util.ui,UserNotificationWithFeedback.Feedback,67,0,8,0,11,0,11,0,7,0
TheseFoolishThings :: Examples :: Finder :: JPA Finder/it-tidalwave-util,it.tidalwave.util.spi,DefaultProcessExecutor.DefaultConsoleOutput,326,0,30,0,69,0,26,0,11,0
TheseFoolishThings :: Examples :: Finder :: JPA Finder/it-tidalwave-util,it.tidalwave.util.spi,FinderWithIdMapSupport,50,0,2,0,10,0,6,0,5,0
TheseFoolishThings :: Examples :: Finder :: JPA Finder/it-tidalwave-util,it.tidalwave.util.spi,DefaultProcessExecutor.DefaultConsoleOutput.new Runnable() {...},37,0,4,0,9,0,4,0,2,0
TheseFoolishThings :: Examples :: Finder :: JPA Finder/it-tidalwave-util,it.tidalwave.util.spi,DefaultProcessExecutor.DefaultConsoleOutput.new Runnable() {...},19,0,0,0,6,0,2,0,2,0
TheseFoolishThings :: Examples :: Finder :: JPA Finder/it-tidalwave-util,it.tidalwave.util.spi,DefaultProcessExecutor,187,0,6,0,35,0,15,0,12,0
TheseFoolishThings :: Examples :: Finder :: JPA Finder/it-tidalwave-util,it.tidalwave.util.spi,ArrayListCollectorSupport,17,0,0,0,5,0,6,0,6,0
TheseFoolishThings :: Examples :: Finder :: JPA Finder/it-tidalwave-util,it.tidalwave.util.spi,HierarchicFinderSupport.Sorter,30,0,4,0,3,0,4,0,2,0
TheseFoolishThings :: Examples :: Finder :: JPA Finder/it-tidalwave-util,it.tidalwave.util.spi,FinderWithIdSupport,75,0,2,0,13,0,10,0,9,0
TheseFoolishThings :: Examples :: Finder :: JPA Finder/it-tidalwave-util,it.tidalwave.util.spi,SimpleFinderSupport,4,8,0,0,2,3,1,2,1,2
TheseFoolishThings :: Examples :: Finder :: JPA Finder/it-tidalwave-util,it.tidalwave.util.spi,HierarchicFinderSupport,159,228,6,8,29,38,14,16,9,14
TheseFoolishThings :: Examples :: Finder :: JPA Finder/it-tidalwave-util,it.tidalwave.role.spi,OwnerRoleFactoryProvider,0,4,0,0,0,1,0,1,0,1
TheseFoolishThings :: Examples :: Finder :: JPA Finder/it-tidalwave-util,it.tidalwave.role.spi,SystemRoleFactory.Inner,3,12,0,0,1,4,1,2,1,2
TheseFoolishThings :: Examples :: Finder :: JPA Finder/it-tidalwave-util,it.tidalwave.role.spi,OwnerRoleFactoryProvider.Inner,3,4,0,0,1,2,1,1,1,1
TheseFoolishThings :: Examples :: Finder :: JPA Finder/it-tidalwave-util,it.tidalwave.role.spi,SystemRoleFactory,0,16,0,0,0,6,0,4,0,4
TheseFoolishThings :: Examples :: Finder :: JPA Finder/it-tidalwave-util,it.tidalwave.role.spi,SystemRoleFactorySupport,14,491,4,42,4,93,5,33,1,14
TheseFoolishThings :: Examples :: Finder :: JPA Finder/it-tidalwave-util,it.tidalwave.util.impl.finder,ArrayListFinder,0,31,0,0,0,8,0,3,0,3
TheseFoolishThings :: Examples :: Finder :: JPA Finder/it-tidalwave-util,it.tidalwave.util.impl.finder,MappingFinder,0,39,0,0,0,10,0,3,0,3
TheseFoolishThings :: Examples :: Finder :: JPA Finder/it-tidalwave-util,it.tidalwave.util.impl.finder,SupplierFinder,15,14,0,0,4,4,1,2,1,2
TheseFoolishThings :: Examples :: Finder :: JPA Finder/it-tidalwave-util,it.tidalwave.util.impl.finder,ProviderFinder,0,35,0,0,0,8,0,3,0,3
TheseFoolishThings :: Examples :: Finder :: JPA Finder/it-tidalwave-util,it.tidalwave.role.impl,DefaultContextManagerProvider,0,7,0,0,0,2,0,2,0,2
TheseFoolishThings :: Examples :: Finder :: JPA Finder/it-tidalwave-util,it.tidalwave.role.impl,ContextSnapshot,0,51,0,2,0,10,0,6,0,5
TheseFoolishThings :: Examples :: Finder :: JPA Finder/it-tidalwave-util,it.tidalwave.role.impl,DefaultSystemRoleFactory,0,3,0,0,0,1,0,1,0,1
TheseFoolishThings :: Examples :: Finder :: JPA Finder/it-tidalwave-util,it.tidalwave.role.impl,DefaultContextManager,33,106,5,3,8,26,4,9,1,8
TheseFoolishThings :: Examples :: Finder :: JPA Finder/it-tidalwave-util,it.tidalwave.role.impl,ServiceLoaderLocator,30,88,5,7,4,20,4,8,0,6
TheseFoolishThings :: Examples :: Finder :: JPA Finder/it-tidalwave-util,it.tidalwave.role.impl,AsDelegate,33,151,1,13,6,30,4,14,3,8
TheseFoolishThings :: Examples :: Finder :: JPA Finder/it-tidalwave-util,it.tidalwave.role.impl,OwnerAndRole,30,162,15,15,0,11,13,10,0,8
TheseFoolishThings :: Examples :: Finder :: JPA Finder/it-tidalwave-util,it.tidalwave.role.impl,MultiMap,0,50,0,6,0,13,0,8,0,5
TheseFoolishThings :: Examples :: Finder :: JPA Finder/it-tidalwave-util,it.tidalwave.role.impl,DefaultOwnerRoleFactory,7,55,1,1,1,12,1,3,0,3
TheseFoolishThings :: Examples :: Finder :: JPA Finder/it-tidalwave-util,it.tidalwave.role.impl,DefaultOwnerRoleFactoryProvider,0,8,0,0,0,2,0,2,0,2
TheseFoolishThings :: Examples :: Finder :: JPA Finder/it-tidalwave-util,it.tidalwave.role.impl,DefaultOwnerRoleFactory.new Task() {...},0,17,0,0,0,2,0,2,0,2
TheseFoolishThings :: Examples :: Finder :: JPA Finder/it-tidalwave-util,it.tidalwave.role.impl,DefaultSystemRoleFactoryProvider,0,7,0,0,0,2,0,2,0,2
TheseFoolishThings :: Examples :: Finder :: JPA Finder/it-tidalwave-util,it.tidalwave.role.impl,DefaultContextManager.new ThreadLocal() {...},0,10,0,0,0,2,0,2,0,2
TheseFoolishThings :: Examples :: Finder :: JPA Finder/it-tidalwave-util,it.tidalwave.util,Initializer.EmptyInitializer,5,0,0,0,2,0,2,0,2,0
TheseFoolishThings :: Examples :: Finder :: JPA Finder/it-tidalwave-util,it.tidalwave.util,NamedCallback,39,0,4,0,4,0,7,0,5,0
TheseFoolishThings :: Examples :: Finder :: JPA Finder/it-tidalwave-util,it.tidalwave.util,ContextManager.Inner,3,12,0,0,1,4,1,2,1,2
TheseFoolishThings :: Examples :: Finder :: JPA Finder/it-tidalwave-util,it.tidalwave.util,Finder.SortCriterion,8,0,0,0,3,0,2,0,2,0
TheseFoolishThings :: Examples :: Finder :: JPA Finder/it-tidalwave-util,it.tidalwave.util,CollectionUtils,9,138,0,10,1,27,1,14,1,9
TheseFoolishThings :: Examples :: Finder :: JPA Finder/it-tidalwave-util,it.tidalwave.util,Finder,69,26,2,0,14,5,12,5,11,5
TheseFoolishThings :: Examples :: Finder :: JPA Finder/it-tidalwave-util,it.tidalwave.util,Initializer,4,0,0,0,1,0,1,0,1,0
TheseFoolishThings :: Examples :: Finder :: JPA Finder/it-tidalwave-util,it.tidalwave.util,ContextManager,40,50,0,0,9,11,6,7,6,7
TheseFoolishThings :: Examples :: Finder :: JPA Finder/it-tidalwave-util,it.tidalwave.util,LazySupplier,9,35,1,3,0,9,2,6,1,5
TheseFoolishThings :: Examples :: Finder :: JPA Finder/it-tidalwave-util,it.tidalwave.util,Callback,4,0,0,0,1,0,2,0,2,0
TheseFoolishThings :: Examples :: Finder :: JPA Finder/it-tidalwave-util,it.tidalwave.util,DuplicateException,7,0,0,0,4,0,2,0,2,0
TheseFoolishThings :: Examples :: Finder :: JPA Finder/it-tidalwave-util,it.tidalwave.util,Finder.InMemorySortCriterion,17,0,0,0,4,0,3,0,3,0
TheseFoolishThings :: Examples :: Finder :: JPA Finder/it-tidalwave-util,it.tidalwave.util,Finder.SortDirection,3,34,0,0,1,2,1,2,1,2
TheseFoolishThings :: Examples :: Finder :: JPA Finder/it-tidalwave-util,it.tidalwave.util,Finder.InMemorySortCriterion.DefaultInMemorySortCriterion,136,0,26,0,3,0,20,0,7,0
TheseFoolishThings :: Examples :: Finder :: JPA Finder/it-tidalwave-util,it.tidalwave.util,FunctionalCheckedExceptionWrappers,11,64,0,4,6,23,2,11,2,9
TheseFoolishThings :: Examples :: Finder :: JPA Finder/it-tidalwave-util,it.tidalwave.util,Pair.Factory,0,29,0,0,0,4,0,3,0,3
TheseFoolishThings :: Examples :: Finder :: JPA Finder/it-tidalwave-util,it.tidalwave.util,IdFactory,26,0,0,0,6,0,4,0,4,0
TheseFoolishThings :: Examples :: Finder :: JPA Finder/it-tidalwave-util,it.tidalwave.util,Triple,92,118,24,12,0,8,20,12,2,12
TheseFoolishThings :: Examples :: Finder :: JPA Finder/it-tidalwave-util,it.tidalwave.util,As.Type,61,11,13,1,0,2,10,2,3,2
TheseFoolishThings :: Examples :: Finder :: JPA Finder/it-tidalwave-util,it.tidalwave.util,TimeProvider.DefaultTimeProvider,0,5,0,0,0,2,0,2,0,2
TheseFoolishThings :: Examples :: Finder :: JPA Finder/it-tidalwave-util,it.tidalwave.util,AsExtensions,28,8,0,0,6,2,6,2,6,2
TheseFoolishThings :: Examples :: Finder :: JPA Finder/it-tidalwave-util,it.tidalwave.util,PreferencesHandler,28,0,0,0,8,0,3,0,3,0
TheseFoolishThings :: Examples :: Finder :: JPA Finder/it-tidalwave-util,it.tidalwave.util,AsException,6,5,0,0,2,2,1,1,1,1
TheseFoolishThings :: Examples :: Finder :: JPA Finder/it-tidalwave-util,it.tidalwave.util,PreferencesHandler.Inner,7,0,0,0,2,0,2,0,2,0
TheseFoolishThings :: Examples :: Finder :: JPA Finder/it-tidalwave-util,it.tidalwave.util,ContextManager.Binder,0,51,0,4,0,9,0,4,0,2
TheseFoolishThings :: Examples :: Finder :: JPA Finder/it-tidalwave-util,it.tidalwave.util,ShortNames,11,203,3,17,3,40,4,15,1,8
TheseFoolishThings :: Examples :: Finder :: JPA Finder/it-tidalwave-util,it.tidalwave.util,StreamUtils,2,88,2,2,0,16,2,4,0,4
TheseFoolishThings :: Examples :: Finder :: JPA Finder/it-tidalwave-util,it.tidalwave.util,SimpleTask,3,0,0,0,1,0,1,0,1,0
TheseFoolishThings :: Examples :: Finder :: JPA Finder/it-tidalwave-util,it.tidalwave.util,BundleUtilities,0,28,0,2,0,5,0,3,0,2
TheseFoolishThings :: Examples :: Finder :: JPA Finder/it-tidalwave-util,it.tidalwave.util,Task,37,21,0,0,7,3,5,1,5,1
TheseFoolishThings :: Examples :: Finder :: JPA Finder/it-tidalwave-util,it.tidalwave.util,Id,25,80,9,9,1,5,9,9,1,8
TheseFoolishThings :: Examples :: Finder :: JPA Finder/it-tidalwave-util,it.tidalwave.util,ReflectionUtils,82,184,12,20,20,39,11,11,1,5
TheseFoolishThings :: Examples :: Finder :: JPA Finder/it-tidalwave-util,it.tidalwave.util,StreamUtils.new Spliterators.AbstractSpliterator() {...},0,37,0,4,0,5,0,4,0,2
TheseFoolishThings :: Examples :: Finder :: JPA Finder/it-tidalwave-util,it.tidalwave.util,As,14,41,1,1,2,6,3,7,2,7
TheseFoolishThings :: Examples :: Finder :: JPA Finder/it-tidalwave-util,it.tidalwave.util,TypeSafeMultiMap,0,10,0,0,0,2,0,2,0,2
TheseFoolishThings :: Examples :: Finder :: JPA Finder/it-tidalwave-util,it.tidalwave.util,Task.new Task() {...},11,0,0,0,3,0,2,0,2,0
TheseFoolishThings :: Examples :: Finder :: JPA Finder/it-tidalwave-util,it.tidalwave.util,Pair,84,230,17,9,3,23,18,35,5,35
TheseFoolishThings :: Examples :: Finder :: JPA Finder/it-tidalwave-util,it.tidalwave.util,TypeSafeMap,0,18,0,0,0,5,0,3,0,3
TheseFoolishThings :: Examples :: Finder :: JPA Finder/it-tidalwave-util,it.tidalwave.util,IdFactory.Private,6,0,0,0,1,0,1,0,1,0
TheseFoolishThings :: Examples :: Finder :: JPA Finder/it-tidalwave-util,it.tidalwave.util,NotFoundException,44,18,10,2,13,7,10,4,5,3
TheseFoolishThings :: Examples :: Finder :: JPA Finder/it-tidalwave-util,it.tidalwave.util,Parameters,75,44,10,6,12,9,8,4,2,2
TheseFoolishThings :: Examples :: Finder :: JPA Finder/it-tidalwave-util,it.tidalwave.util,Key,38,162,13,15,4,15,14,16,3,13
TheseFoolishThings :: Examples :: Finder :: JPA Finder/it-tidalwave-util,it.tidalwave.util,LocalizedDateTimeFormatters,0,16,0,0,0,3,0,1,0,1
TheseFoolishThings :: Examples :: Finder :: JPA Finder/it-tidalwave-util,it.tidalwave.util,TimeProvider,3,33,1,1,1,7,2,4,1,4
TheseFoolishThings :: Examples :: Finder :: JPA Finder/it-tidalwave-util,it.tidalwave.util,Task.new Task() {...},10,0,0,0,2,0,2,0,2,0
TheseFoolishThings :: Examples :: Finder :: JPA Finder/it-tidalwave-util,it.tidalwave.util,Task.new Task() {...},11,0,0,0,3,0,2,0,2,0
TheseFoolishThings :: Examples :: Finder :: JPA Finder/it-tidalwave-util,it.tidalwave.util,ConcurrentHashMapWithOptionals,0,24,0,2,0,3,0,5,0,4
TheseFoolishThings :: Examples :: Finder :: JPA Finder/it-tidalwave-util,it.tidalwave.util.impl,TypeSafeHashMap,74,78,14,0,4,17,13,10,6,10
TheseFoolishThings :: Examples :: Finder :: JPA Finder/it-tidalwave-util,it.tidalwave.util.impl,TypeSafeHashMultiMap,74,86,14,2,4,20,13,11,6,10
TheseFoolishThings :: Examples :: Finder :: JPA Finder/it-tidalwave-util,it.tidalwave.util.impl,DefaultPreferencesHandler,154,0,8,0,34,0,12,0,7,0
TheseFoolishThings :: Examples :: Finder :: JPA Finder/it-tidalwave-util-test,it.tidalwave.util.test,MockTimeProvider,14,0,0,0,4,0,3,0,3,0
TheseFoolishThings :: Examples :: Finder :: JPA Finder/it-tidalwave-util-test,it.tidalwave.util.test,MoreAnswers,10,11,1,1,1,3,2,2,1,2
TheseFoolishThings :: Examples :: Finder :: JPA Finder/it-tidalwave-util-test,it.tidalwave.util.test,BaseTestHelper,150,0,8,0,22,0,10,0,6,0
TheseFoolishThings :: Examples :: Finder :: JPA Finder/it-tidalwave-util-test,it.tidalwave.util.test,FileComparisonUtils,668,0,28,0,101,0,42,0,27,0
TheseFoolishThings :: Examples :: Finder :: JPA Finder/it-tidalwave-util-test,it.tidalwave.util.test,BaseTestHelper.TestResource,72,0,6,0,10,0,9,0,6,0
TheseFoolishThings :: Examples :: Finder :: JPA Finder/it-tidalwave-util-test,it.tidalwave.util.test,TestLogger,167,131,13,5,41,32,13,8,6,6
TheseFoolishThings :: Examples :: Finder :: JPA Finder/it-tidalwave-util-test,it.tidalwave.util.test,SpringTestHelper,88,0,0,0,17,0,8,0,8,0
