@startuml
    set namespaceSeparator none
    hide empty fields
    hide empty methods

    interface "<size:14>PriorityAsSupport.RoleProvider\n<size:10>it.tidalwave.util.spi" as it.tidalwave.util.spi.PriorityAsSupport.RoleProvider [[PriorityAsSupport.RoleProvider.html]] {
        {abstract} +findRoles(Class<T>): Collection<T>
    }

    class "<size:14>PriorityAsSupport\n<size:10>it.tidalwave.util.spi" as it.tidalwave.util.spi.PriorityAsSupport [[PriorityAsSupport.html]]

    it.tidalwave.util.spi.PriorityAsSupport +-- it.tidalwave.util.spi.PriorityAsSupport.RoleProvider

    center footer UMLDoclet 2.0.12, PlantUML 1.2020.16
@enduml
