GROUP,PACKAGE,CLASS,INSTRUCTION_MISSED,INSTRUCTION_COVERED,BRANCH_MISSED,BRANCH_COVERED,LINE_MISSED,LINE_COVERED,COMPLEXITY_MISSED,COMPLEXITY_COVERED,METHOD_MISSED,METHOD_COVERED
SteelBlue - Examples - Large/it-tidalwave-steelblue-example-backend,it.tidalwave.role.ui.javafx.example.large.mainscreen,MainScreenPresentation.Bindings,70,0,10,0,3,0,7,0,2,0
SteelBlue - Examples - Large/it-tidalwave-steelblue-example-backend,it.tidalwave.role.ui.javafx.example.large.mainscreen,MainScreenPresentation.Bindings.BindingsBuilder,54,0,0,0,1,0,8,0,8,0
SteelBlue - Examples - Large/it-tidalwave-steelblue-example-backend,it.tidalwave.role.ui.javafx.example.large.mainscreen.impl,DefaultMainScreenPresentationControl,476,0,0,0,86,0,31,0,31,0
SteelBlue - Examples - Large/it-tidalwave-steelblue-example-backend,it.tidalwave.role.ui.javafx.example.large.mainscreen.impl,FileEntityPresentable,106,0,0,0,19,0,3,0,3,0
SteelBlue - Examples - Large/it-tidalwave-steelblue-example-backend,it.tidalwave.role.ui.javafx.example.large.data.impl,FileEntity.FileEntityFinder,46,0,2,0,9,0,4,0,3,0
SteelBlue - Examples - Large/it-tidalwave-steelblue-example-backend,it.tidalwave.role.ui.javafx.example.large.data.impl,DefautDao,64,0,0,0,10,0,5,0,5,0
SteelBlue - Examples - Large/it-tidalwave-steelblue-example-backend,it.tidalwave.role.ui.javafx.example.large.data.impl,FileEntity,202,0,24,0,17,0,30,0,18,0
SteelBlue - Examples - Large/it-tidalwave-steelblue-example-backend,it.tidalwave.role.ui.javafx.example.large.data,SimpleDciEntity,67,0,0,0,12,0,11,0,11,0
SteelBlue - Examples - Large/it-tidalwave-steelblue-example-backend,it.tidalwave.role.ui.javafx.example.large.data,SimpleEntity,26,0,2,0,3,0,4,0,3,0
SteelBlue - Examples - Large/it-tidalwave-role-ui-javafx,it.tidalwave.role.ui.javafx.impl.common,PresentationModelAsDelegateDecorator,104,0,2,0,11,0,15,0,14,0
SteelBlue - Examples - Large/it-tidalwave-role-ui-javafx,it.tidalwave.role.ui.javafx.impl.common,ChangeListenerSelectableAdapter,6,48,3,3,0,8,3,7,0,7
SteelBlue - Examples - Large/it-tidalwave-role-ui-javafx,it.tidalwave.role.ui.javafx.impl.common,DelegateSupport,71,8,3,1,20,1,7,1,5,1
SteelBlue - Examples - Large/it-tidalwave-role-ui-javafx,it.tidalwave.role.ui.javafx.impl.common,JavaFXWorker,116,0,2,0,26,0,13,0,12,0
SteelBlue - Examples - Large/it-tidalwave-role-ui-javafx,it.tidalwave.role.ui.javafx.impl.common,PropertyAdapter,198,0,4,0,49,0,22,0,20,0
SteelBlue - Examples - Large/it-tidalwave-role-ui-javafx,it.tidalwave.role.ui.javafx.impl.common,RoleBag,53,35,0,0,11,9,7,4,7,4
SteelBlue - Examples - Large/it-tidalwave-role-ui-javafx,it.tidalwave.role.ui.javafx.impl.common,PresentationModelObservable,88,0,4,0,13,0,12,0,10,0
SteelBlue - Examples - Large/it-tidalwave-role-ui-javafx,it.tidalwave.role.ui.javafx.impl.common,PresentationModelTreeItem,11,0,0,0,3,0,2,0,2,0
SteelBlue - Examples - Large/it-tidalwave-role-ui-javafx,it.tidalwave.role.ui.javafx.impl.common,DefaultCellBinder,225,54,13,1,47,9,23,5,16,5
SteelBlue - Examples - Large/it-tidalwave-role-ui-javafx,it.tidalwave.role.ui.javafx.impl.common,EventHandlerUserActionAdapter,10,23,2,2,0,3,2,2,0,2
SteelBlue - Examples - Large/it-tidalwave-role-ui-javafx,it.tidalwave.role.ui.javafx.impl.dialog,DialogBindings,129,0,10,0,33,0,11,0,6,0
SteelBlue - Examples - Large/it-tidalwave-role-ui-javafx,it.tidalwave.role.ui.javafx.impl.tree,ObsoletePresentationModelDisposer,0,36,1,3,0,11,1,5,0,4
SteelBlue - Examples - Large/it-tidalwave-role-ui-javafx,it.tidalwave.role.ui.javafx.impl.tree,TreeViewBindings,170,24,2,0,34,6,11,2,10,2
SteelBlue - Examples - Large/it-tidalwave-role-ui-javafx,it.tidalwave.role.ui.javafx.impl.tree,AsObjectTreeCell,17,0,0,0,4,0,2,0,2,0
SteelBlue - Examples - Large/it-tidalwave-role-ui-javafx,it.tidalwave.ui.javafx,JavaFXSafeProxyCreator,199,0,6,0,51,0,10,0,7,0
SteelBlue - Examples - Large/it-tidalwave-role-ui-javafx,it.tidalwave.ui.javafx,JavaFXSpringApplication,175,0,14,0,39,0,18,0,11,0
SteelBlue - Examples - Large/it-tidalwave-role-ui-javafx,it.tidalwave.ui.javafx,JavaFXSafeProxyCreator.NodeAndDelegate,117,0,12,0,19,0,12,0,6,0
SteelBlue - Examples - Large/it-tidalwave-role-ui-javafx,it.tidalwave.ui.javafx,Splash,126,0,4,0,18,0,8,0,6,0
SteelBlue - Examples - Large/it-tidalwave-role-ui-javafx,it.tidalwave.ui.javafx,JavaFXApplicationWithSplash,231,0,12,0,56,0,30,0,24,0
SteelBlue - Examples - Large/it-tidalwave-role-ui-javafx,it.tidalwave.role.ui.javafx.impl.util,JavaFXSafeProxy,96,0,8,0,20,0,10,0,6,0
SteelBlue - Examples - Large/it-tidalwave-role-ui-javafx,it.tidalwave.role.ui.javafx.impl.util,ReflectionUtils,262,0,30,0,58,0,21,0,6,0
SteelBlue - Examples - Large/it-tidalwave-role-ui-javafx,it.tidalwave.role.ui.javafx.impl.util,JavaFXSafeComponentBuilder,285,0,18,0,58,0,19,0,10,0
SteelBlue - Examples - Large/it-tidalwave-role-ui-javafx,it.tidalwave.role.ui.javafx.impl.util,JavaFXSafeRunner,24,0,2,0,11,0,4,0,3,0
SteelBlue - Examples - Large/it-tidalwave-role-ui-javafx,it.tidalwave.role.ui.javafx.impl.util,Logging,163,0,22,0,33,0,18,0,7,0
SteelBlue - Examples - Large/it-tidalwave-role-ui-javafx,it.tidalwave.role.ui.javafx.impl.util,JavaFXPresentationBuilder,24,0,0,0,5,0,2,0,2,0
SteelBlue - Examples - Large/it-tidalwave-role-ui-javafx,it.tidalwave.util.impl,DefaultPreferencesHandler,139,0,6,0,33,0,11,0,7,0
SteelBlue - Examples - Large/it-tidalwave-role-ui-javafx,it.tidalwave.role.ui.javafx.impl.tableview,TableViewBindings,96,0,0,0,22,0,8,0,8,0
SteelBlue - Examples - Large/it-tidalwave-role-ui-javafx,it.tidalwave.role.ui.javafx.impl.tableview,AsObjectTableCell,22,0,0,0,4,0,3,0,3,0
SteelBlue - Examples - Large/it-tidalwave-role-ui-javafx,it.tidalwave.role.ui.javafx.impl.filechooser,FileChooserBindings,114,0,2,0,29,0,9,0,8,0
SteelBlue - Examples - Large/it-tidalwave-role-ui-javafx,it.tidalwave.role.ui.javafx.impl.treetable,AsObjectTreeTableCell,22,0,0,0,4,0,3,0,3,0
SteelBlue - Examples - Large/it-tidalwave-role-ui-javafx,it.tidalwave.role.ui.javafx.impl.treetable,TreeTableViewBindings,188,0,4,0,43,0,14,0,12,0
SteelBlue - Examples - Large/it-tidalwave-role-ui-javafx,it.tidalwave.ui.role.javafx,CustomGraphicProvider,0,3,0,0,0,1,0,1,0,1
SteelBlue - Examples - Large/it-tidalwave-role-ui-javafx,it.tidalwave.role.ui.javafx.impl.combobox,ComboBoxBindings,126,0,4,0,32,0,11,0,9,0
SteelBlue - Examples - Large/it-tidalwave-role-ui-javafx,it.tidalwave.role.ui.javafx.impl.list,ListViewBindings,110,0,2,0,26,0,10,0,9,0
SteelBlue - Examples - Large/it-tidalwave-role-ui-javafx,it.tidalwave.role.ui.javafx.impl.list,AsObjectListCell,24,0,2,0,4,0,3,0,2,0
SteelBlue - Examples - Large/it-tidalwave-role-ui-javafx,it.tidalwave.util,PreferencesHandler,41,0,2,0,10,0,4,0,3,0
SteelBlue - Examples - Large/it-tidalwave-role-ui-javafx,it.tidalwave.role.ui.javafx,StackPaneSelector,92,0,6,0,22,0,10,0,7,0
SteelBlue - Examples - Large/it-tidalwave-role-ui-javafx,it.tidalwave.role.ui.javafx,JavaFXBinder,82,0,0,0,26,0,13,0,13,0
SteelBlue - Examples - Large/it-tidalwave-role-ui-javafx,it.tidalwave.role.ui.javafx.impl,DefaultJavaFXBinder,481,0,16,0,93,0,35,0,27,0
