GROUP,PACKAGE,CLASS,INSTRUCTION_MISSED,INSTRUCTION_COVERED,BRANCH_MISSED,BRANCH_COVERED,LINE_MISSED,LINE_COVERED,COMPLEXITY_MISSED,COMPLEXITY_COVERED,METHOD_MISSED,METHOD_COVERED
blueHour :: Application (JavaFX)/it-tidalwave-accounting-model,it.tidalwave.accounting.model.spi.util,DurationFormat,0,26,0,0,0,4,0,2,0,2
blueHour :: Application (JavaFX)/it-tidalwave-accounting-model,it.tidalwave.accounting.model.spi.util,Formatters,3,19,0,0,1,6,1,1,1,1
blueHour :: Application (JavaFX)/it-tidalwave-accounting-model,it.tidalwave.accounting.model.spi.util,MoneyFormat,0,40,0,0,0,8,0,3,0,3
blueHour :: Application (JavaFX)/it-tidalwave-accounting-model,it.tidalwave.accounting.model,Project.Builder,5,33,0,0,1,8,1,3,1,3
blueHour :: Application (JavaFX)/it-tidalwave-accounting-model,it.tidalwave.accounting.model,Invoice.Builder.Callback,4,0,0,0,1,0,2,0,2,0
blueHour :: Application (JavaFX)/it-tidalwave-accounting-model,it.tidalwave.accounting.model,HourlyReportGenerator,3,0,0,0,1,0,1,0,1,0
blueHour :: Application (JavaFX)/it-tidalwave-accounting-model,it.tidalwave.accounting.model,Invoice.Builder,9,25,0,0,3,5,2,2,2,2
blueHour :: Application (JavaFX)/it-tidalwave-accounting-model,it.tidalwave.accounting.model,JobEvent.Type,0,15,0,0,0,1,0,1,0,1
blueHour :: Application (JavaFX)/it-tidalwave-accounting-model,it.tidalwave.accounting.model,Project.Builder.Callback,0,4,0,0,0,1,0,2,0,2
blueHour :: Application (JavaFX)/it-tidalwave-accounting-model,it.tidalwave.accounting.model,HourlyReport,0,3,0,0,0,1,0,1,0,1
blueHour :: Application (JavaFX)/it-tidalwave-accounting-model,it.tidalwave.accounting.model,Project.Status,0,15,0,0,0,1,0,1,0,1
blueHour :: Application (JavaFX)/it-tidalwave-accounting-model,it.tidalwave.accounting.model,Customer,0,4,0,0,0,1,0,1,0,1
blueHour :: Application (JavaFX)/it-tidalwave-accounting-model,it.tidalwave.accounting.model,Customer.Builder,5,25,0,0,1,7,1,3,1,3
blueHour :: Application (JavaFX)/it-tidalwave-accounting-model,it.tidalwave.accounting.model,JobEventRegistry,3,0,0,0,1,0,1,0,1,0
blueHour :: Application (JavaFX)/it-tidalwave-accounting-model,it.tidalwave.accounting.model,Customer.Builder.Callback,0,4,0,0,0,1,0,2,0,2
blueHour :: Application (JavaFX)/it-tidalwave-accounting-model,it.tidalwave.accounting.model,Project,0,4,0,0,0,1,0,1,0,1
blueHour :: Application (JavaFX)/it-tidalwave-accounting-model,it.tidalwave.accounting.model,JobEvent.Builder,0,19,0,0,0,3,0,2,0,2
blueHour :: Application (JavaFX)/it-tidalwave-accounting-model,it.tidalwave.accounting.model,ProjectRegistry,3,0,0,0,1,0,1,0,1,0
blueHour :: Application (JavaFX)/it-tidalwave-accounting-model,it.tidalwave.accounting.model,JobEvent,0,4,0,0,0,1,0,1,0,1
blueHour :: Application (JavaFX)/it-tidalwave-accounting-model,it.tidalwave.accounting.model,Accounting,6,10,0,0,2,2,0,1,0,1
blueHour :: Application (JavaFX)/it-tidalwave-accounting-model,it.tidalwave.accounting.model.types,Address.Builder,0,5,0,0,0,1,0,1,0,1
blueHour :: Application (JavaFX)/it-tidalwave-accounting-model,it.tidalwave.accounting.model.types,Money,33,135,1,7,3,25,2,17,1,14
blueHour :: Application (JavaFX)/it-tidalwave-accounting-model,it.tidalwave.accounting.model.types,Address,0,36,0,0,0,9,0,3,0,3
blueHour :: Application (JavaFX)/it-tidalwave-accounting-model,it.tidalwave.accounting.model.spi,ObjectFactory,6,10,0,0,2,2,0,1,0,1
blueHour :: Application (JavaFX)/it-tidalwave-accounting-model,it.tidalwave.accounting.model.impl,DefaultHourlyReportGenerator,8,244,1,3,1,32,1,5,0,4
blueHour :: Application (JavaFX)/it-tidalwave-accounting-model-impl-inmemory,it.tidalwave.accounting.model.impl,InMemoryInvoiceRegistry,6,27,0,0,1,4,1,4,1,4
blueHour :: Application (JavaFX)/it-tidalwave-accounting-model-impl-inmemory,it.tidalwave.accounting.model.impl,InMemoryProject,37,69,0,0,2,19,2,4,2,4
blueHour :: Application (JavaFX)/it-tidalwave-accounting-model-impl-inmemory,it.tidalwave.accounting.model.impl,InMemoryCustomerRegistry.InMemoryCustomerFinder,9,0,0,0,4,0,2,0,2,0
blueHour :: Application (JavaFX)/it-tidalwave-accounting-model-impl-inmemory,it.tidalwave.accounting.model.impl,InMemoryJobEventGroup,68,0,2,0,13,0,9,0,8,0
blueHour :: Application (JavaFX)/it-tidalwave-accounting-model-impl-inmemory,it.tidalwave.accounting.model.impl,InMemoryCustomerRegistry,6,25,0,0,1,6,1,3,1,3
blueHour :: Application (JavaFX)/it-tidalwave-accounting-model-impl-inmemory,it.tidalwave.accounting.model.impl,InMemoryJobEvent,4,19,0,0,1,7,1,1,1,1
blueHour :: Application (JavaFX)/it-tidalwave-accounting-model-impl-inmemory,it.tidalwave.accounting.model.impl,InMemoryProjectRegistry,6,31,0,0,1,7,1,4,1,4
blueHour :: Application (JavaFX)/it-tidalwave-accounting-model-impl-inmemory,it.tidalwave.accounting.model.impl,InMemoryJobEventFinder,48,0,2,0,11,0,6,0,5,0
blueHour :: Application (JavaFX)/it-tidalwave-accounting-model-impl-inmemory,it.tidalwave.accounting.model.impl,InMemoryInvoice,31,39,0,0,2,12,3,1,3,1
blueHour :: Application (JavaFX)/it-tidalwave-accounting-model-impl-inmemory,it.tidalwave.accounting.model.impl,InMemoryInvoiceFinderFromMap,63,0,2,0,13,0,7,0,6,0
blueHour :: Application (JavaFX)/it-tidalwave-accounting-model-impl-inmemory,it.tidalwave.accounting.model.impl,InMemoryAccounting,0,24,0,0,0,6,0,1,0,1
blueHour :: Application (JavaFX)/it-tidalwave-accounting-model-impl-inmemory,it.tidalwave.accounting.model.impl,InMemoryCustomer.InMemoryProjectFinder,9,0,0,0,4,0,2,0,2,0
blueHour :: Application (JavaFX)/it-tidalwave-accounting-model-impl-inmemory,it.tidalwave.accounting.model.impl,InMemoryJobEventFinderSupport,18,18,0,0,3,2,3,2,3,2
blueHour :: Application (JavaFX)/it-tidalwave-accounting-model-impl-inmemory,it.tidalwave.accounting.model.impl,InMemoryTimedJobEvent,20,29,0,0,2,8,1,3,1,3
blueHour :: Application (JavaFX)/it-tidalwave-accounting-model-impl-inmemory,it.tidalwave.accounting.model.impl,InMemoryJobEventFinderFromList,18,6,0,0,6,1,2,1,2,1
blueHour :: Application (JavaFX)/it-tidalwave-accounting-model-impl-inmemory,it.tidalwave.accounting.model.impl,InMemoryObjectFactory,10,35,3,3,2,8,3,5,0,5
blueHour :: Application (JavaFX)/it-tidalwave-accounting-model-impl-inmemory,it.tidalwave.accounting.model.impl,InMemoryCustomer,40,23,0,0,5,8,4,1,4,1
blueHour :: Application (JavaFX)/it-tidalwave-accounting-model-impl-inmemory,it.tidalwave.accounting.model.impl,InMemoryFlatJobEvent,38,0,0,0,8,0,4,0,4,0
blueHour :: Application (JavaFX)/it-tidalwave-accounting-model-impl-inmemory,it.tidalwave.accounting.model.impl,InMemoryProjectRegistry.InMemoryProjectFinder,5,4,0,0,2,2,1,1,1,1
blueHour :: Application (JavaFX)/it-tidalwave-accounting-ui,it.tidalwave.accounting.impl,DefaultAccountingController,51,0,0,0,11,0,6,0,6,0
blueHour :: Application (JavaFX)/it-tidalwave-accounting-ui-importer-ibiz,it.tidalwave.accounting.ui.importer.ibiz.impl,IBizImporterActionProvider,7,0,0,0,1,0,1,0,1,0
blueHour :: Application (JavaFX)/it-tidalwave-accounting-ui-importer-ibiz,it.tidalwave.accounting.ui.importer.ibiz.impl,DefaultIBizImporterPresentationControl,80,0,0,0,19,0,6,0,6,0
blueHour :: Application (JavaFX)/it-tidalwave-accounting-ui-javafx,it.tidalwave.accounting.ui.projectexplorer.impl.javafx,JavaFxProjectExplorerPresentationDelegate,7,0,0,0,2,0,1,0,1,0
blueHour :: Application (JavaFX)/it-tidalwave-accounting-ui-javafx,it.tidalwave.accounting.ui.projectexplorer.impl.javafx,JavaFxProjectExplorerPresentation,13,0,0,0,5,0,1,0,1,0
blueHour :: Application (JavaFX)/it-tidalwave-accounting-ui-javafx,it.tidalwave.accounting.ui.importer.ibiz.impl.javafx,JavaFxIBizImporterPresentationDelegate,14,0,0,0,7,0,5,0,5,0
blueHour :: Application (JavaFX)/it-tidalwave-accounting-ui-javafx,it.tidalwave.accounting.ui.importer.ibiz.impl.javafx,JavaFxIBizImporterPresentation,13,0,0,0,4,0,1,0,1,0
blueHour :: Application (JavaFX)/it-tidalwave-accounting-ui-javafx,it.tidalwave.accounting.ui.hourlyreport.impl.javafx,JavaFxHourlyReportPresentationDelegate,19,0,0,0,5,0,3,0,3,0
blueHour :: Application (JavaFX)/it-tidalwave-accounting-ui-javafx,it.tidalwave.accounting.ui.hourlyreport.impl.javafx,JavaFxHourlyReportPresentation,13,0,0,0,4,0,1,0,1,0
blueHour :: Application (JavaFX)/it-tidalwave-accounting-ui-javafx,it.tidalwave.accounting.ui.jobeventexplorer.impl.javafx,JavaFxJobEventExplorerPresentationDelegate,12,0,0,0,3,0,1,0,1,0
blueHour :: Application (JavaFX)/it-tidalwave-accounting-ui-javafx,it.tidalwave.accounting.ui.jobeventexplorer.impl.javafx,JavaFxJobEventExplorerPresentation,13,0,0,0,5,0,1,0,1,0
blueHour :: Application (JavaFX)/it-tidalwave-accounting-ui-javafx,it.tidalwave.accounting.ui.customerexplorer.impl.javafx,JavaFxCustomerExplorerPresentationDelegate,7,0,0,0,2,0,1,0,1,0
blueHour :: Application (JavaFX)/it-tidalwave-accounting-ui-javafx,it.tidalwave.accounting.ui.customerexplorer.impl.javafx,JavaFxCustomerExplorerPresentation,13,0,0,0,5,0,1,0,1,0
