<?xml version="1.0" encoding="UTF-8" standalone="no"?><svg xmlns="http://www.w3.org/2000/svg" xmlns:xlink="http://www.w3.org/1999/xlink" contentScriptType="application/ecmascript" contentStyleType="text/css" height="107px" preserveAspectRatio="none" style="width:316px;height:107px;" version="1.1" viewBox="0 0 316 107" width="316px" zoomAndPan="magnify"><defs><filter height="300%" id="f19ztzdkovezwl" width="300%" x="-1" y="-1"><feGaussianBlur result="blurOut" stdDeviation="2.0"/><feColorMatrix in="blurOut" result="blurOut2" type="matrix" values="0 0 0 0 0 0 0 0 0 0 0 0 0 0 0 0 0 0 .4 0"/><feOffset dx="4.0" dy="4.0" in="blurOut2" result="blurOut3"/><feBlend in="SourceGraphic" in2="blurOut3" mode="normal"/></filter></defs><g><!--MD5=[5c69c4ff94c541ffcd01fe7eb901472d]
class it.tidalwave.util.BundleUtilities--><a href="BundleUtilities.html" target="_top" title="BundleUtilities.html" xlink:actuate="onRequest" xlink:href="BundleUtilities.html" xlink:show="new" xlink:title="BundleUtilities.html" xlink:type="simple"><rect codeLine="5" fill="#FEFECE" filter="url(#f19ztzdkovezwl)" height="70.8955" id="it.tidalwave.util.BundleUtilities" style="stroke: #A80036; stroke-width: 1.5;" width="290" x="7" y="7"/><ellipse cx="103.75" cy="25.7988" fill="#ADD1B2" rx="11" ry="11" style="stroke: #A80036; stroke-width: 1.0;"/><path d="M101.6563,25.6426 Q101.6563,27.5176 102.2344,28.5332 Q102.8125,29.5332 103.9688,29.5332 Q105.3125,29.5332 105.9688,27.5176 L108.2344,27.9395 Q107.125,31.4707 103.9531,31.4707 Q101.6094,31.4707 100.3906,29.9863 Q99.1719,28.502 99.1719,25.6426 Q99.1719,19.9238 103.875,19.9238 Q105.4219,19.9238 106.4531,20.7363 Q107.5,21.5488 108,23.1582 L105.7344,23.7051 Q105.5,22.8301 105.0156,22.3457 Q104.5313,21.8457 103.9063,21.8457 Q101.6563,21.8457 101.6563,25.6426 Z "/><text fill="#000000" font-family="sans-serif" font-size="14" lengthAdjust="spacingAndGlyphs" textLength="88" x="124.25" y="25.1318">BundleUtilities</text><text fill="#000000" font-family="sans-serif" font-size="10" lengthAdjust="spacingAndGlyphs" textLength="72" x="132.25" y="37.4785">it.tidalwave.util</text><line style="stroke: #A80036; stroke-width: 1.5;" x1="8" x2="296" y1="44.5977" y2="44.5977"/><ellipse cx="18" cy="55.5977" fill="#84BE84" rx="3" ry="3" style="stroke: #038048; stroke-width: 1.0;"/><text fill="#000000" font-family="sans-serif" font-size="11" lengthAdjust="spacingAndGlyphs" text-decoration="underline" textLength="226" x="27" y="58.9155">getMessage(Class&lt;?&gt;, String, Object...): String</text><ellipse cx="18" cy="68.2466" fill="#84BE84" rx="3" ry="3" style="stroke: #038048; stroke-width: 1.0;"/><text fill="#000000" font-family="sans-serif" font-size="11" lengthAdjust="spacingAndGlyphs" text-decoration="underline" textLength="264" x="27" y="71.5645">getMessage(Class&lt;?&gt;, Locale, String, Object...): String</text></a><text fill="#888888" font-family="sans-serif" font-size="10" lengthAdjust="spacingAndGlyphs" textLength="190" x="57" y="94.2754">UMLDoclet 2.0.12, PlantUML 1.2020.16</text><!--MD5=[59ce937b0497073a22ff344b9062d405]
@startuml
    set namespaceSeparator none
    hide empty fields
    hide empty methods

    class "<size:14>BundleUtilities\n<size:10>it.tidalwave.util" as it.tidalwave.util.BundleUtilities [[BundleUtilities.html]] {
        {static} +getMessage(Class<?>, String, Object...): String
        {static} +getMessage(Class<?>, Locale, String, Object...): String
    }

    center footer UMLDoclet 2.0.12, PlantUML 1.2020.16
@enduml

PlantUML version 1.2020.16(Sun Aug 23 22:20:43 CEST 2020)
(APACHE source distribution)
Java Runtime: OpenJDK Runtime Environment
JVM: OpenJDK 64-Bit Server VM
Default Encoding: UTF-8
Language: en
Country: US
--></g></svg>