<?xml version="1.0" encoding="UTF-8" standalone="no"?><svg xmlns="http://www.w3.org/2000/svg" xmlns:xlink="http://www.w3.org/1999/xlink" contentScriptType="application/ecmascript" contentStyleType="text/css" height="115px" preserveAspectRatio="none" style="width:202px;height:115px;" version="1.1" viewBox="0 0 202 115" width="202px" zoomAndPan="magnify"><defs><filter height="300%" id="fk7grpqm8s2i4" width="300%" x="-1" y="-1"><feGaussianBlur result="blurOut" stdDeviation="2.0"/><feColorMatrix in="blurOut" result="blurOut2" type="matrix" values="0 0 0 0 0 0 0 0 0 0 0 0 0 0 0 0 0 0 .4 0"/><feOffset dx="4.0" dy="4.0" in="blurOut2" result="blurOut3"/><feBlend in="SourceGraphic" in2="blurOut3" mode="normal"/></filter></defs><g><!--MD5=[1b06f74ce0f9b3b27427098ea3dd990d]
class it.tidalwave.util.Callback--><a href="Callback.html" target="_top" title="Callback.html" xlink:actuate="onRequest" xlink:href="Callback.html" xlink:show="new" xlink:title="Callback.html" xlink:type="simple"><rect codeLine="5" fill="#FEFECE" filter="url(#fk7grpqm8s2i4)" height="78.8955" id="it.tidalwave.util.Callback" style="stroke: #A80036; stroke-width: 1.5;" width="106" x="42" y="7"/><ellipse cx="57.45" cy="25.7988" fill="#B4A7E5" rx="11" ry="11" style="stroke: #A80036; stroke-width: 1.0;"/><path d="M53.7469,20.0957 L61.3563,20.0957 L61.3563,21.9863 L58.7781,21.9863 L58.7781,29.4082 L61.3563,29.4082 L61.3563,31.2988 L53.7469,31.2988 L53.7469,29.4082 L56.3406,29.4082 L56.3406,21.9863 L53.7469,21.9863 L53.7469,20.0957 Z "/><text fill="#000000" font-family="sans-serif" font-size="14" font-style="italic" lengthAdjust="spacingAndGlyphs" textLength="55" x="80.55" y="25.1318">Callback</text><text fill="#000000" font-family="sans-serif" font-size="10" font-style="italic" lengthAdjust="spacingAndGlyphs" textLength="73" x="71.55" y="37.4785">it.tidalwave.util</text><line style="stroke: #A80036; stroke-width: 1.5;" x1="43" x2="147" y1="44.5977" y2="44.5977"/><ellipse cx="53" cy="55.5977" fill="none" rx="3" ry="3" style="stroke: #038048; stroke-width: 1.0;"/><text fill="#000000" font-family="sans-serif" font-size="11" lengthAdjust="spacingAndGlyphs" text-decoration="underline" textLength="80" x="62" y="58.9155">EMPTY: Callback</text><line style="stroke: #A80036; stroke-width: 1.5;" x1="43" x2="147" y1="65.2466" y2="65.2466"/><ellipse cx="53" cy="76.2466" fill="#84BE84" rx="3" ry="3" style="stroke: #038048; stroke-width: 1.0;"/><text fill="#000000" font-family="sans-serif" font-size="11" font-style="italic" lengthAdjust="spacingAndGlyphs" textLength="52" x="62" y="79.5645">call(): void</text></a><text fill="#888888" font-family="sans-serif" font-size="10" lengthAdjust="spacingAndGlyphs" textLength="190" x="0" y="102.2754">UMLDoclet 2.0.12, PlantUML 1.2020.16</text><!--MD5=[a00865758d4f18fbc651a2ead66efd8f]
@startuml
    set namespaceSeparator none
    hide empty fields
    hide empty methods

    interface "<size:14>Callback\n<size:10>it.tidalwave.util" as it.tidalwave.util.Callback [[Callback.html]] {
        {static} +EMPTY: Callback
        {abstract} +call(): void
    }

    center footer UMLDoclet 2.0.12, PlantUML 1.2020.16
@enduml

PlantUML version 1.2020.16(Sun Aug 23 22:20:43 CEST 2020)
(APACHE source distribution)
Java Runtime: OpenJDK Runtime Environment
JVM: OpenJDK 64-Bit Server VM
Default Encoding: UTF-8
Language: en
Country: US
--></g></svg>