<?xml version="1.0" encoding="UTF-8" standalone="no"?><svg xmlns="http://www.w3.org/2000/svg" xmlns:xlink="http://www.w3.org/1999/xlink" contentScriptType="application/ecmascript" contentStyleType="text/css" height="481px" preserveAspectRatio="none" style="width:318px;height:481px;" version="1.1" viewBox="0 0 318 481" width="318px" zoomAndPan="magnify"><defs><filter height="300%" id="fbzaijri3juj1" width="300%" x="-1" y="-1"><feGaussianBlur result="blurOut" stdDeviation="2.0"/><feColorMatrix in="blurOut" result="blurOut2" type="matrix" values="0 0 0 0 0 0 0 0 0 0 0 0 0 0 0 0 0 0 .4 0"/><feOffset dx="4.0" dy="4.0" in="blurOut2" result="blurOut3"/><feBlend in="SourceGraphic" in2="blurOut3" mode="normal"/></filter></defs><g><!--MD5=[09158e14d6249027360fe5d43c757557]
class it.tidalwave.util.ProcessExecutor.ConsoleOutput--><a href="ProcessExecutor.ConsoleOutput.html" target="_top" title="ProcessExecutor.ConsoleOutput.html" xlink:actuate="onRequest" xlink:href="ProcessExecutor.ConsoleOutput.html" xlink:show="new" xlink:title="ProcessExecutor.ConsoleOutput.html" xlink:type="simple"><rect codeLine="5" fill="#FEFECE" filter="url(#fbzaijri3juj1)" height="134.1401" id="it.tidalwave.util.ProcessExecutor.ConsoleOutput" style="stroke: #A80036; stroke-width: 1.5;" width="237" x="34.5" y="214"/><ellipse cx="49.5" cy="232.7988" fill="#B4A7E5" rx="11" ry="11" style="stroke: #A80036; stroke-width: 1.0;"/><path d="M45.7969,227.0957 L53.4063,227.0957 L53.4063,228.9863 L50.8281,228.9863 L50.8281,236.4082 L53.4063,236.4082 L53.4063,238.2988 L45.7969,238.2988 L45.7969,236.4082 L48.3906,236.4082 L48.3906,228.9863 L45.7969,228.9863 L45.7969,227.0957 Z "/><text fill="#000000" font-family="sans-serif" font-size="14" font-style="italic" lengthAdjust="spacingAndGlyphs" textLength="205" x="63.5" y="232.1318">ProcessExecutor.ConsoleOutput</text><text fill="#000000" font-family="sans-serif" font-size="10" font-style="italic" lengthAdjust="spacingAndGlyphs" textLength="73" x="129.5" y="244.4785">it.tidalwave.util</text><line style="stroke: #A80036; stroke-width: 1.5;" x1="35.5" x2="270.5" y1="251.5977" y2="251.5977"/><ellipse cx="45.5" cy="262.5977" fill="#84BE84" rx="3" ry="3" style="stroke: #038048; stroke-width: 1.0;"/><text fill="#000000" font-family="sans-serif" font-size="11" font-style="italic" lengthAdjust="spacingAndGlyphs" textLength="173" x="54.5" y="265.9155">latestLineMatches(String): boolean</text><ellipse cx="45.5" cy="275.2466" fill="#84BE84" rx="3" ry="3" style="stroke: #038048; stroke-width: 1.0;"/><text fill="#000000" font-family="sans-serif" font-size="11" font-style="italic" lengthAdjust="spacingAndGlyphs" textLength="148" x="54.5" y="278.5645">filteredBy(String): List&lt;String&gt;</text><ellipse cx="45.5" cy="287.8955" fill="#84BE84" rx="3" ry="3" style="stroke: #038048; stroke-width: 1.0;"/><text fill="#000000" font-family="sans-serif" font-size="11" font-style="italic" lengthAdjust="spacingAndGlyphs" textLength="206" x="54.5" y="291.2134">filteredAndSplitBy(String, String): Scanner</text><ellipse cx="45.5" cy="300.5444" fill="#84BE84" rx="3" ry="3" style="stroke: #038048; stroke-width: 1.0;"/><text fill="#000000" font-family="sans-serif" font-size="11" font-style="italic" lengthAdjust="spacingAndGlyphs" textLength="153" x="54.5" y="303.8623">waitFor(String): ConsoleOutput</text><ellipse cx="45.5" cy="313.1934" fill="#84BE84" rx="3" ry="3" style="stroke: #038048; stroke-width: 1.0;"/><text fill="#000000" font-family="sans-serif" font-size="11" font-style="italic" lengthAdjust="spacingAndGlyphs" textLength="59" x="54.5" y="316.5112">clear(): void</text><ellipse cx="45.5" cy="325.8423" fill="#84BE84" rx="3" ry="3" style="stroke: #038048; stroke-width: 1.0;"/><text fill="#000000" font-family="sans-serif" font-size="11" font-style="italic" lengthAdjust="spacingAndGlyphs" textLength="129" x="54.5" y="329.1602">setListener(Listener): void</text><ellipse cx="45.5" cy="338.4912" fill="#84BE84" rx="3" ry="3" style="stroke: #038048; stroke-width: 1.0;"/><text fill="#000000" font-family="sans-serif" font-size="11" font-style="italic" lengthAdjust="spacingAndGlyphs" textLength="109" x="54.5" y="341.8091">getListener(): Listener</text></a><!--MD5=[370c9d89927eab2272f72e666429dee0]
class it.tidalwave.util.ProcessExecutor--><a href="ProcessExecutor.html" target="_top" title="ProcessExecutor.html" xlink:actuate="onRequest" xlink:href="ProcessExecutor.html" xlink:show="new" xlink:title="ProcessExecutor.html" xlink:type="simple"><rect codeLine="15" fill="#FEFECE" filter="url(#fbzaijri3juj1)" height="146.7891" id="it.tidalwave.util.ProcessExecutor" style="stroke: #A80036; stroke-width: 1.5;" width="235" x="35.5" y="7"/><ellipse cx="95.75" cy="25.7988" fill="#B4A7E5" rx="11" ry="11" style="stroke: #A80036; stroke-width: 1.0;"/><path d="M92.0469,20.0957 L99.6563,20.0957 L99.6563,21.9863 L97.0781,21.9863 L97.0781,29.4082 L99.6563,29.4082 L99.6563,31.2988 L92.0469,31.2988 L92.0469,29.4082 L94.6406,29.4082 L94.6406,21.9863 L92.0469,21.9863 L92.0469,20.0957 Z "/><text fill="#000000" font-family="sans-serif" font-size="14" font-style="italic" lengthAdjust="spacingAndGlyphs" textLength="106" x="116.25" y="25.1318">ProcessExecutor</text><text fill="#000000" font-family="sans-serif" font-size="10" font-style="italic" lengthAdjust="spacingAndGlyphs" textLength="73" x="132.75" y="37.4785">it.tidalwave.util</text><line style="stroke: #A80036; stroke-width: 1.5;" x1="36.5" x2="269.5" y1="44.5977" y2="44.5977"/><ellipse cx="46.5" cy="55.5977" fill="#84BE84" rx="3" ry="3" style="stroke: #038048; stroke-width: 1.0;"/><text fill="#000000" font-family="sans-serif" font-size="11" font-style="italic" lengthAdjust="spacingAndGlyphs" textLength="209" x="55.5" y="58.9155">withArguments(String...): ProcessExecutor</text><ellipse cx="46.5" cy="68.2466" fill="#84BE84" rx="3" ry="3" style="stroke: #038048; stroke-width: 1.0;"/><text fill="#000000" font-family="sans-serif" font-size="11" font-style="italic" lengthAdjust="spacingAndGlyphs" textLength="194" x="55.5" y="71.5645">withArgument(String): ProcessExecutor</text><ellipse cx="46.5" cy="80.8955" fill="#84BE84" rx="3" ry="3" style="stroke: #038048; stroke-width: 1.0;"/><text fill="#000000" font-family="sans-serif" font-size="11" font-style="italic" lengthAdjust="spacingAndGlyphs" textLength="121" x="55.5" y="84.2134">start(): ProcessExecutor</text><ellipse cx="46.5" cy="93.5444" fill="#84BE84" rx="3" ry="3" style="stroke: #038048; stroke-width: 1.0;"/><text fill="#000000" font-family="sans-serif" font-size="11" font-style="italic" lengthAdjust="spacingAndGlyphs" textLength="55" x="55.5" y="96.8623">stop(): void</text><ellipse cx="46.5" cy="106.1934" fill="#84BE84" rx="3" ry="3" style="stroke: #038048; stroke-width: 1.0;"/><text fill="#000000" font-family="sans-serif" font-size="11" font-style="italic" lengthAdjust="spacingAndGlyphs" textLength="191" x="55.5" y="109.5112">waitForCompletion(): ProcessExecutor</text><ellipse cx="46.5" cy="118.8423" fill="#84BE84" rx="3" ry="3" style="stroke: #038048; stroke-width: 1.0;"/><text fill="#000000" font-family="sans-serif" font-size="11" font-style="italic" lengthAdjust="spacingAndGlyphs" textLength="152" x="55.5" y="122.1602">send(String): ProcessExecutor</text><ellipse cx="46.5" cy="131.4912" fill="#84BE84" rx="3" ry="3" style="stroke: #038048; stroke-width: 1.0;"/><text fill="#000000" font-family="sans-serif" font-size="11" font-style="italic" lengthAdjust="spacingAndGlyphs" textLength="134" x="55.5" y="134.8091">getStdout(): ConsoleOutput</text><ellipse cx="46.5" cy="144.1401" fill="#84BE84" rx="3" ry="3" style="stroke: #038048; stroke-width: 1.0;"/><text fill="#000000" font-family="sans-serif" font-size="11" font-style="italic" lengthAdjust="spacingAndGlyphs" textLength="133" x="55.5" y="147.458">getStderr(): ConsoleOutput</text></a><!--MD5=[a08e2e831a4b9bfddd6a0aad4909a82a]
class it.tidalwave.util.ProcessExecutor.ConsoleOutput.Listener--><a href="ProcessExecutor.ConsoleOutput.Listener.html" target="_top" title="ProcessExecutor.ConsoleOutput.Listener.html" xlink:actuate="onRequest" xlink:href="ProcessExecutor.ConsoleOutput.Listener.html" xlink:show="new" xlink:title="ProcessExecutor.ConsoleOutput.Listener.html" xlink:type="simple"><rect codeLine="25" fill="#FEFECE" filter="url(#fbzaijri3juj1)" height="37.5977" id="it.tidalwave.util.ProcessExecutor.ConsoleOutput.Listener" style="stroke: #A80036; stroke-width: 1.5;" width="292" x="7" y="408"/><ellipse cx="22" cy="426.7988" fill="#B4A7E5" rx="11" ry="11" style="stroke: #A80036; stroke-width: 1.0;"/><path d="M18.2969,421.0957 L25.9063,421.0957 L25.9063,422.9863 L23.3281,422.9863 L23.3281,430.4082 L25.9063,430.4082 L25.9063,432.2988 L18.2969,432.2988 L18.2969,430.4082 L20.8906,430.4082 L20.8906,422.9863 L18.2969,422.9863 L18.2969,421.0957 Z "/><text fill="#000000" font-family="sans-serif" font-size="14" font-style="italic" lengthAdjust="spacingAndGlyphs" textLength="260" x="36" y="426.1318">ProcessExecutor.ConsoleOutput.Listener</text><text fill="#000000" font-family="sans-serif" font-size="10" font-style="italic" lengthAdjust="spacingAndGlyphs" textLength="73" x="129.5" y="438.4785">it.tidalwave.util</text></a><!--MD5=[ab808f20c6bcb6ab5ff2b1573687d68e]
reverse link it.tidalwave.util.ProcessExecutor to it.tidalwave.util.ProcessExecutor.ConsoleOutput--><path codeLine="27" d="M153,169.41 C153,184.37 153,199.67 153,213.94 " fill="none" id="it.tidalwave.util.ProcessExecutor-backto-it.tidalwave.util.ProcessExecutor.ConsoleOutput" style="stroke: #A80036; stroke-width: 1.0;"/><ellipse cx="153" cy="162.01" fill="#FFFFFF" rx="8" ry="8" style="stroke: #A80036; stroke-width: 1.0;"/><line style="stroke: #A80036; stroke-width: 1.0;" x1="153" x2="153" y1="170.01" y2="154.01"/><line style="stroke: #A80036; stroke-width: 1.0;" x1="145" x2="161" y1="162.01" y2="162.01"/><!--MD5=[948cb56fc0f45fba387d66c33c899701]
reverse link it.tidalwave.util.ProcessExecutor.ConsoleOutput to it.tidalwave.util.ProcessExecutor.ConsoleOutput.Listener--><path codeLine="28" d="M153,363.25 C153,380.02 153,396.1 153,407.79 " fill="none" id="it.tidalwave.util.ProcessExecutor.ConsoleOutput-backto-it.tidalwave.util.ProcessExecutor.ConsoleOutput.Listener" style="stroke: #A80036; stroke-width: 1.0;"/><ellipse cx="153" cy="356.1" fill="#FFFFFF" rx="8" ry="8" style="stroke: #A80036; stroke-width: 1.0;"/><line style="stroke: #A80036; stroke-width: 1.0;" x1="153" x2="153" y1="364.1" y2="348.1"/><line style="stroke: #A80036; stroke-width: 1.0;" x1="145" x2="161" y1="356.1" y2="356.1"/><text fill="#888888" font-family="sans-serif" font-size="10" lengthAdjust="spacingAndGlyphs" textLength="190" x="55" y="467.9775">UMLDoclet 2.0.12, PlantUML 1.2020.16</text><!--MD5=[75060ee80d7affd0be4282c7e6ab0c0e]
@startuml
    set namespaceSeparator none
    hide empty fields
    hide empty methods

    interface "<size:14>ProcessExecutor.ConsoleOutput\n<size:10>it.tidalwave.util" as it.tidalwave.util.ProcessExecutor.ConsoleOutput [[ProcessExecutor.ConsoleOutput.html]] {
        {abstract} +latestLineMatches(String): boolean
        {abstract} +filteredBy(String): List<String>
        {abstract} +filteredAndSplitBy(String, String): Scanner
        {abstract} +waitFor(String): ConsoleOutput
        {abstract} +clear(): void
        {abstract} +setListener(Listener): void
        {abstract} +getListener(): Listener
    }

    interface "<size:14>ProcessExecutor\n<size:10>it.tidalwave.util" as it.tidalwave.util.ProcessExecutor [[ProcessExecutor.html]] {
        {abstract} +withArguments(String...): ProcessExecutor
        {abstract} +withArgument(String): ProcessExecutor
        {abstract} +start(): ProcessExecutor
        {abstract} +stop(): void
        {abstract} +waitForCompletion(): ProcessExecutor
        {abstract} +send(String): ProcessExecutor
        {abstract} +getStdout(): ConsoleOutput
        {abstract} +getStderr(): ConsoleOutput
    }
    interface "<size:14>ProcessExecutor.ConsoleOutput.Listener\n<size:10>it.tidalwave.util" as it.tidalwave.util.ProcessExecutor.ConsoleOutput.Listener [[ProcessExecutor.ConsoleOutput.Listener.html]]

    it.tidalwave.util.ProcessExecutor +- - it.tidalwave.util.ProcessExecutor.ConsoleOutput
    it.tidalwave.util.ProcessExecutor.ConsoleOutput +- - it.tidalwave.util.ProcessExecutor.ConsoleOutput.Listener

    center footer UMLDoclet 2.0.12, PlantUML 1.2020.16
@enduml

PlantUML version 1.2020.16(Sun Aug 23 22:20:43 CEST 2020)
(APACHE source distribution)
Java Runtime: OpenJDK Runtime Environment
JVM: OpenJDK 64-Bit Server VM
Default Encoding: UTF-8
Language: en
Country: US
--></g></svg>