<?xml version="1.0" encoding="UTF-8" standalone="no"?><svg xmlns="http://www.w3.org/2000/svg" xmlns:xlink="http://www.w3.org/1999/xlink" contentScriptType="application/ecmascript" contentStyleType="text/css" height="287px" preserveAspectRatio="none" style="width:263px;height:287px;" version="1.1" viewBox="0 0 263 287" width="263px" zoomAndPan="magnify"><defs><filter height="300%" id="fzgubl4qfpi5f" width="300%" x="-1" y="-1"><feGaussianBlur result="blurOut" stdDeviation="2.0"/><feColorMatrix in="blurOut" result="blurOut2" type="matrix" values="0 0 0 0 0 0 0 0 0 0 0 0 0 0 0 0 0 0 .4 0"/><feOffset dx="4.0" dy="4.0" in="blurOut2" result="blurOut3"/><feBlend in="SourceGraphic" in2="blurOut3" mode="normal"/></filter></defs><g><!--MD5=[370c9d89927eab2272f72e666429dee0]
class it.tidalwave.util.ProcessExecutor--><a href="ProcessExecutor.html" target="_top" title="ProcessExecutor.html" xlink:actuate="onRequest" xlink:href="ProcessExecutor.html" xlink:show="new" xlink:title="ProcessExecutor.html" xlink:type="simple"><rect codeLine="5" fill="#FEFECE" filter="url(#fzgubl4qfpi5f)" height="146.7891" id="it.tidalwave.util.ProcessExecutor" style="stroke: #A80036; stroke-width: 1.5;" width="235" x="8" y="7"/><ellipse cx="68.25" cy="25.7988" fill="#B4A7E5" rx="11" ry="11" style="stroke: #A80036; stroke-width: 1.0;"/><path d="M64.5469,20.0957 L72.1563,20.0957 L72.1563,21.9863 L69.5781,21.9863 L69.5781,29.4082 L72.1563,29.4082 L72.1563,31.2988 L64.5469,31.2988 L64.5469,29.4082 L67.1406,29.4082 L67.1406,21.9863 L64.5469,21.9863 L64.5469,20.0957 Z "/><text fill="#000000" font-family="sans-serif" font-size="14" font-style="italic" lengthAdjust="spacingAndGlyphs" textLength="106" x="88.75" y="25.1318">ProcessExecutor</text><text fill="#000000" font-family="sans-serif" font-size="10" font-style="italic" lengthAdjust="spacingAndGlyphs" textLength="73" x="105.25" y="37.4785">it.tidalwave.util</text><line style="stroke: #A80036; stroke-width: 1.5;" x1="9" x2="242" y1="44.5977" y2="44.5977"/><ellipse cx="19" cy="55.5977" fill="#84BE84" rx="3" ry="3" style="stroke: #038048; stroke-width: 1.0;"/><text fill="#000000" font-family="sans-serif" font-size="11" font-style="italic" lengthAdjust="spacingAndGlyphs" textLength="209" x="28" y="58.9155">withArguments(String...): ProcessExecutor</text><ellipse cx="19" cy="68.2466" fill="#84BE84" rx="3" ry="3" style="stroke: #038048; stroke-width: 1.0;"/><text fill="#000000" font-family="sans-serif" font-size="11" font-style="italic" lengthAdjust="spacingAndGlyphs" textLength="194" x="28" y="71.5645">withArgument(String): ProcessExecutor</text><ellipse cx="19" cy="80.8955" fill="#84BE84" rx="3" ry="3" style="stroke: #038048; stroke-width: 1.0;"/><text fill="#000000" font-family="sans-serif" font-size="11" font-style="italic" lengthAdjust="spacingAndGlyphs" textLength="121" x="28" y="84.2134">start(): ProcessExecutor</text><ellipse cx="19" cy="93.5444" fill="#84BE84" rx="3" ry="3" style="stroke: #038048; stroke-width: 1.0;"/><text fill="#000000" font-family="sans-serif" font-size="11" font-style="italic" lengthAdjust="spacingAndGlyphs" textLength="55" x="28" y="96.8623">stop(): void</text><ellipse cx="19" cy="106.1934" fill="#84BE84" rx="3" ry="3" style="stroke: #038048; stroke-width: 1.0;"/><text fill="#000000" font-family="sans-serif" font-size="11" font-style="italic" lengthAdjust="spacingAndGlyphs" textLength="191" x="28" y="109.5112">waitForCompletion(): ProcessExecutor</text><ellipse cx="19" cy="118.8423" fill="#84BE84" rx="3" ry="3" style="stroke: #038048; stroke-width: 1.0;"/><text fill="#000000" font-family="sans-serif" font-size="11" font-style="italic" lengthAdjust="spacingAndGlyphs" textLength="152" x="28" y="122.1602">send(String): ProcessExecutor</text><ellipse cx="19" cy="131.4912" fill="#84BE84" rx="3" ry="3" style="stroke: #038048; stroke-width: 1.0;"/><text fill="#000000" font-family="sans-serif" font-size="11" font-style="italic" lengthAdjust="spacingAndGlyphs" textLength="134" x="28" y="134.8091">getStdout(): ConsoleOutput</text><ellipse cx="19" cy="144.1401" fill="#84BE84" rx="3" ry="3" style="stroke: #038048; stroke-width: 1.0;"/><text fill="#000000" font-family="sans-serif" font-size="11" font-style="italic" lengthAdjust="spacingAndGlyphs" textLength="133" x="28" y="147.458">getStderr(): ConsoleOutput</text></a><!--MD5=[09158e14d6249027360fe5d43c757557]
class it.tidalwave.util.ProcessExecutor.ConsoleOutput--><a href="ProcessExecutor.ConsoleOutput.html" target="_top" title="ProcessExecutor.ConsoleOutput.html" xlink:actuate="onRequest" xlink:href="ProcessExecutor.ConsoleOutput.html" xlink:show="new" xlink:title="ProcessExecutor.ConsoleOutput.html" xlink:type="simple"><rect codeLine="15" fill="#FEFECE" filter="url(#fzgubl4qfpi5f)" height="37.5977" id="it.tidalwave.util.ProcessExecutor.ConsoleOutput" style="stroke: #A80036; stroke-width: 1.5;" width="237" x="7" y="214"/><ellipse cx="22" cy="232.7988" fill="#B4A7E5" rx="11" ry="11" style="stroke: #A80036; stroke-width: 1.0;"/><path d="M18.2969,227.0957 L25.9063,227.0957 L25.9063,228.9863 L23.3281,228.9863 L23.3281,236.4082 L25.9063,236.4082 L25.9063,238.2988 L18.2969,238.2988 L18.2969,236.4082 L20.8906,236.4082 L20.8906,228.9863 L18.2969,228.9863 L18.2969,227.0957 Z "/><text fill="#000000" font-family="sans-serif" font-size="14" font-style="italic" lengthAdjust="spacingAndGlyphs" textLength="205" x="36" y="232.1318">ProcessExecutor.ConsoleOutput</text><text fill="#000000" font-family="sans-serif" font-size="10" font-style="italic" lengthAdjust="spacingAndGlyphs" textLength="73" x="102" y="244.4785">it.tidalwave.util</text></a><!--MD5=[ab808f20c6bcb6ab5ff2b1573687d68e]
reverse link it.tidalwave.util.ProcessExecutor to it.tidalwave.util.ProcessExecutor.ConsoleOutput--><path codeLine="17" d="M125.5,169.18 C125.5,186.19 125.5,202.33 125.5,213.99 " fill="none" id="it.tidalwave.util.ProcessExecutor-backto-it.tidalwave.util.ProcessExecutor.ConsoleOutput" style="stroke: #A80036; stroke-width: 1.0;"/><ellipse cx="125.5076" cy="162.1" fill="#FFFFFF" rx="8" ry="8" style="stroke: #A80036; stroke-width: 1.0;"/><line style="stroke: #A80036; stroke-width: 1.0;" x1="125.5152" x2="125.5" y1="170.1" y2="154.1"/><line style="stroke: #A80036; stroke-width: 1.0;" x1="117.5076" x2="133.5076" y1="162.1076" y2="162.0924"/><text fill="#888888" font-family="sans-serif" font-size="10" lengthAdjust="spacingAndGlyphs" textLength="190" x="27.5" y="273.9775">UMLDoclet 2.0.12, PlantUML 1.2020.16</text><!--MD5=[0594588b4a4af86fe0b23faa7db01b0f]
@startuml
    set namespaceSeparator none
    hide empty fields
    hide empty methods

    interface "<size:14>ProcessExecutor\n<size:10>it.tidalwave.util" as it.tidalwave.util.ProcessExecutor [[ProcessExecutor.html]] {
        {abstract} +withArguments(String...): ProcessExecutor
        {abstract} +withArgument(String): ProcessExecutor
        {abstract} +start(): ProcessExecutor
        {abstract} +stop(): void
        {abstract} +waitForCompletion(): ProcessExecutor
        {abstract} +send(String): ProcessExecutor
        {abstract} +getStdout(): ConsoleOutput
        {abstract} +getStderr(): ConsoleOutput
    }
    interface "<size:14>ProcessExecutor.ConsoleOutput\n<size:10>it.tidalwave.util" as it.tidalwave.util.ProcessExecutor.ConsoleOutput [[ProcessExecutor.ConsoleOutput.html]]

    it.tidalwave.util.ProcessExecutor +- - it.tidalwave.util.ProcessExecutor.ConsoleOutput

    center footer UMLDoclet 2.0.12, PlantUML 1.2020.16
@enduml

PlantUML version 1.2020.16(Sun Aug 23 22:20:43 CEST 2020)
(APACHE source distribution)
Java Runtime: OpenJDK Runtime Environment
JVM: OpenJDK 64-Bit Server VM
Default Encoding: UTF-8
Language: en
Country: US
--></g></svg>