GROUP,PACKAGE,CLASS,INSTRUCTION_MISSED,INSTRUCTION_COVERED,BRANCH_MISSED,BRANCH_COVERED,LINE_MISSED,LINE_COVERED,COMPLEXITY_MISSED,COMPLEXITY_COVERED,METHOD_MISSED,METHOD_COVERED
TheseFoolishThings :: Roles,it.tidalwave.role.ui,MutableLocalizedDisplayable,13,0,0,0,3,0,3,0,3,0
TheseFoolishThings :: Roles,it.tidalwave.role.ui,Selectable,3,0,0,0,1,0,1,0,1,0
TheseFoolishThings :: Roles,it.tidalwave.role.ui,MutableIconProvider,3,0,0,0,1,0,1,0,1,0
TheseFoolishThings :: Roles,it.tidalwave.role.ui,UserActionProvider.new UserActionProvider() {...},0,23,0,2,0,5,0,4,0,3
TheseFoolishThings :: Roles,it.tidalwave.role.ui,Styleable,13,0,0,0,3,0,3,0,3,0
TheseFoolishThings :: Roles,it.tidalwave.role.ui,UserAction,22,0,0,0,5,0,4,0,4,0
TheseFoolishThings :: Roles,it.tidalwave.role.ui,IconProvider.new IconProvider() {...},17,0,0,0,3,0,2,0,2,0
TheseFoolishThings :: Roles,it.tidalwave.role.ui,Presentable,23,3,0,0,4,1,3,1,3,1
TheseFoolishThings :: Roles,it.tidalwave.role.ui,ActionProvider,3,0,0,0,1,0,1,0,1,0
TheseFoolishThings :: Roles,it.tidalwave.role.ui,IconProvider,7,0,0,0,2,0,1,0,1,0
TheseFoolishThings :: Roles,it.tidalwave.role.ui,MutableDisplayable,13,0,0,0,3,0,3,0,3,0
TheseFoolishThings :: Roles,it.tidalwave.role.ui,UserActionProvider,0,15,0,0,0,5,0,3,0,3
TheseFoolishThings :: Roles,it.tidalwave.role.ui,Visible,11,0,0,0,3,0,3,0,3,0
TheseFoolishThings :: Roles,it.tidalwave.role.ui,PresentationModelFactory,5,3,0,0,1,1,1,1,1,1
TheseFoolishThings :: Roles,it.tidalwave.role.ui,PresentationModel,35,37,0,0,7,7,4,5,4,5
TheseFoolishThings :: Roles,it.tidalwave.role.ui,Displayable,27,20,0,0,5,4,6,3,6,3
TheseFoolishThings :: Roles,it.tidalwave.role.ui,LocalizedDisplayable,3,0,0,0,1,0,1,0,1,0
TheseFoolishThings :: Roles,it.tidalwave.role.ui,BoundProperty,255,0,18,0,17,0,36,0,27,0
TheseFoolishThings :: Roles,it.tidalwave.role.ui,PresentationModelAggregate,50,0,2,0,5,0,7,0,6,0
TheseFoolishThings :: Roles,it.tidalwave.role.io,TextWritable.new TextWritable() {...},8,0,0,0,2,0,2,0,2,0
TheseFoolishThings :: Roles,it.tidalwave.role.io,BinaryReadable.new BinaryReadable() {...},8,0,0,0,2,0,2,0,2,0
TheseFoolishThings :: Roles,it.tidalwave.role.io,BinaryReadable,7,0,0,0,2,0,1,0,1,0
TheseFoolishThings :: Roles,it.tidalwave.role.io,Unmarshallable,3,0,0,0,1,0,1,0,1,0
TheseFoolishThings :: Roles,it.tidalwave.role.io,BinaryWritable.new BinaryWritable() {...},8,0,0,0,2,0,2,0,2,0
TheseFoolishThings :: Roles,it.tidalwave.role.io,TextReadable,7,0,0,0,2,0,1,0,1,0
TheseFoolishThings :: Roles,it.tidalwave.role.io,Persistable,3,0,0,0,1,0,1,0,1,0
TheseFoolishThings :: Roles,it.tidalwave.role.io,TextReadable.new TextReadable() {...},8,0,0,0,2,0,2,0,2,0
TheseFoolishThings :: Roles,it.tidalwave.role.io,TextWritable,7,0,0,0,2,0,1,0,1,0
TheseFoolishThings :: Roles,it.tidalwave.role.io,Marshallable,3,0,0,0,1,0,1,0,1,0
TheseFoolishThings :: Roles,it.tidalwave.role.io,BinaryWritable,7,0,0,0,2,0,1,0,1,0
TheseFoolishThings :: Roles,it.tidalwave.role.io.spi,PathTextWritable,27,0,0,0,8,0,3,0,3,0
TheseFoolishThings :: Roles,it.tidalwave.role.io.spi,PathBinaryWritable,15,0,0,0,5,0,2,0,2,0
TheseFoolishThings :: Roles,it.tidalwave.role.io.spi,PathBinaryReadable,15,0,0,0,5,0,2,0,2,0
TheseFoolishThings :: Roles,it.tidalwave.role.io.spi,PathTextReadable,20,0,0,0,7,0,3,0,3,0
TheseFoolishThings :: Roles,it.tidalwave.role.ui.function,AndFunction,35,0,4,0,7,0,5,0,3,0
TheseFoolishThings :: Roles,it.tidalwave.role.ui.function,OrFunction,35,0,4,0,7,0,5,0,3,0
TheseFoolishThings :: Roles,it.tidalwave.role.ui.function,NonEmptyFunction,39,0,4,0,8,0,6,0,4,0
TheseFoolishThings :: Roles,it.tidalwave.role.ui.function,BoundFunctionSupport,134,0,2,0,9,0,19,0,18,0
TheseFoolishThings :: Roles,it.tidalwave.role.ui.function,BooleanBoundFunctionSupport,40,0,2,0,8,0,3,0,2,0
TheseFoolishThings :: Roles,it.tidalwave.role.ui.function,UnaryBoundFunctionSupport,35,0,0,0,10,0,4,0,4,0
TheseFoolishThings :: Roles,it.tidalwave.role.ui.function,BooleanBoundFunctionSupport.new PropertyChangeListener() {...},30,0,0,0,5,0,2,0,2,0
TheseFoolishThings :: Roles,it.tidalwave.role.ui.function,WeakCopyFunctionSupport,35,0,2,0,12,0,6,0,5,0
TheseFoolishThings :: Roles,it.tidalwave.role.ui.function,CopyIfEmptyOrConform,23,0,4,0,4,0,5,0,3,0
TheseFoolishThings :: Roles,it.tidalwave.role.spi,DefaultContextManager.new ThreadLocal() {...},0,10,0,0,0,2,0,2,0,2
TheseFoolishThings :: Roles,it.tidalwave.role.spi,ContextSampler,12,40,1,1,0,9,2,4,1,4
TheseFoolishThings :: Roles,it.tidalwave.role.spi,RoleManagerSupport,14,464,6,34,2,96,6,26,0,12
TheseFoolishThings :: Roles,it.tidalwave.role.spi,DefaultContextManager,48,112,6,2,8,27,5,8,1,8
TheseFoolishThings :: Roles,it.tidalwave.role.spi,RoleManager.Locator,66,0,8,0,16,0,8,0,4,0
TheseFoolishThings :: Roles,it.tidalwave.role.spi,DefaultContextManagerProvider,0,11,0,0,0,2,0,2,0,2
TheseFoolishThings :: Roles,it.tidalwave.role.impl,DefaultSimpleComposite,17,11,1,1,0,2,2,2,1,2
TheseFoolishThings :: Roles,it.tidalwave.role.impl,DefaultIdentifiable,32,0,2,0,3,0,4,0,3,0
TheseFoolishThings :: Roles,it.tidalwave.role.impl,MapAggregate,57,0,0,0,12,0,6,0,6,0
TheseFoolishThings :: Roles,it.tidalwave.role.ui.impl,DisplayableComparator,0,21,0,0,0,5,0,4,0,4
TheseFoolishThings :: Roles,it.tidalwave.role.ui.impl,DefaultUserAction,114,0,4,0,14,0,16,0,14,0
TheseFoolishThings :: Roles,it.tidalwave.role.ui.impl,DefaultMutableDisplayable,135,0,0,0,30,0,12,0,12,0
TheseFoolishThings :: Roles,it.tidalwave.role.ui.impl,DefaultDisplayable,17,48,0,0,3,11,3,4,3,4
TheseFoolishThings :: Roles,it.tidalwave.role.ui.impl,DefaultStyleable,36,0,0,0,8,0,4,0,4,0
TheseFoolishThings :: Roles,it.tidalwave.role.ui.impl,DefaultPresentable,18,0,2,0,2,0,3,0,2,0
TheseFoolishThings :: Roles,it.tidalwave.role.ui.impl,DefaultPresentationModel,176,77,8,6,19,17,24,8,19,6
TheseFoolishThings :: Roles,it.tidalwave.role.ui.impl,AsDisplayableComparator,0,27,0,0,0,5,0,4,0,4
TheseFoolishThings :: Roles,it.tidalwave.role.spi.impl,LogUtil,43,181,7,13,9,31,7,11,2,6
TheseFoolishThings :: Roles,it.tidalwave.role.spi.impl,DatumAndRole,30,162,15,15,0,11,13,10,0,8
TheseFoolishThings :: Roles,it.tidalwave.role.spi.impl,MultiMap,0,50,0,6,0,13,0,8,0,5
TheseFoolishThings :: Roles,it.tidalwave.role,ContextManager.Locator,44,33,7,1,12,10,6,4,2,4
TheseFoolishThings :: Roles,it.tidalwave.role,Sortable,7,0,0,0,2,0,1,0,1,0
TheseFoolishThings :: Roles,it.tidalwave.role,ContextManager.Binder,0,51,0,4,0,9,0,4,0,2
TheseFoolishThings :: Roles,it.tidalwave.role,StringRenderable,16,0,0,0,5,0,3,0,3,0
TheseFoolishThings :: Roles,it.tidalwave.role,Identifiable,8,0,0,0,2,0,2,0,2,0
TheseFoolishThings :: Roles,it.tidalwave.role,IdFactory,3,0,0,0,1,0,1,0,1,0
TheseFoolishThings :: Roles,it.tidalwave.role,Sortable.new Sortable() {...},9,0,0,0,5,0,5,0,5,0
TheseFoolishThings :: Roles,it.tidalwave.role,Composite.VisitorSupport,11,0,0,0,5,0,5,0,5,0
TheseFoolishThings :: Roles,it.tidalwave.role,SimpleComposite,0,12,0,0,0,3,0,3,0,3
TheseFoolishThings :: Roles,it.tidalwave.role,PlainTextRenderable,16,0,0,0,5,0,3,0,3,0
TheseFoolishThings :: Roles,it.tidalwave.role,Aggregate,28,0,0,0,6,0,6,0,6,0
TheseFoolishThings :: Roles,it.tidalwave.role,Composite.new Composite() {...},5,0,0,0,2,0,2,0,2,0
TheseFoolishThings :: Roles,it.tidalwave.role,Removable,6,0,0,0,2,0,2,0,2,0
TheseFoolishThings :: Roles,it.tidalwave.role,HtmlRenderable,3,0,0,0,1,0,1,0,1,0
TheseFoolishThings :: Roles,it.tidalwave.role,ContextManager,35,41,0,0,6,7,5,5,5,5
TheseFoolishThings :: Roles,it.tidalwave.role,Composite,7,0,0,0,2,0,1,0,1,0
TheseFoolishThings :: Roles,it.tidalwave.role.ui.spi,DefaultUserActionProvider,0,10,0,0,0,3,0,3,0,3
TheseFoolishThings :: Roles,it.tidalwave.role.ui.spi,SimpleCompositePresentable.SCPFinder.new Task() {...},0,52,0,0,0,8,0,6,0,6
TheseFoolishThings :: Roles,it.tidalwave.role.ui.spi,SimpleCompositePresentable.new Task() {...},0,51,0,2,0,6,0,3,0,2
TheseFoolishThings :: Roles,it.tidalwave.role.ui.spi,PresentationModelCollectors,73,0,0,0,11,0,9,0,9,0
TheseFoolishThings :: Roles,it.tidalwave.role.ui.spi,SimpleCompositePresentable,0,81,0,4,0,18,0,8,0,6
TheseFoolishThings :: Roles,it.tidalwave.role.ui.spi,MutableIconProviderSupport,27,0,0,0,9,0,5,0,5,0
TheseFoolishThings :: Roles,it.tidalwave.role.ui.spi,DefaultPresentationModelFactory,0,9,0,0,0,2,0,2,0,2
TheseFoolishThings :: Roles,it.tidalwave.role.ui.spi,ActionProviderSupport,10,0,0,0,3,0,3,0,3,0
TheseFoolishThings :: Roles,it.tidalwave.role.ui.spi,SimpleCompositePresentable.SCPFinder,29,23,2,2,5,2,3,2,1,2
