@startuml
    set namespaceSeparator none
    hide empty fields
    hide empty methods

    class "<size:14>AbstractViewerPanel\n<size:10>it.tidalwave.mistral.example" as it.tidalwave.mistral.example.AbstractViewerPanel [[AbstractViewerPanel.html]] {
        #imageRenderer: EditableImageRenderer
        +loadImage(String): void
        #loadImage(Object): void
        #onImageLoaded(EditableImage): void
    }

    class "<size:14>JPanel\n<size:10>javax.swing" as javax.swing.JPanel

    javax.swing.JPanel <|-- it.tidalwave.mistral.example.AbstractViewerPanel

    center footer UMLDoclet 2.0.12, PlantUML 1.2020.16
@enduml
