<?xml version="1.0" encoding="UTF-8" standalone="no"?><svg xmlns="http://www.w3.org/2000/svg" xmlns:xlink="http://www.w3.org/1999/xlink" contentScriptType="application/ecmascript" contentStyleType="text/css" height="242px" preserveAspectRatio="none" style="width:682px;height:242px;" version="1.1" viewBox="0 0 682 242" width="682px" zoomAndPan="magnify"><defs><filter height="300%" id="f1do3mxe7tu8ve" width="300%" x="-1" y="-1"><feGaussianBlur result="blurOut" stdDeviation="2.0"/><feColorMatrix in="blurOut" result="blurOut2" type="matrix" values="0 0 0 0 0 0 0 0 0 0 0 0 0 0 0 0 0 0 .4 0"/><feOffset dx="4.0" dy="4.0" in="blurOut2" result="blurOut3"/><feBlend in="SourceGraphic" in2="blurOut3" mode="normal"/></filter></defs><g><!--MD5=[d122d838a89adabb967bfd45631f072d]
class it.tidalwave.util.spi.FinderWithIdMapSupport--><a href="FinderWithIdMapSupport.html" target="_top" title="FinderWithIdMapSupport.html" xlink:actuate="onRequest" xlink:href="FinderWithIdMapSupport.html" xlink:show="new" xlink:title="FinderWithIdMapSupport.html" xlink:type="simple"><rect codeLine="5" fill="#FEFECE" filter="url(#f1do3mxe7tu8ve)" height="98.0859" id="it.tidalwave.util.spi.FinderWithIdMapSupport" style="stroke: #A80036; stroke-width: 1.5;" width="654" x="9" y="108"/><ellipse cx="80.75" cy="127.1328" fill="#ADD1B2" rx="11" ry="11" style="stroke: #A80036; stroke-width: 1.0;"/><path d="M83.2231,133.2759 Q82.6421,133.5747 82.0029,133.7241 Q81.3638,133.8735 80.6582,133.8735 Q78.1514,133.8735 76.8315,132.2217 Q75.5117,130.5698 75.5117,127.4487 Q75.5117,124.3193 76.8315,122.6675 Q78.1514,121.0156 80.6582,121.0156 Q81.3638,121.0156 82.0112,121.165 Q82.6587,121.3145 83.2231,121.6133 L83.2231,124.3359 Q82.5923,123.7549 81.9988,123.4851 Q81.4053,123.2153 80.7744,123.2153 Q79.4297,123.2153 78.7449,124.282 Q78.0601,125.3486 78.0601,127.4487 Q78.0601,129.5405 78.7449,130.6072 Q79.4297,131.6738 80.7744,131.6738 Q81.4053,131.6738 81.9988,131.4041 Q82.5923,131.1343 83.2231,130.5532 Z "/><text fill="#000000" font-family="sans-serif" font-size="14" lengthAdjust="spacingAndGlyphs" textLength="171" x="101.25" y="126.5352">FinderWithIdMapSupport</text><text fill="#000000" font-family="sans-serif" font-size="10" lengthAdjust="spacingAndGlyphs" textLength="93" x="140.25" y="139.1563">it.tidalwave.util.spi</text><rect fill="#FFFFFF" height="16.1328" style="stroke: #000000; stroke-width: 1.0; stroke-dasharray: 2.0,2.0;" width="329" x="337" y="105"/><text fill="#000000" font-family="sans-serif" font-size="12" font-style="italic" lengthAdjust="spacingAndGlyphs" textLength="327" x="338" y="117.6016">T, I extends T, F extends ExtendedFinderSupport&lt;T, F&gt;</text><line style="stroke: #A80036; stroke-width: 1.5;" x1="10" x2="662" y1="146.2656" y2="146.2656"/><ellipse cx="20" cy="157.2656" fill="#84BE84" rx="3" ry="3" style="stroke: #038048; stroke-width: 1.0;"/><text fill="#000000" font-family="sans-serif" font-size="11" lengthAdjust="spacingAndGlyphs" textLength="140" x="29" y="160.9004">FinderWithIdMapSupport()</text><ellipse cx="20" cy="170.2207" fill="#84BE84" rx="3" ry="3" style="stroke: #038048; stroke-width: 1.0;"/><text fill="#000000" font-family="sans-serif" font-size="11" lengthAdjust="spacingAndGlyphs" textLength="628" x="29" y="173.8555">FinderWithIdMapSupport(FinderWithIdMapSupport&lt;T, I extends T, F extends ExtendedFinderSupport&lt;T, F&gt;&gt;, Object)</text><polygon fill="#FFFF44" points="20,178.1758,24,182.1758,20,186.1758,16,182.1758" style="stroke: #B38D22; stroke-width: 1.0;"/><text fill="#000000" font-family="sans-serif" font-size="11" lengthAdjust="spacingAndGlyphs" textLength="93" x="29" y="186.8105">findAll(): List&lt;T&gt;</text><polygon fill="#FFFF44" points="20,191.1309,24,195.1309,20,199.1309,16,195.1309" style="stroke: #B38D22; stroke-width: 1.0;"/><text fill="#000000" font-family="sans-serif" font-size="11" lengthAdjust="spacingAndGlyphs" textLength="138" x="29" y="199.7656">findById(Id): Optional&lt;T&gt;</text></a><!--MD5=[b1bd7c6f2cc35090802b31f57291552b]
class it.tidalwave.util.spi.FinderWithIdSupport--><a href="FinderWithIdSupport.html" target="_top" title="FinderWithIdSupport.html" xlink:actuate="onRequest" xlink:href="FinderWithIdSupport.html" xlink:show="new" xlink:title="FinderWithIdSupport.html" xlink:type="simple"><rect codeLine="12" fill="#FEFECE" filter="url(#f1do3mxe7tu8ve)" height="38.2656" id="it.tidalwave.util.spi.FinderWithIdSupport" style="stroke: #A80036; stroke-width: 1.5;" width="505" x="83.5" y="10"/><ellipse cx="98.5" cy="29.1328" fill="#ADD1B2" rx="11" ry="11" style="stroke: #A80036; stroke-width: 1.0;"/><path d="M100.9731,35.2759 Q100.3921,35.5747 99.7529,35.7241 Q99.1138,35.8735 98.4082,35.8735 Q95.9014,35.8735 94.5815,34.2217 Q93.2617,32.5698 93.2617,29.4487 Q93.2617,26.3193 94.5815,24.6675 Q95.9014,23.0156 98.4082,23.0156 Q99.1138,23.0156 99.7612,23.165 Q100.4087,23.3145 100.9731,23.6133 L100.9731,26.3359 Q100.3423,25.7549 99.7488,25.4851 Q99.1553,25.2153 98.5244,25.2153 Q97.1797,25.2153 96.4949,26.282 Q95.8101,27.3486 95.8101,29.4487 Q95.8101,31.5405 96.4949,32.6072 Q97.1797,33.6738 98.5244,33.6738 Q99.1553,33.6738 99.7488,33.4041 Q100.3423,33.1343 100.9731,32.5532 Z "/><text fill="#000000" font-family="sans-serif" font-size="14" lengthAdjust="spacingAndGlyphs" textLength="142" x="112.5" y="28.5352">FinderWithIdSupport</text><text fill="#000000" font-family="sans-serif" font-size="10" lengthAdjust="spacingAndGlyphs" textLength="93" x="137" y="41.1563">it.tidalwave.util.spi</text><rect fill="#FFFFFF" height="16.1328" style="stroke: #000000; stroke-width: 1.0; stroke-dasharray: 2.0,2.0;" width="329" x="262.5" y="7"/><text fill="#000000" font-family="sans-serif" font-size="12" font-style="italic" lengthAdjust="spacingAndGlyphs" textLength="327" x="263.5" y="19.6016">T, I extends T, F extends ExtendedFinderSupport&lt;T, F&gt;</text></a><!--MD5=[9896aebd56f0575ac93490ac774dd0f2]
reverse link it.tidalwave.util.spi.FinderWithIdSupport to it.tidalwave.util.spi.FinderWithIdMapSupport--><path codeLine="14" d="M336,68.4693 C336,80.9024 336,94.7909 336,107.8136 " fill="none" id="it.tidalwave.util.spi.FinderWithIdSupport-backto-it.tidalwave.util.spi.FinderWithIdMapSupport" style="stroke: #A80036; stroke-width: 1.0;"/><polygon fill="none" points="329.0001,68.1629,336,48.1629,343.0001,68.1629,329.0001,68.1629" style="stroke: #A80036; stroke-width: 1.0;"/><text fill="#888888" font-family="sans-serif" font-size="10" lengthAdjust="spacingAndGlyphs" textLength="188" x="238" y="228.7539">UMLDoclet 2.0.12, PlantUML 1.2020.16</text><!--MD5=[696b80863e6a4ffb6758350d6ded77d4]
@startuml
    set namespaceSeparator none
    hide empty fields
    hide empty methods

    class "<size:14>FinderWithIdMapSupport\n<size:10>it.tidalwave.util.spi" as it.tidalwave.util.spi.FinderWithIdMapSupport<T, I extends T, F extends ExtendedFinderSupport<T, F>> [[FinderWithIdMapSupport.html]] {
        +FinderWithIdMapSupport()
        +FinderWithIdMapSupport(FinderWithIdMapSupport<T, I extends T, F extends ExtendedFinderSupport<T, F>>, Object)
        #findAll(): List<T>
        #findById(Id): Optional<T>
    }

    class "<size:14>FinderWithIdSupport\n<size:10>it.tidalwave.util.spi" as it.tidalwave.util.spi.FinderWithIdSupport<T, I extends T, F extends ExtendedFinderSupport<T, F>> [[FinderWithIdSupport.html]]

    it.tidalwave.util.spi.FinderWithIdSupport <|- - it.tidalwave.util.spi.FinderWithIdMapSupport

    center footer UMLDoclet 2.0.12, PlantUML 1.2020.16
@enduml

PlantUML version 1.2020.16(Sun Aug 23 22:20:43 CEST 2020)
(APACHE source distribution)
Java Runtime: OpenJDK Runtime Environment
JVM: OpenJDK 64-Bit Server VM
Default Encoding: UTF-8
Language: en
Country: GB
--></g></svg>