@startuml
    set namespaceSeparator none
    hide empty fields
    hide empty methods

    interface "<size:14>ExtendedFinderSupport\n<size:10>it.tidalwave.util.spi" as it.tidalwave.util.spi.ExtendedFinderSupport<T, F extends Finder<T>> [[ExtendedFinderSupport.html]] {
        {abstract} +from(int): F extends Finder<T>
        {abstract} +max(int): F extends Finder<T>
        {abstract} +sort(SortCriterion): F extends Finder<T>
        {abstract} +sort(SortCriterion, SortDirection): F extends Finder<T>
        {abstract} +withContext(Object): F extends Finder<T>
    }

    interface "<size:14>Finder\n<size:10>it.tidalwave.util" as it.tidalwave.util.Finder<T> [[../Finder.html]] {
        {abstract} +from(int): Finder<T>
        {abstract} +max(int): Finder<T>
        {abstract} +sort(SortCriterion, SortDirection): Finder<T>
        {abstract} +results(): List<T>
        {abstract} +count(): int
    }

    it.tidalwave.util.Finder <|-- it.tidalwave.util.spi.ExtendedFinderSupport

    center footer UMLDoclet 2.0.12, PlantUML 1.2020.16
@enduml
