@startuml
    set namespaceSeparator none
    hide empty fields
    hide empty methods

    class "<size:14>MercurialFileSystemProvider\n<size:10>it.tidalwave.northernwind.frontend.filesystem.hg.impl" as it.tidalwave.northernwind.frontend.filesystem.hg.impl.MercurialFileSystemProvider [[MercurialFileSystemProvider.html]] {
        +createWorkingDirectory(Path): ScmWorkingDirectory
    }

    abstract class "<size:14>ScmFileSystemProvider\n<size:10>it.tidalwave.northernwind.frontend.filesystem.scm.spi" as it.tidalwave.northernwind.frontend.filesystem.scm.spi.ScmFileSystemProvider [[http://tidalwave.it/projects/northernwind/it-tidalwave-northernwind-modules/it-tidalwave-northernwind-filesystem/it-tidalwave-northernwind-core-filesystem-scm/apidocs/it/tidalwave/northernwind/frontend/filesystem/scm/spi/ScmFileSystemProvider.html?is-external=true]] {
        {abstract} +createWorkingDirectory(Path): ScmWorkingDirectory
    }

    it.tidalwave.northernwind.frontend.filesystem.scm.spi.ScmFileSystemProvider <|-- it.tidalwave.northernwind.frontend.filesystem.hg.impl.MercurialFileSystemProvider

    center footer UMLDoclet 2.0.12, PlantUML 1.2020.16
@enduml
