<?xml version="1.0" encoding="UTF-8" standalone="no"?><svg xmlns="http://www.w3.org/2000/svg" xmlns:xlink="http://www.w3.org/1999/xlink" contentScriptType="application/ecmascript" contentStyleType="text/css" height="151px" preserveAspectRatio="none" style="width:200px;height:151px;" version="1.1" viewBox="0 0 200 151" width="200px" zoomAndPan="magnify"><defs><filter height="300%" id="f13zo2uqwl4ae6" width="300%" x="-1" y="-1"><feGaussianBlur result="blurOut" stdDeviation="2.0"/><feColorMatrix in="blurOut" result="blurOut2" type="matrix" values="0 0 0 0 0 0 0 0 0 0 0 0 0 0 0 0 0 0 .4 0"/><feOffset dx="4.0" dy="4.0" in="blurOut2" result="blurOut3"/><feBlend in="SourceGraphic" in2="blurOut3" mode="normal"/></filter></defs><g><!--MD5=[ead0fef28c9712d7c937cda4c73292f8]
class it.tidalwave.messagebus--><a href="it/tidalwave/messagebus/package-summary.html" target="_top" title="it/tidalwave/messagebus/package-summary.html" xlink:actuate="onRequest" xlink:href="it/tidalwave/messagebus/package-summary.html" xlink:show="new" xlink:title="it/tidalwave/messagebus/package-summary.html" xlink:type="simple"><rect codeLine="9" fill="#FEFECE" filter="url(#f13zo2uqwl4ae6)" height="24.1328" id="it.tidalwave.messagebus" style="stroke: #A80036; stroke-width: 1.5;" width="147" x="23.5" y="7"/><text fill="#000000" font-family="sans-serif" font-size="12" lengthAdjust="spacingAndGlyphs" textLength="141" x="26.5" y="23.6016">it.tidalwave.messagebus</text></a><!--MD5=[b38b3a8d6b00b78b55a3da79514951c5]
class org.slf4j--><rect fill="#FEFECE" filter="url(#f13zo2uqwl4ae6)" height="24.1328" id="org.slf4j" style="stroke: #A80036; stroke-width: 1.5;" width="54" x="70" y="91"/><text fill="#000000" font-family="sans-serif" font-size="12" lengthAdjust="spacingAndGlyphs" textLength="48" x="73" y="107.6016">org.slf4j</text><!--MD5=[74f17830957c49bd37a0948fefab0b9d]
link it.tidalwave.messagebus to org.slf4j--><path codeLine="6" d="M97,31.0352 C97,45.3818 97,69.4615 97,85.777 " fill="none" id="it.tidalwave.messagebus-to-org.slf4j" style="stroke: #A80036; stroke-width: 1.0;"/><polygon fill="#A80036" points="97,90.9872,101,81.9872,97,85.9872,93,81.9872,97,90.9872" style="stroke: #A80036; stroke-width: 1.0;"/><text fill="#888888" font-family="sans-serif" font-size="10" lengthAdjust="spacingAndGlyphs" textLength="188" x="0" y="137.8008">UMLDoclet 2.0.12, PlantUML 1.2020.16</text><!--MD5=[1fc0d29cbb8bd3250b917345daee16aa]
@startuml
    set namespaceSeparator none
    hide circle
    hide empty fields
    hide empty methods

    it.tidalwave.messagebus - -> org.slf4j

    ' Package links
    class "it.tidalwave.messagebus" [[it/tidalwave/messagebus/package-summary.html]] {
    }

    center footer UMLDoclet 2.0.12, PlantUML 1.2020.16
@enduml

@startuml
    set namespaceSeparator none
    hide circle
    hide empty fields
    hide empty methods

    it.tidalwave.messagebus - -> org.slf4j

    class "it.tidalwave.messagebus" [[it/tidalwave/messagebus/package-summary.html]] {
    }

    center footer UMLDoclet 2.0.12, PlantUML 1.2020.16
@enduml

PlantUML version 1.2020.16(Sun Aug 23 22:20:43 CEST 2020)
(APACHE source distribution)
Java Runtime: OpenJDK Runtime Environment
JVM: OpenJDK 64-Bit Server VM
Default Encoding: UTF-8
Language: en
Country: GB
--></g></svg>