@startuml
    set namespaceSeparator none
    hide circle
    hide empty fields
    hide empty methods

    it.tidalwave.image --> it.tidalwave.image.render
    it.tidalwave.image --> it.tidalwave.image.op
    it.tidalwave.image --> it.tidalwave.util
    it.tidalwave.image.codegenerator --> org.antlr.v4.runtime
    it.tidalwave.image.op --> it.tidalwave.image
    it.tidalwave.image.op --> it.tidalwave.image.metadata.loader
    it.tidalwave.image.op --> it.tidalwave.image.render
    it.tidalwave.image.render --> it.tidalwave.image
    it.tidalwave.image.render --> it.tidalwave.image.render.event
    it.tidalwave.image.java2d --> it.tidalwave.image.op
    it.tidalwave.image.java2d --> it.tidalwave.image
    it.tidalwave.image.java2d --> it.tidalwave.image.render
    it.tidalwave.image.java2d --> org.slf4j
    it.tidalwave.image.metadata --> it.tidalwave.image.metadata.loader
    it.tidalwave.image.metadata --> it.tidalwave.image
    it.tidalwave.image.metadata.loader --> com.sun.media.imageioimpl.plugins.tiff
    it.tidalwave.image.metadata.loader --> com.drew.metadata
    it.tidalwave.image.metadata.loader --> org.w3c.dom
    it.tidalwave.image.metadata.loader --> it.tidalwave.imageio.raw
    it.tidalwave.image.metadata.loader --> it.tidalwave.image
    it.tidalwave.image.metadata.loader --> com.drew.lang
    it.tidalwave.image.processor --> it.tidalwave.image
    it.tidalwave.image.processor --> it.tidalwave.image.processor.event
    it.tidalwave.image.processor --> it.tidalwave.image.op
    it.tidalwave.image.processor.event --> it.tidalwave.image.processor
    it.tidalwave.image.render.event --> it.tidalwave.image.render
    it.tidalwave.mistral.customoperation --> it.tidalwave.image.op
    it.tidalwave.mistral.customoperation --> it.tidalwave.image
    it.tidalwave.mistral.example --> it.tidalwave.image.render
    it.tidalwave.mistral.example --> it.tidalwave.image
    it.tidalwave.mistral.example.viewer --> it.tidalwave.image.render
    it.tidalwave.mistral.example.viewer --> it.tidalwave.mistral.example
    it.tidalwave.mistral.example.viewer --> it.tidalwave.image.render.event
    it.tidalwave.mistral.example.viewer --> it.tidalwave.image
    it.tidalwave.mistral.example.viewer --> it.tidalwave.image.metadata
    it.tidalwave.mistral.example.histogramviewer --> it.tidalwave.image.render
    it.tidalwave.mistral.example.histogramviewer --> it.tidalwave.image

    ' Package links
    class "it.tidalwave.image" [[it/tidalwave/image/package-summary.html]] {
    }
    class "it.tidalwave.image.render" [[it/tidalwave/image/render/package-summary.html]] {
    }
    class "it.tidalwave.image.op" [[it/tidalwave/image/op/package-summary.html]] {
    }
    class "it.tidalwave.image.codegenerator" [[it/tidalwave/image/codegenerator/package-summary.html]] {
    }
    class "it.tidalwave.image.metadata.loader" [[it/tidalwave/image/metadata/loader/package-summary.html]] {
    }
    class "it.tidalwave.image.render.event" [[it/tidalwave/image/render/event/package-summary.html]] {
    }
    class "it.tidalwave.image.java2d" [[it/tidalwave/image/java2d/package-summary.html]] {
    }
    class "it.tidalwave.image.metadata" [[it/tidalwave/image/metadata/package-summary.html]] {
    }
    class "it.tidalwave.image.processor" [[it/tidalwave/image/processor/package-summary.html]] {
    }
    class "it.tidalwave.image.processor.event" [[it/tidalwave/image/processor/event/package-summary.html]] {
    }
    class "it.tidalwave.mistral.customoperation" [[it/tidalwave/mistral/customoperation/package-summary.html]] {
    }
    class "it.tidalwave.mistral.example" [[it/tidalwave/mistral/example/package-summary.html]] {
    }
    class "it.tidalwave.mistral.example.viewer" [[it/tidalwave/mistral/example/viewer/package-summary.html]] {
    }
    class "it.tidalwave.mistral.example.histogramviewer" [[it/tidalwave/mistral/example/histogramviewer/package-summary.html]] {
    }

    center footer UMLDoclet 2.0.12, PlantUML 1.2020.16
@enduml
