<?xml version="1.0" encoding="UTF-8" standalone="no"?><svg xmlns="http://www.w3.org/2000/svg" xmlns:xlink="http://www.w3.org/1999/xlink" contentScriptType="application/ecmascript" contentStyleType="text/css" height="442px" preserveAspectRatio="none" style="width:642px;height:442px;" version="1.1" viewBox="0 0 642 442" width="642px" zoomAndPan="magnify"><defs><filter height="300%" id="fi035m7wc5jpy" width="300%" x="-1" y="-1"><feGaussianBlur result="blurOut" stdDeviation="2.0"/><feColorMatrix in="blurOut" result="blurOut2" type="matrix" values="0 0 0 0 0 0 0 0 0 0 0 0 0 0 0 0 0 0 .4 0"/><feOffset dx="4.0" dy="4.0" in="blurOut2" result="blurOut3"/><feBlend in="SourceGraphic" in2="blurOut3" mode="normal"/></filter></defs><g><!--MD5=[645bdfad8edd0c176a07cebd73b16112]
class it.tidalwave.northernwind.core.model.ResourceFile.Finder--><a href="ResourceFile.Finder.html" target="_top" title="ResourceFile.Finder.html" xlink:actuate="onRequest" xlink:href="ResourceFile.Finder.html" xlink:show="new" xlink:title="ResourceFile.Finder.html" xlink:type="simple"><rect codeLine="5" fill="#FEFECE" filter="url(#fi035m7wc5jpy)" height="98.0859" id="it.tidalwave.northernwind.core.model.ResourceFile.Finder" style="stroke: #A80036; stroke-width: 1.5;" width="214" x="221" y="308"/><ellipse cx="236" cy="327.1328" fill="#B4A7E5" rx="11" ry="11" style="stroke: #A80036; stroke-width: 1.0;"/><path d="M232.4277,323.3979 L232.4277,321.2397 L239.8071,321.2397 L239.8071,323.3979 L237.3418,323.3979 L237.3418,331.4746 L239.8071,331.4746 L239.8071,333.6328 L232.4277,333.6328 L232.4277,331.4746 L234.8931,331.4746 L234.8931,323.3979 Z "/><text fill="#000000" font-family="sans-serif" font-size="14" font-style="italic" lengthAdjust="spacingAndGlyphs" textLength="135" x="273.5" y="326.5352">ResourceFile.Finder</text><text fill="#000000" font-family="sans-serif" font-size="10" font-style="italic" lengthAdjust="spacingAndGlyphs" textLength="182" x="250" y="339.1563">it.tidalwave.northernwind.core.model</text><line style="stroke: #A80036; stroke-width: 1.5;" x1="222" x2="434" y1="346.2656" y2="346.2656"/><ellipse cx="232" cy="357.2656" fill="#84BE84" rx="3" ry="3" style="stroke: #038048; stroke-width: 1.0;"/><text fill="#000000" font-family="sans-serif" font-size="11" font-style="italic" lengthAdjust="spacingAndGlyphs" textLength="167" x="241" y="360.9004">withRecursion(boolean): Finder</text><ellipse cx="232" cy="370.2207" fill="#84BE84" rx="3" ry="3" style="stroke: #038048; stroke-width: 1.0;"/><text fill="#000000" font-family="sans-serif" font-size="11" font-style="italic" lengthAdjust="spacingAndGlyphs" textLength="132" x="241" y="373.8555">withName(String): Finder</text><ellipse cx="232" cy="383.1758" fill="#84BE84" rx="3" ry="3" style="stroke: #038048; stroke-width: 1.0;"/><text fill="#000000" font-family="sans-serif" font-size="11" font-style="italic" lengthAdjust="spacingAndGlyphs" textLength="93" x="241" y="386.8105">getName(): String</text><ellipse cx="232" cy="396.1309" fill="#84BE84" rx="3" ry="3" style="stroke: #038048; stroke-width: 1.0;"/><text fill="#000000" font-family="sans-serif" font-size="11" font-style="italic" lengthAdjust="spacingAndGlyphs" textLength="118" x="241" y="399.7656">isRecursive(): boolean</text></a><!--MD5=[aa1b61d3a274306ac3e9ee0851baf807]
class it.tidalwave.util.spi.ExtendedFinderSupport--><rect codeLine="12" fill="#FEFECE" filter="url(#fi035m7wc5jpy)" height="111.041" id="it.tidalwave.util.spi.ExtendedFinderSupport" style="stroke: #A80036; stroke-width: 1.5;" width="316" x="7" y="72"/><ellipse cx="22" cy="91.1328" fill="#B4A7E5" rx="11" ry="11" style="stroke: #A80036; stroke-width: 1.0;"/><path d="M18.4277,87.3979 L18.4277,85.2397 L25.8071,85.2397 L25.8071,87.3979 L23.3418,87.3979 L23.3418,95.4746 L25.8071,95.4746 L25.8071,97.6328 L18.4277,97.6328 L18.4277,95.4746 L20.8931,95.4746 L20.8931,87.3979 Z "/><text fill="#000000" font-family="sans-serif" font-size="14" font-style="italic" lengthAdjust="spacingAndGlyphs" textLength="164" x="36" y="90.5352">ExtendedFinderSupport</text><text fill="#000000" font-family="sans-serif" font-size="10" font-style="italic" lengthAdjust="spacingAndGlyphs" textLength="93" x="71.5" y="103.1563">it.tidalwave.util.spi</text><rect fill="#FFFFFF" height="16.1328" style="stroke: #000000; stroke-width: 1.0; stroke-dasharray: 2.0,2.0;" width="118" x="208" y="69"/><text fill="#000000" font-family="sans-serif" font-size="12" font-style="italic" lengthAdjust="spacingAndGlyphs" textLength="116" x="209" y="81.6016">ResourceFile, Finder</text><line style="stroke: #A80036; stroke-width: 1.5;" x1="8" x2="322" y1="110.2656" y2="110.2656"/><ellipse cx="18" cy="121.2656" fill="#84BE84" rx="3" ry="3" style="stroke: #038048; stroke-width: 1.0;"/><text fill="#000000" font-family="sans-serif" font-size="11" font-style="italic" lengthAdjust="spacingAndGlyphs" textLength="88" x="27" y="124.9004">from(int): Finder</text><ellipse cx="18" cy="134.2207" fill="#84BE84" rx="3" ry="3" style="stroke: #038048; stroke-width: 1.0;"/><text fill="#000000" font-family="sans-serif" font-size="11" font-style="italic" lengthAdjust="spacingAndGlyphs" textLength="85" x="27" y="137.8555">max(int): Finder</text><ellipse cx="18" cy="147.1758" fill="#84BE84" rx="3" ry="3" style="stroke: #038048; stroke-width: 1.0;"/><text fill="#000000" font-family="sans-serif" font-size="11" font-style="italic" lengthAdjust="spacingAndGlyphs" textLength="148" x="27" y="150.8105">withContext(Object): Finder</text><ellipse cx="18" cy="160.1309" fill="#84BE84" rx="3" ry="3" style="stroke: #038048; stroke-width: 1.0;"/><text fill="#000000" font-family="sans-serif" font-size="11" font-style="italic" lengthAdjust="spacingAndGlyphs" textLength="140" x="27" y="163.7656">sort(SortCriterion): Finder</text><ellipse cx="18" cy="173.0859" fill="#84BE84" rx="3" ry="3" style="stroke: #038048; stroke-width: 1.0;"/><text fill="#000000" font-family="sans-serif" font-size="11" font-style="italic" lengthAdjust="spacingAndGlyphs" textLength="217" x="27" y="176.7207">sort(SortCriterion, SortDirection): Finder</text><!--MD5=[114e2dd33935e9157f1ae9ea36613a35]
class it.tidalwave.northernwind.core.model.ResourceFile--><a href="ResourceFile.html" target="_top" title="ResourceFile.html" xlink:actuate="onRequest" xlink:href="ResourceFile.html" xlink:show="new" xlink:title="ResourceFile.html" xlink:type="simple"><rect codeLine="19" fill="#FEFECE" filter="url(#fi035m7wc5jpy)" height="240.5918" id="it.tidalwave.northernwind.core.model.ResourceFile" style="stroke: #A80036; stroke-width: 1.5;" width="265" x="358.5" y="7"/><ellipse cx="396.45" cy="26.1328" fill="#B4A7E5" rx="11" ry="11" style="stroke: #A80036; stroke-width: 1.0;"/><path d="M392.8777,22.3979 L392.8777,20.2397 L400.2571,20.2397 L400.2571,22.3979 L397.7918,22.3979 L397.7918,30.4746 L400.2571,30.4746 L400.2571,32.6328 L392.8777,32.6328 L392.8777,30.4746 L395.3431,30.4746 L395.3431,22.3979 Z "/><text fill="#000000" font-family="sans-serif" font-size="14" font-style="italic" lengthAdjust="spacingAndGlyphs" textLength="87" x="463.05" y="25.5352">ResourceFile</text><text fill="#000000" font-family="sans-serif" font-size="10" font-style="italic" lengthAdjust="spacingAndGlyphs" textLength="182" x="415.55" y="38.1563">it.tidalwave.northernwind.core.model</text><line style="stroke: #A80036; stroke-width: 1.5;" x1="359.5" x2="622.5" y1="45.2656" y2="45.2656"/><ellipse cx="369.5" cy="56.2656" fill="#84BE84" rx="3" ry="3" style="stroke: #038048; stroke-width: 1.0;"/><text fill="#000000" font-family="sans-serif" font-size="11" font-style="italic" lengthAdjust="spacingAndGlyphs" textLength="193" x="378.5" y="59.9004">getFileSystem(): ResourceFileSystem</text><ellipse cx="369.5" cy="69.2207" fill="#84BE84" rx="3" ry="3" style="stroke: #038048; stroke-width: 1.0;"/><text fill="#000000" font-family="sans-serif" font-size="11" font-style="italic" lengthAdjust="spacingAndGlyphs" textLength="93" x="378.5" y="72.8555">getName(): String</text><ellipse cx="369.5" cy="82.1758" fill="#84BE84" rx="3" ry="3" style="stroke: #038048; stroke-width: 1.0;"/><text fill="#000000" font-family="sans-serif" font-size="11" font-style="italic" lengthAdjust="spacingAndGlyphs" textLength="127" x="378.5" y="85.8105">getPath(): ResourcePath</text><ellipse cx="369.5" cy="95.1309" fill="#84BE84" rx="3" ry="3" style="stroke: #038048; stroke-width: 1.0;"/><text fill="#000000" font-family="sans-serif" font-size="11" font-style="italic" lengthAdjust="spacingAndGlyphs" textLength="100" x="378.5" y="98.7656">isFolder(): boolean</text><ellipse cx="369.5" cy="108.0859" fill="#84BE84" rx="3" ry="3" style="stroke: #038048; stroke-width: 1.0;"/><text fill="#000000" font-family="sans-serif" font-size="11" font-style="italic" lengthAdjust="spacingAndGlyphs" textLength="90" x="378.5" y="111.7207">isData(): boolean</text><ellipse cx="369.5" cy="121.041" fill="#84BE84" rx="3" ry="3" style="stroke: #038048; stroke-width: 1.0;"/><text fill="#000000" font-family="sans-serif" font-size="11" font-style="italic" lengthAdjust="spacingAndGlyphs" textLength="117" x="378.5" y="124.6758">getMimeType(): String</text><ellipse cx="369.5" cy="133.9961" fill="#84BE84" rx="3" ry="3" style="stroke: #038048; stroke-width: 1.0;"/><text fill="#000000" font-family="sans-serif" font-size="11" font-style="italic" lengthAdjust="spacingAndGlyphs" textLength="161" x="378.5" y="137.6309">getInputStream(): InputStream</text><ellipse cx="369.5" cy="146.9512" fill="#84BE84" rx="3" ry="3" style="stroke: #038048; stroke-width: 1.0;"/><text fill="#000000" font-family="sans-serif" font-size="11" font-style="italic" lengthAdjust="spacingAndGlyphs" textLength="114" x="378.5" y="150.5859">asText(String): String</text><ellipse cx="369.5" cy="159.9063" fill="#84BE84" rx="3" ry="3" style="stroke: #038048; stroke-width: 1.0;"/><text fill="#000000" font-family="sans-serif" font-size="11" font-style="italic" lengthAdjust="spacingAndGlyphs" textLength="85" x="378.5" y="163.541">asBytes(): byte[]</text><ellipse cx="369.5" cy="172.8613" fill="#84BE84" rx="3" ry="3" style="stroke: #038048; stroke-width: 1.0;"/><text fill="#000000" font-family="sans-serif" font-size="11" font-style="italic" lengthAdjust="spacingAndGlyphs" textLength="239" x="378.5" y="176.4961">getLatestModificationTime(): ZonedDateTime</text><ellipse cx="369.5" cy="185.8164" fill="#84BE84" rx="3" ry="3" style="stroke: #038048; stroke-width: 1.0;"/><text fill="#000000" font-family="sans-serif" font-size="11" font-style="italic" lengthAdjust="spacingAndGlyphs" textLength="133" x="378.5" y="189.4512">getParent(): ResourceFile</text><ellipse cx="369.5" cy="198.7715" fill="#84BE84" rx="3" ry="3" style="stroke: #038048; stroke-width: 1.0;"/><text fill="#000000" font-family="sans-serif" font-size="11" font-style="italic" lengthAdjust="spacingAndGlyphs" textLength="61" x="378.5" y="202.4063">toFile(): File</text><ellipse cx="369.5" cy="211.7266" fill="#84BE84" rx="3" ry="3" style="stroke: #038048; stroke-width: 1.0;"/><text fill="#000000" font-family="sans-serif" font-size="11" font-style="italic" lengthAdjust="spacingAndGlyphs" textLength="69" x="378.5" y="215.3613">delete(): void</text><ellipse cx="369.5" cy="224.6816" fill="#84BE84" rx="3" ry="3" style="stroke: #038048; stroke-width: 1.0;"/><text fill="#000000" font-family="sans-serif" font-size="11" font-style="italic" lengthAdjust="spacingAndGlyphs" textLength="181" x="378.5" y="228.3164">createFolder(String): ResourceFile</text><ellipse cx="369.5" cy="237.6367" fill="#84BE84" rx="3" ry="3" style="stroke: #038048; stroke-width: 1.0;"/><text fill="#000000" font-family="sans-serif" font-size="11" font-style="italic" lengthAdjust="spacingAndGlyphs" textLength="145" x="378.5" y="241.2715">copyTo(ResourceFile): void</text></a><!--MD5=[6aef8e3696a77babe7181eb7d8b58ab9]
reverse link it.tidalwave.util.spi.ExtendedFinderSupport to it.tidalwave.northernwind.core.model.ResourceFile.Finder--><path codeLine="37" d="M216.32,199.7573 C241.3071,234.9385 270.7015,276.3251 293.0605,307.8061 " fill="none" id="it.tidalwave.util.spi.ExtendedFinderSupport-backto-it.tidalwave.northernwind.core.model.ResourceFile.Finder" style="stroke: #A80036; stroke-width: 1.0;"/><polygon fill="none" points="210.3318,203.4148,204.4578,183.0555,221.7459,195.308,210.3318,203.4148" style="stroke: #A80036; stroke-width: 1.0;"/><!--MD5=[ddd265a1fb364f1e6bd765cde4729f19]
reverse link it.tidalwave.northernwind.core.model.ResourceFile to it.tidalwave.northernwind.core.model.ResourceFile.Finder--><path codeLine="38" d="M396.4779,260.5848 C384.566,277.3565 373.035,293.5918 362.9387,307.8072 " fill="none" id="it.tidalwave.northernwind.core.model.ResourceFile-backto-it.tidalwave.northernwind.core.model.ResourceFile.Finder" style="stroke: #A80036; stroke-width: 1.0;"/><ellipse cx="400.5715" cy="254.8211" fill="#FFFFFF" rx="8" ry="8" style="stroke: #A80036; stroke-width: 1.0;"/><line style="stroke: #A80036; stroke-width: 1.0;" x1="395.939" x2="405.2039" y1="261.3434" y2="248.2988"/><line style="stroke: #A80036; stroke-width: 1.0;" x1="394.0492" x2="407.0938" y1="250.1887" y2="259.4535"/><text fill="#888888" font-family="sans-serif" font-size="10" lengthAdjust="spacingAndGlyphs" textLength="188" x="218.25" y="428.7539">UMLDoclet 2.0.12, PlantUML 1.2020.16</text><!--MD5=[66d0c97d78015a2de99061673b668bec]
@startuml
    set namespaceSeparator none
    hide empty fields
    hide empty methods

    interface "<size:14>ResourceFile.Finder\n<size:10>it.tidalwave.northernwind.core.model" as it.tidalwave.northernwind.core.model.ResourceFile.Finder [[ResourceFile.Finder.html]] {
        {abstract} +withRecursion(boolean): Finder
        {abstract} +withName(String): Finder
        {abstract} +getName(): String
        {abstract} +isRecursive(): boolean
    }

    interface "<size:14>ExtendedFinderSupport\n<size:10>it.tidalwave.util.spi" as it.tidalwave.util.spi.ExtendedFinderSupport<ResourceFile, Finder> {
        {abstract} +from(int): Finder
        {abstract} +max(int): Finder
        {abstract} +withContext(Object): Finder
        {abstract} +sort(SortCriterion): Finder
        {abstract} +sort(SortCriterion, SortDirection): Finder
    }
    interface "<size:14>ResourceFile\n<size:10>it.tidalwave.northernwind.core.model" as it.tidalwave.northernwind.core.model.ResourceFile [[ResourceFile.html]] {
        {abstract} +getFileSystem(): ResourceFileSystem
        {abstract} +getName(): String
        {abstract} +getPath(): ResourcePath
        {abstract} +isFolder(): boolean
        {abstract} +isData(): boolean
        {abstract} +getMimeType(): String
        {abstract} +getInputStream(): InputStream
        {abstract} +asText(String): String
        {abstract} +asBytes(): byte[]
        {abstract} +getLatestModificationTime(): ZonedDateTime
        {abstract} +getParent(): ResourceFile
        {abstract} +toFile(): File
        {abstract} +delete(): void
        {abstract} +createFolder(String): ResourceFile
        {abstract} +copyTo(ResourceFile): void
    }

    it.tidalwave.util.spi.ExtendedFinderSupport <|- - it.tidalwave.northernwind.core.model.ResourceFile.Finder
    it.tidalwave.northernwind.core.model.ResourceFile +- - it.tidalwave.northernwind.core.model.ResourceFile.Finder

    center footer UMLDoclet 2.0.12, PlantUML 1.2020.16
@enduml

PlantUML version 1.2020.16(Sun Aug 23 22:20:43 CEST 2020)
(APACHE source distribution)
Java Runtime: OpenJDK Runtime Environment
JVM: OpenJDK 64-Bit Server VM
Default Encoding: UTF-8
Language: en
Country: GB
--></g></svg>