<?xml version="1.0" encoding="UTF-8" standalone="no"?><svg xmlns="http://www.w3.org/2000/svg" xmlns:xlink="http://www.w3.org/1999/xlink" contentScriptType="application/ecmascript" contentStyleType="text/css" height="75px" preserveAspectRatio="none" style="width:200px;height:75px;" version="1.1" viewBox="0 0 200 75" width="200px" zoomAndPan="magnify"><defs><filter height="300%" id="f1kkoaoekopon6" width="300%" x="-1" y="-1"><feGaussianBlur result="blurOut" stdDeviation="2.0"/><feColorMatrix in="blurOut" result="blurOut2" type="matrix" values="0 0 0 0 0 0 0 0 0 0 0 0 0 0 0 0 0 0 .4 0"/><feOffset dx="4.0" dy="4.0" in="blurOut2" result="blurOut3"/><feBlend in="SourceGraphic" in2="blurOut3" mode="normal"/></filter></defs><g><!--MD5=[1b4195c90ff591bbce9f85378093ab89]
class it.tidalwave.role.annotation.AsObject--><a href="AsObject.html" target="_top" title="AsObject.html" xlink:actuate="onRequest" xlink:href="AsObject.html" xlink:show="new" xlink:title="AsObject.html" xlink:type="simple"><rect codeLine="5" fill="#FEFECE" filter="url(#f1kkoaoekopon6)" height="38.2656" id="it.tidalwave.role.annotation.AsObject" style="stroke: #A80036; stroke-width: 1.5;" width="167" x="10.5" y="7"/><ellipse cx="25.5" cy="26.1328" fill="#E3664A" rx="11" ry="11" style="stroke: #A80036; stroke-width: 1.0;"/><path d="M28.0767,26.3589 Q28.0767,25.4209 27.6533,24.8896 Q27.23,24.3584 26.4912,24.3584 Q25.7524,24.3584 25.3333,24.8896 Q24.9141,25.4209 24.9141,26.3589 Q24.9141,27.3052 25.3333,27.8364 Q25.7524,28.3677 26.4912,28.3677 Q27.23,28.3677 27.6533,27.8364 Q28.0767,27.3052 28.0767,26.3589 Z M29.6206,29.7622 L27.9937,29.7622 L27.9937,29.0815 Q27.6782,29.5215 27.2507,29.7249 Q26.8232,29.9282 26.2256,29.9282 Q24.8643,29.9282 24.03,28.9487 Q23.1958,27.9692 23.1958,26.3589 Q23.1958,24.7568 24.0259,23.7815 Q24.856,22.8062 26.2256,22.8062 Q26.8149,22.8062 27.2632,23.0095 Q27.7114,23.2129 27.9937,23.603 L27.9937,23.2627 Q27.9937,22.1338 27.3752,21.5195 Q26.7568,20.9053 25.6113,20.9053 Q23.8848,20.9053 22.7932,22.4243 Q21.7017,23.9434 21.7017,26.3755 Q21.7017,28.9238 22.9634,30.4304 Q24.2251,31.937 26.3252,31.937 Q26.9893,31.937 27.6118,31.7419 Q28.2344,31.5469 28.8071,31.1567 L29.5708,32.6177 Q28.8984,33.0742 28.1057,33.3025 Q27.313,33.5308 26.4082,33.5308 Q23.5029,33.5308 21.7764,31.5967 Q20.0498,29.6626 20.0498,26.3755 Q20.0498,23.1631 21.6021,21.2332 Q23.1543,19.3032 25.7109,19.3032 Q27.5205,19.3032 28.5706,20.3948 Q29.6206,21.4863 29.6206,23.3706 Z "/><text fill="#000000" font-family="sans-serif" font-size="14" lengthAdjust="spacingAndGlyphs" textLength="61" x="76.5" y="25.5352">AsObject</text><text fill="#000000" font-family="sans-serif" font-size="10" lengthAdjust="spacingAndGlyphs" textLength="135" x="39.5" y="38.1563">it.tidalwave.role.annotation</text></a><text fill="#888888" font-family="sans-serif" font-size="10" lengthAdjust="spacingAndGlyphs" textLength="188" x="0" y="61.9336">UMLDoclet 2.0.12, PlantUML 1.2020.16</text><!--MD5=[ba7045a89afd8c86fced49bf46181251]
@startuml
    set namespaceSeparator none
    hide empty fields
    hide empty methods

    annotation "<size:14>AsObject\n<size:10>it.tidalwave.role.annotation" as it.tidalwave.role.annotation.AsObject [[AsObject.html]]

    center footer UMLDoclet 2.0.12, PlantUML 1.2020.16
@enduml

PlantUML version 1.2020.16(Sun Aug 23 22:20:43 CEST 2020)
(APACHE source distribution)
Java Runtime: OpenJDK Runtime Environment
JVM: OpenJDK 64-Bit Server VM
Default Encoding: UTF-8
Language: en
Country: GB
--></g></svg>