<?xml version="1.0" encoding="UTF-8" standalone="no"?><svg xmlns="http://www.w3.org/2000/svg" xmlns:xlink="http://www.w3.org/1999/xlink" contentScriptType="application/ecmascript" contentStyleType="text/css" height="298px" preserveAspectRatio="none" style="width:489px;height:298px;" version="1.1" viewBox="0 0 489 298" width="489px" zoomAndPan="magnify"><defs><filter height="300%" id="flgm49ig3fdum" width="300%" x="-1" y="-1"><feGaussianBlur result="blurOut" stdDeviation="2.0"/><feColorMatrix in="blurOut" result="blurOut2" type="matrix" values="0 0 0 0 0 0 0 0 0 0 0 0 0 0 0 0 0 0 .4 0"/><feOffset dx="4.0" dy="4.0" in="blurOut2" result="blurOut3"/><feBlend in="SourceGraphic" in2="blurOut3" mode="normal"/></filter></defs><g><!--MD5=[243a7945cd2c9290c5777c2ecee53d8c]
class it.tidalwave.image.java2d.Java2DUtils--><a href="Java2DUtils.html" target="_top" title="Java2DUtils.html" xlink:actuate="onRequest" xlink:href="Java2DUtils.html" xlink:show="new" xlink:title="Java2DUtils.html" xlink:type="simple"><rect codeLine="5" fill="#FEFECE" filter="url(#flgm49ig3fdum)" height="261.5469" id="it.tidalwave.image.java2d.Java2DUtils" style="stroke: #A80036; stroke-width: 1.5;" width="463" x="7" y="7"/><ellipse cx="171.75" cy="26.1328" fill="#ADD1B2" rx="11" ry="11" style="stroke: #A80036; stroke-width: 1.0;"/><path d="M174.2231,32.2759 Q173.6421,32.5747 173.0029,32.7241 Q172.3638,32.8735 171.6582,32.8735 Q169.1514,32.8735 167.8315,31.2217 Q166.5117,29.5698 166.5117,26.4487 Q166.5117,23.3193 167.8315,21.6675 Q169.1514,20.0156 171.6582,20.0156 Q172.3638,20.0156 173.0112,20.165 Q173.6587,20.3145 174.2231,20.6133 L174.2231,23.3359 Q173.5923,22.7549 172.9988,22.4851 Q172.4053,22.2153 171.7744,22.2153 Q170.4297,22.2153 169.7449,23.282 Q169.0601,24.3486 169.0601,26.4487 Q169.0601,28.5405 169.7449,29.6072 Q170.4297,30.6738 171.7744,30.6738 Q172.4053,30.6738 172.9988,30.4041 Q173.5923,30.1343 174.2231,29.5532 Z "/><text fill="#000000" font-family="sans-serif" font-size="14" lengthAdjust="spacingAndGlyphs" textLength="76" x="216.75" y="25.5352">Java2DUtils</text><text fill="#000000" font-family="sans-serif" font-size="10" lengthAdjust="spacingAndGlyphs" textLength="125" x="192.25" y="38.1563">it.tidalwave.image.java2d</text><line style="stroke: #A80036; stroke-width: 1.5;" x1="8" x2="469" y1="45.2656" y2="45.2656"/><ellipse cx="18" cy="56.2656" fill="none" rx="3" ry="3" style="stroke: #038048; stroke-width: 1.0;"/><text fill="#000000" font-family="sans-serif" font-size="11" lengthAdjust="spacingAndGlyphs" text-decoration="underline" textLength="61" x="27" y="59.9004">ZERO: Float</text><line style="stroke: #A80036; stroke-width: 1.5;" x1="8" x2="469" y1="66.2207" y2="66.2207"/><ellipse cx="18" cy="77.2207" fill="#84BE84" rx="3" ry="3" style="stroke: #038048; stroke-width: 1.0;"/><text fill="#000000" font-family="sans-serif" font-size="11" lengthAdjust="spacingAndGlyphs" text-decoration="underline" textLength="218" x="27" y="80.8555">getProperties(BufferedImage): Properties</text><ellipse cx="18" cy="90.1758" fill="#84BE84" rx="3" ry="3" style="stroke: #038048; stroke-width: 1.0;"/><text fill="#000000" font-family="sans-serif" font-size="11" lengthAdjust="spacingAndGlyphs" text-decoration="underline" textLength="245" x="27" y="93.8105">createOptimizedImage(int, int): BufferedImage</text><ellipse cx="18" cy="103.1309" fill="#84BE84" rx="3" ry="3" style="stroke: #038048; stroke-width: 1.0;"/><text fill="#000000" font-family="sans-serif" font-size="11" lengthAdjust="spacingAndGlyphs" text-decoration="underline" textLength="277" x="27" y="106.7656">getGraphicsConfiguration(): GraphicsConfiguration</text><ellipse cx="18" cy="116.0859" fill="#84BE84" rx="3" ry="3" style="stroke: #038048; stroke-width: 1.0;"/><text fill="#000000" font-family="sans-serif" font-size="11" lengthAdjust="spacingAndGlyphs" text-decoration="underline" textLength="309" x="27" y="119.7207">createSimilarImage(BufferedImage, int, int): BufferedImage</text><ellipse cx="18" cy="129.041" fill="#84BE84" rx="3" ry="3" style="stroke: #038048; stroke-width: 1.0;"/><text fill="#000000" font-family="sans-serif" font-size="11" lengthAdjust="spacingAndGlyphs" text-decoration="underline" textLength="229" x="27" y="132.6758">getICCProfileName(RenderedImage): String</text><ellipse cx="18" cy="141.9961" fill="#84BE84" rx="3" ry="3" style="stroke: #038048; stroke-width: 1.0;"/><text fill="#000000" font-family="sans-serif" font-size="11" lengthAdjust="spacingAndGlyphs" text-decoration="underline" textLength="387" x="27" y="145.6309">convertToSinglePixelPackedSampleModel(BufferedImage): BufferedImage</text><ellipse cx="18" cy="154.9512" fill="#84BE84" rx="3" ry="3" style="stroke: #038048; stroke-width: 1.0;"/><text fill="#000000" font-family="sans-serif" font-size="11" lengthAdjust="spacingAndGlyphs" text-decoration="underline" textLength="437" x="27" y="158.5859">scaleWithAffineTransform(BufferedImage, double, double, Quality): BufferedImage</text><ellipse cx="18" cy="167.9063" fill="#84BE84" rx="3" ry="3" style="stroke: #038048; stroke-width: 1.0;"/><text fill="#000000" font-family="sans-serif" font-size="11" lengthAdjust="spacingAndGlyphs" text-decoration="underline" textLength="407" x="27" y="171.541">scaleWithDrawImage(BufferedImage, double, double, Quality): BufferedImage</text><ellipse cx="18" cy="180.8613" fill="#84BE84" rx="3" ry="3" style="stroke: #038048; stroke-width: 1.0;"/><text fill="#000000" font-family="sans-serif" font-size="11" lengthAdjust="spacingAndGlyphs" text-decoration="underline" textLength="369" x="27" y="184.4961">rotateWithDrawImage(BufferedImage, double, Quality): BufferedImage</text><polygon fill="#FFFF44" points="18,188.8164,22,192.8164,18,196.8164,14,192.8164" style="stroke: #B38D22; stroke-width: 1.0;"/><text fill="#000000" font-family="sans-serif" font-size="11" lengthAdjust="spacingAndGlyphs" text-decoration="underline" textLength="131" x="27" y="197.4512">toString(int[], int): String</text><ellipse cx="18" cy="206.7715" fill="#84BE84" rx="3" ry="3" style="stroke: #038048; stroke-width: 1.0;"/><text fill="#000000" font-family="sans-serif" font-size="11" lengthAdjust="spacingAndGlyphs" text-decoration="underline" textLength="251" x="27" y="210.4063">logImage(Logger, String, RenderedImage): void</text><ellipse cx="18" cy="219.7266" fill="#84BE84" rx="3" ry="3" style="stroke: #038048; stroke-width: 1.0;"/><text fill="#000000" font-family="sans-serif" font-size="11" lengthAdjust="spacingAndGlyphs" text-decoration="underline" textLength="418" x="27" y="223.3613">createOptimizedImage(BufferedImage, double, double, Quality): BufferedImage</text><ellipse cx="18" cy="232.6816" fill="#84BE84" rx="3" ry="3" style="stroke: #038048; stroke-width: 1.0;"/><text fill="#000000" font-family="sans-serif" font-size="11" lengthAdjust="spacingAndGlyphs" text-decoration="underline" textLength="260" x="27" y="236.3164">findRenderingHintsInterpolation(Quality): Object</text><ellipse cx="18" cy="245.6367" fill="#84BE84" rx="3" ry="3" style="stroke: #038048; stroke-width: 1.0;"/><text fill="#000000" font-family="sans-serif" font-size="11" lengthAdjust="spacingAndGlyphs" text-decoration="underline" textLength="245" x="27" y="249.2715">findAffineTransformInterpolation(Quality): int</text><ellipse cx="18" cy="258.5918" fill="#84BE84" rx="3" ry="3" style="stroke: #038048; stroke-width: 1.0;"/><text fill="#000000" font-family="sans-serif" font-size="11" lengthAdjust="spacingAndGlyphs" text-decoration="underline" textLength="168" x="27" y="262.2266">getAveragingKernel(int): Kernel</text></a><text fill="#888888" font-family="sans-serif" font-size="10" lengthAdjust="spacingAndGlyphs" textLength="188" x="144.5" y="285.2148">UMLDoclet 2.0.12, PlantUML 1.2020.16</text><!--MD5=[04340971e8d0e5e3ef3d38dc9204c8ad]
@startuml
    set namespaceSeparator none
    hide empty fields
    hide empty methods

    class "<size:14>Java2DUtils\n<size:10>it.tidalwave.image.java2d" as it.tidalwave.image.java2d.Java2DUtils [[Java2DUtils.html]] {
        {static} +ZERO: Float
        {static} +getProperties(BufferedImage): Properties
        {static} +createOptimizedImage(int, int): BufferedImage
        {static} +getGraphicsConfiguration(): GraphicsConfiguration
        {static} +createSimilarImage(BufferedImage, int, int): BufferedImage
        {static} +getICCProfileName(RenderedImage): String
        {static} +convertToSinglePixelPackedSampleModel(BufferedImage): BufferedImage
        {static} +scaleWithAffineTransform(BufferedImage, double, double, Quality): BufferedImage
        {static} +scaleWithDrawImage(BufferedImage, double, double, Quality): BufferedImage
        {static} +rotateWithDrawImage(BufferedImage, double, Quality): BufferedImage
        {static} #toString(int[], int): String
        {static} +logImage(Logger, String, RenderedImage): void
        {static} +createOptimizedImage(BufferedImage, double, double, Quality): BufferedImage
        {static} +findRenderingHintsInterpolation(Quality): Object
        {static} +findAffineTransformInterpolation(Quality): int
        {static} +getAveragingKernel(int): Kernel
    }

    center footer UMLDoclet 2.0.12, PlantUML 1.2020.16
@enduml

PlantUML version 1.2020.16(Sun Aug 23 22:20:43 CEST 2020)
(APACHE source distribution)
Java Runtime: OpenJDK Runtime Environment
JVM: OpenJDK 64-Bit Server VM
Default Encoding: UTF-8
Language: en
Country: GB
--></g></svg>