<?xml version="1.0" encoding="UTF-8" standalone="no"?><svg xmlns="http://www.w3.org/2000/svg" xmlns:xlink="http://www.w3.org/1999/xlink" contentScriptType="application/ecmascript" contentStyleType="text/css" height="224px" preserveAspectRatio="none" style="width:393px;height:224px;" version="1.1" viewBox="0 0 393 224" width="393px" zoomAndPan="magnify"><defs><filter height="300%" id="f86q1g1vwrptb" width="300%" x="-1" y="-1"><feGaussianBlur result="blurOut" stdDeviation="2.0"/><feColorMatrix in="blurOut" result="blurOut2" type="matrix" values="0 0 0 0 0 0 0 0 0 0 0 0 0 0 0 0 0 0 .4 0"/><feOffset dx="4.0" dy="4.0" in="blurOut2" result="blurOut3"/><feBlend in="SourceGraphic" in2="blurOut3" mode="normal"/></filter></defs><g><!--MD5=[d123536ebb939e5eade8392c7525dee9]
class it.tidalwave.image.java2d.WriteJ2DOp--><a href="WriteJ2DOp.html" target="_top" title="WriteJ2DOp.html" xlink:actuate="onRequest" xlink:href="WriteJ2DOp.html" xlink:show="new" xlink:title="WriteJ2DOp.html" xlink:type="simple"><rect codeLine="5" fill="#FEFECE" filter="url(#f86q1g1vwrptb)" height="59.2207" id="it.tidalwave.image.java2d.WriteJ2DOp" style="stroke: #A80036; stroke-width: 1.5;" width="365" x="9" y="129"/><ellipse cx="124.75" cy="148.1328" fill="#ADD1B2" rx="11" ry="11" style="stroke: #A80036; stroke-width: 1.0;"/><path d="M127.2231,154.2759 Q126.6421,154.5747 126.0029,154.7241 Q125.3638,154.8735 124.6582,154.8735 Q122.1514,154.8735 120.8315,153.2217 Q119.5117,151.5698 119.5117,148.4487 Q119.5117,145.3193 120.8315,143.6675 Q122.1514,142.0156 124.6582,142.0156 Q125.3638,142.0156 126.0112,142.165 Q126.6587,142.3145 127.2231,142.6133 L127.2231,145.3359 Q126.5923,144.7549 125.9988,144.4851 Q125.4053,144.2153 124.7744,144.2153 Q123.4297,144.2153 122.7449,145.282 Q122.0601,146.3486 122.0601,148.4487 Q122.0601,150.5405 122.7449,151.6072 Q123.4297,152.6738 124.7744,152.6738 Q125.4053,152.6738 125.9988,152.4041 Q126.5923,152.1343 127.2231,151.5532 Z "/><text fill="#000000" font-family="sans-serif" font-size="14" lengthAdjust="spacingAndGlyphs" textLength="78" x="168.75" y="147.5352">WriteJ2DOp</text><text fill="#000000" font-family="sans-serif" font-size="10" lengthAdjust="spacingAndGlyphs" textLength="125" x="145.25" y="160.1563">it.tidalwave.image.java2d</text><line style="stroke: #A80036; stroke-width: 1.5;" x1="10" x2="373" y1="167.2656" y2="167.2656"/><polygon fill="#FFFF44" points="20,173.2656,24,177.2656,20,181.2656,16,177.2656" style="stroke: #B38D22; stroke-width: 1.0;"/><text fill="#000000" font-family="sans-serif" font-size="11" lengthAdjust="spacingAndGlyphs" textLength="339" x="29" y="181.9004">execute(WriteOp, EditableImage, BufferedImage): BufferedImage</text></a><!--MD5=[7ef274ac46e40a615c70e926a9eff743]
class it.tidalwave.image.op.OperationImplementation--><a href="../op/OperationImplementation.html" target="_top" title="../op/OperationImplementation.html" xlink:actuate="onRequest" xlink:href="../op/OperationImplementation.html" xlink:show="new" xlink:title="../op/OperationImplementation.html" xlink:type="simple"><rect codeLine="9" fill="#FEFECE" filter="url(#f86q1g1vwrptb)" height="59.2207" id="it.tidalwave.image.op.OperationImplementation" style="stroke: #A80036; stroke-width: 1.5;" width="365" x="9" y="10"/><ellipse cx="30.3" cy="29.1328" fill="#A9DCDF" rx="11" ry="11" style="stroke: #A80036; stroke-width: 1.0;"/><path d="M30.1633,24.481 L29.0095,29.5527 L31.3254,29.5527 Z M28.6691,22.2397 L31.6657,22.2397 L35.0109,34.6328 L32.5622,34.6328 L31.7985,31.5698 L28.5197,31.5698 L27.7727,34.6328 L25.3239,34.6328 Z "/><text fill="#000000" font-family="sans-serif" font-size="14" font-style="italic" lengthAdjust="spacingAndGlyphs" textLength="177" x="45.7" y="28.5352">OperationImplementation</text><text fill="#000000" font-family="sans-serif" font-size="10" font-style="italic" lengthAdjust="spacingAndGlyphs" textLength="105" x="81.7" y="41.1563">it.tidalwave.image.op</text><rect fill="#FFFFFF" height="16.1328" style="stroke: #000000; stroke-width: 1.0; stroke-dasharray: 2.0,2.0;" width="140" x="237" y="7"/><text fill="#000000" font-family="sans-serif" font-size="12" font-style="italic" lengthAdjust="spacingAndGlyphs" textLength="138" x="238" y="19.6016">WriteOp, BufferedImage</text><line style="stroke: #A80036; stroke-width: 1.5;" x1="10" x2="373" y1="48.2656" y2="48.2656"/><polygon fill="#FFFF44" points="20,54.2656,24,58.2656,20,62.2656,16,58.2656" style="stroke: #B38D22; stroke-width: 1.0;"/><text fill="#000000" font-family="sans-serif" font-size="11" font-style="italic" lengthAdjust="spacingAndGlyphs" textLength="339" x="29" y="62.9004">execute(WriteOp, EditableImage, BufferedImage): BufferedImage</text></a><!--MD5=[e1d7d2ca9e517bfb0c1dbdb13ba6a55c]
reverse link it.tidalwave.image.op.OperationImplementation to it.tidalwave.image.java2d.WriteJ2DOp--><path codeLine="13" d="M191.5,89.3288 C191.5,102.7348 191.5,116.8139 191.5,128.7447 " fill="none" id="it.tidalwave.image.op.OperationImplementation-backto-it.tidalwave.image.java2d.WriteJ2DOp" style="stroke: #A80036; stroke-width: 1.0;"/><polygon fill="none" points="184.5001,89.2218,191.5,69.2218,198.5001,89.2217,184.5001,89.2218" style="stroke: #A80036; stroke-width: 1.0;"/><text fill="#888888" font-family="sans-serif" font-size="10" lengthAdjust="spacingAndGlyphs" textLength="188" x="93.5" y="210.8887">UMLDoclet 2.0.12, PlantUML 1.2020.16</text><!--MD5=[f2ede13b791d44ce64595e09f6a261d2]
@startuml
    set namespaceSeparator none
    hide empty fields
    hide empty methods

    class "<size:14>WriteJ2DOp\n<size:10>it.tidalwave.image.java2d" as it.tidalwave.image.java2d.WriteJ2DOp [[WriteJ2DOp.html]] {
        #execute(WriteOp, EditableImage, BufferedImage): BufferedImage
    }

    abstract class "<size:14>OperationImplementation\n<size:10>it.tidalwave.image.op" as it.tidalwave.image.op.OperationImplementation<WriteOp, BufferedImage> [[../op/OperationImplementation.html]] {
        {abstract} #execute(WriteOp, EditableImage, BufferedImage): BufferedImage
    }

    it.tidalwave.image.op.OperationImplementation <|- - it.tidalwave.image.java2d.WriteJ2DOp

    center footer UMLDoclet 2.0.12, PlantUML 1.2020.16
@enduml

PlantUML version 1.2020.16(Sun Aug 23 22:20:43 CEST 2020)
(APACHE source distribution)
Java Runtime: OpenJDK Runtime Environment
JVM: OpenJDK 64-Bit Server VM
Default Encoding: UTF-8
Language: en
Country: GB
--></g></svg>