@startuml
    set namespaceSeparator none
    hide empty fields
    hide empty methods

    class "<size:14>InMemoryPersonRegistry\n<size:10>it.tidalwave.thesefoolishthings.examples.inmemoryfinderexample" as it.tidalwave.thesefoolishthings.examples.inmemoryfinderexample.InMemoryPersonRegistry [[InMemoryPersonRegistry.html]] {
        +add(Person): void
        +findPerson(): Finder<Person>
    }

    interface "<size:14>PersonRegistry\n<size:10>it.tidalwave.thesefoolishthings.examples.person" as it.tidalwave.thesefoolishthings.examples.person.PersonRegistry [[../person/PersonRegistry.html]] {
        {abstract} +findPerson(): Finder<Person>
        {abstract} +add(Person): void
    }

    it.tidalwave.thesefoolishthings.examples.person.PersonRegistry <|.. it.tidalwave.thesefoolishthings.examples.inmemoryfinderexample.InMemoryPersonRegistry

    center footer UMLDoclet 2.0.12, PlantUML 1.2020.16
@enduml
