<?xml version="1.0" encoding="UTF-8" standalone="no"?><svg xmlns="http://www.w3.org/2000/svg" xmlns:xlink="http://www.w3.org/1999/xlink" contentScriptType="application/ecmascript" contentStyleType="text/css" height="239px" preserveAspectRatio="none" style="width:322px;height:239px;" version="1.1" viewBox="0 0 322 239" width="322px" zoomAndPan="magnify"><defs><filter height="300%" id="fk34er7cuwrgv" width="300%" x="-1" y="-1"><feGaussianBlur result="blurOut" stdDeviation="2.0"/><feColorMatrix in="blurOut" result="blurOut2" type="matrix" values="0 0 0 0 0 0 0 0 0 0 0 0 0 0 0 0 0 0 .4 0"/><feOffset dx="4.0" dy="4.0" in="blurOut2" result="blurOut3"/><feBlend in="SourceGraphic" in2="blurOut3" mode="normal"/></filter></defs><g><!--MD5=[677822b52490a333b943ed1d4f9b2e57]
class it.tidalwave.actor.spi.CollaborationAwareMessageBus--><a href="CollaborationAwareMessageBus.html" target="_top" title="CollaborationAwareMessageBus.html" xlink:actuate="onRequest" xlink:href="CollaborationAwareMessageBus.html" xlink:show="new" xlink:title="CollaborationAwareMessageBus.html" xlink:type="simple"><rect codeLine="5" fill="#FEFECE" filter="url(#fk34er7cuwrgv)" height="38.2656" id="it.tidalwave.actor.spi.CollaborationAwareMessageBus" style="stroke: #A80036; stroke-width: 1.5;" width="252" x="29" y="165"/><ellipse cx="44" cy="184.1328" fill="#B4A7E5" rx="11" ry="11" style="stroke: #A80036; stroke-width: 1.0;"/><path d="M40.4277,180.3979 L40.4277,178.2397 L47.8071,178.2397 L47.8071,180.3979 L45.3418,180.3979 L45.3418,188.4746 L47.8071,188.4746 L47.8071,190.6328 L40.4277,190.6328 L40.4277,188.4746 L42.8931,188.4746 L42.8931,180.3979 Z "/><text fill="#000000" font-family="sans-serif" font-size="14" font-style="italic" lengthAdjust="spacingAndGlyphs" textLength="220" x="58" y="183.5352">CollaborationAwareMessageBus</text><text fill="#000000" font-family="sans-serif" font-size="10" font-style="italic" lengthAdjust="spacingAndGlyphs" textLength="102" x="117" y="196.1563">it.tidalwave.actor.spi</text></a><!--MD5=[4b7502cfe6ab48c04fed4eeb9239f3a0]
class it.tidalwave.messagebus.MessageBus--><a href="../../messagebus/MessageBus.html" target="_top" title="../../messagebus/MessageBus.html" xlink:actuate="onRequest" xlink:href="../../messagebus/MessageBus.html" xlink:show="new" xlink:title="../../messagebus/MessageBus.html" xlink:type="simple"><rect codeLine="7" fill="#FEFECE" filter="url(#fk34er7cuwrgv)" height="98.0859" id="it.tidalwave.messagebus.MessageBus" style="stroke: #A80036; stroke-width: 1.5;" width="296" x="7" y="7"/><ellipse cx="90.75" cy="26.1328" fill="#B4A7E5" rx="11" ry="11" style="stroke: #A80036; stroke-width: 1.0;"/><path d="M87.1777,22.3979 L87.1777,20.2397 L94.5571,20.2397 L94.5571,22.3979 L92.0918,22.3979 L92.0918,30.4746 L94.5571,30.4746 L94.5571,32.6328 L87.1777,32.6328 L87.1777,30.4746 L89.6431,30.4746 L89.6431,22.3979 Z "/><text fill="#000000" font-family="sans-serif" font-size="14" font-style="italic" lengthAdjust="spacingAndGlyphs" textLength="83" x="129.75" y="25.5352">MessageBus</text><text fill="#000000" font-family="sans-serif" font-size="10" font-style="italic" lengthAdjust="spacingAndGlyphs" textLength="120" x="111.25" y="38.1563">it.tidalwave.messagebus</text><line style="stroke: #A80036; stroke-width: 1.5;" x1="8" x2="302" y1="45.2656" y2="45.2656"/><ellipse cx="18" cy="56.2656" fill="#84BE84" rx="3" ry="3" style="stroke: #038048; stroke-width: 1.0;"/><text fill="#000000" font-family="sans-serif" font-size="11" font-style="italic" lengthAdjust="spacingAndGlyphs" textLength="110" x="27" y="59.9004">publish(TOPIC): void</text><ellipse cx="18" cy="69.2207" fill="#84BE84" rx="3" ry="3" style="stroke: #038048; stroke-width: 1.0;"/><text fill="#000000" font-family="sans-serif" font-size="11" font-style="italic" lengthAdjust="spacingAndGlyphs" textLength="196" x="27" y="72.8555">publish(Class&lt;TOPIC&gt;, TOPIC): void</text><ellipse cx="18" cy="82.1758" fill="#84BE84" rx="3" ry="3" style="stroke: #038048; stroke-width: 1.0;"/><text fill="#000000" font-family="sans-serif" font-size="11" font-style="italic" lengthAdjust="spacingAndGlyphs" textLength="270" x="27" y="85.8105">subscribe(Class&lt;TOPIC&gt;, Listener&lt;TOPIC&gt;): void</text><ellipse cx="18" cy="95.1309" fill="#84BE84" rx="3" ry="3" style="stroke: #038048; stroke-width: 1.0;"/><text fill="#000000" font-family="sans-serif" font-size="11" font-style="italic" lengthAdjust="spacingAndGlyphs" textLength="170" x="27" y="98.7656">unsubscribe(Listener&lt;?&gt;): void</text></a><!--MD5=[e1c50392019b37692c0f91d14234ef06]
reverse link it.tidalwave.messagebus.MessageBus to it.tidalwave.actor.spi.CollaborationAwareMessageBus--><path codeLine="14" d="M155,125.5489 C155,140.0391 155,154.1471 155,164.8717 " fill="none" id="it.tidalwave.messagebus.MessageBus-backto-it.tidalwave.actor.spi.CollaborationAwareMessageBus" style="stroke: #A80036; stroke-width: 1.0;"/><polygon fill="none" points="148.0001,125.1221,155,105.1221,162.0001,125.122,148.0001,125.1221" style="stroke: #A80036; stroke-width: 1.0;"/><text fill="#888888" font-family="sans-serif" font-size="10" lengthAdjust="spacingAndGlyphs" textLength="188" x="58" y="225.9336">UMLDoclet 2.0.12, PlantUML 1.2020.16</text><!--MD5=[09b2818f6ce78940b069c9c8b2b2a190]
@startuml
    set namespaceSeparator none
    hide empty fields
    hide empty methods

    interface "<size:14>CollaborationAwareMessageBus\n<size:10>it.tidalwave.actor.spi" as it.tidalwave.actor.spi.CollaborationAwareMessageBus [[CollaborationAwareMessageBus.html]]

    interface "<size:14>MessageBus\n<size:10>it.tidalwave.messagebus" as it.tidalwave.messagebus.MessageBus [[../../messagebus/MessageBus.html]] {
        {abstract} +publish(TOPIC): void
        {abstract} +publish(Class<TOPIC>, TOPIC): void
        {abstract} +subscribe(Class<TOPIC>, Listener<TOPIC>): void
        {abstract} +unsubscribe(Listener<?>): void
    }

    it.tidalwave.messagebus.MessageBus <|- - it.tidalwave.actor.spi.CollaborationAwareMessageBus

    center footer UMLDoclet 2.0.12, PlantUML 1.2020.16
@enduml

PlantUML version 1.2020.16(Sun Aug 23 22:20:43 CEST 2020)
(APACHE source distribution)
Java Runtime: OpenJDK Runtime Environment
JVM: OpenJDK 64-Bit Server VM
Default Encoding: UTF-8
Language: en
Country: GB
--></g></svg>