<?xml version="1.0" encoding="UTF-8" standalone="no"?><svg xmlns="http://www.w3.org/2000/svg" xmlns:xlink="http://www.w3.org/1999/xlink" contentScriptType="application/ecmascript" contentStyleType="text/css" height="503px" preserveAspectRatio="none" style="width:983px;height:503px;" version="1.1" viewBox="0 0 983 503" width="983px" zoomAndPan="magnify"><defs><filter height="300%" id="f1ckuj5rjz0axn" width="300%" x="-1" y="-1"><feGaussianBlur result="blurOut" stdDeviation="2.0"/><feColorMatrix in="blurOut" result="blurOut2" type="matrix" values="0 0 0 0 0 0 0 0 0 0 0 0 0 0 0 0 0 0 .4 0"/><feOffset dx="4.0" dy="4.0" in="blurOut2" result="blurOut3"/><feBlend in="SourceGraphic" in2="blurOut3" mode="normal"/></filter></defs><g><!--MD5=[c157bec24dced1b294704707e0f8107e]
cluster it.tidalwave.actor.spi--><polygon fill="#FFFFFF" filter="url(#f1ckuj5rjz0axn)" points="16,166,169,166,176,188.4883,961,188.4883,961,474,16,474,16,166" style="stroke: #000000; stroke-width: 1.5;"/><line style="stroke: #000000; stroke-width: 1.5;" x1="16" x2="176" y1="188.4883" y2="188.4883"/><text fill="#000000" font-family="sans-serif" font-size="14" font-weight="bold" lengthAdjust="spacingAndGlyphs" textLength="147" x="20" y="181.5352">it.tidalwave.actor.spi</text><!--MD5=[e4549cd9a5af2e65ccdbc914a80faec6]
cluster it.tidalwave.messagebus--><polygon fill="#FFFFFF" filter="url(#f1ckuj5rjz0axn)" points="222,6,403,6,410,28.4883,534,28.4883,534,141,222,141,222,6" style="stroke: #000000; stroke-width: 1.5;"/><line style="stroke: #000000; stroke-width: 1.5;" x1="222" x2="410" y1="28.4883" y2="28.4883"/><text fill="#000000" font-family="sans-serif" font-size="14" font-weight="bold" lengthAdjust="spacingAndGlyphs" textLength="175" x="226" y="21.5352">it.tidalwave.messagebus</text><!--MD5=[08c2ebadfbb8510cffc8f2152dfa6753]
class it.tidalwave.actor.spi.ActorActivator--><a href="ActorActivator.html" target="_top" title="ActorActivator.html" xlink:actuate="onRequest" xlink:href="ActorActivator.html" xlink:show="new" xlink:title="ActorActivator.html" xlink:type="simple"><rect codeLine="3" fill="#FEFECE" filter="url(#f1ckuj5rjz0axn)" height="99.8203" id="it.tidalwave.actor.spi.ActorActivator" style="stroke: #A80036; stroke-width: 1.5;" width="236" x="717" y="199.5"/><ellipse cx="790.75" cy="215.5" fill="#ADD1B2" rx="11" ry="11" style="stroke: #A80036; stroke-width: 1.0;"/><path d="M793.2231,221.6431 Q792.6421,221.9419 792.0029,222.0913 Q791.3638,222.2407 790.6582,222.2407 Q788.1514,222.2407 786.8315,220.5889 Q785.5117,218.937 785.5117,215.8159 Q785.5117,212.6865 786.8315,211.0347 Q788.1514,209.3828 790.6582,209.3828 Q791.3638,209.3828 792.0112,209.5322 Q792.6587,209.6816 793.2231,209.9805 L793.2231,212.7031 Q792.5923,212.1221 791.9988,211.8523 Q791.4053,211.5825 790.7744,211.5825 Q789.4297,211.5825 788.7449,212.6492 Q788.0601,213.7158 788.0601,215.8159 Q788.0601,217.9077 788.7449,218.9744 Q789.4297,220.041 790.7744,220.041 Q791.4053,220.041 791.9988,219.7712 Q792.5923,219.5015 793.2231,218.9204 Z "/><text fill="#000000" font-family="sans-serif" font-size="12" lengthAdjust="spacingAndGlyphs" textLength="80" x="811.25" y="220.0352">ActorActivator</text><line style="stroke: #A80036; stroke-width: 1.5;" x1="718" x2="952" y1="231.5" y2="231.5"/><line style="stroke: #A80036; stroke-width: 1.5;" x1="718" x2="952" y1="239.5" y2="239.5"/><ellipse cx="728" cy="250.5" fill="#84BE84" rx="3" ry="3" style="stroke: #038048; stroke-width: 1.0;"/><text fill="#000000" font-family="sans-serif" font-size="11" lengthAdjust="spacingAndGlyphs" text-decoration="underline" textLength="210" x="737" y="254.1348">activatorFor(Class&lt;?&gt;): ActorActivator</text><ellipse cx="728" cy="263.4551" fill="#84BE84" rx="3" ry="3" style="stroke: #038048; stroke-width: 1.0;"/><text fill="#000000" font-family="sans-serif" font-size="11" lengthAdjust="spacingAndGlyphs" textLength="173" x="737" y="267.0898">withPoolSize(int): ActorActivator</text><ellipse cx="728" cy="276.4102" fill="#84BE84" rx="3" ry="3" style="stroke: #038048; stroke-width: 1.0;"/><text fill="#000000" font-family="sans-serif" font-size="11" lengthAdjust="spacingAndGlyphs" textLength="81" x="737" y="280.0449">initialize(): void</text><ellipse cx="728" cy="289.3652" fill="#84BE84" rx="3" ry="3" style="stroke: #038048; stroke-width: 1.0;"/><text fill="#000000" font-family="sans-serif" font-size="11" lengthAdjust="spacingAndGlyphs" textLength="79" x="737" y="293">dispose(): void</text></a><!--MD5=[66be5b1692a60590a7169bc8eb77308e]
class it.tidalwave.actor.spi.ActorGroupActivator--><a href="ActorGroupActivator.html" target="_top" title="ActorGroupActivator.html" xlink:actuate="onRequest" xlink:href="ActorGroupActivator.html" xlink:show="new" xlink:title="ActorGroupActivator.html" xlink:type="simple"><rect codeLine="10" fill="#FEFECE" filter="url(#f1ckuj5rjz0axn)" height="86.8652" id="it.tidalwave.actor.spi.ActorGroupActivator" style="stroke: #A80036; stroke-width: 1.5;" width="162" x="520" y="206"/><ellipse cx="541.3" cy="222" fill="#ADD1B2" rx="11" ry="11" style="stroke: #A80036; stroke-width: 1.0;"/><path d="M543.7731,228.1431 Q543.1921,228.4419 542.5529,228.5913 Q541.9138,228.7407 541.2082,228.7407 Q538.7014,228.7407 537.3815,227.0889 Q536.0617,225.437 536.0617,222.3159 Q536.0617,219.1865 537.3815,217.5347 Q538.7014,215.8828 541.2082,215.8828 Q541.9138,215.8828 542.5612,216.0322 Q543.2087,216.1816 543.7731,216.4805 L543.7731,219.2031 Q543.1423,218.6221 542.5488,218.3523 Q541.9553,218.0825 541.3244,218.0825 Q539.9797,218.0825 539.2949,219.1492 Q538.6101,220.2158 538.6101,222.3159 Q538.6101,224.4077 539.2949,225.4744 Q539.9797,226.541 541.3244,226.541 Q541.9553,226.541 542.5488,226.2712 Q543.1423,226.0015 543.7731,225.4204 Z "/><text fill="#000000" font-family="sans-serif" font-size="12" lengthAdjust="spacingAndGlyphs" textLength="116" x="556.7" y="226.5352">ActorGroupActivator</text><line style="stroke: #A80036; stroke-width: 1.5;" x1="521" x2="681" y1="238" y2="238"/><line style="stroke: #A80036; stroke-width: 1.5;" x1="521" x2="681" y1="246" y2="246"/><ellipse cx="531" cy="257" fill="#84BE84" rx="3" ry="3" style="stroke: #038048; stroke-width: 1.0;"/><text fill="#000000" font-family="sans-serif" font-size="11" lengthAdjust="spacingAndGlyphs" textLength="136" x="540" y="260.6348">add(ActorActivator): void</text><ellipse cx="531" cy="269.9551" fill="#84BE84" rx="3" ry="3" style="stroke: #038048; stroke-width: 1.0;"/><text fill="#000000" font-family="sans-serif" font-size="11" lengthAdjust="spacingAndGlyphs" textLength="78" x="540" y="273.5898">activate(): void</text><ellipse cx="531" cy="282.9102" fill="#84BE84" rx="3" ry="3" style="stroke: #038048; stroke-width: 1.0;"/><text fill="#000000" font-family="sans-serif" font-size="11" lengthAdjust="spacingAndGlyphs" textLength="91" x="540" y="286.5449">deactivate(): void</text></a><!--MD5=[677822b52490a333b943ed1d4f9b2e57]
class it.tidalwave.actor.spi.CollaborationAwareMessageBus--><a href="CollaborationAwareMessageBus.html" target="_top" title="CollaborationAwareMessageBus.html" xlink:actuate="onRequest" xlink:href="CollaborationAwareMessageBus.html" xlink:show="new" xlink:title="CollaborationAwareMessageBus.html" xlink:type="simple"><rect codeLine="16" fill="#FEFECE" filter="url(#f1ckuj5rjz0axn)" height="48" id="it.tidalwave.actor.spi.CollaborationAwareMessageBus" style="stroke: #A80036; stroke-width: 1.5;" width="214" x="271" y="225.5"/><ellipse cx="286" cy="241.5" fill="#B4A7E5" rx="11" ry="11" style="stroke: #A80036; stroke-width: 1.0;"/><path d="M282.4277,237.7651 L282.4277,235.6069 L289.8071,235.6069 L289.8071,237.7651 L287.3418,237.7651 L287.3418,245.8418 L289.8071,245.8418 L289.8071,248 L282.4277,248 L282.4277,245.8418 L284.8931,245.8418 L284.8931,237.7651 Z "/><text fill="#000000" font-family="sans-serif" font-size="12" font-style="italic" lengthAdjust="spacingAndGlyphs" textLength="182" x="300" y="246.0352">CollaborationAwareMessageBus</text><line style="stroke: #A80036; stroke-width: 1.5;" x1="272" x2="484" y1="257.5" y2="257.5"/><line style="stroke: #A80036; stroke-width: 1.5;" x1="272" x2="484" y1="265.5" y2="265.5"/></a><!--MD5=[7d1bdda8d351fda88bea9020a6725597]
class it.tidalwave.actor.spi.ActorActivatorStatsMBean--><a href="ActorActivatorStatsMBean.html" target="_top" title="ActorActivatorStatsMBean.html" xlink:actuate="onRequest" xlink:href="ActorActivatorStatsMBean.html" xlink:show="new" xlink:title="ActorActivatorStatsMBean.html" xlink:type="simple"><rect codeLine="18" fill="#FEFECE" filter="url(#f1ckuj5rjz0axn)" height="112.7754" id="it.tidalwave.actor.spi.ActorActivatorStatsMBean" style="stroke: #A80036; stroke-width: 1.5;" width="211" x="24.5" y="193"/><ellipse cx="54.8" cy="209" fill="#B4A7E5" rx="11" ry="11" style="stroke: #A80036; stroke-width: 1.0;"/><path d="M51.2277,205.2651 L51.2277,203.1069 L58.6071,203.1069 L58.6071,205.2651 L56.1418,205.2651 L56.1418,213.3418 L58.6071,213.3418 L58.6071,215.5 L51.2277,215.5 L51.2277,213.3418 L53.6931,213.3418 L53.6931,205.2651 Z "/><text fill="#000000" font-family="sans-serif" font-size="12" font-style="italic" lengthAdjust="spacingAndGlyphs" textLength="145" x="72.2" y="213.5352">ActorActivatorStatsMBean</text><line style="stroke: #A80036; stroke-width: 1.5;" x1="25.5" x2="234.5" y1="225" y2="225"/><line style="stroke: #A80036; stroke-width: 1.5;" x1="25.5" x2="234.5" y1="233" y2="233"/><ellipse cx="35.5" cy="244" fill="#84BE84" rx="3" ry="3" style="stroke: #038048; stroke-width: 1.0;"/><text fill="#000000" font-family="sans-serif" font-size="11" font-style="italic" lengthAdjust="spacingAndGlyphs" textLength="89" x="44.5" y="247.6348">getPoolSize(): int</text><ellipse cx="35.5" cy="256.9551" fill="#84BE84" rx="3" ry="3" style="stroke: #038048; stroke-width: 1.0;"/><text fill="#000000" font-family="sans-serif" font-size="11" font-style="italic" lengthAdjust="spacingAndGlyphs" textLength="167" x="44.5" y="260.5898">getPendingMessageCount(): int</text><ellipse cx="35.5" cy="269.9102" fill="#84BE84" rx="3" ry="3" style="stroke: #038048; stroke-width: 1.0;"/><text fill="#000000" font-family="sans-serif" font-size="11" font-style="italic" lengthAdjust="spacingAndGlyphs" textLength="134" x="44.5" y="273.5449">getInvocationCount(): int</text><ellipse cx="35.5" cy="282.8652" fill="#84BE84" rx="3" ry="3" style="stroke: #038048; stroke-width: 1.0;"/><text fill="#000000" font-family="sans-serif" font-size="11" font-style="italic" lengthAdjust="spacingAndGlyphs" textLength="185" x="44.5" y="286.5">getSuccesfulInvocationCount(): int</text><ellipse cx="35.5" cy="295.8203" fill="#84BE84" rx="3" ry="3" style="stroke: #038048; stroke-width: 1.0;"/><text fill="#000000" font-family="sans-serif" font-size="11" font-style="italic" lengthAdjust="spacingAndGlyphs" textLength="162" x="44.5" y="299.4551">getInvocationErrorCount(): int</text></a><!--MD5=[469158ad8ffc2dc5de2c3b64a9289a69]
class it.tidalwave.actor.spi.ActorActivatorStats--><a href="ActorActivatorStats.html" target="_top" title="ActorActivatorStats.html" xlink:actuate="onRequest" xlink:href="ActorActivatorStats.html" xlink:show="new" xlink:title="ActorActivatorStats.html" xlink:type="simple"><rect codeLine="26" fill="#FEFECE" filter="url(#f1ckuj5rjz0axn)" height="99.8203" id="it.tidalwave.actor.spi.ActorActivatorStats" style="stroke: #A80036; stroke-width: 1.5;" width="263" x="24.5" y="366"/><ellipse cx="98.25" cy="382" fill="#ADD1B2" rx="11" ry="11" style="stroke: #A80036; stroke-width: 1.0;"/><path d="M100.7231,388.1431 Q100.1421,388.4419 99.5029,388.5913 Q98.8638,388.7407 98.1582,388.7407 Q95.6514,388.7407 94.3315,387.0889 Q93.0117,385.437 93.0117,382.3159 Q93.0117,379.1865 94.3315,377.5347 Q95.6514,375.8828 98.1582,375.8828 Q98.8638,375.8828 99.5112,376.0322 Q100.1587,376.1816 100.7231,376.4805 L100.7231,379.2031 Q100.0923,378.6221 99.4988,378.3523 Q98.9053,378.0825 98.2744,378.0825 Q96.9297,378.0825 96.2449,379.1492 Q95.5601,380.2158 95.5601,382.3159 Q95.5601,384.4077 96.2449,385.4744 Q96.9297,386.541 98.2744,386.541 Q98.9053,386.541 99.4988,386.2712 Q100.0923,386.0015 100.7231,385.4204 Z "/><text fill="#000000" font-family="sans-serif" font-size="12" lengthAdjust="spacingAndGlyphs" textLength="107" x="118.75" y="386.5352">ActorActivatorStats</text><line style="stroke: #A80036; stroke-width: 1.5;" x1="25.5" x2="286.5" y1="398" y2="398"/><line style="stroke: #A80036; stroke-width: 1.5;" x1="25.5" x2="286.5" y1="406" y2="406"/><ellipse cx="35.5" cy="417" fill="#84BE84" rx="3" ry="3" style="stroke: #038048; stroke-width: 1.0;"/><text fill="#000000" font-family="sans-serif" font-size="11" lengthAdjust="spacingAndGlyphs" textLength="212" x="44.5" y="420.6348">changePendingMessageCount(int): void</text><ellipse cx="35.5" cy="429.9551" fill="#84BE84" rx="3" ry="3" style="stroke: #038048; stroke-width: 1.0;"/><text fill="#000000" font-family="sans-serif" font-size="11" lengthAdjust="spacingAndGlyphs" textLength="180" x="44.5" y="433.5898">incrementInvocationCount(): void</text><ellipse cx="35.5" cy="442.9102" fill="#84BE84" rx="3" ry="3" style="stroke: #038048; stroke-width: 1.0;"/><text fill="#000000" font-family="sans-serif" font-size="11" lengthAdjust="spacingAndGlyphs" textLength="208" x="44.5" y="446.5449">incrementInvocationErrorCount(): void</text><ellipse cx="35.5" cy="455.8652" fill="#84BE84" rx="3" ry="3" style="stroke: #038048; stroke-width: 1.0;"/><text fill="#000000" font-family="sans-serif" font-size="11" lengthAdjust="spacingAndGlyphs" textLength="237" x="44.5" y="459.5">incrementSuccessfulInvocationCount(): void</text></a><!--MD5=[4b7502cfe6ab48c04fed4eeb9239f3a0]
class it.tidalwave.messagebus.MessageBus--><a href="../../messagebus/MessageBus.html" target="_top" title="../../messagebus/MessageBus.html" xlink:actuate="onRequest" xlink:href="../../messagebus/MessageBus.html" xlink:show="new" xlink:title="../../messagebus/MessageBus.html" xlink:type="simple"><rect codeLine="38" fill="#FEFECE" filter="url(#f1ckuj5rjz0axn)" height="99.8203" id="it.tidalwave.messagebus.MessageBus" style="stroke: #A80036; stroke-width: 1.5;" width="296" x="230" y="33"/><ellipse cx="338.75" cy="49" fill="#B4A7E5" rx="11" ry="11" style="stroke: #A80036; stroke-width: 1.0;"/><path d="M335.1777,45.2651 L335.1777,43.1069 L342.5571,43.1069 L342.5571,45.2651 L340.0918,45.2651 L340.0918,53.3418 L342.5571,53.3418 L342.5571,55.5 L335.1777,55.5 L335.1777,53.3418 L337.6431,53.3418 L337.6431,45.2651 Z "/><text fill="#000000" font-family="sans-serif" font-size="12" font-style="italic" lengthAdjust="spacingAndGlyphs" textLength="70" x="359.25" y="53.5352">MessageBus</text><line style="stroke: #A80036; stroke-width: 1.5;" x1="231" x2="525" y1="65" y2="65"/><line style="stroke: #A80036; stroke-width: 1.5;" x1="231" x2="525" y1="73" y2="73"/><ellipse cx="241" cy="84" fill="#84BE84" rx="3" ry="3" style="stroke: #038048; stroke-width: 1.0;"/><text fill="#000000" font-family="sans-serif" font-size="11" font-style="italic" lengthAdjust="spacingAndGlyphs" textLength="110" x="250" y="87.6348">publish(TOPIC): void</text><ellipse cx="241" cy="96.9551" fill="#84BE84" rx="3" ry="3" style="stroke: #038048; stroke-width: 1.0;"/><text fill="#000000" font-family="sans-serif" font-size="11" font-style="italic" lengthAdjust="spacingAndGlyphs" textLength="196" x="250" y="100.5898">publish(Class&lt;TOPIC&gt;, TOPIC): void</text><ellipse cx="241" cy="109.9102" fill="#84BE84" rx="3" ry="3" style="stroke: #038048; stroke-width: 1.0;"/><text fill="#000000" font-family="sans-serif" font-size="11" font-style="italic" lengthAdjust="spacingAndGlyphs" textLength="270" x="250" y="113.5449">subscribe(Class&lt;TOPIC&gt;, Listener&lt;TOPIC&gt;): void</text><ellipse cx="241" cy="122.8652" fill="#84BE84" rx="3" ry="3" style="stroke: #038048; stroke-width: 1.0;"/><text fill="#000000" font-family="sans-serif" font-size="11" font-style="italic" lengthAdjust="spacingAndGlyphs" textLength="170" x="250" y="126.5">unsubscribe(Listener&lt;?&gt;): void</text></a><!--MD5=[e1c50392019b37692c0f91d14234ef06]
reverse link it.tidalwave.messagebus.MessageBus to it.tidalwave.actor.spi.CollaborationAwareMessageBus--><path codeLine="33" d="M378,153.4077 C378,179.0299 378,206.315 378,225.238 " fill="none" id="it.tidalwave.messagebus.MessageBus-backto-it.tidalwave.actor.spi.CollaborationAwareMessageBus" style="stroke: #A80036; stroke-width: 1.0;"/><polygon fill="none" points="371.0001,153.4074,378,133.4073,385.0001,153.4073,371.0001,153.4074" style="stroke: #A80036; stroke-width: 1.0;"/><!--MD5=[94baf62fb573cf93c5ecf56ae87ff17a]
reverse link it.tidalwave.actor.spi.ActorActivatorStatsMBean to it.tidalwave.actor.spi.ActorActivatorStats--><path codeLine="34" d="M141.9978,326.3321 C144.0918,339.7418 146.2207,353.3748 148.1654,365.8284 " fill="none" id="it.tidalwave.actor.spi.ActorActivatorStatsMBean-backto-it.tidalwave.actor.spi.ActorActivatorStats" style="stroke: #A80036; stroke-width: 1.0; stroke-dasharray: 7.0,7.0;"/><polygon fill="none" points="135.0446,327.1747,138.875,306.3342,148.877,325.0147,135.0446,327.1747" style="stroke: #A80036; stroke-width: 1.0;"/><text fill="#888888" font-family="sans-serif" font-size="10" lengthAdjust="spacingAndGlyphs" textLength="188" x="388.5" y="489.668">UMLDoclet 2.0.12, PlantUML 1.2020.16</text><!--MD5=[e921ebef4133feca7771452cb5cf124d]
@startuml
    namespace it.tidalwave.actor.spi {

        class ActorActivator [[ActorActivator.html]] {
            {static} +activatorFor(Class<?>): ActorActivator
            +withPoolSize(int): ActorActivator
            +initialize(): void
            +dispose(): void
        }

        class ActorGroupActivator [[ActorGroupActivator.html]] {
            +add(ActorActivator): void
            +activate(): void
            +deactivate(): void
        }

        interface CollaborationAwareMessageBus [[CollaborationAwareMessageBus.html]]

        interface ActorActivatorStatsMBean [[ActorActivatorStatsMBean.html]] {
            {abstract} +getPoolSize(): int
            {abstract} +getPendingMessageCount(): int
            {abstract} +getInvocationCount(): int
            {abstract} +getSuccesfulInvocationCount(): int
            {abstract} +getInvocationErrorCount(): int
        }

        class ActorActivatorStats [[ActorActivatorStats.html]] {
            +changePendingMessageCount(int): void
            +incrementInvocationCount(): void
            +incrementInvocationErrorCount(): void
            +incrementSuccessfulInvocationCount(): void
        }

        it.tidalwave.messagebus.MessageBus <|- - CollaborationAwareMessageBus
        ActorActivatorStatsMBean <|.. ActorActivatorStats
    }

    namespace it.tidalwave.messagebus {
        interface MessageBus [[../../messagebus/MessageBus.html]] {
            {abstract} +publish(TOPIC): void
            {abstract} +publish(Class<TOPIC>, TOPIC): void
            {abstract} +subscribe(Class<TOPIC>, Listener<TOPIC>): void
            {abstract} +unsubscribe(Listener<?>): void
        }
    }

    center footer UMLDoclet 2.0.12, PlantUML 1.2020.16
@enduml

PlantUML version 1.2020.16(Sun Aug 23 22:20:43 CEST 2020)
(APACHE source distribution)
Java Runtime: OpenJDK Runtime Environment
JVM: OpenJDK 64-Bit Server VM
Default Encoding: UTF-8
Language: en
Country: GB
--></g></svg>