<?xml version="1.0" encoding="UTF-8" standalone="no"?><svg xmlns="http://www.w3.org/2000/svg" xmlns:xlink="http://www.w3.org/1999/xlink" contentScriptType="application/ecmascript" contentStyleType="text/css" height="244px" preserveAspectRatio="none" style="width:287px;height:244px;" version="1.1" viewBox="0 0 287 244" width="287px" zoomAndPan="magnify"><defs><filter height="300%" id="f12ljxgwnk3que" width="300%" x="-1" y="-1"><feGaussianBlur result="blurOut" stdDeviation="2.0"/><feColorMatrix in="blurOut" result="blurOut2" type="matrix" values="0 0 0 0 0 0 0 0 0 0 0 0 0 0 0 0 0 0 .4 0"/><feOffset dx="4.0" dy="4.0" in="blurOut2" result="blurOut3"/><feBlend in="SourceGraphic" in2="blurOut3" mode="normal"/></filter></defs><g><!--MD5=[700f1f6186f65a0fc39b41a073d56bc6]
class it.tidalwave.role.ui.function.AndFunction--><a href="AndFunction.html" target="_top" title="AndFunction.html" xlink:actuate="onRequest" xlink:href="AndFunction.html" xlink:show="new" xlink:title="AndFunction.html" xlink:type="simple"><rect codeLine="5" fill="#FEFECE" filter="url(#f12ljxgwnk3que)" height="83.5444" id="it.tidalwave.role.ui.function.AndFunction" style="stroke: #A80036; stroke-width: 1.5;" width="259" x="9" y="125"/><ellipse cx="69.75" cy="143.7988" fill="#ADD1B2" rx="11" ry="11" style="stroke: #A80036; stroke-width: 1.0;"/><path d="M67.6563,143.6426 Q67.6563,145.5176 68.2344,146.5332 Q68.8125,147.5332 69.9688,147.5332 Q71.3125,147.5332 71.9688,145.5176 L74.2344,145.9395 Q73.125,149.4707 69.9531,149.4707 Q67.6094,149.4707 66.3906,147.9863 Q65.1719,146.502 65.1719,143.6426 Q65.1719,137.9238 69.875,137.9238 Q71.4219,137.9238 72.4531,138.7363 Q73.5,139.5488 74,141.1582 L71.7344,141.7051 Q71.5,140.8301 71.0156,140.3457 Q70.5313,139.8457 69.9063,139.8457 Q67.6563,139.8457 67.6563,143.6426 Z "/><text fill="#000000" font-family="sans-serif" font-size="14" lengthAdjust="spacingAndGlyphs" textLength="80" x="114.75" y="143.1318">AndFunction</text><text fill="#000000" font-family="sans-serif" font-size="10" lengthAdjust="spacingAndGlyphs" textLength="129" x="90.25" y="155.4785">it.tidalwave.role.ui.function</text><line style="stroke: #A80036; stroke-width: 1.5;" x1="10" x2="267" y1="162.5977" y2="162.5977"/><ellipse cx="20" cy="173.5977" fill="#84BE84" rx="3" ry="3" style="stroke: #038048; stroke-width: 1.0;"/><text fill="#000000" font-family="sans-serif" font-size="11" lengthAdjust="spacingAndGlyphs" textLength="209" x="29" y="176.9155">AndFunction(ChangingSource&lt;Boolean&gt;...)</text><ellipse cx="20" cy="186.2466" fill="#84BE84" rx="3" ry="3" style="stroke: #038048; stroke-width: 1.0;"/><text fill="#000000" font-family="sans-serif" font-size="11" lengthAdjust="spacingAndGlyphs" text-decoration="underline" textLength="233" x="29" y="189.5645">and(ChangingSource&lt;Boolean&gt;...): AndFunction</text><polygon fill="#FFFF44" points="20,193.8955,24,197.8955,20,201.8955,16,197.8955" style="stroke: #B38D22; stroke-width: 1.0;"/><text fill="#000000" font-family="sans-serif" font-size="11" lengthAdjust="spacingAndGlyphs" textLength="91" x="29" y="202.2134">function(): boolean</text></a><!--MD5=[af0ecab7152c3bde6517a3c16503d3ac]
class it.tidalwave.role.ui.function.BooleanBoundFunctionSupport--><a href="BooleanBoundFunctionSupport.html" target="_top" title="BooleanBoundFunctionSupport.html" xlink:actuate="onRequest" xlink:href="BooleanBoundFunctionSupport.html" xlink:show="new" xlink:title="BooleanBoundFunctionSupport.html" xlink:type="simple"><rect codeLine="11" fill="#FEFECE" filter="url(#f12ljxgwnk3que)" height="58.2466" id="it.tidalwave.role.ui.function.BooleanBoundFunctionSupport" style="stroke: #A80036; stroke-width: 1.5;" width="230" x="23.5" y="7"/><ellipse cx="38.5" cy="25.7988" fill="#A9DCDF" rx="11" ry="11" style="stroke: #A80036; stroke-width: 1.0;"/><path d="M43.7031,30.2988 L41.2656,30.2988 L40.5,27.5645 L36.7188,27.5645 L35.9531,30.2988 L33.5,30.2988 L37.1719,19.0957 L40.0313,19.0957 L43.7031,30.2988 Z M38.6094,20.6113 Q38.5313,20.9551 38.3594,21.6582 Q38.1875,22.3457 37.2344,25.7207 L39.9844,25.7207 Q39.0156,22.2988 38.8438,21.627 Q38.6719,20.9551 38.6094,20.6113 Z "/><text fill="#000000" font-family="sans-serif" font-size="14" font-style="italic" lengthAdjust="spacingAndGlyphs" textLength="198" x="52.5" y="25.1318">BooleanBoundFunctionSupport</text><text fill="#000000" font-family="sans-serif" font-size="10" font-style="italic" lengthAdjust="spacingAndGlyphs" textLength="129" x="87" y="37.4785">it.tidalwave.role.ui.function</text><line style="stroke: #A80036; stroke-width: 1.5;" x1="24.5" x2="252.5" y1="44.5977" y2="44.5977"/><polygon fill="#FFFF44" points="34.5,50.5977,38.5,54.5977,34.5,58.5977,30.5,54.5977" style="stroke: #B38D22; stroke-width: 1.0;"/><text fill="#000000" font-family="sans-serif" font-size="11" font-style="italic" lengthAdjust="spacingAndGlyphs" textLength="93" x="43.5" y="58.9155">function(): boolean</text></a><!--MD5=[20cc34e7165abc23449eccd73f1d8237]
reverse link it.tidalwave.role.ui.function.BooleanBoundFunctionSupport to it.tidalwave.role.ui.function.AndFunction--><path codeLine="15" d="M138.5,85.64 C138.5,98.44 138.5,112.14 138.5,124.53 " fill="none" id="it.tidalwave.role.ui.function.BooleanBoundFunctionSupport-backto-it.tidalwave.role.ui.function.AndFunction" style="stroke: #A80036; stroke-width: 1.0;"/><polygon fill="none" points="131.5,85.31,138.5,65.31,145.5,85.31,131.5,85.31" style="stroke: #A80036; stroke-width: 1.0;"/><text fill="#888888" font-family="sans-serif" font-size="10" lengthAdjust="spacingAndGlyphs" textLength="190" x="39.5" y="230.9243">UMLDoclet 2.0.12, PlantUML 1.2020.16</text><!--MD5=[8e9b58c8b0e8b047afd99a81ae4f2c81]
@startuml
    set namespaceSeparator none
    hide empty fields
    hide empty methods

    class "<size:14>AndFunction\n<size:10>it.tidalwave.role.ui.function" as it.tidalwave.role.ui.function.AndFunction [[AndFunction.html]] {
        +AndFunction(ChangingSource<Boolean>...)
        {static} +and(ChangingSource<Boolean>...): AndFunction
        #function(): boolean
    }

    abstract class "<size:14>BooleanBoundFunctionSupport\n<size:10>it.tidalwave.role.ui.function" as it.tidalwave.role.ui.function.BooleanBoundFunctionSupport [[BooleanBoundFunctionSupport.html]] {
        {abstract} #function(): boolean
    }

    it.tidalwave.role.ui.function.BooleanBoundFunctionSupport <|- - it.tidalwave.role.ui.function.AndFunction

    center footer UMLDoclet 2.0.12, PlantUML 1.2020.16
@enduml

PlantUML version 1.2020.16(Sun Aug 23 22:20:43 CEST 2020)
(APACHE source distribution)
Java Runtime: OpenJDK Runtime Environment
JVM: OpenJDK 64-Bit Server VM
Default Encoding: UTF-8
Language: en
Country: US
--></g></svg>