<?xml version="1.0" encoding="UTF-8" standalone="no"?><svg xmlns="http://www.w3.org/2000/svg" xmlns:xlink="http://www.w3.org/1999/xlink" contentScriptType="application/ecmascript" contentStyleType="text/css" height="371px" preserveAspectRatio="none" style="width:239px;height:371px;" version="1.1" viewBox="0 0 239 371" width="239px" zoomAndPan="magnify"><defs><filter height="300%" id="f1x8rkcdu5rf5j" width="300%" x="-1" y="-1"><feGaussianBlur result="blurOut" stdDeviation="2.0"/><feColorMatrix in="blurOut" result="blurOut2" type="matrix" values="0 0 0 0 0 0 0 0 0 0 0 0 0 0 0 0 0 0 .4 0"/><feOffset dx="4.0" dy="4.0" in="blurOut2" result="blurOut3"/><feBlend in="SourceGraphic" in2="blurOut3" mode="normal"/></filter></defs><g><!--MD5=[a047a12e83ad27914db4d67715577449]
class it.tidalwave.accounting.model.Customer.Builder--><a href="Customer.Builder.html" target="_top" title="Customer.Builder.html" xlink:actuate="onRequest" xlink:href="Customer.Builder.html" xlink:show="new" xlink:title="Customer.Builder.html" xlink:type="simple"><rect codeLine="5" fill="#FEFECE" filter="url(#f1x8rkcdu5rf5j)" height="98.0859" id="it.tidalwave.accounting.model.Customer.Builder" style="stroke: #A80036; stroke-width: 1.5;" width="178" x="24.5" y="139"/><ellipse cx="39.5" cy="158.1328" fill="#ADD1B2" rx="11" ry="11" style="stroke: #A80036; stroke-width: 1.0;"/><path d="M41.9731,164.2759 Q41.3921,164.5747 40.7529,164.7241 Q40.1138,164.8735 39.4082,164.8735 Q36.9014,164.8735 35.5815,163.2217 Q34.2617,161.5698 34.2617,158.4487 Q34.2617,155.3193 35.5815,153.6675 Q36.9014,152.0156 39.4082,152.0156 Q40.1138,152.0156 40.7612,152.165 Q41.4087,152.3145 41.9731,152.6133 L41.9731,155.3359 Q41.3423,154.7549 40.7488,154.4851 Q40.1553,154.2153 39.5244,154.2153 Q38.1797,154.2153 37.4949,155.282 Q36.8101,156.3486 36.8101,158.4487 Q36.8101,160.5405 37.4949,161.6072 Q38.1797,162.6738 39.5244,162.6738 Q40.1553,162.6738 40.7488,162.4041 Q41.3423,162.1343 41.9731,161.5532 Z "/><text fill="#000000" font-family="sans-serif" font-size="14" lengthAdjust="spacingAndGlyphs" textLength="119" x="67" y="157.5352">Customer.Builder</text><text fill="#000000" font-family="sans-serif" font-size="10" lengthAdjust="spacingAndGlyphs" textLength="146" x="53.5" y="170.1563">it.tidalwave.accounting.model</text><line style="stroke: #A80036; stroke-width: 1.5;" x1="25.5" x2="201.5" y1="177.2656" y2="177.2656"/><ellipse cx="35.5" cy="188.2656" fill="#84BE84" rx="3" ry="3" style="stroke: #038048; stroke-width: 1.0;"/><text fill="#000000" font-family="sans-serif" font-size="11" lengthAdjust="spacingAndGlyphs" textLength="45" x="44.5" y="191.9004">Builder()</text><ellipse cx="35.5" cy="201.2207" fill="#84BE84" rx="3" ry="3" style="stroke: #038048; stroke-width: 1.0;"/><text fill="#000000" font-family="sans-serif" font-size="11" lengthAdjust="spacingAndGlyphs" textLength="90" x="44.5" y="204.8555">Builder(Callback)</text><ellipse cx="35.5" cy="214.1758" fill="#84BE84" rx="3" ry="3" style="stroke: #038048; stroke-width: 1.0;"/><text fill="#000000" font-family="sans-serif" font-size="11" lengthAdjust="spacingAndGlyphs" textLength="110" x="44.5" y="217.8105">with(Builder): Builder</text><ellipse cx="35.5" cy="227.1309" fill="#84BE84" rx="3" ry="3" style="stroke: #038048; stroke-width: 1.0;"/><text fill="#000000" font-family="sans-serif" font-size="11" lengthAdjust="spacingAndGlyphs" textLength="100" x="44.5" y="230.7656">create(): Customer</text></a><!--MD5=[8d73f8de3bdff122adbc2e23b736a12b]
class it.tidalwave.accounting.model.Customer--><a href="Customer.html" target="_top" title="Customer.html" xlink:actuate="onRequest" xlink:href="Customer.html" xlink:show="new" xlink:title="Customer.html" xlink:type="simple"><rect codeLine="12" fill="#FEFECE" filter="url(#f1x8rkcdu5rf5j)" height="72.1758" id="it.tidalwave.accounting.model.Customer" style="stroke: #A80036; stroke-width: 1.5;" width="178" x="24.5" y="7"/><ellipse cx="39.5" cy="26.1328" fill="#B4A7E5" rx="11" ry="11" style="stroke: #A80036; stroke-width: 1.0;"/><path d="M35.9277,22.3979 L35.9277,20.2397 L43.3071,20.2397 L43.3071,22.3979 L40.8418,22.3979 L40.8418,30.4746 L43.3071,30.4746 L43.3071,32.6328 L35.9277,32.6328 L35.9277,30.4746 L38.3931,30.4746 L38.3931,22.3979 Z "/><text fill="#000000" font-family="sans-serif" font-size="14" font-style="italic" lengthAdjust="spacingAndGlyphs" textLength="67" x="93" y="25.5352">Customer</text><text fill="#000000" font-family="sans-serif" font-size="10" font-style="italic" lengthAdjust="spacingAndGlyphs" textLength="146" x="53.5" y="38.1563">it.tidalwave.accounting.model</text><line style="stroke: #A80036; stroke-width: 1.5;" x1="25.5" x2="201.5" y1="45.2656" y2="45.2656"/><ellipse cx="35.5" cy="56.2656" fill="#84BE84" rx="3" ry="3" style="stroke: #038048; stroke-width: 1.0;"/><text fill="#000000" font-family="sans-serif" font-size="11" font-style="italic" lengthAdjust="spacingAndGlyphs" textLength="149" x="44.5" y="59.9004">findProjects(): ProjectFinder</text><ellipse cx="35.5" cy="69.2207" fill="#84BE84" rx="3" ry="3" style="stroke: #038048; stroke-width: 1.0;"/><text fill="#000000" font-family="sans-serif" font-size="11" font-style="italic" lengthAdjust="spacingAndGlyphs" textLength="99" x="44.5" y="72.8555">toBuilder(): Builder</text></a><!--MD5=[9136c44eeab563c701d22c9bd5e6e56e]
class it.tidalwave.accounting.model.Customer.Builder.Callback--><a href="Customer.Builder.Callback.html" target="_top" title="Customer.Builder.Callback.html" xlink:actuate="onRequest" xlink:href="Customer.Builder.Callback.html" xlink:show="new" xlink:title="Customer.Builder.Callback.html" xlink:type="simple"><rect codeLine="16" fill="#FEFECE" filter="url(#f1x8rkcdu5rf5j)" height="38.2656" id="it.tidalwave.accounting.model.Customer.Builder.Callback" style="stroke: #A80036; stroke-width: 1.5;" width="213" x="7" y="297"/><ellipse cx="22" cy="316.1328" fill="#B4A7E5" rx="11" ry="11" style="stroke: #A80036; stroke-width: 1.0;"/><path d="M18.4277,312.3979 L18.4277,310.2397 L25.8071,310.2397 L25.8071,312.3979 L23.3418,312.3979 L23.3418,320.4746 L25.8071,320.4746 L25.8071,322.6328 L18.4277,322.6328 L18.4277,320.4746 L20.8931,320.4746 L20.8931,312.3979 Z "/><text fill="#000000" font-family="sans-serif" font-size="14" font-style="italic" lengthAdjust="spacingAndGlyphs" textLength="181" x="36" y="315.5352">Customer.Builder.Callback</text><text fill="#000000" font-family="sans-serif" font-size="10" font-style="italic" lengthAdjust="spacingAndGlyphs" textLength="146" x="53.5" y="328.1563">it.tidalwave.accounting.model</text></a><!--MD5=[6ac97efcb9eebf6844f8cea53d74b5ab]
reverse link it.tidalwave.accounting.model.Customer to it.tidalwave.accounting.model.Customer.Builder--><path codeLine="18" d="M113.5,94.3182 C113.5,108.7967 113.5,124.5107 113.5,138.8583 " fill="none" id="it.tidalwave.accounting.model.Customer-backto-it.tidalwave.accounting.model.Customer.Builder" style="stroke: #A80036; stroke-width: 1.0;"/><ellipse cx="113.5" cy="87.2156" fill="#FFFFFF" rx="8" ry="8" style="stroke: #A80036; stroke-width: 1.0;"/><line style="stroke: #A80036; stroke-width: 1.0;" x1="113.5" x2="113.5" y1="95.2156" y2="79.2156"/><line style="stroke: #A80036; stroke-width: 1.0;" x1="105.5" x2="121.5" y1="87.2156" y2="87.2156"/><!--MD5=[b518f8e8f9d082c6164b9ed38646d882]
reverse link it.tidalwave.accounting.model.Customer.Builder to it.tidalwave.accounting.model.Customer.Builder.Callback--><path codeLine="19" d="M113.5,252.291 C113.5,268.5844 113.5,284.8528 113.5,296.8717 " fill="none" id="it.tidalwave.accounting.model.Customer.Builder-backto-it.tidalwave.accounting.model.Customer.Builder.Callback" style="stroke: #A80036; stroke-width: 1.0;"/><ellipse cx="113.5001" cy="245.1221" fill="#FFFFFF" rx="8" ry="8" style="stroke: #A80036; stroke-width: 1.0;"/><line style="stroke: #A80036; stroke-width: 1.0;" x1="113.5002" x2="113.5" y1="253.1221" y2="237.1221"/><line style="stroke: #A80036; stroke-width: 1.0;" x1="105.5001" x2="121.5001" y1="245.1222" y2="245.122"/><text fill="#888888" font-family="sans-serif" font-size="10" lengthAdjust="spacingAndGlyphs" textLength="188" x="16.5" y="357.9336">UMLDoclet 2.0.12, PlantUML 1.2020.16</text><!--MD5=[e7f871f39e9c5c4557a6c77e19dc6aa1]
@startuml
    set namespaceSeparator none
    hide empty fields
    hide empty methods

    class "<size:14>Customer.Builder\n<size:10>it.tidalwave.accounting.model" as it.tidalwave.accounting.model.Customer.Builder [[Customer.Builder.html]] {
        +Builder()
        +Builder(Callback)
        +with(Builder): Builder
        +create(): Customer
    }

    interface "<size:14>Customer\n<size:10>it.tidalwave.accounting.model" as it.tidalwave.accounting.model.Customer [[Customer.html]] {
        {abstract} +findProjects(): ProjectFinder
        {abstract} +toBuilder(): Builder
    }
    interface "<size:14>Customer.Builder.Callback\n<size:10>it.tidalwave.accounting.model" as it.tidalwave.accounting.model.Customer.Builder.Callback [[Customer.Builder.Callback.html]]

    it.tidalwave.accounting.model.Customer +- - it.tidalwave.accounting.model.Customer.Builder
    it.tidalwave.accounting.model.Customer.Builder +- - it.tidalwave.accounting.model.Customer.Builder.Callback

    center footer UMLDoclet 2.0.12, PlantUML 1.2020.16
@enduml

PlantUML version 1.2020.16(Sun Aug 23 22:20:43 CEST 2020)
(APACHE source distribution)
Java Runtime: OpenJDK Runtime Environment
JVM: OpenJDK 64-Bit Server VM
Default Encoding: UTF-8
Language: en
Country: GB
--></g></svg>