<?xml version="1.0" encoding="UTF-8" standalone="no"?><svg xmlns="http://www.w3.org/2000/svg" xmlns:xlink="http://www.w3.org/1999/xlink" contentScriptType="application/ecmascript" contentStyleType="text/css" height="117px" preserveAspectRatio="none" style="width:369px;height:117px;" version="1.1" viewBox="0 0 369 117" width="369px" zoomAndPan="magnify"><defs><filter height="300%" id="f2kg43dro56m6" width="300%" x="-1" y="-1"><feGaussianBlur result="blurOut" stdDeviation="2.0"/><feColorMatrix in="blurOut" result="blurOut2" type="matrix" values="0 0 0 0 0 0 0 0 0 0 0 0 0 0 0 0 0 0 .4 0"/><feOffset dx="4.0" dy="4.0" in="blurOut2" result="blurOut3"/><feBlend in="SourceGraphic" in2="blurOut3" mode="normal"/></filter></defs><g><!--MD5=[2ad36e130111f426e2e9b1c782341479]
class it.tidalwave.accounting.model.HourlyReportGenerator--><a href="HourlyReportGenerator.html" target="_top" title="HourlyReportGenerator.html" xlink:actuate="onRequest" xlink:href="HourlyReportGenerator.html" xlink:show="new" xlink:title="HourlyReportGenerator.html" xlink:type="simple"><rect codeLine="5" fill="#FEFECE" filter="url(#f2kg43dro56m6)" height="80.1758" id="it.tidalwave.accounting.model.HourlyReportGenerator" style="stroke: #A80036; stroke-width: 1.5;" width="343" x="7" y="7"/><ellipse cx="94.25" cy="26.1328" fill="#B4A7E5" rx="11" ry="11" style="stroke: #A80036; stroke-width: 1.0;"/><path d="M90.6777,22.3979 L90.6777,20.2397 L98.0571,20.2397 L98.0571,22.3979 L95.5918,22.3979 L95.5918,30.4746 L98.0571,30.4746 L98.0571,32.6328 L90.6777,32.6328 L90.6777,30.4746 L93.1431,30.4746 L93.1431,22.3979 Z "/><text fill="#000000" font-family="sans-serif" font-size="14" font-style="italic" lengthAdjust="spacingAndGlyphs" textLength="160" x="114.75" y="25.5352">HourlyReportGenerator</text><text fill="#000000" font-family="sans-serif" font-size="10" font-style="italic" lengthAdjust="spacingAndGlyphs" textLength="146" x="121.75" y="38.1563">it.tidalwave.accounting.model</text><line style="stroke: #A80036; stroke-width: 1.5;" x1="8" x2="349" y1="45.2656" y2="45.2656"/><ellipse cx="18" cy="56.2656" fill="none" rx="3" ry="3" style="stroke: #038048; stroke-width: 1.0;"/><text fill="#000000" font-family="sans-serif" font-size="11" lengthAdjust="spacingAndGlyphs" text-decoration="underline" textLength="317" x="27" y="59.9004">_HourlyReportGenerator_: Class&lt;HourlyReportGenerator&gt;</text><line style="stroke: #A80036; stroke-width: 1.5;" x1="8" x2="349" y1="66.2207" y2="66.2207"/><ellipse cx="18" cy="77.2207" fill="#84BE84" rx="3" ry="3" style="stroke: #038048; stroke-width: 1.0;"/><text fill="#000000" font-family="sans-serif" font-size="11" font-style="italic" lengthAdjust="spacingAndGlyphs" textLength="155" x="27" y="80.8555">createReport(): HourlyReport</text></a><text fill="#888888" font-family="sans-serif" font-size="10" lengthAdjust="spacingAndGlyphs" textLength="188" x="84.5" y="103.8438">UMLDoclet 2.0.12, PlantUML 1.2020.16</text><!--MD5=[6f4a91e885d0ff2fd607fd2a8ff6bdfa]
@startuml
    set namespaceSeparator none
    hide empty fields
    hide empty methods

    interface "<size:14>HourlyReportGenerator\n<size:10>it.tidalwave.accounting.model" as it.tidalwave.accounting.model.HourlyReportGenerator [[HourlyReportGenerator.html]] {
        {static} +_HourlyReportGenerator_: Class<HourlyReportGenerator>
        {abstract} +createReport(): HourlyReport
    }

    center footer UMLDoclet 2.0.12, PlantUML 1.2020.16
@enduml

PlantUML version 1.2020.16(Sun Aug 23 22:20:43 CEST 2020)
(APACHE source distribution)
Java Runtime: OpenJDK Runtime Environment
JVM: OpenJDK 64-Bit Server VM
Default Encoding: UTF-8
Language: en
Country: GB
--></g></svg>