<?xml version="1.0" encoding="UTF-8" standalone="no"?><svg xmlns="http://www.w3.org/2000/svg" xmlns:xlink="http://www.w3.org/1999/xlink" contentScriptType="application/ecmascript" contentStyleType="text/css" height="358px" preserveAspectRatio="none" style="width:421px;height:358px;" version="1.1" viewBox="0 0 421 358" width="421px" zoomAndPan="magnify"><defs><filter height="300%" id="fdntgewxmupuk" width="300%" x="-1" y="-1"><feGaussianBlur result="blurOut" stdDeviation="2.0"/><feColorMatrix in="blurOut" result="blurOut2" type="matrix" values="0 0 0 0 0 0 0 0 0 0 0 0 0 0 0 0 0 0 .4 0"/><feOffset dx="4.0" dy="4.0" in="blurOut2" result="blurOut3"/><feBlend in="SourceGraphic" in2="blurOut3" mode="normal"/></filter></defs><g><!--MD5=[08f43829395fc4097629c6b383b8acbc]
class it.tidalwave.accounting.model.Invoice--><a href="Invoice.html" target="_top" title="Invoice.html" xlink:actuate="onRequest" xlink:href="Invoice.html" xlink:show="new" xlink:title="Invoice.html" xlink:type="simple"><rect codeLine="5" fill="#FEFECE" filter="url(#fdntgewxmupuk)" height="72.1758" id="it.tidalwave.accounting.model.Invoice" style="stroke: #A80036; stroke-width: 1.5;" width="211" x="64" y="152"/><ellipse cx="93.85" cy="171.1328" fill="#B4A7E5" rx="11" ry="11" style="stroke: #A80036; stroke-width: 1.0;"/><path d="M90.2777,167.3979 L90.2777,165.2397 L97.6571,165.2397 L97.6571,167.3979 L95.1918,167.3979 L95.1918,175.4746 L97.6571,175.4746 L97.6571,177.6328 L90.2777,177.6328 L90.2777,175.4746 L92.7431,175.4746 L92.7431,167.3979 Z "/><text fill="#000000" font-family="sans-serif" font-size="14" font-style="italic" lengthAdjust="spacingAndGlyphs" textLength="48" x="160.15" y="170.5352">Invoice</text><text fill="#000000" font-family="sans-serif" font-size="10" font-style="italic" lengthAdjust="spacingAndGlyphs" textLength="146" x="111.15" y="183.1563">it.tidalwave.accounting.model</text><line style="stroke: #A80036; stroke-width: 1.5;" x1="65" x2="274" y1="190.2656" y2="190.2656"/><ellipse cx="75" cy="201.2656" fill="#84BE84" rx="3" ry="3" style="stroke: #038048; stroke-width: 1.0;"/><text fill="#000000" font-family="sans-serif" font-size="11" font-style="italic" lengthAdjust="spacingAndGlyphs" textLength="185" x="84" y="204.9004">findJobEvents(): Finder&lt;JobEvent&gt;</text><ellipse cx="75" cy="214.2207" fill="#84BE84" rx="3" ry="3" style="stroke: #038048; stroke-width: 1.0;"/><text fill="#000000" font-family="sans-serif" font-size="11" font-style="italic" lengthAdjust="spacingAndGlyphs" textLength="99" x="84" y="217.8555">toBuilder(): Builder</text></a><!--MD5=[f40774d2c0efa8b70d7c747ac61cb911]
class it.tidalwave.role.Identifiable--><rect codeLine="10" fill="#FEFECE" filter="url(#fdntgewxmupuk)" height="59.2207" id="it.tidalwave.role.Identifiable" style="stroke: #A80036; stroke-width: 1.5;" width="111" x="7" y="20"/><ellipse cx="22" cy="39.1328" fill="#B4A7E5" rx="11" ry="11" style="stroke: #A80036; stroke-width: 1.0;"/><path d="M18.4277,35.3979 L18.4277,33.2397 L25.8071,33.2397 L25.8071,35.3979 L23.3418,35.3979 L23.3418,43.4746 L25.8071,43.4746 L25.8071,45.6328 L18.4277,45.6328 L18.4277,43.4746 L20.8931,43.4746 L20.8931,35.3979 Z "/><text fill="#000000" font-family="sans-serif" font-size="14" font-style="italic" lengthAdjust="spacingAndGlyphs" textLength="77" x="37" y="38.5352">Identifiable</text><text fill="#000000" font-family="sans-serif" font-size="10" font-style="italic" lengthAdjust="spacingAndGlyphs" textLength="79" x="36" y="51.1563">it.tidalwave.role</text><line style="stroke: #A80036; stroke-width: 1.5;" x1="8" x2="117" y1="58.2656" y2="58.2656"/><ellipse cx="18" cy="69.2656" fill="#84BE84" rx="3" ry="3" style="stroke: #038048; stroke-width: 1.0;"/><text fill="#000000" font-family="sans-serif" font-size="11" font-style="italic" lengthAdjust="spacingAndGlyphs" textLength="51" x="27" y="72.9004">getId(): Id</text><!--MD5=[dab04e1bf87902def4158d0914d2f9d5]
class it.tidalwave.util.As--><rect codeLine="13" fill="#FEFECE" filter="url(#fdntgewxmupuk)" height="85.1309" id="it.tidalwave.util.As" style="stroke: #A80036; stroke-width: 1.5;" width="250" x="152.5" y="7"/><ellipse cx="235.25" cy="26.1328" fill="#B4A7E5" rx="11" ry="11" style="stroke: #A80036; stroke-width: 1.0;"/><path d="M231.6777,22.3979 L231.6777,20.2397 L239.0571,20.2397 L239.0571,22.3979 L236.5918,22.3979 L236.5918,30.4746 L239.0571,30.4746 L239.0571,32.6328 L231.6777,32.6328 L231.6777,30.4746 L234.1431,30.4746 L234.1431,22.3979 Z "/><text fill="#000000" font-family="sans-serif" font-size="14" font-style="italic" lengthAdjust="spacingAndGlyphs" textLength="17" x="285.25" y="25.5352">As</text><text fill="#000000" font-family="sans-serif" font-size="10" font-style="italic" lengthAdjust="spacingAndGlyphs" textLength="76" x="255.75" y="38.1563">it.tidalwave.util</text><line style="stroke: #A80036; stroke-width: 1.5;" x1="153.5" x2="401.5" y1="45.2656" y2="45.2656"/><ellipse cx="163.5" cy="56.2656" fill="#84BE84" rx="3" ry="3" style="stroke: #038048; stroke-width: 1.0;"/><text fill="#000000" font-family="sans-serif" font-size="11" font-style="italic" lengthAdjust="spacingAndGlyphs" textLength="87" x="172.5" y="59.9004">as(Class&lt;T&gt;): T</text><ellipse cx="163.5" cy="69.2207" fill="#84BE84" rx="3" ry="3" style="stroke: #038048; stroke-width: 1.0;"/><text fill="#000000" font-family="sans-serif" font-size="11" font-style="italic" lengthAdjust="spacingAndGlyphs" textLength="224" x="172.5" y="72.8555">as(Class&lt;T&gt;, NotFoundBehaviour&lt;T&gt;): T</text><ellipse cx="163.5" cy="82.1758" fill="#84BE84" rx="3" ry="3" style="stroke: #038048; stroke-width: 1.0;"/><text fill="#000000" font-family="sans-serif" font-size="11" font-style="italic" lengthAdjust="spacingAndGlyphs" textLength="187" x="172.5" y="85.8105">asMany(Class&lt;T&gt;): Collection&lt;T&gt;</text><!--MD5=[2b951544ac171888fa298b3fe2eb8b54]
class it.tidalwave.accounting.model.Invoice.Builder--><a href="Invoice.Builder.html" target="_top" title="Invoice.Builder.html" xlink:actuate="onRequest" xlink:href="Invoice.Builder.html" xlink:show="new" xlink:title="Invoice.Builder.html" xlink:type="simple"><rect codeLine="18" fill="#FEFECE" filter="url(#fdntgewxmupuk)" height="38.2656" id="it.tidalwave.accounting.model.Invoice.Builder" style="stroke: #A80036; stroke-width: 1.5;" width="178" x="80.5" y="284"/><ellipse cx="95.5" cy="303.1328" fill="#ADD1B2" rx="11" ry="11" style="stroke: #A80036; stroke-width: 1.0;"/><path d="M97.9731,309.2759 Q97.3921,309.5747 96.7529,309.7241 Q96.1138,309.8735 95.4082,309.8735 Q92.9014,309.8735 91.5815,308.2217 Q90.2617,306.5698 90.2617,303.4487 Q90.2617,300.3193 91.5815,298.6675 Q92.9014,297.0156 95.4082,297.0156 Q96.1138,297.0156 96.7612,297.165 Q97.4087,297.3145 97.9731,297.6133 L97.9731,300.3359 Q97.3423,299.7549 96.7488,299.4851 Q96.1553,299.2153 95.5244,299.2153 Q94.1797,299.2153 93.4949,300.282 Q92.8101,301.3486 92.8101,303.4487 Q92.8101,305.5405 93.4949,306.6072 Q94.1797,307.6738 95.5244,307.6738 Q96.1553,307.6738 96.7488,307.4041 Q97.3423,307.1343 97.9731,306.5532 Z "/><text fill="#000000" font-family="sans-serif" font-size="14" lengthAdjust="spacingAndGlyphs" textLength="100" x="132.5" y="302.5352">Invoice.Builder</text><text fill="#000000" font-family="sans-serif" font-size="10" lengthAdjust="spacingAndGlyphs" textLength="146" x="109.5" y="315.1563">it.tidalwave.accounting.model</text></a><!--MD5=[990959d33188a99116fad9dad17c2c79]
reverse link it.tidalwave.role.Identifiable to it.tidalwave.accounting.model.Invoice--><path codeLine="20" d="M97.8449,95.2502 C112.081,113.6773 128.2629,134.623 141.6424,151.9413 " fill="none" id="it.tidalwave.role.Identifiable-backto-it.tidalwave.accounting.model.Invoice" style="stroke: #A80036; stroke-width: 1.0;"/><polygon fill="none" points="92.1421,99.3183,85.4542,79.2117,103.221,90.7591,92.1421,99.3183" style="stroke: #A80036; stroke-width: 1.0;"/><!--MD5=[bba6defd37a9efac6cf2b381ec1f638a]
reverse link it.tidalwave.util.As to it.tidalwave.accounting.model.Invoice--><path codeLine="21" d="M231.573,108.3972 C220.0868,123.1272 208.102,138.4965 197.7611,151.7578 " fill="none" id="it.tidalwave.util.As-backto-it.tidalwave.accounting.model.Invoice" style="stroke: #A80036; stroke-width: 1.0;"/><polygon fill="none" points="226.3965,103.6519,244.2152,92.1847,237.4367,112.2609,226.3965,103.6519" style="stroke: #A80036; stroke-width: 1.0;"/><!--MD5=[b1e82ec7fd1d10b40ca078f8d737598a]
reverse link it.tidalwave.accounting.model.Invoice to it.tidalwave.accounting.model.Invoice.Builder--><path codeLine="22" d="M169.5,239.4527 C169.5,255.2168 169.5,271.5939 169.5,283.7739 " fill="none" id="it.tidalwave.accounting.model.Invoice-backto-it.tidalwave.accounting.model.Invoice.Builder" style="stroke: #A80036; stroke-width: 1.0;"/><ellipse cx="169.5" cy="232.0712" fill="#FFFFFF" rx="8" ry="8" style="stroke: #A80036; stroke-width: 1.0;"/><line style="stroke: #A80036; stroke-width: 1.0;" x1="169.5" x2="169.5" y1="240.0712" y2="224.0712"/><line style="stroke: #A80036; stroke-width: 1.0;" x1="161.5" x2="177.5" y1="232.0712" y2="232.0712"/><text fill="#888888" font-family="sans-serif" font-size="10" lengthAdjust="spacingAndGlyphs" textLength="188" x="107.75" y="344.9336">UMLDoclet 2.0.12, PlantUML 1.2020.16</text><!--MD5=[b1f85f2f883c7cfc286f1248132b9bea]
@startuml
    set namespaceSeparator none
    hide empty fields
    hide empty methods

    interface "<size:14>Invoice\n<size:10>it.tidalwave.accounting.model" as it.tidalwave.accounting.model.Invoice [[Invoice.html]] {
        {abstract} +findJobEvents(): Finder<JobEvent>
        {abstract} +toBuilder(): Builder
    }

    interface "<size:14>Identifiable\n<size:10>it.tidalwave.role" as it.tidalwave.role.Identifiable {
        {abstract} +getId(): Id
    }
    interface "<size:14>As\n<size:10>it.tidalwave.util" as it.tidalwave.util.As {
        {abstract} +as(Class<T>): T
        {abstract} +as(Class<T>, NotFoundBehaviour<T>): T
        {abstract} +asMany(Class<T>): Collection<T>
    }
    class "<size:14>Invoice.Builder\n<size:10>it.tidalwave.accounting.model" as it.tidalwave.accounting.model.Invoice.Builder [[Invoice.Builder.html]]

    it.tidalwave.role.Identifiable <|- - it.tidalwave.accounting.model.Invoice
    it.tidalwave.util.As <|- - it.tidalwave.accounting.model.Invoice
    it.tidalwave.accounting.model.Invoice +- - it.tidalwave.accounting.model.Invoice.Builder

    center footer UMLDoclet 2.0.12, PlantUML 1.2020.16
@enduml

PlantUML version 1.2020.16(Sun Aug 23 22:20:43 CEST 2020)
(APACHE source distribution)
Java Runtime: OpenJDK Runtime Environment
JVM: OpenJDK 64-Bit Server VM
Default Encoding: UTF-8
Language: en
Country: GB
--></g></svg>