@startuml
    set namespaceSeparator none
    hide empty fields
    hide empty methods

    class "<size:14>JobEvent.Builder\n<size:10>it.tidalwave.accounting.model" as it.tidalwave.accounting.model.JobEvent.Builder [[JobEvent.Builder.html]] {
        +create(): JobEvent
    }

    interface "<size:14>JobEvent\n<size:10>it.tidalwave.accounting.model" as it.tidalwave.accounting.model.JobEvent [[JobEvent.html]] {
        {abstract} +toBuilder(): Builder
    }

    it.tidalwave.accounting.model.JobEvent +-- it.tidalwave.accounting.model.JobEvent.Builder

    center footer UMLDoclet 2.0.12, PlantUML 1.2020.16
@enduml
