<?xml version="1.0" encoding="UTF-8" standalone="no"?><svg xmlns="http://www.w3.org/2000/svg" xmlns:xlink="http://www.w3.org/1999/xlink" contentScriptType="application/ecmascript" contentStyleType="text/css" height="221px" preserveAspectRatio="none" style="width:205px;height:221px;" version="1.1" viewBox="0 0 205 221" width="205px" zoomAndPan="magnify"><defs><filter height="300%" id="f1ofa34ia8xrnp" width="300%" x="-1" y="-1"><feGaussianBlur result="blurOut" stdDeviation="2.0"/><feColorMatrix in="blurOut" result="blurOut2" type="matrix" values="0 0 0 0 0 0 0 0 0 0 0 0 0 0 0 0 0 0 .4 0"/><feOffset dx="4.0" dy="4.0" in="blurOut2" result="blurOut3"/><feBlend in="SourceGraphic" in2="blurOut3" mode="normal"/></filter></defs><g><!--MD5=[164b3ff07a58fb76cc84362ae7fc2c4f]
class it.tidalwave.accounting.model.JobEvent.Builder--><a href="JobEvent.Builder.html" target="_top" title="JobEvent.Builder.html" xlink:actuate="onRequest" xlink:href="JobEvent.Builder.html" xlink:show="new" xlink:title="JobEvent.Builder.html" xlink:type="simple"><rect codeLine="5" fill="#FEFECE" filter="url(#f1ofa34ia8xrnp)" height="59.2207" id="it.tidalwave.accounting.model.JobEvent.Builder" style="stroke: #A80036; stroke-width: 1.5;" width="178" x="8" y="126"/><ellipse cx="23" cy="145.1328" fill="#ADD1B2" rx="11" ry="11" style="stroke: #A80036; stroke-width: 1.0;"/><path d="M25.4731,151.2759 Q24.8921,151.5747 24.2529,151.7241 Q23.6138,151.8735 22.9082,151.8735 Q20.4014,151.8735 19.0815,150.2217 Q17.7617,148.5698 17.7617,145.4487 Q17.7617,142.3193 19.0815,140.6675 Q20.4014,139.0156 22.9082,139.0156 Q23.6138,139.0156 24.2612,139.165 Q24.9087,139.3145 25.4731,139.6133 L25.4731,142.3359 Q24.8423,141.7549 24.2488,141.4851 Q23.6553,141.2153 23.0244,141.2153 Q21.6797,141.2153 20.9949,142.282 Q20.3101,143.3486 20.3101,145.4487 Q20.3101,147.5405 20.9949,148.6072 Q21.6797,149.6738 23.0244,149.6738 Q23.6553,149.6738 24.2488,149.4041 Q24.8423,149.1343 25.4731,148.5532 Z "/><text fill="#000000" font-family="sans-serif" font-size="14" lengthAdjust="spacingAndGlyphs" textLength="111" x="54.5" y="144.5352">JobEvent.Builder</text><text fill="#000000" font-family="sans-serif" font-size="10" lengthAdjust="spacingAndGlyphs" textLength="146" x="37" y="157.1563">it.tidalwave.accounting.model</text><line style="stroke: #A80036; stroke-width: 1.5;" x1="9" x2="185" y1="164.2656" y2="164.2656"/><ellipse cx="19" cy="175.2656" fill="#84BE84" rx="3" ry="3" style="stroke: #038048; stroke-width: 1.0;"/><text fill="#000000" font-family="sans-serif" font-size="11" lengthAdjust="spacingAndGlyphs" textLength="93" x="28" y="178.9004">create(): JobEvent</text></a><!--MD5=[e6300ef62a5897d5e1ad06847d233380]
class it.tidalwave.accounting.model.JobEvent--><a href="JobEvent.html" target="_top" title="JobEvent.html" xlink:actuate="onRequest" xlink:href="JobEvent.html" xlink:show="new" xlink:title="JobEvent.html" xlink:type="simple"><rect codeLine="9" fill="#FEFECE" filter="url(#f1ofa34ia8xrnp)" height="59.2207" id="it.tidalwave.accounting.model.JobEvent" style="stroke: #A80036; stroke-width: 1.5;" width="178" x="8" y="7"/><ellipse cx="23" cy="26.1328" fill="#B4A7E5" rx="11" ry="11" style="stroke: #A80036; stroke-width: 1.0;"/><path d="M19.4277,22.3979 L19.4277,20.2397 L26.8071,20.2397 L26.8071,22.3979 L24.3418,22.3979 L24.3418,30.4746 L26.8071,30.4746 L26.8071,32.6328 L19.4277,32.6328 L19.4277,30.4746 L21.8931,30.4746 L21.8931,22.3979 Z "/><text fill="#000000" font-family="sans-serif" font-size="14" font-style="italic" lengthAdjust="spacingAndGlyphs" textLength="59" x="80.5" y="25.5352">JobEvent</text><text fill="#000000" font-family="sans-serif" font-size="10" font-style="italic" lengthAdjust="spacingAndGlyphs" textLength="146" x="37" y="38.1563">it.tidalwave.accounting.model</text><line style="stroke: #A80036; stroke-width: 1.5;" x1="9" x2="185" y1="45.2656" y2="45.2656"/><ellipse cx="19" cy="56.2656" fill="#84BE84" rx="3" ry="3" style="stroke: #038048; stroke-width: 1.0;"/><text fill="#000000" font-family="sans-serif" font-size="11" font-style="italic" lengthAdjust="spacingAndGlyphs" textLength="99" x="28" y="59.9004">toBuilder(): Builder</text></a><!--MD5=[629f04346de91e9bb0aa1521e3cdfe54]
reverse link it.tidalwave.accounting.model.JobEvent to it.tidalwave.accounting.model.JobEvent.Builder--><path codeLine="13" d="M97,81.5744 C97,96.3522 97,112.3935 97,125.7447 " fill="none" id="it.tidalwave.accounting.model.JobEvent-backto-it.tidalwave.accounting.model.JobEvent.Builder" style="stroke: #A80036; stroke-width: 1.0;"/><ellipse cx="97.0001" cy="74.2218" fill="#FFFFFF" rx="8" ry="8" style="stroke: #A80036; stroke-width: 1.0;"/><line style="stroke: #A80036; stroke-width: 1.0;" x1="97.0002" x2="97" y1="82.2218" y2="66.2218"/><line style="stroke: #A80036; stroke-width: 1.0;" x1="89.0001" x2="105.0001" y1="74.2219" y2="74.2217"/><text fill="#888888" font-family="sans-serif" font-size="10" lengthAdjust="spacingAndGlyphs" textLength="188" x="0" y="207.8887">UMLDoclet 2.0.12, PlantUML 1.2020.16</text><!--MD5=[114dbe24ce80853efbfd4ea73c508c1b]
@startuml
    set namespaceSeparator none
    hide empty fields
    hide empty methods

    class "<size:14>JobEvent.Builder\n<size:10>it.tidalwave.accounting.model" as it.tidalwave.accounting.model.JobEvent.Builder [[JobEvent.Builder.html]] {
        +create(): JobEvent
    }

    interface "<size:14>JobEvent\n<size:10>it.tidalwave.accounting.model" as it.tidalwave.accounting.model.JobEvent [[JobEvent.html]] {
        {abstract} +toBuilder(): Builder
    }

    it.tidalwave.accounting.model.JobEvent +- - it.tidalwave.accounting.model.JobEvent.Builder

    center footer UMLDoclet 2.0.12, PlantUML 1.2020.16
@enduml

PlantUML version 1.2020.16(Sun Aug 23 22:20:43 CEST 2020)
(APACHE source distribution)
Java Runtime: OpenJDK Runtime Environment
JVM: OpenJDK 64-Bit Server VM
Default Encoding: UTF-8
Language: en
Country: GB
--></g></svg>