<?xml version="1.0" encoding="UTF-8" standalone="no"?><svg xmlns="http://www.w3.org/2000/svg" xmlns:xlink="http://www.w3.org/1999/xlink" contentScriptType="application/ecmascript" contentStyleType="text/css" height="221px" preserveAspectRatio="none" style="width:219px;height:221px;" version="1.1" viewBox="0 0 219 221" width="219px" zoomAndPan="magnify"><defs><filter height="300%" id="f1o6c4la4cyq3" width="300%" x="-1" y="-1"><feGaussianBlur result="blurOut" stdDeviation="2.0"/><feColorMatrix in="blurOut" result="blurOut2" type="matrix" values="0 0 0 0 0 0 0 0 0 0 0 0 0 0 0 0 0 0 .4 0"/><feOffset dx="4.0" dy="4.0" in="blurOut2" result="blurOut3"/><feBlend in="SourceGraphic" in2="blurOut3" mode="normal"/></filter></defs><g><!--MD5=[71a389be3b48a2990893371423ff10f8]
class it.tidalwave.accounting.model.Project.Builder.Callback--><a href="Project.Builder.Callback.html" target="_top" title="Project.Builder.Callback.html" xlink:actuate="onRequest" xlink:href="Project.Builder.Callback.html" xlink:show="new" xlink:title="Project.Builder.Callback.html" xlink:type="simple"><rect codeLine="5" fill="#FEFECE" filter="url(#f1o6c4la4cyq3)" height="80.1758" id="it.tidalwave.accounting.model.Project.Builder.Callback" style="stroke: #A80036; stroke-width: 1.5;" width="193" x="7" y="105"/><ellipse cx="22" cy="124.1328" fill="#B4A7E5" rx="11" ry="11" style="stroke: #A80036; stroke-width: 1.0;"/><path d="M18.4277,120.3979 L18.4277,118.2397 L25.8071,118.2397 L25.8071,120.3979 L23.3418,120.3979 L23.3418,128.4746 L25.8071,128.4746 L25.8071,130.6328 L18.4277,130.6328 L18.4277,128.4746 L20.8931,128.4746 L20.8931,120.3979 Z "/><text fill="#000000" font-family="sans-serif" font-size="14" font-style="italic" lengthAdjust="spacingAndGlyphs" textLength="161" x="36" y="123.5352">Project.Builder.Callback</text><text fill="#000000" font-family="sans-serif" font-size="10" font-style="italic" lengthAdjust="spacingAndGlyphs" textLength="146" x="43.5" y="136.1563">it.tidalwave.accounting.model</text><line style="stroke: #A80036; stroke-width: 1.5;" x1="8" x2="199" y1="143.2656" y2="143.2656"/><ellipse cx="18" cy="154.2656" fill="none" rx="3" ry="3" style="stroke: #038048; stroke-width: 1.0;"/><text fill="#000000" font-family="sans-serif" font-size="11" lengthAdjust="spacingAndGlyphs" text-decoration="underline" textLength="100" x="27" y="157.9004">DEFAULT: Callback</text><line style="stroke: #A80036; stroke-width: 1.5;" x1="8" x2="199" y1="164.2207" y2="164.2207"/><ellipse cx="18" cy="175.2207" fill="#84BE84" rx="3" ry="3" style="stroke: #038048; stroke-width: 1.0;"/><text fill="#000000" font-family="sans-serif" font-size="11" font-style="italic" lengthAdjust="spacingAndGlyphs" textLength="116" x="27" y="178.8555">register(Project): void</text></a><!--MD5=[eff80981e2fc6a5448de0e2a7b920162]
class it.tidalwave.accounting.model.Project.Builder--><a href="Project.Builder.html" target="_top" title="Project.Builder.html" xlink:actuate="onRequest" xlink:href="Project.Builder.html" xlink:show="new" xlink:title="Project.Builder.html" xlink:type="simple"><rect codeLine="10" fill="#FEFECE" filter="url(#f1o6c4la4cyq3)" height="38.2656" id="it.tidalwave.accounting.model.Project.Builder" style="stroke: #A80036; stroke-width: 1.5;" width="178" x="14.5" y="7"/><ellipse cx="29.5" cy="26.1328" fill="#ADD1B2" rx="11" ry="11" style="stroke: #A80036; stroke-width: 1.0;"/><path d="M31.9731,32.2759 Q31.3921,32.5747 30.7529,32.7241 Q30.1138,32.8735 29.4082,32.8735 Q26.9014,32.8735 25.5815,31.2217 Q24.2617,29.5698 24.2617,26.4487 Q24.2617,23.3193 25.5815,21.6675 Q26.9014,20.0156 29.4082,20.0156 Q30.1138,20.0156 30.7612,20.165 Q31.4087,20.3145 31.9731,20.6133 L31.9731,23.3359 Q31.3423,22.7549 30.7488,22.4851 Q30.1553,22.2153 29.5244,22.2153 Q28.1797,22.2153 27.4949,23.282 Q26.8101,24.3486 26.8101,26.4487 Q26.8101,28.5405 27.4949,29.6072 Q28.1797,30.6738 29.5244,30.6738 Q30.1553,30.6738 30.7488,30.4041 Q31.3423,30.1343 31.9731,29.5532 Z "/><text fill="#000000" font-family="sans-serif" font-size="14" lengthAdjust="spacingAndGlyphs" textLength="99" x="67" y="25.5352">Project.Builder</text><text fill="#000000" font-family="sans-serif" font-size="10" lengthAdjust="spacingAndGlyphs" textLength="146" x="43.5" y="38.1563">it.tidalwave.accounting.model</text></a><!--MD5=[74bf73390d9c1a3927ab66db16813d27]
reverse link it.tidalwave.accounting.model.Project.Builder to it.tidalwave.accounting.model.Project.Builder.Callback--><path codeLine="12" d="M103.5,60.1646 C103.5,74.0722 103.5,90.2507 103.5,104.7276 " fill="none" id="it.tidalwave.accounting.model.Project.Builder-backto-it.tidalwave.accounting.model.Project.Builder.Callback" style="stroke: #A80036; stroke-width: 1.0;"/><ellipse cx="103.5" cy="53.1194" fill="#FFFFFF" rx="8" ry="8" style="stroke: #A80036; stroke-width: 1.0;"/><line style="stroke: #A80036; stroke-width: 1.0;" x1="103.5" x2="103.5" y1="61.1194" y2="45.1194"/><line style="stroke: #A80036; stroke-width: 1.0;" x1="95.5" x2="111.5" y1="53.1194" y2="53.1194"/><text fill="#888888" font-family="sans-serif" font-size="10" lengthAdjust="spacingAndGlyphs" textLength="188" x="6.5" y="207.8438">UMLDoclet 2.0.12, PlantUML 1.2020.16</text><!--MD5=[de4442d064b1ba672b310e39d22493d0]
@startuml
    set namespaceSeparator none
    hide empty fields
    hide empty methods

    interface "<size:14>Project.Builder.Callback\n<size:10>it.tidalwave.accounting.model" as it.tidalwave.accounting.model.Project.Builder.Callback [[Project.Builder.Callback.html]] {
        {static} +DEFAULT: Callback
        {abstract} +register(Project): void
    }

    class "<size:14>Project.Builder\n<size:10>it.tidalwave.accounting.model" as it.tidalwave.accounting.model.Project.Builder [[Project.Builder.html]]

    it.tidalwave.accounting.model.Project.Builder +- - it.tidalwave.accounting.model.Project.Builder.Callback

    center footer UMLDoclet 2.0.12, PlantUML 1.2020.16
@enduml

PlantUML version 1.2020.16(Sun Aug 23 22:20:43 CEST 2020)
(APACHE source distribution)
Java Runtime: OpenJDK Runtime Environment
JVM: OpenJDK 64-Bit Server VM
Default Encoding: UTF-8
Language: en
Country: GB
--></g></svg>