<?xml version="1.0" encoding="UTF-8" standalone="no"?><svg xmlns="http://www.w3.org/2000/svg" xmlns:xlink="http://www.w3.org/1999/xlink" contentScriptType="application/ecmascript" contentStyleType="text/css" height="239px" preserveAspectRatio="none" style="width:590px;height:239px;" version="1.1" viewBox="0 0 590 239" width="590px" zoomAndPan="magnify"><defs><filter height="300%" id="fvwefnowakkhq" width="300%" x="-1" y="-1"><feGaussianBlur result="blurOut" stdDeviation="2.0"/><feColorMatrix in="blurOut" result="blurOut2" type="matrix" values="0 0 0 0 0 0 0 0 0 0 0 0 0 0 0 0 0 0 .4 0"/><feOffset dx="4.0" dy="4.0" in="blurOut2" result="blurOut3"/><feBlend in="SourceGraphic" in2="blurOut3" mode="normal"/></filter></defs><g><!--MD5=[b16a8370fab75665485eec52c64cf912]
class it.tidalwave.messagebus.MessageBusHelper--><a href="MessageBusHelper.html" target="_top" title="MessageBusHelper.html" xlink:actuate="onRequest" xlink:href="MessageBusHelper.html" xlink:show="new" xlink:title="MessageBusHelper.html" xlink:type="simple"><rect codeLine="5" fill="#FEFECE" filter="url(#fvwefnowakkhq)" height="98.0859" id="it.tidalwave.messagebus.MessageBusHelper" style="stroke: #A80036; stroke-width: 1.5;" width="222" x="155.5" y="7"/><ellipse cx="198.4" cy="26.1328" fill="#ADD1B2" rx="11" ry="11" style="stroke: #A80036; stroke-width: 1.0;"/><path d="M200.8731,32.2759 Q200.2921,32.5747 199.6529,32.7241 Q199.0138,32.8735 198.3082,32.8735 Q195.8014,32.8735 194.4815,31.2217 Q193.1617,29.5698 193.1617,26.4487 Q193.1617,23.3193 194.4815,21.6675 Q195.8014,20.0156 198.3082,20.0156 Q199.0138,20.0156 199.6612,20.165 Q200.3087,20.3145 200.8731,20.6133 L200.8731,23.3359 Q200.2423,22.7549 199.6488,22.4851 Q199.0553,22.2153 198.4244,22.2153 Q197.0797,22.2153 196.3949,23.282 Q195.7101,24.3486 195.7101,26.4487 Q195.7101,28.5405 196.3949,29.6072 Q197.0797,30.6738 198.4244,30.6738 Q199.0553,30.6738 199.6488,30.4041 Q200.2423,30.1343 200.8731,29.5532 Z "/><text fill="#000000" font-family="sans-serif" font-size="14" lengthAdjust="spacingAndGlyphs" textLength="128" x="218.6" y="25.5352">MessageBusHelper</text><text fill="#000000" font-family="sans-serif" font-size="10" lengthAdjust="spacingAndGlyphs" textLength="120" x="222.6" y="38.1563">it.tidalwave.messagebus</text><line style="stroke: #A80036; stroke-width: 1.5;" x1="156.5" x2="376.5" y1="45.2656" y2="45.2656"/><ellipse cx="166.5" cy="56.2656" fill="#84BE84" rx="3" ry="3" style="stroke: #038048; stroke-width: 1.0;"/><text fill="#000000" font-family="sans-serif" font-size="11" lengthAdjust="spacingAndGlyphs" textLength="104" x="175.5" y="59.9004">subscribeAll(): void</text><ellipse cx="166.5" cy="69.2207" fill="#84BE84" rx="3" ry="3" style="stroke: #038048; stroke-width: 1.0;"/><text fill="#000000" font-family="sans-serif" font-size="11" lengthAdjust="spacingAndGlyphs" textLength="118" x="175.5" y="72.8555">unsubscribeAll(): void</text><ellipse cx="166.5" cy="82.1758" fill="#84BE84" rx="3" ry="3" style="stroke: #038048; stroke-width: 1.0;"/><text fill="#000000" font-family="sans-serif" font-size="11" lengthAdjust="spacingAndGlyphs" textLength="112" x="175.5" y="85.8105">publish(Object): void</text><ellipse cx="166.5" cy="95.1309" fill="#84BE84" rx="3" ry="3" style="stroke: #038048; stroke-width: 1.0;"/><text fill="#000000" font-family="sans-serif" font-size="11" lengthAdjust="spacingAndGlyphs" textLength="196" x="175.5" y="98.7656">publish(Class&lt;TOPIC&gt;, TOPIC): void</text></a><!--MD5=[65548a0bf47d76891445718bc2c640e2]
class it.tidalwave.messagebus.MessageBusHelper.Adapter--><a href="MessageBusHelper.Adapter.html" target="_top" title="MessageBusHelper.Adapter.html" xlink:actuate="onRequest" xlink:href="MessageBusHelper.Adapter.html" xlink:show="new" xlink:title="MessageBusHelper.Adapter.html" xlink:type="simple"><rect codeLine="11" fill="#FEFECE" filter="url(#fvwefnowakkhq)" height="38.2656" id="it.tidalwave.messagebus.MessageBusHelper.Adapter" style="stroke: #A80036; stroke-width: 1.5;" width="219" x="7" y="165"/><ellipse cx="22" cy="184.1328" fill="#B4A7E5" rx="11" ry="11" style="stroke: #A80036; stroke-width: 1.0;"/><path d="M18.4277,180.3979 L18.4277,178.2397 L25.8071,178.2397 L25.8071,180.3979 L23.3418,180.3979 L23.3418,188.4746 L25.8071,188.4746 L25.8071,190.6328 L18.4277,190.6328 L18.4277,188.4746 L20.8931,188.4746 L20.8931,180.3979 Z "/><text fill="#000000" font-family="sans-serif" font-size="14" font-style="italic" lengthAdjust="spacingAndGlyphs" textLength="187" x="36" y="183.5352">MessageBusHelper.Adapter</text><text fill="#000000" font-family="sans-serif" font-size="10" font-style="italic" lengthAdjust="spacingAndGlyphs" textLength="120" x="69.5" y="196.1563">it.tidalwave.messagebus</text></a><!--MD5=[c40894859b73567d155d047980c5a7dd]
class it.tidalwave.messagebus.MessageBusHelper.MethodAdapter--><a href="MessageBusHelper.MethodAdapter.html" target="_top" title="MessageBusHelper.MethodAdapter.html" xlink:actuate="onRequest" xlink:href="MessageBusHelper.MethodAdapter.html" xlink:show="new" xlink:title="MessageBusHelper.MethodAdapter.html" xlink:type="simple"><rect codeLine="12" fill="#FEFECE" filter="url(#fvwefnowakkhq)" height="38.2656" id="it.tidalwave.messagebus.MessageBusHelper.MethodAdapter" style="stroke: #A80036; stroke-width: 1.5;" width="310" x="261.5" y="165"/><ellipse cx="276.5" cy="184.1328" fill="#B4A7E5" rx="11" ry="11" style="stroke: #A80036; stroke-width: 1.0;"/><path d="M272.9277,180.3979 L272.9277,178.2397 L280.3071,178.2397 L280.3071,180.3979 L277.8418,180.3979 L277.8418,188.4746 L280.3071,188.4746 L280.3071,190.6328 L272.9277,190.6328 L272.9277,188.4746 L275.3931,188.4746 L275.3931,180.3979 Z "/><text fill="#000000" font-family="sans-serif" font-size="14" font-style="italic" lengthAdjust="spacingAndGlyphs" textLength="239" x="290.5" y="183.5352">MessageBusHelper.MethodAdapter</text><text fill="#000000" font-family="sans-serif" font-size="10" font-style="italic" lengthAdjust="spacingAndGlyphs" textLength="120" x="350" y="196.1563">it.tidalwave.messagebus</text><rect fill="#FFFFFF" height="16.1328" style="stroke: #000000; stroke-width: 1.0; stroke-dasharray: 2.0,2.0;" width="37" x="537.5" y="162"/><text fill="#000000" font-family="sans-serif" font-size="12" font-style="italic" lengthAdjust="spacingAndGlyphs" textLength="35" x="538.5" y="174.6016">TOPIC</text></a><!--MD5=[6045877bbc8a7e032ba7d936189352ad]
reverse link it.tidalwave.messagebus.MessageBusHelper to it.tidalwave.messagebus.MessageBusHelper.Adapter--><path codeLine="14" d="M197.3227,115.0313 C176.2291,133.0312 154.5174,151.5584 138.916,164.8717 " fill="none" id="it.tidalwave.messagebus.MessageBusHelper-backto-it.tidalwave.messagebus.MessageBusHelper.Adapter" style="stroke: #A80036; stroke-width: 1.0;"/><ellipse cx="202.8496" cy="110.315" fill="#FFFFFF" rx="8" ry="8" style="stroke: #A80036; stroke-width: 1.0;"/><line style="stroke: #A80036; stroke-width: 1.0;" x1="196.7641" x2="208.9351" y1="115.508" y2="105.1221"/><line style="stroke: #A80036; stroke-width: 1.0;" x1="197.6567" x2="208.0425" y1="104.2295" y2="116.4005"/><!--MD5=[ab372988ad4e4ab6017317a93959ba31]
reverse link it.tidalwave.messagebus.MessageBusHelper to it.tidalwave.messagebus.MessageBusHelper.MethodAdapter--><path codeLine="15" d="M335.6773,115.0313 C356.7709,133.0312 378.4826,151.5584 394.084,164.8717 " fill="none" id="it.tidalwave.messagebus.MessageBusHelper-backto-it.tidalwave.messagebus.MessageBusHelper.MethodAdapter" style="stroke: #A80036; stroke-width: 1.0;"/><ellipse cx="330.1504" cy="110.315" fill="#FFFFFF" rx="8" ry="8" style="stroke: #A80036; stroke-width: 1.0;"/><line style="stroke: #A80036; stroke-width: 1.0;" x1="336.2359" x2="324.0649" y1="115.508" y2="105.1221"/><line style="stroke: #A80036; stroke-width: 1.0;" x1="324.9575" x2="335.3433" y1="116.4005" y2="104.2295"/><text fill="#888888" font-family="sans-serif" font-size="10" lengthAdjust="spacingAndGlyphs" textLength="188" x="192.25" y="225.9336">UMLDoclet 2.0.12, PlantUML 1.2020.16</text><!--MD5=[6b63c326de399e2a87427b5a568caf8a]
@startuml
    set namespaceSeparator none
    hide empty fields
    hide empty methods

    class "<size:14>MessageBusHelper\n<size:10>it.tidalwave.messagebus" as it.tidalwave.messagebus.MessageBusHelper [[MessageBusHelper.html]] {
        +subscribeAll(): void
        +unsubscribeAll(): void
        +publish(Object): void
        +publish(Class<TOPIC>, TOPIC): void
    }
    interface "<size:14>MessageBusHelper.Adapter\n<size:10>it.tidalwave.messagebus" as it.tidalwave.messagebus.MessageBusHelper.Adapter [[MessageBusHelper.Adapter.html]]
    interface "<size:14>MessageBusHelper.MethodAdapter\n<size:10>it.tidalwave.messagebus" as it.tidalwave.messagebus.MessageBusHelper.MethodAdapter<TOPIC> [[MessageBusHelper.MethodAdapter.html]]

    it.tidalwave.messagebus.MessageBusHelper +- - it.tidalwave.messagebus.MessageBusHelper.Adapter
    it.tidalwave.messagebus.MessageBusHelper +- - it.tidalwave.messagebus.MessageBusHelper.MethodAdapter

    center footer UMLDoclet 2.0.12, PlantUML 1.2020.16
@enduml

PlantUML version 1.2020.16(Sun Aug 23 22:20:43 CEST 2020)
(APACHE source distribution)
Java Runtime: OpenJDK Runtime Environment
JVM: OpenJDK 64-Bit Server VM
Default Encoding: UTF-8
Language: en
Country: GB
--></g></svg>