@startuml
    namespace it.tidalwave.util.spi {

        class FinderSupportTest [[FinderSupportTest.html]] {
            +fix_for_THESEFOOLISHTHINGS_172(): void
            +fix_for_THESEFOOLISHTHINGS_176(): void
        }

        class it.tidalwave.util.spi.FinderSupportTest.UnderTest [[FinderSupportTest.UnderTest.html]] {
            +UnderTest(UnderTest, Object)
            #computeResults(): List<String>
        }

        HierarchicFinderSupport <|-- it.tidalwave.util.spi.FinderSupportTest.UnderTest
        FinderSupportTest +-- it.tidalwave.util.spi.FinderSupportTest.UnderTest
    }

    center footer UMLDoclet 2.0.12, PlantUML 1.2020.16
@enduml
