<?xml version="1.0" encoding="UTF-8" standalone="no"?><svg xmlns="http://www.w3.org/2000/svg" xmlns:xlink="http://www.w3.org/1999/xlink" contentScriptType="application/ecmascript" contentStyleType="text/css" height="216px" preserveAspectRatio="none" style="width:352px;height:216px;" version="1.1" viewBox="0 0 352 216" width="352px" zoomAndPan="magnify"><defs><filter height="300%" id="f6kro5bp5v5jb" width="300%" x="-1" y="-1"><feGaussianBlur result="blurOut" stdDeviation="2.0"/><feColorMatrix in="blurOut" result="blurOut2" type="matrix" values="0 0 0 0 0 0 0 0 0 0 0 0 0 0 0 0 0 0 .4 0"/><feOffset dx="4.0" dy="4.0" in="blurOut2" result="blurOut3"/><feBlend in="SourceGraphic" in2="blurOut3" mode="normal"/></filter></defs><g><!--MD5=[5280aa60a07ef1013ea92140cd773bb8]
class it.tidalwave.util.spi.SimpleFinderSupport--><a href="SimpleFinderSupport.html" target="_top" title="SimpleFinderSupport.html" xlink:actuate="onRequest" xlink:href="SimpleFinderSupport.html" xlink:show="new" xlink:title="SimpleFinderSupport.html" xlink:type="simple"><rect codeLine="5" fill="#FEFECE" filter="url(#f6kro5bp5v5jb)" height="72.1758" id="it.tidalwave.util.spi.SimpleFinderSupport" style="stroke: #A80036; stroke-width: 1.5;" width="324" x="9" y="108"/><ellipse cx="88.25" cy="127.1328" fill="#A9DCDF" rx="11" ry="11" style="stroke: #A80036; stroke-width: 1.0;"/><path d="M88.1133,122.481 L86.9595,127.5527 L89.2754,127.5527 Z M86.6191,120.2397 L89.6157,120.2397 L92.9609,132.6328 L90.5122,132.6328 L89.7485,129.5698 L86.4697,129.5698 L85.7227,132.6328 L83.2739,132.6328 Z "/><text fill="#000000" font-family="sans-serif" font-size="14" font-style="italic" lengthAdjust="spacingAndGlyphs" textLength="145" x="108.75" y="126.5352">SimpleFinderSupport</text><text fill="#000000" font-family="sans-serif" font-size="10" font-style="italic" lengthAdjust="spacingAndGlyphs" textLength="93" x="134.75" y="139.1563">it.tidalwave.util.spi</text><rect fill="#FFFFFF" height="16.1328" style="stroke: #000000; stroke-width: 1.0; stroke-dasharray: 2.0,2.0;" width="10" x="326" y="105"/><text fill="#000000" font-family="sans-serif" font-size="12" font-style="italic" lengthAdjust="spacingAndGlyphs" textLength="8" x="327" y="117.6016">T</text><line style="stroke: #A80036; stroke-width: 1.5;" x1="10" x2="332" y1="146.2656" y2="146.2656"/><polygon fill="#FFFF44" points="20,152.2656,24,156.2656,20,160.2656,16,156.2656" style="stroke: #B38D22; stroke-width: 1.0;"/><text fill="#000000" font-family="sans-serif" font-size="11" lengthAdjust="spacingAndGlyphs" textLength="152" x="29" y="160.9004">SimpleFinderSupport(String)</text><polygon fill="#FFFF44" points="20,165.2207,24,169.2207,20,173.2207,16,169.2207" style="stroke: #B38D22; stroke-width: 1.0;"/><text fill="#000000" font-family="sans-serif" font-size="11" lengthAdjust="spacingAndGlyphs" textLength="298" x="29" y="173.8555">SimpleFinderSupport(SimpleFinderSupport&lt;T&gt;, Object)</text></a><!--MD5=[d63e98a45e8384519e3fc4fd1371e7a4]
class it.tidalwave.util.spi.HierarchicFinderSupport--><a href="HierarchicFinderSupport.html" target="_top" title="HierarchicFinderSupport.html" xlink:actuate="onRequest" xlink:href="HierarchicFinderSupport.html" xlink:show="new" xlink:title="HierarchicFinderSupport.html" xlink:type="simple"><rect codeLine="10" fill="#FEFECE" filter="url(#f6kro5bp5v5jb)" height="38.2656" id="it.tidalwave.util.spi.HierarchicFinderSupport" style="stroke: #A80036; stroke-width: 1.5;" width="284" x="29" y="10"/><ellipse cx="44" cy="29.1328" fill="#ADD1B2" rx="11" ry="11" style="stroke: #A80036; stroke-width: 1.0;"/><path d="M46.4731,35.2759 Q45.8921,35.5747 45.2529,35.7241 Q44.6138,35.8735 43.9082,35.8735 Q41.4014,35.8735 40.0815,34.2217 Q38.7617,32.5698 38.7617,29.4487 Q38.7617,26.3193 40.0815,24.6675 Q41.4014,23.0156 43.9082,23.0156 Q44.6138,23.0156 45.2612,23.165 Q45.9087,23.3145 46.4731,23.6133 L46.4731,26.3359 Q45.8423,25.7549 45.2488,25.4851 Q44.6553,25.2153 44.0244,25.2153 Q42.6797,25.2153 41.9949,26.282 Q41.3101,27.3486 41.3101,29.4487 Q41.3101,31.5405 41.9949,32.6072 Q42.6797,33.6738 44.0244,33.6738 Q44.6553,33.6738 45.2488,33.4041 Q45.8423,33.1343 46.4731,32.5532 Z "/><text fill="#000000" font-family="sans-serif" font-size="14" lengthAdjust="spacingAndGlyphs" textLength="168" x="58" y="28.5352">HierarchicFinderSupport</text><text fill="#000000" font-family="sans-serif" font-size="10" lengthAdjust="spacingAndGlyphs" textLength="93" x="95.5" y="41.1563">it.tidalwave.util.spi</text><rect fill="#FFFFFF" height="16.1328" style="stroke: #000000; stroke-width: 1.0; stroke-dasharray: 2.0,2.0;" width="82" x="234" y="7"/><text fill="#000000" font-family="sans-serif" font-size="12" font-style="italic" lengthAdjust="spacingAndGlyphs" textLength="80" x="235" y="19.6016">T, Finder&lt;T&gt;</text></a><!--MD5=[937ae8df90f3341161436f79c80582ea]
reverse link it.tidalwave.util.spi.HierarchicFinderSupport to it.tidalwave.util.spi.SimpleFinderSupport--><path codeLine="12" d="M171,68.5888 C171,81.3573 171,95.4348 171,107.935 " fill="none" id="it.tidalwave.util.spi.HierarchicFinderSupport-backto-it.tidalwave.util.spi.SimpleFinderSupport" style="stroke: #A80036; stroke-width: 1.0;"/><polygon fill="none" points="164.0001,68.2484,171,48.2484,178.0001,68.2484,164.0001,68.2484" style="stroke: #A80036; stroke-width: 1.0;"/><text fill="#888888" font-family="sans-serif" font-size="10" lengthAdjust="spacingAndGlyphs" textLength="188" x="73" y="202.8438">UMLDoclet 2.0.12, PlantUML 1.2020.16</text><!--MD5=[8ff43eae76b85d43ba12a6c03cd293c2]
@startuml
    set namespaceSeparator none
    hide empty fields
    hide empty methods

    abstract class "<size:14>SimpleFinderSupport\n<size:10>it.tidalwave.util.spi" as it.tidalwave.util.spi.SimpleFinderSupport<T> [[SimpleFinderSupport.html]] {
        #SimpleFinderSupport(String)
        #SimpleFinderSupport(SimpleFinderSupport<T>, Object)
    }

    class "<size:14>HierarchicFinderSupport\n<size:10>it.tidalwave.util.spi" as it.tidalwave.util.spi.HierarchicFinderSupport<T, Finder<T>> [[HierarchicFinderSupport.html]]

    it.tidalwave.util.spi.HierarchicFinderSupport <|- - it.tidalwave.util.spi.SimpleFinderSupport

    center footer UMLDoclet 2.0.12, PlantUML 1.2020.16
@enduml

PlantUML version 1.2020.16(Sun Aug 23 22:20:43 CEST 2020)
(APACHE source distribution)
Java Runtime: OpenJDK Runtime Environment
JVM: OpenJDK 64-Bit Server VM
Default Encoding: UTF-8
Language: en
Country: GB
--></g></svg>