@startuml
    set namespaceSeparator none
    hide empty fields
    hide empty methods

    class "<size:14>DurationFormat\n<size:10>it.tidalwave.accounting.model.spi.util" as it.tidalwave.accounting.model.spi.util.DurationFormat [[DurationFormat.html]] {
        +format(Duration): String
    }

    center footer UMLDoclet 2.0.12, PlantUML 1.2020.16
@enduml
