<?xml version="1.0" encoding="UTF-8" standalone="no"?><svg xmlns="http://www.w3.org/2000/svg" xmlns:xlink="http://www.w3.org/1999/xlink" contentScriptType="application/ecmascript" contentStyleType="text/css" height="247px" preserveAspectRatio="none" style="width:313px;height:247px;" version="1.1" viewBox="0 0 313 247" width="313px" zoomAndPan="magnify"><defs><filter height="300%" id="f1h2v9kwpwc34p" width="300%" x="-1" y="-1"><feGaussianBlur result="blurOut" stdDeviation="2.0"/><feColorMatrix in="blurOut" result="blurOut2" type="matrix" values="0 0 0 0 0 0 0 0 0 0 0 0 0 0 0 0 0 0 .4 0"/><feOffset dx="4.0" dy="4.0" in="blurOut2" result="blurOut3"/><feBlend in="SourceGraphic" in2="blurOut3" mode="normal"/></filter></defs><g><!--MD5=[b5bdaf39c40d756940c54aac6983fd63]
class it.tidalwave.bluemarine2.service.stoppingdown.impl.PhotoCollectionProviderTestSupport--><a href="PhotoCollectionProviderTestSupport.html" target="_top" title="PhotoCollectionProviderTestSupport.html" xlink:actuate="onRequest" xlink:href="PhotoCollectionProviderTestSupport.html" xlink:show="new" xlink:title="PhotoCollectionProviderTestSupport.html" xlink:type="simple"><rect codeLine="5" fill="#FEFECE" filter="url(#f1h2v9kwpwc34p)" height="106.0859" id="it.tidalwave.bluemarine2.service.stoppingdown.impl.PhotoCollectionProviderTestSupport" style="stroke: #A80036; stroke-width: 1.5;" width="285" x="9" y="105"/><ellipse cx="24" cy="124.1328" fill="#ADD1B2" rx="11" ry="11" style="stroke: #A80036; stroke-width: 1.0;"/><path d="M26.4731,130.2759 Q25.8921,130.5747 25.2529,130.7241 Q24.6138,130.8735 23.9082,130.8735 Q21.4014,130.8735 20.0815,129.2217 Q18.7617,127.5698 18.7617,124.4487 Q18.7617,121.3193 20.0815,119.6675 Q21.4014,118.0156 23.9082,118.0156 Q24.6138,118.0156 25.2612,118.165 Q25.9087,118.3145 26.4731,118.6133 L26.4731,121.3359 Q25.8423,120.7549 25.2488,120.4851 Q24.6553,120.2153 24.0244,120.2153 Q22.6797,120.2153 21.9949,121.282 Q21.3101,122.3486 21.3101,124.4487 Q21.3101,126.5405 21.9949,127.6072 Q22.6797,128.6738 24.0244,128.6738 Q24.6553,128.6738 25.2488,128.4041 Q25.8423,128.1343 26.4731,127.5532 Z "/><text fill="#000000" font-family="sans-serif" font-size="14" lengthAdjust="spacingAndGlyphs" textLength="250" x="39.5" y="123.5352">PhotoCollectionProviderTestSupport</text><text fill="#000000" font-family="sans-serif" font-size="10" lengthAdjust="spacingAndGlyphs" textLength="253" x="38" y="136.1563">it.tidalwave.bluemarine2.service.stoppingdown.impl</text><line style="stroke: #A80036; stroke-width: 1.5;" x1="10" x2="293" y1="143.2656" y2="143.2656"/><polygon fill="none" points="20,149.2656,24,153.2656,20,157.2656,16,153.2656" style="stroke: #B38D22; stroke-width: 1.0;"/><text fill="#000000" font-family="sans-serif" font-size="11" lengthAdjust="spacingAndGlyphs" text-decoration="underline" textLength="161" x="29" y="157.9004">URL_MOCK_RESOURCE: String</text><polygon fill="none" points="20,162.2207,24,166.2207,20,170.2207,16,166.2207" style="stroke: #B38D22; stroke-width: 1.0;"/><text fill="#000000" font-family="sans-serif" font-size="11" lengthAdjust="spacingAndGlyphs" textLength="137" x="29" y="170.8555">mediaFolder: MediaFolder</text><line style="stroke: #A80036; stroke-width: 1.5;" x1="10" x2="293" y1="177.1758" y2="177.1758"/><ellipse cx="20" cy="188.1758" fill="#84BE84" rx="3" ry="3" style="stroke: #038048; stroke-width: 1.0;"/><text fill="#000000" font-family="sans-serif" font-size="11" lengthAdjust="spacingAndGlyphs" textLength="67" x="29" y="191.8105">setup(): void</text><polygon fill="#FFFF44" points="20,196.1309,24,200.1309,20,204.1309,16,200.1309" style="stroke: #B38D22; stroke-width: 1.0;"/><text fill="#000000" font-family="sans-serif" font-size="11" lengthAdjust="spacingAndGlyphs" text-decoration="underline" textLength="204" x="29" y="204.7656">dump(PathAwareFinder): List&lt;String&gt;</text></a><!--MD5=[d9f4c62b2f99da37556a346475c82ca2]
class it.tidalwave.bluemarine2.commons.test.SpringTestSupport--><rect codeLine="12" fill="#FEFECE" filter="url(#f1h2v9kwpwc34p)" height="38.2656" id="it.tidalwave.bluemarine2.commons.test.SpringTestSupport" style="stroke: #A80036; stroke-width: 1.5;" width="224" x="39.5" y="7"/><ellipse cx="54.5" cy="26.1328" fill="#ADD1B2" rx="11" ry="11" style="stroke: #A80036; stroke-width: 1.0;"/><path d="M56.9731,32.2759 Q56.3921,32.5747 55.7529,32.7241 Q55.1138,32.8735 54.4082,32.8735 Q51.9014,32.8735 50.5815,31.2217 Q49.2617,29.5698 49.2617,26.4487 Q49.2617,23.3193 50.5815,21.6675 Q51.9014,20.0156 54.4082,20.0156 Q55.1138,20.0156 55.7612,20.165 Q56.4087,20.3145 56.9731,20.6133 L56.9731,23.3359 Q56.3423,22.7549 55.7488,22.4851 Q55.1553,22.2153 54.5244,22.2153 Q53.1797,22.2153 52.4949,23.282 Q51.8101,24.3486 51.8101,26.4487 Q51.8101,28.5405 52.4949,29.6072 Q53.1797,30.6738 54.5244,30.6738 Q55.1553,30.6738 55.7488,30.4041 Q56.3423,30.1343 56.9731,29.5532 Z "/><text fill="#000000" font-family="sans-serif" font-size="14" lengthAdjust="spacingAndGlyphs" textLength="129" x="100" y="25.5352">SpringTestSupport</text><text fill="#000000" font-family="sans-serif" font-size="10" lengthAdjust="spacingAndGlyphs" textLength="192" x="68.5" y="38.1563">it.tidalwave.bluemarine2.commons.test</text><!--MD5=[6c819cf7c561a486e05e7b0e99fb2bcf]
reverse link it.tidalwave.bluemarine2.commons.test.SpringTestSupport to it.tidalwave.bluemarine2.service.stoppingdown.impl.PhotoCollectionProviderTestSupport--><path codeLine="14" d="M151.5,65.3883 C151.5,77.774 151.5,91.6615 151.5,104.8388 " fill="none" id="it.tidalwave.bluemarine2.commons.test.SpringTestSupport-backto-it.tidalwave.bluemarine2.service.stoppingdown.impl.PhotoCollectionProviderTestSupport" style="stroke: #A80036; stroke-width: 1.0;"/><polygon fill="none" points="144.5001,65.194,151.5,45.1939,158.5001,65.1939,144.5001,65.194" style="stroke: #A80036; stroke-width: 1.0;"/><text fill="#888888" font-family="sans-serif" font-size="10" lengthAdjust="spacingAndGlyphs" textLength="188" x="53.5" y="233.7539">UMLDoclet 2.0.12, PlantUML 1.2020.16</text><!--MD5=[caea314f2ce3550db12d8ba6e87cc70d]
@startuml
    set namespaceSeparator none
    hide empty fields
    hide empty methods

    class "<size:14>PhotoCollectionProviderTestSupport\n<size:10>it.tidalwave.bluemarine2.service.stoppingdown.impl" as it.tidalwave.bluemarine2.service.stoppingdown.impl.PhotoCollectionProviderTestSupport [[PhotoCollectionProviderTestSupport.html]] {
        {static} #URL_MOCK_RESOURCE: String
        #mediaFolder: MediaFolder
        +setup(): void
        {static} #dump(PathAwareFinder): List<String>
    }

    class "<size:14>SpringTestSupport\n<size:10>it.tidalwave.bluemarine2.commons.test" as it.tidalwave.bluemarine2.commons.test.SpringTestSupport

    it.tidalwave.bluemarine2.commons.test.SpringTestSupport <|- - it.tidalwave.bluemarine2.service.stoppingdown.impl.PhotoCollectionProviderTestSupport

    center footer UMLDoclet 2.0.12, PlantUML 1.2020.16
@enduml

PlantUML version 1.2020.16(Sun Aug 23 22:20:43 CEST 2020)
(APACHE source distribution)
Java Runtime: OpenJDK Runtime Environment
JVM: OpenJDK 64-Bit Server VM
Default Encoding: UTF-8
Language: en
Country: GB
--></g></svg>