@startuml
    set namespaceSeparator none
    hide empty fields
    hide empty methods

    class "<size:14>HtmlTemplateNodeContainerView_2\n<size:10>it.tidalwave.northernwind.frontend.ui.component.nodecontainer.htmltemplate" as it.tidalwave.northernwind.frontend.ui.component.nodecontainer.htmltemplate.HtmlTemplateNodeContainerView_2 [[HtmlTemplateNodeContainerView_2.html]] {
        +HtmlTemplateNodeContainerView_2(Id)
    }

    class "<size:14>HtmlHolder\n<size:10>it.tidalwave.northernwind.frontend.ui.component.htmltemplate" as it.tidalwave.northernwind.frontend.ui.component.htmltemplate.HtmlHolder [[../../htmltemplate/HtmlHolder.html]]
    interface "<size:14>NodeContainerView\n<size:10>it.tidalwave.northernwind.frontend.ui.component.nodecontainer" as it.tidalwave.northernwind.frontend.ui.component.nodecontainer.NodeContainerView [[../NodeContainerView.html]] {
        {abstract} +addAttribute(String, String): void
        {abstract} +setTemplate(String): void
    }

    it.tidalwave.northernwind.frontend.ui.component.htmltemplate.HtmlHolder <|-- it.tidalwave.northernwind.frontend.ui.component.nodecontainer.htmltemplate.HtmlTemplateNodeContainerView_2
    it.tidalwave.northernwind.frontend.ui.component.nodecontainer.NodeContainerView <|.. it.tidalwave.northernwind.frontend.ui.component.nodecontainer.htmltemplate.HtmlTemplateNodeContainerView_2

    center footer UMLDoclet 2.0.12, PlantUML 1.2020.16
@enduml
