@startuml
    set namespaceSeparator none
    hide empty fields
    hide empty methods

    class "<size:14>Layout.Builder\n<size:10>it.tidalwave.northernwind.frontend.ui" as it.tidalwave.northernwind.frontend.ui.Layout.Builder [[Layout.Builder.html]] {
        +build(): Layout
    }

    interface "<size:14>Layout\n<size:10>it.tidalwave.northernwind.frontend.ui" as it.tidalwave.northernwind.frontend.ui.Layout [[Layout.html]] {
        {abstract} +getTypeUri(): String
        {abstract} +withChild(Layout): Layout
        {abstract} +withOverride(Layout): Layout
        {abstract} +accept(Visitor<? super Layout, T>): Optional<T>
        {abstract} +createViewAndController(SiteNode): ViewAndController
    }
    interface "<size:14>Layout.Builder.CallBack\n<size:10>it.tidalwave.northernwind.frontend.ui" as it.tidalwave.northernwind.frontend.ui.Layout.Builder.CallBack [[Layout.Builder.CallBack.html]]

    it.tidalwave.northernwind.frontend.ui.Layout +-- it.tidalwave.northernwind.frontend.ui.Layout.Builder
    it.tidalwave.northernwind.frontend.ui.Layout.Builder +-- it.tidalwave.northernwind.frontend.ui.Layout.Builder.CallBack

    center footer UMLDoclet 2.0.12, PlantUML 1.2020.16
@enduml
