@startuml
    namespace it.tidalwave.northernwind.frontend.filesystem.basic.layered {

        class LayeredResourceFileSystem [[LayeredResourceFileSystem.html]] {
            +getRoot(): ResourceFile
            +findFileByPath(String): ResourceFile
            +createDecoratorFile(ResourceFile): ResourceFile
        }

        class LayeredFileSystemProvider [[LayeredFileSystemProvider.html]] {
            +getFileSystem(): ResourceFileSystem
        }

        interface FolderDelegateExclusions [[FolderDelegateExclusions.html]] {
            {abstract} +getChildren(): Collection<ResourceFile>
            {abstract} +getChildByName(String): ResourceFile
            {abstract} +getFileObject(String, String): ResourceFile
            {abstract} +findChildren(): Finder
        }

        class DelegateZipFileSystemsDiscoverer [[DelegateZipFileSystemsDiscoverer.html]] {
            +getFileSystemProviders(): List<? extends ResourceFileSystemProvider>
        }

        it.tidalwave.northernwind.core.model.spi.DecoratedResourceFileSystem <|.. LayeredResourceFileSystem
        it.tidalwave.northernwind.core.model.ResourceFileSystemProvider <|.. LayeredFileSystemProvider
        FileDelegateExclusions <|-- FolderDelegateExclusions
        it.tidalwave.northernwind.frontend.filesystem.basic.FileSystemProvidersProvider <|.. DelegateZipFileSystemsDiscoverer
    }

    namespace it.tidalwave.northernwind.core.model.spi {
        interface DecoratedResourceFileSystem [[../../../../core/model/spi/DecoratedResourceFileSystem.html]] {
            {abstract} +createDecoratorFile(ResourceFile): ResourceFile
        }
    }

    namespace it.tidalwave.northernwind.core.model {
        interface ResourceFileSystemProvider [[../../../../core/model/ResourceFileSystemProvider.html]] {
            {abstract} +getFileSystem(): ResourceFileSystem
        }
    }

    namespace it.tidalwave.northernwind.frontend.filesystem.basic {
        interface FileSystemProvidersProvider [[../FileSystemProvidersProvider.html]] {
            {abstract} +getFileSystemProviders(): List<? extends ResourceFileSystemProvider>
        }
    }

    center footer UMLDoclet 2.0.12, PlantUML 1.2020.16
@enduml
