<?xml version="1.0" encoding="UTF-8" standalone="no"?><svg xmlns="http://www.w3.org/2000/svg" xmlns:xlink="http://www.w3.org/1999/xlink" contentScriptType="application/ecmascript" contentStyleType="text/css" height="224px" preserveAspectRatio="none" style="width:309px;height:224px;" version="1.1" viewBox="0 0 309 224" width="309px" zoomAndPan="magnify"><defs><filter height="300%" id="frw8fqwk564i6" width="300%" x="-1" y="-1"><feGaussianBlur result="blurOut" stdDeviation="2.0"/><feColorMatrix in="blurOut" result="blurOut2" type="matrix" values="0 0 0 0 0 0 0 0 0 0 0 0 0 0 0 0 0 0 .4 0"/><feOffset dx="4.0" dy="4.0" in="blurOut2" result="blurOut3"/><feBlend in="SourceGraphic" in2="blurOut3" mode="normal"/></filter></defs><g><!--MD5=[c5f47c2c406b9098b20f398ee62f98ba]
class it.tidalwave.northernwind.core.model.spi.MockResponseHolder--><a href="MockResponseHolder.html" target="_top" title="MockResponseHolder.html" xlink:actuate="onRequest" xlink:href="MockResponseHolder.html" xlink:show="new" xlink:title="MockResponseHolder.html" xlink:type="simple"><rect codeLine="5" fill="#FEFECE" filter="url(#frw8fqwk564i6)" height="59.2207" id="it.tidalwave.northernwind.core.model.spi.MockResponseHolder" style="stroke: #A80036; stroke-width: 1.5;" width="231" x="33" y="129"/><ellipse cx="48" cy="148.1328" fill="#ADD1B2" rx="11" ry="11" style="stroke: #A80036; stroke-width: 1.0;"/><path d="M50.4731,154.2759 Q49.8921,154.5747 49.2529,154.7241 Q48.6138,154.8735 47.9082,154.8735 Q45.4014,154.8735 44.0815,153.2217 Q42.7617,151.5698 42.7617,148.4487 Q42.7617,145.3193 44.0815,143.6675 Q45.4014,142.0156 47.9082,142.0156 Q48.6138,142.0156 49.2612,142.165 Q49.9087,142.3145 50.4731,142.6133 L50.4731,145.3359 Q49.8423,144.7549 49.2488,144.4851 Q48.6553,144.2153 48.0244,144.2153 Q46.6797,144.2153 45.9949,145.282 Q45.3101,146.3486 45.3101,148.4487 Q45.3101,150.5405 45.9949,151.6072 Q46.6797,152.6738 48.0244,152.6738 Q48.6553,152.6738 49.2488,152.4041 Q49.8423,152.1343 50.4731,151.5532 Z "/><text fill="#000000" font-family="sans-serif" font-size="14" lengthAdjust="spacingAndGlyphs" textLength="148" x="87.5" y="147.5352">MockResponseHolder</text><text fill="#000000" font-family="sans-serif" font-size="10" lengthAdjust="spacingAndGlyphs" textLength="199" x="62" y="160.1563">it.tidalwave.northernwind.core.model.spi</text><line style="stroke: #A80036; stroke-width: 1.5;" x1="34" x2="263" y1="167.2656" y2="167.2656"/><ellipse cx="44" cy="178.2656" fill="#84BE84" rx="3" ry="3" style="stroke: #038048; stroke-width: 1.0;"/><text fill="#000000" font-family="sans-serif" font-size="11" lengthAdjust="spacingAndGlyphs" textLength="153" x="53" y="181.9004">response(): ResponseBuilder</text></a><!--MD5=[40fa8e8d596728519911a142bf0dc624]
class it.tidalwave.northernwind.core.model.spi.ResponseHolder--><a href="../../../../../../../apidocs/it/tidalwave/northernwind/core/model/spi/ResponseHolder.html" target="_top" title="../../../../../../../apidocs/it/tidalwave/northernwind/core/model/spi/ResponseHolder.html" xlink:actuate="onRequest" xlink:href="../../../../../../../apidocs/it/tidalwave/northernwind/core/model/spi/ResponseHolder.html" xlink:show="new" xlink:title="../../../../../../../apidocs/it/tidalwave/northernwind/core/model/spi/ResponseHolder.html" xlink:type="simple"><rect codeLine="9" fill="#FEFECE" filter="url(#frw8fqwk564i6)" height="59.2207" id="it.tidalwave.northernwind.core.model.spi.ResponseHolder" style="stroke: #A80036; stroke-width: 1.5;" width="283" x="7" y="10"/><ellipse cx="28.75" cy="29.1328" fill="#A9DCDF" rx="11" ry="11" style="stroke: #A80036; stroke-width: 1.0;"/><path d="M28.6133,24.481 L27.4595,29.5527 L29.7754,29.5527 Z M27.1191,22.2397 L30.1157,22.2397 L33.4609,34.6328 L31.0122,34.6328 L30.2485,31.5698 L26.9697,31.5698 L26.2227,34.6328 L23.7739,34.6328 Z "/><text fill="#000000" font-family="sans-serif" font-size="14" font-style="italic" lengthAdjust="spacingAndGlyphs" textLength="112" x="87.75" y="28.5352">ResponseHolder</text><text fill="#000000" font-family="sans-serif" font-size="10" font-style="italic" lengthAdjust="spacingAndGlyphs" textLength="199" x="44.25" y="41.1563">it.tidalwave.northernwind.core.model.spi</text><rect fill="#FFFFFF" height="16.1328" style="stroke: #000000; stroke-width: 1.0; stroke-dasharray: 2.0,2.0;" width="35" x="258" y="7"/><text fill="#000000" font-family="sans-serif" font-size="12" font-style="italic" lengthAdjust="spacingAndGlyphs" textLength="33" x="259" y="19.6016">byte[]</text><line style="stroke: #A80036; stroke-width: 1.5;" x1="8" x2="289" y1="48.2656" y2="48.2656"/><ellipse cx="18" cy="59.2656" fill="#84BE84" rx="3" ry="3" style="stroke: #038048; stroke-width: 1.0;"/><text fill="#000000" font-family="sans-serif" font-size="11" font-style="italic" lengthAdjust="spacingAndGlyphs" textLength="257" x="27" y="62.9004">response(): ResponseBuilder&lt;RESPONSE_TYPE&gt;</text></a><!--MD5=[f874634945914bcade0a4efae0e238ed]
reverse link it.tidalwave.northernwind.core.model.spi.ResponseHolder to it.tidalwave.northernwind.core.model.spi.MockResponseHolder--><path codeLine="13" d="M148.5,89.3288 C148.5,102.7348 148.5,116.8139 148.5,128.7447 " fill="none" id="it.tidalwave.northernwind.core.model.spi.ResponseHolder-backto-it.tidalwave.northernwind.core.model.spi.MockResponseHolder" style="stroke: #A80036; stroke-width: 1.0;"/><polygon fill="none" points="141.5001,89.2218,148.5,69.2218,155.5001,89.2217,141.5001,89.2218" style="stroke: #A80036; stroke-width: 1.0;"/><text fill="#888888" font-family="sans-serif" font-size="10" lengthAdjust="spacingAndGlyphs" textLength="188" x="51.5" y="210.8887">UMLDoclet 2.0.12, PlantUML 1.2020.16</text><!--MD5=[16330389813066eb327d0a35e200cfb4]
@startuml
    set namespaceSeparator none
    hide empty fields
    hide empty methods

    class "<size:14>MockResponseHolder\n<size:10>it.tidalwave.northernwind.core.model.spi" as it.tidalwave.northernwind.core.model.spi.MockResponseHolder [[MockResponseHolder.html]] {
        +response(): ResponseBuilder
    }

    abstract class "<size:14>ResponseHolder\n<size:10>it.tidalwave.northernwind.core.model.spi" as it.tidalwave.northernwind.core.model.spi.ResponseHolder<byte[]> [[../../../../../../../apidocs/it/tidalwave/northernwind/core/model/spi/ResponseHolder.html]] {
        {abstract} +response(): ResponseBuilder<RESPONSE_TYPE>
    }

    it.tidalwave.northernwind.core.model.spi.ResponseHolder <|- - it.tidalwave.northernwind.core.model.spi.MockResponseHolder

    center footer UMLDoclet 2.0.12, PlantUML 1.2020.16
@enduml

PlantUML version 1.2020.16(Sun Aug 23 22:20:43 CEST 2020)
(APACHE source distribution)
Java Runtime: OpenJDK Runtime Environment
JVM: OpenJDK 64-Bit Server VM
Default Encoding: UTF-8
Language: en
Country: GB
--></g></svg>