@startuml
    set namespaceSeparator none
    hide circle
    hide empty fields
    hide empty methods

    it.tidalwave.actor --> org.joda.time
    it.tidalwave.actor --> it.tidalwave.util
    it.tidalwave.actor --> it.tidalwave.actor.impl
    it.tidalwave.actor.spi --> it.tidalwave.actor.impl
    it.tidalwave.actor.spi --> it.tidalwave.actor.annotation
    it.tidalwave.actor.spi --> it.tidalwave.messagebus
    it.tidalwave.messagebus.spi --> it.tidalwave.messagebus
    it.tidalwave.role --> it.tidalwave.util
    it.tidalwave.role --> it.tidalwave.role.spi
    it.tidalwave.role.ui --> it.tidalwave.role
    it.tidalwave.role.ui --> it.tidalwave.util
    it.tidalwave.role.ui.function --> it.tidalwave.role.ui
    it.tidalwave.role.ui.spi --> it.tidalwave.role.ui
    it.tidalwave.role.ui.spi --> it.tidalwave.util
    it.tidalwave.role.ui.spi --> it.tidalwave.util.spi
    it.tidalwave.role.ui.spi --> it.tidalwave.role.spi
    it.tidalwave.role.io.spi --> it.tidalwave.role.io
    it.tidalwave.role.spi --> it.tidalwave.util
    it.tidalwave.role.spi --> it.tidalwave.role
    it.tidalwave.role.spi --> it.tidalwave.role.spi.impl
    it.tidalwave.role.spring --> it.tidalwave.role.spi
    it.tidalwave.role.spring --> it.tidalwave.role
    it.tidalwave.role.spring.spi --> it.tidalwave.role.spi
    it.tidalwave.role.spring.spi --> org.springframework.beans.factory
    it.tidalwave.role.spring.spi --> it.tidalwave.util
    it.tidalwave.role.spring.spi --> it.tidalwave.util.spi
    it.tidalwave.role.spring.spi --> org.aspectj.lang
    it.tidalwave.role.spring.spi --> it.tidalwave.role
    it.tidalwave.util.spring --> org.springframework.context.annotation
    it.tidalwave.util.spring --> org.springframework.core.type.filter
    it.tidalwave.util.ui --> it.tidalwave.util
    it.tidalwave.util.spi --> it.tidalwave.util
    it.tidalwave.util.thread.annotation --> it.tidalwave.util.thread
    it.tidalwave.util.test --> org.testng
    it.tidalwave.util.test --> it.tidalwave.util
    it.tidalwave.util.test --> org.mockito.stubbing
    it.tidalwave.thesefoolishthings.examples.person --> it.tidalwave.util
    it.tidalwave.thesefoolishthings.examples.person --> it.tidalwave.role.ui
    it.tidalwave.thesefoolishthings.examples.person --> it.tidalwave.role
    it.tidalwave.thesefoolishthings.examples.person --> it.tidalwave.thesefoolishthings.examples.dci.swing.role
    it.tidalwave.thesefoolishthings.examples.person --> org.jdesktop.observablecollections
    it.tidalwave.thesefoolishthings.examples.dci.marshal.role --> it.tidalwave.util
    it.tidalwave.thesefoolishthings.examples.dci.marshal.role --> it.tidalwave.thesefoolishthings.examples.person
    it.tidalwave.thesefoolishthings.examples.dci.marshal.role --> it.tidalwave.role.io
    it.tidalwave.thesefoolishthings.examples.dci.marshal.role --> com.thoughtworks.xstream
    it.tidalwave.thesefoolishthings.examples.dci.marshal.xstream --> it.tidalwave.role
    it.tidalwave.thesefoolishthings.examples.dci.marshal.xstream.converter --> com.thoughtworks.xstream.converters
    it.tidalwave.thesefoolishthings.examples.dci.marshal.xstream.converter --> it.tidalwave.util
    it.tidalwave.thesefoolishthings.examples.dci.marshal.xstream.converter --> it.tidalwave.thesefoolishthings.examples.person
    it.tidalwave.thesefoolishthings.examples.dci.marshal.xstream.converter --> com.thoughtworks.xstream.io
    it.tidalwave.thesefoolishthings.examples.dci.persistable.jpa --> it.tidalwave.role
    it.tidalwave.thesefoolishthings.examples.dci.persistable.jpa --> it.tidalwave.thesefoolishthings.examples.dci.persistable.jpa.role.impl
    it.tidalwave.thesefoolishthings.examples.dci.persistable.jpa --> it.tidalwave.util
    it.tidalwave.thesefoolishthings.examples.dci.persistable.jpa.role --> it.tidalwave.util
    it.tidalwave.thesefoolishthings.examples.dci.swing --> it.tidalwave.thesefoolishthings.examples.dci.swing.swing
    it.tidalwave.thesefoolishthings.examples.dci.swing --> it.tidalwave.thesefoolishthings.examples.person
    it.tidalwave.thesefoolishthings.examples.dci.swing.role --> org.jdesktop.observablecollections
    it.tidalwave.thesefoolishthings.examples.dci.swing.swing --> it.tidalwave.thesefoolishthings.examples.dci.swing
    it.tidalwave.thesefoolishthings.examples.dci.swing.swing --> org.jdesktop.beansbinding
    it.tidalwave.thesefoolishthings.examples.dci.swing.swing --> it.tidalwave.thesefoolishthings.examples.person
    it.tidalwave.thesefoolishthings.examples.extendedfinderexample --> it.tidalwave.util.spi
    it.tidalwave.thesefoolishthings.examples.extendedfinderexample --> it.tidalwave.thesefoolishthings.examples.person
    it.tidalwave.thesefoolishthings.examples.inmemoryfinderexample --> it.tidalwave.thesefoolishthings.examples.person
    it.tidalwave.thesefoolishthings.examples.inmemoryfinderexample --> it.tidalwave.util
    it.tidalwave.thesefoolishthings.examples.jpafinderexample --> it.tidalwave.thesefoolishthings.examples.person
    it.tidalwave.thesefoolishthings.examples.jpafinderexample --> it.tidalwave.util
    it.tidalwave.thesefoolishthings.examples.jpafinderexample --> it.tidalwave.util.spi
    it.tidalwave.thesefoolishthings.examples.jpafinderexample.role --> it.tidalwave.util

    ' Package links
    class "it.tidalwave.actor" [[it/tidalwave/actor/package-summary.html]] {
    }
    class "it.tidalwave.util" [[it/tidalwave/util/package-summary.html]] {
    }
    class "it.tidalwave.actor.spi" [[it/tidalwave/actor/spi/package-summary.html]] {
    }
    class "it.tidalwave.actor.annotation" [[it/tidalwave/actor/annotation/package-summary.html]] {
    }
    class "it.tidalwave.messagebus" [[it/tidalwave/messagebus/package-summary.html]] {
    }
    class "it.tidalwave.messagebus.spi" [[it/tidalwave/messagebus/spi/package-summary.html]] {
    }
    class "it.tidalwave.role" [[it/tidalwave/role/package-summary.html]] {
    }
    class "it.tidalwave.role.spi" [[it/tidalwave/role/spi/package-summary.html]] {
    }
    class "it.tidalwave.role.ui" [[it/tidalwave/role/ui/package-summary.html]] {
    }
    class "it.tidalwave.role.ui.function" [[it/tidalwave/role/ui/function/package-summary.html]] {
    }
    class "it.tidalwave.role.ui.spi" [[it/tidalwave/role/ui/spi/package-summary.html]] {
    }
    class "it.tidalwave.util.spi" [[it/tidalwave/util/spi/package-summary.html]] {
    }
    class "it.tidalwave.role.io.spi" [[it/tidalwave/role/io/spi/package-summary.html]] {
    }
    class "it.tidalwave.role.io" [[it/tidalwave/role/io/package-summary.html]] {
    }
    class "it.tidalwave.role.spring" [[it/tidalwave/role/spring/package-summary.html]] {
    }
    class "it.tidalwave.role.spring.spi" [[it/tidalwave/role/spring/spi/package-summary.html]] {
    }
    class "it.tidalwave.util.spring" [[it/tidalwave/util/spring/package-summary.html]] {
    }
    class "it.tidalwave.util.ui" [[it/tidalwave/util/ui/package-summary.html]] {
    }
    class "it.tidalwave.util.thread.annotation" [[it/tidalwave/util/thread/annotation/package-summary.html]] {
    }
    class "it.tidalwave.util.thread" [[it/tidalwave/util/thread/package-summary.html]] {
    }
    class "it.tidalwave.util.test" [[it/tidalwave/util/test/package-summary.html]] {
    }
    class "it.tidalwave.thesefoolishthings.examples.person" [[it/tidalwave/thesefoolishthings/examples/person/package-summary.html]] {
    }
    class "it.tidalwave.thesefoolishthings.examples.dci.swing.role" [[it/tidalwave/thesefoolishthings/examples/dci/swing/role/package-summary.html]] {
    }
    class "it.tidalwave.thesefoolishthings.examples.dci.marshal.role" [[it/tidalwave/thesefoolishthings/examples/dci/marshal/role/package-summary.html]] {
    }
    class "it.tidalwave.thesefoolishthings.examples.dci.marshal.xstream" [[it/tidalwave/thesefoolishthings/examples/dci/marshal/xstream/package-summary.html]] {
    }
    class "it.tidalwave.thesefoolishthings.examples.dci.marshal.xstream.converter" [[it/tidalwave/thesefoolishthings/examples/dci/marshal/xstream/converter/package-summary.html]] {
    }
    class "it.tidalwave.thesefoolishthings.examples.dci.persistable.jpa" [[it/tidalwave/thesefoolishthings/examples/dci/persistable/jpa/package-summary.html]] {
    }
    class "it.tidalwave.thesefoolishthings.examples.dci.persistable.jpa.role" [[it/tidalwave/thesefoolishthings/examples/dci/persistable/jpa/role/package-summary.html]] {
    }
    class "it.tidalwave.thesefoolishthings.examples.dci.swing" [[it/tidalwave/thesefoolishthings/examples/dci/swing/package-summary.html]] {
    }
    class "it.tidalwave.thesefoolishthings.examples.dci.swing.swing" [[it/tidalwave/thesefoolishthings/examples/dci/swing/swing/package-summary.html]] {
    }
    class "it.tidalwave.thesefoolishthings.examples.extendedfinderexample" [[it/tidalwave/thesefoolishthings/examples/extendedfinderexample/package-summary.html]] {
    }
    class "it.tidalwave.thesefoolishthings.examples.inmemoryfinderexample" [[it/tidalwave/thesefoolishthings/examples/inmemoryfinderexample/package-summary.html]] {
    }
    class "it.tidalwave.thesefoolishthings.examples.jpafinderexample" [[it/tidalwave/thesefoolishthings/examples/jpafinderexample/package-summary.html]] {
    }
    class "it.tidalwave.thesefoolishthings.examples.jpafinderexample.role" [[it/tidalwave/thesefoolishthings/examples/jpafinderexample/role/package-summary.html]] {
    }

    center footer UMLDoclet 2.0.12, PlantUML 1.2020.16
@enduml
