<?xml version="1.0" encoding="UTF-8" standalone="no"?><svg xmlns="http://www.w3.org/2000/svg" xmlns:xlink="http://www.w3.org/1999/xlink" contentScriptType="application/ecmascript" contentStyleType="text/css" height="122px" preserveAspectRatio="none" style="width:369px;height:122px;" version="1.1" viewBox="0 0 369 122" width="369px" zoomAndPan="magnify"><defs><filter height="300%" id="f1nx5hcavlkyre" width="300%" x="-1" y="-1"><feGaussianBlur result="blurOut" stdDeviation="2.0"/><feColorMatrix in="blurOut" result="blurOut2" type="matrix" values="0 0 0 0 0 0 0 0 0 0 0 0 0 0 0 0 0 0 .4 0"/><feOffset dx="4.0" dy="4.0" in="blurOut2" result="blurOut3"/><feBlend in="SourceGraphic" in2="blurOut3" mode="normal"/></filter></defs><g><!--MD5=[a204d3fb5b78a8b20850b2084dd5ec24]
class it.tidalwave.accounting.exporter.xml.impl.xml.JobEventXml--><a href="JobEventXml.html" target="_top" title="JobEventXml.html" xlink:actuate="onRequest" xlink:href="JobEventXml.html" xlink:show="new" xlink:title="JobEventXml.html" xlink:type="simple"><rect codeLine="5" fill="#FEFECE" filter="url(#f1nx5hcavlkyre)" height="85.1309" id="it.tidalwave.accounting.exporter.xml.impl.xml.JobEventXml" style="stroke: #A80036; stroke-width: 1.5;" width="343" x="7" y="7"/><ellipse cx="62.25" cy="26.1328" fill="#ADD1B2" rx="11" ry="11" style="stroke: #A80036; stroke-width: 1.0;"/><path d="M64.7231,32.2759 Q64.1421,32.5747 63.5029,32.7241 Q62.8638,32.8735 62.1582,32.8735 Q59.6514,32.8735 58.3315,31.2217 Q57.0117,29.5698 57.0117,26.4487 Q57.0117,23.3193 58.3315,21.6675 Q59.6514,20.0156 62.1582,20.0156 Q62.8638,20.0156 63.5112,20.165 Q64.1587,20.3145 64.7231,20.6133 L64.7231,23.3359 Q64.0923,22.7549 63.4988,22.4851 Q62.9053,22.2153 62.2744,22.2153 Q60.9297,22.2153 60.2449,23.282 Q59.5601,24.3486 59.5601,26.4487 Q59.5601,28.5405 60.2449,29.6072 Q60.9297,30.6738 62.2744,30.6738 Q62.9053,30.6738 63.4988,30.4041 Q64.0923,30.1343 64.7231,29.5532 Z "/><text fill="#000000" font-family="sans-serif" font-size="14" lengthAdjust="spacingAndGlyphs" textLength="85" x="152.25" y="25.5352">JobEventXml</text><text fill="#000000" font-family="sans-serif" font-size="10" lengthAdjust="spacingAndGlyphs" textLength="224" x="82.75" y="38.1563">it.tidalwave.accounting.exporter.xml.impl.xml</text><line style="stroke: #A80036; stroke-width: 1.5;" x1="8" x2="349" y1="45.2656" y2="45.2656"/><ellipse cx="18" cy="56.2656" fill="#84BE84" rx="3" ry="3" style="stroke: #038048; stroke-width: 1.0;"/><text fill="#000000" font-family="sans-serif" font-size="11" lengthAdjust="spacingAndGlyphs" textLength="120" x="27" y="59.9004">JobEventXml(JobEvent)</text><ellipse cx="18" cy="69.2207" fill="#84BE84" rx="3" ry="3" style="stroke: #038048; stroke-width: 1.0;"/><text fill="#000000" font-family="sans-serif" font-size="11" lengthAdjust="spacingAndGlyphs" textLength="99" x="27" y="72.8555">toBuilder(): Builder</text><ellipse cx="18" cy="82.1758" fill="#84BE84" rx="3" ry="3" style="stroke: #038048; stroke-width: 1.0;"/><text fill="#000000" font-family="sans-serif" font-size="11" lengthAdjust="spacingAndGlyphs" text-decoration="underline" textLength="317" x="27" y="85.8105">toJobEvents(List&lt;? extends JobEventXml&gt;): List&lt;JobEvent&gt;</text></a><text fill="#888888" font-family="sans-serif" font-size="10" lengthAdjust="spacingAndGlyphs" textLength="188" x="84.5" y="108.7988">UMLDoclet 2.0.12, PlantUML 1.2020.16</text><!--MD5=[e6f0d2fe3e3699f6e58d015a2a4431a6]
@startuml
    set namespaceSeparator none
    hide empty fields
    hide empty methods

    class "<size:14>JobEventXml\n<size:10>it.tidalwave.accounting.exporter.xml.impl.xml" as it.tidalwave.accounting.exporter.xml.impl.xml.JobEventXml [[JobEventXml.html]] {
        +JobEventXml(JobEvent)
        +toBuilder(): Builder
        {static} +toJobEvents(List<? extends JobEventXml>): List<JobEvent>
    }

    center footer UMLDoclet 2.0.12, PlantUML 1.2020.16
@enduml

PlantUML version 1.2020.16(Sun Aug 23 22:20:43 CEST 2020)
(APACHE source distribution)
Java Runtime: OpenJDK Runtime Environment
JVM: OpenJDK 64-Bit Server VM
Default Encoding: UTF-8
Language: en
Country: GB
--></g></svg>