@startuml
    set namespaceSeparator none
    hide empty fields
    hide empty methods

    class "<size:14>Mocks.RI3B\n<size:10>it.tidalwave.util.spi" as it.tidalwave.util.spi.Mocks.RI3B [[Mocks.RI3B.html]]

    interface "<size:14>Mocks.R3\n<size:10>it.tidalwave.util.spi" as it.tidalwave.util.spi.Mocks.R3 [[Mocks.R3.html]]
    class "<size:14>Mocks\n<size:10>it.tidalwave.util.spi" as it.tidalwave.util.spi.Mocks [[Mocks.html]]

    it.tidalwave.util.spi.Mocks.R3 <|.. it.tidalwave.util.spi.Mocks.RI3B
    it.tidalwave.util.spi.Mocks +-- it.tidalwave.util.spi.Mocks.RI3B

    center footer UMLDoclet 2.0.12, PlantUML 1.2020.16
@enduml
