<?xml version="1.0" encoding="UTF-8" standalone="no"?><svg xmlns="http://www.w3.org/2000/svg" xmlns:xlink="http://www.w3.org/1999/xlink" contentScriptType="application/ecmascript" contentStyleType="text/css" height="258px" preserveAspectRatio="none" style="width:368px;height:258px;" version="1.1" viewBox="0 0 368 258" width="368px" zoomAndPan="magnify"><defs><filter height="300%" id="f1t428t65169xu" width="300%" x="-1" y="-1"><feGaussianBlur result="blurOut" stdDeviation="2.0"/><feColorMatrix in="blurOut" result="blurOut2" type="matrix" values="0 0 0 0 0 0 0 0 0 0 0 0 0 0 0 0 0 0 .4 0"/><feOffset dx="4.0" dy="4.0" in="blurOut2" result="blurOut3"/><feBlend in="SourceGraphic" in2="blurOut3" mode="normal"/></filter></defs><g><!--MD5=[47961c61de71975c458f002bbaf69807]
class it.tidalwave.role.SimpleComposite--><a href="SimpleComposite.html" target="_top" title="SimpleComposite.html" xlink:actuate="onRequest" xlink:href="SimpleComposite.html" xlink:show="new" xlink:title="SimpleComposite.html" xlink:type="simple"><rect codeLine="5" fill="#FEFECE" filter="url(#f1t428t65169xu)" height="93.1309" id="it.tidalwave.role.SimpleComposite" style="stroke: #A80036; stroke-width: 1.5;" width="342" x="7" y="129"/><ellipse cx="107.75" cy="148.1328" fill="#B4A7E5" rx="11" ry="11" style="stroke: #A80036; stroke-width: 1.0;"/><path d="M104.1777,144.3979 L104.1777,142.2397 L111.5571,142.2397 L111.5571,144.3979 L109.0918,144.3979 L109.0918,152.4746 L111.5571,152.4746 L111.5571,154.6328 L104.1777,154.6328 L104.1777,152.4746 L106.6431,152.4746 L106.6431,144.3979 Z "/><text fill="#000000" font-family="sans-serif" font-size="14" font-style="italic" lengthAdjust="spacingAndGlyphs" textLength="120" x="128.25" y="147.5352">SimpleComposite</text><text fill="#000000" font-family="sans-serif" font-size="10" font-style="italic" lengthAdjust="spacingAndGlyphs" textLength="79" x="148.75" y="160.1563">it.tidalwave.role</text><rect fill="#FFFFFF" height="16.1328" style="stroke: #000000; stroke-width: 1.0; stroke-dasharray: 2.0,2.0;" width="10" x="342" y="126"/><text fill="#000000" font-family="sans-serif" font-size="12" font-style="italic" lengthAdjust="spacingAndGlyphs" textLength="8" x="343" y="138.6016">T</text><line style="stroke: #A80036; stroke-width: 1.5;" x1="8" x2="348" y1="167.2656" y2="167.2656"/><ellipse cx="18" cy="178.2656" fill="none" rx="3" ry="3" style="stroke: #038048; stroke-width: 1.0;"/><text fill="#000000" font-family="sans-serif" font-size="11" lengthAdjust="spacingAndGlyphs" text-decoration="underline" textLength="251" x="27" y="181.9004">_SimpleComposite_: Class&lt;SimpleComposite&gt;</text><line style="stroke: #A80036; stroke-width: 1.5;" x1="8" x2="348" y1="188.2207" y2="188.2207"/><ellipse cx="18" cy="199.2207" fill="#84BE84" rx="3" ry="3" style="stroke: #038048; stroke-width: 1.0;"/><text fill="#000000" font-family="sans-serif" font-size="11" lengthAdjust="spacingAndGlyphs" text-decoration="underline" textLength="204" x="27" y="202.8555">of(Finder&lt;​U&gt;): SimpleComposite&lt;​U&gt;</text><ellipse cx="18" cy="212.1758" fill="#84BE84" rx="3" ry="3" style="stroke: #038048; stroke-width: 1.0;"/><text fill="#000000" font-family="sans-serif" font-size="11" lengthAdjust="spacingAndGlyphs" text-decoration="underline" textLength="316" x="27" y="215.8105">ofCloned(Collection&lt;? extends U&gt;): SimpleComposite&lt;​U&gt;</text></a><!--MD5=[28f428c66ea6dc6ddd3e830eb1887f56]
class it.tidalwave.role.Composite--><a href="Composite.html" target="_top" title="Composite.html" xlink:actuate="onRequest" xlink:href="Composite.html" xlink:show="new" xlink:title="Composite.html" xlink:type="simple"><rect codeLine="11" fill="#FEFECE" filter="url(#f1t428t65169xu)" height="59.2207" id="it.tidalwave.role.Composite" style="stroke: #A80036; stroke-width: 1.5;" width="195" x="80.5" y="10"/><ellipse cx="95.5" cy="29.1328" fill="#B4A7E5" rx="11" ry="11" style="stroke: #A80036; stroke-width: 1.0;"/><path d="M91.9277,25.3979 L91.9277,23.2397 L99.3071,23.2397 L99.3071,25.3979 L96.8418,25.3979 L96.8418,33.4746 L99.3071,33.4746 L99.3071,35.6328 L91.9277,35.6328 L91.9277,33.4746 L94.3931,33.4746 L94.3931,25.3979 Z "/><text fill="#000000" font-family="sans-serif" font-size="14" font-style="italic" lengthAdjust="spacingAndGlyphs" textLength="74" x="112" y="28.5352">Composite</text><text fill="#000000" font-family="sans-serif" font-size="10" font-style="italic" lengthAdjust="spacingAndGlyphs" textLength="79" x="109.5" y="41.1563">it.tidalwave.role</text><rect fill="#FFFFFF" height="16.1328" style="stroke: #000000; stroke-width: 1.0; stroke-dasharray: 2.0,2.0;" width="82" x="196.5" y="7"/><text fill="#000000" font-family="sans-serif" font-size="12" font-style="italic" lengthAdjust="spacingAndGlyphs" textLength="80" x="197.5" y="19.6016">T, Finder&lt;T&gt;</text><line style="stroke: #A80036; stroke-width: 1.5;" x1="81.5" x2="274.5" y1="48.2656" y2="48.2656"/><ellipse cx="91.5" cy="59.2656" fill="#84BE84" rx="3" ry="3" style="stroke: #038048; stroke-width: 1.0;"/><text fill="#000000" font-family="sans-serif" font-size="11" font-style="italic" lengthAdjust="spacingAndGlyphs" textLength="140" x="100.5" y="62.9004">findChildren(): Finder&lt;T&gt;</text></a><!--MD5=[7daef9bba2f94f646160cd0873314a0c]
reverse link it.tidalwave.role.Composite to it.tidalwave.role.SimpleComposite--><path codeLine="15" d="M178,89.4799 C178,102.3811 178,116.2149 178,128.9343 " fill="none" id="it.tidalwave.role.Composite-backto-it.tidalwave.role.SimpleComposite" style="stroke: #A80036; stroke-width: 1.0;"/><polygon fill="none" points="171.0001,89.01,178,69.01,185.0001,89.0099,171.0001,89.01" style="stroke: #A80036; stroke-width: 1.0;"/><text fill="#888888" font-family="sans-serif" font-size="10" lengthAdjust="spacingAndGlyphs" textLength="188" x="81" y="244.7988">UMLDoclet 2.0.12, PlantUML 1.2020.16</text><!--MD5=[1555269b262c4f86b46e5df1ceb92202]
@startuml
    set namespaceSeparator none
    hide empty fields
    hide empty methods

    interface "<size:14>SimpleComposite\n<size:10>it.tidalwave.role" as it.tidalwave.role.SimpleComposite<T> [[SimpleComposite.html]] {
        {static} +_SimpleComposite_: Class<SimpleComposite>
        {static} +of(Finder<​U>): SimpleComposite<​U>
        {static} +ofCloned(Collection<? extends U>): SimpleComposite<​U>
    }

    interface "<size:14>Composite\n<size:10>it.tidalwave.role" as it.tidalwave.role.Composite<T, Finder<T>> [[Composite.html]] {
        {abstract} +findChildren(): Finder<T>
    }

    it.tidalwave.role.Composite <|- - it.tidalwave.role.SimpleComposite

    center footer UMLDoclet 2.0.12, PlantUML 1.2020.16
@enduml

PlantUML version 1.2020.16(Sun Aug 23 22:20:43 CEST 2020)
(APACHE source distribution)
Java Runtime: OpenJDK Runtime Environment
JVM: OpenJDK 64-Bit Server VM
Default Encoding: UTF-8
Language: en
Country: GB
--></g></svg>