@startuml
    ' Copyright to this UML and generated images belongs to the author of the corresponding Java sources.

    ' This UML was generated by UMLDoclet (C) Copyright 2016-2024 Talsma ICT.
    ' UMLDoclet 2.2.1 is licensed under the Apache License, version 2.0
    ' and contains parts of PlantUML 1.2024.7 (ASL) Copyright 2009-2024, Arnaud Roques.

    !pragma layout smetana

    set namespaceSeparator none
    hide empty fields
    hide empty methods

    interface "<size:14>MessageBus.Listener\n<size:10>it.tidalwave.messagebus" as it.tidalwave.messagebus.MessageBus.Listener<T> [[MessageBus.Listener.html]] {
        {abstract} +notify(T): void
    }

    interface "<size:14>MessageBus\n<size:10>it.tidalwave.messagebus" as it.tidalwave.messagebus.MessageBus [[MessageBus.html]] {
        {abstract} +publish(T): void
        {abstract} +publish(Class<T>, T): void
        {abstract} +subscribe(Class<T>, Listener<T>): void
        {abstract} +unsubscribe(Listener<?>): void
    }

    it.tidalwave.messagebus.MessageBus +-- it.tidalwave.messagebus.MessageBus.Listener

    <style>
        footer {
            HyperLinkColor #8
            HyperLinkUnderlineThickness 0
        }
    </style>
    footer \n[[https://github.com/talsma-ict/umldoclet UMLDoclet 2.2.1]]
    ' Generated 2024-12-19T00:13:12.771193+01:00[Europe/Rome]
@enduml
