<?xml version="1.0" encoding="UTF-8" standalone="no"?><svg xmlns="http://www.w3.org/2000/svg" xmlns:xlink="http://www.w3.org/1999/xlink" contentScriptType="application/ecmascript" contentStyleType="text/css" height="135px" preserveAspectRatio="none" style="width:354px;height:135px;" version="1.1" viewBox="0 0 354 135" width="354px" zoomAndPan="magnify"><defs><filter height="300%" id="fizvsmqh11dpy" width="300%" x="-1" y="-1"><feGaussianBlur result="blurOut" stdDeviation="2.0"/><feColorMatrix in="blurOut" result="blurOut2" type="matrix" values="0 0 0 0 0 0 0 0 0 0 0 0 0 0 0 0 0 0 .4 0"/><feOffset dx="4.0" dy="4.0" in="blurOut2" result="blurOut3"/><feBlend in="SourceGraphic" in2="blurOut3" mode="normal"/></filter></defs><g><!--MD5=[d0472a055584f0bbbbc0b5196a254539]
class it.tidalwave.image.processor.event.ImagingTaskProcessorListener--><a href="ImagingTaskProcessorListener.html" target="_top" title="ImagingTaskProcessorListener.html" xlink:actuate="onRequest" xlink:href="ImagingTaskProcessorListener.html" xlink:show="new" xlink:title="ImagingTaskProcessorListener.html" xlink:type="simple"><rect codeLine="5" fill="#FEFECE" filter="url(#fizvsmqh11dpy)" height="98.0859" id="it.tidalwave.image.processor.event.ImagingTaskProcessorListener" style="stroke: #A80036; stroke-width: 1.5;" width="328" x="7" y="7"/><ellipse cx="62.25" cy="26.1328" fill="#B4A7E5" rx="11" ry="11" style="stroke: #A80036; stroke-width: 1.0;"/><path d="M58.6777,22.3979 L58.6777,20.2397 L66.0571,20.2397 L66.0571,22.3979 L63.5918,22.3979 L63.5918,30.4746 L66.0571,30.4746 L66.0571,32.6328 L58.6777,32.6328 L58.6777,30.4746 L61.1431,30.4746 L61.1431,22.3979 Z "/><text fill="#000000" font-family="sans-serif" font-size="14" font-style="italic" lengthAdjust="spacingAndGlyphs" textLength="209" x="82.75" y="25.5352">ImagingTaskProcessorListener</text><text fill="#000000" font-family="sans-serif" font-size="10" font-style="italic" lengthAdjust="spacingAndGlyphs" textLength="170" x="102.25" y="38.1563">it.tidalwave.image.processor.event</text><line style="stroke: #A80036; stroke-width: 1.5;" x1="8" x2="334" y1="45.2656" y2="45.2656"/><ellipse cx="18" cy="56.2656" fill="#84BE84" rx="3" ry="3" style="stroke: #038048; stroke-width: 1.0;"/><text fill="#000000" font-family="sans-serif" font-size="11" font-style="italic" lengthAdjust="spacingAndGlyphs" textLength="280" x="27" y="59.9004">notifyTaskPosted(ImagingTaskProcessorEvent): void</text><ellipse cx="18" cy="69.2207" fill="#84BE84" rx="3" ry="3" style="stroke: #038048; stroke-width: 1.0;"/><text fill="#000000" font-family="sans-serif" font-size="11" font-style="italic" lengthAdjust="spacingAndGlyphs" textLength="282" x="27" y="72.8555">notifyTaskStarted(ImagingTaskProcessorEvent): void</text><ellipse cx="18" cy="82.1758" fill="#84BE84" rx="3" ry="3" style="stroke: #038048; stroke-width: 1.0;"/><text fill="#000000" font-family="sans-serif" font-size="11" font-style="italic" lengthAdjust="spacingAndGlyphs" textLength="302" x="27" y="85.8105">notifyTaskCompleted(ImagingTaskProcessorEvent): void</text><ellipse cx="18" cy="95.1309" fill="#84BE84" rx="3" ry="3" style="stroke: #038048; stroke-width: 1.0;"/><text fill="#000000" font-family="sans-serif" font-size="11" font-style="italic" lengthAdjust="spacingAndGlyphs" textLength="284" x="27" y="98.7656">notifyTaskPopped(ImagingTaskProcessorEvent): void</text></a><text fill="#888888" font-family="sans-serif" font-size="10" lengthAdjust="spacingAndGlyphs" textLength="188" x="77" y="121.7539">UMLDoclet 2.0.12, PlantUML 1.2020.16</text><!--MD5=[7e76ecce06e8262d187328af8be018fb]
@startuml
    set namespaceSeparator none
    hide empty fields
    hide empty methods

    interface "<size:14>ImagingTaskProcessorListener\n<size:10>it.tidalwave.image.processor.event" as it.tidalwave.image.processor.event.ImagingTaskProcessorListener [[ImagingTaskProcessorListener.html]] {
        {abstract} +notifyTaskPosted(ImagingTaskProcessorEvent): void
        {abstract} +notifyTaskStarted(ImagingTaskProcessorEvent): void
        {abstract} +notifyTaskCompleted(ImagingTaskProcessorEvent): void
        {abstract} +notifyTaskPopped(ImagingTaskProcessorEvent): void
    }

    center footer UMLDoclet 2.0.12, PlantUML 1.2020.16
@enduml

PlantUML version 1.2020.16(Sun Aug 23 22:20:43 CEST 2020)
(APACHE source distribution)
Java Runtime: OpenJDK Runtime Environment
JVM: OpenJDK 64-Bit Server VM
Default Encoding: UTF-8
Language: en
Country: GB
--></g></svg>