<?xml version="1.0" encoding="UTF-8" standalone="no"?><svg xmlns="http://www.w3.org/2000/svg" xmlns:xlink="http://www.w3.org/1999/xlink" contentScriptType="application/ecmascript" contentStyleType="text/css" height="234px" preserveAspectRatio="none" style="width:743px;height:234px;" version="1.1" viewBox="0 0 743 234" width="743px" zoomAndPan="magnify"><defs><filter height="300%" id="fv696vm4tl8nx" width="300%" x="-1" y="-1"><feGaussianBlur result="blurOut" stdDeviation="2.0"/><feColorMatrix in="blurOut" result="blurOut2" type="matrix" values="0 0 0 0 0 0 0 0 0 0 0 0 0 0 0 0 0 0 .4 0"/><feOffset dx="4.0" dy="4.0" in="blurOut2" result="blurOut3"/><feBlend in="SourceGraphic" in2="blurOut3" mode="normal"/></filter></defs><g><!--MD5=[2100922eac91406662a159855054a92f]
class it.tidalwave.northernwind.frontend.ui.component.calendar.htmltemplate.HtmlTemplateCalendarViewController--><a href="HtmlTemplateCalendarViewController.html" target="_top" title="HtmlTemplateCalendarViewController.html" xlink:actuate="onRequest" xlink:href="HtmlTemplateCalendarViewController.html" xlink:show="new" xlink:title="HtmlTemplateCalendarViewController.html" xlink:type="simple"><rect codeLine="5" fill="#FEFECE" filter="url(#fv696vm4tl8nx)" height="72.1758" id="it.tidalwave.northernwind.frontend.ui.component.calendar.htmltemplate.HtmlTemplateCalendarViewController" style="stroke: #A80036; stroke-width: 1.5;" width="715" x="9" y="126"/><ellipse cx="185.75" cy="145.1328" fill="#ADD1B2" rx="11" ry="11" style="stroke: #A80036; stroke-width: 1.0;"/><path d="M188.2231,151.2759 Q187.6421,151.5747 187.0029,151.7241 Q186.3638,151.8735 185.6582,151.8735 Q183.1514,151.8735 181.8315,150.2217 Q180.5117,148.5698 180.5117,145.4487 Q180.5117,142.3193 181.8315,140.6675 Q183.1514,139.0156 185.6582,139.0156 Q186.3638,139.0156 187.0112,139.165 Q187.6587,139.3145 188.2231,139.6133 L188.2231,142.3359 Q187.5923,141.7549 186.9988,141.4851 Q186.4053,141.2153 185.7744,141.2153 Q184.4297,141.2153 183.7449,142.282 Q183.0601,143.3486 183.0601,145.4487 Q183.0601,147.5405 183.7449,148.6072 Q184.4297,149.6738 185.7744,149.6738 Q186.4053,149.6738 186.9988,149.4041 Q187.5923,149.1343 188.2231,148.5532 Z "/><text fill="#000000" font-family="sans-serif" font-size="14" lengthAdjust="spacingAndGlyphs" textLength="260" x="252.75" y="144.5352">HtmlTemplateCalendarViewController</text><text fill="#000000" font-family="sans-serif" font-size="10" lengthAdjust="spacingAndGlyphs" textLength="353" x="206.25" y="157.1563">it.tidalwave.northernwind.frontend.ui.component.calendar.htmltemplate</text><line style="stroke: #A80036; stroke-width: 1.5;" x1="10" x2="723" y1="164.2656" y2="164.2656"/><ellipse cx="20" cy="175.2656" fill="#84BE84" rx="3" ry="3" style="stroke: #038048; stroke-width: 1.0;"/><text fill="#000000" font-family="sans-serif" font-size="11" lengthAdjust="spacingAndGlyphs" textLength="689" x="29" y="178.9004">HtmlTemplateCalendarViewController(HtmlTemplateCalendarView, SiteNode, RequestLocaleManager, CalendarDao, TimeProvider)</text><polygon fill="#FFFF44" points="20,183.2207,24,187.2207,20,191.2207,16,187.2207" style="stroke: #B38D22; stroke-width: 1.0;"/><text fill="#000000" font-family="sans-serif" font-size="11" lengthAdjust="spacingAndGlyphs" textLength="439" x="29" y="191.8555">render(Optional&lt;String&gt;, int, int, int, SortedMap&lt;Integer, List&lt;Entry&gt;&gt;, int): void</text></a><!--MD5=[0c7a6892c60e147b9c0ef3d2272b2f16]
class it.tidalwave.northernwind.frontend.ui.component.calendar.DefaultCalendarViewController--><a href="http://tidalwave.it/projects/northernwind/it-tidalwave-northernwind-modules/it-tidalwave-northernwind-frontend-components/apidocs/it/tidalwave/northernwind/frontend/ui/component/calendar/DefaultCalendarViewController.html?is-external=true" target="_top" title="http://tidalwave.it/projects/northernwind/it-tidalwave-northernwind-modules/it-tidalwave-northernwind-frontend-components/apidocs/it/tidalwave/northernwind/frontend/ui/component/calendar/DefaultCalendarViewController.html?is-external=true" xlink:actuate="onRequest" xlink:href="http://tidalwave.it/projects/northernwind/it-tidalwave-northernwind-modules/it-tidalwave-northernwind-frontend-components/apidocs/it/tidalwave/northernwind/frontend/ui/component/calendar/DefaultCalendarViewController.html?is-external=true" xlink:show="new" xlink:title="http://tidalwave.it/projects/northernwind/it-tidalwave-northernwind-modules/it-tidalwave-northernwind-frontend-components/apidocs/it/tidalwave/northernwind/frontend/ui/component/calendar/DefaultCalendarViewController.html?is-external=true" xlink:type="simple"><rect codeLine="10" fill="#FEFECE" filter="url(#fv696vm4tl8nx)" height="59.2207" id="it.tidalwave.northernwind.frontend.ui.component.calendar.DefaultCalendarViewController" style="stroke: #A80036; stroke-width: 1.5;" width="465" x="134" y="7"/><ellipse cx="220.25" cy="26.1328" fill="#A9DCDF" rx="11" ry="11" style="stroke: #A80036; stroke-width: 1.0;"/><path d="M220.1133,21.481 L218.9595,26.5527 L221.2754,26.5527 Z M218.6191,19.2397 L221.6157,19.2397 L224.9609,31.6328 L222.5122,31.6328 L221.7485,28.5698 L218.4697,28.5698 L217.7227,31.6328 L215.2739,31.6328 Z "/><text fill="#000000" font-family="sans-serif" font-size="14" font-style="italic" lengthAdjust="spacingAndGlyphs" textLength="213" x="276.25" y="25.5352">DefaultCalendarViewController</text><text fill="#000000" font-family="sans-serif" font-size="10" font-style="italic" lengthAdjust="spacingAndGlyphs" textLength="284" x="240.75" y="38.1563">it.tidalwave.northernwind.frontend.ui.component.calendar</text><line style="stroke: #A80036; stroke-width: 1.5;" x1="135" x2="598" y1="45.2656" y2="45.2656"/><polygon fill="#FFFF44" points="145,51.2656,149,55.2656,145,59.2656,141,55.2656" style="stroke: #B38D22; stroke-width: 1.0;"/><text fill="#000000" font-family="sans-serif" font-size="11" font-style="italic" lengthAdjust="spacingAndGlyphs" textLength="439" x="154" y="59.9004">render(Optional&lt;String&gt;, int, int, int, SortedMap&lt;Integer, List&lt;Entry&gt;&gt;, int): void</text></a><!--MD5=[01b7f63d11957bb68d1a27c6b12f4958]
reverse link it.tidalwave.northernwind.frontend.ui.component.calendar.DefaultCalendarViewController to it.tidalwave.northernwind.frontend.ui.component.calendar.htmltemplate.HtmlTemplateCalendarViewController--><path codeLine="14" d="M366.5,86.5049 C366.5,99.6211 366.5,113.5128 366.5,125.7555 " fill="none" id="it.tidalwave.northernwind.frontend.ui.component.calendar.DefaultCalendarViewController-backto-it.tidalwave.northernwind.frontend.ui.component.calendar.htmltemplate.HtmlTemplateCalendarViewController" style="stroke: #A80036; stroke-width: 1.0;"/><polygon fill="none" points="359.5001,86.2418,366.5,66.2417,373.5001,86.2417,359.5001,86.2418" style="stroke: #A80036; stroke-width: 1.0;"/><text fill="#888888" font-family="sans-serif" font-size="10" lengthAdjust="spacingAndGlyphs" textLength="188" x="268.5" y="220.8438">UMLDoclet 2.0.12, PlantUML 1.2020.16</text><!--MD5=[1c06bbddc9336ad469234caedab6db05]
@startuml
    set namespaceSeparator none
    hide empty fields
    hide empty methods

    class "<size:14>HtmlTemplateCalendarViewController\n<size:10>it.tidalwave.northernwind.frontend.ui.component.calendar.htmltemplate" as it.tidalwave.northernwind.frontend.ui.component.calendar.htmltemplate.HtmlTemplateCalendarViewController [[HtmlTemplateCalendarViewController.html]] {
        +HtmlTemplateCalendarViewController(HtmlTemplateCalendarView, SiteNode, RequestLocaleManager, CalendarDao, TimeProvider)
        #render(Optional<String>, int, int, int, SortedMap<Integer, List<Entry>>, int): void
    }

    abstract class "<size:14>DefaultCalendarViewController\n<size:10>it.tidalwave.northernwind.frontend.ui.component.calendar" as it.tidalwave.northernwind.frontend.ui.component.calendar.DefaultCalendarViewController [[http://tidalwave.it/projects/northernwind/it-tidalwave-northernwind-modules/it-tidalwave-northernwind-frontend-components/apidocs/it/tidalwave/northernwind/frontend/ui/component/calendar/DefaultCalendarViewController.html?is-external=true]] {
        {abstract} #render(Optional<String>, int, int, int, SortedMap<Integer, List<Entry>>, int): void
    }

    it.tidalwave.northernwind.frontend.ui.component.calendar.DefaultCalendarViewController <|- - it.tidalwave.northernwind.frontend.ui.component.calendar.htmltemplate.HtmlTemplateCalendarViewController

    center footer UMLDoclet 2.0.12, PlantUML 1.2020.16
@enduml

PlantUML version 1.2020.16(Sun Aug 23 22:20:43 CEST 2020)
(APACHE source distribution)
Java Runtime: OpenJDK Runtime Environment
JVM: OpenJDK 64-Bit Server VM
Default Encoding: UTF-8
Language: en
Country: GB
--></g></svg>