<?xml version="1.0" encoding="UTF-8" standalone="no"?><svg xmlns="http://www.w3.org/2000/svg" xmlns:xlink="http://www.w3.org/1999/xlink" contentScriptType="application/ecmascript" contentStyleType="text/css" height="399px" preserveAspectRatio="none" style="width:677px;height:399px;" version="1.1" viewBox="0 0 677 399" width="677px" zoomAndPan="magnify"><defs><filter height="300%" id="fy3a6wfdzz9s7" width="300%" x="-1" y="-1"><feGaussianBlur result="blurOut" stdDeviation="2.0"/><feColorMatrix in="blurOut" result="blurOut2" type="matrix" values="0 0 0 0 0 0 0 0 0 0 0 0 0 0 0 0 0 0 .4 0"/><feOffset dx="4.0" dy="4.0" in="blurOut2" result="blurOut3"/><feBlend in="SourceGraphic" in2="blurOut3" mode="normal"/></filter></defs><g><!--MD5=[c0a691e80fde55895f7c3dba223fcd56]
cluster it.tidalwave.role.spring.mock--><polygon fill="#FFFFFF" filter="url(#fy3a6wfdzz9s7)" points="140,179,351,179,358,201.4883,655,201.4883,655,370,140,370,140,179" style="stroke: #000000; stroke-width: 1.5;"/><line style="stroke: #000000; stroke-width: 1.5;" x1="140" x2="358" y1="201.4883" y2="201.4883"/><text fill="#000000" font-family="sans-serif" font-size="14" font-weight="bold" lengthAdjust="spacingAndGlyphs" textLength="205" x="144" y="194.5352">it.tidalwave.role.spring.mock</text><!--MD5=[ab149ffdaace04607ca43f034ce9b9c0]
cluster it.tidalwave.util--><polygon fill="#FFFFFF" filter="url(#fy3a6wfdzz9s7)" points="16,6,133,6,140,28.4883,282,28.4883,282,154,16,154,16,6" style="stroke: #000000; stroke-width: 1.5;"/><line style="stroke: #000000; stroke-width: 1.5;" x1="16" x2="140" y1="28.4883" y2="28.4883"/><text fill="#000000" font-family="sans-serif" font-size="14" font-weight="bold" lengthAdjust="spacingAndGlyphs" textLength="111" x="20" y="21.5352">it.tidalwave.util</text><!--MD5=[ad6e96bea5d2fdfe4b1f9881cba9322c]
class it.tidalwave.role.spring.mock.MockDatum2--><a href="MockDatum2.html" target="_top" title="MockDatum2.html" xlink:actuate="onRequest" xlink:href="MockDatum2.html" xlink:show="new" xlink:title="MockDatum2.html" xlink:type="simple"><rect codeLine="3" fill="#FEFECE" filter="url(#fy3a6wfdzz9s7)" height="48" id="it.tidalwave.role.spring.mock.MockDatum2" style="stroke: #A80036; stroke-width: 1.5;" width="108" x="163" y="314"/><ellipse cx="178" cy="330" fill="#ADD1B2" rx="11" ry="11" style="stroke: #A80036; stroke-width: 1.0;"/><path d="M180.4731,336.1431 Q179.8921,336.4419 179.2529,336.5913 Q178.6138,336.7407 177.9082,336.7407 Q175.4014,336.7407 174.0815,335.0889 Q172.7617,333.437 172.7617,330.3159 Q172.7617,327.1865 174.0815,325.5347 Q175.4014,323.8828 177.9082,323.8828 Q178.6138,323.8828 179.2612,324.0322 Q179.9087,324.1816 180.4731,324.4805 L180.4731,327.2031 Q179.8423,326.6221 179.2488,326.3523 Q178.6553,326.0825 178.0244,326.0825 Q176.6797,326.0825 175.9949,327.1492 Q175.3101,328.2158 175.3101,330.3159 Q175.3101,332.4077 175.9949,333.4744 Q176.6797,334.541 178.0244,334.541 Q178.6553,334.541 179.2488,334.2712 Q179.8423,334.0015 180.4731,333.4204 Z "/><text fill="#000000" font-family="sans-serif" font-size="12" lengthAdjust="spacingAndGlyphs" textLength="76" x="192" y="334.5352">MockDatum2</text><line style="stroke: #A80036; stroke-width: 1.5;" x1="164" x2="270" y1="346" y2="346"/><line style="stroke: #A80036; stroke-width: 1.5;" x1="164" x2="270" y1="354" y2="354"/></a><!--MD5=[6c87f8bd140512feee48fbf8ca2213d8]
class it.tidalwave.role.spring.mock.MockRole2--><a href="MockRole2.html" target="_top" title="MockRole2.html" xlink:actuate="onRequest" xlink:href="MockRole2.html" xlink:show="new" xlink:title="MockRole2.html" xlink:type="simple"><rect codeLine="6" fill="#FEFECE" filter="url(#fy3a6wfdzz9s7)" height="48" id="it.tidalwave.role.spring.mock.MockRole2" style="stroke: #A80036; stroke-width: 1.5;" width="95" x="551.5" y="206"/><ellipse cx="566.5" cy="222" fill="#B4A7E5" rx="11" ry="11" style="stroke: #A80036; stroke-width: 1.0;"/><path d="M562.9277,218.2651 L562.9277,216.1069 L570.3071,216.1069 L570.3071,218.2651 L567.8418,218.2651 L567.8418,226.3418 L570.3071,226.3418 L570.3071,228.5 L562.9277,228.5 L562.9277,226.3418 L565.3931,226.3418 L565.3931,218.2651 Z "/><text fill="#000000" font-family="sans-serif" font-size="12" font-style="italic" lengthAdjust="spacingAndGlyphs" textLength="63" x="580.5" y="226.5352">MockRole2</text><line style="stroke: #A80036; stroke-width: 1.5;" x1="552.5" x2="645.5" y1="238" y2="238"/><line style="stroke: #A80036; stroke-width: 1.5;" x1="552.5" x2="645.5" y1="246" y2="246"/></a><!--MD5=[4370ab9c0b56cf98ae49eafe8190ae4d]
class it.tidalwave.role.spring.mock.MockRole3--><a href="MockRole3.html" target="_top" title="MockRole3.html" xlink:actuate="onRequest" xlink:href="MockRole3.html" xlink:show="new" xlink:title="MockRole3.html" xlink:type="simple"><rect codeLine="8" fill="#FEFECE" filter="url(#fy3a6wfdzz9s7)" height="48" id="it.tidalwave.role.spring.mock.MockRole3" style="stroke: #A80036; stroke-width: 1.5;" width="95" x="291.5" y="206"/><ellipse cx="306.5" cy="222" fill="#B4A7E5" rx="11" ry="11" style="stroke: #A80036; stroke-width: 1.0;"/><path d="M302.9277,218.2651 L302.9277,216.1069 L310.3071,216.1069 L310.3071,218.2651 L307.8418,218.2651 L307.8418,226.3418 L310.3071,226.3418 L310.3071,228.5 L302.9277,228.5 L302.9277,226.3418 L305.3931,226.3418 L305.3931,218.2651 Z "/><text fill="#000000" font-family="sans-serif" font-size="12" font-style="italic" lengthAdjust="spacingAndGlyphs" textLength="63" x="320.5" y="226.5352">MockRole3</text><line style="stroke: #A80036; stroke-width: 1.5;" x1="292.5" x2="385.5" y1="238" y2="238"/><line style="stroke: #A80036; stroke-width: 1.5;" x1="292.5" x2="385.5" y1="246" y2="246"/></a><!--MD5=[3caad41f6af74ae0aa918d278991ae56]
class it.tidalwave.role.spring.mock.MockRole1--><a href="MockRole1.html" target="_top" title="MockRole1.html" xlink:actuate="onRequest" xlink:href="MockRole1.html" xlink:show="new" xlink:title="MockRole1.html" xlink:type="simple"><rect codeLine="10" fill="#FEFECE" filter="url(#fy3a6wfdzz9s7)" height="48" id="it.tidalwave.role.spring.mock.MockRole1" style="stroke: #A80036; stroke-width: 1.5;" width="95" x="421.5" y="206"/><ellipse cx="436.5" cy="222" fill="#B4A7E5" rx="11" ry="11" style="stroke: #A80036; stroke-width: 1.0;"/><path d="M432.9277,218.2651 L432.9277,216.1069 L440.3071,216.1069 L440.3071,218.2651 L437.8418,218.2651 L437.8418,226.3418 L440.3071,226.3418 L440.3071,228.5 L432.9277,228.5 L432.9277,226.3418 L435.3931,226.3418 L435.3931,218.2651 Z "/><text fill="#000000" font-family="sans-serif" font-size="12" font-style="italic" lengthAdjust="spacingAndGlyphs" textLength="63" x="450.5" y="226.5352">MockRole1</text><line style="stroke: #A80036; stroke-width: 1.5;" x1="422.5" x2="515.5" y1="238" y2="238"/><line style="stroke: #A80036; stroke-width: 1.5;" x1="422.5" x2="515.5" y1="246" y2="246"/></a><!--MD5=[d2983f3f828143812ed7ca6dd2fcd09c]
class it.tidalwave.role.spring.mock.MockDatum1--><a href="MockDatum1.html" target="_top" title="MockDatum1.html" xlink:actuate="onRequest" xlink:href="MockDatum1.html" xlink:show="new" xlink:title="MockDatum1.html" xlink:type="simple"><rect codeLine="12" fill="#FEFECE" filter="url(#fy3a6wfdzz9s7)" height="48" id="it.tidalwave.role.spring.mock.MockDatum1" style="stroke: #A80036; stroke-width: 1.5;" width="108" x="148" y="206"/><ellipse cx="163" cy="222" fill="#ADD1B2" rx="11" ry="11" style="stroke: #A80036; stroke-width: 1.0;"/><path d="M165.4731,228.1431 Q164.8921,228.4419 164.2529,228.5913 Q163.6138,228.7407 162.9082,228.7407 Q160.4014,228.7407 159.0815,227.0889 Q157.7617,225.437 157.7617,222.3159 Q157.7617,219.1865 159.0815,217.5347 Q160.4014,215.8828 162.9082,215.8828 Q163.6138,215.8828 164.2612,216.0322 Q164.9087,216.1816 165.4731,216.4805 L165.4731,219.2031 Q164.8423,218.6221 164.2488,218.3523 Q163.6553,218.0825 163.0244,218.0825 Q161.6797,218.0825 160.9949,219.1492 Q160.3101,220.2158 160.3101,222.3159 Q160.3101,224.4077 160.9949,225.4744 Q161.6797,226.541 163.0244,226.541 Q163.6553,226.541 164.2488,226.2712 Q164.8423,226.0015 165.4731,225.4204 Z "/><text fill="#000000" font-family="sans-serif" font-size="12" lengthAdjust="spacingAndGlyphs" textLength="76" x="177" y="226.5352">MockDatum1</text><line style="stroke: #A80036; stroke-width: 1.5;" x1="149" x2="255" y1="238" y2="238"/><line style="stroke: #A80036; stroke-width: 1.5;" x1="149" x2="255" y1="246" y2="246"/></a><!--MD5=[ed3d57c79a4f5c846b1df754ef75d9e7]
class it.tidalwave.role.spring.mock.MockConcreteRole1--><a href="MockConcreteRole1.html" target="_top" title="MockConcreteRole1.html" xlink:actuate="onRequest" xlink:href="MockConcreteRole1.html" xlink:show="new" xlink:title="MockConcreteRole1.html" xlink:type="simple"><rect codeLine="15" fill="#FEFECE" filter="url(#fy3a6wfdzz9s7)" height="48" id="it.tidalwave.role.spring.mock.MockConcreteRole1" style="stroke: #A80036; stroke-width: 1.5;" width="146" x="320" y="314"/><ellipse cx="335" cy="330" fill="#ADD1B2" rx="11" ry="11" style="stroke: #A80036; stroke-width: 1.0;"/><path d="M337.4731,336.1431 Q336.8921,336.4419 336.2529,336.5913 Q335.6138,336.7407 334.9082,336.7407 Q332.4014,336.7407 331.0815,335.0889 Q329.7617,333.437 329.7617,330.3159 Q329.7617,327.1865 331.0815,325.5347 Q332.4014,323.8828 334.9082,323.8828 Q335.6138,323.8828 336.2612,324.0322 Q336.9087,324.1816 337.4731,324.4805 L337.4731,327.2031 Q336.8423,326.6221 336.2488,326.3523 Q335.6553,326.0825 335.0244,326.0825 Q333.6797,326.0825 332.9949,327.1492 Q332.3101,328.2158 332.3101,330.3159 Q332.3101,332.4077 332.9949,333.4744 Q333.6797,334.541 335.0244,334.541 Q335.6553,334.541 336.2488,334.2712 Q336.8423,334.0015 337.4731,333.4204 Z "/><text fill="#000000" font-family="sans-serif" font-size="12" lengthAdjust="spacingAndGlyphs" textLength="114" x="349" y="334.5352">MockConcreteRole1</text><line style="stroke: #A80036; stroke-width: 1.5;" x1="321" x2="465" y1="346" y2="346"/><line style="stroke: #A80036; stroke-width: 1.5;" x1="321" x2="465" y1="354" y2="354"/></a><!--MD5=[e533e1103eb42bf989aa88b85c10ab4d]
class it.tidalwave.role.spring.mock.MockConcreteRole2--><a href="MockConcreteRole2.html" target="_top" title="MockConcreteRole2.html" xlink:actuate="onRequest" xlink:href="MockConcreteRole2.html" xlink:show="new" xlink:title="MockConcreteRole2.html" xlink:type="simple"><rect codeLine="18" fill="#FEFECE" filter="url(#fy3a6wfdzz9s7)" height="48" id="it.tidalwave.role.spring.mock.MockConcreteRole2" style="stroke: #A80036; stroke-width: 1.5;" width="146" x="501" y="314"/><ellipse cx="516" cy="330" fill="#ADD1B2" rx="11" ry="11" style="stroke: #A80036; stroke-width: 1.0;"/><path d="M518.4731,336.1431 Q517.8921,336.4419 517.2529,336.5913 Q516.6138,336.7407 515.9082,336.7407 Q513.4014,336.7407 512.0815,335.0889 Q510.7617,333.437 510.7617,330.3159 Q510.7617,327.1865 512.0815,325.5347 Q513.4014,323.8828 515.9082,323.8828 Q516.6138,323.8828 517.2612,324.0322 Q517.9087,324.1816 518.4731,324.4805 L518.4731,327.2031 Q517.8423,326.6221 517.2488,326.3523 Q516.6553,326.0825 516.0244,326.0825 Q514.6797,326.0825 513.9949,327.1492 Q513.3101,328.2158 513.3101,330.3159 Q513.3101,332.4077 513.9949,333.4744 Q514.6797,334.541 516.0244,334.541 Q516.6553,334.541 517.2488,334.2712 Q517.8423,334.0015 518.4731,333.4204 Z "/><text fill="#000000" font-family="sans-serif" font-size="12" lengthAdjust="spacingAndGlyphs" textLength="114" x="530" y="334.5352">MockConcreteRole2</text><line style="stroke: #A80036; stroke-width: 1.5;" x1="502" x2="646" y1="346" y2="346"/><line style="stroke: #A80036; stroke-width: 1.5;" x1="502" x2="646" y1="354" y2="354"/></a><!--MD5=[dab04e1bf87902def4158d0914d2f9d5]
class it.tidalwave.util.As--><a href="http://tidalwave.it/projects/thesefoolishthings/modules/it-tidalwave-util/apidocs/it/tidalwave/util/As.html?is-external=true" target="_top" title="http://tidalwave.it/projects/thesefoolishthings/modules/it-tidalwave-util/apidocs/it/tidalwave/util/As.html?is-external=true" xlink:actuate="onRequest" xlink:href="http://tidalwave.it/projects/thesefoolishthings/modules/it-tidalwave-util/apidocs/it/tidalwave/util/As.html?is-external=true" xlink:show="new" xlink:title="http://tidalwave.it/projects/thesefoolishthings/modules/it-tidalwave-util/apidocs/it/tidalwave/util/As.html?is-external=true" xlink:type="simple"><rect codeLine="29" fill="#FEFECE" filter="url(#fy3a6wfdzz9s7)" height="112.7754" id="it.tidalwave.util.As" style="stroke: #A80036; stroke-width: 1.5;" width="250" x="24" y="33"/><ellipse cx="137.75" cy="49" fill="#B4A7E5" rx="11" ry="11" style="stroke: #A80036; stroke-width: 1.0;"/><path d="M134.1777,45.2651 L134.1777,43.1069 L141.5571,43.1069 L141.5571,45.2651 L139.0918,45.2651 L139.0918,53.3418 L141.5571,53.3418 L141.5571,55.5 L134.1777,55.5 L134.1777,53.3418 L136.6431,53.3418 L136.6431,45.2651 Z "/><text fill="#000000" font-family="sans-serif" font-size="12" font-style="italic" lengthAdjust="spacingAndGlyphs" textLength="14" x="158.25" y="53.5352">As</text><line style="stroke: #A80036; stroke-width: 1.5;" x1="25" x2="273" y1="65" y2="65"/><line style="stroke: #A80036; stroke-width: 1.5;" x1="25" x2="273" y1="73" y2="73"/><ellipse cx="35" cy="84" fill="#84BE84" rx="3" ry="3" style="stroke: #038048; stroke-width: 1.0;"/><text fill="#000000" font-family="sans-serif" font-size="11" font-style="italic" lengthAdjust="spacingAndGlyphs" textLength="87" x="44" y="87.6348">as(Class&lt;T&gt;): T</text><ellipse cx="35" cy="96.9551" fill="#84BE84" rx="3" ry="3" style="stroke: #038048; stroke-width: 1.0;"/><text fill="#000000" font-family="sans-serif" font-size="11" font-style="italic" lengthAdjust="spacingAndGlyphs" textLength="224" x="44" y="100.5898">as(Class&lt;T&gt;, NotFoundBehaviour&lt;T&gt;): T</text><ellipse cx="35" cy="109.9102" fill="#84BE84" rx="3" ry="3" style="stroke: #038048; stroke-width: 1.0;"/><text fill="#000000" font-family="sans-serif" font-size="11" lengthAdjust="spacingAndGlyphs" textLength="188" x="44" y="113.5449">maybeAs(Class&lt;T&gt;): Optional&lt;T&gt;</text><ellipse cx="35" cy="122.8652" fill="#84BE84" rx="3" ry="3" style="stroke: #038048; stroke-width: 1.0;"/><text fill="#000000" font-family="sans-serif" font-size="11" lengthAdjust="spacingAndGlyphs" text-decoration="line-through" textLength="58" x="44" y="126.5">asOptional</text><text fill="#000000" font-family="sans-serif" font-size="11" lengthAdjust="spacingAndGlyphs" textLength="139" x="102" y="126.5">(Class&lt;T&gt;): Optional&lt;T&gt;</text><ellipse cx="35" cy="135.8203" fill="#84BE84" rx="3" ry="3" style="stroke: #038048; stroke-width: 1.0;"/><text fill="#000000" font-family="sans-serif" font-size="11" font-style="italic" lengthAdjust="spacingAndGlyphs" textLength="187" x="44" y="139.4551">asMany(Class&lt;T&gt;): Collection&lt;T&gt;</text></a><!--MD5=[da3f80fb37f71b1e61c46aea4d420a11]
reverse link it.tidalwave.util.As to it.tidalwave.role.spring.mock.MockDatum2--><path codeLine="21" d="M125.1617,165.9022 C120.1928,194.462 119.4595,226.5958 131,254 C141.2063,278.236 162.1991,298.9635 180.8881,313.7652 " fill="none" id="it.tidalwave.util.As-backto-it.tidalwave.role.spring.mock.MockDatum2" style="stroke: #A80036; stroke-width: 1.0; stroke-dasharray: 7.0,7.0;"/><polygon fill="none" points="118.3133,164.4531,129.2958,146.3316,132.011,167.3466,118.3133,164.4531" style="stroke: #A80036; stroke-width: 1.0;"/><!--MD5=[e4044071313af19ff0019f07043794f1]
reverse link it.tidalwave.role.spring.mock.MockRole3 to it.tidalwave.role.spring.mock.MockDatum2--><path codeLine="22" d="M296.5095,267.6145 C279.1826,282.9531 259.6546,300.2402 244.2878,313.8436 " fill="none" id="it.tidalwave.role.spring.mock.MockRole3-backto-it.tidalwave.role.spring.mock.MockDatum2" style="stroke: #A80036; stroke-width: 1.0; stroke-dasharray: 7.0,7.0;"/><polygon fill="none" points="292.0057,262.2528,311.6208,254.2373,301.2854,272.7355,292.0057,262.2528" style="stroke: #A80036; stroke-width: 1.0;"/><!--MD5=[ab6a7481432a8f50951a3c1226fec0d4]
reverse link it.tidalwave.util.As to it.tidalwave.role.spring.mock.MockDatum1--><path codeLine="23" d="M177.6375,165.4163 C183.1467,180.021 188.5319,194.297 192.8324,205.6972 " fill="none" id="it.tidalwave.util.As-backto-it.tidalwave.role.spring.mock.MockDatum1" style="stroke: #A80036; stroke-width: 1.0; stroke-dasharray: 7.0,7.0;"/><polygon fill="none" points="170.9139,167.4253,170.4044,146.2417,184.0129,162.484,170.9139,167.4253" style="stroke: #A80036; stroke-width: 1.0;"/><!--MD5=[7f837edfc839419099c41570eb345089]
reverse link it.tidalwave.role.spring.mock.MockRole1 to it.tidalwave.role.spring.mock.MockConcreteRole1--><path codeLine="24" d="M440.198,270.9291 C430.012,285.4039 418.888,301.2119 409.999,313.8436 " fill="none" id="it.tidalwave.role.spring.mock.MockRole1-backto-it.tidalwave.role.spring.mock.MockConcreteRole1" style="stroke: #A80036; stroke-width: 1.0; stroke-dasharray: 7.0,7.0;"/><polygon fill="none" points="434.7096,266.565,451.9441,254.2373,446.1589,274.6219,434.7096,266.565" style="stroke: #A80036; stroke-width: 1.0;"/><!--MD5=[1ee5c55bd4bf52788d8c96edfc60cf85]
reverse link it.tidalwave.role.spring.mock.MockRole2 to it.tidalwave.role.spring.mock.MockConcreteRole2--><path codeLine="25" d="M588.8592,273.8084 C585.6957,287.4747 582.323,302.0447 579.5918,313.8436 " fill="none" id="it.tidalwave.role.spring.mock.MockRole2-backto-it.tidalwave.role.spring.mock.MockConcreteRole2" style="stroke: #A80036; stroke-width: 1.0; stroke-dasharray: 7.0,7.0;"/><polygon fill="none" points="582.0594,272.1434,593.3895,254.2373,595.6987,275.3007,582.0594,272.1434" style="stroke: #A80036; stroke-width: 1.0;"/><text fill="#888888" font-family="sans-serif" font-size="10" lengthAdjust="spacingAndGlyphs" textLength="188" x="235.5" y="385.668">UMLDoclet 2.0.12, PlantUML 1.2020.16</text><!--MD5=[41a0512a49939ade343ac0c74d94675e]
@startuml
    namespace it.tidalwave.role.spring.mock {

        class MockDatum2 [[MockDatum2.html]] {
        }

        interface MockRole2 [[MockRole2.html]]

        interface MockRole3 [[MockRole3.html]]

        interface MockRole1 [[MockRole1.html]]

        class MockDatum1 [[MockDatum1.html]] {
        }

        class MockConcreteRole1 [[MockConcreteRole1.html]] {
        }

        class MockConcreteRole2 [[MockConcreteRole2.html]] {
        }

        it.tidalwave.util.As <|.. MockDatum2
        MockRole3 <|.. MockDatum2
        it.tidalwave.util.As <|.. MockDatum1
        MockRole1 <|.. MockConcreteRole1
        MockRole2 <|.. MockConcreteRole2
    }

    namespace it.tidalwave.util {
        interface As [[http://tidalwave.it/projects/thesefoolishthings/modules/it-tidalwave-util/apidocs/it/tidalwave/util/As.html?is-external=true]] {
            {abstract} +as(Class<T>): T
            {abstract} +as(Class<T>, NotFoundBehaviour<T>): T
            +maybeAs(Class<T>): Optional<T>
            +- -asOptional- -(Class<T>): Optional<T>
            {abstract} +asMany(Class<T>): Collection<T>
        }
    }

    center footer UMLDoclet 2.0.12, PlantUML 1.2020.16
@enduml

PlantUML version 1.2020.16(Sun Aug 23 22:20:43 CEST 2020)
(APACHE source distribution)
Java Runtime: OpenJDK Runtime Environment
JVM: OpenJDK 64-Bit Server VM
Default Encoding: UTF-8
Language: en
Country: GB
--></g></svg>