@startuml
    namespace it.tidalwave.messagebus {

        abstract class EventBusAdapterTestSupport [[EventBusAdapterTestSupport.html]] {
            +testCreateMethodAdapter(): void
            {abstract} #publish(Object): void
            {abstract} #getAdapterFactory(): Adapter
        }

        class Message1 [[Message1.html]]

        class Message2 [[Message2.html]]

        class EventBusAdapterExample [[EventBusAdapterExample.html]] {
            +EventBusAdapterExample(Adapter)
            +start(): void
            +stop(): void
        }

    }

    center footer UMLDoclet 2.0.12, PlantUML 1.2020.16
@enduml
