<?xml version="1.0" encoding="UTF-8" standalone="no"?><svg xmlns="http://www.w3.org/2000/svg" xmlns:xlink="http://www.w3.org/1999/xlink" contentScriptType="application/ecmascript" contentStyleType="text/css" height="200px" preserveAspectRatio="none" style="width:310px;height:200px;" version="1.1" viewBox="0 0 310 200" width="310px" zoomAndPan="magnify"><defs><filter height="300%" id="ffmurotm62bep" width="300%" x="-1" y="-1"><feGaussianBlur result="blurOut" stdDeviation="2.0"/><feColorMatrix in="blurOut" result="blurOut2" type="matrix" values="0 0 0 0 0 0 0 0 0 0 0 0 0 0 0 0 0 0 .4 0"/><feOffset dx="4.0" dy="4.0" in="blurOut2" result="blurOut3"/><feBlend in="SourceGraphic" in2="blurOut3" mode="normal"/></filter></defs><g><!--MD5=[edc5fd5066397a63548e28186a3c8f7e]
class it.tidalwave.role.spring.spi.AnnotationSpringSystemRoleFactory--><a href="AnnotationSpringSystemRoleFactory.html" target="_top" title="AnnotationSpringSystemRoleFactory.html" xlink:actuate="onRequest" xlink:href="AnnotationSpringSystemRoleFactory.html" xlink:show="new" xlink:title="AnnotationSpringSystemRoleFactory.html" xlink:type="simple"><rect codeLine="5" fill="#FEFECE" filter="url(#ffmurotm62bep)" height="59.2207" id="it.tidalwave.role.spring.spi.AnnotationSpringSystemRoleFactory" style="stroke: #A80036; stroke-width: 1.5;" width="282" x="9" y="105"/><ellipse cx="24" cy="124.1328" fill="#ADD1B2" rx="11" ry="11" style="stroke: #A80036; stroke-width: 1.0;"/><path d="M26.4731,130.2759 Q25.8921,130.5747 25.2529,130.7241 Q24.6138,130.8735 23.9082,130.8735 Q21.4014,130.8735 20.0815,129.2217 Q18.7617,127.5698 18.7617,124.4487 Q18.7617,121.3193 20.0815,119.6675 Q21.4014,118.0156 23.9082,118.0156 Q24.6138,118.0156 25.2612,118.165 Q25.9087,118.3145 26.4731,118.6133 L26.4731,121.3359 Q25.8423,120.7549 25.2488,120.4851 Q24.6553,120.2153 24.0244,120.2153 Q22.6797,120.2153 21.9949,121.282 Q21.3101,122.3486 21.3101,124.4487 Q21.3101,126.5405 21.9949,127.6072 Q22.6797,128.6738 24.0244,128.6738 Q24.6553,128.6738 25.2488,128.4041 Q25.8423,128.1343 26.4731,127.5532 Z "/><text fill="#000000" font-family="sans-serif" font-size="14" lengthAdjust="spacingAndGlyphs" textLength="250" x="38" y="123.5352">AnnotationSpringSystemRoleFactory</text><text fill="#000000" font-family="sans-serif" font-size="10" lengthAdjust="spacingAndGlyphs" textLength="129" x="98.5" y="136.1563">it.tidalwave.role.spring.spi</text><line style="stroke: #A80036; stroke-width: 1.5;" x1="10" x2="290" y1="143.2656" y2="143.2656"/><polygon fill="#FFFF44" points="20,149.2656,24,153.2656,20,157.2656,16,153.2656" style="stroke: #B38D22; stroke-width: 1.0;"/><text fill="#000000" font-family="sans-serif" font-size="11" lengthAdjust="spacingAndGlyphs" textLength="181" x="29" y="157.9004">getBean(Class&lt;T&gt;): Optional&lt;T&gt;</text></a><!--MD5=[d11beaaf1467b21e3ddd81b2d636df52]
class it.tidalwave.role.spi.SystemRoleFactorySupport--><a href="../../spi/SystemRoleFactorySupport.html" target="_top" title="../../spi/SystemRoleFactorySupport.html" xlink:actuate="onRequest" xlink:href="../../spi/SystemRoleFactorySupport.html" xlink:show="new" xlink:title="../../spi/SystemRoleFactorySupport.html" xlink:type="simple"><rect codeLine="9" fill="#FEFECE" filter="url(#ffmurotm62bep)" height="38.2656" id="it.tidalwave.role.spi.SystemRoleFactorySupport" style="stroke: #A80036; stroke-width: 1.5;" width="215" x="42.5" y="7"/><ellipse cx="57.5" cy="26.1328" fill="#A9DCDF" rx="11" ry="11" style="stroke: #A80036; stroke-width: 1.0;"/><path d="M57.3633,21.481 L56.2095,26.5527 L58.5254,26.5527 Z M55.8691,19.2397 L58.8657,19.2397 L62.2109,31.6328 L59.7622,31.6328 L58.9985,28.5698 L55.7197,28.5698 L54.9727,31.6328 L52.5239,31.6328 Z "/><text fill="#000000" font-family="sans-serif" font-size="14" font-style="italic" lengthAdjust="spacingAndGlyphs" textLength="183" x="71.5" y="25.5352">SystemRoleFactorySupport</text><text fill="#000000" font-family="sans-serif" font-size="10" font-style="italic" lengthAdjust="spacingAndGlyphs" textLength="96" x="115" y="38.1563">it.tidalwave.role.spi</text></a><!--MD5=[97e6b5d28ca97985454e7e98154dca86]
reverse link it.tidalwave.role.spi.SystemRoleFactorySupport to it.tidalwave.role.spring.spi.AnnotationSpringSystemRoleFactory--><path codeLine="11" d="M150,65.3533 C150,78.4123 150,92.7197 150,104.9146 " fill="none" id="it.tidalwave.role.spi.SystemRoleFactorySupport-backto-it.tidalwave.role.spring.spi.AnnotationSpringSystemRoleFactory" style="stroke: #A80036; stroke-width: 1.0;"/><polygon fill="none" points="143.0001,65.1479,150,45.1479,157.0001,65.1478,143.0001,65.1479" style="stroke: #A80036; stroke-width: 1.0;"/><text fill="#888888" font-family="sans-serif" font-size="10" lengthAdjust="spacingAndGlyphs" textLength="188" x="52" y="186.8887">UMLDoclet 2.0.12, PlantUML 1.2020.16</text><!--MD5=[710f9608b5ecbfd9e00d7db92cc7f718]
@startuml
    set namespaceSeparator none
    hide empty fields
    hide empty methods

    class "<size:14>AnnotationSpringSystemRoleFactory\n<size:10>it.tidalwave.role.spring.spi" as it.tidalwave.role.spring.spi.AnnotationSpringSystemRoleFactory [[AnnotationSpringSystemRoleFactory.html]] {
        #getBean(Class<T>): Optional<T>
    }

    abstract class "<size:14>SystemRoleFactorySupport\n<size:10>it.tidalwave.role.spi" as it.tidalwave.role.spi.SystemRoleFactorySupport [[../../spi/SystemRoleFactorySupport.html]]

    it.tidalwave.role.spi.SystemRoleFactorySupport <|- - it.tidalwave.role.spring.spi.AnnotationSpringSystemRoleFactory

    center footer UMLDoclet 2.0.12, PlantUML 1.2020.16
@enduml

PlantUML version 1.2020.16(Sun Aug 23 22:20:43 CEST 2020)
(APACHE source distribution)
Java Runtime: OpenJDK Runtime Environment
JVM: OpenJDK 64-Bit Server VM
Default Encoding: UTF-8
Language: en
Country: GB
--></g></svg>