@startuml
    set namespaceSeparator none
    hide empty fields
    hide empty methods

    class "<size:14>SpringSystemRoleFactoryProvider\n<size:10>it.tidalwave.role.spring.spi" as it.tidalwave.role.spring.spi.SpringSystemRoleFactoryProvider [[SpringSystemRoleFactoryProvider.html]] {
        +getSystemRoleFactory(): SystemRoleFactory
    }

    interface "<size:14>SystemRoleFactoryProvider\n<size:10>it.tidalwave.role.spi" as it.tidalwave.role.spi.SystemRoleFactoryProvider [[../../spi/SystemRoleFactoryProvider.html]] {
        {abstract} +getSystemRoleFactory(): SystemRoleFactory
    }

    it.tidalwave.role.spi.SystemRoleFactoryProvider <|.. it.tidalwave.role.spring.spi.SpringSystemRoleFactoryProvider

    center footer UMLDoclet 2.0.12, PlantUML 1.2020.16
@enduml
