<?xml version="1.0" encoding="UTF-8" standalone="no"?><svg xmlns="http://www.w3.org/2000/svg" xmlns:xlink="http://www.w3.org/1999/xlink" contentScriptType="application/ecmascript" contentStyleType="text/css" height="247px" preserveAspectRatio="none" style="width:347px;height:247px;" version="1.1" viewBox="0 0 347 247" width="347px" zoomAndPan="magnify"><defs><filter height="300%" id="f2ohf2dgplcul" width="300%" x="-1" y="-1"><feGaussianBlur result="blurOut" stdDeviation="2.0"/><feColorMatrix in="blurOut" result="blurOut2" type="matrix" values="0 0 0 0 0 0 0 0 0 0 0 0 0 0 0 0 0 0 .4 0"/><feOffset dx="4.0" dy="4.0" in="blurOut2" result="blurOut3"/><feBlend in="SourceGraphic" in2="blurOut3" mode="normal"/></filter></defs><g><!--MD5=[6b2b6bf794fb4e1bf268726b38a2293e]
class it.tidalwave.thesefoolishthings.examples.jpafinderexample.PersonRegistry3--><a href="PersonRegistry3.html" target="_top" title="PersonRegistry3.html" xlink:actuate="onRequest" xlink:href="PersonRegistry3.html" xlink:show="new" xlink:title="PersonRegistry3.html" xlink:type="simple"><rect codeLine="5" fill="#FEFECE" filter="url(#f2ohf2dgplcul)" height="72.1758" id="it.tidalwave.thesefoolishthings.examples.jpafinderexample.PersonRegistry3" style="stroke: #A80036; stroke-width: 1.5;" width="321" x="7" y="139"/><ellipse cx="22" cy="158.1328" fill="#B4A7E5" rx="11" ry="11" style="stroke: #A80036; stroke-width: 1.0;"/><path d="M18.4277,154.3979 L18.4277,152.2397 L25.8071,152.2397 L25.8071,154.3979 L23.3418,154.3979 L23.3418,162.4746 L25.8071,162.4746 L25.8071,164.6328 L18.4277,164.6328 L18.4277,162.4746 L20.8931,162.4746 L20.8931,154.3979 Z "/><text fill="#000000" font-family="sans-serif" font-size="14" font-style="italic" lengthAdjust="spacingAndGlyphs" textLength="111" x="125" y="157.5352">PersonRegistry3</text><text fill="#000000" font-family="sans-serif" font-size="10" font-style="italic" lengthAdjust="spacingAndGlyphs" textLength="289" x="36" y="170.1563">it.tidalwave.thesefoolishthings.examples.jpafinderexample</text><line style="stroke: #A80036; stroke-width: 1.5;" x1="8" x2="327" y1="177.2656" y2="177.2656"/><ellipse cx="18" cy="188.2656" fill="none" rx="3" ry="3" style="stroke: #038048; stroke-width: 1.0;"/><text fill="#000000" font-family="sans-serif" font-size="11" lengthAdjust="spacingAndGlyphs" text-decoration="underline" textLength="161" x="27" y="191.9004">BY_FIRST_NAME: SortCriterion</text><ellipse cx="18" cy="201.2207" fill="none" rx="3" ry="3" style="stroke: #038048; stroke-width: 1.0;"/><text fill="#000000" font-family="sans-serif" font-size="11" lengthAdjust="spacingAndGlyphs" text-decoration="underline" textLength="159" x="27" y="204.8555">BY_LAST_NAME: SortCriterion</text></a><!--MD5=[a24178fb498e0bff7cc0053c0892f6a5]
class it.tidalwave.thesefoolishthings.examples.person.PersonRegistry--><a href="http://tidalwave.it/projects/thesefoolishthings/modules/thesefoolishthings-examples/it-tidalwave-thesefoolishthings-examples-data/apidocs/it/tidalwave/thesefoolishthings/examples/person/PersonRegistry.html?is-external=true" target="_top" title="http://tidalwave.it/projects/thesefoolishthings/modules/thesefoolishthings-examples/it-tidalwave-thesefoolishthings-examples-data/apidocs/it/tidalwave/thesefoolishthings/examples/person/PersonRegistry.html?is-external=true" xlink:actuate="onRequest" xlink:href="http://tidalwave.it/projects/thesefoolishthings/modules/thesefoolishthings-examples/it-tidalwave-thesefoolishthings-examples-data/apidocs/it/tidalwave/thesefoolishthings/examples/person/PersonRegistry.html?is-external=true" xlink:show="new" xlink:title="http://tidalwave.it/projects/thesefoolishthings/modules/thesefoolishthings-examples/it-tidalwave-thesefoolishthings-examples-data/apidocs/it/tidalwave/thesefoolishthings/examples/person/PersonRegistry.html?is-external=true" xlink:type="simple"><rect codeLine="10" fill="#FEFECE" filter="url(#f2ohf2dgplcul)" height="72.1758" id="it.tidalwave.thesefoolishthings.examples.person.PersonRegistry" style="stroke: #A80036; stroke-width: 1.5;" width="268" x="33.5" y="7"/><ellipse cx="48.5" cy="26.1328" fill="#B4A7E5" rx="11" ry="11" style="stroke: #A80036; stroke-width: 1.0;"/><path d="M44.9277,22.3979 L44.9277,20.2397 L52.3071,20.2397 L52.3071,22.3979 L49.8418,22.3979 L49.8418,30.4746 L52.3071,30.4746 L52.3071,32.6328 L44.9277,32.6328 L44.9277,30.4746 L47.3931,30.4746 L47.3931,22.3979 Z "/><text fill="#000000" font-family="sans-serif" font-size="14" font-style="italic" lengthAdjust="spacingAndGlyphs" textLength="102" x="129.5" y="25.5352">PersonRegistry</text><text fill="#000000" font-family="sans-serif" font-size="10" font-style="italic" lengthAdjust="spacingAndGlyphs" textLength="236" x="62.5" y="38.1563">it.tidalwave.thesefoolishthings.examples.person</text><line style="stroke: #A80036; stroke-width: 1.5;" x1="34.5" x2="300.5" y1="45.2656" y2="45.2656"/><ellipse cx="44.5" cy="56.2656" fill="#84BE84" rx="3" ry="3" style="stroke: #038048; stroke-width: 1.0;"/><text fill="#000000" font-family="sans-serif" font-size="11" font-style="italic" lengthAdjust="spacingAndGlyphs" textLength="161" x="53.5" y="59.9004">findPerson(): Finder&lt;Person&gt;</text><ellipse cx="44.5" cy="69.2207" fill="#84BE84" rx="3" ry="3" style="stroke: #038048; stroke-width: 1.0;"/><text fill="#000000" font-family="sans-serif" font-size="11" font-style="italic" lengthAdjust="spacingAndGlyphs" textLength="94" x="53.5" y="72.8555">add(Person): void</text></a><!--MD5=[4ac3305ee4e529d1bdf3cd64a260c47d]
reverse link it.tidalwave.thesefoolishthings.examples.person.PersonRegistry to it.tidalwave.thesefoolishthings.examples.jpafinderexample.PersonRegistry3--><path codeLine="15" d="M167.5,99.3792 C167.5,112.7962 167.5,126.7553 167.5,138.974 " fill="none" id="it.tidalwave.thesefoolishthings.examples.person.PersonRegistry-backto-it.tidalwave.thesefoolishthings.examples.jpafinderexample.PersonRegistry3" style="stroke: #A80036; stroke-width: 1.0;"/><polygon fill="none" points="160.5001,99.0696,167.5,79.0696,174.5001,99.0695,160.5001,99.0696" style="stroke: #A80036; stroke-width: 1.0;"/><text fill="#888888" font-family="sans-serif" font-size="10" lengthAdjust="spacingAndGlyphs" textLength="188" x="70.5" y="233.8438">UMLDoclet 2.0.12, PlantUML 1.2020.16</text><!--MD5=[fb6cfdec05d52bb5343f4bb001251d83]
@startuml
    set namespaceSeparator none
    hide empty fields
    hide empty methods

    interface "<size:14>PersonRegistry3\n<size:10>it.tidalwave.thesefoolishthings.examples.jpafinderexample" as it.tidalwave.thesefoolishthings.examples.jpafinderexample.PersonRegistry3 [[PersonRegistry3.html]] {
        {static} +BY_FIRST_NAME: SortCriterion
        {static} +BY_LAST_NAME: SortCriterion
    }

    interface "<size:14>PersonRegistry\n<size:10>it.tidalwave.thesefoolishthings.examples.person" as it.tidalwave.thesefoolishthings.examples.person.PersonRegistry [[http://tidalwave.it/projects/thesefoolishthings/modules/thesefoolishthings-examples/it-tidalwave-thesefoolishthings-examples-data/apidocs/it/tidalwave/thesefoolishthings/examples/person/PersonRegistry.html?is-external=true]] {
        {abstract} +findPerson(): Finder<Person>
        {abstract} +add(Person): void
    }

    it.tidalwave.thesefoolishthings.examples.person.PersonRegistry <|- - it.tidalwave.thesefoolishthings.examples.jpafinderexample.PersonRegistry3

    center footer UMLDoclet 2.0.12, PlantUML 1.2020.16
@enduml

PlantUML version 1.2020.16(Sun Aug 23 22:20:43 CEST 2020)
(APACHE source distribution)
Java Runtime: OpenJDK Runtime Environment
JVM: OpenJDK 64-Bit Server VM
Default Encoding: UTF-8
Language: en
Country: GB
--></g></svg>