<?xml version="1.0" encoding="UTF-8" standalone="no"?><svg xmlns="http://www.w3.org/2000/svg" xmlns:xlink="http://www.w3.org/1999/xlink" contentScriptType="application/ecmascript" contentStyleType="text/css" height="260px" preserveAspectRatio="none" style="width:308px;height:260px;" version="1.1" viewBox="0 0 308 260" width="308px" zoomAndPan="magnify"><defs><filter height="300%" id="f1aougzzzkgiw8" width="300%" x="-1" y="-1"><feGaussianBlur result="blurOut" stdDeviation="2.0"/><feColorMatrix in="blurOut" result="blurOut2" type="matrix" values="0 0 0 0 0 0 0 0 0 0 0 0 0 0 0 0 0 0 .4 0"/><feOffset dx="4.0" dy="4.0" in="blurOut2" result="blurOut3"/><feBlend in="SourceGraphic" in2="blurOut3" mode="normal"/></filter></defs><g><!--MD5=[c48d727dd61b5a38ed9b74d73a90194f]
class it.tidalwave.mistral.example.viewer.CropOverlay--><a href="CropOverlay.html" target="_top" title="CropOverlay.html" xlink:actuate="onRequest" xlink:href="CropOverlay.html" xlink:show="new" xlink:title="CropOverlay.html" xlink:type="simple"><rect codeLine="5" fill="#FEFECE" filter="url(#f1aougzzzkgiw8)" height="85.1309" id="it.tidalwave.mistral.example.viewer.CropOverlay" style="stroke: #A80036; stroke-width: 1.5;" width="282" x="7" y="139"/><ellipse cx="56.75" cy="158.1328" fill="#ADD1B2" rx="11" ry="11" style="stroke: #A80036; stroke-width: 1.0;"/><path d="M59.2231,164.2759 Q58.6421,164.5747 58.0029,164.7241 Q57.3638,164.8735 56.6582,164.8735 Q54.1514,164.8735 52.8315,163.2217 Q51.5117,161.5698 51.5117,158.4487 Q51.5117,155.3193 52.8315,153.6675 Q54.1514,152.0156 56.6582,152.0156 Q57.3638,152.0156 58.0112,152.165 Q58.6587,152.3145 59.2231,152.6133 L59.2231,155.3359 Q58.5923,154.7549 57.9988,154.4851 Q57.4053,154.2153 56.7744,154.2153 Q55.4297,154.2153 54.7449,155.282 Q54.0601,156.3486 54.0601,158.4487 Q54.0601,160.5405 54.7449,161.6072 Q55.4297,162.6738 56.7744,162.6738 Q57.4053,162.6738 57.9988,162.4041 Q58.5923,162.1343 59.2231,161.5532 Z "/><text fill="#000000" font-family="sans-serif" font-size="14" lengthAdjust="spacingAndGlyphs" textLength="85" x="121.75" y="157.5352">CropOverlay</text><text fill="#000000" font-family="sans-serif" font-size="10" lengthAdjust="spacingAndGlyphs" textLength="174" x="77.25" y="170.1563">it.tidalwave.mistral.example.viewer</text><line style="stroke: #A80036; stroke-width: 1.5;" x1="8" x2="288" y1="177.2656" y2="177.2656"/><ellipse cx="18" cy="188.2656" fill="#84BE84" rx="3" ry="3" style="stroke: #038048; stroke-width: 1.0;"/><text fill="#000000" font-family="sans-serif" font-size="11" lengthAdjust="spacingAndGlyphs" textLength="256" x="27" y="191.9004">paint(Graphics2D, EditableImageRenderer): void</text><ellipse cx="18" cy="201.2207" fill="#84BE84" rx="3" ry="3" style="stroke: #038048; stroke-width: 1.0;"/><text fill="#000000" font-family="sans-serif" font-size="11" lengthAdjust="spacingAndGlyphs" textLength="131" x="27" y="204.8555">setVisible(boolean): void</text><ellipse cx="18" cy="214.1758" fill="#84BE84" rx="3" ry="3" style="stroke: #038048; stroke-width: 1.0;"/><text fill="#000000" font-family="sans-serif" font-size="11" lengthAdjust="spacingAndGlyphs" textLength="101" x="27" y="217.8105">isVisible(): boolean</text></a><!--MD5=[ec53fa8ba39f7ead49c54fdbe8baed2e]
class it.tidalwave.image.render.Overlay--><a href="../../../image/render/Overlay.html" target="_top" title="../../../image/render/Overlay.html" xlink:actuate="onRequest" xlink:href="../../../image/render/Overlay.html" xlink:show="new" xlink:title="../../../image/render/Overlay.html" xlink:type="simple"><rect codeLine="11" fill="#FEFECE" filter="url(#f1aougzzzkgiw8)" height="72.1758" id="it.tidalwave.image.render.Overlay" style="stroke: #A80036; stroke-width: 1.5;" width="282" x="7" y="7"/><ellipse cx="81.25" cy="26.1328" fill="#B4A7E5" rx="11" ry="11" style="stroke: #A80036; stroke-width: 1.0;"/><path d="M77.6777,22.3979 L77.6777,20.2397 L85.0571,20.2397 L85.0571,22.3979 L82.5918,22.3979 L82.5918,30.4746 L85.0571,30.4746 L85.0571,32.6328 L77.6777,32.6328 L77.6777,30.4746 L80.1431,30.4746 L80.1431,22.3979 Z "/><text fill="#000000" font-family="sans-serif" font-size="14" font-style="italic" lengthAdjust="spacingAndGlyphs" textLength="51" x="138.75" y="25.5352">Overlay</text><text fill="#000000" font-family="sans-serif" font-size="10" font-style="italic" lengthAdjust="spacingAndGlyphs" textLength="125" x="101.75" y="38.1563">it.tidalwave.image.render</text><line style="stroke: #A80036; stroke-width: 1.5;" x1="8" x2="288" y1="45.2656" y2="45.2656"/><ellipse cx="18" cy="56.2656" fill="#84BE84" rx="3" ry="3" style="stroke: #038048; stroke-width: 1.0;"/><text fill="#000000" font-family="sans-serif" font-size="11" font-style="italic" lengthAdjust="spacingAndGlyphs" textLength="256" x="27" y="59.9004">paint(Graphics2D, EditableImageRenderer): void</text><ellipse cx="18" cy="69.2207" fill="#84BE84" rx="3" ry="3" style="stroke: #038048; stroke-width: 1.0;"/><text fill="#000000" font-family="sans-serif" font-size="11" font-style="italic" lengthAdjust="spacingAndGlyphs" textLength="101" x="27" y="72.8555">isVisible(): boolean</text></a><!--MD5=[cf89c979ec1fbe3aaacf3370fb21206a]
reverse link it.tidalwave.image.render.Overlay to it.tidalwave.mistral.example.viewer.CropOverlay--><path codeLine="16" d="M148,99.4872 C148,112.602 148,126.3495 148,138.7592 " fill="none" id="it.tidalwave.image.render.Overlay-backto-it.tidalwave.mistral.example.viewer.CropOverlay" style="stroke: #A80036; stroke-width: 1.0; stroke-dasharray: 7.0,7.0;"/><polygon fill="none" points="141.0001,99.0277,148,79.0277,155.0001,99.0277,141.0001,99.0277" style="stroke: #A80036; stroke-width: 1.0;"/><text fill="#888888" font-family="sans-serif" font-size="10" lengthAdjust="spacingAndGlyphs" textLength="188" x="51" y="246.7988">UMLDoclet 2.0.12, PlantUML 1.2020.16</text><!--MD5=[3d5b26ff719cef20b1be742cffe18388]
@startuml
    set namespaceSeparator none
    hide empty fields
    hide empty methods

    class "<size:14>CropOverlay\n<size:10>it.tidalwave.mistral.example.viewer" as it.tidalwave.mistral.example.viewer.CropOverlay [[CropOverlay.html]] {
        +paint(Graphics2D, EditableImageRenderer): void
        +setVisible(boolean): void
        +isVisible(): boolean
    }

    interface "<size:14>Overlay\n<size:10>it.tidalwave.image.render" as it.tidalwave.image.render.Overlay [[../../../image/render/Overlay.html]] {
        {abstract} +paint(Graphics2D, EditableImageRenderer): void
        {abstract} +isVisible(): boolean
    }

    it.tidalwave.image.render.Overlay <|.. it.tidalwave.mistral.example.viewer.CropOverlay

    center footer UMLDoclet 2.0.12, PlantUML 1.2020.16
@enduml

PlantUML version 1.2020.16(Sun Aug 23 22:20:43 CEST 2020)
(APACHE source distribution)
Java Runtime: OpenJDK Runtime Environment
JVM: OpenJDK 64-Bit Server VM
Default Encoding: UTF-8
Language: en
Country: GB
--></g></svg>