<?xml version="1.0" encoding="UTF-8" standalone="no"?><svg xmlns="http://www.w3.org/2000/svg" xmlns:xlink="http://www.w3.org/1999/xlink" contentScriptType="application/ecmascript" contentStyleType="text/css" height="144px" preserveAspectRatio="none" style="width:489px;height:144px;" version="1.1" viewBox="0 0 489 144" width="489px" zoomAndPan="magnify"><defs><filter height="300%" id="f16o72rp8h6mlm" width="300%" x="-1" y="-1"><feGaussianBlur result="blurOut" stdDeviation="2.0"/><feColorMatrix in="blurOut" result="blurOut2" type="matrix" values="0 0 0 0 0 0 0 0 0 0 0 0 0 0 0 0 0 0 .4 0"/><feOffset dx="4.0" dy="4.0" in="blurOut2" result="blurOut3"/><feBlend in="SourceGraphic" in2="blurOut3" mode="normal"/></filter></defs><g><!--MD5=[6bd818e0eb43c21488fdd46a248cdfb3]
cluster it.tidalwave.thesefoolishthings.examples.dci.displayable--><polygon fill="#FFFFFF" filter="url(#f16o72rp8h6mlm)" points="16,6,424,6,431,28.4883,467,28.4883,467,115,16,115,16,6" style="stroke: #000000; stroke-width: 1.5;"/><line style="stroke: #000000; stroke-width: 1.5;" x1="16" x2="431" y1="28.4883" y2="28.4883"/><text fill="#000000" font-family="sans-serif" font-size="14" font-weight="bold" lengthAdjust="spacingAndGlyphs" textLength="402" x="20" y="21.5352">it.tidalwave.thesefoolishthings.examples.dci.displayable</text><!--MD5=[b53c5c88361a7919b7b364252445cfed]
class it.tidalwave.thesefoolishthings.examples.dci.displayable.DisplayableExample--><a href="DisplayableExample.html" target="_top" title="DisplayableExample.html" xlink:actuate="onRequest" xlink:href="DisplayableExample.html" xlink:show="new" xlink:title="DisplayableExample.html" xlink:type="simple"><rect codeLine="3" fill="#FEFECE" filter="url(#f16o72rp8h6mlm)" height="60.9551" id="it.tidalwave.thesefoolishthings.examples.dci.displayable.DisplayableExample" style="stroke: #A80036; stroke-width: 1.5;" width="149" x="310.5" y="39.5"/><ellipse cx="325.5" cy="55.5" fill="#ADD1B2" rx="11" ry="11" style="stroke: #A80036; stroke-width: 1.0;"/><path d="M327.9731,61.6431 Q327.3921,61.9419 326.7529,62.0913 Q326.1138,62.2407 325.4082,62.2407 Q322.9014,62.2407 321.5815,60.5889 Q320.2617,58.937 320.2617,55.8159 Q320.2617,52.6865 321.5815,51.0347 Q322.9014,49.3828 325.4082,49.3828 Q326.1138,49.3828 326.7612,49.5322 Q327.4087,49.6816 327.9731,49.9805 L327.9731,52.7031 Q327.3423,52.1221 326.7488,51.8523 Q326.1553,51.5825 325.5244,51.5825 Q324.1797,51.5825 323.4949,52.6492 Q322.8101,53.7158 322.8101,55.8159 Q322.8101,57.9077 323.4949,58.9744 Q324.1797,60.041 325.5244,60.041 Q326.1553,60.041 326.7488,59.7712 Q327.3423,59.5015 327.9731,58.9204 Z "/><text fill="#000000" font-family="sans-serif" font-size="12" lengthAdjust="spacingAndGlyphs" textLength="117" x="339.5" y="60.0352">DisplayableExample</text><line style="stroke: #A80036; stroke-width: 1.5;" x1="311.5" x2="458.5" y1="71.5" y2="71.5"/><line style="stroke: #A80036; stroke-width: 1.5;" x1="311.5" x2="458.5" y1="79.5" y2="79.5"/><ellipse cx="321.5" cy="90.5" fill="#84BE84" rx="3" ry="3" style="stroke: #038048; stroke-width: 1.0;"/><text fill="#000000" font-family="sans-serif" font-size="11" lengthAdjust="spacingAndGlyphs" textLength="56" x="330.5" y="94.1348">run(): void</text></a><!--MD5=[3d5e49c30854aa3c7f8ebfa6e91d3368]
class it.tidalwave.thesefoolishthings.examples.dci.displayable.Main--><a href="Main.html" target="_top" title="Main.html" xlink:actuate="onRequest" xlink:href="Main.html" xlink:show="new" xlink:title="Main.html" xlink:type="simple"><rect codeLine="7" fill="#FEFECE" filter="url(#f16o72rp8h6mlm)" height="73.9102" id="it.tidalwave.thesefoolishthings.examples.dci.displayable.Main" style="stroke: #A80036; stroke-width: 1.5;" width="251" x="24.5" y="33"/><ellipse cx="132.25" cy="49" fill="#ADD1B2" rx="11" ry="11" style="stroke: #A80036; stroke-width: 1.0;"/><path d="M134.7231,55.1431 Q134.1421,55.4419 133.5029,55.5913 Q132.8638,55.7407 132.1582,55.7407 Q129.6514,55.7407 128.3315,54.0889 Q127.0117,52.437 127.0117,49.3159 Q127.0117,46.1865 128.3315,44.5347 Q129.6514,42.8828 132.1582,42.8828 Q132.8638,42.8828 133.5112,43.0322 Q134.1587,43.1816 134.7231,43.4805 L134.7231,46.2031 Q134.0923,45.6221 133.4988,45.3523 Q132.9053,45.0825 132.2744,45.0825 Q130.9297,45.0825 130.2449,46.1492 Q129.5601,47.2158 129.5601,49.3159 Q129.5601,51.4077 130.2449,52.4744 Q130.9297,53.541 132.2744,53.541 Q132.9053,53.541 133.4988,53.2712 Q134.0923,53.0015 134.7231,52.4204 Z "/><text fill="#000000" font-family="sans-serif" font-size="12" lengthAdjust="spacingAndGlyphs" textLength="27" x="152.75" y="53.5352">Main</text><line style="stroke: #A80036; stroke-width: 1.5;" x1="25.5" x2="274.5" y1="65" y2="65"/><line style="stroke: #A80036; stroke-width: 1.5;" x1="25.5" x2="274.5" y1="73" y2="73"/><ellipse cx="35.5" cy="84" fill="#84BE84" rx="3" ry="3" style="stroke: #038048; stroke-width: 1.0;"/><text fill="#000000" font-family="sans-serif" font-size="11" lengthAdjust="spacingAndGlyphs" textLength="225" x="44.5" y="87.6348">displayableExample(): DisplayableExample</text><ellipse cx="35.5" cy="96.9551" fill="#84BE84" rx="3" ry="3" style="stroke: #038048; stroke-width: 1.0;"/><text fill="#000000" font-family="sans-serif" font-size="11" lengthAdjust="spacingAndGlyphs" text-decoration="underline" textLength="104" x="44.5" y="100.5898">main(String...): void</text></a><text fill="#888888" font-family="sans-serif" font-size="10" lengthAdjust="spacingAndGlyphs" textLength="188" x="141.5" y="130.668">UMLDoclet 2.0.12, PlantUML 1.2020.16</text><!--MD5=[e24680c3c86b13ab34f9c69338c5a760]
@startuml
    namespace it.tidalwave.thesefoolishthings.examples.dci.displayable {

        class DisplayableExample [[DisplayableExample.html]] {
            +run(): void
        }

        class Main [[Main.html]] {
            +displayableExample(): DisplayableExample
            {static} +main(String...): void
        }

    }

    center footer UMLDoclet 2.0.12, PlantUML 1.2020.16
@enduml

PlantUML version 1.2020.16(Sun Aug 23 22:20:43 CEST 2020)
(APACHE source distribution)
Java Runtime: OpenJDK Runtime Environment
JVM: OpenJDK 64-Bit Server VM
Default Encoding: UTF-8
Language: en
Country: GB
--></g></svg>