<?xml version="1.0" encoding="UTF-8" standalone="no"?><svg xmlns="http://www.w3.org/2000/svg" xmlns:xlink="http://www.w3.org/1999/xlink" contentScriptType="application/ecmascript" contentStyleType="text/css" height="109px" preserveAspectRatio="none" style="width:227px;height:109px;" version="1.1" viewBox="0 0 227 109" width="227px" zoomAndPan="magnify"><defs><filter height="300%" id="f12w367g6xy6zu" width="300%" x="-1" y="-1"><feGaussianBlur result="blurOut" stdDeviation="2.0"/><feColorMatrix in="blurOut" result="blurOut2" type="matrix" values="0 0 0 0 0 0 0 0 0 0 0 0 0 0 0 0 0 0 .4 0"/><feOffset dx="4.0" dy="4.0" in="blurOut2" result="blurOut3"/><feBlend in="SourceGraphic" in2="blurOut3" mode="normal"/></filter></defs><g><!--MD5=[ed3f982284dfb58141301a9b5f1e92ed]
class it.tidalwave.northernwind.profiling.StatisticsCollector--><a href="StatisticsCollector.html" target="_top" title="StatisticsCollector.html" xlink:actuate="onRequest" xlink:href="StatisticsCollector.html" xlink:show="new" xlink:title="StatisticsCollector.html" xlink:type="simple"><rect codeLine="5" fill="#FEFECE" filter="url(#f12w367g6xy6zu)" height="72.1758" id="it.tidalwave.northernwind.profiling.StatisticsCollector" style="stroke: #A80036; stroke-width: 1.5;" width="201" x="7" y="7"/><ellipse cx="22" cy="26.1328" fill="#B4A7E5" rx="11" ry="11" style="stroke: #A80036; stroke-width: 1.0;"/><path d="M18.4277,22.3979 L18.4277,20.2397 L25.8071,20.2397 L25.8071,22.3979 L23.3418,22.3979 L23.3418,30.4746 L25.8071,30.4746 L25.8071,32.6328 L18.4277,32.6328 L18.4277,30.4746 L20.8931,30.4746 L20.8931,22.3979 Z "/><text fill="#000000" font-family="sans-serif" font-size="14" font-style="italic" lengthAdjust="spacingAndGlyphs" textLength="122" x="59.5" y="25.5352">StatisticsCollector</text><text fill="#000000" font-family="sans-serif" font-size="10" font-style="italic" lengthAdjust="spacingAndGlyphs" textLength="169" x="36" y="38.1563">it.tidalwave.northernwind.profiling</text><line style="stroke: #A80036; stroke-width: 1.5;" x1="8" x2="207" y1="45.2656" y2="45.2656"/><ellipse cx="18" cy="56.2656" fill="#84BE84" rx="3" ry="3" style="stroke: #038048; stroke-width: 1.0;"/><text fill="#000000" font-family="sans-serif" font-size="11" font-style="italic" lengthAdjust="spacingAndGlyphs" textLength="166" x="27" y="59.9004">onRequestBegin(Request): void</text><ellipse cx="18" cy="69.2207" fill="#84BE84" rx="3" ry="3" style="stroke: #038048; stroke-width: 1.0;"/><text fill="#000000" font-family="sans-serif" font-size="11" font-style="italic" lengthAdjust="spacingAndGlyphs" textLength="157" x="27" y="72.8555">onRequestEnd(Request): void</text></a><text fill="#888888" font-family="sans-serif" font-size="10" lengthAdjust="spacingAndGlyphs" textLength="188" x="13.5" y="95.8438">UMLDoclet 2.0.12, PlantUML 1.2020.16</text><!--MD5=[112254cae227583822fea488d293c5fb]
@startuml
    set namespaceSeparator none
    hide empty fields
    hide empty methods

    interface "<size:14>StatisticsCollector\n<size:10>it.tidalwave.northernwind.profiling" as it.tidalwave.northernwind.profiling.StatisticsCollector [[StatisticsCollector.html]] {
        {abstract} +onRequestBegin(Request): void
        {abstract} +onRequestEnd(Request): void
    }

    center footer UMLDoclet 2.0.12, PlantUML 1.2020.16
@enduml

PlantUML version 1.2020.16(Sun Aug 23 22:20:43 CEST 2020)
(APACHE source distribution)
Java Runtime: OpenJDK Runtime Environment
JVM: OpenJDK 64-Bit Server VM
Default Encoding: UTF-8
Language: en
Country: GB
--></g></svg>