<?xml version="1.0" encoding="UTF-8" standalone="no"?><svg xmlns="http://www.w3.org/2000/svg" xmlns:xlink="http://www.w3.org/1999/xlink" contentScriptType="application/ecmascript" contentStyleType="text/css" height="179px" preserveAspectRatio="none" style="width:204px;height:179px;" version="1.1" viewBox="0 0 204 179" width="204px" zoomAndPan="magnify"><defs><filter height="300%" id="f14cat2ew5qvk1" width="300%" x="-1" y="-1"><feGaussianBlur result="blurOut" stdDeviation="2.0"/><feColorMatrix in="blurOut" result="blurOut2" type="matrix" values="0 0 0 0 0 0 0 0 0 0 0 0 0 0 0 0 0 0 .4 0"/><feOffset dx="4.0" dy="4.0" in="blurOut2" result="blurOut3"/><feBlend in="SourceGraphic" in2="blurOut3" mode="normal"/></filter></defs><g><!--MD5=[62e21d5d34b4a91f767c1dd4d444dbaf]
class it.tidalwave.util.spi.AsSupportTest.Role2--><a href="AsSupportTest.Role2.html" target="_top" title="AsSupportTest.Role2.html" xlink:actuate="onRequest" xlink:href="AsSupportTest.Role2.html" xlink:show="new" xlink:title="AsSupportTest.Role2.html" xlink:type="simple"><rect codeLine="5" fill="#FEFECE" filter="url(#f14cat2ew5qvk1)" height="38.2656" id="it.tidalwave.util.spi.AsSupportTest.Role2" style="stroke: #A80036; stroke-width: 1.5;" width="176" x="9" y="105"/><ellipse cx="24" cy="124.1328" fill="#B4A7E5" rx="11" ry="11" style="stroke: #A80036; stroke-width: 1.0;"/><path d="M20.4277,120.3979 L20.4277,118.2397 L27.8071,118.2397 L27.8071,120.3979 L25.3418,120.3979 L25.3418,128.4746 L27.8071,128.4746 L27.8071,130.6328 L20.4277,130.6328 L20.4277,128.4746 L22.8931,128.4746 L22.8931,120.3979 Z "/><text fill="#000000" font-family="sans-serif" font-size="14" font-style="italic" lengthAdjust="spacingAndGlyphs" textLength="144" x="38" y="123.5352">AsSupportTest.Role2</text><text fill="#000000" font-family="sans-serif" font-size="10" font-style="italic" lengthAdjust="spacingAndGlyphs" textLength="93" x="63.5" y="136.1563">it.tidalwave.util.spi</text></a><!--MD5=[6cf4d7d677cfbd84c1c26293d2b51331]
class it.tidalwave.util.spi.AsSupportTest--><a href="AsSupportTest.html" target="_top" title="AsSupportTest.html" xlink:actuate="onRequest" xlink:href="AsSupportTest.html" xlink:show="new" xlink:title="AsSupportTest.html" xlink:type="simple"><rect codeLine="7" fill="#FEFECE" filter="url(#f14cat2ew5qvk1)" height="38.2656" id="it.tidalwave.util.spi.AsSupportTest" style="stroke: #A80036; stroke-width: 1.5;" width="133" x="30.5" y="7"/><ellipse cx="45.5" cy="26.1328" fill="#ADD1B2" rx="11" ry="11" style="stroke: #A80036; stroke-width: 1.0;"/><path d="M47.9731,32.2759 Q47.3921,32.5747 46.7529,32.7241 Q46.1138,32.8735 45.4082,32.8735 Q42.9014,32.8735 41.5815,31.2217 Q40.2617,29.5698 40.2617,26.4487 Q40.2617,23.3193 41.5815,21.6675 Q42.9014,20.0156 45.4082,20.0156 Q46.1138,20.0156 46.7612,20.165 Q47.4087,20.3145 47.9731,20.6133 L47.9731,23.3359 Q47.3423,22.7549 46.7488,22.4851 Q46.1553,22.2153 45.5244,22.2153 Q44.1797,22.2153 43.4949,23.282 Q42.8101,24.3486 42.8101,26.4487 Q42.8101,28.5405 43.4949,29.6072 Q44.1797,30.6738 45.5244,30.6738 Q46.1553,30.6738 46.7488,30.4041 Q47.3423,30.1343 47.9731,29.5532 Z "/><text fill="#000000" font-family="sans-serif" font-size="14" lengthAdjust="spacingAndGlyphs" textLength="101" x="59.5" y="25.5352">AsSupportTest</text><text fill="#000000" font-family="sans-serif" font-size="10" lengthAdjust="spacingAndGlyphs" textLength="93" x="63.5" y="38.1563">it.tidalwave.util.spi</text></a><!--MD5=[54b2bd4b0b3453dc9afa7ea31fda24ee]
reverse link it.tidalwave.util.spi.AsSupportTest to it.tidalwave.util.spi.AsSupportTest.Role2--><path codeLine="9" d="M97,60.4087 C97,75.2562 97,92.0704 97,104.6786 " fill="none" id="it.tidalwave.util.spi.AsSupportTest-backto-it.tidalwave.util.spi.AsSupportTest.Role2" style="stroke: #A80036; stroke-width: 1.0;"/><ellipse cx="97.0001" cy="53.3616" fill="#FFFFFF" rx="8" ry="8" style="stroke: #A80036; stroke-width: 1.0;"/><line style="stroke: #A80036; stroke-width: 1.0;" x1="97.0002" x2="97" y1="61.3616" y2="45.3616"/><line style="stroke: #A80036; stroke-width: 1.0;" x1="89.0001" x2="105.0001" y1="53.3617" y2="53.3615"/><text fill="#888888" font-family="sans-serif" font-size="10" lengthAdjust="spacingAndGlyphs" textLength="188" x="0" y="165.9336">UMLDoclet 2.0.12, PlantUML 1.2020.16</text><!--MD5=[cfbc23b2974330aca286ec6e8511807d]
@startuml
    set namespaceSeparator none
    hide empty fields
    hide empty methods

    interface "<size:14>AsSupportTest.Role2\n<size:10>it.tidalwave.util.spi" as it.tidalwave.util.spi.AsSupportTest.Role2 [[AsSupportTest.Role2.html]]

    class "<size:14>AsSupportTest\n<size:10>it.tidalwave.util.spi" as it.tidalwave.util.spi.AsSupportTest [[AsSupportTest.html]]

    it.tidalwave.util.spi.AsSupportTest +- - it.tidalwave.util.spi.AsSupportTest.Role2

    center footer UMLDoclet 2.0.12, PlantUML 1.2020.16
@enduml

PlantUML version 1.2020.16(Sun Aug 23 22:20:43 CEST 2020)
(APACHE source distribution)
Java Runtime: OpenJDK Runtime Environment
JVM: OpenJDK 64-Bit Server VM
Default Encoding: UTF-8
Language: en
Country: GB
--></g></svg>