<?xml version="1.0" encoding="UTF-8" standalone="no"?><svg xmlns="http://www.w3.org/2000/svg" xmlns:xlink="http://www.w3.org/1999/xlink" contentScriptType="application/ecmascript" contentStyleType="text/css" height="355px" preserveAspectRatio="none" style="width:399px;height:355px;" version="1.1" viewBox="0 0 399 355" width="399px" zoomAndPan="magnify"><defs><filter height="300%" id="fnh4mpurkak34" width="300%" x="-1" y="-1"><feGaussianBlur result="blurOut" stdDeviation="2.0"/><feColorMatrix in="blurOut" result="blurOut2" type="matrix" values="0 0 0 0 0 0 0 0 0 0 0 0 0 0 0 0 0 0 .4 0"/><feOffset dx="4.0" dy="4.0" in="blurOut2" result="blurOut3"/><feBlend in="SourceGraphic" in2="blurOut3" mode="normal"/></filter></defs><g><!--MD5=[e3e741244510fd3d6b0f447318e9a989]
class it.tidalwave.thesefoolishthings.examples.dci.marshal.xstream.converter.PersonConverter--><a href="PersonConverter.html" target="_top" title="PersonConverter.html" xlink:actuate="onRequest" xlink:href="PersonConverter.html" xlink:show="new" xlink:title="PersonConverter.html" xlink:type="simple"><rect codeLine="5" fill="#FEFECE" filter="url(#fnh4mpurkak34)" height="83.5444" id="it.tidalwave.thesefoolishthings.examples.dci.marshal.xstream.converter.PersonConverter" style="stroke: #A80036; stroke-width: 1.5;" width="365" x="11" y="138"/><ellipse cx="26" cy="156.7988" fill="#ADD1B2" rx="11" ry="11" style="stroke: #A80036; stroke-width: 1.0;"/><path d="M23.9063,156.6426 Q23.9063,158.5176 24.4844,159.5332 Q25.0625,160.5332 26.2188,160.5332 Q27.5625,160.5332 28.2188,158.5176 L30.4844,158.9395 Q29.375,162.4707 26.2031,162.4707 Q23.8594,162.4707 22.6406,160.9863 Q21.4219,159.502 21.4219,156.6426 Q21.4219,150.9238 26.125,150.9238 Q27.6719,150.9238 28.7031,151.7363 Q29.75,152.5488 30.25,154.1582 L27.9844,154.7051 Q27.75,153.8301 27.2656,153.3457 Q26.7813,152.8457 26.1563,152.8457 Q23.9063,152.8457 23.9063,156.6426 Z "/><text fill="#000000" font-family="sans-serif" font-size="14" lengthAdjust="spacingAndGlyphs" textLength="108" x="152.5" y="156.1318">PersonConverter</text><text fill="#000000" font-family="sans-serif" font-size="10" lengthAdjust="spacingAndGlyphs" textLength="333" x="40" y="168.4785">it.tidalwave.thesefoolishthings.examples.dci.marshal.xstream.converter</text><line style="stroke: #A80036; stroke-width: 1.5;" x1="12" x2="375" y1="175.5977" y2="175.5977"/><ellipse cx="22" cy="186.5977" fill="#84BE84" rx="3" ry="3" style="stroke: #038048; stroke-width: 1.0;"/><text fill="#000000" font-family="sans-serif" font-size="11" lengthAdjust="spacingAndGlyphs" textLength="326" x="31" y="189.9155">marshal(Object, HierarchicalStreamWriter, MarshallingContext): void</text><ellipse cx="22" cy="199.2466" fill="#84BE84" rx="3" ry="3" style="stroke: #038048; stroke-width: 1.0;"/><text fill="#000000" font-family="sans-serif" font-size="11" lengthAdjust="spacingAndGlyphs" textLength="331" x="31" y="202.5645">unmarshal(HierarchicalStreamReader, UnmarshallingContext): Object</text><ellipse cx="22" cy="211.8955" fill="#84BE84" rx="3" ry="3" style="stroke: #038048; stroke-width: 1.0;"/><text fill="#000000" font-family="sans-serif" font-size="11" lengthAdjust="spacingAndGlyphs" textLength="135" x="31" y="215.2134">canConvert(Class): boolean</text></a><!--MD5=[97eaccd2f97e35bdc900855eee8dd8bb]
class com.thoughtworks.xstream.converters.Converter--><rect codeLine="11" fill="#FEFECE" filter="url(#fnh4mpurkak34)" height="70.8955" id="com.thoughtworks.xstream.converters.Converter" style="stroke: #A80036; stroke-width: 1.5;" width="373" x="7" y="7"/><ellipse cx="102.75" cy="25.7988" fill="#B4A7E5" rx="11" ry="11" style="stroke: #A80036; stroke-width: 1.0;"/><path d="M99.0469,20.0957 L106.6563,20.0957 L106.6563,21.9863 L104.0781,21.9863 L104.0781,29.4082 L106.6563,29.4082 L106.6563,31.2988 L99.0469,31.2988 L99.0469,29.4082 L101.6406,29.4082 L101.6406,21.9863 L99.0469,21.9863 L99.0469,20.0957 Z "/><text fill="#000000" font-family="sans-serif" font-size="14" font-style="italic" lengthAdjust="spacingAndGlyphs" textLength="62" x="178.75" y="25.1318">Converter</text><text fill="#000000" font-family="sans-serif" font-size="10" font-style="italic" lengthAdjust="spacingAndGlyphs" textLength="173" x="123.25" y="37.4785">com.thoughtworks.xstream.converters</text><line style="stroke: #A80036; stroke-width: 1.5;" x1="8" x2="379" y1="44.5977" y2="44.5977"/><ellipse cx="18" cy="55.5977" fill="#84BE84" rx="3" ry="3" style="stroke: #038048; stroke-width: 1.0;"/><text fill="#000000" font-family="sans-serif" font-size="11" font-style="italic" lengthAdjust="spacingAndGlyphs" textLength="343" x="27" y="58.9155">marshal(Object, HierarchicalStreamWriter, MarshallingContext): void</text><ellipse cx="18" cy="68.2466" fill="#84BE84" rx="3" ry="3" style="stroke: #038048; stroke-width: 1.0;"/><text fill="#000000" font-family="sans-serif" font-size="11" font-style="italic" lengthAdjust="spacingAndGlyphs" textLength="347" x="27" y="71.5645">unmarshal(HierarchicalStreamReader, UnmarshallingContext): Object</text><!--MD5=[bd8fac1dfd3f3728803f03679a632555]
class it.tidalwave.thesefoolishthings.examples.dci.marshal.xstream.converter.PersonConverter.MutablePerson--><a href="PersonConverter.MutablePerson.html" target="_top" title="PersonConverter.MutablePerson.html" xlink:actuate="onRequest" xlink:href="PersonConverter.MutablePerson.html" xlink:show="new" xlink:title="PersonConverter.MutablePerson.html" xlink:type="simple"><rect codeLine="15" fill="#FEFECE" filter="url(#fnh4mpurkak34)" height="37.5977" id="it.tidalwave.thesefoolishthings.examples.dci.marshal.xstream.converter.PersonConverter.MutablePerson" style="stroke: #A80036; stroke-width: 1.5;" width="365" x="11" y="282"/><ellipse cx="26" cy="300.7988" fill="#ADD1B2" rx="11" ry="11" style="stroke: #A80036; stroke-width: 1.0;"/><path d="M23.9063,300.6426 Q23.9063,302.5176 24.4844,303.5332 Q25.0625,304.5332 26.2188,304.5332 Q27.5625,304.5332 28.2188,302.5176 L30.4844,302.9395 Q29.375,306.4707 26.2031,306.4707 Q23.8594,306.4707 22.6406,304.9863 Q21.4219,303.502 21.4219,300.6426 Q21.4219,294.9238 26.125,294.9238 Q27.6719,294.9238 28.7031,295.7363 Q29.75,296.5488 30.25,298.1582 L27.9844,298.7051 Q27.75,297.8301 27.2656,297.3457 Q26.7813,296.8457 26.1563,296.8457 Q23.9063,296.8457 23.9063,300.6426 Z "/><text fill="#000000" font-family="sans-serif" font-size="14" lengthAdjust="spacingAndGlyphs" textLength="207" x="103" y="300.1318">PersonConverter.MutablePerson</text><text fill="#000000" font-family="sans-serif" font-size="10" lengthAdjust="spacingAndGlyphs" textLength="333" x="40" y="312.4785">it.tidalwave.thesefoolishthings.examples.dci.marshal.xstream.converter</text></a><!--MD5=[69aab37afd2ed2ee1d01adf1ecaac935]
reverse link com.thoughtworks.xstream.converters.Converter to it.tidalwave.thesefoolishthings.examples.dci.marshal.xstream.converter.PersonConverter--><path codeLine="17" d="M193.5,98.47 C193.5,111.6 193.5,125.38 193.5,137.76 " fill="none" id="com.thoughtworks.xstream.converters.Converter-backto-it.tidalwave.thesefoolishthings.examples.dci.marshal.xstream.converter.PersonConverter" style="stroke: #A80036; stroke-width: 1.0; stroke-dasharray: 7.0,7.0;"/><polygon fill="none" points="186.5,98.04,193.5,78.04,200.5,98.04,186.5,98.04" style="stroke: #A80036; stroke-width: 1.0;"/><!--MD5=[486000835d4fdf092b859c60e65ff580]
reverse link it.tidalwave.thesefoolishthings.examples.dci.marshal.xstream.converter.PersonConverter to it.tidalwave.thesefoolishthings.examples.dci.marshal.xstream.converter.PersonConverter.MutablePerson--><path codeLine="18" d="M193.5,237.41 C193.5,253.44 193.5,269.78 193.5,281.74 " fill="none" id="it.tidalwave.thesefoolishthings.examples.dci.marshal.xstream.converter.PersonConverter-backto-it.tidalwave.thesefoolishthings.examples.dci.marshal.xstream.converter.PersonConverter.MutablePerson" style="stroke: #A80036; stroke-width: 1.0;"/><ellipse cx="193.5" cy="230.29" fill="#FFFFFF" rx="8" ry="8" style="stroke: #A80036; stroke-width: 1.0;"/><line style="stroke: #A80036; stroke-width: 1.0;" x1="193.5" x2="193.5" y1="238.29" y2="222.29"/><line style="stroke: #A80036; stroke-width: 1.0;" x1="185.5" x2="201.5" y1="230.29" y2="230.29"/><text fill="#888888" font-family="sans-serif" font-size="10" lengthAdjust="spacingAndGlyphs" textLength="190" x="95.5" y="341.9775">UMLDoclet 2.0.12, PlantUML 1.2020.16</text><!--MD5=[b9dccb43a65c9a4216ca4bd34ddb6189]
@startuml
    set namespaceSeparator none
    hide empty fields
    hide empty methods

    class "<size:14>PersonConverter\n<size:10>it.tidalwave.thesefoolishthings.examples.dci.marshal.xstream.converter" as it.tidalwave.thesefoolishthings.examples.dci.marshal.xstream.converter.PersonConverter [[PersonConverter.html]] {
        +marshal(Object, HierarchicalStreamWriter, MarshallingContext): void
        +unmarshal(HierarchicalStreamReader, UnmarshallingContext): Object
        +canConvert(Class): boolean
    }

    interface "<size:14>Converter\n<size:10>com.thoughtworks.xstream.converters" as com.thoughtworks.xstream.converters.Converter {
        {abstract} +marshal(Object, HierarchicalStreamWriter, MarshallingContext): void
        {abstract} +unmarshal(HierarchicalStreamReader, UnmarshallingContext): Object
    }
    class "<size:14>PersonConverter.MutablePerson\n<size:10>it.tidalwave.thesefoolishthings.examples.dci.marshal.xstream.converter" as it.tidalwave.thesefoolishthings.examples.dci.marshal.xstream.converter.PersonConverter.MutablePerson [[PersonConverter.MutablePerson.html]]

    com.thoughtworks.xstream.converters.Converter <|.. it.tidalwave.thesefoolishthings.examples.dci.marshal.xstream.converter.PersonConverter
    it.tidalwave.thesefoolishthings.examples.dci.marshal.xstream.converter.PersonConverter +- - it.tidalwave.thesefoolishthings.examples.dci.marshal.xstream.converter.PersonConverter.MutablePerson

    center footer UMLDoclet 2.0.12, PlantUML 1.2020.16
@enduml

PlantUML version 1.2020.16(Sun Aug 23 22:20:43 CEST 2020)
(APACHE source distribution)
Java Runtime: OpenJDK Runtime Environment
JVM: OpenJDK 64-Bit Server VM
Default Encoding: UTF-8
Language: en
Country: US
--></g></svg>