<?xml version="1.0" encoding="UTF-8" standalone="no"?><svg xmlns="http://www.w3.org/2000/svg" xmlns:xlink="http://www.w3.org/1999/xlink" contentScriptType="application/ecmascript" contentStyleType="text/css" height="233px" preserveAspectRatio="none" style="width:329px;height:233px;" version="1.1" viewBox="0 0 329 233" width="329px" zoomAndPan="magnify"><defs><filter height="300%" id="f1qmsho0v47sll" width="300%" x="-1" y="-1"><feGaussianBlur result="blurOut" stdDeviation="2.0"/><feColorMatrix in="blurOut" result="blurOut2" type="matrix" values="0 0 0 0 0 0 0 0 0 0 0 0 0 0 0 0 0 0 .4 0"/><feOffset dx="4.0" dy="4.0" in="blurOut2" result="blurOut3"/><feBlend in="SourceGraphic" in2="blurOut3" mode="normal"/></filter></defs><g><!--MD5=[e05cef5f540740c7b774d94550632b59]
class it.tidalwave.role.ui.Displayable--><a href="Displayable.html" target="_top" title="Displayable.html" xlink:actuate="onRequest" xlink:href="Displayable.html" xlink:show="new" xlink:title="Displayable.html" xlink:type="simple"><rect codeLine="5" fill="#FEFECE" filter="url(#f1qmsho0v47sll)" height="196.7715" id="it.tidalwave.role.ui.Displayable" style="stroke: #A80036; stroke-width: 1.5;" width="303" x="7" y="7"/><ellipse cx="108.75" cy="26.1328" fill="#B4A7E5" rx="11" ry="11" style="stroke: #A80036; stroke-width: 1.0;"/><path d="M105.1777,22.3979 L105.1777,20.2397 L112.5571,20.2397 L112.5571,22.3979 L110.0918,22.3979 L110.0918,30.4746 L112.5571,30.4746 L112.5571,32.6328 L105.1777,32.6328 L105.1777,30.4746 L107.6431,30.4746 L107.6431,22.3979 Z "/><text fill="#000000" font-family="sans-serif" font-size="14" font-style="italic" lengthAdjust="spacingAndGlyphs" textLength="78" x="135.75" y="25.5352">Displayable</text><text fill="#000000" font-family="sans-serif" font-size="10" font-style="italic" lengthAdjust="spacingAndGlyphs" textLength="91" x="129.25" y="38.1563">it.tidalwave.role.ui</text><line style="stroke: #A80036; stroke-width: 1.5;" x1="8" x2="309" y1="45.2656" y2="45.2656"/><ellipse cx="18" cy="56.2656" fill="none" rx="3" ry="3" style="stroke: #038048; stroke-width: 1.0;"/><text fill="#000000" font-family="sans-serif" font-size="11" lengthAdjust="spacingAndGlyphs" text-decoration="underline" textLength="187" x="27" y="59.9004">_Displayable_: Class&lt;Displayable&gt;</text><ellipse cx="18" cy="69.2207" fill="none" rx="3" ry="3" style="stroke: #038048; stroke-width: 1.0;"/><text fill="#000000" font-family="sans-serif" font-size="11" lengthAdjust="spacingAndGlyphs" text-decoration="underline" textLength="116" x="27" y="72.8555">DEFAULT: Displayable</text><line style="stroke: #A80036; stroke-width: 1.5;" x1="8" x2="309" y1="79.1758" y2="79.1758"/><ellipse cx="18" cy="90.1758" fill="#84BE84" rx="3" ry="3" style="stroke: #038048; stroke-width: 1.0;"/><text fill="#000000" font-family="sans-serif" font-size="11" font-style="italic" lengthAdjust="spacingAndGlyphs" textLength="132" x="27" y="93.8105">getDisplayName(): String</text><ellipse cx="18" cy="103.1309" fill="#84BE84" rx="3" ry="3" style="stroke: #038048; stroke-width: 1.0;"/><text fill="#000000" font-family="sans-serif" font-size="11" lengthAdjust="spacingAndGlyphs" textLength="181" x="27" y="106.7656">display(Consumer&lt;String&gt;): void</text><ellipse cx="18" cy="116.0859" fill="#84BE84" rx="3" ry="3" style="stroke: #038048; stroke-width: 1.0;"/><text fill="#000000" font-family="sans-serif" font-size="11" lengthAdjust="spacingAndGlyphs" text-decoration="underline" textLength="118" x="27" y="119.7207">of(String): Displayable</text><ellipse cx="18" cy="129.041" fill="#84BE84" rx="3" ry="3" style="stroke: #038048; stroke-width: 1.0;"/><text fill="#000000" font-family="sans-serif" font-size="11" lengthAdjust="spacingAndGlyphs" text-decoration="underline" textLength="156" x="27" y="132.6758">of(String, String): Displayable</text><ellipse cx="18" cy="141.9961" fill="#84BE84" rx="3" ry="3" style="stroke: #038048; stroke-width: 1.0;"/><text fill="#000000" font-family="sans-serif" font-size="11" lengthAdjust="spacingAndGlyphs" text-decoration="underline" textLength="180" x="27" y="145.6309">of(Supplier&lt;String&gt;): Displayable</text><ellipse cx="18" cy="154.9512" fill="#84BE84" rx="3" ry="3" style="stroke: #038048; stroke-width: 1.0;"/><text fill="#000000" font-family="sans-serif" font-size="11" lengthAdjust="spacingAndGlyphs" text-decoration="underline" textLength="209" x="27" y="158.5859">of(Function&lt;T, String&gt;, T): Displayable</text><ellipse cx="18" cy="167.9063" fill="#84BE84" rx="3" ry="3" style="stroke: #038048; stroke-width: 1.0;"/><text fill="#000000" font-family="sans-serif" font-size="11" lengthAdjust="spacingAndGlyphs" text-decoration="underline" textLength="277" x="27" y="171.541">fromBundle(Class&lt;?&gt;, String): LocalizedDisplayable</text><ellipse cx="18" cy="180.8613" fill="#84BE84" rx="3" ry="3" style="stroke: #038048; stroke-width: 1.0;"/><text fill="#000000" font-family="sans-serif" font-size="11" lengthAdjust="spacingAndGlyphs" text-decoration="underline" textLength="216" x="27" y="184.4961">comparing(): Comparator&lt;Displayable&gt;</text><ellipse cx="18" cy="193.8164" fill="#84BE84" rx="3" ry="3" style="stroke: #038048; stroke-width: 1.0;"/><text fill="#000000" font-family="sans-serif" font-size="11" lengthAdjust="spacingAndGlyphs" text-decoration="underline" textLength="183" x="27" y="197.4512">asComparing(): Comparator&lt;As&gt;</text></a><text fill="#888888" font-family="sans-serif" font-size="10" lengthAdjust="spacingAndGlyphs" textLength="188" x="64.5" y="220.4395">UMLDoclet 2.0.12, PlantUML 1.2020.16</text><!--MD5=[74a1c2f870eebd9c50dca1bdc3cfeede]
@startuml
    set namespaceSeparator none
    hide empty fields
    hide empty methods

    interface "<size:14>Displayable\n<size:10>it.tidalwave.role.ui" as it.tidalwave.role.ui.Displayable [[Displayable.html]] {
        {static} +_Displayable_: Class<Displayable>
        {static} +DEFAULT: Displayable
        {abstract} +getDisplayName(): String
        +display(Consumer<String>): void
        {static} +of(String): Displayable
        {static} +of(String, String): Displayable
        {static} +of(Supplier<String>): Displayable
        {static} +of(Function<T, String>, T): Displayable
        {static} +fromBundle(Class<?>, String): LocalizedDisplayable
        {static} +comparing(): Comparator<Displayable>
        {static} +asComparing(): Comparator<As>
    }

    center footer UMLDoclet 2.0.12, PlantUML 1.2020.16
@enduml

PlantUML version 1.2020.16(Sun Aug 23 22:20:43 CEST 2020)
(APACHE source distribution)
Java Runtime: OpenJDK Runtime Environment
JVM: OpenJDK 64-Bit Server VM
Default Encoding: UTF-8
Language: en
Country: GB
--></g></svg>