GROUP,PACKAGE,CLASS,INSTRUCTION_MISSED,INSTRUCTION_COVERED,BRANCH_MISSED,BRANCH_COVERED,LINE_MISSED,LINE_COVERED,COMPLEXITY_MISSED,COMPLEXITY_COVERED,METHOD_MISSED,METHOD_COVERED
Zephyr - UI Content Manager,it.tidalwave.northernwind.rca.ui.contentmanager,AddContentPresentation.Bindings,221,249,69,25,0,13,48,4,1,4
Zephyr - UI Content Manager,it.tidalwave.northernwind.rca.ui.contentmanager.impl,ValidatingBindings,0,55,0,0,0,8,0,1,0,1
Zephyr - UI Content Manager,it.tidalwave.northernwind.rca.ui.contentmanager.impl,StringUtilities,0,13,0,0,0,3,0,1,0,1
Zephyr - UI Content Manager,it.tidalwave.northernwind.rca.ui.contentmanager.impl,DefaultContentChildCreator,15,76,3,3,0,8,3,3,0,3
Zephyr - UI Content Manager,it.tidalwave.northernwind.rca.ui.contentmanager.impl,CreateContentRequestActionProvider,14,36,2,2,0,6,3,3,1,3
Zephyr - UI Content Manager,it.tidalwave.northernwind.rca.ui.contentmanager.impl,ContentChildCreator,0,3,0,0,0,1,0,1,0,1
Zephyr - UI Content Manager,it.tidalwave.northernwind.rca.ui.contentmanager.impl,DefaultAddContentPresentationControl,24,222,6,8,2,37,7,13,1,12
Zephyr - UI Content Manager,it.tidalwave.northernwind.rca.ui.contentmanager.impl,UriNormalizedFunction,0,44,0,0,0,14,0,3,0,3
