<?xml version="1.0" encoding="UTF-8" standalone="no"?><svg xmlns="http://www.w3.org/2000/svg" xmlns:xlink="http://www.w3.org/1999/xlink" contentScriptType="application/ecmascript" contentStyleType="text/css" height="286px" preserveAspectRatio="none" style="width:739px;height:286px;" version="1.1" viewBox="0 0 739 286" width="739px" zoomAndPan="magnify"><defs><filter height="300%" id="funvijcfocda4" width="300%" x="-1" y="-1"><feGaussianBlur result="blurOut" stdDeviation="2.0"/><feColorMatrix in="blurOut" result="blurOut2" type="matrix" values="0 0 0 0 0 0 0 0 0 0 0 0 0 0 0 0 0 0 .4 0"/><feOffset dx="4.0" dy="4.0" in="blurOut2" result="blurOut3"/><feBlend in="SourceGraphic" in2="blurOut3" mode="normal"/></filter></defs><g><!--MD5=[5f05fa2f29ab08ac2d6c65335ed3e3c7]
class it.tidalwave.thesefoolishthings.examples.extendedfinderexample.PersonFinderImpl2b--><a href="PersonFinderImpl2b.html" target="_top" title="PersonFinderImpl2b.html" xlink:actuate="onRequest" xlink:href="PersonFinderImpl2b.html" xlink:show="new" xlink:title="PersonFinderImpl2b.html" xlink:type="simple"><rect codeLine="5" fill="#FEFECE" filter="url(#funvijcfocda4)" height="111.041" id="it.tidalwave.thesefoolishthings.examples.extendedfinderexample.PersonFinderImpl2b" style="stroke: #A80036; stroke-width: 1.5;" width="352" x="181" y="139"/><ellipse cx="196" cy="158.1328" fill="#ADD1B2" rx="11" ry="11" style="stroke: #A80036; stroke-width: 1.0;"/><path d="M198.4731,164.2759 Q197.8921,164.5747 197.2529,164.7241 Q196.6138,164.8735 195.9082,164.8735 Q193.4014,164.8735 192.0815,163.2217 Q190.7617,161.5698 190.7617,158.4487 Q190.7617,155.3193 192.0815,153.6675 Q193.4014,152.0156 195.9082,152.0156 Q196.6138,152.0156 197.2612,152.165 Q197.9087,152.3145 198.4731,152.6133 L198.4731,155.3359 Q197.8423,154.7549 197.2488,154.4851 Q196.6553,154.2153 196.0244,154.2153 Q194.6797,154.2153 193.9949,155.282 Q193.3101,156.3486 193.3101,158.4487 Q193.3101,160.5405 193.9949,161.6072 Q194.6797,162.6738 196.0244,162.6738 Q196.6553,162.6738 197.2488,162.4041 Q197.8423,162.1343 198.4731,161.5532 Z "/><text fill="#000000" font-family="sans-serif" font-size="14" lengthAdjust="spacingAndGlyphs" textLength="139" x="300.5" y="157.5352">PersonFinderImpl2b</text><text fill="#000000" font-family="sans-serif" font-size="10" lengthAdjust="spacingAndGlyphs" textLength="320" x="210" y="170.1563">it.tidalwave.thesefoolishthings.examples.extendedfinderexample</text><line style="stroke: #A80036; stroke-width: 1.5;" x1="182" x2="532" y1="177.2656" y2="177.2656"/><ellipse cx="192" cy="188.2656" fill="#84BE84" rx="3" ry="3" style="stroke: #038048; stroke-width: 1.0;"/><text fill="#000000" font-family="sans-serif" font-size="11" lengthAdjust="spacingAndGlyphs" textLength="190" x="201" y="191.9004">PersonFinderImpl2b(List&lt;Person&gt;)</text><ellipse cx="192" cy="201.2207" fill="#84BE84" rx="3" ry="3" style="stroke: #038048; stroke-width: 1.0;"/><text fill="#000000" font-family="sans-serif" font-size="11" lengthAdjust="spacingAndGlyphs" textLength="265" x="201" y="204.8555">PersonFinderImpl2b(PersonFinderImpl2b, Object)</text><ellipse cx="192" cy="214.1758" fill="#84BE84" rx="3" ry="3" style="stroke: #038048; stroke-width: 1.0;"/><text fill="#000000" font-family="sans-serif" font-size="11" lengthAdjust="spacingAndGlyphs" textLength="193" x="201" y="217.8105">withFirstName(String): PersonFinder</text><ellipse cx="192" cy="227.1309" fill="#84BE84" rx="3" ry="3" style="stroke: #038048; stroke-width: 1.0;"/><text fill="#000000" font-family="sans-serif" font-size="11" lengthAdjust="spacingAndGlyphs" textLength="191" x="201" y="230.7656">withLastName(String): PersonFinder</text><polygon fill="#FFFF44" points="192,235.0859,196,239.0859,192,243.0859,188,239.0859" style="stroke: #B38D22; stroke-width: 1.0;"/><text fill="#000000" font-family="sans-serif" font-size="11" lengthAdjust="spacingAndGlyphs" textLength="174" x="201" y="243.7207">computeResults(): List&lt;Person&gt;</text></a><!--MD5=[d63e98a45e8384519e3fc4fd1371e7a4]
class it.tidalwave.util.spi.HierarchicFinderSupport--><a href="https://tidalwave.bitbucket.io/thesefoolishthings/modules/it-tidalwave-util/apidocs/it/tidalwave/util/spi/HierarchicFinderSupport.html?is-external=true" target="_top" title="https://tidalwave.bitbucket.io/thesefoolishthings/modules/it-tidalwave-util/apidocs/it/tidalwave/util/spi/HierarchicFinderSupport.html?is-external=true" xlink:actuate="onRequest" xlink:href="https://tidalwave.bitbucket.io/thesefoolishthings/modules/it-tidalwave-util/apidocs/it/tidalwave/util/spi/HierarchicFinderSupport.html?is-external=true" xlink:show="new" xlink:title="https://tidalwave.bitbucket.io/thesefoolishthings/modules/it-tidalwave-util/apidocs/it/tidalwave/util/spi/HierarchicFinderSupport.html?is-external=true" xlink:type="simple"><rect codeLine="13" fill="#FEFECE" filter="url(#funvijcfocda4)" height="38.2656" id="it.tidalwave.util.spi.HierarchicFinderSupport" style="stroke: #A80036; stroke-width: 1.5;" width="326" x="7" y="24"/><ellipse cx="22" cy="43.1328" fill="#ADD1B2" rx="11" ry="11" style="stroke: #A80036; stroke-width: 1.0;"/><path d="M24.4731,49.2759 Q23.8921,49.5747 23.2529,49.7241 Q22.6138,49.8735 21.9082,49.8735 Q19.4014,49.8735 18.0815,48.2217 Q16.7617,46.5698 16.7617,43.4487 Q16.7617,40.3193 18.0815,38.6675 Q19.4014,37.0156 21.9082,37.0156 Q22.6138,37.0156 23.2612,37.165 Q23.9087,37.3145 24.4731,37.6133 L24.4731,40.3359 Q23.8423,39.7549 23.2488,39.4851 Q22.6553,39.2153 22.0244,39.2153 Q20.6797,39.2153 19.9949,40.282 Q19.3101,41.3486 19.3101,43.4487 Q19.3101,45.5405 19.9949,46.6072 Q20.6797,47.6738 22.0244,47.6738 Q22.6553,47.6738 23.2488,47.4041 Q23.8423,47.1343 24.4731,46.5532 Z "/><text fill="#000000" font-family="sans-serif" font-size="14" lengthAdjust="spacingAndGlyphs" textLength="168" x="36" y="42.5352">HierarchicFinderSupport</text><text fill="#000000" font-family="sans-serif" font-size="10" lengthAdjust="spacingAndGlyphs" textLength="93" x="73.5" y="55.1563">it.tidalwave.util.spi</text><rect fill="#FFFFFF" height="16.1328" style="stroke: #000000; stroke-width: 1.0; stroke-dasharray: 2.0,2.0;" width="124" x="212" y="21"/><text fill="#000000" font-family="sans-serif" font-size="12" font-style="italic" lengthAdjust="spacingAndGlyphs" textLength="122" x="213" y="33.6016">Person, PersonFinder</text></a><!--MD5=[af655893240d68fda8ccd8fca9e91cb9]
class it.tidalwave.thesefoolishthings.examples.extendedfinderexample.PersonFinder--><a href="PersonFinder.html" target="_top" title="PersonFinder.html" xlink:actuate="onRequest" xlink:href="PersonFinder.html" xlink:show="new" xlink:title="PersonFinder.html" xlink:type="simple"><rect codeLine="14" fill="#FEFECE" filter="url(#funvijcfocda4)" height="72.1758" id="it.tidalwave.thesefoolishthings.examples.extendedfinderexample.PersonFinder" style="stroke: #A80036; stroke-width: 1.5;" width="352" x="368" y="7"/><ellipse cx="383" cy="26.1328" fill="#B4A7E5" rx="11" ry="11" style="stroke: #A80036; stroke-width: 1.0;"/><path d="M379.4277,22.3979 L379.4277,20.2397 L386.8071,20.2397 L386.8071,22.3979 L384.3418,22.3979 L384.3418,30.4746 L386.8071,30.4746 L386.8071,32.6328 L379.4277,32.6328 L379.4277,30.4746 L381.8931,30.4746 L381.8931,22.3979 Z "/><text fill="#000000" font-family="sans-serif" font-size="14" font-style="italic" lengthAdjust="spacingAndGlyphs" textLength="91" x="511.5" y="25.5352">PersonFinder</text><text fill="#000000" font-family="sans-serif" font-size="10" font-style="italic" lengthAdjust="spacingAndGlyphs" textLength="320" x="397" y="38.1563">it.tidalwave.thesefoolishthings.examples.extendedfinderexample</text><line style="stroke: #A80036; stroke-width: 1.5;" x1="369" x2="719" y1="45.2656" y2="45.2656"/><ellipse cx="379" cy="56.2656" fill="#84BE84" rx="3" ry="3" style="stroke: #038048; stroke-width: 1.0;"/><text fill="#000000" font-family="sans-serif" font-size="11" font-style="italic" lengthAdjust="spacingAndGlyphs" textLength="193" x="388" y="59.9004">withFirstName(String): PersonFinder</text><ellipse cx="379" cy="69.2207" fill="#84BE84" rx="3" ry="3" style="stroke: #038048; stroke-width: 1.0;"/><text fill="#000000" font-family="sans-serif" font-size="11" font-style="italic" lengthAdjust="spacingAndGlyphs" textLength="191" x="388" y="72.8555">withLastName(String): PersonFinder</text></a><!--MD5=[004f8b727ddad71f6a922015162c6f8b]
reverse link it.tidalwave.util.spi.HierarchicFinderSupport to it.tidalwave.thesefoolishthings.examples.extendedfinderexample.PersonFinderImpl2b--><path codeLine="19" d="M209.4186,74.9354 C232.3423,93.5072 261.8752,117.4337 288.4921,138.9976 " fill="none" id="it.tidalwave.util.spi.HierarchicFinderSupport-backto-it.tidalwave.thesefoolishthings.examples.extendedfinderexample.PersonFinderImpl2b" style="stroke: #A80036; stroke-width: 1.0;"/><polygon fill="none" points="204.8173,80.2166,193.6837,62.1876,213.6303,69.3385,204.8173,80.2166" style="stroke: #A80036; stroke-width: 1.0;"/><!--MD5=[64c532e3ca0f1463a21fd34d9a246e95]
reverse link it.tidalwave.thesefoolishthings.examples.extendedfinderexample.PersonFinder to it.tidalwave.thesefoolishthings.examples.extendedfinderexample.PersonFinderImpl2b--><path codeLine="20" d="M483.5423,91.9804 C465.0352,106.9742 444.5459,123.5738 425.5411,138.9707 " fill="none" id="it.tidalwave.thesefoolishthings.examples.extendedfinderexample.PersonFinder-backto-it.tidalwave.thesefoolishthings.examples.extendedfinderexample.PersonFinderImpl2b" style="stroke: #A80036; stroke-width: 1.0; stroke-dasharray: 7.0,7.0;"/><polygon fill="none" points="479.2623,86.439,499.2088,79.288,488.0753,97.317,479.2623,86.439" style="stroke: #A80036; stroke-width: 1.0;"/><text fill="#888888" font-family="sans-serif" font-size="10" lengthAdjust="spacingAndGlyphs" textLength="188" x="266.5" y="272.709">UMLDoclet 2.0.12, PlantUML 1.2020.16</text><!--MD5=[49aa1c156c518c9da63f01f21b4a48e6]
@startuml
    set namespaceSeparator none
    hide empty fields
    hide empty methods

    class "<size:14>PersonFinderImpl2b\n<size:10>it.tidalwave.thesefoolishthings.examples.extendedfinderexample" as it.tidalwave.thesefoolishthings.examples.extendedfinderexample.PersonFinderImpl2b [[PersonFinderImpl2b.html]] {
        +PersonFinderImpl2b(List<Person>)
        +PersonFinderImpl2b(PersonFinderImpl2b, Object)
        +withFirstName(String): PersonFinder
        +withLastName(String): PersonFinder
        #computeResults(): List<Person>
    }

    class "<size:14>HierarchicFinderSupport\n<size:10>it.tidalwave.util.spi" as it.tidalwave.util.spi.HierarchicFinderSupport<Person, PersonFinder> [[https://tidalwave.bitbucket.io/thesefoolishthings/modules/it-tidalwave-util/apidocs/it/tidalwave/util/spi/HierarchicFinderSupport.html?is-external=true]]
    interface "<size:14>PersonFinder\n<size:10>it.tidalwave.thesefoolishthings.examples.extendedfinderexample" as it.tidalwave.thesefoolishthings.examples.extendedfinderexample.PersonFinder [[PersonFinder.html]] {
        {abstract} +withFirstName(String): PersonFinder
        {abstract} +withLastName(String): PersonFinder
    }

    it.tidalwave.util.spi.HierarchicFinderSupport <|- - it.tidalwave.thesefoolishthings.examples.extendedfinderexample.PersonFinderImpl2b
    it.tidalwave.thesefoolishthings.examples.extendedfinderexample.PersonFinder <|.. it.tidalwave.thesefoolishthings.examples.extendedfinderexample.PersonFinderImpl2b

    center footer UMLDoclet 2.0.12, PlantUML 1.2020.16
@enduml

PlantUML version 1.2020.16(Sun Aug 23 22:20:43 CEST 2020)
(APACHE source distribution)
Java Runtime: OpenJDK Runtime Environment
JVM: OpenJDK 64-Bit Server VM
Default Encoding: UTF-8
Language: en
Country: GB
--></g></svg>