<?xml version="1.0" encoding="UTF-8" standalone="no"?><svg xmlns="http://www.w3.org/2000/svg" xmlns:xlink="http://www.w3.org/1999/xlink" contentScriptType="application/ecmascript" contentStyleType="text/css" height="650px" preserveAspectRatio="none" style="width:1245px;height:650px;" version="1.1" viewBox="0 0 1245 650" width="1245px" zoomAndPan="magnify"><defs><filter height="300%" id="fwphe0ok9is6i" width="300%" x="-1" y="-1"><feGaussianBlur result="blurOut" stdDeviation="2.0"/><feColorMatrix in="blurOut" result="blurOut2" type="matrix" values="0 0 0 0 0 0 0 0 0 0 0 0 0 0 0 0 0 0 .4 0"/><feOffset dx="4.0" dy="4.0" in="blurOut2" result="blurOut3"/><feBlend in="SourceGraphic" in2="blurOut3" mode="normal"/></filter></defs><g><!--MD5=[1f6f40219d8accefa53bfe3dcdfd5d87]
cluster it.tidalwave.messagebus.spi--><polygon fill="#FFFFFF" filter="url(#fwphe0ok9is6i)" points="16,166,222,166,229,188.4883,1223,188.4883,1223,621,16,621,16,166" style="stroke: #000000; stroke-width: 1.5;"/><line style="stroke: #000000; stroke-width: 1.5;" x1="16" x2="229" y1="188.4883" y2="188.4883"/><text fill="#000000" font-family="sans-serif" font-size="14" font-weight="bold" lengthAdjust="spacingAndGlyphs" textLength="200" x="20" y="181.5352">it.tidalwave.messagebus.spi</text><!--MD5=[e4549cd9a5af2e65ccdbc914a80faec6]
cluster it.tidalwave.messagebus--><polygon fill="#FFFFFF" filter="url(#fwphe0ok9is6i)" points="33,6,214,6,221,28.4883,293,28.4883,293,141,33,141,33,6" style="stroke: #000000; stroke-width: 1.5;"/><line style="stroke: #000000; stroke-width: 1.5;" x1="33" x2="221" y1="28.4883" y2="28.4883"/><text fill="#000000" font-family="sans-serif" font-size="14" font-weight="bold" lengthAdjust="spacingAndGlyphs" textLength="175" x="37" y="21.5352">it.tidalwave.messagebus</text><!--MD5=[84dfc94921fc2aa4c43b60c35529c8c2]
class it.tidalwave.messagebus.spi.ReflectionUtils--><a href="ReflectionUtils.html" target="_top" title="ReflectionUtils.html" xlink:actuate="onRequest" xlink:href="ReflectionUtils.html" xlink:show="new" xlink:title="ReflectionUtils.html" xlink:type="simple"><rect codeLine="3" fill="#FEFECE" filter="url(#fwphe0ok9is6i)" height="86.8652" id="it.tidalwave.messagebus.spi.ReflectionUtils" style="stroke: #A80036; stroke-width: 1.5;" width="394" x="821" y="225.5"/><ellipse cx="973.75" cy="241.5" fill="#ADD1B2" rx="11" ry="11" style="stroke: #A80036; stroke-width: 1.0;"/><path d="M976.2231,247.6431 Q975.6421,247.9419 975.0029,248.0913 Q974.3638,248.2407 973.6582,248.2407 Q971.1514,248.2407 969.8315,246.5889 Q968.5117,244.937 968.5117,241.8159 Q968.5117,238.6865 969.8315,237.0347 Q971.1514,235.3828 973.6582,235.3828 Q974.3638,235.3828 975.0112,235.5322 Q975.6587,235.6816 976.2231,235.9805 L976.2231,238.7031 Q975.5923,238.1221 974.9988,237.8523 Q974.4053,237.5825 973.7744,237.5825 Q972.4297,237.5825 971.7449,238.6492 Q971.0601,239.7158 971.0601,241.8159 Q971.0601,243.9077 971.7449,244.9744 Q972.4297,246.041 973.7744,246.041 Q974.4053,246.041 974.9988,245.7712 Q975.5923,245.5015 976.2231,244.9204 Z "/><text fill="#000000" font-family="sans-serif" font-size="12" lengthAdjust="spacingAndGlyphs" textLength="80" x="994.25" y="246.0352">ReflectionUtils</text><line style="stroke: #A80036; stroke-width: 1.5;" x1="822" x2="1214" y1="257.5" y2="257.5"/><line style="stroke: #A80036; stroke-width: 1.5;" x1="822" x2="1214" y1="265.5" y2="265.5"/><ellipse cx="832" cy="276.5" fill="#84BE84" rx="3" ry="3" style="stroke: #038048; stroke-width: 1.0;"/><text fill="#000000" font-family="sans-serif" font-size="11" lengthAdjust="spacingAndGlyphs" text-decoration="underline" textLength="366" x="841" y="280.1348">forEachMethodInTopDownHierarchy(Object, MethodProcessor): void</text><ellipse cx="832" cy="289.4551" fill="#84BE84" rx="3" ry="3" style="stroke: #038048; stroke-width: 1.0;"/><text fill="#000000" font-family="sans-serif" font-size="11" lengthAdjust="spacingAndGlyphs" text-decoration="underline" textLength="368" x="841" y="293.0898">forEachMethodInBottomUpHierarchy(Object, MethodProcessor): void</text><ellipse cx="832" cy="302.4102" fill="#84BE84" rx="3" ry="3" style="stroke: #038048; stroke-width: 1.0;"/><text fill="#000000" font-family="sans-serif" font-size="11" lengthAdjust="spacingAndGlyphs" text-decoration="underline" textLength="289" x="841" y="306.0449">containsAnnotation(Annotation[], Class&lt;?&gt;): boolean</text></a><!--MD5=[96f181f1e7052bccee7d3fe3d1061377]
class it.tidalwave.messagebus.spi.ReflectionUtils.MethodProcessor--><a href="ReflectionUtils.MethodProcessor.html" target="_top" title="ReflectionUtils.MethodProcessor.html" xlink:actuate="onRequest" xlink:href="ReflectionUtils.MethodProcessor.html" xlink:show="new" xlink:title="ReflectionUtils.MethodProcessor.html" xlink:type="simple"><rect codeLine="9" fill="#FEFECE" filter="url(#fwphe0ok9is6i)" height="73.9102" id="it.tidalwave.messagebus.spi.ReflectionUtils.MethodProcessor" style="stroke: #A80036; stroke-width: 1.5;" width="215" x="832.5" y="405"/><ellipse cx="847.5" cy="421" fill="#B4A7E5" rx="11" ry="11" style="stroke: #A80036; stroke-width: 1.0;"/><path d="M843.9277,417.2651 L843.9277,415.1069 L851.3071,415.1069 L851.3071,417.2651 L848.8418,417.2651 L848.8418,425.3418 L851.3071,425.3418 L851.3071,427.5 L843.9277,427.5 L843.9277,425.3418 L846.3931,425.3418 L846.3931,417.2651 Z "/><text fill="#000000" font-family="sans-serif" font-size="12" font-style="italic" lengthAdjust="spacingAndGlyphs" textLength="183" x="861.5" y="425.5352">ReflectionUtils.MethodProcessor</text><line style="stroke: #A80036; stroke-width: 1.5;" x1="833.5" x2="1046.5" y1="437" y2="437"/><line style="stroke: #A80036; stroke-width: 1.5;" x1="833.5" x2="1046.5" y1="445" y2="445"/><ellipse cx="843.5" cy="456" fill="#84BE84" rx="3" ry="3" style="stroke: #038048; stroke-width: 1.0;"/><text fill="#000000" font-family="sans-serif" font-size="11" font-style="italic" lengthAdjust="spacingAndGlyphs" textLength="151" x="852.5" y="459.6348">filter(Class&lt;?&gt;): FilterResult</text><ellipse cx="843.5" cy="468.9551" fill="#84BE84" rx="3" ry="3" style="stroke: #038048; stroke-width: 1.0;"/><text fill="#000000" font-family="sans-serif" font-size="11" font-style="italic" lengthAdjust="spacingAndGlyphs" textLength="120" x="852.5" y="472.5898">process(Method): void</text></a><!--MD5=[898c3fa715c9537c42935eb6b026b52f]
class it.tidalwave.messagebus.spi.ReflectionUtils.MethodProcessor.FilterResult--><a href="ReflectionUtils.MethodProcessor.FilterResult.html" target="_top" title="ReflectionUtils.MethodProcessor.FilterResult.html" xlink:actuate="onRequest" xlink:href="ReflectionUtils.MethodProcessor.FilterResult.html" xlink:show="new" xlink:title="ReflectionUtils.MethodProcessor.FilterResult.html" xlink:type="simple"><rect codeLine="14" fill="#FEFECE" filter="url(#fwphe0ok9is6i)" height="73.9102" id="it.tidalwave.messagebus.spi.ReflectionUtils.MethodProcessor.FilterResult" style="stroke: #A80036; stroke-width: 1.5;" width="282" x="637" y="539"/><ellipse cx="652" cy="555" fill="#EB937F" rx="11" ry="11" style="stroke: #A80036; stroke-width: 1.0;"/><path d="M655.6143,561.5 L647.8945,561.5 L647.8945,549.1069 L655.6143,549.1069 L655.6143,551.2651 L650.3433,551.2651 L650.3433,553.938 L655.1162,553.938 L655.1162,556.0962 L650.3433,556.0962 L650.3433,559.3418 L655.6143,559.3418 Z "/><text fill="#000000" font-family="sans-serif" font-size="12" lengthAdjust="spacingAndGlyphs" textLength="250" x="666" y="559.5352">ReflectionUtils.MethodProcessor.FilterResult</text><line style="stroke: #A80036; stroke-width: 1.5;" x1="638" x2="918" y1="571" y2="571"/><ellipse cx="648" cy="582" fill="none" rx="3" ry="3" style="stroke: #038048; stroke-width: 1.0;"/><text fill="#000000" font-family="sans-serif" font-size="11" lengthAdjust="spacingAndGlyphs" text-decoration="underline" textLength="43" x="657" y="585.6348">ACCEPT</text><ellipse cx="648" cy="594.9551" fill="none" rx="3" ry="3" style="stroke: #038048; stroke-width: 1.0;"/><text fill="#000000" font-family="sans-serif" font-size="11" lengthAdjust="spacingAndGlyphs" text-decoration="underline" textLength="41" x="657" y="598.5898">IGNORE</text><line style="stroke: #A80036; stroke-width: 1.5;" x1="638" x2="918" y1="604.9102" y2="604.9102"/></a><!--MD5=[a8fcd7b9c5800cab5c8f479fdc481e8f]
class it.tidalwave.messagebus.spi.ReflectionUtils.MethodProcessorSupport--><a href="ReflectionUtils.MethodProcessorSupport.html" target="_top" title="ReflectionUtils.MethodProcessorSupport.html" xlink:actuate="onRequest" xlink:href="ReflectionUtils.MethodProcessorSupport.html" xlink:show="new" xlink:title="ReflectionUtils.MethodProcessorSupport.html" xlink:type="simple"><rect codeLine="19" fill="#FEFECE" filter="url(#fwphe0ok9is6i)" height="73.9102" id="it.tidalwave.messagebus.spi.ReflectionUtils.MethodProcessorSupport" style="stroke: #A80036; stroke-width: 1.5;" width="260" x="954" y="539"/><ellipse cx="969" cy="555" fill="#ADD1B2" rx="11" ry="11" style="stroke: #A80036; stroke-width: 1.0;"/><path d="M971.4731,561.1431 Q970.8921,561.4419 970.2529,561.5913 Q969.6138,561.7407 968.9082,561.7407 Q966.4014,561.7407 965.0815,560.0889 Q963.7617,558.437 963.7617,555.3159 Q963.7617,552.1865 965.0815,550.5347 Q966.4014,548.8828 968.9082,548.8828 Q969.6138,548.8828 970.2612,549.0322 Q970.9087,549.1816 971.4731,549.4805 L971.4731,552.2031 Q970.8423,551.6221 970.2488,551.3523 Q969.6553,551.0825 969.0244,551.0825 Q967.6797,551.0825 966.9949,552.1492 Q966.3101,553.2158 966.3101,555.3159 Q966.3101,557.4077 966.9949,558.4744 Q967.6797,559.541 969.0244,559.541 Q969.6553,559.541 970.2488,559.2712 Q970.8423,559.0015 971.4731,558.4204 Z "/><text fill="#000000" font-family="sans-serif" font-size="12" lengthAdjust="spacingAndGlyphs" textLength="228" x="983" y="559.5352">ReflectionUtils.MethodProcessorSupport</text><line style="stroke: #A80036; stroke-width: 1.5;" x1="955" x2="1213" y1="571" y2="571"/><line style="stroke: #A80036; stroke-width: 1.5;" x1="955" x2="1213" y1="579" y2="579"/><ellipse cx="965" cy="590" fill="#84BE84" rx="3" ry="3" style="stroke: #038048; stroke-width: 1.0;"/><text fill="#000000" font-family="sans-serif" font-size="11" lengthAdjust="spacingAndGlyphs" textLength="151" x="974" y="593.6348">filter(Class&lt;?&gt;): FilterResult</text><ellipse cx="965" cy="602.9551" fill="#84BE84" rx="3" ry="3" style="stroke: #038048; stroke-width: 1.0;"/><text fill="#000000" font-family="sans-serif" font-size="11" lengthAdjust="spacingAndGlyphs" textLength="120" x="974" y="606.5898">process(Method): void</text></a><!--MD5=[b5d7f310aaa443c74b49e7b556952ac1]
class it.tidalwave.messagebus.spi.SimpleAsyncMessageDelivery--><a href="SimpleAsyncMessageDelivery.html" target="_top" title="SimpleAsyncMessageDelivery.html" xlink:actuate="onRequest" xlink:href="SimpleAsyncMessageDelivery.html" xlink:show="new" xlink:title="SimpleAsyncMessageDelivery.html" xlink:type="simple"><rect codeLine="24" fill="#FEFECE" filter="url(#fwphe0ok9is6i)" height="73.9102" id="it.tidalwave.messagebus.spi.SimpleAsyncMessageDelivery" style="stroke: #A80036; stroke-width: 1.5;" width="212" x="318" y="405"/><ellipse cx="338.85" cy="421" fill="#ADD1B2" rx="11" ry="11" style="stroke: #A80036; stroke-width: 1.0;"/><path d="M341.3231,427.1431 Q340.7421,427.4419 340.1029,427.5913 Q339.4638,427.7407 338.7582,427.7407 Q336.2514,427.7407 334.9315,426.0889 Q333.6117,424.437 333.6117,421.3159 Q333.6117,418.1865 334.9315,416.5347 Q336.2514,414.8828 338.7582,414.8828 Q339.4638,414.8828 340.1112,415.0322 Q340.7587,415.1816 341.3231,415.4805 L341.3231,418.2031 Q340.6923,417.6221 340.0988,417.3523 Q339.5053,417.0825 338.8744,417.0825 Q337.5297,417.0825 336.8449,418.1492 Q336.1601,419.2158 336.1601,421.3159 Q336.1601,423.4077 336.8449,424.4744 Q337.5297,425.541 338.8744,425.541 Q339.5053,425.541 340.0988,425.2712 Q340.6923,425.0015 341.3231,424.4204 Z "/><text fill="#000000" font-family="sans-serif" font-size="12" lengthAdjust="spacingAndGlyphs" textLength="167" x="354.15" y="425.5352">SimpleAsyncMessageDelivery</text><line style="stroke: #A80036; stroke-width: 1.5;" x1="319" x2="529" y1="437" y2="437"/><line style="stroke: #A80036; stroke-width: 1.5;" x1="319" x2="529" y1="445" y2="445"/><ellipse cx="329" cy="456" fill="#84BE84" rx="3" ry="3" style="stroke: #038048; stroke-width: 1.0;"/><text fill="#000000" font-family="sans-serif" font-size="11" lengthAdjust="spacingAndGlyphs" textLength="181" x="338" y="459.6348">initialize(SimpleMessageBus): void</text><ellipse cx="329" cy="468.9551" fill="#84BE84" rx="3" ry="3" style="stroke: #038048; stroke-width: 1.0;"/><text fill="#000000" font-family="sans-serif" font-size="11" lengthAdjust="spacingAndGlyphs" textLength="186" x="338" y="472.5898">deliverMessage(Class&lt;T&gt;, T): void</text></a><!--MD5=[55195224b75f480a85f2daf3351a70a8]
class it.tidalwave.messagebus.spi.MessageDelivery--><a href="MessageDelivery.html" target="_top" title="MessageDelivery.html" xlink:actuate="onRequest" xlink:href="MessageDelivery.html" xlink:show="new" xlink:title="MessageDelivery.html" xlink:type="simple"><rect codeLine="29" fill="#FEFECE" filter="url(#fwphe0ok9is6i)" height="73.9102" id="it.tidalwave.messagebus.spi.MessageDelivery" style="stroke: #A80036; stroke-width: 1.5;" width="212" x="574" y="232"/><ellipse cx="627.75" cy="248" fill="#B4A7E5" rx="11" ry="11" style="stroke: #A80036; stroke-width: 1.0;"/><path d="M624.1777,244.2651 L624.1777,242.1069 L631.5571,242.1069 L631.5571,244.2651 L629.0918,244.2651 L629.0918,252.3418 L631.5571,252.3418 L631.5571,254.5 L624.1777,254.5 L624.1777,252.3418 L626.6431,252.3418 L626.6431,244.2651 Z "/><text fill="#000000" font-family="sans-serif" font-size="12" font-style="italic" lengthAdjust="spacingAndGlyphs" textLength="96" x="648.25" y="252.5352">MessageDelivery</text><line style="stroke: #A80036; stroke-width: 1.5;" x1="575" x2="785" y1="264" y2="264"/><line style="stroke: #A80036; stroke-width: 1.5;" x1="575" x2="785" y1="272" y2="272"/><ellipse cx="585" cy="283" fill="#84BE84" rx="3" ry="3" style="stroke: #038048; stroke-width: 1.0;"/><text fill="#000000" font-family="sans-serif" font-size="11" font-style="italic" lengthAdjust="spacingAndGlyphs" textLength="181" x="594" y="286.6348">initialize(SimpleMessageBus): void</text><ellipse cx="585" cy="295.9551" fill="#84BE84" rx="3" ry="3" style="stroke: #038048; stroke-width: 1.0;"/><text fill="#000000" font-family="sans-serif" font-size="11" font-style="italic" lengthAdjust="spacingAndGlyphs" textLength="186" x="594" y="299.5898">deliverMessage(Class&lt;T&gt;, T): void</text></a><!--MD5=[62953f3274c3ac701afc145194e77a54]
class it.tidalwave.messagebus.spi.MultiQueue--><a href="MultiQueue.html" target="_top" title="MultiQueue.html" xlink:actuate="onRequest" xlink:href="MultiQueue.html" xlink:show="new" xlink:title="MultiQueue.html" xlink:type="simple"><rect codeLine="34" fill="#FEFECE" filter="url(#fwphe0ok9is6i)" height="73.9102" id="it.tidalwave.messagebus.spi.MultiQueue" style="stroke: #A80036; stroke-width: 1.5;" width="203" x="336.5" y="232"/><ellipse cx="401.75" cy="248" fill="#ADD1B2" rx="11" ry="11" style="stroke: #A80036; stroke-width: 1.0;"/><path d="M404.2231,254.1431 Q403.6421,254.4419 403.0029,254.5913 Q402.3638,254.7407 401.6582,254.7407 Q399.1514,254.7407 397.8315,253.0889 Q396.5117,251.437 396.5117,248.3159 Q396.5117,245.1865 397.8315,243.5347 Q399.1514,241.8828 401.6582,241.8828 Q402.3638,241.8828 403.0112,242.0322 Q403.6587,242.1816 404.2231,242.4805 L404.2231,245.2031 Q403.5923,244.6221 402.9988,244.3523 Q402.4053,244.0825 401.7744,244.0825 Q400.4297,244.0825 399.7449,245.1492 Q399.0601,246.2158 399.0601,248.3159 Q399.0601,250.4077 399.7449,251.4744 Q400.4297,252.541 401.7744,252.541 Q402.4053,252.541 402.9988,252.2712 Q403.5923,252.0015 404.2231,251.4204 Z "/><text fill="#000000" font-family="sans-serif" font-size="12" lengthAdjust="spacingAndGlyphs" textLength="64" x="422.25" y="252.5352">MultiQueue</text><line style="stroke: #A80036; stroke-width: 1.5;" x1="337.5" x2="538.5" y1="264" y2="264"/><line style="stroke: #A80036; stroke-width: 1.5;" x1="337.5" x2="538.5" y1="272" y2="272"/><ellipse cx="347.5" cy="283" fill="#84BE84" rx="3" ry="3" style="stroke: #038048; stroke-width: 1.0;"/><text fill="#000000" font-family="sans-serif" font-size="11" lengthAdjust="spacingAndGlyphs" textLength="124" x="356.5" y="286.6348">add(Class&lt;T&gt;, T): void</text><ellipse cx="347.5" cy="295.9551" fill="#84BE84" rx="3" ry="3" style="stroke: #038048; stroke-width: 1.0;"/><text fill="#000000" font-family="sans-serif" font-size="11" lengthAdjust="spacingAndGlyphs" textLength="177" x="356.5" y="299.5898">remove(): TopicAndMessage&lt;T&gt;</text></a><!--MD5=[5f63375c220a5e7e59111a05394ea0c1]
class it.tidalwave.messagebus.spi.SimpleMessageBus--><a href="SimpleMessageBus.html" target="_top" title="SimpleMessageBus.html" xlink:actuate="onRequest" xlink:href="SimpleMessageBus.html" xlink:show="new" xlink:title="SimpleMessageBus.html" xlink:type="simple"><rect codeLine="39" fill="#FEFECE" filter="url(#fwphe0ok9is6i)" height="151.6406" id="it.tidalwave.messagebus.spi.SimpleMessageBus" style="stroke: #A80036; stroke-width: 1.5;" width="277" x="24.5" y="193"/><ellipse cx="104.75" cy="209" fill="#ADD1B2" rx="11" ry="11" style="stroke: #A80036; stroke-width: 1.0;"/><path d="M107.2231,215.1431 Q106.6421,215.4419 106.0029,215.5913 Q105.3638,215.7407 104.6582,215.7407 Q102.1514,215.7407 100.8315,214.0889 Q99.5117,212.437 99.5117,209.3159 Q99.5117,206.1865 100.8315,204.5347 Q102.1514,202.8828 104.6582,202.8828 Q105.3638,202.8828 106.0112,203.0322 Q106.6587,203.1816 107.2231,203.4805 L107.2231,206.2031 Q106.5923,205.6221 105.9988,205.3523 Q105.4053,205.0825 104.7744,205.0825 Q103.4297,205.0825 102.7449,206.1492 Q102.0601,207.2158 102.0601,209.3159 Q102.0601,211.4077 102.7449,212.4744 Q103.4297,213.541 104.7744,213.541 Q105.4053,213.541 105.9988,213.2712 Q106.5923,213.0015 107.2231,212.4204 Z "/><text fill="#000000" font-family="sans-serif" font-size="12" lengthAdjust="spacingAndGlyphs" textLength="108" x="125.25" y="213.5352">SimpleMessageBus</text><line style="stroke: #A80036; stroke-width: 1.5;" x1="25.5" x2="300.5" y1="225" y2="225"/><line style="stroke: #A80036; stroke-width: 1.5;" x1="25.5" x2="300.5" y1="233" y2="233"/><ellipse cx="35.5" cy="244" fill="#84BE84" rx="3" ry="3" style="stroke: #038048; stroke-width: 1.0;"/><text fill="#000000" font-family="sans-serif" font-size="11" lengthAdjust="spacingAndGlyphs" textLength="108" x="44.5" y="247.6348">SimpleMessageBus()</text><ellipse cx="35.5" cy="256.9551" fill="#84BE84" rx="3" ry="3" style="stroke: #038048; stroke-width: 1.0;"/><text fill="#000000" font-family="sans-serif" font-size="11" lengthAdjust="spacingAndGlyphs" textLength="156" x="44.5" y="260.5898">SimpleMessageBus(Executor)</text><ellipse cx="35.5" cy="269.9102" fill="#84BE84" rx="3" ry="3" style="stroke: #038048; stroke-width: 1.0;"/><text fill="#000000" font-family="sans-serif" font-size="11" lengthAdjust="spacingAndGlyphs" textLength="251" x="44.5" y="273.5449">SimpleMessageBus(Executor, MessageDelivery)</text><ellipse cx="35.5" cy="282.8652" fill="#84BE84" rx="3" ry="3" style="stroke: #038048; stroke-width: 1.0;"/><text fill="#000000" font-family="sans-serif" font-size="11" lengthAdjust="spacingAndGlyphs" textLength="84" x="44.5" y="286.5">publish(T): void</text><ellipse cx="35.5" cy="295.8203" fill="#84BE84" rx="3" ry="3" style="stroke: #038048; stroke-width: 1.0;"/><text fill="#000000" font-family="sans-serif" font-size="11" lengthAdjust="spacingAndGlyphs" textLength="144" x="44.5" y="299.4551">publish(Class&lt;T&gt;, T): void</text><ellipse cx="35.5" cy="308.7754" fill="#84BE84" rx="3" ry="3" style="stroke: #038048; stroke-width: 1.0;"/><text fill="#000000" font-family="sans-serif" font-size="11" lengthAdjust="spacingAndGlyphs" textLength="218" x="44.5" y="312.4102">subscribe(Class&lt;T&gt;, Listener&lt;T&gt;): void</text><ellipse cx="35.5" cy="321.7305" fill="#84BE84" rx="3" ry="3" style="stroke: #038048; stroke-width: 1.0;"/><text fill="#000000" font-family="sans-serif" font-size="11" lengthAdjust="spacingAndGlyphs" textLength="170" x="44.5" y="325.3652">unsubscribe(Listener&lt;?&gt;): void</text><polygon fill="#FFFF44" points="35.5,329.6855,39.5,333.6855,35.5,337.6855,31.5,333.6855" style="stroke: #B38D22; stroke-width: 1.0;"/><text fill="#000000" font-family="sans-serif" font-size="11" lengthAdjust="spacingAndGlyphs" textLength="196" x="44.5" y="338.3203">dispatchMessage(Class&lt;T&gt;, T): void</text></a><!--MD5=[3524ccc2f3bbcf0d7b37c2974be7421a]
class it.tidalwave.messagebus.spi.RoundRobinAsyncMessageDelivery--><a href="RoundRobinAsyncMessageDelivery.html" target="_top" title="RoundRobinAsyncMessageDelivery.html" xlink:actuate="onRequest" xlink:href="RoundRobinAsyncMessageDelivery.html" xlink:show="new" xlink:title="RoundRobinAsyncMessageDelivery.html" xlink:type="simple"><rect codeLine="50" fill="#FEFECE" filter="url(#fwphe0ok9is6i)" height="73.9102" id="it.tidalwave.messagebus.spi.RoundRobinAsyncMessageDelivery" style="stroke: #A80036; stroke-width: 1.5;" width="231" x="565.5" y="405"/><ellipse cx="580.5" cy="421" fill="#ADD1B2" rx="11" ry="11" style="stroke: #A80036; stroke-width: 1.0;"/><path d="M582.9731,427.1431 Q582.3921,427.4419 581.7529,427.5913 Q581.1138,427.7407 580.4082,427.7407 Q577.9014,427.7407 576.5815,426.0889 Q575.2617,424.437 575.2617,421.3159 Q575.2617,418.1865 576.5815,416.5347 Q577.9014,414.8828 580.4082,414.8828 Q581.1138,414.8828 581.7612,415.0322 Q582.4087,415.1816 582.9731,415.4805 L582.9731,418.2031 Q582.3423,417.6221 581.7488,417.3523 Q581.1553,417.0825 580.5244,417.0825 Q579.1797,417.0825 578.4949,418.1492 Q577.8101,419.2158 577.8101,421.3159 Q577.8101,423.4077 578.4949,424.4744 Q579.1797,425.541 580.5244,425.541 Q581.1553,425.541 581.7488,425.2712 Q582.3423,425.0015 582.9731,424.4204 Z "/><text fill="#000000" font-family="sans-serif" font-size="12" lengthAdjust="spacingAndGlyphs" textLength="199" x="594.5" y="425.5352">RoundRobinAsyncMessageDelivery</text><line style="stroke: #A80036; stroke-width: 1.5;" x1="566.5" x2="795.5" y1="437" y2="437"/><line style="stroke: #A80036; stroke-width: 1.5;" x1="566.5" x2="795.5" y1="445" y2="445"/><ellipse cx="576.5" cy="456" fill="#84BE84" rx="3" ry="3" style="stroke: #038048; stroke-width: 1.0;"/><text fill="#000000" font-family="sans-serif" font-size="11" lengthAdjust="spacingAndGlyphs" textLength="181" x="585.5" y="459.6348">initialize(SimpleMessageBus): void</text><ellipse cx="576.5" cy="468.9551" fill="#84BE84" rx="3" ry="3" style="stroke: #038048; stroke-width: 1.0;"/><text fill="#000000" font-family="sans-serif" font-size="11" lengthAdjust="spacingAndGlyphs" textLength="186" x="585.5" y="472.5898">deliverMessage(Class&lt;T&gt;, T): void</text></a><!--MD5=[4b7502cfe6ab48c04fed4eeb9239f3a0]
class it.tidalwave.messagebus.MessageBus--><a href="../MessageBus.html" target="_top" title="../MessageBus.html" xlink:actuate="onRequest" xlink:href="../MessageBus.html" xlink:show="new" xlink:title="../MessageBus.html" xlink:type="simple"><rect codeLine="65" fill="#FEFECE" filter="url(#fwphe0ok9is6i)" height="99.8203" id="it.tidalwave.messagebus.MessageBus" style="stroke: #A80036; stroke-width: 1.5;" width="244" x="41" y="33"/><ellipse cx="123.75" cy="49" fill="#B4A7E5" rx="11" ry="11" style="stroke: #A80036; stroke-width: 1.0;"/><path d="M120.1777,45.2651 L120.1777,43.1069 L127.5571,43.1069 L127.5571,45.2651 L125.0918,45.2651 L125.0918,53.3418 L127.5571,53.3418 L127.5571,55.5 L120.1777,55.5 L120.1777,53.3418 L122.6431,53.3418 L122.6431,45.2651 Z "/><text fill="#000000" font-family="sans-serif" font-size="12" font-style="italic" lengthAdjust="spacingAndGlyphs" textLength="70" x="144.25" y="53.5352">MessageBus</text><line style="stroke: #A80036; stroke-width: 1.5;" x1="42" x2="284" y1="65" y2="65"/><line style="stroke: #A80036; stroke-width: 1.5;" x1="42" x2="284" y1="73" y2="73"/><ellipse cx="52" cy="84" fill="#84BE84" rx="3" ry="3" style="stroke: #038048; stroke-width: 1.0;"/><text fill="#000000" font-family="sans-serif" font-size="11" font-style="italic" lengthAdjust="spacingAndGlyphs" textLength="84" x="61" y="87.6348">publish(T): void</text><ellipse cx="52" cy="96.9551" fill="#84BE84" rx="3" ry="3" style="stroke: #038048; stroke-width: 1.0;"/><text fill="#000000" font-family="sans-serif" font-size="11" font-style="italic" lengthAdjust="spacingAndGlyphs" textLength="144" x="61" y="100.5898">publish(Class&lt;T&gt;, T): void</text><ellipse cx="52" cy="109.9102" fill="#84BE84" rx="3" ry="3" style="stroke: #038048; stroke-width: 1.0;"/><text fill="#000000" font-family="sans-serif" font-size="11" font-style="italic" lengthAdjust="spacingAndGlyphs" textLength="218" x="61" y="113.5449">subscribe(Class&lt;T&gt;, Listener&lt;T&gt;): void</text><ellipse cx="52" cy="122.8652" fill="#84BE84" rx="3" ry="3" style="stroke: #038048; stroke-width: 1.0;"/><text fill="#000000" font-family="sans-serif" font-size="11" font-style="italic" lengthAdjust="spacingAndGlyphs" textLength="170" x="61" y="126.5">unsubscribe(Listener&lt;?&gt;): void</text></a><!--MD5=[a0f2abbf64cec9c1acc031284cf37c90]
reverse link it.tidalwave.messagebus.spi.ReflectionUtils to it.tidalwave.messagebus.spi.ReflectionUtils.MethodProcessor--><path codeLine="55" d="M992.0673,326.5173 C980.4374,352.312 967.0544,381.9947 956.7689,404.8075 " fill="none" id="it.tidalwave.messagebus.spi.ReflectionUtils-backto-it.tidalwave.messagebus.spi.ReflectionUtils.MethodProcessor" style="stroke: #A80036; stroke-width: 1.0;"/><ellipse cx="995.0291" cy="319.9482" fill="#FFFFFF" rx="8" ry="8" style="stroke: #A80036; stroke-width: 1.0;"/><line style="stroke: #A80036; stroke-width: 1.0;" x1="991.7409" x2="998.3173" y1="327.2412" y2="312.6552"/><line style="stroke: #A80036; stroke-width: 1.0;" x1="987.7361" x2="1002.3221" y1="316.66" y2="323.2364"/><!--MD5=[69890097a5209350340d5591db699472]
reverse link it.tidalwave.messagebus.spi.ReflectionUtils.MethodProcessor to it.tidalwave.messagebus.spi.ReflectionUtils.MethodProcessor.FilterResult--><path codeLine="56" d="M883.2048,488.9787 C863.4371,505.3298 841.5515,523.4327 822.884,538.8737 " fill="none" id="it.tidalwave.messagebus.spi.ReflectionUtils.MethodProcessor-backto-it.tidalwave.messagebus.spi.ReflectionUtils.MethodProcessor.FilterResult" style="stroke: #A80036; stroke-width: 1.0;"/><ellipse cx="888.7096" cy="484.4255" fill="#FFFFFF" rx="8" ry="8" style="stroke: #A80036; stroke-width: 1.0;"/><line style="stroke: #A80036; stroke-width: 1.0;" x1="882.5451" x2="894.874" y1="489.5245" y2="479.3265"/><line style="stroke: #A80036; stroke-width: 1.0;" x1="883.6106" x2="893.8085" y1="478.261" y2="490.5899"/><!--MD5=[176bf7bd3573161464e34941ad5a4fb5]
reverse link it.tidalwave.messagebus.spi.ReflectionUtils.MethodProcessor to it.tidalwave.messagebus.spi.ReflectionUtils.MethodProcessorSupport--><path codeLine="57" d="M994.9768,493.159 C1011.3235,508.3705 1028.912,524.7376 1044.1031,538.8737 " fill="none" id="it.tidalwave.messagebus.spi.ReflectionUtils.MethodProcessor-backto-it.tidalwave.messagebus.spi.ReflectionUtils.MethodProcessorSupport" style="stroke: #A80036; stroke-width: 1.0; stroke-dasharray: 7.0,7.0;"/><polygon fill="none" points="989.9848,498.0756,980.112,479.3265,999.5221,487.8266,989.9848,498.0756" style="stroke: #A80036; stroke-width: 1.0;"/><!--MD5=[be8e3b0469b3e5bee9fd79e6a191387a]
reverse link it.tidalwave.messagebus.spi.ReflectionUtils to it.tidalwave.messagebus.spi.ReflectionUtils.MethodProcessorSupport--><path codeLine="58" d="M1041.1991,326.9223 C1049.9058,350.7603 1059.1091,378.8652 1065,405 C1075.2462,450.457 1080.0602,504.0121 1082.2578,538.9158 " fill="none" id="it.tidalwave.messagebus.spi.ReflectionUtils-backto-it.tidalwave.messagebus.spi.ReflectionUtils.MethodProcessorSupport" style="stroke: #A80036; stroke-width: 1.0;"/><ellipse cx="1038.6781" cy="320.1803" fill="#FFFFFF" rx="8" ry="8" style="stroke: #A80036; stroke-width: 1.0;"/><line style="stroke: #A80036; stroke-width: 1.0;" x1="1041.4801" x2="1035.8761" y1="327.6735" y2="312.687"/><line style="stroke: #A80036; stroke-width: 1.0;" x1="1031.1848" x2="1046.1713" y1="322.9822" y2="317.3783"/><!--MD5=[c6d421c66a91960dc148e6d5a5dff037]
reverse link it.tidalwave.messagebus.spi.MessageDelivery to it.tidalwave.messagebus.spi.SimpleAsyncMessageDelivery--><path codeLine="59" d="M608.441,317.3582 C567.4026,345.0912 516.6857,379.3648 478.8276,404.9485 " fill="none" id="it.tidalwave.messagebus.spi.MessageDelivery-backto-it.tidalwave.messagebus.spi.SimpleAsyncMessageDelivery" style="stroke: #A80036; stroke-width: 1.0; stroke-dasharray: 7.0,7.0;"/><polygon fill="none" points="604.5912,311.5114,625.0816,306.1128,612.43,323.1111,604.5912,311.5114" style="stroke: #A80036; stroke-width: 1.0;"/><!--MD5=[dac5fa958b4ba3feb71c204fbd0564ef]
reverse link it.tidalwave.messagebus.MessageBus to it.tidalwave.messagebus.spi.SimpleMessageBus--><path codeLine="60" d="M163,153.4978 C163,166.328 163,179.7661 163,192.7534 " fill="none" id="it.tidalwave.messagebus.MessageBus-backto-it.tidalwave.messagebus.spi.SimpleMessageBus" style="stroke: #A80036; stroke-width: 1.0; stroke-dasharray: 7.0,7.0;"/><polygon fill="none" points="156.0001,153.3343,163,133.3343,170.0001,153.3342,156.0001,153.3343" style="stroke: #A80036; stroke-width: 1.0;"/><!--MD5=[7e6ed0c7eb87aa512bb8556ca06f71f5]
reverse link it.tidalwave.messagebus.spi.MessageDelivery to it.tidalwave.messagebus.spi.RoundRobinAsyncMessageDelivery--><path codeLine="61" d="M680.331,326.2648 C680.4808,352.1713 680.6534,382.0428 680.7858,404.9485 " fill="none" id="it.tidalwave.messagebus.spi.MessageDelivery-backto-it.tidalwave.messagebus.spi.RoundRobinAsyncMessageDelivery" style="stroke: #A80036; stroke-width: 1.0; stroke-dasharray: 7.0,7.0;"/><polygon fill="none" points="673.3303,326.153,680.2145,306.1128,687.3301,326.072,673.3303,326.153" style="stroke: #A80036; stroke-width: 1.0;"/><text fill="#888888" font-family="sans-serif" font-size="10" lengthAdjust="spacingAndGlyphs" textLength="188" x="519.5" y="636.668">UMLDoclet 2.0.12, PlantUML 1.2020.16</text><!--MD5=[93a350e413aa50d1412ca77ad37c0c68]
@startuml
    namespace it.tidalwave.messagebus.spi {

        class ReflectionUtils [[ReflectionUtils.html]] {
            {static} +forEachMethodInTopDownHierarchy(Object, MethodProcessor): void
            {static} +forEachMethodInBottomUpHierarchy(Object, MethodProcessor): void
            {static} +containsAnnotation(Annotation[], Class<?>): boolean
        }

        interface it.tidalwave.messagebus.spi.ReflectionUtils.MethodProcessor [[ReflectionUtils.MethodProcessor.html]] {
            {abstract} +filter(Class<?>): FilterResult
            {abstract} +process(Method): void
        }

        enum it.tidalwave.messagebus.spi.ReflectionUtils.MethodProcessor.FilterResult [[ReflectionUtils.MethodProcessor.FilterResult.html]] {
            {static} +ACCEPT
            {static} +IGNORE
        }

        class it.tidalwave.messagebus.spi.ReflectionUtils.MethodProcessorSupport [[ReflectionUtils.MethodProcessorSupport.html]] {
            +filter(Class<?>): FilterResult
            +process(Method): void
        }

        class SimpleAsyncMessageDelivery [[SimpleAsyncMessageDelivery.html]] {
            +initialize(SimpleMessageBus): void
            +deliverMessage(Class<T>, T): void
        }

        interface MessageDelivery [[MessageDelivery.html]] {
            {abstract} +initialize(SimpleMessageBus): void
            {abstract} +deliverMessage(Class<T>, T): void
        }

        class MultiQueue [[MultiQueue.html]] {
            +add(Class<T>, T): void
            +remove(): TopicAndMessage<T>
        }

        class SimpleMessageBus [[SimpleMessageBus.html]] {
            +SimpleMessageBus()
            +SimpleMessageBus(Executor)
            +SimpleMessageBus(Executor, MessageDelivery)
            +publish(T): void
            +publish(Class<T>, T): void
            +subscribe(Class<T>, Listener<T>): void
            +unsubscribe(Listener<?>): void
            #dispatchMessage(Class<T>, T): void
        }

        class RoundRobinAsyncMessageDelivery [[RoundRobinAsyncMessageDelivery.html]] {
            +initialize(SimpleMessageBus): void
            +deliverMessage(Class<T>, T): void
        }

        ReflectionUtils +- - it.tidalwave.messagebus.spi.ReflectionUtils.MethodProcessor
        it.tidalwave.messagebus.spi.ReflectionUtils.MethodProcessor +- - it.tidalwave.messagebus.spi.ReflectionUtils.MethodProcessor.FilterResult
        it.tidalwave.messagebus.spi.ReflectionUtils.MethodProcessor <|.. it.tidalwave.messagebus.spi.ReflectionUtils.MethodProcessorSupport
        ReflectionUtils +- - it.tidalwave.messagebus.spi.ReflectionUtils.MethodProcessorSupport
        MessageDelivery <|.. SimpleAsyncMessageDelivery
        it.tidalwave.messagebus.MessageBus <|.. SimpleMessageBus
        MessageDelivery <|.. RoundRobinAsyncMessageDelivery
    }

    namespace it.tidalwave.messagebus {
        interface MessageBus [[../MessageBus.html]] {
            {abstract} +publish(T): void
            {abstract} +publish(Class<T>, T): void
            {abstract} +subscribe(Class<T>, Listener<T>): void
            {abstract} +unsubscribe(Listener<?>): void
        }
    }

    center footer UMLDoclet 2.0.12, PlantUML 1.2020.16
@enduml

PlantUML version 1.2020.16(Sun Aug 23 22:20:43 CEST 2020)
(APACHE source distribution)
Java Runtime: OpenJDK Runtime Environment
JVM: OpenJDK 64-Bit Server VM
Default Encoding: UTF-8
Language: en
Country: GB
--></g></svg>