@startuml
    set namespaceSeparator none
    hide circle
    hide empty fields
    hide empty methods

    it.tidalwave.thesefoolishthings.examples.dci.marshal.xstream --> org.slf4j
    it.tidalwave.thesefoolishthings.examples.dci.marshal.xstream --> it.tidalwave.util

    ' Package links
    class "it.tidalwave.thesefoolishthings.examples.dci.marshal.xstream" [[it/tidalwave/thesefoolishthings/examples/dci/marshal/xstream/package-summary.html]] {
    }
    class "it.tidalwave.util" [[https://tidalwave.bitbucket.io/thesefoolishthings/modules/it-tidalwave-util/apidocs/it/tidalwave/util/package-summary.html?is-external=true]] {
    }

    center footer UMLDoclet 2.0.12, PlantUML 1.2020.16
@enduml
