@startuml
    ' Copyright to this UML and generated images belongs to the author of the corresponding Java sources.

    ' This UML was generated by UMLDoclet (C) Copyright 2016-2024 Talsma ICT.
    ' UMLDoclet 2.2.1 is licensed under the Apache License, version 2.0
    ' and contains parts of PlantUML 1.2024.7 (ASL) Copyright 2009-2024, Arnaud Roques.

    !pragma layout smetana

    set namespaceSeparator none
    hide empty fields
    hide empty methods

    class "<size:14>Mocks\n<size:10>it.tidalwave.util.spi" as it.tidalwave.util.spi.Mocks [[Mocks.html]]
    interface "<size:14>Mocks.IA1\n<size:10>it.tidalwave.util.spi" as it.tidalwave.util.spi.Mocks.IA1 [[Mocks.IA1.html]]
    interface "<size:14>Mocks.IA2\n<size:10>it.tidalwave.util.spi" as it.tidalwave.util.spi.Mocks.IA2 [[Mocks.IA2.html]]
    interface "<size:14>Mocks.IA3\n<size:10>it.tidalwave.util.spi" as it.tidalwave.util.spi.Mocks.IA3 [[Mocks.IA3.html]]
    interface "<size:14>Mocks.IB1\n<size:10>it.tidalwave.util.spi" as it.tidalwave.util.spi.Mocks.IB1 [[Mocks.IB1.html]]
    interface "<size:14>Mocks.IB2\n<size:10>it.tidalwave.util.spi" as it.tidalwave.util.spi.Mocks.IB2 [[Mocks.IB2.html]]
    interface "<size:14>Mocks.IB3\n<size:10>it.tidalwave.util.spi" as it.tidalwave.util.spi.Mocks.IB3 [[Mocks.IB3.html]]
    class "<size:14>Mocks.CA1\n<size:10>it.tidalwave.util.spi" as it.tidalwave.util.spi.Mocks.CA1 [[Mocks.CA1.html]]
    class "<size:14>Mocks.CA2\n<size:10>it.tidalwave.util.spi" as it.tidalwave.util.spi.Mocks.CA2 [[Mocks.CA2.html]]
    class "<size:14>Mocks.CA3\n<size:10>it.tidalwave.util.spi" as it.tidalwave.util.spi.Mocks.CA3 [[Mocks.CA3.html]]
    class "<size:14>Mocks.CB1\n<size:10>it.tidalwave.util.spi" as it.tidalwave.util.spi.Mocks.CB1 [[Mocks.CB1.html]]
    class "<size:14>Mocks.CB2\n<size:10>it.tidalwave.util.spi" as it.tidalwave.util.spi.Mocks.CB2 [[Mocks.CB2.html]]
    class "<size:14>Mocks.CB3\n<size:10>it.tidalwave.util.spi" as it.tidalwave.util.spi.Mocks.CB3 [[Mocks.CB3.html]]
    interface "<size:14>Mocks.R1\n<size:10>it.tidalwave.util.spi" as it.tidalwave.util.spi.Mocks.R1 [[Mocks.R1.html]]
    interface "<size:14>Mocks.R2\n<size:10>it.tidalwave.util.spi" as it.tidalwave.util.spi.Mocks.R2 [[Mocks.R2.html]]
    interface "<size:14>Mocks.R3\n<size:10>it.tidalwave.util.spi" as it.tidalwave.util.spi.Mocks.R3 [[Mocks.R3.html]]
    class "<size:14>Mocks.Context1\n<size:10>it.tidalwave.util.spi" as it.tidalwave.util.spi.Mocks.Context1 [[Mocks.Context1.html]]
    class "<size:14>Mocks.Context2\n<size:10>it.tidalwave.util.spi" as it.tidalwave.util.spi.Mocks.Context2 [[Mocks.Context2.html]]
    class "<size:14>Mocks.RI1A\n<size:10>it.tidalwave.util.spi" as it.tidalwave.util.spi.Mocks.RI1A [[Mocks.RI1A.html]]
    class "<size:14>Mocks.RI1B\n<size:10>it.tidalwave.util.spi" as it.tidalwave.util.spi.Mocks.RI1B [[Mocks.RI1B.html]]
    class "<size:14>Mocks.RI1C\n<size:10>it.tidalwave.util.spi" as it.tidalwave.util.spi.Mocks.RI1C [[Mocks.RI1C.html]]
    class "<size:14>Mocks.RI2A\n<size:10>it.tidalwave.util.spi" as it.tidalwave.util.spi.Mocks.RI2A [[Mocks.RI2A.html]]
    class "<size:14>Mocks.RI2B\n<size:10>it.tidalwave.util.spi" as it.tidalwave.util.spi.Mocks.RI2B [[Mocks.RI2B.html]]
    class "<size:14>Mocks.RI2C\n<size:10>it.tidalwave.util.spi" as it.tidalwave.util.spi.Mocks.RI2C [[Mocks.RI2C.html]]
    class "<size:14>Mocks.RI3A\n<size:10>it.tidalwave.util.spi" as it.tidalwave.util.spi.Mocks.RI3A [[Mocks.RI3A.html]]
    class "<size:14>Mocks.RI3B\n<size:10>it.tidalwave.util.spi" as it.tidalwave.util.spi.Mocks.RI3B [[Mocks.RI3B.html]]
    class "<size:14>Mocks.RI3C\n<size:10>it.tidalwave.util.spi" as it.tidalwave.util.spi.Mocks.RI3C [[Mocks.RI3C.html]]
    class "<size:14>Mocks.Bean1\n<size:10>it.tidalwave.util.spi" as it.tidalwave.util.spi.Mocks.Bean1 [[Mocks.Bean1.html]]
    class "<size:14>Mocks.Bean2\n<size:10>it.tidalwave.util.spi" as it.tidalwave.util.spi.Mocks.Bean2 [[Mocks.Bean2.html]]

    it.tidalwave.util.spi.Mocks +-- it.tidalwave.util.spi.Mocks.IA1
    it.tidalwave.util.spi.Mocks +-- it.tidalwave.util.spi.Mocks.IA2
    it.tidalwave.util.spi.Mocks +-- it.tidalwave.util.spi.Mocks.IA3
    it.tidalwave.util.spi.Mocks +-- it.tidalwave.util.spi.Mocks.IB1
    it.tidalwave.util.spi.Mocks +-- it.tidalwave.util.spi.Mocks.IB2
    it.tidalwave.util.spi.Mocks +-- it.tidalwave.util.spi.Mocks.IB3
    it.tidalwave.util.spi.Mocks +-- it.tidalwave.util.spi.Mocks.CA1
    it.tidalwave.util.spi.Mocks +-- it.tidalwave.util.spi.Mocks.CA2
    it.tidalwave.util.spi.Mocks +-- it.tidalwave.util.spi.Mocks.CA3
    it.tidalwave.util.spi.Mocks +-- it.tidalwave.util.spi.Mocks.CB1
    it.tidalwave.util.spi.Mocks +-- it.tidalwave.util.spi.Mocks.CB2
    it.tidalwave.util.spi.Mocks +-- it.tidalwave.util.spi.Mocks.CB3
    it.tidalwave.util.spi.Mocks +-- it.tidalwave.util.spi.Mocks.R1
    it.tidalwave.util.spi.Mocks +-- it.tidalwave.util.spi.Mocks.R2
    it.tidalwave.util.spi.Mocks +-- it.tidalwave.util.spi.Mocks.R3
    it.tidalwave.util.spi.Mocks +-- it.tidalwave.util.spi.Mocks.Context1
    it.tidalwave.util.spi.Mocks +-- it.tidalwave.util.spi.Mocks.Context2
    it.tidalwave.util.spi.Mocks +-- it.tidalwave.util.spi.Mocks.RI1A
    it.tidalwave.util.spi.Mocks +-- it.tidalwave.util.spi.Mocks.RI1B
    it.tidalwave.util.spi.Mocks +-- it.tidalwave.util.spi.Mocks.RI1C
    it.tidalwave.util.spi.Mocks +-- it.tidalwave.util.spi.Mocks.RI2A
    it.tidalwave.util.spi.Mocks +-- it.tidalwave.util.spi.Mocks.RI2B
    it.tidalwave.util.spi.Mocks +-- it.tidalwave.util.spi.Mocks.RI2C
    it.tidalwave.util.spi.Mocks +-- it.tidalwave.util.spi.Mocks.RI3A
    it.tidalwave.util.spi.Mocks +-- it.tidalwave.util.spi.Mocks.RI3B
    it.tidalwave.util.spi.Mocks +-- it.tidalwave.util.spi.Mocks.RI3C
    it.tidalwave.util.spi.Mocks +-- it.tidalwave.util.spi.Mocks.Bean1
    it.tidalwave.util.spi.Mocks +-- it.tidalwave.util.spi.Mocks.Bean2

    <style>
        footer {
            HyperLinkColor #8
            HyperLinkUnderlineThickness 0
        }
    </style>
    footer \n[[https://github.com/talsma-ict/umldoclet UMLDoclet 2.2.1]]
    ' Generated 2024-12-19T00:13:44.525965+01:00[Europe/Rome]
@enduml
