@startuml
    set namespaceSeparator none
    hide empty fields
    hide empty methods

    interface "<size:14>Selectable\n<size:10>it.tidalwave.role.ui" as it.tidalwave.role.ui.Selectable [[Selectable.html]] {
        {static} +_Selectable_: Class<Selectable>
        {abstract} +select(): void
    }

    center footer UMLDoclet 2.0.12, PlantUML 1.2020.16
@enduml
