@startuml
    set namespaceSeparator none
    hide empty fields
    hide empty methods

    class "<size:14>XStreamContext\n<size:10>it.tidalwave.thesefoolishthings.examples.dci.marshal.xstream" as it.tidalwave.thesefoolishthings.examples.dci.marshal.xstream.XStreamContext [[XStreamContext.html]] {
    }

    center footer UMLDoclet 2.0.12, PlantUML 1.2020.16
@enduml
