<?xml version="1.0" encoding="UTF-8" standalone="no"?><svg xmlns="http://www.w3.org/2000/svg" xmlns:xlink="http://www.w3.org/1999/xlink" contentScriptType="application/ecmascript" contentStyleType="text/css" height="386px" preserveAspectRatio="none" style="width:965px;height:386px;" version="1.1" viewBox="0 0 965 386" width="965px" zoomAndPan="magnify"><defs/><g><text fill="#000000" font-family="sans-serif" font-size="12" lengthAdjust="spacingAndGlyphs" textLength="126" x="5" y="16.6016">An error has occured!</text><text fill="#000000" font-family="sans-serif" font-size="12" font-style="italic" lengthAdjust="spacingAndGlyphs" textLength="526" x="5" y="30.7344">Do me a favour. Disconnect me. I could be reworked, but I'll never be top of the line again.</text><text fill="#000000" font-family="sans-serif" font-size="12" lengthAdjust="spacingAndGlyphs" textLength="0" x="9" y="44.8672"/><text fill="#000000" font-family="sans-serif" font-size="12" lengthAdjust="spacingAndGlyphs" textLength="236" x="5" y="59">Diagram size: 19 lines / 909 characters.</text><text fill="#000000" font-family="sans-serif" font-size="12" lengthAdjust="spacingAndGlyphs" textLength="0" x="9" y="73.1328"/><text fill="#000000" font-family="sans-serif" font-size="12" lengthAdjust="spacingAndGlyphs" textLength="261" x="5" y="87.2656">For some reason, dot/GraphViz has crashed.</text><text fill="#000000" font-family="sans-serif" font-size="12" lengthAdjust="spacingAndGlyphs" textLength="307" x="5" y="101.3984">This has been generated with PlantUML (1.2020.16).</text><text fill="#000000" font-family="sans-serif" font-size="12" lengthAdjust="spacingAndGlyphs" textLength="321" x="5" y="115.5313">This version of PlantUML is 884 days old, so you should</text><text fill="#000000" font-family="sans-serif" font-size="12" lengthAdjust="spacingAndGlyphs" textLength="332" x="13" y="129.6641">consider upgrading from https://plantuml.com/download</text><text fill="#000000" font-family="sans-serif" font-size="12" lengthAdjust="spacingAndGlyphs" textLength="0" x="9" y="143.7969"/><text fill="#000000" font-family="sans-serif" font-size="12" lengthAdjust="spacingAndGlyphs" textLength="261" x="5" y="157.9297">Java Runtime: OpenJDK Runtime Environment</text><text fill="#000000" font-family="sans-serif" font-size="12" lengthAdjust="spacingAndGlyphs" textLength="185" x="5" y="172.0625">JVM: OpenJDK 64-Bit Server VM</text><text fill="#000000" font-family="sans-serif" font-size="12" lengthAdjust="spacingAndGlyphs" textLength="142" x="5" y="186.1953">Default Encoding: UTF-8</text><text fill="#000000" font-family="sans-serif" font-size="12" lengthAdjust="spacingAndGlyphs" textLength="77" x="5" y="200.3281">Language: en</text><text fill="#000000" font-family="sans-serif" font-size="12" lengthAdjust="spacingAndGlyphs" textLength="68" x="5" y="214.4609">Country: GB</text><text fill="#000000" font-family="sans-serif" font-size="12" lengthAdjust="spacingAndGlyphs" textLength="0" x="9" y="228.5938"/><text fill="#000000" font-family="sans-serif" font-size="12" lengthAdjust="spacingAndGlyphs" textLength="167" x="5" y="242.7266">PLANTUML_LIMIT_SIZE: 4096</text><text fill="#000000" font-family="sans-serif" font-size="12" lengthAdjust="spacingAndGlyphs" textLength="0" x="9" y="256.8594"/><text fill="#000000" font-family="sans-serif" font-size="12" lengthAdjust="spacingAndGlyphs" textLength="904" x="5" y="270.9922">Default dot version: docker: Cannot connect to the Docker daemon at unix:///var/run/docker.sock. Is the docker daemon running?. See 'docker run --help'.</text><text fill="#000000" font-family="sans-serif" font-size="12" lengthAdjust="spacingAndGlyphs" textLength="0" x="9" y="285.125"/><text fill="#000000" font-family="sans-serif" font-size="12" lengthAdjust="spacingAndGlyphs" textLength="467" x="5" y="299.2578">Please go to https://plantuml.com/graphviz-dot to check your GraphViz version.</text><text fill="#000000" font-family="sans-serif" font-size="12" lengthAdjust="spacingAndGlyphs" textLength="0" x="9" y="313.3906"/><text fill="#000000" font-family="sans-serif" font-size="12" lengthAdjust="spacingAndGlyphs" textLength="275" x="5" y="327.5234">You should send this diagram and this image to</text><text fill="#000000" font-family="sans-serif" font-size="12" font-weight="bold" lengthAdjust="spacingAndGlyphs" textLength="130" x="284" y="327.5234">plantuml@gmail.com</text><text fill="#000000" font-family="sans-serif" font-size="12" lengthAdjust="spacingAndGlyphs" textLength="12" x="418" y="327.5234">or</text><text fill="#000000" font-family="sans-serif" font-size="12" lengthAdjust="spacingAndGlyphs" textLength="40" x="5" y="341.6563">post to</text><text fill="#000000" font-family="sans-serif" font-size="12" font-weight="bold" lengthAdjust="spacingAndGlyphs" textLength="157" x="49" y="341.6563">https://plantuml.com/qa</text><text fill="#000000" font-family="sans-serif" font-size="12" lengthAdjust="spacingAndGlyphs" textLength="105" x="210" y="341.6563">to solve this issue.</text><text fill="#000000" font-family="sans-serif" font-size="12" lengthAdjust="spacingAndGlyphs" textLength="375" x="5" y="355.7891">You can try to turn arround this issue by simplifing your diagram.</text><image height="20" width="17" x="938" xlink:href="data:image/png;base64,iVBORw0KGgoAAAANSUhEUgAAABEAAAAUCAYAAABroNZJAAAAi0lEQVR4Xu2PwQ2AIAxF2cKTc3jy5MkVHIENHEEH9vqlGAh8itFw1Jc0hPpfi8Z8Czi494gNE3YMWNHLDH/KXfqcVYEsd7VghHWiPTp/yj18YycjhNKa3fasd/1ffVAaKor67EZUqTKU3QgHi0oGspvBYe0l7BSwoBU7KlFQXsTZW3j76wEpTfJPGye1ptbrvRg5swAAAABJRU5ErkJggg==" y="6"/><text fill="#888888" font-family="sans-serif" font-size="10" lengthAdjust="spacingAndGlyphs" textLength="188" x="386.5" y="372.9883">UMLDoclet 2.0.12, PlantUML 1.2020.16</text><!--MD5=[17ed7541112e916b1ed376a44f91cefc]
@startuml
    set namespaceSeparator none
    hide circle
    hide empty fields
    hide empty methods

    it.tidalwave.accounting.impl - -> it.tidalwave.messagebus
    it.tidalwave.accounting.impl - -> it.tidalwave.accounting.model
    it.tidalwave.accounting.impl - -> it.tidalwave.accounting.commons

    ' Package links
    class "it.tidalwave.accounting.impl" [[it/tidalwave/accounting/impl/package-summary.html]] {
    }
    class "it.tidalwave.accounting.model" [[http://bluehour.tidalwave.it/bluehour-modules/it-tidalwave-accounting-model/apidocs/it/tidalwave/accounting/model/package-summary.html?is-external=true]] {
    }
    class "it.tidalwave.accounting.commons" [[http://bluehour.tidalwave.it/bluehour-modules/it-tidalwave-accounting-ui-commons/apidocs/it/tidalwave/accounting/commons/package-summary.html?is-external=true]] {
    }

    center footer UMLDoclet 2.0.12, PlantUML 1.2020.16
@enduml

@startuml
    set namespaceSeparator none
    hide circle
    hide empty fields
    hide empty methods

    it.tidalwave.accounting.impl - -> it.tidalwave.messagebus
    it.tidalwave.accounting.impl - -> it.tidalwave.accounting.model
    it.tidalwave.accounting.impl - -> it.tidalwave.accounting.commons

    class "it.tidalwave.accounting.impl" [[it/tidalwave/accounting/impl/package-summary.html]] {
    }
    class "it.tidalwave.accounting.model" [[http://bluehour.tidalwave.it/bluehour-modules/it-tidalwave-accounting-model/apidocs/it/tidalwave/accounting/model/package-summary.html?is-external=true]] {
    }
    class "it.tidalwave.accounting.commons" [[http://bluehour.tidalwave.it/bluehour-modules/it-tidalwave-accounting-ui-commons/apidocs/it/tidalwave/accounting/commons/package-summary.html?is-external=true]] {
    }

    center footer UMLDoclet 2.0.12, PlantUML 1.2020.16
@enduml

PlantUML version 1.2020.16(Sun Aug 23 22:20:43 CEST 2020)
(APACHE source distribution)
Java Runtime: OpenJDK Runtime Environment
JVM: OpenJDK 64-Bit Server VM
Default Encoding: UTF-8
Language: en
Country: GB
--></g></svg>