@startuml
    set namespaceSeparator none
    hide empty fields
    hide empty methods

    class "<size:14>SiteResetterOnFileSystemChange\n<size:10>it.tidalwave.northernwind.core.model.spi" as it.tidalwave.northernwind.core.model.spi.SiteResetterOnFileSystemChange [[SiteResetterOnFileSystemChange.html]] {
    }

    center footer UMLDoclet 2.0.12, PlantUML 1.2020.16
@enduml
