<?xml version="1.0" encoding="UTF-8" standalone="no"?><svg xmlns="http://www.w3.org/2000/svg" xmlns:xlink="http://www.w3.org/1999/xlink" contentScriptType="application/ecmascript" contentStyleType="text/css" height="179px" preserveAspectRatio="none" style="width:346px;height:179px;" version="1.1" viewBox="0 0 346 179" width="346px" zoomAndPan="magnify"><defs><filter height="300%" id="fgn8to2oef4gh" width="300%" x="-1" y="-1"><feGaussianBlur result="blurOut" stdDeviation="2.0"/><feColorMatrix in="blurOut" result="blurOut2" type="matrix" values="0 0 0 0 0 0 0 0 0 0 0 0 0 0 0 0 0 0 .4 0"/><feOffset dx="4.0" dy="4.0" in="blurOut2" result="blurOut3"/><feBlend in="SourceGraphic" in2="blurOut3" mode="normal"/></filter></defs><g><!--MD5=[15dff214ccd6b31d895b96da59b7a0aa]
class it.tidalwave.northernwind.frontend.ui.component.container.ContainerViewController--><a href="ContainerViewController.html" target="_top" title="ContainerViewController.html" xlink:actuate="onRequest" xlink:href="ContainerViewController.html" xlink:show="new" xlink:title="ContainerViewController.html" xlink:type="simple"><rect codeLine="5" fill="#FEFECE" filter="url(#fgn8to2oef4gh)" height="38.2656" id="it.tidalwave.northernwind.frontend.ui.component.container.ContainerViewController" style="stroke: #A80036; stroke-width: 1.5;" width="320" x="7" y="105"/><ellipse cx="22" cy="124.1328" fill="#B4A7E5" rx="11" ry="11" style="stroke: #A80036; stroke-width: 1.0;"/><path d="M18.4277,120.3979 L18.4277,118.2397 L25.8071,118.2397 L25.8071,120.3979 L23.3418,120.3979 L23.3418,128.4746 L25.8071,128.4746 L25.8071,130.6328 L18.4277,130.6328 L18.4277,128.4746 L20.8931,128.4746 L20.8931,120.3979 Z "/><text fill="#000000" font-family="sans-serif" font-size="14" font-style="italic" lengthAdjust="spacingAndGlyphs" textLength="170" x="95" y="123.5352">ContainerViewController</text><text fill="#000000" font-family="sans-serif" font-size="10" font-style="italic" lengthAdjust="spacingAndGlyphs" textLength="288" x="36" y="136.1563">it.tidalwave.northernwind.frontend.ui.component.container</text></a><!--MD5=[fd49f22f3a54ad6da4c032e73965af1a]
class it.tidalwave.northernwind.frontend.ui.ViewController--><a href="http://tidalwave.it/projects/northernwind/it-tidalwave-northernwind-modules/it-tidalwave-northernwind-core/apidocs/it/tidalwave/northernwind/frontend/ui/ViewController.html?is-external=true" target="_top" title="http://tidalwave.it/projects/northernwind/it-tidalwave-northernwind-modules/it-tidalwave-northernwind-core/apidocs/it/tidalwave/northernwind/frontend/ui/ViewController.html?is-external=true" xlink:actuate="onRequest" xlink:href="http://tidalwave.it/projects/northernwind/it-tidalwave-northernwind-modules/it-tidalwave-northernwind-core/apidocs/it/tidalwave/northernwind/frontend/ui/ViewController.html?is-external=true" xlink:show="new" xlink:title="http://tidalwave.it/projects/northernwind/it-tidalwave-northernwind-modules/it-tidalwave-northernwind-core/apidocs/it/tidalwave/northernwind/frontend/ui/ViewController.html?is-external=true" xlink:type="simple"><rect codeLine="7" fill="#FEFECE" filter="url(#fgn8to2oef4gh)" height="38.2656" id="it.tidalwave.northernwind.frontend.ui.ViewController" style="stroke: #A80036; stroke-width: 1.5;" width="214" x="60" y="7"/><ellipse cx="75" cy="26.1328" fill="#B4A7E5" rx="11" ry="11" style="stroke: #A80036; stroke-width: 1.0;"/><path d="M71.4277,22.3979 L71.4277,20.2397 L78.8071,20.2397 L78.8071,22.3979 L76.3418,22.3979 L76.3418,30.4746 L78.8071,30.4746 L78.8071,32.6328 L71.4277,32.6328 L71.4277,30.4746 L73.8931,30.4746 L73.8931,22.3979 Z "/><text fill="#000000" font-family="sans-serif" font-size="14" font-style="italic" lengthAdjust="spacingAndGlyphs" textLength="102" x="129" y="25.5352">ViewController</text><text fill="#000000" font-family="sans-serif" font-size="10" font-style="italic" lengthAdjust="spacingAndGlyphs" textLength="182" x="89" y="38.1563">it.tidalwave.northernwind.frontend.ui</text></a><!--MD5=[2d0fe26f1da0d5cc7aa24fddaa5689f1]
reverse link it.tidalwave.northernwind.frontend.ui.ViewController to it.tidalwave.northernwind.frontend.ui.component.container.ContainerViewController--><path codeLine="9" d="M167,65.692 C167,79.1338 167,93.5458 167,104.6786 " fill="none" id="it.tidalwave.northernwind.frontend.ui.ViewController-backto-it.tidalwave.northernwind.frontend.ui.component.container.ContainerViewController" style="stroke: #A80036; stroke-width: 1.0;"/><polygon fill="none" points="160.0001,65.3617,167,45.3616,174.0001,65.3616,160.0001,65.3617" style="stroke: #A80036; stroke-width: 1.0;"/><text fill="#888888" font-family="sans-serif" font-size="10" lengthAdjust="spacingAndGlyphs" textLength="188" x="70" y="165.9336">UMLDoclet 2.0.12, PlantUML 1.2020.16</text><!--MD5=[3a879baadd0d2f9aed5dc311fa4a36a3]
@startuml
    set namespaceSeparator none
    hide empty fields
    hide empty methods

    interface "<size:14>ContainerViewController\n<size:10>it.tidalwave.northernwind.frontend.ui.component.container" as it.tidalwave.northernwind.frontend.ui.component.container.ContainerViewController [[ContainerViewController.html]]

    interface "<size:14>ViewController\n<size:10>it.tidalwave.northernwind.frontend.ui" as it.tidalwave.northernwind.frontend.ui.ViewController [[http://tidalwave.it/projects/northernwind/it-tidalwave-northernwind-modules/it-tidalwave-northernwind-core/apidocs/it/tidalwave/northernwind/frontend/ui/ViewController.html?is-external=true]]

    it.tidalwave.northernwind.frontend.ui.ViewController <|- - it.tidalwave.northernwind.frontend.ui.component.container.ContainerViewController

    center footer UMLDoclet 2.0.12, PlantUML 1.2020.16
@enduml

PlantUML version 1.2020.16(Sun Aug 23 22:20:43 CEST 2020)
(APACHE source distribution)
Java Runtime: OpenJDK Runtime Environment
JVM: OpenJDK 64-Bit Server VM
Default Encoding: UTF-8
Language: en
Country: GB
--></g></svg>