<?xml version="1.0" encoding="UTF-8" standalone="no"?><svg xmlns="http://www.w3.org/2000/svg" xmlns:xlink="http://www.w3.org/1999/xlink" contentScriptType="application/ecmascript" contentStyleType="text/css" height="239px" preserveAspectRatio="none" style="width:282px;height:239px;" version="1.1" viewBox="0 0 282 239" width="282px" zoomAndPan="magnify"><defs><filter height="300%" id="f1iyu0p77ytiq" width="300%" x="-1" y="-1"><feGaussianBlur result="blurOut" stdDeviation="2.0"/><feColorMatrix in="blurOut" result="blurOut2" type="matrix" values="0 0 0 0 0 0 0 0 0 0 0 0 0 0 0 0 0 0 .4 0"/><feOffset dx="4.0" dy="4.0" in="blurOut2" result="blurOut3"/><feBlend in="SourceGraphic" in2="blurOut3" mode="normal"/></filter></defs><g><!--MD5=[58eb5a26ddb8125f946f206ce19f2aa7]
class it.tidalwave.northernwind.model.impl.admin.AdminContent--><a href="AdminContent.html" target="_top" title="AdminContent.html" xlink:actuate="onRequest" xlink:href="AdminContent.html" xlink:show="new" xlink:title="AdminContent.html" xlink:type="simple"><rect codeLine="5" fill="#FEFECE" filter="url(#f1iyu0p77ytiq)" height="98.0859" id="it.tidalwave.northernwind.model.impl.admin.AdminContent" style="stroke: #A80036; stroke-width: 1.5;" width="256" x="7" y="105"/><ellipse cx="26.05" cy="124.1328" fill="#ADD1B2" rx="11" ry="11" style="stroke: #A80036; stroke-width: 1.0;"/><path d="M28.5231,130.2759 Q27.9421,130.5747 27.3029,130.7241 Q26.6638,130.8735 25.9582,130.8735 Q23.4514,130.8735 22.1315,129.2217 Q20.8117,127.5698 20.8117,124.4487 Q20.8117,121.3193 22.1315,119.6675 Q23.4514,118.0156 25.9582,118.0156 Q26.6638,118.0156 27.3112,118.165 Q27.9587,118.3145 28.5231,118.6133 L28.5231,121.3359 Q27.8923,120.7549 27.2988,120.4851 Q26.7053,120.2153 26.0744,120.2153 Q24.7297,120.2153 24.0449,121.282 Q23.3601,122.3486 23.3601,124.4487 Q23.3601,126.5405 24.0449,127.6072 Q24.7297,128.6738 26.0744,128.6738 Q26.7053,128.6738 27.2988,128.4041 Q27.8923,128.1343 28.5231,127.5532 Z "/><text fill="#000000" font-family="sans-serif" font-size="14" lengthAdjust="spacingAndGlyphs" textLength="100" x="98.45" y="123.5352">AdminContent</text><text fill="#000000" font-family="sans-serif" font-size="10" lengthAdjust="spacingAndGlyphs" textLength="215" x="40.95" y="136.1563">it.tidalwave.northernwind.model.impl.admin</text><line style="stroke: #A80036; stroke-width: 1.5;" x1="8" x2="262" y1="143.2656" y2="143.2656"/><ellipse cx="18" cy="154.2656" fill="#84BE84" rx="3" ry="3" style="stroke: #038048; stroke-width: 1.0;"/><text fill="#000000" font-family="sans-serif" font-size="11" lengthAdjust="spacingAndGlyphs" textLength="123" x="27" y="157.9004">AdminContent(Builder)</text><ellipse cx="18" cy="167.2207" fill="#84BE84" rx="3" ry="3" style="stroke: #038048; stroke-width: 1.0;"/><text fill="#000000" font-family="sans-serif" font-size="11" lengthAdjust="spacingAndGlyphs" textLength="230" x="27" y="170.8555">getExposedUri(): Optional&lt;ResourcePath&gt;</text><ellipse cx="18" cy="180.1758" fill="#84BE84" rx="3" ry="3" style="stroke: #038048; stroke-width: 1.0;"/><text fill="#000000" font-family="sans-serif" font-size="11" lengthAdjust="spacingAndGlyphs" textLength="176" x="27" y="183.8105">findChildren(): Finder&lt;Content&gt;</text><ellipse cx="18" cy="193.1309" fill="#84BE84" rx="3" ry="3" style="stroke: #038048; stroke-width: 1.0;"/><text fill="#000000" font-family="sans-serif" font-size="11" lengthAdjust="spacingAndGlyphs" textLength="191" x="27" y="196.7656">getProperties(): ResourceProperties</text></a><!--MD5=[0f2df98d75721f7289790a65f61485ab]
class it.tidalwave.northernwind.core.model.spi.ContentSupport--><rect codeLine="12" fill="#FEFECE" filter="url(#f1iyu0p77ytiq)" height="38.2656" id="it.tidalwave.northernwind.core.model.spi.ContentSupport" style="stroke: #A80036; stroke-width: 1.5;" width="231" x="19.5" y="7"/><ellipse cx="34.5" cy="26.1328" fill="#A9DCDF" rx="11" ry="11" style="stroke: #A80036; stroke-width: 1.0;"/><path d="M34.3633,21.481 L33.2095,26.5527 L35.5254,26.5527 Z M32.8691,19.2397 L35.8657,19.2397 L39.2109,31.6328 L36.7622,31.6328 L35.9985,28.5698 L32.7197,28.5698 L31.9727,31.6328 L29.5239,31.6328 Z "/><text fill="#000000" font-family="sans-serif" font-size="14" font-style="italic" lengthAdjust="spacingAndGlyphs" textLength="110" x="93" y="25.5352">ContentSupport</text><text fill="#000000" font-family="sans-serif" font-size="10" font-style="italic" lengthAdjust="spacingAndGlyphs" textLength="199" x="48.5" y="38.1563">it.tidalwave.northernwind.core.model.spi</text><!--MD5=[fe2bd790f419a0e3a0d4f9b60b003ab1]
reverse link it.tidalwave.northernwind.core.model.spi.ContentSupport to it.tidalwave.northernwind.model.impl.admin.AdminContent--><path codeLine="14" d="M135,65.4693 C135,77.9024 135,91.7909 135,104.8136 " fill="none" id="it.tidalwave.northernwind.core.model.spi.ContentSupport-backto-it.tidalwave.northernwind.model.impl.admin.AdminContent" style="stroke: #A80036; stroke-width: 1.0;"/><polygon fill="none" points="128.0001,65.1629,135,45.1629,142.0001,65.1629,128.0001,65.1629" style="stroke: #A80036; stroke-width: 1.0;"/><text fill="#888888" font-family="sans-serif" font-size="10" lengthAdjust="spacingAndGlyphs" textLength="188" x="38" y="225.7539">UMLDoclet 2.0.12, PlantUML 1.2020.16</text><!--MD5=[408bdc3162f1c612bb097e741f8e64aa]
@startuml
    set namespaceSeparator none
    hide empty fields
    hide empty methods

    class "<size:14>AdminContent\n<size:10>it.tidalwave.northernwind.model.impl.admin" as it.tidalwave.northernwind.model.impl.admin.AdminContent [[AdminContent.html]] {
        +AdminContent(Builder)
        +getExposedUri(): Optional<ResourcePath>
        +findChildren(): Finder<Content>
        +getProperties(): ResourceProperties
    }

    abstract class "<size:14>ContentSupport\n<size:10>it.tidalwave.northernwind.core.model.spi" as it.tidalwave.northernwind.core.model.spi.ContentSupport

    it.tidalwave.northernwind.core.model.spi.ContentSupport <|- - it.tidalwave.northernwind.model.impl.admin.AdminContent

    center footer UMLDoclet 2.0.12, PlantUML 1.2020.16
@enduml

PlantUML version 1.2020.16(Sun Aug 23 22:20:43 CEST 2020)
(APACHE source distribution)
Java Runtime: OpenJDK Runtime Environment
JVM: OpenJDK 64-Bit Server VM
Default Encoding: UTF-8
Language: en
Country: GB
--></g></svg>