<?xml version="1.0" encoding="UTF-8" standalone="no"?><svg xmlns="http://www.w3.org/2000/svg" xmlns:xlink="http://www.w3.org/1999/xlink" contentScriptType="application/ecmascript" contentStyleType="text/css" height="226px" preserveAspectRatio="none" style="width:273px;height:226px;" version="1.1" viewBox="0 0 273 226" width="273px" zoomAndPan="magnify"><defs><filter height="300%" id="fouomn198adqi" width="300%" x="-1" y="-1"><feGaussianBlur result="blurOut" stdDeviation="2.0"/><feColorMatrix in="blurOut" result="blurOut2" type="matrix" values="0 0 0 0 0 0 0 0 0 0 0 0 0 0 0 0 0 0 .4 0"/><feOffset dx="4.0" dy="4.0" in="blurOut2" result="blurOut3"/><feBlend in="SourceGraphic" in2="blurOut3" mode="normal"/></filter></defs><g><!--MD5=[aef72c45c998115d68022a1a58c1142e]
class it.tidalwave.northernwind.model.impl.admin.AdminResource--><a href="AdminResource.html" target="_top" title="AdminResource.html" xlink:actuate="onRequest" xlink:href="AdminResource.html" xlink:show="new" xlink:title="AdminResource.html" xlink:type="simple"><rect codeLine="5" fill="#FEFECE" filter="url(#fouomn198adqi)" height="85.1309" id="it.tidalwave.northernwind.model.impl.admin.AdminResource" style="stroke: #A80036; stroke-width: 1.5;" width="247" x="7" y="105"/><ellipse cx="22" cy="124.1328" fill="#ADD1B2" rx="11" ry="11" style="stroke: #A80036; stroke-width: 1.0;"/><path d="M24.4731,130.2759 Q23.8921,130.5747 23.2529,130.7241 Q22.6138,130.8735 21.9082,130.8735 Q19.4014,130.8735 18.0815,129.2217 Q16.7617,127.5698 16.7617,124.4487 Q16.7617,121.3193 18.0815,119.6675 Q19.4014,118.0156 21.9082,118.0156 Q22.6138,118.0156 23.2612,118.165 Q23.9087,118.3145 24.4731,118.6133 L24.4731,121.3359 Q23.8423,120.7549 23.2488,120.4851 Q22.6553,120.2153 22.0244,120.2153 Q20.6797,120.2153 19.9949,121.282 Q19.3101,122.3486 19.3101,124.4487 Q19.3101,126.5405 19.9949,127.6072 Q20.6797,128.6738 22.0244,128.6738 Q22.6553,128.6738 23.2488,128.4041 Q23.8423,128.1343 24.4731,127.5532 Z "/><text fill="#000000" font-family="sans-serif" font-size="14" lengthAdjust="spacingAndGlyphs" textLength="108" x="89.5" y="123.5352">AdminResource</text><text fill="#000000" font-family="sans-serif" font-size="10" lengthAdjust="spacingAndGlyphs" textLength="215" x="36" y="136.1563">it.tidalwave.northernwind.model.impl.admin</text><line style="stroke: #A80036; stroke-width: 1.5;" x1="8" x2="253" y1="143.2656" y2="143.2656"/><ellipse cx="18" cy="154.2656" fill="#84BE84" rx="3" ry="3" style="stroke: #038048; stroke-width: 1.0;"/><text fill="#000000" font-family="sans-serif" font-size="11" lengthAdjust="spacingAndGlyphs" textLength="130" x="27" y="157.9004">AdminResource(Builder)</text><ellipse cx="18" cy="167.2207" fill="#84BE84" rx="3" ry="3" style="stroke: #038048; stroke-width: 1.0;"/><text fill="#000000" font-family="sans-serif" font-size="11" lengthAdjust="spacingAndGlyphs" textLength="191" x="27" y="170.8555">getProperties(): ResourceProperties</text><ellipse cx="18" cy="180.1758" fill="#84BE84" rx="3" ry="3" style="stroke: #038048; stroke-width: 1.0;"/><text fill="#000000" font-family="sans-serif" font-size="11" lengthAdjust="spacingAndGlyphs" textLength="129" x="27" y="183.8105">isPlaceHolder(): boolean</text></a><!--MD5=[b6fe583c2b13868a1cb62da08022d3d8]
class it.tidalwave.northernwind.core.model.spi.ResourceSupport--><rect codeLine="11" fill="#FEFECE" filter="url(#fouomn198adqi)" height="38.2656" id="it.tidalwave.northernwind.core.model.spi.ResourceSupport" style="stroke: #A80036; stroke-width: 1.5;" width="231" x="15" y="7"/><ellipse cx="30" cy="26.1328" fill="#A9DCDF" rx="11" ry="11" style="stroke: #A80036; stroke-width: 1.0;"/><path d="M29.8633,21.481 L28.7095,26.5527 L31.0254,26.5527 Z M28.3691,19.2397 L31.3657,19.2397 L34.7109,31.6328 L32.2622,31.6328 L31.4985,28.5698 L28.2197,28.5698 L27.4727,31.6328 L25.0239,31.6328 Z "/><text fill="#000000" font-family="sans-serif" font-size="14" font-style="italic" lengthAdjust="spacingAndGlyphs" textLength="118" x="84.5" y="25.5352">ResourceSupport</text><text fill="#000000" font-family="sans-serif" font-size="10" font-style="italic" lengthAdjust="spacingAndGlyphs" textLength="199" x="44" y="38.1563">it.tidalwave.northernwind.core.model.spi</text><!--MD5=[e75ae51982615f16a177b326abd44687]
reverse link it.tidalwave.northernwind.core.model.spi.ResourceSupport to it.tidalwave.northernwind.model.impl.admin.AdminResource--><path codeLine="13" d="M130.5,65.3291 C130.5,77.9819 130.5,92.0566 130.5,104.9312 " fill="none" id="it.tidalwave.northernwind.core.model.spi.ResourceSupport-backto-it.tidalwave.northernwind.model.impl.admin.AdminResource" style="stroke: #A80036; stroke-width: 1.0;"/><polygon fill="none" points="123.5001,65.2521,130.5,45.252,137.5001,65.252,123.5001,65.2521" style="stroke: #A80036; stroke-width: 1.0;"/><text fill="#888888" font-family="sans-serif" font-size="10" lengthAdjust="spacingAndGlyphs" textLength="188" x="33.5" y="212.7988">UMLDoclet 2.0.12, PlantUML 1.2020.16</text><!--MD5=[4af0661a584f4752fa324488ce9c69bc]
@startuml
    set namespaceSeparator none
    hide empty fields
    hide empty methods

    class "<size:14>AdminResource\n<size:10>it.tidalwave.northernwind.model.impl.admin" as it.tidalwave.northernwind.model.impl.admin.AdminResource [[AdminResource.html]] {
        +AdminResource(Builder)
        +getProperties(): ResourceProperties
        +isPlaceHolder(): boolean
    }

    abstract class "<size:14>ResourceSupport\n<size:10>it.tidalwave.northernwind.core.model.spi" as it.tidalwave.northernwind.core.model.spi.ResourceSupport

    it.tidalwave.northernwind.core.model.spi.ResourceSupport <|- - it.tidalwave.northernwind.model.impl.admin.AdminResource

    center footer UMLDoclet 2.0.12, PlantUML 1.2020.16
@enduml

PlantUML version 1.2020.16(Sun Aug 23 22:20:43 CEST 2020)
(APACHE source distribution)
Java Runtime: OpenJDK Runtime Environment
JVM: OpenJDK 64-Bit Server VM
Default Encoding: UTF-8
Language: en
Country: GB
--></g></svg>