<?xml version="1.0" encoding="UTF-8" standalone="no"?><svg xmlns="http://www.w3.org/2000/svg" xmlns:xlink="http://www.w3.org/1999/xlink" contentScriptType="application/ecmascript" contentStyleType="text/css" height="216px" preserveAspectRatio="none" style="width:395px;height:216px;" version="1.1" viewBox="0 0 395 216" width="395px" zoomAndPan="magnify"><defs><filter height="300%" id="f1hnagcym93h15" width="300%" x="-1" y="-1"><feGaussianBlur result="blurOut" stdDeviation="2.0"/><feColorMatrix in="blurOut" result="blurOut2" type="matrix" values="0 0 0 0 0 0 0 0 0 0 0 0 0 0 0 0 0 0 .4 0"/><feOffset dx="4.0" dy="4.0" in="blurOut2" result="blurOut3"/><feBlend in="SourceGraphic" in2="blurOut3" mode="normal"/></filter></defs><g><!--MD5=[37b9c92a1dbda7788d9686afa11d94f7]
class it.tidalwave.northernwind.model.impl.admin.ResourceFinder--><a href="ResourceFinder.html" target="_top" title="ResourceFinder.html" xlink:actuate="onRequest" xlink:href="ResourceFinder.html" xlink:show="new" xlink:title="ResourceFinder.html" xlink:type="simple"><rect codeLine="5" fill="#FEFECE" filter="url(#f1hnagcym93h15)" height="72.1758" id="it.tidalwave.northernwind.model.impl.admin.ResourceFinder" style="stroke: #A80036; stroke-width: 1.5;" width="367" x="9" y="108"/><ellipse cx="24.45" cy="127.1328" fill="#ADD1B2" rx="11" ry="11" style="stroke: #A80036; stroke-width: 1.0;"/><path d="M26.9231,133.2759 Q26.3421,133.5747 25.7029,133.7241 Q25.0638,133.8735 24.3582,133.8735 Q21.8514,133.8735 20.5315,132.2217 Q19.2117,130.5698 19.2117,127.4487 Q19.2117,124.3193 20.5315,122.6675 Q21.8514,121.0156 24.3582,121.0156 Q25.0638,121.0156 25.7112,121.165 Q26.3587,121.3145 26.9231,121.6133 L26.9231,124.3359 Q26.2923,123.7549 25.6988,123.4851 Q25.1053,123.2153 24.4744,123.2153 Q23.1297,123.2153 22.4449,124.282 Q21.7601,125.3486 21.7601,127.4487 Q21.7601,129.5405 22.4449,130.6072 Q23.1297,131.6738 24.4744,131.6738 Q25.1053,131.6738 25.6988,131.4041 Q26.2923,131.1343 26.9231,130.5532 Z "/><text fill="#000000" font-family="sans-serif" font-size="14" lengthAdjust="spacingAndGlyphs" textLength="107" x="92.55" y="126.5352">ResourceFinder</text><text fill="#000000" font-family="sans-serif" font-size="10" lengthAdjust="spacingAndGlyphs" textLength="215" x="38.55" y="139.1563">it.tidalwave.northernwind.model.impl.admin</text><rect fill="#FFFFFF" height="16.1328" style="stroke: #000000; stroke-width: 1.0; stroke-dasharray: 2.0,2.0;" width="117" x="262" y="105"/><text fill="#000000" font-family="sans-serif" font-size="12" font-style="italic" lengthAdjust="spacingAndGlyphs" textLength="115" x="263" y="117.6016">T extends Resource</text><line style="stroke: #A80036; stroke-width: 1.5;" x1="10" x2="375" y1="146.2656" y2="146.2656"/><ellipse cx="20" cy="157.2656" fill="#84BE84" rx="3" ry="3" style="stroke: #038048; stroke-width: 1.0;"/><text fill="#000000" font-family="sans-serif" font-size="11" lengthAdjust="spacingAndGlyphs" textLength="341" x="29" y="160.9004">ResourceFinder(ResourceFinder&lt;T extends Resource&gt;, Object)</text><polygon fill="#FFFF44" points="20,165.2207,24,169.2207,20,173.2207,16,169.2207" style="stroke: #B38D22; stroke-width: 1.0;"/><text fill="#000000" font-family="sans-serif" font-size="11" lengthAdjust="spacingAndGlyphs" textLength="241" x="29" y="173.8555">computeResults(): List&lt;? extends Resource&gt;</text></a><!--MD5=[5280aa60a07ef1013ea92140cd773bb8]
class it.tidalwave.util.spi.SimpleFinderSupport--><rect codeLine="10" fill="#FEFECE" filter="url(#f1hnagcym93h15)" height="38.2656" id="it.tidalwave.util.spi.SimpleFinderSupport" style="stroke: #A80036; stroke-width: 1.5;" width="296" x="44.5" y="10"/><ellipse cx="59.5" cy="29.1328" fill="#A9DCDF" rx="11" ry="11" style="stroke: #A80036; stroke-width: 1.0;"/><path d="M59.3633,24.481 L58.2095,29.5527 L60.5254,29.5527 Z M57.8691,22.2397 L60.8657,22.2397 L64.2109,34.6328 L61.7622,34.6328 L60.9985,31.5698 L57.7197,31.5698 L56.9727,34.6328 L54.5239,34.6328 Z "/><text fill="#000000" font-family="sans-serif" font-size="14" font-style="italic" lengthAdjust="spacingAndGlyphs" textLength="145" x="73.5" y="28.5352">SimpleFinderSupport</text><text fill="#000000" font-family="sans-serif" font-size="10" font-style="italic" lengthAdjust="spacingAndGlyphs" textLength="93" x="99.5" y="41.1563">it.tidalwave.util.spi</text><rect fill="#FFFFFF" height="16.1328" style="stroke: #000000; stroke-width: 1.0; stroke-dasharray: 2.0,2.0;" width="117" x="226.5" y="7"/><text fill="#000000" font-family="sans-serif" font-size="12" font-style="italic" lengthAdjust="spacingAndGlyphs" textLength="115" x="227.5" y="19.6016">T extends Resource</text><!--MD5=[76643bdec27b898cc7c7932d03f97348]
reverse link it.tidalwave.util.spi.SimpleFinderSupport to it.tidalwave.northernwind.model.impl.admin.ResourceFinder--><path codeLine="12" d="M192.5,68.5888 C192.5,81.3573 192.5,95.4348 192.5,107.935 " fill="none" id="it.tidalwave.util.spi.SimpleFinderSupport-backto-it.tidalwave.northernwind.model.impl.admin.ResourceFinder" style="stroke: #A80036; stroke-width: 1.0;"/><polygon fill="none" points="185.5001,68.2484,192.5,48.2484,199.5001,68.2484,185.5001,68.2484" style="stroke: #A80036; stroke-width: 1.0;"/><text fill="#888888" font-family="sans-serif" font-size="10" lengthAdjust="spacingAndGlyphs" textLength="188" x="94.5" y="202.8438">UMLDoclet 2.0.12, PlantUML 1.2020.16</text><!--MD5=[3d472216855337e28a4f0d5618a7385f]
@startuml
    set namespaceSeparator none
    hide empty fields
    hide empty methods

    class "<size:14>ResourceFinder\n<size:10>it.tidalwave.northernwind.model.impl.admin" as it.tidalwave.northernwind.model.impl.admin.ResourceFinder<T extends Resource> [[ResourceFinder.html]] {
        +ResourceFinder(ResourceFinder<T extends Resource>, Object)
        #computeResults(): List<? extends Resource>
    }

    abstract class "<size:14>SimpleFinderSupport\n<size:10>it.tidalwave.util.spi" as it.tidalwave.util.spi.SimpleFinderSupport<T extends Resource>

    it.tidalwave.util.spi.SimpleFinderSupport <|- - it.tidalwave.northernwind.model.impl.admin.ResourceFinder

    center footer UMLDoclet 2.0.12, PlantUML 1.2020.16
@enduml

PlantUML version 1.2020.16(Sun Aug 23 22:20:43 CEST 2020)
(APACHE source distribution)
Java Runtime: OpenJDK Runtime Environment
JVM: OpenJDK 64-Bit Server VM
Default Encoding: UTF-8
Language: en
Country: GB
--></g></svg>