@startuml
    set namespaceSeparator none
    hide empty fields
    hide empty methods

    interface "<size:14>Layout\n<size:10>it.tidalwave.northernwind.frontend.ui" as it.tidalwave.northernwind.frontend.ui.Layout [[Layout.html]] {
        {abstract} +getTypeUri(): String
        {abstract} +withChild(Layout): Layout
        {abstract} +withOverride(Layout): Layout
        {abstract} +accept(Visitor<? super Layout, T>): Optional<T>
        {abstract} +createViewAndController(SiteNode): ViewAndController
    }

    interface "<size:14>As\n<size:10>it.tidalwave.util" as it.tidalwave.util.As {
        {abstract} +maybeAs(Class<? extends T>): Optional<T>
        {abstract} +asMany(Class<? extends T>): Collection<T>
    }
    interface "<size:14>Identifiable\n<size:10>it.tidalwave.role" as it.tidalwave.role.Identifiable {
        {abstract} +getId(): Id
    }
    interface "<size:14>Composite\n<size:10>it.tidalwave.role" as it.tidalwave.role.Composite<Layout, LayoutFinder> {
        {abstract} +findChildren(): LayoutFinder
    }
    class "<size:14>Layout.Builder\n<size:10>it.tidalwave.northernwind.frontend.ui" as it.tidalwave.northernwind.frontend.ui.Layout.Builder [[Layout.Builder.html]]

    it.tidalwave.util.As <|-- it.tidalwave.northernwind.frontend.ui.Layout
    it.tidalwave.role.Identifiable <|-- it.tidalwave.northernwind.frontend.ui.Layout
    it.tidalwave.role.Composite <|-- it.tidalwave.northernwind.frontend.ui.Layout
    it.tidalwave.northernwind.frontend.ui.Layout +-- it.tidalwave.northernwind.frontend.ui.Layout.Builder

    center footer UMLDoclet 2.0.12, PlantUML 1.2020.16
@enduml
