@startuml
    set namespaceSeparator none
    hide empty fields
    hide empty methods

    class "<size:14>Parameters\n<size:10>it.tidalwave.util" as it.tidalwave.util.Parameters [[Parameters.html]] {
        {static} +r(Object...): Collection<Object>
        {static} +find(Class<? extends T>, T, Object...): T
        {static} +find(Class<? extends T>, Object...): Collection<T>
        {static} +mustNotBeArrayOrCollection(Object, String): Object
    }

    center footer UMLDoclet 2.0.12, PlantUML 1.2020.16
@enduml
