<?xml version="1.0" encoding="UTF-8" standalone="no"?><svg xmlns="http://www.w3.org/2000/svg" xmlns:xlink="http://www.w3.org/1999/xlink" contentScriptType="application/ecmascript" contentStyleType="text/css" height="122px" preserveAspectRatio="none" style="width:633px;height:122px;" version="1.1" viewBox="0 0 633 122" width="633px" zoomAndPan="magnify"><defs><filter height="300%" id="fxgp7f2hjqvn7" width="300%" x="-1" y="-1"><feGaussianBlur result="blurOut" stdDeviation="2.0"/><feColorMatrix in="blurOut" result="blurOut2" type="matrix" values="0 0 0 0 0 0 0 0 0 0 0 0 0 0 0 0 0 0 .4 0"/><feOffset dx="4.0" dy="4.0" in="blurOut2" result="blurOut3"/><feBlend in="SourceGraphic" in2="blurOut3" mode="normal"/></filter></defs><g><!--MD5=[b6aab1681f1bf6bbe92b46ed8616cca2]
class it.tidalwave.util.StreamUtils--><a href="StreamUtils.html" target="_top" title="StreamUtils.html" xlink:actuate="onRequest" xlink:href="StreamUtils.html" xlink:show="new" xlink:title="StreamUtils.html" xlink:type="simple"><rect codeLine="5" fill="#FEFECE" filter="url(#fxgp7f2hjqvn7)" height="85.1309" id="it.tidalwave.util.StreamUtils" style="stroke: #A80036; stroke-width: 1.5;" width="607" x="7" y="7"/><ellipse cx="267.25" cy="26.1328" fill="#ADD1B2" rx="11" ry="11" style="stroke: #A80036; stroke-width: 1.0;"/><path d="M269.7231,32.2759 Q269.1421,32.5747 268.5029,32.7241 Q267.8638,32.8735 267.1582,32.8735 Q264.6514,32.8735 263.3315,31.2217 Q262.0117,29.5698 262.0117,26.4487 Q262.0117,23.3193 263.3315,21.6675 Q264.6514,20.0156 267.1582,20.0156 Q267.8638,20.0156 268.5112,20.165 Q269.1587,20.3145 269.7231,20.6133 L269.7231,23.3359 Q269.0923,22.7549 268.4988,22.4851 Q267.9053,22.2153 267.2744,22.2153 Q265.9297,22.2153 265.2449,23.282 Q264.5601,24.3486 264.5601,26.4487 Q264.5601,28.5405 265.2449,29.6072 Q265.9297,30.6738 267.2744,30.6738 Q267.9053,30.6738 268.4988,30.4041 Q269.0923,30.1343 269.7231,29.5532 Z "/><text fill="#000000" font-family="sans-serif" font-size="14" lengthAdjust="spacingAndGlyphs" textLength="78" x="287.75" y="25.5352">StreamUtils</text><text fill="#000000" font-family="sans-serif" font-size="10" lengthAdjust="spacingAndGlyphs" textLength="76" x="288.75" y="38.1563">it.tidalwave.util</text><line style="stroke: #A80036; stroke-width: 1.5;" x1="8" x2="613" y1="45.2656" y2="45.2656"/><ellipse cx="18" cy="56.2656" fill="#84BE84" rx="3" ry="3" style="stroke: #038048; stroke-width: 1.0;"/><text fill="#000000" font-family="sans-serif" font-size="11" lengthAdjust="spacingAndGlyphs" text-decoration="underline" textLength="381" x="27" y="59.9004">zip(Stream&lt;? extends A&gt;, Stream&lt;? extends B&gt;): Stream&lt;Pair&lt;A, B&gt;&gt;</text><ellipse cx="18" cy="69.2207" fill="#84BE84" rx="3" ry="3" style="stroke: #038048; stroke-width: 1.0;"/><text fill="#000000" font-family="sans-serif" font-size="11" lengthAdjust="spacingAndGlyphs" text-decoration="underline" textLength="581" x="27" y="72.8555">zip(Stream&lt;? extends A&gt;, Stream&lt;? extends B&gt;, BiFunction&lt;? super A, ? super B, ? extends R&gt;): Stream&lt;R&gt;</text><ellipse cx="18" cy="82.1758" fill="#84BE84" rx="3" ry="3" style="stroke: #038048; stroke-width: 1.0;"/><text fill="#000000" font-family="sans-serif" font-size="11" lengthAdjust="spacingAndGlyphs" text-decoration="underline" textLength="496" x="27" y="85.8105">randomLocalDateTimeStream(long, LocalDateTime, LocalDateTime): Stream&lt;LocalDateTime&gt;</text></a><text fill="#888888" font-family="sans-serif" font-size="10" lengthAdjust="spacingAndGlyphs" textLength="188" x="216.5" y="108.7988">UMLDoclet 2.0.12, PlantUML 1.2020.16</text><!--MD5=[de689fd6eea17927cf893b1580b1e1be]
@startuml
    set namespaceSeparator none
    hide empty fields
    hide empty methods

    class "<size:14>StreamUtils\n<size:10>it.tidalwave.util" as it.tidalwave.util.StreamUtils [[StreamUtils.html]] {
        {static} +zip(Stream<? extends A>, Stream<? extends B>): Stream<Pair<A, B>>
        {static} +zip(Stream<? extends A>, Stream<? extends B>, BiFunction<? super A, ? super B, ? extends R>): Stream<R>
        {static} +randomLocalDateTimeStream(long, LocalDateTime, LocalDateTime): Stream<LocalDateTime>
    }

    center footer UMLDoclet 2.0.12, PlantUML 1.2020.16
@enduml

PlantUML version 1.2020.16(Sun Aug 23 22:20:43 CEST 2020)
(APACHE source distribution)
Java Runtime: OpenJDK Runtime Environment
JVM: OpenJDK 64-Bit Server VM
Default Encoding: UTF-8
Language: en
Country: GB
--></g></svg>