@startuml
    set namespaceSeparator none
    hide empty fields
    hide empty methods

    abstract class "<size:14>Task\n<size:10>it.tidalwave.util" as it.tidalwave.util.Task<T, E extends Throwable> [[Task.html]] {
        +Task()
        +Task(String)
        {abstract} +run(): T
        {static} +ofRunnable(Runnable): Task<Void, RuntimeException>
        {static} +ofCallable(Callable<? extends T>): Task<T, Exception>
        {static} +ofCallback(Callback): Task<Void, Throwable>
    }

    center footer UMLDoclet 2.0.12, PlantUML 1.2020.16
@enduml
