<?xml version="1.0" encoding="UTF-8" standalone="no"?><svg xmlns="http://www.w3.org/2000/svg" xmlns:xlink="http://www.w3.org/1999/xlink" contentScriptType="application/ecmascript" contentStyleType="text/css" height="148px" preserveAspectRatio="none" style="width:475px;height:148px;" version="1.1" viewBox="0 0 475 148" width="475px" zoomAndPan="magnify"><defs><filter height="300%" id="fo71bd05v1xyz" width="300%" x="-1" y="-1"><feGaussianBlur result="blurOut" stdDeviation="2.0"/><feColorMatrix in="blurOut" result="blurOut2" type="matrix" values="0 0 0 0 0 0 0 0 0 0 0 0 0 0 0 0 0 0 .4 0"/><feOffset dx="4.0" dy="4.0" in="blurOut2" result="blurOut3"/><feBlend in="SourceGraphic" in2="blurOut3" mode="normal"/></filter></defs><g><!--MD5=[bc8dcec57bbcad29b329335bbc172740]
class it.tidalwave.role.spi.RoleManagerSupportTest--><a href="RoleManagerSupportTest.html" target="_top" title="RoleManagerSupportTest.html" xlink:actuate="onRequest" xlink:href="RoleManagerSupportTest.html" xlink:show="new" xlink:title="RoleManagerSupportTest.html" xlink:type="simple"><rect codeLine="5" fill="#FEFECE" filter="url(#fo71bd05v1xyz)" height="111.041" id="it.tidalwave.role.spi.RoleManagerSupportTest" style="stroke: #A80036; stroke-width: 1.5;" width="449" x="7" y="7"/><ellipse cx="140.25" cy="26.1328" fill="#ADD1B2" rx="11" ry="11" style="stroke: #A80036; stroke-width: 1.0;"/><path d="M142.7231,32.2759 Q142.1421,32.5747 141.5029,32.7241 Q140.8638,32.8735 140.1582,32.8735 Q137.6514,32.8735 136.3315,31.2217 Q135.0117,29.5698 135.0117,26.4487 Q135.0117,23.3193 136.3315,21.6675 Q137.6514,20.0156 140.1582,20.0156 Q140.8638,20.0156 141.5112,20.165 Q142.1587,20.3145 142.7231,20.6133 L142.7231,23.3359 Q142.0923,22.7549 141.4988,22.4851 Q140.9053,22.2153 140.2744,22.2153 Q138.9297,22.2153 138.2449,23.282 Q137.5601,24.3486 137.5601,26.4487 Q137.5601,28.5405 138.2449,29.6072 Q138.9297,30.6738 140.2744,30.6738 Q140.9053,30.6738 141.4988,30.4041 Q142.0923,30.1343 142.7231,29.5532 Z "/><text fill="#000000" font-family="sans-serif" font-size="14" lengthAdjust="spacingAndGlyphs" textLength="174" x="160.75" y="25.5352">RoleManagerSupportTest</text><text fill="#000000" font-family="sans-serif" font-size="10" lengthAdjust="spacingAndGlyphs" textLength="96" x="199.75" y="38.1563">it.tidalwave.role.spi</text><line style="stroke: #A80036; stroke-width: 1.5;" x1="8" x2="455" y1="45.2656" y2="45.2656"/><ellipse cx="18" cy="56.2656" fill="#84BE84" rx="3" ry="3" style="stroke: #038048; stroke-width: 1.0;"/><text fill="#000000" font-family="sans-serif" font-size="11" lengthAdjust="spacingAndGlyphs" textLength="67" x="27" y="59.9004">setup(): void</text><ellipse cx="18" cy="69.2207" fill="#84BE84" rx="3" ry="3" style="stroke: #038048; stroke-width: 1.0;"/><text fill="#000000" font-family="sans-serif" font-size="11" lengthAdjust="spacingAndGlyphs" textLength="423" x="27" y="72.8555">must_correctly_find_implemented_interfaces(Class&lt;?&gt;, Set&lt;Class&lt;?&gt;&gt;): void</text><ellipse cx="18" cy="82.1758" fill="#84BE84" rx="3" ry="3" style="stroke: #038048; stroke-width: 1.0;"/><text fill="#000000" font-family="sans-serif" font-size="11" lengthAdjust="spacingAndGlyphs" textLength="192" x="27" y="85.8105">must_properly_scan_classes(): void</text><ellipse cx="18" cy="95.1309" fill="#84BE84" rx="3" ry="3" style="stroke: #038048; stroke-width: 1.0;"/><text fill="#000000" font-family="sans-serif" font-size="11" lengthAdjust="spacingAndGlyphs" textLength="319" x="27" y="98.7656">must_correctly_find_roles(Object, Class&lt;?&gt;, List&lt;?&gt;): void</text><ellipse cx="18" cy="108.0859" fill="#84BE84" rx="3" ry="3" style="stroke: #038048; stroke-width: 1.0;"/><text fill="#000000" font-family="sans-serif" font-size="11" lengthAdjust="spacingAndGlyphs" textLength="361" x="27" y="111.7207">findTypeOf_must_return_original_class_for_Mockito_mocks(): void</text></a><text fill="#888888" font-family="sans-serif" font-size="10" lengthAdjust="spacingAndGlyphs" textLength="188" x="137.5" y="134.709">UMLDoclet 2.0.12, PlantUML 1.2020.16</text><!--MD5=[84a5a65ce77cf37031c260c5fc7765e2]
@startuml
    set namespaceSeparator none
    hide empty fields
    hide empty methods

    class "<size:14>RoleManagerSupportTest\n<size:10>it.tidalwave.role.spi" as it.tidalwave.role.spi.RoleManagerSupportTest [[RoleManagerSupportTest.html]] {
        +setup(): void
        +must_correctly_find_implemented_interfaces(Class<?>, Set<Class<?>>): void
        +must_properly_scan_classes(): void
        +must_correctly_find_roles(Object, Class<?>, List<?>): void
        +findTypeOf_must_return_original_class_for_Mockito_mocks(): void
    }

    center footer UMLDoclet 2.0.12, PlantUML 1.2020.16
@enduml

PlantUML version 1.2020.16(Sun Aug 23 22:20:43 CEST 2020)
(APACHE source distribution)
Java Runtime: OpenJDK Runtime Environment
JVM: OpenJDK 64-Bit Server VM
Default Encoding: UTF-8
Language: en
Country: GB
--></g></svg>