@startuml
    set namespaceSeparator none
    hide empty fields
    hide empty methods

    interface "<size:14>MessageBus\n<size:10>it.tidalwave.messagebus" as it.tidalwave.messagebus.MessageBus [[MessageBus.html]] {
        {abstract} +publish(T): void
        {abstract} +publish(Class<T>, T): void
        {abstract} +subscribe(Class<T>, Listener<T>): void
        {abstract} +unsubscribe(Listener<?>): void
    }
    interface "<size:14>MessageBus.Listener\n<size:10>it.tidalwave.messagebus" as it.tidalwave.messagebus.MessageBus.Listener<T> [[MessageBus.Listener.html]]

    it.tidalwave.messagebus.MessageBus +-- it.tidalwave.messagebus.MessageBus.Listener

    center footer UMLDoclet 2.0.12, PlantUML 1.2020.16
@enduml
