@startuml
    set namespaceSeparator none
    hide empty fields
    hide empty methods

    class "<size:14>StackPaneSelector\n<size:10>it.tidalwave.role.ui.javafx" as it.tidalwave.role.ui.javafx.StackPaneSelector [[StackPaneSelector.html]] {
        +registerArea(String, StackPane): void
        +add(String, Node): void
        +setShownNode(Node): void
    }

    center footer UMLDoclet 2.0.12, PlantUML 1.2020.16
@enduml
