@startuml
    set namespaceSeparator none
    hide empty fields
    hide empty methods

    class "<size:14>ResourceProperties.Builder\n<size:10>it.tidalwave.northernwind.core.model" as it.tidalwave.northernwind.core.model.ResourceProperties.Builder [[ResourceProperties.Builder.html]] {
        +build(): ResourceProperties
        +withSafeValues(TypeSafeMap): Builder
    }

    interface "<size:14>ResourceProperties\n<size:10>it.tidalwave.northernwind.core.model" as it.tidalwave.northernwind.core.model.ResourceProperties [[ResourceProperties.html]] {
        {abstract} +getProperty(Key<? extends T>): Optional<T>
        {abstract} +getGroup(Id): ResourceProperties
        {abstract} +getKeys(): Collection<Key<?>>
        {abstract} +getGroupIds(): Collection<Id>
        {abstract} +withProperty(Key<T>, T): ResourceProperties
        {abstract} +withoutProperty(Key<?>): ResourceProperties
        {abstract} +withProperties(ResourceProperties): ResourceProperties
        {abstract} +merged(ResourceProperties): ResourceProperties
        {abstract} +withId(Id): ResourceProperties
    }
    interface "<size:14>ResourceProperties.Builder.CallBack\n<size:10>it.tidalwave.northernwind.core.model" as it.tidalwave.northernwind.core.model.ResourceProperties.Builder.CallBack [[ResourceProperties.Builder.CallBack.html]]

    it.tidalwave.northernwind.core.model.ResourceProperties +-- it.tidalwave.northernwind.core.model.ResourceProperties.Builder
    it.tidalwave.northernwind.core.model.ResourceProperties.Builder +-- it.tidalwave.northernwind.core.model.ResourceProperties.Builder.CallBack

    center footer UMLDoclet 2.0.12, PlantUML 1.2020.16
@enduml
