<?xml version="1.0" encoding="UTF-8" standalone="no"?><svg xmlns="http://www.w3.org/2000/svg" xmlns:xlink="http://www.w3.org/1999/xlink" contentScriptType="application/ecmascript" contentStyleType="text/css" height="247px" preserveAspectRatio="none" style="width:370px;height:247px;" version="1.1" viewBox="0 0 370 247" width="370px" zoomAndPan="magnify"><defs><filter height="300%" id="f1a3n6tah9w2c9" width="300%" x="-1" y="-1"><feGaussianBlur result="blurOut" stdDeviation="2.0"/><feColorMatrix in="blurOut" result="blurOut2" type="matrix" values="0 0 0 0 0 0 0 0 0 0 0 0 0 0 0 0 0 0 .4 0"/><feOffset dx="4.0" dy="4.0" in="blurOut2" result="blurOut3"/><feBlend in="SourceGraphic" in2="blurOut3" mode="normal"/></filter></defs><g><!--MD5=[91c0f9a6572ed570d6fab61aec670694]
class it.tidalwave.northernwind.rca.ui.impl.javafx.structureexplorer.JavaFXStructureExplorerPresentationDelegate--><a href="JavaFXStructureExplorerPresentationDelegate.html" target="_top" title="JavaFXStructureExplorerPresentationDelegate.html" xlink:actuate="onRequest" xlink:href="JavaFXStructureExplorerPresentationDelegate.html" xlink:show="new" xlink:title="JavaFXStructureExplorerPresentationDelegate.html" xlink:type="simple"><rect codeLine="5" fill="#FEFECE" filter="url(#f1a3n6tah9w2c9)" height="72.1758" id="it.tidalwave.northernwind.rca.ui.impl.javafx.structureexplorer.JavaFXStructureExplorerPresentationDelegate" style="stroke: #A80036; stroke-width: 1.5;" width="344" x="7" y="139"/><ellipse cx="22" cy="158.1328" fill="#ADD1B2" rx="11" ry="11" style="stroke: #A80036; stroke-width: 1.0;"/><path d="M24.4731,164.2759 Q23.8921,164.5747 23.2529,164.7241 Q22.6138,164.8735 21.9082,164.8735 Q19.4014,164.8735 18.0815,163.2217 Q16.7617,161.5698 16.7617,158.4487 Q16.7617,155.3193 18.0815,153.6675 Q19.4014,152.0156 21.9082,152.0156 Q22.6138,152.0156 23.2612,152.165 Q23.9087,152.3145 24.4731,152.6133 L24.4731,155.3359 Q23.8423,154.7549 23.2488,154.4851 Q22.6553,154.2153 22.0244,154.2153 Q20.6797,154.2153 19.9949,155.282 Q19.3101,156.3486 19.3101,158.4487 Q19.3101,160.5405 19.9949,161.6072 Q20.6797,162.6738 22.0244,162.6738 Q22.6553,162.6738 23.2488,162.4041 Q23.8423,162.1343 24.4731,161.5532 Z "/><text fill="#000000" font-family="sans-serif" font-size="14" lengthAdjust="spacingAndGlyphs" textLength="312" x="36" y="157.5352">JavaFXStructureExplorerPresentationDelegate</text><text fill="#000000" font-family="sans-serif" font-size="10" lengthAdjust="spacingAndGlyphs" textLength="300" x="42" y="170.1563">it.tidalwave.northernwind.rca.ui.impl.javafx.structureexplorer</text><line style="stroke: #A80036; stroke-width: 1.5;" x1="8" x2="350" y1="177.2656" y2="177.2656"/><ellipse cx="18" cy="188.2656" fill="#84BE84" rx="3" ry="3" style="stroke: #038048; stroke-width: 1.0;"/><text fill="#000000" font-family="sans-serif" font-size="11" lengthAdjust="spacingAndGlyphs" textLength="183" x="27" y="191.9004">populate(PresentationModel): void</text><ellipse cx="18" cy="201.2207" fill="#84BE84" rx="3" ry="3" style="stroke: #038048; stroke-width: 1.0;"/><text fill="#000000" font-family="sans-serif" font-size="11" lengthAdjust="spacingAndGlyphs" textLength="128" x="27" y="204.8555">expandFirstLevel(): void</text></a><!--MD5=[1fd38f3310cfbdedca0e7ba4622aad3d]
class it.tidalwave.northernwind.rca.ui.structureexplorer.StructureExplorerPresentation--><a href="http://tidalwave.tidalwave.it/northernwind-rca/northernwind-rca-modules/it-tidalwave-northernwind-rca-ui-structure-explorer/apidocs/it/tidalwave/northernwind/rca/ui/structureexplorer/StructureExplorerPresentation.html?is-external=true" target="_top" title="http://tidalwave.tidalwave.it/northernwind-rca/northernwind-rca-modules/it-tidalwave-northernwind-rca-ui-structure-explorer/apidocs/it/tidalwave/northernwind/rca/ui/structureexplorer/StructureExplorerPresentation.html?is-external=true" xlink:actuate="onRequest" xlink:href="http://tidalwave.tidalwave.it/northernwind-rca/northernwind-rca-modules/it-tidalwave-northernwind-rca-ui-structure-explorer/apidocs/it/tidalwave/northernwind/rca/ui/structureexplorer/StructureExplorerPresentation.html?is-external=true" xlink:show="new" xlink:title="http://tidalwave.tidalwave.it/northernwind-rca/northernwind-rca-modules/it-tidalwave-northernwind-rca-ui-structure-explorer/apidocs/it/tidalwave/northernwind/rca/ui/structureexplorer/StructureExplorerPresentation.html?is-external=true" xlink:type="simple"><rect codeLine="10" fill="#FEFECE" filter="url(#f1a3n6tah9w2c9)" height="72.1758" id="it.tidalwave.northernwind.rca.ui.structureexplorer.StructureExplorerPresentation" style="stroke: #A80036; stroke-width: 1.5;" width="275" x="41.5" y="7"/><ellipse cx="56.5" cy="26.1328" fill="#B4A7E5" rx="11" ry="11" style="stroke: #A80036; stroke-width: 1.0;"/><path d="M52.9277,22.3979 L52.9277,20.2397 L60.3071,20.2397 L60.3071,22.3979 L57.8418,22.3979 L57.8418,30.4746 L60.3071,30.4746 L60.3071,32.6328 L52.9277,32.6328 L52.9277,30.4746 L55.3931,30.4746 L55.3931,22.3979 Z "/><text fill="#000000" font-family="sans-serif" font-size="14" font-style="italic" lengthAdjust="spacingAndGlyphs" textLength="208" x="88" y="25.5352">StructureExplorerPresentation</text><text fill="#000000" font-family="sans-serif" font-size="10" font-style="italic" lengthAdjust="spacingAndGlyphs" textLength="243" x="70.5" y="38.1563">it.tidalwave.northernwind.rca.ui.structureexplorer</text><line style="stroke: #A80036; stroke-width: 1.5;" x1="42.5" x2="315.5" y1="45.2656" y2="45.2656"/><ellipse cx="52.5" cy="56.2656" fill="#84BE84" rx="3" ry="3" style="stroke: #038048; stroke-width: 1.0;"/><text fill="#000000" font-family="sans-serif" font-size="11" font-style="italic" lengthAdjust="spacingAndGlyphs" textLength="183" x="61.5" y="59.9004">populate(PresentationModel): void</text><ellipse cx="52.5" cy="69.2207" fill="#84BE84" rx="3" ry="3" style="stroke: #038048; stroke-width: 1.0;"/><text fill="#000000" font-family="sans-serif" font-size="11" font-style="italic" lengthAdjust="spacingAndGlyphs" textLength="128" x="61.5" y="72.8555">expandFirstLevel(): void</text></a><!--MD5=[f77183002e850cc442397f50ca00c740]
reverse link it.tidalwave.northernwind.rca.ui.structureexplorer.StructureExplorerPresentation to it.tidalwave.northernwind.rca.ui.impl.javafx.structureexplorer.JavaFXStructureExplorerPresentationDelegate--><path codeLine="15" d="M179,99.3792 C179,112.7962 179,126.7553 179,138.974 " fill="none" id="it.tidalwave.northernwind.rca.ui.structureexplorer.StructureExplorerPresentation-backto-it.tidalwave.northernwind.rca.ui.impl.javafx.structureexplorer.JavaFXStructureExplorerPresentationDelegate" style="stroke: #A80036; stroke-width: 1.0; stroke-dasharray: 7.0,7.0;"/><polygon fill="none" points="172.0001,99.0696,179,79.0696,186.0001,99.0695,172.0001,99.0696" style="stroke: #A80036; stroke-width: 1.0;"/><text fill="#888888" font-family="sans-serif" font-size="10" lengthAdjust="spacingAndGlyphs" textLength="188" x="82" y="233.8438">UMLDoclet 2.0.12, PlantUML 1.2020.16</text><!--MD5=[68751d3e21e2ccf228c36ca36004938c]
@startuml
    set namespaceSeparator none
    hide empty fields
    hide empty methods

    class "<size:14>JavaFXStructureExplorerPresentationDelegate\n<size:10>it.tidalwave.northernwind.rca.ui.impl.javafx.structureexplorer" as it.tidalwave.northernwind.rca.ui.impl.javafx.structureexplorer.JavaFXStructureExplorerPresentationDelegate [[JavaFXStructureExplorerPresentationDelegate.html]] {
        +populate(PresentationModel): void
        +expandFirstLevel(): void
    }

    interface "<size:14>StructureExplorerPresentation\n<size:10>it.tidalwave.northernwind.rca.ui.structureexplorer" as it.tidalwave.northernwind.rca.ui.structureexplorer.StructureExplorerPresentation [[http://tidalwave.tidalwave.it/northernwind-rca/northernwind-rca-modules/it-tidalwave-northernwind-rca-ui-structure-explorer/apidocs/it/tidalwave/northernwind/rca/ui/structureexplorer/StructureExplorerPresentation.html?is-external=true]] {
        {abstract} +populate(PresentationModel): void
        {abstract} +expandFirstLevel(): void
    }

    it.tidalwave.northernwind.rca.ui.structureexplorer.StructureExplorerPresentation <|.. it.tidalwave.northernwind.rca.ui.impl.javafx.structureexplorer.JavaFXStructureExplorerPresentationDelegate

    center footer UMLDoclet 2.0.12, PlantUML 1.2020.16
@enduml

PlantUML version 1.2020.16(Sun Aug 23 22:20:43 CEST 2020)
(APACHE source distribution)
Java Runtime: OpenJDK Runtime Environment
JVM: OpenJDK 64-Bit Server VM
Default Encoding: UTF-8
Language: en
Country: GB
--></g></svg>