<?xml version="1.0" encoding="UTF-8" standalone="no"?><svg xmlns="http://www.w3.org/2000/svg" xmlns:xlink="http://www.w3.org/1999/xlink" contentScriptType="application/ecmascript" contentStyleType="text/css" height="226px" preserveAspectRatio="none" style="width:280px;height:226px;" version="1.1" viewBox="0 0 280 226" width="280px" zoomAndPan="magnify"><defs><filter height="300%" id="f10pklkgx2rmfd" width="300%" x="-1" y="-1"><feGaussianBlur result="blurOut" stdDeviation="2.0"/><feColorMatrix in="blurOut" result="blurOut2" type="matrix" values="0 0 0 0 0 0 0 0 0 0 0 0 0 0 0 0 0 0 .4 0"/><feOffset dx="4.0" dy="4.0" in="blurOut2" result="blurOut3"/><feBlend in="SourceGraphic" in2="blurOut3" mode="normal"/></filter></defs><g><!--MD5=[10dfd5fe961dacbed6a634421c5e898e]
class it.tidalwave.northernwind.rca.ui.impl.javafx.Main--><a href="Main.html" target="_top" title="Main.html" xlink:actuate="onRequest" xlink:href="Main.html" xlink:show="new" xlink:title="Main.html" xlink:type="simple"><rect codeLine="5" fill="#FEFECE" filter="url(#f10pklkgx2rmfd)" height="85.1309" id="it.tidalwave.northernwind.rca.ui.impl.javafx.Main" style="stroke: #A80036; stroke-width: 1.5;" width="252" x="9" y="105"/><ellipse cx="27.6" cy="124.1328" fill="#ADD1B2" rx="11" ry="11" style="stroke: #A80036; stroke-width: 1.0;"/><path d="M30.0731,130.2759 Q29.4921,130.5747 28.8529,130.7241 Q28.2138,130.8735 27.5082,130.8735 Q25.0014,130.8735 23.6815,129.2217 Q22.3617,127.5698 22.3617,124.4487 Q22.3617,121.3193 23.6815,119.6675 Q25.0014,118.0156 27.5082,118.0156 Q28.2138,118.0156 28.8612,118.165 Q29.5087,118.3145 30.0731,118.6133 L30.0731,121.3359 Q29.4423,120.7549 28.8488,120.4851 Q28.2553,120.2153 27.6244,120.2153 Q26.2797,120.2153 25.5949,121.282 Q24.9101,122.3486 24.9101,124.4487 Q24.9101,126.5405 25.5949,127.6072 Q26.2797,128.6738 27.6244,128.6738 Q28.2553,128.6738 28.8488,128.4041 Q29.4423,128.1343 30.0731,127.5532 Z "/><text fill="#000000" font-family="sans-serif" font-size="14" lengthAdjust="spacingAndGlyphs" textLength="33" x="131.9" y="123.5352">Main</text><text fill="#000000" font-family="sans-serif" font-size="10" lengthAdjust="spacingAndGlyphs" textLength="212" x="42.4" y="136.1563">it.tidalwave.northernwind.rca.ui.impl.javafx</text><line style="stroke: #A80036; stroke-width: 1.5;" x1="10" x2="260" y1="143.2656" y2="143.2656"/><ellipse cx="20" cy="154.2656" fill="#84BE84" rx="3" ry="3" style="stroke: #038048; stroke-width: 1.0;"/><text fill="#000000" font-family="sans-serif" font-size="11" lengthAdjust="spacingAndGlyphs" text-decoration="underline" textLength="104" x="29" y="157.9004">main(String...): void</text><ellipse cx="20" cy="167.2207" fill="#84BE84" rx="3" ry="3" style="stroke: #038048; stroke-width: 1.0;"/><text fill="#000000" font-family="sans-serif" font-size="11" lengthAdjust="spacingAndGlyphs" textLength="54" x="29" y="170.8555">init(): void</text><polygon fill="#FFFF44" points="20,175.1758,24,179.1758,20,183.1758,16,179.1758" style="stroke: #B38D22; stroke-width: 1.0;"/><text fill="#000000" font-family="sans-serif" font-size="11" lengthAdjust="spacingAndGlyphs" textLength="226" x="29" y="183.8105">onStageCreated(ApplicationContext): void</text></a><!--MD5=[76af6d14fb3412df0b0e4694bc2d5a5d]
class it.tidalwave.ui.javafx.JavaFXSpringApplication--><rect codeLine="11" fill="#FEFECE" filter="url(#f10pklkgx2rmfd)" height="38.2656" id="it.tidalwave.ui.javafx.JavaFXSpringApplication" style="stroke: #A80036; stroke-width: 1.5;" width="199" x="35.5" y="7"/><ellipse cx="50.5" cy="26.1328" fill="#ADD1B2" rx="11" ry="11" style="stroke: #A80036; stroke-width: 1.0;"/><path d="M52.9731,32.2759 Q52.3921,32.5747 51.7529,32.7241 Q51.1138,32.8735 50.4082,32.8735 Q47.9014,32.8735 46.5815,31.2217 Q45.2617,29.5698 45.2617,26.4487 Q45.2617,23.3193 46.5815,21.6675 Q47.9014,20.0156 50.4082,20.0156 Q51.1138,20.0156 51.7612,20.165 Q52.4087,20.3145 52.9731,20.6133 L52.9731,23.3359 Q52.3423,22.7549 51.7488,22.4851 Q51.1553,22.2153 50.5244,22.2153 Q49.1797,22.2153 48.4949,23.282 Q47.8101,24.3486 47.8101,26.4487 Q47.8101,28.5405 48.4949,29.6072 Q49.1797,30.6738 50.5244,30.6738 Q51.1553,30.6738 51.7488,30.4041 Q52.3423,30.1343 52.9731,29.5532 Z "/><text fill="#000000" font-family="sans-serif" font-size="14" lengthAdjust="spacingAndGlyphs" textLength="167" x="64.5" y="25.5352">JavaFXSpringApplication</text><text fill="#000000" font-family="sans-serif" font-size="10" lengthAdjust="spacingAndGlyphs" textLength="102" x="97" y="38.1563">it.tidalwave.ui.javafx</text><!--MD5=[0ccd9464914863a44ac17fcc3354bb4a]
reverse link it.tidalwave.ui.javafx.JavaFXSpringApplication to it.tidalwave.northernwind.rca.ui.impl.javafx.Main--><path codeLine="13" d="M135,65.3291 C135,77.9819 135,92.0566 135,104.9312 " fill="none" id="it.tidalwave.ui.javafx.JavaFXSpringApplication-backto-it.tidalwave.northernwind.rca.ui.impl.javafx.Main" style="stroke: #A80036; stroke-width: 1.0;"/><polygon fill="none" points="128.0001,65.2521,135,45.252,142.0001,65.252,128.0001,65.2521" style="stroke: #A80036; stroke-width: 1.0;"/><text fill="#888888" font-family="sans-serif" font-size="10" lengthAdjust="spacingAndGlyphs" textLength="188" x="37" y="212.7988">UMLDoclet 2.0.12, PlantUML 1.2020.16</text><!--MD5=[8a0b2802568dfa81bb06ef0eb508a356]
@startuml
    set namespaceSeparator none
    hide empty fields
    hide empty methods

    class "<size:14>Main\n<size:10>it.tidalwave.northernwind.rca.ui.impl.javafx" as it.tidalwave.northernwind.rca.ui.impl.javafx.Main [[Main.html]] {
        {static} +main(String...): void
        +init(): void
        #onStageCreated(ApplicationContext): void
    }

    class "<size:14>JavaFXSpringApplication\n<size:10>it.tidalwave.ui.javafx" as it.tidalwave.ui.javafx.JavaFXSpringApplication

    it.tidalwave.ui.javafx.JavaFXSpringApplication <|- - it.tidalwave.northernwind.rca.ui.impl.javafx.Main

    center footer UMLDoclet 2.0.12, PlantUML 1.2020.16
@enduml

PlantUML version 1.2020.16(Sun Aug 23 22:20:43 CEST 2020)
(APACHE source distribution)
Java Runtime: OpenJDK Runtime Environment
JVM: OpenJDK 64-Bit Server VM
Default Encoding: UTF-8
Language: en
Country: GB
--></g></svg>