<?xml version="1.0" encoding="UTF-8" standalone="no"?><svg xmlns="http://www.w3.org/2000/svg" xmlns:xlink="http://www.w3.org/1999/xlink" contentScriptType="application/ecmascript" contentStyleType="text/css" height="122px" preserveAspectRatio="none" style="width:294px;height:122px;" version="1.1" viewBox="0 0 294 122" width="294px" zoomAndPan="magnify"><defs><filter height="300%" id="f1uqvs2t2kfyst" width="300%" x="-1" y="-1"><feGaussianBlur result="blurOut" stdDeviation="2.0"/><feColorMatrix in="blurOut" result="blurOut2" type="matrix" values="0 0 0 0 0 0 0 0 0 0 0 0 0 0 0 0 0 0 .4 0"/><feOffset dx="4.0" dy="4.0" in="blurOut2" result="blurOut3"/><feBlend in="SourceGraphic" in2="blurOut3" mode="normal"/></filter></defs><g><!--MD5=[1b1874ab2533beb4d183d9c934c83aa5]
class it.tidalwave.role.ui.javafx.example.large.data.Dao--><a href="Dao.html" target="_top" title="Dao.html" xlink:actuate="onRequest" xlink:href="Dao.html" xlink:show="new" xlink:title="Dao.html" xlink:type="simple"><rect codeLine="5" fill="#FEFECE" filter="url(#f1uqvs2t2kfyst)" height="85.1309" id="it.tidalwave.role.ui.javafx.example.large.data.Dao" style="stroke: #A80036; stroke-width: 1.5;" width="268" x="7" y="7"/><ellipse cx="28.3" cy="26.1328" fill="#B4A7E5" rx="11" ry="11" style="stroke: #A80036; stroke-width: 1.0;"/><path d="M24.7277,22.3979 L24.7277,20.2397 L32.1071,20.2397 L32.1071,22.3979 L29.6418,22.3979 L29.6418,30.4746 L32.1071,30.4746 L32.1071,32.6328 L24.7277,32.6328 L24.7277,30.4746 L27.1931,30.4746 L27.1931,22.3979 Z "/><text fill="#000000" font-family="sans-serif" font-size="14" font-style="italic" lengthAdjust="spacingAndGlyphs" textLength="27" x="141.2" y="25.5352">Dao</text><text fill="#000000" font-family="sans-serif" font-size="10" font-style="italic" lengthAdjust="spacingAndGlyphs" textLength="222" x="43.7" y="38.1563">it.tidalwave.role.ui.javafx.example.large.data</text><line style="stroke: #A80036; stroke-width: 1.5;" x1="8" x2="274" y1="45.2656" y2="45.2656"/><ellipse cx="18" cy="56.2656" fill="#84BE84" rx="3" ry="3" style="stroke: #038048; stroke-width: 1.0;"/><text fill="#000000" font-family="sans-serif" font-size="11" font-style="italic" lengthAdjust="spacingAndGlyphs" textLength="242" x="27" y="59.9004">getSimpleEntities(): Collection&lt;SimpleEntity&gt;</text><ellipse cx="18" cy="69.2207" fill="#84BE84" rx="3" ry="3" style="stroke: #038048; stroke-width: 1.0;"/><text fill="#000000" font-family="sans-serif" font-size="11" font-style="italic" lengthAdjust="spacingAndGlyphs" textLength="241" x="27" y="72.8555">getDciEntities(): Collection&lt;SimpleDciEntity&gt;</text><ellipse cx="18" cy="82.1758" fill="#84BE84" rx="3" ry="3" style="stroke: #038048; stroke-width: 1.0;"/><text fill="#000000" font-family="sans-serif" font-size="11" font-style="italic" lengthAdjust="spacingAndGlyphs" textLength="175" x="27" y="85.8105">getFiles(): Collection&lt;FileEntity&gt;</text></a><text fill="#888888" font-family="sans-serif" font-size="10" lengthAdjust="spacingAndGlyphs" textLength="188" x="47" y="108.7988">UMLDoclet 2.0.12, PlantUML 1.2020.16</text><!--MD5=[7e429db483ae18762f5c055caa522fa6]
@startuml
    set namespaceSeparator none
    hide empty fields
    hide empty methods

    interface "<size:14>Dao\n<size:10>it.tidalwave.role.ui.javafx.example.large.data" as it.tidalwave.role.ui.javafx.example.large.data.Dao [[Dao.html]] {
        {abstract} +getSimpleEntities(): Collection<SimpleEntity>
        {abstract} +getDciEntities(): Collection<SimpleDciEntity>
        {abstract} +getFiles(): Collection<FileEntity>
    }

    center footer UMLDoclet 2.0.12, PlantUML 1.2020.16
@enduml

PlantUML version 1.2020.16(Sun Aug 23 22:20:43 CEST 2020)
(APACHE source distribution)
Java Runtime: OpenJDK Runtime Environment
JVM: OpenJDK 64-Bit Server VM
Default Encoding: UTF-8
Language: en
Country: GB
--></g></svg>