<?xml version="1.0" encoding="UTF-8" standalone="no"?><svg xmlns="http://www.w3.org/2000/svg" xmlns:xlink="http://www.w3.org/1999/xlink" contentScriptType="application/ecmascript" contentStyleType="text/css" height="304px" preserveAspectRatio="none" style="width:1876px;height:304px;" version="1.1" viewBox="0 0 1876 304" width="1876px" zoomAndPan="magnify"><defs><filter height="300%" id="fychf37vvvu97" width="300%" x="-1" y="-1"><feGaussianBlur result="blurOut" stdDeviation="2.0"/><feColorMatrix in="blurOut" result="blurOut2" type="matrix" values="0 0 0 0 0 0 0 0 0 0 0 0 0 0 0 0 0 0 .4 0"/><feOffset dx="4.0" dy="4.0" in="blurOut2" result="blurOut3"/><feBlend in="SourceGraphic" in2="blurOut3" mode="normal"/></filter></defs><g><!--MD5=[0a9c56bb243fd106a89f6d54cf92d5a0]
cluster it.tidalwave.role.io.spi--><polygon fill="#FFFFFF" filter="url(#fychf37vvvu97)" points="16,153,178,153,185,175.4883,1854,175.4883,1854,275,16,275,16,153" style="stroke: #000000; stroke-width: 1.5;"/><line style="stroke: #000000; stroke-width: 1.5;" x1="16" x2="185" y1="175.4883" y2="175.4883"/><text fill="#000000" font-family="sans-serif" font-size="14" font-weight="bold" lengthAdjust="spacingAndGlyphs" textLength="156" x="20" y="168.5352">it.tidalwave.role.io.spi</text><!--MD5=[f624c859ad0e1eb814b90c4c4550318d]
cluster it.tidalwave.role.io--><polygon fill="#FFFFFF" filter="url(#fychf37vvvu97)" points="389,6,526,6,533,28.4883,1467,28.4883,1467,128,389,128,389,6" style="stroke: #000000; stroke-width: 1.5;"/><line style="stroke: #000000; stroke-width: 1.5;" x1="389" x2="533" y1="28.4883" y2="28.4883"/><text fill="#000000" font-family="sans-serif" font-size="14" font-weight="bold" lengthAdjust="spacingAndGlyphs" textLength="131" x="393" y="21.5352">it.tidalwave.role.io</text><!--MD5=[7f9ab407da7ae9e1ffbab84f7a9ebaa6]
class it.tidalwave.role.io.spi.PathTextReadable--><a href="PathTextReadable.html" target="_top" title="PathTextReadable.html" xlink:actuate="onRequest" xlink:href="PathTextReadable.html" xlink:show="new" xlink:title="PathTextReadable.html" xlink:type="simple"><rect codeLine="3" fill="#FEFECE" filter="url(#fychf37vvvu97)" height="86.8652" id="it.tidalwave.role.io.spi.PathTextReadable" style="stroke: #A80036; stroke-width: 1.5;" width="200" x="1159" y="180"/><ellipse cx="1201.9" cy="196" fill="#ADD1B2" rx="11" ry="11" style="stroke: #A80036; stroke-width: 1.0;"/><path d="M1204.3731,202.1431 Q1203.7921,202.4419 1203.1529,202.5913 Q1202.5138,202.7407 1201.8082,202.7407 Q1199.3014,202.7407 1197.9815,201.0889 Q1196.6617,199.437 1196.6617,196.3159 Q1196.6617,193.1865 1197.9815,191.5347 Q1199.3014,189.8828 1201.8082,189.8828 Q1202.5138,189.8828 1203.1612,190.0322 Q1203.8087,190.1816 1204.3731,190.4805 L1204.3731,193.2031 Q1203.7423,192.6221 1203.1488,192.3523 Q1202.5553,192.0825 1201.9244,192.0825 Q1200.5797,192.0825 1199.8949,193.1492 Q1199.2101,194.2158 1199.2101,196.3159 Q1199.2101,198.4077 1199.8949,199.4744 Q1200.5797,200.541 1201.9244,200.541 Q1202.5553,200.541 1203.1488,200.2712 Q1203.7423,200.0015 1204.3731,199.4204 Z "/><text fill="#000000" font-family="sans-serif" font-size="12" lengthAdjust="spacingAndGlyphs" textLength="106" x="1222.1" y="200.5352">PathTextReadable</text><line style="stroke: #A80036; stroke-width: 1.5;" x1="1160" x2="1358" y1="212" y2="212"/><line style="stroke: #A80036; stroke-width: 1.5;" x1="1160" x2="1358" y1="220" y2="220"/><ellipse cx="1170" cy="231" fill="#84BE84" rx="3" ry="3" style="stroke: #038048; stroke-width: 1.0;"/><text fill="#000000" font-family="sans-serif" font-size="11" lengthAdjust="spacingAndGlyphs" textLength="126" x="1179" y="234.6348">PathTextReadable(Path)</text><ellipse cx="1170" cy="243.9551" fill="#84BE84" rx="3" ry="3" style="stroke: #038048; stroke-width: 1.0;"/><text fill="#000000" font-family="sans-serif" font-size="11" lengthAdjust="spacingAndGlyphs" textLength="174" x="1179" y="247.5898">PathTextReadable(Path, Charset)</text><ellipse cx="1170" cy="256.9102" fill="#84BE84" rx="3" ry="3" style="stroke: #038048; stroke-width: 1.0;"/><text fill="#000000" font-family="sans-serif" font-size="11" lengthAdjust="spacingAndGlyphs" textLength="115" x="1179" y="260.5449">openReader(): Reader</text></a><!--MD5=[c9ea6d4d23cc3075981e280ca2be5151]
class it.tidalwave.role.io.spi.FileBinaryWritable--><a href="FileBinaryWritable.html" target="_top" title="FileBinaryWritable.html" xlink:actuate="onRequest" xlink:href="FileBinaryWritable.html" xlink:show="new" xlink:title="FileBinaryWritable.html" xlink:type="simple"><rect codeLine="9" fill="#FEFECE" filter="url(#fychf37vvvu97)" height="67.2207" id="it.tidalwave.role.io.spi.FileBinaryWritable" style="stroke: #A80036; stroke-width: 1.5;" width="179" x="1666.5" y="190"/><ellipse cx="1702.2" cy="209.1328" fill="#ADD1B2" rx="11" ry="11" style="stroke: #A80036; stroke-width: 1.0;"/><path d="M1704.6731,215.2759 Q1704.0921,215.5747 1703.4529,215.7241 Q1702.8138,215.8735 1702.1082,215.8735 Q1699.6014,215.8735 1698.2815,214.2217 Q1696.9617,212.5698 1696.9617,209.4487 Q1696.9617,206.3193 1698.2815,204.6675 Q1699.6014,203.0156 1702.1082,203.0156 Q1702.8138,203.0156 1703.4612,203.165 Q1704.1087,203.3145 1704.6731,203.6133 L1704.6731,206.3359 Q1704.0423,205.7549 1703.4488,205.4851 Q1702.8553,205.2153 1702.2244,205.2153 Q1700.8797,205.2153 1700.1949,206.282 Q1699.5101,207.3486 1699.5101,209.4487 Q1699.5101,211.5405 1700.1949,212.6072 Q1700.8797,213.6738 1702.2244,213.6738 Q1702.8553,213.6738 1703.4488,213.4041 Q1704.0423,213.1343 1704.6731,212.5532 Z "/><text fill="#000000" font-family="sans-serif" font-size="12" font-style="italic" lengthAdjust="spacingAndGlyphs" textLength="79" x="1731.8" y="206.6016">«deprecated»</text><text fill="#000000" font-family="sans-serif" font-size="12" lengthAdjust="spacingAndGlyphs" textLength="101" x="1720.8" y="220.7344">FileBinaryWritable</text><line style="stroke: #A80036; stroke-width: 1.5;" x1="1667.5" x2="1844.5" y1="228.2656" y2="228.2656"/><line style="stroke: #A80036; stroke-width: 1.5;" x1="1667.5" x2="1844.5" y1="236.2656" y2="236.2656"/><ellipse cx="1677.5" cy="247.2656" fill="#84BE84" rx="3" ry="3" style="stroke: #038048; stroke-width: 1.0;"/><text fill="#000000" font-family="sans-serif" font-size="11" lengthAdjust="spacingAndGlyphs" textLength="153" x="1686.5" y="250.9004">openStream(): OutputStream</text></a><!--MD5=[e4111fc71140aecc9c3bcf95285f773b]
class it.tidalwave.role.io.spi.PathBinaryWritable--><a href="PathBinaryWritable.html" target="_top" title="PathBinaryWritable.html" xlink:actuate="onRequest" xlink:href="PathBinaryWritable.html" xlink:show="new" xlink:title="PathBinaryWritable.html" xlink:type="simple"><rect codeLine="13" fill="#FEFECE" filter="url(#fychf37vvvu97)" height="73.9102" id="it.tidalwave.role.io.spi.PathBinaryWritable" style="stroke: #A80036; stroke-width: 1.5;" width="237" x="1394.5" y="186.5"/><ellipse cx="1455.25" cy="202.5" fill="#ADD1B2" rx="11" ry="11" style="stroke: #A80036; stroke-width: 1.0;"/><path d="M1457.7231,208.6431 Q1457.1421,208.9419 1456.5029,209.0913 Q1455.8638,209.2407 1455.1582,209.2407 Q1452.6514,209.2407 1451.3315,207.5889 Q1450.0117,205.937 1450.0117,202.8159 Q1450.0117,199.6865 1451.3315,198.0347 Q1452.6514,196.3828 1455.1582,196.3828 Q1455.8638,196.3828 1456.5112,196.5322 Q1457.1587,196.6816 1457.7231,196.9805 L1457.7231,199.7031 Q1457.0923,199.1221 1456.4988,198.8523 Q1455.9053,198.5825 1455.2744,198.5825 Q1453.9297,198.5825 1453.2449,199.6492 Q1452.5601,200.7158 1452.5601,202.8159 Q1452.5601,204.9077 1453.2449,205.9744 Q1453.9297,207.041 1455.2744,207.041 Q1455.9053,207.041 1456.4988,206.7712 Q1457.0923,206.5015 1457.7231,205.9204 Z "/><text fill="#000000" font-family="sans-serif" font-size="12" lengthAdjust="spacingAndGlyphs" textLength="107" x="1475.75" y="207.0352">PathBinaryWritable</text><line style="stroke: #A80036; stroke-width: 1.5;" x1="1395.5" x2="1630.5" y1="218.5" y2="218.5"/><line style="stroke: #A80036; stroke-width: 1.5;" x1="1395.5" x2="1630.5" y1="226.5" y2="226.5"/><ellipse cx="1405.5" cy="237.5" fill="#84BE84" rx="3" ry="3" style="stroke: #038048; stroke-width: 1.0;"/><text fill="#000000" font-family="sans-serif" font-size="11" lengthAdjust="spacingAndGlyphs" textLength="211" x="1414.5" y="241.1348">PathBinaryWritable(Path, OpenOption...)</text><ellipse cx="1405.5" cy="250.4551" fill="#84BE84" rx="3" ry="3" style="stroke: #038048; stroke-width: 1.0;"/><text fill="#000000" font-family="sans-serif" font-size="11" lengthAdjust="spacingAndGlyphs" textLength="153" x="1414.5" y="254.0898">openStream(): OutputStream</text></a><!--MD5=[b9d3d7c8fe7996f680debaeea4019346]
class it.tidalwave.role.io.spi.FileTextWritable--><a href="FileTextWritable.html" target="_top" title="FileTextWritable.html" xlink:actuate="onRequest" xlink:href="FileTextWritable.html" xlink:show="new" xlink:title="FileTextWritable.html" xlink:type="simple"><rect codeLine="18" fill="#FEFECE" filter="url(#fychf37vvvu97)" height="67.2207" id="it.tidalwave.role.io.spi.FileTextWritable" style="stroke: #A80036; stroke-width: 1.5;" width="131" x="504.5" y="190"/><ellipse cx="522.65" cy="209.1328" fill="#ADD1B2" rx="11" ry="11" style="stroke: #A80036; stroke-width: 1.0;"/><path d="M525.1231,215.2759 Q524.5421,215.5747 523.9029,215.7241 Q523.2638,215.8735 522.5582,215.8735 Q520.0514,215.8735 518.7315,214.2217 Q517.4117,212.5698 517.4117,209.4487 Q517.4117,206.3193 518.7315,204.6675 Q520.0514,203.0156 522.5582,203.0156 Q523.2638,203.0156 523.9112,203.165 Q524.5587,203.3145 525.1231,203.6133 L525.1231,206.3359 Q524.4923,205.7549 523.8988,205.4851 Q523.3053,205.2153 522.6744,205.2153 Q521.3297,205.2153 520.6449,206.282 Q519.9601,207.3486 519.9601,209.4487 Q519.9601,211.5405 520.6449,212.6072 Q521.3297,213.6738 522.6744,213.6738 Q523.3053,213.6738 523.8988,213.4041 Q524.4923,213.1343 525.1231,212.5532 Z "/><text fill="#000000" font-family="sans-serif" font-size="12" font-style="italic" lengthAdjust="spacingAndGlyphs" textLength="79" x="543.85" y="206.6016">«deprecated»</text><text fill="#000000" font-family="sans-serif" font-size="12" lengthAdjust="spacingAndGlyphs" textLength="92" x="537.35" y="220.7344">FileTextWritable</text><line style="stroke: #A80036; stroke-width: 1.5;" x1="505.5" x2="634.5" y1="228.2656" y2="228.2656"/><line style="stroke: #A80036; stroke-width: 1.5;" x1="505.5" x2="634.5" y1="236.2656" y2="236.2656"/><ellipse cx="515.5" cy="247.2656" fill="#84BE84" rx="3" ry="3" style="stroke: #038048; stroke-width: 1.0;"/><text fill="#000000" font-family="sans-serif" font-size="11" lengthAdjust="spacingAndGlyphs" textLength="105" x="524.5" y="250.9004">openWriter(): Writer</text></a><!--MD5=[d89805a4c83c052fe314d3dfd64620d2]
class it.tidalwave.role.io.spi.PathTextWritable--><a href="PathTextWritable.html" target="_top" title="PathTextWritable.html" xlink:actuate="onRequest" xlink:href="PathTextWritable.html" xlink:show="new" xlink:title="PathTextWritable.html" xlink:type="simple"><rect codeLine="22" fill="#FEFECE" filter="url(#fychf37vvvu97)" height="86.8652" id="it.tidalwave.role.io.spi.PathTextWritable" style="stroke: #A80036; stroke-width: 1.5;" width="276" x="671" y="180"/><ellipse cx="755.75" cy="196" fill="#ADD1B2" rx="11" ry="11" style="stroke: #A80036; stroke-width: 1.0;"/><path d="M758.2231,202.1431 Q757.6421,202.4419 757.0029,202.5913 Q756.3638,202.7407 755.6582,202.7407 Q753.1514,202.7407 751.8315,201.0889 Q750.5117,199.437 750.5117,196.3159 Q750.5117,193.1865 751.8315,191.5347 Q753.1514,189.8828 755.6582,189.8828 Q756.3638,189.8828 757.0112,190.0322 Q757.6587,190.1816 758.2231,190.4805 L758.2231,193.2031 Q757.5923,192.6221 756.9988,192.3523 Q756.4053,192.0825 755.7744,192.0825 Q754.4297,192.0825 753.7449,193.1492 Q753.0601,194.2158 753.0601,196.3159 Q753.0601,198.4077 753.7449,199.4744 Q754.4297,200.541 755.7744,200.541 Q756.4053,200.541 756.9988,200.2712 Q757.5923,200.0015 758.2231,199.4204 Z "/><text fill="#000000" font-family="sans-serif" font-size="12" lengthAdjust="spacingAndGlyphs" textLength="98" x="776.25" y="200.5352">PathTextWritable</text><line style="stroke: #A80036; stroke-width: 1.5;" x1="672" x2="946" y1="212" y2="212"/><line style="stroke: #A80036; stroke-width: 1.5;" x1="672" x2="946" y1="220" y2="220"/><ellipse cx="682" cy="231" fill="#84BE84" rx="3" ry="3" style="stroke: #038048; stroke-width: 1.0;"/><text fill="#000000" font-family="sans-serif" font-size="11" lengthAdjust="spacingAndGlyphs" textLength="121" x="691" y="234.6348">PathTextWritable(Path)</text><ellipse cx="682" cy="243.9551" fill="#84BE84" rx="3" ry="3" style="stroke: #038048; stroke-width: 1.0;"/><text fill="#000000" font-family="sans-serif" font-size="11" lengthAdjust="spacingAndGlyphs" textLength="250" x="691" y="247.5898">PathTextWritable(Path, Charset, OpenOption...)</text><ellipse cx="682" cy="256.9102" fill="#84BE84" rx="3" ry="3" style="stroke: #038048; stroke-width: 1.0;"/><text fill="#000000" font-family="sans-serif" font-size="11" lengthAdjust="spacingAndGlyphs" textLength="105" x="691" y="260.5449">openWriter(): Writer</text></a><!--MD5=[cd5777d2c9d7d64d03772b2f12773974]
class it.tidalwave.role.io.spi.FileBinaryReadable--><a href="FileBinaryReadable.html" target="_top" title="FileBinaryReadable.html" xlink:actuate="onRequest" xlink:href="FileBinaryReadable.html" xlink:show="new" xlink:title="FileBinaryReadable.html" xlink:type="simple"><rect codeLine="28" fill="#FEFECE" filter="url(#fychf37vvvu97)" height="67.2207" id="it.tidalwave.role.io.spi.FileBinaryReadable" style="stroke: #A80036; stroke-width: 1.5;" width="169" x="23.5" y="190"/><ellipse cx="51.1" cy="209.1328" fill="#ADD1B2" rx="11" ry="11" style="stroke: #A80036; stroke-width: 1.0;"/><path d="M53.5731,215.2759 Q52.9921,215.5747 52.3529,215.7241 Q51.7138,215.8735 51.0082,215.8735 Q48.5014,215.8735 47.1815,214.2217 Q45.8617,212.5698 45.8617,209.4487 Q45.8617,206.3193 47.1815,204.6675 Q48.5014,203.0156 51.0082,203.0156 Q51.7138,203.0156 52.3612,203.165 Q53.0087,203.3145 53.5731,203.6133 L53.5731,206.3359 Q52.9423,205.7549 52.3488,205.4851 Q51.7553,205.2153 51.1244,205.2153 Q49.7797,205.2153 49.0949,206.282 Q48.4101,207.3486 48.4101,209.4487 Q48.4101,211.5405 49.0949,212.6072 Q49.7797,213.6738 51.1244,213.6738 Q51.7553,213.6738 52.3488,213.4041 Q52.9423,213.1343 53.5731,212.5532 Z "/><text fill="#000000" font-family="sans-serif" font-size="12" font-style="italic" lengthAdjust="spacingAndGlyphs" textLength="79" x="82.9" y="206.6016">«deprecated»</text><text fill="#000000" font-family="sans-serif" font-size="12" lengthAdjust="spacingAndGlyphs" textLength="109" x="67.9" y="220.7344">FileBinaryReadable</text><line style="stroke: #A80036; stroke-width: 1.5;" x1="24.5" x2="191.5" y1="228.2656" y2="228.2656"/><line style="stroke: #A80036; stroke-width: 1.5;" x1="24.5" x2="191.5" y1="236.2656" y2="236.2656"/><ellipse cx="34.5" cy="247.2656" fill="#84BE84" rx="3" ry="3" style="stroke: #038048; stroke-width: 1.0;"/><text fill="#000000" font-family="sans-serif" font-size="11" lengthAdjust="spacingAndGlyphs" textLength="143" x="43.5" y="250.9004">openStream(): InputStream</text></a><!--MD5=[f50c7468d08cc602d103ed6d45e93ee0]
class it.tidalwave.role.io.spi.FileTextReadable--><a href="FileTextReadable.html" target="_top" title="FileTextReadable.html" xlink:actuate="onRequest" xlink:href="FileTextReadable.html" xlink:show="new" xlink:title="FileTextReadable.html" xlink:type="simple"><rect codeLine="32" fill="#FEFECE" filter="url(#fychf37vvvu97)" height="67.2207" id="it.tidalwave.role.io.spi.FileTextReadable" style="stroke: #A80036; stroke-width: 1.5;" width="141" x="982.5" y="190"/><ellipse cx="1001.55" cy="209.1328" fill="#ADD1B2" rx="11" ry="11" style="stroke: #A80036; stroke-width: 1.0;"/><path d="M1004.0231,215.2759 Q1003.4421,215.5747 1002.8029,215.7241 Q1002.1638,215.8735 1001.4582,215.8735 Q998.9514,215.8735 997.6315,214.2217 Q996.3117,212.5698 996.3117,209.4487 Q996.3117,206.3193 997.6315,204.6675 Q998.9514,203.0156 1001.4582,203.0156 Q1002.1638,203.0156 1002.8112,203.165 Q1003.4587,203.3145 1004.0231,203.6133 L1004.0231,206.3359 Q1003.3923,205.7549 1002.7988,205.4851 Q1002.2053,205.2153 1001.5744,205.2153 Q1000.2297,205.2153 999.5449,206.282 Q998.8601,207.3486 998.8601,209.4487 Q998.8601,211.5405 999.5449,212.6072 Q1000.2297,213.6738 1001.5744,213.6738 Q1002.2053,213.6738 1002.7988,213.4041 Q1003.3923,213.1343 1004.0231,212.5532 Z "/><text fill="#000000" font-family="sans-serif" font-size="12" font-style="italic" lengthAdjust="spacingAndGlyphs" textLength="79" x="1026.95" y="206.6016">«deprecated»</text><text fill="#000000" font-family="sans-serif" font-size="12" lengthAdjust="spacingAndGlyphs" textLength="100" x="1016.45" y="220.7344">FileTextReadable</text><line style="stroke: #A80036; stroke-width: 1.5;" x1="983.5" x2="1122.5" y1="228.2656" y2="228.2656"/><line style="stroke: #A80036; stroke-width: 1.5;" x1="983.5" x2="1122.5" y1="236.2656" y2="236.2656"/><ellipse cx="993.5" cy="247.2656" fill="#84BE84" rx="3" ry="3" style="stroke: #038048; stroke-width: 1.0;"/><text fill="#000000" font-family="sans-serif" font-size="11" lengthAdjust="spacingAndGlyphs" textLength="115" x="1002.5" y="250.9004">openReader(): Reader</text></a><!--MD5=[a8117865731c8fd1d2f59289dec388a0]
class it.tidalwave.role.io.spi.PathBinaryReadable--><a href="PathBinaryReadable.html" target="_top" title="PathBinaryReadable.html" xlink:actuate="onRequest" xlink:href="PathBinaryReadable.html" xlink:show="new" xlink:title="PathBinaryReadable.html" xlink:type="simple"><rect codeLine="36" fill="#FEFECE" filter="url(#fychf37vvvu97)" height="73.9102" id="it.tidalwave.role.io.spi.PathBinaryReadable" style="stroke: #A80036; stroke-width: 1.5;" width="242" x="227" y="186.5"/><ellipse cx="286.25" cy="202.5" fill="#ADD1B2" rx="11" ry="11" style="stroke: #A80036; stroke-width: 1.0;"/><path d="M288.7231,208.6431 Q288.1421,208.9419 287.5029,209.0913 Q286.8638,209.2407 286.1582,209.2407 Q283.6514,209.2407 282.3315,207.5889 Q281.0117,205.937 281.0117,202.8159 Q281.0117,199.6865 282.3315,198.0347 Q283.6514,196.3828 286.1582,196.3828 Q286.8638,196.3828 287.5112,196.5322 Q288.1587,196.6816 288.7231,196.9805 L288.7231,199.7031 Q288.0923,199.1221 287.4988,198.8523 Q286.9053,198.5825 286.2744,198.5825 Q284.9297,198.5825 284.2449,199.6492 Q283.5601,200.7158 283.5601,202.8159 Q283.5601,204.9077 284.2449,205.9744 Q284.9297,207.041 286.2744,207.041 Q286.9053,207.041 287.4988,206.7712 Q288.0923,206.5015 288.7231,205.9204 Z "/><text fill="#000000" font-family="sans-serif" font-size="12" lengthAdjust="spacingAndGlyphs" textLength="115" x="306.75" y="207.0352">PathBinaryReadable</text><line style="stroke: #A80036; stroke-width: 1.5;" x1="228" x2="468" y1="218.5" y2="218.5"/><line style="stroke: #A80036; stroke-width: 1.5;" x1="228" x2="468" y1="226.5" y2="226.5"/><ellipse cx="238" cy="237.5" fill="#84BE84" rx="3" ry="3" style="stroke: #038048; stroke-width: 1.0;"/><text fill="#000000" font-family="sans-serif" font-size="11" lengthAdjust="spacingAndGlyphs" textLength="216" x="247" y="241.1348">PathBinaryReadable(Path, OpenOption...)</text><ellipse cx="238" cy="250.4551" fill="#84BE84" rx="3" ry="3" style="stroke: #038048; stroke-width: 1.0;"/><text fill="#000000" font-family="sans-serif" font-size="11" lengthAdjust="spacingAndGlyphs" textLength="143" x="247" y="254.0898">openStream(): InputStream</text></a><!--MD5=[0e5e728ae99ecbb96a97ddc8125ef291]
class it.tidalwave.role.io.TextReadable--><a href="../TextReadable.html" target="_top" title="../TextReadable.html" xlink:actuate="onRequest" xlink:href="../TextReadable.html" xlink:show="new" xlink:title="../TextReadable.html" xlink:type="simple"><rect codeLine="52" fill="#FEFECE" filter="url(#fychf37vvvu97)" height="86.8652" id="it.tidalwave.role.io.TextReadable" style="stroke: #A80036; stroke-width: 1.5;" width="235" x="945.5" y="33"/><ellipse cx="1018.25" cy="49" fill="#B4A7E5" rx="11" ry="11" style="stroke: #A80036; stroke-width: 1.0;"/><path d="M1014.6777,45.2651 L1014.6777,43.1069 L1022.0571,43.1069 L1022.0571,45.2651 L1019.5918,45.2651 L1019.5918,53.3418 L1022.0571,53.3418 L1022.0571,55.5 L1014.6777,55.5 L1014.6777,53.3418 L1017.1431,53.3418 L1017.1431,45.2651 Z "/><text fill="#000000" font-family="sans-serif" font-size="12" font-style="italic" lengthAdjust="spacingAndGlyphs" textLength="81" x="1038.75" y="53.5352">TextReadable</text><line style="stroke: #A80036; stroke-width: 1.5;" x1="946.5" x2="1179.5" y1="65" y2="65"/><ellipse cx="956.5" cy="76" fill="none" rx="3" ry="3" style="stroke: #038048; stroke-width: 1.0;"/><text fill="#000000" font-family="sans-serif" font-size="11" lengthAdjust="spacingAndGlyphs" text-decoration="underline" textLength="209" x="965.5" y="79.6348">_TextReadable_: Class&lt;TextReadable&gt;</text><ellipse cx="956.5" cy="88.9551" fill="none" rx="3" ry="3" style="stroke: #038048; stroke-width: 1.0;"/><text fill="#000000" font-family="sans-serif" font-size="11" lengthAdjust="spacingAndGlyphs" text-decoration="underline" textLength="127" x="965.5" y="92.5898">DEFAULT: TextReadable</text><line style="stroke: #A80036; stroke-width: 1.5;" x1="946.5" x2="1179.5" y1="98.9102" y2="98.9102"/><ellipse cx="956.5" cy="109.9102" fill="#84BE84" rx="3" ry="3" style="stroke: #038048; stroke-width: 1.0;"/><text fill="#000000" font-family="sans-serif" font-size="11" font-style="italic" lengthAdjust="spacingAndGlyphs" textLength="115" x="965.5" y="113.5449">openReader(): Reader</text></a><!--MD5=[020cd9ae4c403ec9331e5e76009ca2a8]
class it.tidalwave.role.io.BinaryWritable--><a href="../BinaryWritable.html" target="_top" title="../BinaryWritable.html" xlink:actuate="onRequest" xlink:href="../BinaryWritable.html" xlink:show="new" xlink:title="../BinaryWritable.html" xlink:type="simple"><rect codeLine="57" fill="#FEFECE" filter="url(#fychf37vvvu97)" height="86.8652" id="it.tidalwave.role.io.BinaryWritable" style="stroke: #A80036; stroke-width: 1.5;" width="243" x="1215.5" y="33"/><ellipse cx="1291.75" cy="49" fill="#B4A7E5" rx="11" ry="11" style="stroke: #A80036; stroke-width: 1.0;"/><path d="M1288.1777,45.2651 L1288.1777,43.1069 L1295.5571,43.1069 L1295.5571,45.2651 L1293.0918,45.2651 L1293.0918,53.3418 L1295.5571,53.3418 L1295.5571,55.5 L1288.1777,55.5 L1288.1777,53.3418 L1290.6431,53.3418 L1290.6431,45.2651 Z "/><text fill="#000000" font-family="sans-serif" font-size="12" font-style="italic" lengthAdjust="spacingAndGlyphs" textLength="82" x="1312.25" y="53.5352">BinaryWritable</text><line style="stroke: #A80036; stroke-width: 1.5;" x1="1216.5" x2="1457.5" y1="65" y2="65"/><ellipse cx="1226.5" cy="76" fill="none" rx="3" ry="3" style="stroke: #038048; stroke-width: 1.0;"/><text fill="#000000" font-family="sans-serif" font-size="11" lengthAdjust="spacingAndGlyphs" text-decoration="underline" textLength="217" x="1235.5" y="79.6348">_BinaryWritable_: Class&lt;BinaryWritable&gt;</text><ellipse cx="1226.5" cy="88.9551" fill="none" rx="3" ry="3" style="stroke: #038048; stroke-width: 1.0;"/><text fill="#000000" font-family="sans-serif" font-size="11" lengthAdjust="spacingAndGlyphs" text-decoration="underline" textLength="131" x="1235.5" y="92.5898">DEFAULT: BinaryWritable</text><line style="stroke: #A80036; stroke-width: 1.5;" x1="1216.5" x2="1457.5" y1="98.9102" y2="98.9102"/><ellipse cx="1226.5" cy="109.9102" fill="#84BE84" rx="3" ry="3" style="stroke: #038048; stroke-width: 1.0;"/><text fill="#000000" font-family="sans-serif" font-size="11" font-style="italic" lengthAdjust="spacingAndGlyphs" textLength="153" x="1235.5" y="113.5449">openStream(): OutputStream</text></a><!--MD5=[655d2c25539f643bdbdf98b39fed2e00]
class it.tidalwave.role.io.TextWritable--><a href="../TextWritable.html" target="_top" title="../TextWritable.html" xlink:actuate="onRequest" xlink:href="../TextWritable.html" xlink:show="new" xlink:title="../TextWritable.html" xlink:type="simple"><rect codeLine="62" fill="#FEFECE" filter="url(#fychf37vvvu97)" height="86.8652" id="it.tidalwave.role.io.TextWritable" style="stroke: #A80036; stroke-width: 1.5;" width="225" x="685.5" y="33"/><ellipse cx="757.25" cy="49" fill="#B4A7E5" rx="11" ry="11" style="stroke: #A80036; stroke-width: 1.0;"/><path d="M753.6777,45.2651 L753.6777,43.1069 L761.0571,43.1069 L761.0571,45.2651 L758.5918,45.2651 L758.5918,53.3418 L761.0571,53.3418 L761.0571,55.5 L753.6777,55.5 L753.6777,53.3418 L756.1431,53.3418 L756.1431,45.2651 Z "/><text fill="#000000" font-family="sans-serif" font-size="12" font-style="italic" lengthAdjust="spacingAndGlyphs" textLength="73" x="777.75" y="53.5352">TextWritable</text><line style="stroke: #A80036; stroke-width: 1.5;" x1="686.5" x2="909.5" y1="65" y2="65"/><ellipse cx="696.5" cy="76" fill="none" rx="3" ry="3" style="stroke: #038048; stroke-width: 1.0;"/><text fill="#000000" font-family="sans-serif" font-size="11" lengthAdjust="spacingAndGlyphs" text-decoration="underline" textLength="199" x="705.5" y="79.6348">_TextWritable_: Class&lt;TextWritable&gt;</text><ellipse cx="696.5" cy="88.9551" fill="none" rx="3" ry="3" style="stroke: #038048; stroke-width: 1.0;"/><text fill="#000000" font-family="sans-serif" font-size="11" lengthAdjust="spacingAndGlyphs" text-decoration="underline" textLength="122" x="705.5" y="92.5898">DEFAULT: TextWritable</text><line style="stroke: #A80036; stroke-width: 1.5;" x1="686.5" x2="909.5" y1="98.9102" y2="98.9102"/><ellipse cx="696.5" cy="109.9102" fill="#84BE84" rx="3" ry="3" style="stroke: #038048; stroke-width: 1.0;"/><text fill="#000000" font-family="sans-serif" font-size="11" font-style="italic" lengthAdjust="spacingAndGlyphs" textLength="105" x="705.5" y="113.5449">openWriter(): Writer</text></a><!--MD5=[01447793620d16fc257dd6b841f56ccc]
class it.tidalwave.role.io.BinaryReadable--><a href="../BinaryReadable.html" target="_top" title="../BinaryReadable.html" xlink:actuate="onRequest" xlink:href="../BinaryReadable.html" xlink:show="new" xlink:title="../BinaryReadable.html" xlink:type="simple"><rect codeLine="67" fill="#FEFECE" filter="url(#fychf37vvvu97)" height="86.8652" id="it.tidalwave.role.io.BinaryReadable" style="stroke: #A80036; stroke-width: 1.5;" width="253" x="397.5" y="33"/><ellipse cx="474.75" cy="49" fill="#B4A7E5" rx="11" ry="11" style="stroke: #A80036; stroke-width: 1.0;"/><path d="M471.1777,45.2651 L471.1777,43.1069 L478.5571,43.1069 L478.5571,45.2651 L476.0918,45.2651 L476.0918,53.3418 L478.5571,53.3418 L478.5571,55.5 L471.1777,55.5 L471.1777,53.3418 L473.6431,53.3418 L473.6431,45.2651 Z "/><text fill="#000000" font-family="sans-serif" font-size="12" font-style="italic" lengthAdjust="spacingAndGlyphs" textLength="90" x="495.25" y="53.5352">BinaryReadable</text><line style="stroke: #A80036; stroke-width: 1.5;" x1="398.5" x2="649.5" y1="65" y2="65"/><ellipse cx="408.5" cy="76" fill="none" rx="3" ry="3" style="stroke: #038048; stroke-width: 1.0;"/><text fill="#000000" font-family="sans-serif" font-size="11" lengthAdjust="spacingAndGlyphs" text-decoration="underline" textLength="227" x="417.5" y="79.6348">_BinaryReadable_: Class&lt;BinaryReadable&gt;</text><ellipse cx="408.5" cy="88.9551" fill="none" rx="3" ry="3" style="stroke: #038048; stroke-width: 1.0;"/><text fill="#000000" font-family="sans-serif" font-size="11" lengthAdjust="spacingAndGlyphs" text-decoration="underline" textLength="136" x="417.5" y="92.5898">DEFAULT: BinaryReadable</text><line style="stroke: #A80036; stroke-width: 1.5;" x1="398.5" x2="649.5" y1="98.9102" y2="98.9102"/><ellipse cx="408.5" cy="109.9102" fill="#84BE84" rx="3" ry="3" style="stroke: #038048; stroke-width: 1.0;"/><text fill="#000000" font-family="sans-serif" font-size="11" font-style="italic" lengthAdjust="spacingAndGlyphs" textLength="143" x="417.5" y="113.5449">openStream(): InputStream</text></a><!--MD5=[e1ae905890a91eeae3fb62a67bddab0c]
reverse link it.tidalwave.role.io.TextReadable to it.tidalwave.role.io.spi.PathTextReadable--><path codeLine="41" d="M1137.1167,132.0875 C1158.1848,147.8886 1180.8212,164.8659 1200.7992,179.8494 " fill="none" id="it.tidalwave.role.io.TextReadable-backto-it.tidalwave.role.io.spi.PathTextReadable" style="stroke: #A80036; stroke-width: 1.0; stroke-dasharray: 7.0,7.0;"/><polygon fill="none" points="1132.8109,137.6082,1121.0109,120.0082,1141.211,126.4082,1132.8109,137.6082" style="stroke: #A80036; stroke-width: 1.0;"/><!--MD5=[c7f4cc508f732d70a8c14927649ccbc7]
reverse link it.tidalwave.role.io.BinaryWritable to it.tidalwave.role.io.spi.FileBinaryWritable--><path codeLine="42" d="M1478.4294,100.4677 C1533.0871,112.467 1595.2813,129.555 1649,153 C1671.1219,162.6549 1693.7125,176.7897 1712.4007,189.8727 " fill="none" id="it.tidalwave.role.io.BinaryWritable-backto-it.tidalwave.role.io.spi.FileBinaryWritable" style="stroke: #A80036; stroke-width: 1.0; stroke-dasharray: 7.0,7.0;"/><polygon fill="none" points="1476.775,107.2726,1458.6629,96.2748,1479.6802,93.5774,1476.775,107.2726" style="stroke: #A80036; stroke-width: 1.0;"/><!--MD5=[d396f12d2f80eabab93184221bb011d6]
reverse link it.tidalwave.role.io.BinaryWritable to it.tidalwave.role.io.spi.PathBinaryWritable--><path codeLine="43" d="M1404.8859,133.2001 C1426.2574,151.0502 1449.3013,170.2971 1468.6011,186.4168 " fill="none" id="it.tidalwave.role.io.BinaryWritable-backto-it.tidalwave.role.io.spi.PathBinaryWritable" style="stroke: #A80036; stroke-width: 1.0; stroke-dasharray: 7.0,7.0;"/><polygon fill="none" points="1400.1921,138.4003,1389.3293,120.2068,1409.1667,127.6552,1400.1921,138.4003" style="stroke: #A80036; stroke-width: 1.0;"/><!--MD5=[f8a0404fff9c83fae3f6feccebb1f7ed]
reverse link it.tidalwave.role.io.TextWritable to it.tidalwave.role.io.spi.FileTextWritable--><path codeLine="44" d="M690.8379,130.181 C678.1865,137.4644 665.6457,145.147 654,153 C637.7411,163.9638 620.9676,177.5177 606.7256,189.8028 " fill="none" id="it.tidalwave.role.io.TextWritable-backto-it.tidalwave.role.io.spi.FileTextWritable" style="stroke: #A80036; stroke-width: 1.0; stroke-dasharray: 7.0,7.0;"/><polygon fill="none" points="687.845,123.8344,708.7161,120.174,694.683,136.0508,687.845,123.8344" style="stroke: #A80036; stroke-width: 1.0;"/><!--MD5=[c94a8ea55b3acc11deaeb74db4bd4f5e]
reverse link it.tidalwave.role.io.TextWritable to it.tidalwave.role.io.spi.PathTextWritable--><path codeLine="45" d="M802.7914,140.5308 C803.788,153.8488 804.8161,167.5885 805.742,179.9616 " fill="none" id="it.tidalwave.role.io.TextWritable-backto-it.tidalwave.role.io.spi.PathTextWritable" style="stroke: #A80036; stroke-width: 1.0; stroke-dasharray: 7.0,7.0;"/><polygon fill="none" points="795.7826,140.6735,801.2706,120.2068,809.7436,139.6287,795.7826,140.6735" style="stroke: #A80036; stroke-width: 1.0;"/><!--MD5=[495cb2a57b00a6b1a17df9461f162cdf]
reverse link it.tidalwave.role.io.BinaryReadable to it.tidalwave.role.io.spi.FileBinaryReadable--><path codeLine="46" d="M377.5256,100.5786 C323.431,112.4475 262.5427,129.4175 210,153 C188.5933,162.6079 166.9242,176.815 149.097,189.9629 " fill="none" id="it.tidalwave.role.io.BinaryReadable-backto-it.tidalwave.role.io.spi.FileBinaryReadable" style="stroke: #A80036; stroke-width: 1.0; stroke-dasharray: 7.0,7.0;"/><polygon fill="none" points="376.104,93.7245,397.1198,96.4339,379.0014,107.4215,376.104,93.7245" style="stroke: #A80036; stroke-width: 1.0;"/><!--MD5=[878747c732d7a1a905e7e005613b092d]
reverse link it.tidalwave.role.io.TextReadable to it.tidalwave.role.io.spi.FileTextReadable--><path codeLine="47" d="M1058.6505,140.437 C1057.4888,157.5149 1056.2794,175.2934 1055.2789,189.9998 " fill="none" id="it.tidalwave.role.io.TextReadable-backto-it.tidalwave.role.io.spi.FileTextReadable" style="stroke: #A80036; stroke-width: 1.0; stroke-dasharray: 7.0,7.0;"/><polygon fill="none" points="1051.6854,139.6856,1060.0267,120.2068,1065.6531,140.6359,1051.6854,139.6856" style="stroke: #A80036; stroke-width: 1.0;"/><!--MD5=[5e27cb56b7f5453edad00bd96b51fe14]
reverse link it.tidalwave.role.io.BinaryReadable to it.tidalwave.role.io.spi.PathBinaryReadable--><path codeLine="48" d="M456.1141,133.2001 C434.7426,151.0502 411.6987,170.2971 392.3989,186.4168 " fill="none" id="it.tidalwave.role.io.BinaryReadable-backto-it.tidalwave.role.io.spi.PathBinaryReadable" style="stroke: #A80036; stroke-width: 1.0; stroke-dasharray: 7.0,7.0;"/><polygon fill="none" points="451.8333,127.6552,471.6707,120.2068,460.8079,138.4003,451.8333,127.6552" style="stroke: #A80036; stroke-width: 1.0;"/><text fill="#888888" font-family="sans-serif" font-size="10" lengthAdjust="spacingAndGlyphs" textLength="188" x="835" y="290.668">UMLDoclet 2.0.12, PlantUML 1.2020.16</text><!--MD5=[8fd92472bd0d16573e62ee8f6755bf52]
@startuml
    namespace it.tidalwave.role.io.spi {

        class PathTextReadable [[PathTextReadable.html]] {
            +PathTextReadable(Path)
            +PathTextReadable(Path, Charset)
            +openReader(): Reader
        }

        class FileBinaryWritable <<deprecated>> [[FileBinaryWritable.html]] {
            +openStream(): OutputStream
        }

        class PathBinaryWritable [[PathBinaryWritable.html]] {
            +PathBinaryWritable(Path, OpenOption...)
            +openStream(): OutputStream
        }

        class FileTextWritable <<deprecated>> [[FileTextWritable.html]] {
            +openWriter(): Writer
        }

        class PathTextWritable [[PathTextWritable.html]] {
            +PathTextWritable(Path)
            +PathTextWritable(Path, Charset, OpenOption...)
            +openWriter(): Writer
        }

        class FileBinaryReadable <<deprecated>> [[FileBinaryReadable.html]] {
            +openStream(): InputStream
        }

        class FileTextReadable <<deprecated>> [[FileTextReadable.html]] {
            +openReader(): Reader
        }

        class PathBinaryReadable [[PathBinaryReadable.html]] {
            +PathBinaryReadable(Path, OpenOption...)
            +openStream(): InputStream
        }

        it.tidalwave.role.io.TextReadable <|.. PathTextReadable
        it.tidalwave.role.io.BinaryWritable <|.. FileBinaryWritable
        it.tidalwave.role.io.BinaryWritable <|.. PathBinaryWritable
        it.tidalwave.role.io.TextWritable <|.. FileTextWritable
        it.tidalwave.role.io.TextWritable <|.. PathTextWritable
        it.tidalwave.role.io.BinaryReadable <|.. FileBinaryReadable
        it.tidalwave.role.io.TextReadable <|.. FileTextReadable
        it.tidalwave.role.io.BinaryReadable <|.. PathBinaryReadable
    }

    namespace it.tidalwave.role.io {
        interface TextReadable [[../TextReadable.html]] {
            {static} +_TextReadable_: Class<TextReadable>
            {static} +DEFAULT: TextReadable
            {abstract} +openReader(): Reader
        }
        interface BinaryWritable [[../BinaryWritable.html]] {
            {static} +_BinaryWritable_: Class<BinaryWritable>
            {static} +DEFAULT: BinaryWritable
            {abstract} +openStream(): OutputStream
        }
        interface TextWritable [[../TextWritable.html]] {
            {static} +_TextWritable_: Class<TextWritable>
            {static} +DEFAULT: TextWritable
            {abstract} +openWriter(): Writer
        }
        interface BinaryReadable [[../BinaryReadable.html]] {
            {static} +_BinaryReadable_: Class<BinaryReadable>
            {static} +DEFAULT: BinaryReadable
            {abstract} +openStream(): InputStream
        }
    }

    center footer UMLDoclet 2.0.12, PlantUML 1.2020.16
@enduml

PlantUML version 1.2020.16(Sun Aug 23 22:20:43 CEST 2020)
(APACHE source distribution)
Java Runtime: OpenJDK Runtime Environment
JVM: OpenJDK 64-Bit Server VM
Default Encoding: UTF-8
Language: en
Country: GB
--></g></svg>