<?xml version="1.0" encoding="UTF-8" standalone="no"?><svg xmlns="http://www.w3.org/2000/svg" xmlns:xlink="http://www.w3.org/1999/xlink" contentScriptType="application/ecmascript" contentStyleType="text/css" height="351px" preserveAspectRatio="none" style="width:272px;height:351px;" version="1.1" viewBox="0 0 272 351" width="272px" zoomAndPan="magnify"><defs><filter height="300%" id="f1hn98vwq6t2e1" width="300%" x="-1" y="-1"><feGaussianBlur result="blurOut" stdDeviation="2.0"/><feColorMatrix in="blurOut" result="blurOut2" type="matrix" values="0 0 0 0 0 0 0 0 0 0 0 0 0 0 0 0 0 0 .4 0"/><feOffset dx="4.0" dy="4.0" in="blurOut2" result="blurOut3"/><feBlend in="SourceGraphic" in2="blurOut3" mode="normal"/></filter></defs><g><!--MD5=[a25fc4dd852326c42cd8f77f17c81543]
class it.tidalwave.image.metadata.loader.DirectoryRawLoader--><a href="DirectoryRawLoader.html" target="_top" title="DirectoryRawLoader.html" xlink:actuate="onRequest" xlink:href="DirectoryRawLoader.html" xlink:show="new" xlink:title="DirectoryRawLoader.html" xlink:type="simple"><rect codeLine="5" fill="#FEFECE" filter="url(#f1hn98vwq6t2e1)" height="162.8613" id="it.tidalwave.image.metadata.loader.DirectoryRawLoader" style="stroke: #A80036; stroke-width: 1.5;" width="246" x="7" y="152"/><ellipse cx="40" cy="171.1328" fill="#ADD1B2" rx="11" ry="11" style="stroke: #A80036; stroke-width: 1.0;"/><path d="M42.4731,177.2759 Q41.8921,177.5747 41.2529,177.7241 Q40.6138,177.8735 39.9082,177.8735 Q37.4014,177.8735 36.0815,176.2217 Q34.7617,174.5698 34.7617,171.4487 Q34.7617,168.3193 36.0815,166.6675 Q37.4014,165.0156 39.9082,165.0156 Q40.6138,165.0156 41.2612,165.165 Q41.9087,165.3145 42.4731,165.6133 L42.4731,168.3359 Q41.8423,167.7549 41.2488,167.4851 Q40.6553,167.2153 40.0244,167.2153 Q38.6797,167.2153 37.9949,168.282 Q37.3101,169.3486 37.3101,171.4487 Q37.3101,173.5405 37.9949,174.6072 Q38.6797,175.6738 40.0244,175.6738 Q40.6553,175.6738 41.2488,175.4041 Q41.8423,175.1343 42.4731,174.5532 Z "/><text fill="#000000" font-family="sans-serif" font-size="14" lengthAdjust="spacingAndGlyphs" textLength="137" x="76.5" y="170.5352">DirectoryRawLoader</text><text fill="#000000" font-family="sans-serif" font-size="10" lengthAdjust="spacingAndGlyphs" textLength="174" x="58" y="183.1563">it.tidalwave.image.metadata.loader</text><line style="stroke: #A80036; stroke-width: 1.5;" x1="8" x2="252" y1="190.2656" y2="190.2656"/><ellipse cx="18" cy="201.2656" fill="#84BE84" rx="3" ry="3" style="stroke: #038048; stroke-width: 1.0;"/><text fill="#000000" font-family="sans-serif" font-size="11" lengthAdjust="spacingAndGlyphs" textLength="166" x="27" y="204.9004">DirectoryRawLoader(Directory)</text><ellipse cx="18" cy="214.2207" fill="#84BE84" rx="3" ry="3" style="stroke: #038048; stroke-width: 1.0;"/><text fill="#000000" font-family="sans-serif" font-size="11" lengthAdjust="spacingAndGlyphs" textLength="79" x="27" y="217.8555">getTags(): int[]</text><ellipse cx="18" cy="227.1758" fill="#84BE84" rx="3" ry="3" style="stroke: #038048; stroke-width: 1.0;"/><text fill="#000000" font-family="sans-serif" font-size="11" lengthAdjust="spacingAndGlyphs" textLength="177" x="27" y="230.8105">getSubDirectoryNames(): String[]</text><ellipse cx="18" cy="240.1309" fill="#84BE84" rx="3" ry="3" style="stroke: #038048; stroke-width: 1.0;"/><text fill="#000000" font-family="sans-serif" font-size="11" lengthAdjust="spacingAndGlyphs" textLength="220" x="27" y="243.7656">getSubDirectory(String): DirectoryLoader</text><ellipse cx="18" cy="253.0859" fill="#84BE84" rx="3" ry="3" style="stroke: #038048; stroke-width: 1.0;"/><text fill="#000000" font-family="sans-serif" font-size="11" lengthAdjust="spacingAndGlyphs" textLength="101" x="27" y="256.7207">hasNext(): boolean</text><ellipse cx="18" cy="266.041" fill="#84BE84" rx="3" ry="3" style="stroke: #038048; stroke-width: 1.0;"/><text fill="#000000" font-family="sans-serif" font-size="11" lengthAdjust="spacingAndGlyphs" textLength="125" x="27" y="269.6758">next(): DirectoryLoader</text><ellipse cx="18" cy="278.9961" fill="#84BE84" rx="3" ry="3" style="stroke: #038048; stroke-width: 1.0;"/><text fill="#000000" font-family="sans-serif" font-size="11" lengthAdjust="spacingAndGlyphs" textLength="115" x="27" y="282.6309">getObject(int): Object</text><ellipse cx="18" cy="291.9512" fill="#84BE84" rx="3" ry="3" style="stroke: #038048; stroke-width: 1.0;"/><text fill="#000000" font-family="sans-serif" font-size="11" lengthAdjust="spacingAndGlyphs" textLength="127" x="27" y="295.5859">getTagName(int): String</text><ellipse cx="18" cy="304.9063" fill="#84BE84" rx="3" ry="3" style="stroke: #038048; stroke-width: 1.0;"/><text fill="#000000" font-family="sans-serif" font-size="11" lengthAdjust="spacingAndGlyphs" textLength="137" x="27" y="308.541">containsTag(int): boolean</text></a><!--MD5=[86b5bd40bc277197f17122eb57802057]
class it.tidalwave.image.metadata.loader.DirectoryLoader--><a href="DirectoryLoader.html" target="_top" title="DirectoryLoader.html" xlink:actuate="onRequest" xlink:href="DirectoryLoader.html" xlink:show="new" xlink:title="DirectoryLoader.html" xlink:type="simple"><rect codeLine="17" fill="#FEFECE" filter="url(#f1hn98vwq6t2e1)" height="85.1309" id="it.tidalwave.image.metadata.loader.DirectoryLoader" style="stroke: #A80036; stroke-width: 1.5;" width="206" x="27" y="7"/><ellipse cx="42" cy="26.1328" fill="#B4A7E5" rx="11" ry="11" style="stroke: #A80036; stroke-width: 1.0;"/><path d="M38.4277,22.3979 L38.4277,20.2397 L45.8071,20.2397 L45.8071,22.3979 L43.3418,22.3979 L43.3418,30.4746 L45.8071,30.4746 L45.8071,32.6328 L38.4277,32.6328 L38.4277,30.4746 L40.8931,30.4746 L40.8931,22.3979 Z "/><text fill="#000000" font-family="sans-serif" font-size="14" font-style="italic" lengthAdjust="spacingAndGlyphs" textLength="109" x="88.5" y="25.5352">DirectoryLoader</text><text fill="#000000" font-family="sans-serif" font-size="10" font-style="italic" lengthAdjust="spacingAndGlyphs" textLength="174" x="56" y="38.1563">it.tidalwave.image.metadata.loader</text><line style="stroke: #A80036; stroke-width: 1.5;" x1="28" x2="232" y1="45.2656" y2="45.2656"/><ellipse cx="38" cy="56.2656" fill="#84BE84" rx="3" ry="3" style="stroke: #038048; stroke-width: 1.0;"/><text fill="#000000" font-family="sans-serif" font-size="11" font-style="italic" lengthAdjust="spacingAndGlyphs" textLength="127" x="47" y="59.9004">getTagName(int): String</text><ellipse cx="38" cy="69.2207" fill="#84BE84" rx="3" ry="3" style="stroke: #038048; stroke-width: 1.0;"/><text fill="#000000" font-family="sans-serif" font-size="11" font-style="italic" lengthAdjust="spacingAndGlyphs" textLength="137" x="47" y="72.8555">containsTag(int): boolean</text><ellipse cx="38" cy="82.1758" fill="#84BE84" rx="3" ry="3" style="stroke: #038048; stroke-width: 1.0;"/><text fill="#000000" font-family="sans-serif" font-size="11" font-style="italic" lengthAdjust="spacingAndGlyphs" textLength="115" x="47" y="85.8105">getObject(int): Object</text></a><!--MD5=[b46143a300df44f0f3751e7b9ec35576]
reverse link it.tidalwave.image.metadata.loader.DirectoryLoader to it.tidalwave.image.metadata.loader.DirectoryRawLoader--><path codeLine="23" d="M130,112.569 C130,125.262 130,138.7731 130,151.9914 " fill="none" id="it.tidalwave.image.metadata.loader.DirectoryLoader-backto-it.tidalwave.image.metadata.loader.DirectoryRawLoader" style="stroke: #A80036; stroke-width: 1.0; stroke-dasharray: 7.0,7.0;"/><polygon fill="none" points="123.0001,112.1758,130,92.1758,137.0001,112.1757,123.0001,112.1758" style="stroke: #A80036; stroke-width: 1.0;"/><text fill="#888888" font-family="sans-serif" font-size="10" lengthAdjust="spacingAndGlyphs" textLength="188" x="33" y="337.5293">UMLDoclet 2.0.12, PlantUML 1.2020.16</text><!--MD5=[334b20696990b2d4d175144a5f2e62c5]
@startuml
    set namespaceSeparator none
    hide empty fields
    hide empty methods

    class "<size:14>DirectoryRawLoader\n<size:10>it.tidalwave.image.metadata.loader" as it.tidalwave.image.metadata.loader.DirectoryRawLoader [[DirectoryRawLoader.html]] {
        +DirectoryRawLoader(Directory)
        +getTags(): int[]
        +getSubDirectoryNames(): String[]
        +getSubDirectory(String): DirectoryLoader
        +hasNext(): boolean
        +next(): DirectoryLoader
        +getObject(int): Object
        +getTagName(int): String
        +containsTag(int): boolean
    }

    interface "<size:14>DirectoryLoader\n<size:10>it.tidalwave.image.metadata.loader" as it.tidalwave.image.metadata.loader.DirectoryLoader [[DirectoryLoader.html]] {
        {abstract} +getTagName(int): String
        {abstract} +containsTag(int): boolean
        {abstract} +getObject(int): Object
    }

    it.tidalwave.image.metadata.loader.DirectoryLoader <|.. it.tidalwave.image.metadata.loader.DirectoryRawLoader

    center footer UMLDoclet 2.0.12, PlantUML 1.2020.16
@enduml

PlantUML version 1.2020.16(Sun Aug 23 22:20:43 CEST 2020)
(APACHE source distribution)
Java Runtime: OpenJDK Runtime Environment
JVM: OpenJDK 64-Bit Server VM
Default Encoding: UTF-8
Language: en
Country: GB
--></g></svg>