@startuml
    set namespaceSeparator none
    hide empty fields
    hide empty methods

    class "<size:14>PersonRegistryImpl2bTest\n<size:10>it.tidalwave.thesefoolishthings.examples.extendedfinderexample" as it.tidalwave.thesefoolishthings.examples.extendedfinderexample.PersonRegistryImpl2bTest [[PersonRegistryImpl2bTest.html]]

    class "<size:14>PersonFinderTestSupport\n<size:10>it.tidalwave.thesefoolishthings.examples.extendedfinderexample" as it.tidalwave.thesefoolishthings.examples.extendedfinderexample.PersonFinderTestSupport [[PersonFinderTestSupport.html]]

    it.tidalwave.thesefoolishthings.examples.extendedfinderexample.PersonFinderTestSupport <|-- it.tidalwave.thesefoolishthings.examples.extendedfinderexample.PersonRegistryImpl2bTest

    center footer UMLDoclet 2.0.12, PlantUML 1.2020.16
@enduml
