<?xml version="1.0" encoding="UTF-8" standalone="no"?><svg xmlns="http://www.w3.org/2000/svg" xmlns:xlink="http://www.w3.org/1999/xlink" contentScriptType="application/ecmascript" contentStyleType="text/css" height="117px" preserveAspectRatio="none" style="width:365px;height:117px;" version="1.1" viewBox="0 0 365 117" width="365px" zoomAndPan="magnify"><defs><filter height="300%" id="fm2mtodb2nbsm" width="300%" x="-1" y="-1"><feGaussianBlur result="blurOut" stdDeviation="2.0"/><feColorMatrix in="blurOut" result="blurOut2" type="matrix" values="0 0 0 0 0 0 0 0 0 0 0 0 0 0 0 0 0 0 .4 0"/><feOffset dx="4.0" dy="4.0" in="blurOut2" result="blurOut3"/><feBlend in="SourceGraphic" in2="blurOut3" mode="normal"/></filter></defs><g><!--MD5=[25d47310c451efc650cb23d973f2681c]
class it.tidalwave.thesefoolishthings.examples.dci.swing.role.TableHeaderDescriptor--><a href="TableHeaderDescriptor.html" target="_top" title="TableHeaderDescriptor.html" xlink:actuate="onRequest" xlink:href="TableHeaderDescriptor.html" xlink:show="new" xlink:title="TableHeaderDescriptor.html" xlink:type="simple"><rect codeLine="5" fill="#FEFECE" filter="url(#fm2mtodb2nbsm)" height="80.1758" id="it.tidalwave.thesefoolishthings.examples.dci.swing.role.TableHeaderDescriptor" style="stroke: #A80036; stroke-width: 1.5;" width="339" x="7" y="7"/><ellipse cx="38.65" cy="26.1328" fill="#B4A7E5" rx="11" ry="11" style="stroke: #A80036; stroke-width: 1.0;"/><path d="M35.0777,22.3979 L35.0777,20.2397 L42.4571,20.2397 L42.4571,22.3979 L39.9918,22.3979 L39.9918,30.4746 L42.4571,30.4746 L42.4571,32.6328 L35.0777,32.6328 L35.0777,30.4746 L37.5431,30.4746 L37.5431,22.3979 Z "/><text fill="#000000" font-family="sans-serif" font-size="14" font-style="italic" lengthAdjust="spacingAndGlyphs" textLength="158" x="112.35" y="25.5352">TableHeaderDescriptor</text><text fill="#000000" font-family="sans-serif" font-size="10" font-style="italic" lengthAdjust="spacingAndGlyphs" textLength="270" x="56.35" y="38.1563">it.tidalwave.thesefoolishthings.examples.dci.swing.role</text><line style="stroke: #A80036; stroke-width: 1.5;" x1="8" x2="345" y1="45.2656" y2="45.2656"/><ellipse cx="18" cy="56.2656" fill="none" rx="3" ry="3" style="stroke: #038048; stroke-width: 1.0;"/><text fill="#000000" font-family="sans-serif" font-size="11" lengthAdjust="spacingAndGlyphs" text-decoration="underline" textLength="313" x="27" y="59.9004">_TableHeaderDescriptor_: Class&lt;TableHeaderDescriptor&gt;</text><line style="stroke: #A80036; stroke-width: 1.5;" x1="8" x2="345" y1="66.2207" y2="66.2207"/><ellipse cx="18" cy="77.2207" fill="#84BE84" rx="3" ry="3" style="stroke: #038048; stroke-width: 1.0;"/><text fill="#000000" font-family="sans-serif" font-size="11" font-style="italic" lengthAdjust="spacingAndGlyphs" textLength="301" x="27" y="80.8555">getColumnDescriptors(): List&lt;TableColumnDescriptor&gt;</text></a><text fill="#888888" font-family="sans-serif" font-size="10" lengthAdjust="spacingAndGlyphs" textLength="188" x="82.5" y="103.8438">UMLDoclet 2.0.12, PlantUML 1.2020.16</text><!--MD5=[ea6a53ee37e6b2fd8b9271b996f83780]
@startuml
    set namespaceSeparator none
    hide empty fields
    hide empty methods

    interface "<size:14>TableHeaderDescriptor\n<size:10>it.tidalwave.thesefoolishthings.examples.dci.swing.role" as it.tidalwave.thesefoolishthings.examples.dci.swing.role.TableHeaderDescriptor [[TableHeaderDescriptor.html]] {
        {static} +_TableHeaderDescriptor_: Class<TableHeaderDescriptor>
        {abstract} +getColumnDescriptors(): List<TableColumnDescriptor>
    }

    center footer UMLDoclet 2.0.12, PlantUML 1.2020.16
@enduml

PlantUML version 1.2020.16(Sun Aug 23 22:20:43 CEST 2020)
(APACHE source distribution)
Java Runtime: OpenJDK Runtime Environment
JVM: OpenJDK 64-Bit Server VM
Default Encoding: UTF-8
Language: en
Country: GB
--></g></svg>