<?xml version="1.0" encoding="UTF-8" standalone="no"?><svg xmlns="http://www.w3.org/2000/svg" xmlns:xlink="http://www.w3.org/1999/xlink" contentScriptType="application/ecmascript" contentStyleType="text/css" height="438px" preserveAspectRatio="none" style="width:2052px;height:438px;" version="1.1" viewBox="0 0 2052 438" width="2052px" zoomAndPan="magnify"><defs><filter height="300%" id="f1fr4w6d1u092i" width="300%" x="-1" y="-1"><feGaussianBlur result="blurOut" stdDeviation="2.0"/><feColorMatrix in="blurOut" result="blurOut2" type="matrix" values="0 0 0 0 0 0 0 0 0 0 0 0 0 0 0 0 0 0 .4 0"/><feOffset dx="4.0" dy="4.0" in="blurOut2" result="blurOut3"/><feBlend in="SourceGraphic" in2="blurOut3" mode="normal"/></filter></defs><g><!--MD5=[efa67d065704982639da13a1c5efe8fd]
cluster it.tidalwave.northernwind.frontend.util--><polygon fill="#FFFFFF" filter="url(#f1fr4w6d1u092i)" points="16,153,298,153,305,175.4883,2030,175.4883,2030,409,16,409,16,153" style="stroke: #000000; stroke-width: 1.5;"/><line style="stroke: #000000; stroke-width: 1.5;" x1="16" x2="305" y1="175.4883" y2="175.4883"/><text fill="#000000" font-family="sans-serif" font-size="14" font-weight="bold" lengthAdjust="spacingAndGlyphs" textLength="276" x="20" y="168.5352">it.tidalwave.northernwind.frontend.util</text><!--MD5=[737c6b32201ecf86b9d7c6a8bb692317]
cluster javax.servlet.http--><polygon fill="#FFFFFF" filter="url(#f1fr4w6d1u092i)" points="116,25.5,244,25.5,251,47.9883,254,47.9883,254,108.5,116,108.5,116,25.5" style="stroke: #000000; stroke-width: 1.5;"/><line style="stroke: #000000; stroke-width: 1.5;" x1="116" x2="251" y1="47.9883" y2="47.9883"/><text fill="#000000" font-family="sans-serif" font-size="14" font-weight="bold" lengthAdjust="spacingAndGlyphs" textLength="122" x="120" y="41.0352">javax.servlet.http</text><!--MD5=[b7f519f18bfe0072d1de1e41192b22d6]
cluster javax.servlet--><polygon fill="#FFFFFF" filter="url(#f1fr4w6d1u092i)" points="413,6,508,6,515,28.4883,1073,28.4883,1073,128,413,128,413,6" style="stroke: #000000; stroke-width: 1.5;"/><line style="stroke: #000000; stroke-width: 1.5;" x1="413" x2="515" y1="28.4883" y2="28.4883"/><text fill="#000000" font-family="sans-serif" font-size="14" font-weight="bold" lengthAdjust="spacingAndGlyphs" textLength="89" x="417" y="21.5352">javax.servlet</text><!--MD5=[e6f9d434effec5c05f448853a11ddb76]
cluster org.springframework.web.context--><polygon fill="#FFFFFF" filter="url(#f1fr4w6d1u092i)" points="1748,25.5,1993,25.5,2000,47.9883,2003,47.9883,2003,108.5,1748,108.5,1748,25.5" style="stroke: #000000; stroke-width: 1.5;"/><line style="stroke: #000000; stroke-width: 1.5;" x1="1748" x2="2000" y1="47.9883" y2="47.9883"/><text fill="#000000" font-family="sans-serif" font-size="14" font-weight="bold" lengthAdjust="spacingAndGlyphs" textLength="239" x="1752" y="41.0352">org.springframework.web.context</text><!--MD5=[7f4657d594d7d7614afe0e98d1595bdb]
class it.tidalwave.northernwind.frontend.util.InitializationDiagnosticsDispatcherServletDecorator--><a href="InitializationDiagnosticsDispatcherServletDecorator.html" target="_top" title="InitializationDiagnosticsDispatcherServletDecorator.html" xlink:actuate="onRequest" xlink:href="InitializationDiagnosticsDispatcherServletDecorator.html" xlink:show="new" xlink:title="InitializationDiagnosticsDispatcherServletDecorator.html" xlink:type="simple"><rect codeLine="3" fill="#FEFECE" filter="url(#f1fr4w6d1u092i)" height="73.9102" id="it.tidalwave.northernwind.frontend.util.InitializationDiagnosticsDispatcherServletDecorator" style="stroke: #A80036; stroke-width: 1.5;" width="322" x="24" y="193"/><ellipse cx="39" cy="209" fill="#ADD1B2" rx="11" ry="11" style="stroke: #A80036; stroke-width: 1.0;"/><path d="M41.4731,215.1431 Q40.8921,215.4419 40.2529,215.5913 Q39.6138,215.7407 38.9082,215.7407 Q36.4014,215.7407 35.0815,214.0889 Q33.7617,212.437 33.7617,209.3159 Q33.7617,206.1865 35.0815,204.5347 Q36.4014,202.8828 38.9082,202.8828 Q39.6138,202.8828 40.2612,203.0322 Q40.9087,203.1816 41.4731,203.4805 L41.4731,206.2031 Q40.8423,205.6221 40.2488,205.3523 Q39.6553,205.0825 39.0244,205.0825 Q37.6797,205.0825 36.9949,206.1492 Q36.3101,207.2158 36.3101,209.3159 Q36.3101,211.4077 36.9949,212.4744 Q37.6797,213.541 39.0244,213.541 Q39.6553,213.541 40.2488,213.2712 Q40.8423,213.0015 41.4731,212.4204 Z "/><text fill="#000000" font-family="sans-serif" font-size="12" lengthAdjust="spacingAndGlyphs" textLength="290" x="53" y="213.5352">InitializationDiagnosticsDispatcherServletDecorator</text><line style="stroke: #A80036; stroke-width: 1.5;" x1="25" x2="345" y1="225" y2="225"/><line style="stroke: #A80036; stroke-width: 1.5;" x1="25" x2="345" y1="233" y2="233"/><ellipse cx="35" cy="244" fill="#84BE84" rx="3" ry="3" style="stroke: #038048; stroke-width: 1.0;"/><text fill="#000000" font-family="sans-serif" font-size="11" lengthAdjust="spacingAndGlyphs" textLength="126" x="44" y="247.6348">init(ServletConfig): void</text><polygon fill="#FFFF44" points="35,251.9551,39,255.9551,35,259.9551,31,255.9551" style="stroke: #B38D22; stroke-width: 1.0;"/><text fill="#000000" font-family="sans-serif" font-size="11" lengthAdjust="spacingAndGlyphs" textLength="294" x="44" y="260.5898">service(HttpServletRequest, HttpServletResponse): void</text></a><!--MD5=[5a12138154fdceebd71be11d4b1ab5d2]
class it.tidalwave.northernwind.frontend.util.BootLogger--><a href="BootLogger.html" target="_top" title="BootLogger.html" xlink:actuate="onRequest" xlink:href="BootLogger.html" xlink:show="new" xlink:title="BootLogger.html" xlink:type="simple"><rect codeLine="8" fill="#FEFECE" filter="url(#f1fr4w6d1u092i)" height="86.8652" id="it.tidalwave.northernwind.frontend.util.BootLogger" style="stroke: #A80036; stroke-width: 1.5;" width="152" x="1567" y="186.5"/><ellipse cx="1607.2" cy="202.5" fill="#ADD1B2" rx="11" ry="11" style="stroke: #A80036; stroke-width: 1.0;"/><path d="M1609.6731,208.6431 Q1609.0921,208.9419 1608.4529,209.0913 Q1607.8138,209.2407 1607.1082,209.2407 Q1604.6014,209.2407 1603.2815,207.5889 Q1601.9617,205.937 1601.9617,202.8159 Q1601.9617,199.6865 1603.2815,198.0347 Q1604.6014,196.3828 1607.1082,196.3828 Q1607.8138,196.3828 1608.4612,196.5322 Q1609.1087,196.6816 1609.6731,196.9805 L1609.6731,199.7031 Q1609.0423,199.1221 1608.4488,198.8523 Q1607.8553,198.5825 1607.2244,198.5825 Q1605.8797,198.5825 1605.1949,199.6492 Q1604.5101,200.7158 1604.5101,202.8159 Q1604.5101,204.9077 1605.1949,205.9744 Q1605.8797,207.041 1607.2244,207.041 Q1607.8553,207.041 1608.4488,206.7712 Q1609.0423,206.5015 1609.6731,205.9204 Z "/><text fill="#000000" font-family="sans-serif" font-size="12" lengthAdjust="spacingAndGlyphs" textLength="64" x="1626.8" y="207.0352">BootLogger</text><line style="stroke: #A80036; stroke-width: 1.5;" x1="1568" x2="1718" y1="218.5" y2="218.5"/><line style="stroke: #A80036; stroke-width: 1.5;" x1="1568" x2="1718" y1="226.5" y2="226.5"/><ellipse cx="1578" cy="237.5" fill="#84BE84" rx="3" ry="3" style="stroke: #038048; stroke-width: 1.0;"/><text fill="#000000" font-family="sans-serif" font-size="11" lengthAdjust="spacingAndGlyphs" textLength="86" x="1587" y="241.1348">log(String): void</text><ellipse cx="1578" cy="250.4551" fill="#84BE84" rx="3" ry="3" style="stroke: #038048; stroke-width: 1.0;"/><text fill="#000000" font-family="sans-serif" font-size="11" lengthAdjust="spacingAndGlyphs" textLength="110" x="1587" y="254.0898">log(Throwable): void</text><ellipse cx="1578" cy="263.4102" fill="#84BE84" rx="3" ry="3" style="stroke: #038048; stroke-width: 1.0;"/><text fill="#000000" font-family="sans-serif" font-size="11" lengthAdjust="spacingAndGlyphs" text-decoration="underline" textLength="126" x="1587" y="267.0449">getLogContent(): String</text></a><!--MD5=[5912a42a3d58ccaa9c8424d952131f99]
class it.tidalwave.northernwind.frontend.util.Slf4JJulBridgeInstallerServletContextListener--><a href="Slf4JJulBridgeInstallerServletContextListener.html" target="_top" title="Slf4JJulBridgeInstallerServletContextListener.html" xlink:actuate="onRequest" xlink:href="Slf4JJulBridgeInstallerServletContextListener.html" xlink:show="new" xlink:title="Slf4JJulBridgeInstallerServletContextListener.html" xlink:type="simple"><rect codeLine="14" fill="#FEFECE" filter="url(#f1fr4w6d1u092i)" height="73.9102" id="it.tidalwave.northernwind.frontend.util.Slf4JJulBridgeInstallerServletContextListener" style="stroke: #A80036; stroke-width: 1.5;" width="280" x="586" y="193"/><ellipse cx="601" cy="209" fill="#ADD1B2" rx="11" ry="11" style="stroke: #A80036; stroke-width: 1.0;"/><path d="M603.4731,215.1431 Q602.8921,215.4419 602.2529,215.5913 Q601.6138,215.7407 600.9082,215.7407 Q598.4014,215.7407 597.0815,214.0889 Q595.7617,212.437 595.7617,209.3159 Q595.7617,206.1865 597.0815,204.5347 Q598.4014,202.8828 600.9082,202.8828 Q601.6138,202.8828 602.2612,203.0322 Q602.9087,203.1816 603.4731,203.4805 L603.4731,206.2031 Q602.8423,205.6221 602.2488,205.3523 Q601.6553,205.0825 601.0244,205.0825 Q599.6797,205.0825 598.9949,206.1492 Q598.3101,207.2158 598.3101,209.3159 Q598.3101,211.4077 598.9949,212.4744 Q599.6797,213.541 601.0244,213.541 Q601.6553,213.541 602.2488,213.2712 Q602.8423,213.0015 603.4731,212.4204 Z "/><text fill="#000000" font-family="sans-serif" font-size="12" lengthAdjust="spacingAndGlyphs" textLength="248" x="615" y="213.5352">Slf4JJulBridgeInstallerServletContextListener</text><line style="stroke: #A80036; stroke-width: 1.5;" x1="587" x2="865" y1="225" y2="225"/><line style="stroke: #A80036; stroke-width: 1.5;" x1="587" x2="865" y1="233" y2="233"/><ellipse cx="597" cy="244" fill="#84BE84" rx="3" ry="3" style="stroke: #038048; stroke-width: 1.0;"/><text fill="#000000" font-family="sans-serif" font-size="11" lengthAdjust="spacingAndGlyphs" textLength="237" x="606" y="247.6348">contextInitialized(ServletContextEvent): void</text><ellipse cx="597" cy="256.9551" fill="#84BE84" rx="3" ry="3" style="stroke: #038048; stroke-width: 1.0;"/><text fill="#000000" font-family="sans-serif" font-size="11" lengthAdjust="spacingAndGlyphs" textLength="241" x="606" y="260.5898">contextDestroyed(ServletContextEvent): void</text></a><!--MD5=[f5b7c0ba8bcde58ff2d3bacbfcf5bddc]
class it.tidalwave.northernwind.frontend.util.NorthernWindContextLoaderListener--><a href="NorthernWindContextLoaderListener.html" target="_top" title="NorthernWindContextLoaderListener.html" xlink:actuate="onRequest" xlink:href="NorthernWindContextLoaderListener.html" xlink:show="new" xlink:title="NorthernWindContextLoaderListener.html" xlink:type="simple"><rect codeLine="19" fill="#FEFECE" filter="url(#f1fr4w6d1u092i)" height="86.8652" id="it.tidalwave.northernwind.frontend.util.NorthernWindContextLoaderListener" style="stroke: #A80036; stroke-width: 1.5;" width="267" x="1754.5" y="186.5"/><ellipse cx="1781.65" cy="202.5" fill="#ADD1B2" rx="11" ry="11" style="stroke: #A80036; stroke-width: 1.0;"/><path d="M1784.1231,208.6431 Q1783.5421,208.9419 1782.9029,209.0913 Q1782.2638,209.2407 1781.5582,209.2407 Q1779.0514,209.2407 1777.7315,207.5889 Q1776.4117,205.937 1776.4117,202.8159 Q1776.4117,199.6865 1777.7315,198.0347 Q1779.0514,196.3828 1781.5582,196.3828 Q1782.2638,196.3828 1782.9112,196.5322 Q1783.5587,196.6816 1784.1231,196.9805 L1784.1231,199.7031 Q1783.4923,199.1221 1782.8988,198.8523 Q1782.3053,198.5825 1781.6744,198.5825 Q1780.3297,198.5825 1779.6449,199.6492 Q1778.9601,200.7158 1778.9601,202.8159 Q1778.9601,204.9077 1779.6449,205.9744 Q1780.3297,207.041 1781.6744,207.041 Q1782.3053,207.041 1782.8988,206.7712 Q1783.4923,206.5015 1784.1231,205.9204 Z "/><text fill="#000000" font-family="sans-serif" font-size="12" lengthAdjust="spacingAndGlyphs" textLength="208" x="1798.35" y="207.0352">NorthernWindContextLoaderListener</text><line style="stroke: #A80036; stroke-width: 1.5;" x1="1755.5" x2="2020.5" y1="218.5" y2="218.5"/><ellipse cx="1765.5" cy="229.5" fill="none" rx="3" ry="3" style="stroke: #038048; stroke-width: 1.0;"/><text fill="#000000" font-family="sans-serif" font-size="11" lengthAdjust="spacingAndGlyphs" text-decoration="underline" textLength="206" x="1774.5" y="233.1348">ATTRIBUTE_BOOT_THROWABLE: String</text><line style="stroke: #A80036; stroke-width: 1.5;" x1="1755.5" x2="2020.5" y1="239.4551" y2="239.4551"/><ellipse cx="1765.5" cy="250.4551" fill="#84BE84" rx="3" ry="3" style="stroke: #038048; stroke-width: 1.0;"/><text fill="#000000" font-family="sans-serif" font-size="11" lengthAdjust="spacingAndGlyphs" textLength="237" x="1774.5" y="254.0898">contextInitialized(ServletContextEvent): void</text><ellipse cx="1765.5" cy="263.4102" fill="#84BE84" rx="3" ry="3" style="stroke: #038048; stroke-width: 1.0;"/><text fill="#000000" font-family="sans-serif" font-size="11" lengthAdjust="spacingAndGlyphs" textLength="241" x="1774.5" y="267.0449">contextDestroyed(ServletContextEvent): void</text></a><!--MD5=[c5be8439e18ca721cffc6edb1fee2933]
class it.tidalwave.northernwind.frontend.util.ExternalConfigurationServletContextListener--><a href="ExternalConfigurationServletContextListener.html" target="_top" title="ExternalConfigurationServletContextListener.html" xlink:actuate="onRequest" xlink:href="ExternalConfigurationServletContextListener.html" xlink:show="new" xlink:title="ExternalConfigurationServletContextListener.html" xlink:type="simple"><rect codeLine="25" fill="#FEFECE" filter="url(#f1fr4w6d1u092i)" height="99.8203" id="it.tidalwave.northernwind.frontend.util.ExternalConfigurationServletContextListener" style="stroke: #A80036; stroke-width: 1.5;" width="282" x="1250" y="180"/><ellipse cx="1265" cy="196" fill="#ADD1B2" rx="11" ry="11" style="stroke: #A80036; stroke-width: 1.0;"/><path d="M1267.4731,202.1431 Q1266.8921,202.4419 1266.2529,202.5913 Q1265.6138,202.7407 1264.9082,202.7407 Q1262.4014,202.7407 1261.0815,201.0889 Q1259.7617,199.437 1259.7617,196.3159 Q1259.7617,193.1865 1261.0815,191.5347 Q1262.4014,189.8828 1264.9082,189.8828 Q1265.6138,189.8828 1266.2612,190.0322 Q1266.9087,190.1816 1267.4731,190.4805 L1267.4731,193.2031 Q1266.8423,192.6221 1266.2488,192.3523 Q1265.6553,192.0825 1265.0244,192.0825 Q1263.6797,192.0825 1262.9949,193.1492 Q1262.3101,194.2158 1262.3101,196.3159 Q1262.3101,198.4077 1262.9949,199.4744 Q1263.6797,200.541 1265.0244,200.541 Q1265.6553,200.541 1266.2488,200.2712 Q1266.8423,200.0015 1267.4731,199.4204 Z "/><text fill="#000000" font-family="sans-serif" font-size="12" lengthAdjust="spacingAndGlyphs" textLength="250" x="1279" y="200.5352">ExternalConfigurationServletContextListener</text><line style="stroke: #A80036; stroke-width: 1.5;" x1="1251" x2="1531" y1="212" y2="212"/><line style="stroke: #A80036; stroke-width: 1.5;" x1="1251" x2="1531" y1="220" y2="220"/><ellipse cx="1261" cy="231" fill="#84BE84" rx="3" ry="3" style="stroke: #038048; stroke-width: 1.0;"/><text fill="#000000" font-family="sans-serif" font-size="11" lengthAdjust="spacingAndGlyphs" textLength="237" x="1270" y="234.6348">contextInitialized(ServletContextEvent): void</text><ellipse cx="1261" cy="243.9551" fill="#84BE84" rx="3" ry="3" style="stroke: #038048; stroke-width: 1.0;"/><text fill="#000000" font-family="sans-serif" font-size="11" lengthAdjust="spacingAndGlyphs" textLength="241" x="1270" y="247.5898">contextDestroyed(ServletContextEvent): void</text><polygon fill="#FFFF44" points="1261,251.9102,1265,255.9102,1261,259.9102,1257,255.9102" style="stroke: #B38D22; stroke-width: 1.0;"/><text fill="#000000" font-family="sans-serif" font-size="11" lengthAdjust="spacingAndGlyphs" text-decoration="underline" textLength="232" x="1270" y="260.5449">loadProperties(ServletContext, String): void</text><polygon fill="#FFFF44" points="1261,264.8652,1265,268.8652,1261,272.8652,1257,268.8652" style="stroke: #B38D22; stroke-width: 1.0;"/><text fill="#000000" font-family="sans-serif" font-size="11" lengthAdjust="spacingAndGlyphs" text-decoration="underline" textLength="116" x="1270" y="273.5">enableLogging(): void</text></a><!--MD5=[541e1b3704b1f942ecf0287d961194fa]
class it.tidalwave.northernwind.frontend.util.SystemConfigurationLoggerServletContextListener--><a href="SystemConfigurationLoggerServletContextListener.html" target="_top" title="SystemConfigurationLoggerServletContextListener.html" xlink:actuate="onRequest" xlink:href="SystemConfigurationLoggerServletContextListener.html" xlink:show="new" xlink:title="SystemConfigurationLoggerServletContextListener.html" xlink:type="simple"><rect codeLine="32" fill="#FEFECE" filter="url(#f1fr4w6d1u092i)" height="73.9102" id="it.tidalwave.northernwind.frontend.util.SystemConfigurationLoggerServletContextListener" style="stroke: #A80036; stroke-width: 1.5;" width="314" x="901" y="193"/><ellipse cx="916" cy="209" fill="#ADD1B2" rx="11" ry="11" style="stroke: #A80036; stroke-width: 1.0;"/><path d="M918.4731,215.1431 Q917.8921,215.4419 917.2529,215.5913 Q916.6138,215.7407 915.9082,215.7407 Q913.4014,215.7407 912.0815,214.0889 Q910.7617,212.437 910.7617,209.3159 Q910.7617,206.1865 912.0815,204.5347 Q913.4014,202.8828 915.9082,202.8828 Q916.6138,202.8828 917.2612,203.0322 Q917.9087,203.1816 918.4731,203.4805 L918.4731,206.2031 Q917.8423,205.6221 917.2488,205.3523 Q916.6553,205.0825 916.0244,205.0825 Q914.6797,205.0825 913.9949,206.1492 Q913.3101,207.2158 913.3101,209.3159 Q913.3101,211.4077 913.9949,212.4744 Q914.6797,213.541 916.0244,213.541 Q916.6553,213.541 917.2488,213.2712 Q917.8423,213.0015 918.4731,212.4204 Z "/><text fill="#000000" font-family="sans-serif" font-size="12" lengthAdjust="spacingAndGlyphs" textLength="282" x="930" y="213.5352">SystemConfigurationLoggerServletContextListener</text><line style="stroke: #A80036; stroke-width: 1.5;" x1="902" x2="1214" y1="225" y2="225"/><line style="stroke: #A80036; stroke-width: 1.5;" x1="902" x2="1214" y1="233" y2="233"/><ellipse cx="912" cy="244" fill="#84BE84" rx="3" ry="3" style="stroke: #038048; stroke-width: 1.0;"/><text fill="#000000" font-family="sans-serif" font-size="11" lengthAdjust="spacingAndGlyphs" textLength="237" x="921" y="247.6348">contextInitialized(ServletContextEvent): void</text><ellipse cx="912" cy="256.9551" fill="#84BE84" rx="3" ry="3" style="stroke: #038048; stroke-width: 1.0;"/><text fill="#000000" font-family="sans-serif" font-size="11" lengthAdjust="spacingAndGlyphs" textLength="241" x="921" y="260.5898">contextDestroyed(ServletContextEvent): void</text></a><!--MD5=[98a192369e8a880855719091d5f49395]
class it.tidalwave.northernwind.frontend.util.NorthernWindResponseHeaderFilter--><a href="NorthernWindResponseHeaderFilter.html" target="_top" title="NorthernWindResponseHeaderFilter.html" xlink:actuate="onRequest" xlink:href="NorthernWindResponseHeaderFilter.html" xlink:show="new" xlink:title="NorthernWindResponseHeaderFilter.html" xlink:type="simple"><rect codeLine="37" fill="#FEFECE" filter="url(#f1fr4w6d1u092i)" height="60.9551" id="it.tidalwave.northernwind.frontend.util.NorthernWindResponseHeaderFilter" style="stroke: #A80036; stroke-width: 1.5;" width="341" x="295.5" y="340"/><ellipse cx="358.75" cy="356" fill="#ADD1B2" rx="11" ry="11" style="stroke: #A80036; stroke-width: 1.0;"/><path d="M361.2231,362.1431 Q360.6421,362.4419 360.0029,362.5913 Q359.3638,362.7407 358.6582,362.7407 Q356.1514,362.7407 354.8315,361.0889 Q353.5117,359.437 353.5117,356.3159 Q353.5117,353.1865 354.8315,351.5347 Q356.1514,349.8828 358.6582,349.8828 Q359.3638,349.8828 360.0112,350.0322 Q360.6587,350.1816 361.2231,350.4805 L361.2231,353.2031 Q360.5923,352.6221 359.9988,352.3523 Q359.4053,352.0825 358.7744,352.0825 Q357.4297,352.0825 356.7449,353.1492 Q356.0601,354.2158 356.0601,356.3159 Q356.0601,358.4077 356.7449,359.4744 Q357.4297,360.541 358.7744,360.541 Q359.4053,360.541 359.9988,360.2712 Q360.5923,360.0015 361.2231,359.4204 Z "/><text fill="#000000" font-family="sans-serif" font-size="12" lengthAdjust="spacingAndGlyphs" textLength="206" x="379.25" y="360.5352">NorthernWindResponseHeaderFilter</text><line style="stroke: #A80036; stroke-width: 1.5;" x1="296.5" x2="635.5" y1="372" y2="372"/><line style="stroke: #A80036; stroke-width: 1.5;" x1="296.5" x2="635.5" y1="380" y2="380"/><ellipse cx="306.5" cy="391" fill="#84BE84" rx="3" ry="3" style="stroke: #038048; stroke-width: 1.0;"/><text fill="#000000" font-family="sans-serif" font-size="11" lengthAdjust="spacingAndGlyphs" textLength="315" x="315.5" y="394.6348">doFilter(ServletRequest, ServletResponse, FilterChain): void</text></a><!--MD5=[fd66836a393e10707faacb6cd56b15c9]
class it.tidalwave.northernwind.frontend.util.FilterSupport--><a href="FilterSupport.html" target="_top" title="FilterSupport.html" xlink:actuate="onRequest" xlink:href="FilterSupport.html" xlink:show="new" xlink:title="FilterSupport.html" xlink:type="simple"><rect codeLine="41" fill="#FEFECE" filter="url(#f1fr4w6d1u092i)" height="86.8652" id="it.tidalwave.northernwind.frontend.util.FilterSupport" style="stroke: #A80036; stroke-width: 1.5;" width="169" x="381.5" y="186.5"/><ellipse cx="425.3" cy="202.5" fill="#A9DCDF" rx="11" ry="11" style="stroke: #A80036; stroke-width: 1.0;"/><path d="M425.1633,197.8481 L424.0095,202.9199 L426.3254,202.9199 Z M423.6691,195.6069 L426.6657,195.6069 L430.0109,208 L427.5622,208 L426.7985,204.937 L423.5197,204.937 L422.7727,208 L420.3239,208 Z "/><text fill="#000000" font-family="sans-serif" font-size="12" font-style="italic" lengthAdjust="spacingAndGlyphs" textLength="73" x="445.7" y="207.0352">FilterSupport</text><line style="stroke: #A80036; stroke-width: 1.5;" x1="382.5" x2="549.5" y1="218.5" y2="218.5"/><polygon fill="none" points="392.5,224.5,396.5,228.5,392.5,232.5,388.5,228.5" style="stroke: #B38D22; stroke-width: 1.0;"/><text fill="#000000" font-family="sans-serif" font-size="11" lengthAdjust="spacingAndGlyphs" textLength="143" x="401.5" y="233.1348">bootThrowable: Throwable</text><line style="stroke: #A80036; stroke-width: 1.5;" x1="382.5" x2="549.5" y1="239.4551" y2="239.4551"/><ellipse cx="392.5" cy="250.4551" fill="#84BE84" rx="3" ry="3" style="stroke: #038048; stroke-width: 1.0;"/><text fill="#000000" font-family="sans-serif" font-size="11" lengthAdjust="spacingAndGlyphs" textLength="117" x="401.5" y="254.0898">init(FilterConfig): void</text><ellipse cx="392.5" cy="263.4102" fill="#84BE84" rx="3" ry="3" style="stroke: #038048; stroke-width: 1.0;"/><text fill="#000000" font-family="sans-serif" font-size="11" lengthAdjust="spacingAndGlyphs" textLength="78" x="401.5" y="267.0449">destroy(): void</text></a><!--MD5=[f416d4ad4711b5ddf00f6f9e1e57970b]
class javax.servlet.http.HttpServlet--><rect codeLine="57" fill="#FEFECE" filter="url(#f1fr4w6d1u092i)" height="48" id="javax.servlet.http.HttpServlet" style="stroke: #A80036; stroke-width: 1.5;" width="95" x="137.5" y="52.5"/><ellipse cx="152.5" cy="68.5" fill="#A9DCDF" rx="11" ry="11" style="stroke: #A80036; stroke-width: 1.0;"/><path d="M152.3633,63.8481 L151.2095,68.9199 L153.5254,68.9199 Z M150.8691,61.6069 L153.8657,61.6069 L157.2109,74 L154.7622,74 L153.9985,70.937 L150.7197,70.937 L149.9727,74 L147.5239,74 Z "/><text fill="#000000" font-family="sans-serif" font-size="12" font-style="italic" lengthAdjust="spacingAndGlyphs" textLength="63" x="166.5" y="73.0352">HttpServlet</text><line style="stroke: #A80036; stroke-width: 1.5;" x1="138.5" x2="231.5" y1="84.5" y2="84.5"/><line style="stroke: #A80036; stroke-width: 1.5;" x1="138.5" x2="231.5" y1="92.5" y2="92.5"/><!--MD5=[f45dfa88339300e09296feec928ee186]
class javax.servlet.ServletContextListener--><rect codeLine="62" fill="#FEFECE" filter="url(#f1fr4w6d1u092i)" height="73.9102" id="javax.servlet.ServletContextListener" style="stroke: #A80036; stroke-width: 1.5;" width="267" x="797.5" y="39.5"/><ellipse cx="863.25" cy="55.5" fill="#B4A7E5" rx="11" ry="11" style="stroke: #A80036; stroke-width: 1.0;"/><path d="M859.6777,51.7651 L859.6777,49.6069 L867.0571,49.6069 L867.0571,51.7651 L864.5918,51.7651 L864.5918,59.8418 L867.0571,59.8418 L867.0571,62 L859.6777,62 L859.6777,59.8418 L862.1431,59.8418 L862.1431,51.7651 Z "/><text fill="#000000" font-family="sans-serif" font-size="12" font-style="italic" lengthAdjust="spacingAndGlyphs" textLength="127" x="883.75" y="60.0352">ServletContextListener</text><line style="stroke: #A80036; stroke-width: 1.5;" x1="798.5" x2="1063.5" y1="71.5" y2="71.5"/><line style="stroke: #A80036; stroke-width: 1.5;" x1="798.5" x2="1063.5" y1="79.5" y2="79.5"/><ellipse cx="808.5" cy="90.5" fill="#84BE84" rx="3" ry="3" style="stroke: #038048; stroke-width: 1.0;"/><text fill="#000000" font-family="sans-serif" font-size="11" font-style="italic" lengthAdjust="spacingAndGlyphs" textLength="237" x="817.5" y="94.1348">contextInitialized(ServletContextEvent): void</text><ellipse cx="808.5" cy="103.4551" fill="#84BE84" rx="3" ry="3" style="stroke: #038048; stroke-width: 1.0;"/><text fill="#000000" font-family="sans-serif" font-size="11" font-style="italic" lengthAdjust="spacingAndGlyphs" textLength="241" x="817.5" y="107.0898">contextDestroyed(ServletContextEvent): void</text><!--MD5=[d672c91649925597ea207111a41a203e]
class javax.servlet.Filter--><rect codeLine="66" fill="#FEFECE" filter="url(#f1fr4w6d1u092i)" height="86.8652" id="javax.servlet.Filter" style="stroke: #A80036; stroke-width: 1.5;" width="341" x="421.5" y="33"/><ellipse cx="573.75" cy="49" fill="#B4A7E5" rx="11" ry="11" style="stroke: #A80036; stroke-width: 1.0;"/><path d="M570.1777,45.2651 L570.1777,43.1069 L577.5571,43.1069 L577.5571,45.2651 L575.0918,45.2651 L575.0918,53.3418 L577.5571,53.3418 L577.5571,55.5 L570.1777,55.5 L570.1777,53.3418 L572.6431,53.3418 L572.6431,45.2651 Z "/><text fill="#000000" font-family="sans-serif" font-size="12" font-style="italic" lengthAdjust="spacingAndGlyphs" textLength="28" x="594.25" y="53.5352">Filter</text><line style="stroke: #A80036; stroke-width: 1.5;" x1="422.5" x2="761.5" y1="65" y2="65"/><line style="stroke: #A80036; stroke-width: 1.5;" x1="422.5" x2="761.5" y1="73" y2="73"/><ellipse cx="432.5" cy="84" fill="#84BE84" rx="3" ry="3" style="stroke: #038048; stroke-width: 1.0;"/><text fill="#000000" font-family="sans-serif" font-size="11" font-style="italic" lengthAdjust="spacingAndGlyphs" textLength="117" x="441.5" y="87.6348">init(FilterConfig): void</text><ellipse cx="432.5" cy="96.9551" fill="#84BE84" rx="3" ry="3" style="stroke: #038048; stroke-width: 1.0;"/><text fill="#000000" font-family="sans-serif" font-size="11" font-style="italic" lengthAdjust="spacingAndGlyphs" textLength="315" x="441.5" y="100.5898">doFilter(ServletRequest, ServletResponse, FilterChain): void</text><ellipse cx="432.5" cy="109.9102" fill="#84BE84" rx="3" ry="3" style="stroke: #038048; stroke-width: 1.0;"/><text fill="#000000" font-family="sans-serif" font-size="11" font-style="italic" lengthAdjust="spacingAndGlyphs" textLength="78" x="441.5" y="113.5449">destroy(): void</text><!--MD5=[60e93ac3b9734068605f8811b982fd6a]
class org.springframework.web.context.ContextLoaderListener--><rect codeLine="74" fill="#FEFECE" filter="url(#f1fr4w6d1u092i)" height="48" id="org.springframework.web.context.ContextLoaderListener" style="stroke: #A80036; stroke-width: 1.5;" width="161" x="1807.5" y="52.5"/><ellipse cx="1822.5" cy="68.5" fill="#ADD1B2" rx="11" ry="11" style="stroke: #A80036; stroke-width: 1.0;"/><path d="M1824.9731,74.6431 Q1824.3921,74.9419 1823.7529,75.0913 Q1823.1138,75.2407 1822.4082,75.2407 Q1819.9014,75.2407 1818.5815,73.5889 Q1817.2617,71.937 1817.2617,68.8159 Q1817.2617,65.6865 1818.5815,64.0347 Q1819.9014,62.3828 1822.4082,62.3828 Q1823.1138,62.3828 1823.7612,62.5322 Q1824.4087,62.6816 1824.9731,62.9805 L1824.9731,65.7031 Q1824.3423,65.1221 1823.7488,64.8523 Q1823.1553,64.5825 1822.5244,64.5825 Q1821.1797,64.5825 1820.4949,65.6492 Q1819.8101,66.7158 1819.8101,68.8159 Q1819.8101,70.9077 1820.4949,71.9744 Q1821.1797,73.041 1822.5244,73.041 Q1823.1553,73.041 1823.7488,72.7712 Q1824.3423,72.5015 1824.9731,71.9204 Z "/><text fill="#000000" font-family="sans-serif" font-size="12" lengthAdjust="spacingAndGlyphs" textLength="129" x="1836.5" y="73.0352">ContextLoaderListener</text><line style="stroke: #A80036; stroke-width: 1.5;" x1="1808.5" x2="1967.5" y1="84.5" y2="84.5"/><line style="stroke: #A80036; stroke-width: 1.5;" x1="1808.5" x2="1967.5" y1="92.5" y2="92.5"/><!--MD5=[2a80e95edcfc03794d23e42fd68658d7]
reverse link javax.servlet.http.HttpServlet to it.tidalwave.northernwind.frontend.util.InitializationDiagnosticsDispatcherServletDecorator--><path codeLine="47" d="M185,120.9324 C185,143.7547 185,171.2414 185,192.9115 " fill="none" id="javax.servlet.http.HttpServlet-backto-it.tidalwave.northernwind.frontend.util.InitializationDiagnosticsDispatcherServletDecorator" style="stroke: #A80036; stroke-width: 1.0;"/><polygon fill="none" points="178.0001,120.8226,185,100.8225,192.0001,120.8225,178.0001,120.8226" style="stroke: #A80036; stroke-width: 1.0;"/><!--MD5=[be6f618a9d63437ad526bdbd3049b593]
reverse link javax.servlet.ServletContextListener to it.tidalwave.northernwind.frontend.util.Slf4JJulBridgeInstallerServletContextListener--><path codeLine="48" d="M865.2908,125.7018 C836.1675,147.5088 802.4752,172.7368 775.5227,192.9184 " fill="none" id="javax.servlet.ServletContextListener-backto-it.tidalwave.northernwind.frontend.util.Slf4JJulBridgeInstallerServletContextListener" style="stroke: #A80036; stroke-width: 1.0; stroke-dasharray: 7.0,7.0;"/><polygon fill="none" points="861.1702,120.0423,881.3752,113.6581,869.5615,131.2489,861.1702,120.0423" style="stroke: #A80036; stroke-width: 1.0;"/><!--MD5=[fc0bf8a4ff3e13f60ab0f0e2d08396d5]
reverse link org.springframework.web.context.ContextLoaderListener to it.tidalwave.northernwind.frontend.util.NorthernWindContextLoaderListener--><path codeLine="49" d="M1888,120.9216 C1888,141.4849 1888,165.8368 1888,186.3091 " fill="none" id="org.springframework.web.context.ContextLoaderListener-backto-it.tidalwave.northernwind.frontend.util.NorthernWindContextLoaderListener" style="stroke: #A80036; stroke-width: 1.0;"/><polygon fill="none" points="1881.0001,120.8226,1888,100.8225,1895.0001,120.8225,1881.0001,120.8226" style="stroke: #A80036; stroke-width: 1.0;"/><!--MD5=[bb64144734662d613226da2eab644917]
reverse link javax.servlet.ServletContextListener to it.tidalwave.northernwind.frontend.util.ExternalConfigurationServletContextListener--><path codeLine="50" d="M1084.3437,108.8783 C1132.5545,120.7706 1185.5676,135.6438 1233,153 C1253.9192,160.6546 1275.7555,170.2049 1296.2849,179.9473 " fill="none" id="javax.servlet.ServletContextListener-backto-it.tidalwave.northernwind.frontend.util.ExternalConfigurationServletContextListener" style="stroke: #A80036; stroke-width: 1.0; stroke-dasharray: 7.0,7.0;"/><polygon fill="none" points="1082.5125,115.6374,1064.7172,104.1339,1085.8021,102.0293,1082.5125,115.6374" style="stroke: #A80036; stroke-width: 1.0;"/><!--MD5=[47ce7168ac5960a33f5fe087e681c18c]
reverse link javax.servlet.ServletContextListener to it.tidalwave.northernwind.frontend.util.SystemConfigurationLoggerServletContextListener--><path codeLine="51" d="M974.4982,129.0746 C991.8748,150.077 1011.4769,173.7694 1027.3201,192.9184 " fill="none" id="javax.servlet.ServletContextListener-backto-it.tidalwave.northernwind.frontend.util.SystemConfigurationLoggerServletContextListener" style="stroke: #A80036; stroke-width: 1.0; stroke-dasharray: 7.0,7.0;"/><polygon fill="none" points="969.0991,133.5299,961.7432,113.6581,979.8859,124.6054,969.0991,133.5299" style="stroke: #A80036; stroke-width: 1.0;"/><!--MD5=[c208fc45b56187b3f8c476512d8d9c74]
reverse link it.tidalwave.northernwind.frontend.util.FilterSupport to it.tidalwave.northernwind.frontend.util.NorthernWindResponseHeaderFilter--><path codeLine="52" d="M466,293.8028 C466,309.7919 466,326.2302 466,339.7671 " fill="none" id="it.tidalwave.northernwind.frontend.util.FilterSupport-backto-it.tidalwave.northernwind.frontend.util.NorthernWindResponseHeaderFilter" style="stroke: #A80036; stroke-width: 1.0;"/><polygon fill="none" points="459.0001,293.6849,466,273.6849,473.0001,293.6849,459.0001,293.6849" style="stroke: #A80036; stroke-width: 1.0;"/><!--MD5=[52d2e73adfecf9b9893170945fd4fe3f]
reverse link javax.servlet.Filter to it.tidalwave.northernwind.frontend.util.FilterSupport--><path codeLine="53" d="M543.3759,135.7365 C529.5598,152.568 514.7694,170.5865 501.859,186.3147 " fill="none" id="javax.servlet.Filter-backto-it.tidalwave.northernwind.frontend.util.FilterSupport" style="stroke: #A80036; stroke-width: 1.0; stroke-dasharray: 7.0,7.0;"/><polygon fill="none" points="538.1304,131.094,556.2305,120.0763,548.9517,139.9766,538.1304,131.094" style="stroke: #A80036; stroke-width: 1.0;"/><text fill="#888888" font-family="sans-serif" font-size="10" lengthAdjust="spacingAndGlyphs" textLength="188" x="923" y="424.668">UMLDoclet 2.0.12, PlantUML 1.2020.16</text><!--MD5=[39831fd2530b61d139bd4e2656f55a3d]
@startuml
    namespace it.tidalwave.northernwind.frontend.util {

        class InitializationDiagnosticsDispatcherServletDecorator [[InitializationDiagnosticsDispatcherServletDecorator.html]] {
            +init(ServletConfig): void
            #service(HttpServletRequest, HttpServletResponse): void
        }

        class BootLogger [[BootLogger.html]] {
            +log(String): void
            +log(Throwable): void
            {static} +getLogContent(): String
        }

        class Slf4JJulBridgeInstallerServletContextListener [[Slf4JJulBridgeInstallerServletContextListener.html]] {
            +contextInitialized(ServletContextEvent): void
            +contextDestroyed(ServletContextEvent): void
        }

        class NorthernWindContextLoaderListener [[NorthernWindContextLoaderListener.html]] {
            {static} +ATTRIBUTE_BOOT_THROWABLE: String
            +contextInitialized(ServletContextEvent): void
            +contextDestroyed(ServletContextEvent): void
        }

        class ExternalConfigurationServletContextListener [[ExternalConfigurationServletContextListener.html]] {
            +contextInitialized(ServletContextEvent): void
            +contextDestroyed(ServletContextEvent): void
            {static} #loadProperties(ServletContext, String): void
            {static} #enableLogging(): void
        }

        class SystemConfigurationLoggerServletContextListener [[SystemConfigurationLoggerServletContextListener.html]] {
            +contextInitialized(ServletContextEvent): void
            +contextDestroyed(ServletContextEvent): void
        }

        class NorthernWindResponseHeaderFilter [[NorthernWindResponseHeaderFilter.html]] {
            +doFilter(ServletRequest, ServletResponse, FilterChain): void
        }

        abstract class FilterSupport [[FilterSupport.html]] {
            #bootThrowable: Throwable
            +init(FilterConfig): void
            +destroy(): void
        }

        javax.servlet.http.HttpServlet <|- - InitializationDiagnosticsDispatcherServletDecorator
        javax.servlet.ServletContextListener <|.. Slf4JJulBridgeInstallerServletContextListener
        org.springframework.web.context.ContextLoaderListener <|- - NorthernWindContextLoaderListener
        javax.servlet.ServletContextListener <|.. ExternalConfigurationServletContextListener
        javax.servlet.ServletContextListener <|.. SystemConfigurationLoggerServletContextListener
        FilterSupport <|- - NorthernWindResponseHeaderFilter
        javax.servlet.Filter <|.. FilterSupport
    }

    namespace javax.servlet.http {
        abstract class HttpServlet {
        }
    }

    namespace javax.servlet {
        interface ServletContextListener {
            {abstract} +contextInitialized(ServletContextEvent): void
            {abstract} +contextDestroyed(ServletContextEvent): void
        }
        interface Filter {
            {abstract} +init(FilterConfig): void
            {abstract} +doFilter(ServletRequest, ServletResponse, FilterChain): void
            {abstract} +destroy(): void
        }
    }

    namespace org.springframework.web.context {
        class ContextLoaderListener
    }

    center footer UMLDoclet 2.0.12, PlantUML 1.2020.16
@enduml

PlantUML version 1.2020.16(Sun Aug 23 22:20:43 CEST 2020)
(APACHE source distribution)
Java Runtime: OpenJDK Runtime Environment
JVM: OpenJDK 64-Bit Server VM
Default Encoding: UTF-8
Language: en
Country: GB
--></g></svg>