<?xml version="1.0" encoding="UTF-8" standalone="no"?><svg xmlns="http://www.w3.org/2000/svg" xmlns:xlink="http://www.w3.org/1999/xlink" contentScriptType="application/ecmascript" contentStyleType="text/css" height="247px" preserveAspectRatio="none" style="width:375px;height:247px;" version="1.1" viewBox="0 0 375 247" width="375px" zoomAndPan="magnify"><defs><filter height="300%" id="f7zonbb9eovcy" width="300%" x="-1" y="-1"><feGaussianBlur result="blurOut" stdDeviation="2.0"/><feColorMatrix in="blurOut" result="blurOut2" type="matrix" values="0 0 0 0 0 0 0 0 0 0 0 0 0 0 0 0 0 0 .4 0"/><feOffset dx="4.0" dy="4.0" in="blurOut2" result="blurOut3"/><feBlend in="SourceGraphic" in2="blurOut3" mode="normal"/></filter></defs><g><!--MD5=[f73309674bf088ab10fed7a4c059c086]
class it.tidalwave.northernwind.frontend.media.impl.DefaultMetadataLoader--><a href="DefaultMetadataLoader.html" target="_top" title="DefaultMetadataLoader.html" xlink:actuate="onRequest" xlink:href="DefaultMetadataLoader.html" xlink:show="new" xlink:title="DefaultMetadataLoader.html" xlink:type="simple"><rect codeLine="5" fill="#FEFECE" filter="url(#f7zonbb9eovcy)" height="72.1758" id="it.tidalwave.northernwind.frontend.media.impl.DefaultMetadataLoader" style="stroke: #A80036; stroke-width: 1.5;" width="349" x="7" y="139"/><ellipse cx="63.75" cy="158.1328" fill="#ADD1B2" rx="11" ry="11" style="stroke: #A80036; stroke-width: 1.0;"/><path d="M66.2231,164.2759 Q65.6421,164.5747 65.0029,164.7241 Q64.3638,164.8735 63.6582,164.8735 Q61.1514,164.8735 59.8315,163.2217 Q58.5117,161.5698 58.5117,158.4487 Q58.5117,155.3193 59.8315,153.6675 Q61.1514,152.0156 63.6582,152.0156 Q64.3638,152.0156 65.0112,152.165 Q65.6587,152.3145 66.2231,152.6133 L66.2231,155.3359 Q65.5923,154.7549 64.9988,154.4851 Q64.4053,154.2153 63.7744,154.2153 Q62.4297,154.2153 61.7449,155.282 Q61.0601,156.3486 61.0601,158.4487 Q61.0601,160.5405 61.7449,161.6072 Q62.4297,162.6738 63.7744,162.6738 Q64.4053,162.6738 64.9988,162.4041 Q65.5923,162.1343 66.2231,161.5532 Z "/><text fill="#000000" font-family="sans-serif" font-size="14" lengthAdjust="spacingAndGlyphs" textLength="159" x="118.25" y="157.5352">DefaultMetadataLoader</text><text fill="#000000" font-family="sans-serif" font-size="10" lengthAdjust="spacingAndGlyphs" textLength="227" x="84.25" y="170.1563">it.tidalwave.northernwind.frontend.media.impl</text><line style="stroke: #A80036; stroke-width: 1.5;" x1="8" x2="355" y1="177.2656" y2="177.2656"/><ellipse cx="18" cy="188.2656" fill="#84BE84" rx="3" ry="3" style="stroke: #038048; stroke-width: 1.0;"/><text fill="#000000" font-family="sans-serif" font-size="11" lengthAdjust="spacingAndGlyphs" textLength="323" x="27" y="191.9004">findMediaResourceFile(ResourceProperties, Id): ResourceFile</text><ellipse cx="18" cy="201.2207" fill="#84BE84" rx="3" ry="3" style="stroke: #038048; stroke-width: 1.0;"/><text fill="#000000" font-family="sans-serif" font-size="11" lengthAdjust="spacingAndGlyphs" textLength="201" x="27" y="204.8555">loadMetadata(ResourceFile): Metadata</text></a><!--MD5=[5b621465de181e9b5651926acc0cb1b1]
class it.tidalwave.northernwind.frontend.media.impl.MetadataLoader--><a href="MetadataLoader.html" target="_top" title="MetadataLoader.html" xlink:actuate="onRequest" xlink:href="MetadataLoader.html" xlink:show="new" xlink:title="MetadataLoader.html" xlink:type="simple"><rect codeLine="10" fill="#FEFECE" filter="url(#f7zonbb9eovcy)" height="72.1758" id="it.tidalwave.northernwind.frontend.media.impl.MetadataLoader" style="stroke: #A80036; stroke-width: 1.5;" width="349" x="7" y="7"/><ellipse cx="63.75" cy="26.1328" fill="#B4A7E5" rx="11" ry="11" style="stroke: #A80036; stroke-width: 1.0;"/><path d="M60.1777,22.3979 L60.1777,20.2397 L67.5571,20.2397 L67.5571,22.3979 L65.0918,22.3979 L65.0918,30.4746 L67.5571,30.4746 L67.5571,32.6328 L60.1777,32.6328 L60.1777,30.4746 L62.6431,30.4746 L62.6431,22.3979 Z "/><text fill="#000000" font-family="sans-serif" font-size="14" font-style="italic" lengthAdjust="spacingAndGlyphs" textLength="110" x="142.75" y="25.5352">MetadataLoader</text><text fill="#000000" font-family="sans-serif" font-size="10" font-style="italic" lengthAdjust="spacingAndGlyphs" textLength="227" x="84.25" y="38.1563">it.tidalwave.northernwind.frontend.media.impl</text><line style="stroke: #A80036; stroke-width: 1.5;" x1="8" x2="355" y1="45.2656" y2="45.2656"/><ellipse cx="18" cy="56.2656" fill="#84BE84" rx="3" ry="3" style="stroke: #038048; stroke-width: 1.0;"/><text fill="#000000" font-family="sans-serif" font-size="11" font-style="italic" lengthAdjust="spacingAndGlyphs" textLength="323" x="27" y="59.9004">findMediaResourceFile(ResourceProperties, Id): ResourceFile</text><ellipse cx="18" cy="69.2207" fill="#84BE84" rx="3" ry="3" style="stroke: #038048; stroke-width: 1.0;"/><text fill="#000000" font-family="sans-serif" font-size="11" font-style="italic" lengthAdjust="spacingAndGlyphs" textLength="201" x="27" y="72.8555">loadMetadata(ResourceFile): Metadata</text></a><!--MD5=[5aa8316fdf47d3b11fe13b6d68e05f56]
reverse link it.tidalwave.northernwind.frontend.media.impl.MetadataLoader to it.tidalwave.northernwind.frontend.media.impl.DefaultMetadataLoader--><path codeLine="15" d="M181.5,99.3792 C181.5,112.7962 181.5,126.7553 181.5,138.974 " fill="none" id="it.tidalwave.northernwind.frontend.media.impl.MetadataLoader-backto-it.tidalwave.northernwind.frontend.media.impl.DefaultMetadataLoader" style="stroke: #A80036; stroke-width: 1.0; stroke-dasharray: 7.0,7.0;"/><polygon fill="none" points="174.5001,99.0696,181.5,79.0696,188.5001,99.0695,174.5001,99.0696" style="stroke: #A80036; stroke-width: 1.0;"/><text fill="#888888" font-family="sans-serif" font-size="10" lengthAdjust="spacingAndGlyphs" textLength="188" x="84.5" y="233.8438">UMLDoclet 2.0.12, PlantUML 1.2020.16</text><!--MD5=[2a78c75f5df509f537787f7724a1e6e6]
@startuml
    set namespaceSeparator none
    hide empty fields
    hide empty methods

    class "<size:14>DefaultMetadataLoader\n<size:10>it.tidalwave.northernwind.frontend.media.impl" as it.tidalwave.northernwind.frontend.media.impl.DefaultMetadataLoader [[DefaultMetadataLoader.html]] {
        +findMediaResourceFile(ResourceProperties, Id): ResourceFile
        +loadMetadata(ResourceFile): Metadata
    }

    interface "<size:14>MetadataLoader\n<size:10>it.tidalwave.northernwind.frontend.media.impl" as it.tidalwave.northernwind.frontend.media.impl.MetadataLoader [[MetadataLoader.html]] {
        {abstract} +findMediaResourceFile(ResourceProperties, Id): ResourceFile
        {abstract} +loadMetadata(ResourceFile): Metadata
    }

    it.tidalwave.northernwind.frontend.media.impl.MetadataLoader <|.. it.tidalwave.northernwind.frontend.media.impl.DefaultMetadataLoader

    center footer UMLDoclet 2.0.12, PlantUML 1.2020.16
@enduml

PlantUML version 1.2020.16(Sun Aug 23 22:20:43 CEST 2020)
(APACHE source distribution)
Java Runtime: OpenJDK Runtime Environment
JVM: OpenJDK 64-Bit Server VM
Default Encoding: UTF-8
Language: en
Country: GB
--></g></svg>