<?xml version="1.0" encoding="UTF-8" standalone="no"?><svg xmlns="http://www.w3.org/2000/svg" xmlns:xlink="http://www.w3.org/1999/xlink" contentScriptType="application/ecmascript" contentStyleType="text/css" height="151px" preserveAspectRatio="none" style="width:1557px;height:151px;" version="1.1" viewBox="0 0 1557 151" width="1557px" zoomAndPan="magnify"><defs><filter height="300%" id="fbeyv4wo0z7tx" width="300%" x="-1" y="-1"><feGaussianBlur result="blurOut" stdDeviation="2.0"/><feColorMatrix in="blurOut" result="blurOut2" type="matrix" values="0 0 0 0 0 0 0 0 0 0 0 0 0 0 0 0 0 0 .4 0"/><feOffset dx="4.0" dy="4.0" in="blurOut2" result="blurOut3"/><feBlend in="SourceGraphic" in2="blurOut3" mode="normal"/></filter></defs><g><!--MD5=[0c37ebcad2a25eccdbe74f8845998d68]
class it.tidalwave.northernwind.rca.ui.structureeditor.spi--><a href="it/tidalwave/northernwind/rca/ui/structureeditor/spi/package-summary.html" target="_top" title="it/tidalwave/northernwind/rca/ui/structureeditor/spi/package-summary.html" xlink:actuate="onRequest" xlink:href="it/tidalwave/northernwind/rca/ui/structureeditor/spi/package-summary.html" xlink:show="new" xlink:title="it/tidalwave/northernwind/rca/ui/structureeditor/spi/package-summary.html" xlink:type="simple"><rect codeLine="15" fill="#FEFECE" filter="url(#fbeyv4wo0z7tx)" height="24.1328" id="it.tidalwave.northernwind.rca.ui.structureeditor.spi" style="stroke: #A80036; stroke-width: 1.5;" width="297" x="620.5" y="7"/><text fill="#000000" font-family="sans-serif" font-size="12" lengthAdjust="spacingAndGlyphs" textLength="291" x="623.5" y="23.6016">it.tidalwave.northernwind.rca.ui.structureeditor.spi</text></a><!--MD5=[68d8cc568be7bb0c869dba9525c8e622]
class it.tidalwave.northernwind.rca.ui.structureeditor--><a href="../apidocs/it/tidalwave/northernwind/rca/ui/structureeditor/package-summary.html" target="_top" title="../apidocs/it/tidalwave/northernwind/rca/ui/structureeditor/package-summary.html" xlink:actuate="onRequest" xlink:href="../apidocs/it/tidalwave/northernwind/rca/ui/structureeditor/package-summary.html" xlink:show="new" xlink:title="../apidocs/it/tidalwave/northernwind/rca/ui/structureeditor/package-summary.html" xlink:type="simple"><rect codeLine="17" fill="#FEFECE" filter="url(#fbeyv4wo0z7tx)" height="24.1328" id="it.tidalwave.northernwind.rca.ui.structureeditor" style="stroke: #A80036; stroke-width: 1.5;" width="276" x="7" y="91"/><text fill="#000000" font-family="sans-serif" font-size="12" lengthAdjust="spacingAndGlyphs" textLength="270" x="10" y="107.6016">it.tidalwave.northernwind.rca.ui.structureeditor</text></a><!--MD5=[56cc96c8b5783aba83feb784e5c2ec74]
class it.tidalwave.messagebus.impl.spring--><rect fill="#FEFECE" filter="url(#fbeyv4wo0z7tx)" height="24.1328" id="it.tidalwave.messagebus.impl.spring" style="stroke: #A80036; stroke-width: 1.5;" width="216" x="318" y="91"/><text fill="#000000" font-family="sans-serif" font-size="12" lengthAdjust="spacingAndGlyphs" textLength="210" x="321" y="107.6016">it.tidalwave.messagebus.impl.spring</text><!--MD5=[b38b3a8d6b00b78b55a3da79514951c5]
class org.slf4j--><rect fill="#FEFECE" filter="url(#fbeyv4wo0z7tx)" height="24.1328" id="org.slf4j" style="stroke: #A80036; stroke-width: 1.5;" width="54" x="569" y="91"/><text fill="#000000" font-family="sans-serif" font-size="12" lengthAdjust="spacingAndGlyphs" textLength="48" x="572" y="107.6016">org.slf4j</text><!--MD5=[fedbf1f8ce5540488fc1f33dfb031f41]
class it.tidalwave.northernwind.rca.ui.event--><a href="http://tidalwave.tidalwave.it/northernwind-rca/northernwind-rca-modules/it-tidalwave-northernwind-rca-ui-commons/apidocs/it/tidalwave/northernwind/rca/ui/event/package-summary.html?is-external=true" target="_top" title="http://tidalwave.tidalwave.it/northernwind-rca/northernwind-rca-modules/it-tidalwave-northernwind-rca-ui-commons/apidocs/it/tidalwave/northernwind/rca/ui/event/package-summary.html?is-external=true" xlink:actuate="onRequest" xlink:href="http://tidalwave.tidalwave.it/northernwind-rca/northernwind-rca-modules/it-tidalwave-northernwind-rca-ui-commons/apidocs/it/tidalwave/northernwind/rca/ui/event/package-summary.html?is-external=true" xlink:show="new" xlink:title="http://tidalwave.tidalwave.it/northernwind-rca/northernwind-rca-modules/it-tidalwave-northernwind-rca-ui-commons/apidocs/it/tidalwave/northernwind/rca/ui/event/package-summary.html?is-external=true" xlink:type="simple"><rect codeLine="19" fill="#FEFECE" filter="url(#fbeyv4wo0z7tx)" height="24.1328" id="it.tidalwave.northernwind.rca.ui.event" style="stroke: #A80036; stroke-width: 1.5;" width="222" x="658" y="91"/><text fill="#000000" font-family="sans-serif" font-size="12" lengthAdjust="spacingAndGlyphs" textLength="216" x="661" y="107.6016">it.tidalwave.northernwind.rca.ui.event</text></a><!--MD5=[9add6d0d4db2580996af4031a27dcb04]
class org.springframework.context.support--><rect fill="#FEFECE" filter="url(#fbeyv4wo0z7tx)" height="24.1328" id="org.springframework.context.support" style="stroke: #A80036; stroke-width: 1.5;" width="222" x="915" y="91"/><text fill="#000000" font-family="sans-serif" font-size="12" lengthAdjust="spacingAndGlyphs" textLength="216" x="918" y="107.6016">org.springframework.context.support</text><!--MD5=[0b3d1e905dead88dbdf65fd1cda455e2]
class it.tidalwave.northernwind.core.model--><rect fill="#FEFECE" filter="url(#fbeyv4wo0z7tx)" height="24.1328" id="it.tidalwave.northernwind.core.model" style="stroke: #A80036; stroke-width: 1.5;" width="220" x="1172" y="91"/><text fill="#000000" font-family="sans-serif" font-size="12" lengthAdjust="spacingAndGlyphs" textLength="214" x="1175" y="107.6016">it.tidalwave.northernwind.core.model</text><!--MD5=[bb902d3a30764a1e708a34a91a64a2e2]
class it.tidalwave.role.ui--><rect fill="#FEFECE" filter="url(#fbeyv4wo0z7tx)" height="24.1328" id="it.tidalwave.role.ui" style="stroke: #A80036; stroke-width: 1.5;" width="111" x="1427.5" y="91"/><text fill="#000000" font-family="sans-serif" font-size="12" lengthAdjust="spacingAndGlyphs" textLength="105" x="1430.5" y="107.6016">it.tidalwave.role.ui</text><!--MD5=[44998e72362ed6abfcaf8e6befbec25a]
link it.tidalwave.northernwind.rca.ui.structureeditor.spi to it.tidalwave.northernwind.rca.ui.structureeditor--><path codeLine="6" d="M679.596,31.0352 C562.7113,46.7696 358.8572,74.2115 239.5045,90.2782 " fill="none" id="it.tidalwave.northernwind.rca.ui.structureeditor.spi-to-it.tidalwave.northernwind.rca.ui.structureeditor" style="stroke: #A80036; stroke-width: 1.0;"/><polygon fill="#A80036" points="234.2381,90.9872,243.6913,93.7506,239.1934,90.3201,242.6239,85.8221,234.2381,90.9872" style="stroke: #A80036; stroke-width: 1.0;"/><!--MD5=[3d0513e711a1b58ab61100c5258b1ed3]
link it.tidalwave.northernwind.rca.ui.structureeditor.spi to it.tidalwave.messagebus.impl.spring--><path codeLine="7" d="M719.8565,31.0352 C656.3078,46.5981 545.9904,73.6146 480.1093,89.7487 " fill="none" id="it.tidalwave.northernwind.rca.ui.structureeditor.spi-to-it.tidalwave.messagebus.impl.spring" style="stroke: #A80036; stroke-width: 1.0;"/><polygon fill="#A80036" points="475.0524,90.9872,484.7456,92.7314,479.9089,89.7978,482.8425,84.961,475.0524,90.9872" style="stroke: #A80036; stroke-width: 1.0;"/><!--MD5=[0947dd8b0e1887038d1220b97c634734]
link it.tidalwave.northernwind.rca.ui.structureeditor.spi to org.slf4j--><path codeLine="8" d="M744.2133,31.0352 C712.8676,46.255 658.9616,72.429 625.521,88.6661 " fill="none" id="it.tidalwave.northernwind.rca.ui.structureeditor.spi-to-org.slf4j" style="stroke: #A80036; stroke-width: 1.0;"/><polygon fill="#A80036" points="620.7407,90.9872,630.5839,90.6544,625.2385,88.8033,627.0897,83.4579,620.7407,90.9872" style="stroke: #A80036; stroke-width: 1.0;"/><!--MD5=[9ea1863a46127b9319dc4e5dbcb90d39]
link it.tidalwave.northernwind.rca.ui.structureeditor.spi to it.tidalwave.northernwind.rca.ui.event--><path codeLine="9" d="M769,31.0352 C769,45.3818 769,69.4615 769,85.777 " fill="none" id="it.tidalwave.northernwind.rca.ui.structureeditor.spi-to-it.tidalwave.northernwind.rca.ui.event" style="stroke: #A80036; stroke-width: 1.0;"/><polygon fill="#A80036" points="769,90.9872,773,81.9872,769,85.9872,765,81.9872,769,90.9872" style="stroke: #A80036; stroke-width: 1.0;"/><!--MD5=[0394a8149944d344cbf1a2cf29ae9b05]
link it.tidalwave.northernwind.rca.ui.structureeditor.spi to org.springframework.context.support--><path codeLine="10" d="M805.8218,31.0352 C853.0553,46.4733 934.7717,73.1822 984.264,89.3587 " fill="none" id="it.tidalwave.northernwind.rca.ui.structureeditor.spi-to-org.springframework.context.support" style="stroke: #A80036; stroke-width: 1.0;"/><polygon fill="#A80036" points="989.2465,90.9872,981.9346,84.389,984.4939,89.4338,979.4491,91.9931,989.2465,90.9872" style="stroke: #A80036; stroke-width: 1.0;"/><!--MD5=[22c334472840186c859d61603d8df50b]
link it.tidalwave.northernwind.rca.ui.structureeditor.spi to it.tidalwave.northernwind.core.model--><path codeLine="11" d="M842.5004,31.0352 C938.3074,46.7228 1105.1888,74.0485 1203.4293,90.1346 " fill="none" id="it.tidalwave.northernwind.rca.ui.structureeditor.spi-to-it.tidalwave.northernwind.core.model" style="stroke: #A80036; stroke-width: 1.0;"/><polygon fill="#A80036" points="1208.636,90.9872,1200.4007,85.5854,1203.7017,90.1792,1199.1079,93.4802,1208.636,90.9872" style="stroke: #A80036; stroke-width: 1.0;"/><!--MD5=[e48aed51a36fc5ba265841dd3b84179a]
link it.tidalwave.northernwind.rca.ui.structureeditor.spi to it.tidalwave.role.ui--><path codeLine="12" d="M892.7157,31.0039 C1021.9842,43.9895 1230.5719,66.1919 1410,91 C1413.9361,91.5442 1417.9869,92.1321 1422.0674,92.7453 " fill="none" id="it.tidalwave.northernwind.rca.ui.structureeditor.spi-to-it.tidalwave.role.ui" style="stroke: #A80036; stroke-width: 1.0;"/><polygon fill="#A80036" points="1427.2453,93.534,1418.9503,88.2242,1422.3023,92.781,1417.7455,96.133,1427.2453,93.534" style="stroke: #A80036; stroke-width: 1.0;"/><text fill="#888888" font-family="sans-serif" font-size="10" lengthAdjust="spacingAndGlyphs" textLength="188" x="675.75" y="137.8008">UMLDoclet 2.0.12, PlantUML 1.2020.16</text><!--MD5=[6a2e8f66ea871c80ea0b751f25f314dd]
@startuml
    set namespaceSeparator none
    hide circle
    hide empty fields
    hide empty methods

    it.tidalwave.northernwind.rca.ui.structureeditor.spi - -> it.tidalwave.northernwind.rca.ui.structureeditor
    it.tidalwave.northernwind.rca.ui.structureeditor.spi - -> it.tidalwave.messagebus.impl.spring
    it.tidalwave.northernwind.rca.ui.structureeditor.spi - -> org.slf4j
    it.tidalwave.northernwind.rca.ui.structureeditor.spi - -> it.tidalwave.northernwind.rca.ui.event
    it.tidalwave.northernwind.rca.ui.structureeditor.spi - -> org.springframework.context.support
    it.tidalwave.northernwind.rca.ui.structureeditor.spi - -> it.tidalwave.northernwind.core.model
    it.tidalwave.northernwind.rca.ui.structureeditor.spi - -> it.tidalwave.role.ui

    ' Package links
    class "it.tidalwave.northernwind.rca.ui.structureeditor.spi" [[it/tidalwave/northernwind/rca/ui/structureeditor/spi/package-summary.html]] {
    }
    class "it.tidalwave.northernwind.rca.ui.structureeditor" [[../apidocs/it/tidalwave/northernwind/rca/ui/structureeditor/package-summary.html]] {
    }
    class "it.tidalwave.northernwind.rca.ui.event" [[http://tidalwave.tidalwave.it/northernwind-rca/northernwind-rca-modules/it-tidalwave-northernwind-rca-ui-commons/apidocs/it/tidalwave/northernwind/rca/ui/event/package-summary.html?is-external=true]] {
    }

    center footer UMLDoclet 2.0.12, PlantUML 1.2020.16
@enduml

@startuml
    set namespaceSeparator none
    hide circle
    hide empty fields
    hide empty methods

    it.tidalwave.northernwind.rca.ui.structureeditor.spi - -> it.tidalwave.northernwind.rca.ui.structureeditor
    it.tidalwave.northernwind.rca.ui.structureeditor.spi - -> it.tidalwave.messagebus.impl.spring
    it.tidalwave.northernwind.rca.ui.structureeditor.spi - -> org.slf4j
    it.tidalwave.northernwind.rca.ui.structureeditor.spi - -> it.tidalwave.northernwind.rca.ui.event
    it.tidalwave.northernwind.rca.ui.structureeditor.spi - -> org.springframework.context.support
    it.tidalwave.northernwind.rca.ui.structureeditor.spi - -> it.tidalwave.northernwind.core.model
    it.tidalwave.northernwind.rca.ui.structureeditor.spi - -> it.tidalwave.role.ui

    class "it.tidalwave.northernwind.rca.ui.structureeditor.spi" [[it/tidalwave/northernwind/rca/ui/structureeditor/spi/package-summary.html]] {
    }
    class "it.tidalwave.northernwind.rca.ui.structureeditor" [[../apidocs/it/tidalwave/northernwind/rca/ui/structureeditor/package-summary.html]] {
    }
    class "it.tidalwave.northernwind.rca.ui.event" [[http://tidalwave.tidalwave.it/northernwind-rca/northernwind-rca-modules/it-tidalwave-northernwind-rca-ui-commons/apidocs/it/tidalwave/northernwind/rca/ui/event/package-summary.html?is-external=true]] {
    }

    center footer UMLDoclet 2.0.12, PlantUML 1.2020.16
@enduml

PlantUML version 1.2020.16(Sun Aug 23 22:20:43 CEST 2020)
(APACHE source distribution)
Java Runtime: OpenJDK Runtime Environment
JVM: OpenJDK 64-Bit Server VM
Default Encoding: UTF-8
Language: en
Country: GB
--></g></svg>