<?xml version="1.0" encoding="UTF-8" standalone="no"?><svg xmlns="http://www.w3.org/2000/svg" xmlns:xlink="http://www.w3.org/1999/xlink" contentScriptType="application/ecmascript" contentStyleType="text/css" height="224px" preserveAspectRatio="none" style="width:356px;height:224px;" version="1.1" viewBox="0 0 356 224" width="356px" zoomAndPan="magnify"><defs><filter height="300%" id="fannt0mcjgjzp" width="300%" x="-1" y="-1"><feGaussianBlur result="blurOut" stdDeviation="2.0"/><feColorMatrix in="blurOut" result="blurOut2" type="matrix" values="0 0 0 0 0 0 0 0 0 0 0 0 0 0 0 0 0 0 .4 0"/><feOffset dx="4.0" dy="4.0" in="blurOut2" result="blurOut3"/><feBlend in="SourceGraphic" in2="blurOut3" mode="normal"/></filter></defs><g><!--MD5=[60668c67c5be9950a0e67246833a840f]
class it.tidalwave.util.ui.UserNotificationWithFeedbackMatcher--><a href="UserNotificationWithFeedbackMatcher.html" target="_top" title="UserNotificationWithFeedbackMatcher.html" xlink:actuate="onRequest" xlink:href="UserNotificationWithFeedbackMatcher.html" xlink:show="new" xlink:title="UserNotificationWithFeedbackMatcher.html" xlink:type="simple"><rect codeLine="5" fill="#FEFECE" filter="url(#fannt0mcjgjzp)" height="59.2207" id="it.tidalwave.util.ui.UserNotificationWithFeedbackMatcher" style="stroke: #A80036; stroke-width: 1.5;" width="292" x="26" y="129"/><ellipse cx="41" cy="148.1328" fill="#ADD1B2" rx="11" ry="11" style="stroke: #A80036; stroke-width: 1.0;"/><path d="M43.4731,154.2759 Q42.8921,154.5747 42.2529,154.7241 Q41.6138,154.8735 40.9082,154.8735 Q38.4014,154.8735 37.0815,153.2217 Q35.7617,151.5698 35.7617,148.4487 Q35.7617,145.3193 37.0815,143.6675 Q38.4014,142.0156 40.9082,142.0156 Q41.6138,142.0156 42.2612,142.165 Q42.9087,142.3145 43.4731,142.6133 L43.4731,145.3359 Q42.8423,144.7549 42.2488,144.4851 Q41.6553,144.2153 41.0244,144.2153 Q39.6797,144.2153 38.9949,145.282 Q38.3101,146.3486 38.3101,148.4487 Q38.3101,150.5405 38.9949,151.6072 Q39.6797,152.6738 41.0244,152.6738 Q41.6553,152.6738 42.2488,152.4041 Q42.8423,152.1343 43.4731,151.5532 Z "/><text fill="#000000" font-family="sans-serif" font-size="14" lengthAdjust="spacingAndGlyphs" textLength="260" x="55" y="147.5352">UserNotificationWithFeedbackMatcher</text><text fill="#000000" font-family="sans-serif" font-size="10" lengthAdjust="spacingAndGlyphs" textLength="88" x="141" y="160.1563">it.tidalwave.util.ui</text><line style="stroke: #A80036; stroke-width: 1.5;" x1="27" x2="317" y1="167.2656" y2="167.2656"/><ellipse cx="37" cy="178.2656" fill="#84BE84" rx="3" ry="3" style="stroke: #038048; stroke-width: 1.0;"/><text fill="#000000" font-family="sans-serif" font-size="11" lengthAdjust="spacingAndGlyphs" textLength="262" x="46" y="181.9004">matches(UserNotificationWithFeedback): boolean</text></a><!--MD5=[8fbf927d2c0d6ad3cdf34d07452882d2]
class org.mockito.ArgumentMatcher--><rect codeLine="9" fill="#FEFECE" filter="url(#fannt0mcjgjzp)" height="59.2207" id="org.mockito.ArgumentMatcher" style="stroke: #A80036; stroke-width: 1.5;" width="330" x="7" y="10"/><ellipse cx="22" cy="29.1328" fill="#B4A7E5" rx="11" ry="11" style="stroke: #A80036; stroke-width: 1.0;"/><path d="M18.4277,25.3979 L18.4277,23.2397 L25.8071,23.2397 L25.8071,25.3979 L23.3418,25.3979 L23.3418,33.4746 L25.8071,33.4746 L25.8071,35.6328 L18.4277,35.6328 L18.4277,33.4746 L20.8931,33.4746 L20.8931,25.3979 Z "/><text fill="#000000" font-family="sans-serif" font-size="14" font-style="italic" lengthAdjust="spacingAndGlyphs" textLength="124" x="36" y="28.5352">ArgumentMatcher</text><text fill="#000000" font-family="sans-serif" font-size="10" font-style="italic" lengthAdjust="spacingAndGlyphs" textLength="58" x="69" y="41.1563">org.mockito</text><rect fill="#FFFFFF" height="16.1328" style="stroke: #000000; stroke-width: 1.0; stroke-dasharray: 2.0,2.0;" width="172" x="168" y="7"/><text fill="#000000" font-family="sans-serif" font-size="12" font-style="italic" lengthAdjust="spacingAndGlyphs" textLength="170" x="169" y="19.6016">UserNotificationWithFeedback</text><line style="stroke: #A80036; stroke-width: 1.5;" x1="8" x2="336" y1="48.2656" y2="48.2656"/><ellipse cx="18" cy="59.2656" fill="#84BE84" rx="3" ry="3" style="stroke: #038048; stroke-width: 1.0;"/><text fill="#000000" font-family="sans-serif" font-size="11" font-style="italic" lengthAdjust="spacingAndGlyphs" textLength="262" x="27" y="62.9004">matches(UserNotificationWithFeedback): boolean</text><!--MD5=[b5eeb6fd8f75e13a1f06811747e824a2]
reverse link org.mockito.ArgumentMatcher to it.tidalwave.util.ui.UserNotificationWithFeedbackMatcher--><path codeLine="13" d="M172,89.3288 C172,102.7348 172,116.8139 172,128.7447 " fill="none" id="org.mockito.ArgumentMatcher-backto-it.tidalwave.util.ui.UserNotificationWithFeedbackMatcher" style="stroke: #A80036; stroke-width: 1.0; stroke-dasharray: 7.0,7.0;"/><polygon fill="none" points="165.0001,89.2218,172,69.2218,179.0001,89.2217,165.0001,89.2218" style="stroke: #A80036; stroke-width: 1.0;"/><text fill="#888888" font-family="sans-serif" font-size="10" lengthAdjust="spacingAndGlyphs" textLength="188" x="75" y="210.8887">UMLDoclet 2.0.12, PlantUML 1.2020.16</text><!--MD5=[ff04a8870e328b6e59e1f63a74878826]
@startuml
    set namespaceSeparator none
    hide empty fields
    hide empty methods

    class "<size:14>UserNotificationWithFeedbackMatcher\n<size:10>it.tidalwave.util.ui" as it.tidalwave.util.ui.UserNotificationWithFeedbackMatcher [[UserNotificationWithFeedbackMatcher.html]] {
        +matches(UserNotificationWithFeedback): boolean
    }

    interface "<size:14>ArgumentMatcher\n<size:10>org.mockito" as org.mockito.ArgumentMatcher<UserNotificationWithFeedback> {
        {abstract} +matches(UserNotificationWithFeedback): boolean
    }

    org.mockito.ArgumentMatcher <|.. it.tidalwave.util.ui.UserNotificationWithFeedbackMatcher

    center footer UMLDoclet 2.0.12, PlantUML 1.2020.16
@enduml

PlantUML version 1.2020.16(Sun Aug 23 22:20:43 CEST 2020)
(APACHE source distribution)
Java Runtime: OpenJDK Runtime Environment
JVM: OpenJDK 64-Bit Server VM
Default Encoding: UTF-8
Language: en
Country: GB
--></g></svg>