<?xml version="1.0" encoding="UTF-8" standalone="no"?><svg xmlns="http://www.w3.org/2000/svg" xmlns:xlink="http://www.w3.org/1999/xlink" contentScriptType="application/ecmascript" contentStyleType="text/css" height="179px" preserveAspectRatio="none" style="width:200px;height:179px;" version="1.1" viewBox="0 0 200 179" width="200px" zoomAndPan="magnify"><defs><filter height="300%" id="f1ml5798dban2b" width="300%" x="-1" y="-1"><feGaussianBlur result="blurOut" stdDeviation="2.0"/><feColorMatrix in="blurOut" result="blurOut2" type="matrix" values="0 0 0 0 0 0 0 0 0 0 0 0 0 0 0 0 0 0 .4 0"/><feOffset dx="4.0" dy="4.0" in="blurOut2" result="blurOut3"/><feBlend in="SourceGraphic" in2="blurOut3" mode="normal"/></filter></defs><g><!--MD5=[b9232632a6b1657c6eae5effab8da929]
class it.tidalwave.dci.annotation.DciRole.NoContext--><a href="DciRole.NoContext.html" target="_top" title="DciRole.NoContext.html" xlink:actuate="onRequest" xlink:href="DciRole.NoContext.html" xlink:show="new" xlink:title="DciRole.NoContext.html" xlink:type="simple"><rect codeLine="5" fill="#FEFECE" filter="url(#f1ml5798dban2b)" height="38.2656" id="it.tidalwave.dci.annotation.DciRole.NoContext" style="stroke: #A80036; stroke-width: 1.5;" width="162" x="16" y="105"/><ellipse cx="31" cy="124.1328" fill="#ADD1B2" rx="11" ry="11" style="stroke: #A80036; stroke-width: 1.0;"/><path d="M33.4731,130.2759 Q32.8921,130.5747 32.2529,130.7241 Q31.6138,130.8735 30.9082,130.8735 Q28.4014,130.8735 27.0815,129.2217 Q25.7617,127.5698 25.7617,124.4487 Q25.7617,121.3193 27.0815,119.6675 Q28.4014,118.0156 30.9082,118.0156 Q31.6138,118.0156 32.2612,118.165 Q32.9087,118.3145 33.4731,118.6133 L33.4731,121.3359 Q32.8423,120.7549 32.2488,120.4851 Q31.6553,120.2153 31.0244,120.2153 Q29.6797,120.2153 28.9949,121.282 Q28.3101,122.3486 28.3101,124.4487 Q28.3101,126.5405 28.9949,127.6072 Q29.6797,128.6738 31.0244,128.6738 Q31.6553,128.6738 32.2488,128.4041 Q32.8423,128.1343 33.4731,127.5532 Z "/><text fill="#000000" font-family="sans-serif" font-size="14" lengthAdjust="spacingAndGlyphs" textLength="129" x="45.5" y="123.5352">DciRole.NoContext</text><text fill="#000000" font-family="sans-serif" font-size="10" lengthAdjust="spacingAndGlyphs" textLength="130" x="45" y="136.1563">it.tidalwave.dci.annotation</text></a><!--MD5=[394d6b3ebf5afb29891ea4b302132b0a]
class it.tidalwave.dci.annotation.DciRole--><a href="DciRole.html" target="_top" title="DciRole.html" xlink:actuate="onRequest" xlink:href="DciRole.html" xlink:show="new" xlink:title="DciRole.html" xlink:type="simple"><rect codeLine="7" fill="#FEFECE" filter="url(#f1ml5798dban2b)" height="38.2656" id="it.tidalwave.dci.annotation.DciRole" style="stroke: #A80036; stroke-width: 1.5;" width="162" x="16" y="7"/><ellipse cx="31" cy="26.1328" fill="#E3664A" rx="11" ry="11" style="stroke: #A80036; stroke-width: 1.0;"/><path d="M33.5767,26.3589 Q33.5767,25.4209 33.1533,24.8896 Q32.73,24.3584 31.9912,24.3584 Q31.2524,24.3584 30.8333,24.8896 Q30.4141,25.4209 30.4141,26.3589 Q30.4141,27.3052 30.8333,27.8364 Q31.2524,28.3677 31.9912,28.3677 Q32.73,28.3677 33.1533,27.8364 Q33.5767,27.3052 33.5767,26.3589 Z M35.1206,29.7622 L33.4937,29.7622 L33.4937,29.0815 Q33.1782,29.5215 32.7507,29.7249 Q32.3232,29.9282 31.7256,29.9282 Q30.3643,29.9282 29.53,28.9487 Q28.6958,27.9692 28.6958,26.3589 Q28.6958,24.7568 29.5259,23.7815 Q30.356,22.8062 31.7256,22.8062 Q32.3149,22.8062 32.7632,23.0095 Q33.2114,23.2129 33.4937,23.603 L33.4937,23.2627 Q33.4937,22.1338 32.8752,21.5195 Q32.2568,20.9053 31.1113,20.9053 Q29.3848,20.9053 28.2932,22.4243 Q27.2017,23.9434 27.2017,26.3755 Q27.2017,28.9238 28.4634,30.4304 Q29.7251,31.937 31.8252,31.937 Q32.4893,31.937 33.1118,31.7419 Q33.7344,31.5469 34.3071,31.1567 L35.0708,32.6177 Q34.3984,33.0742 33.6057,33.3025 Q32.813,33.5308 31.9082,33.5308 Q29.0029,33.5308 27.2764,31.5967 Q25.5498,29.6626 25.5498,26.3755 Q25.5498,23.1631 27.1021,21.2332 Q28.6543,19.3032 31.2109,19.3032 Q33.0205,19.3032 34.0706,20.3948 Q35.1206,21.4863 35.1206,23.3706 Z "/><text fill="#000000" font-family="sans-serif" font-size="14" lengthAdjust="spacingAndGlyphs" textLength="51" x="84.5" y="25.5352">DciRole</text><text fill="#000000" font-family="sans-serif" font-size="10" lengthAdjust="spacingAndGlyphs" textLength="130" x="45" y="38.1563">it.tidalwave.dci.annotation</text></a><!--MD5=[7d9fcb98389f6ffdce63b793cc661ca0]
reverse link it.tidalwave.dci.annotation.DciRole to it.tidalwave.dci.annotation.DciRole.NoContext--><path codeLine="9" d="M97,60.4087 C97,75.2562 97,92.0704 97,104.6786 " fill="none" id="it.tidalwave.dci.annotation.DciRole-backto-it.tidalwave.dci.annotation.DciRole.NoContext" style="stroke: #A80036; stroke-width: 1.0;"/><ellipse cx="97.0001" cy="53.3616" fill="#FFFFFF" rx="8" ry="8" style="stroke: #A80036; stroke-width: 1.0;"/><line style="stroke: #A80036; stroke-width: 1.0;" x1="97.0002" x2="97" y1="61.3616" y2="45.3616"/><line style="stroke: #A80036; stroke-width: 1.0;" x1="89.0001" x2="105.0001" y1="53.3617" y2="53.3615"/><text fill="#888888" font-family="sans-serif" font-size="10" lengthAdjust="spacingAndGlyphs" textLength="188" x="0" y="165.9336">UMLDoclet 2.0.12, PlantUML 1.2020.16</text><!--MD5=[d715b6e94ec531c35c0b9f3b6810d2c5]
@startuml
    set namespaceSeparator none
    hide empty fields
    hide empty methods

    class "<size:14>DciRole.NoContext\n<size:10>it.tidalwave.dci.annotation" as it.tidalwave.dci.annotation.DciRole.NoContext [[DciRole.NoContext.html]]

    annotation "<size:14>DciRole\n<size:10>it.tidalwave.dci.annotation" as it.tidalwave.dci.annotation.DciRole [[DciRole.html]]

    it.tidalwave.dci.annotation.DciRole +- - it.tidalwave.dci.annotation.DciRole.NoContext

    center footer UMLDoclet 2.0.12, PlantUML 1.2020.16
@enduml

PlantUML version 1.2020.16(Sun Aug 23 22:20:43 CEST 2020)
(APACHE source distribution)
Java Runtime: OpenJDK Runtime Environment
JVM: OpenJDK 64-Bit Server VM
Default Encoding: UTF-8
Language: en
Country: GB
--></g></svg>