<?xml version="1.0" encoding="UTF-8" standalone="no"?><svg xmlns="http://www.w3.org/2000/svg" xmlns:xlink="http://www.w3.org/1999/xlink" contentScriptType="application/ecmascript" contentStyleType="text/css" height="133px" preserveAspectRatio="none" style="width:314px;height:133px;" version="1.1" viewBox="0 0 314 133" width="314px" zoomAndPan="magnify"><defs><filter height="300%" id="f1kk5nn4576qjn" width="300%" x="-1" y="-1"><feGaussianBlur result="blurOut" stdDeviation="2.0"/><feColorMatrix in="blurOut" result="blurOut2" type="matrix" values="0 0 0 0 0 0 0 0 0 0 0 0 0 0 0 0 0 0 .4 0"/><feOffset dx="4.0" dy="4.0" in="blurOut2" result="blurOut3"/><feBlend in="SourceGraphic" in2="blurOut3" mode="normal"/></filter></defs><g><!--MD5=[f4f1a59c644a5145b2a45bc92c2b3cea]
class it.tidalwave.role.ui.PresentationModelTest--><a href="PresentationModelTest.html" target="_top" title="PresentationModelTest.html" xlink:actuate="onRequest" xlink:href="PresentationModelTest.html" xlink:show="new" xlink:title="PresentationModelTest.html" xlink:type="simple"><rect codeLine="5" fill="#FEFECE" filter="url(#f1kk5nn4576qjn)" height="96.1934" id="it.tidalwave.role.ui.PresentationModelTest" style="stroke: #A80036; stroke-width: 1.5;" width="288" x="7" y="7"/><ellipse cx="73.75" cy="25.7988" fill="#ADD1B2" rx="11" ry="11" style="stroke: #A80036; stroke-width: 1.0;"/><path d="M71.6563,25.6426 Q71.6563,27.5176 72.2344,28.5332 Q72.8125,29.5332 73.9688,29.5332 Q75.3125,29.5332 75.9688,27.5176 L78.2344,27.9395 Q77.125,31.4707 73.9531,31.4707 Q71.6094,31.4707 70.3906,29.9863 Q69.1719,28.502 69.1719,25.6426 Q69.1719,19.9238 73.875,19.9238 Q75.4219,19.9238 76.4531,20.7363 Q77.5,21.5488 78,23.1582 L75.7344,23.7051 Q75.5,22.8301 75.0156,22.3457 Q74.5313,21.8457 73.9063,21.8457 Q71.6563,21.8457 71.6563,25.6426 Z "/><text fill="#000000" font-family="sans-serif" font-size="14" lengthAdjust="spacingAndGlyphs" textLength="146" x="94.25" y="25.1318">PresentationModelTest</text><text fill="#000000" font-family="sans-serif" font-size="10" lengthAdjust="spacingAndGlyphs" textLength="87" x="123.75" y="37.4785">it.tidalwave.role.ui</text><line style="stroke: #A80036; stroke-width: 1.5;" x1="8" x2="294" y1="44.5977" y2="44.5977"/><ellipse cx="18" cy="55.5977" fill="#84BE84" rx="3" ry="3" style="stroke: #038048; stroke-width: 1.0;"/><text fill="#000000" font-family="sans-serif" font-size="11" lengthAdjust="spacingAndGlyphs" textLength="61" x="27" y="58.9155">setup(): void</text><ellipse cx="18" cy="68.2466" fill="#84BE84" rx="3" ry="3" style="stroke: #038048; stroke-width: 1.0;"/><text fill="#000000" font-family="sans-serif" font-size="11" lengthAdjust="spacingAndGlyphs" textLength="72" x="27" y="71.5645">cleanup(): void</text><ellipse cx="18" cy="80.8955" fill="#84BE84" rx="3" ry="3" style="stroke: #038048; stroke-width: 1.0;"/><text fill="#000000" font-family="sans-serif" font-size="11" lengthAdjust="spacingAndGlyphs" textLength="262" x="27" y="84.2134">test_ofMaybePresentable_without_Presentable(): void</text><ellipse cx="18" cy="93.5444" fill="#84BE84" rx="3" ry="3" style="stroke: #038048; stroke-width: 1.0;"/><text fill="#000000" font-family="sans-serif" font-size="11" lengthAdjust="spacingAndGlyphs" textLength="247" x="27" y="96.8623">test_ofMaybePresentable_with_Presentable(): void</text></a><text fill="#888888" font-family="sans-serif" font-size="10" lengthAdjust="spacingAndGlyphs" textLength="190" x="56" y="119.5732">UMLDoclet 2.0.12, PlantUML 1.2020.16</text><!--MD5=[267c2272eaebb3883178d5d53dc97a64]
@startuml
    set namespaceSeparator none
    hide empty fields
    hide empty methods

    class "<size:14>PresentationModelTest\n<size:10>it.tidalwave.role.ui" as it.tidalwave.role.ui.PresentationModelTest [[PresentationModelTest.html]] {
        +setup(): void
        +cleanup(): void
        +test_ofMaybePresentable_without_Presentable(): void
        +test_ofMaybePresentable_with_Presentable(): void
    }

    center footer UMLDoclet 2.0.12, PlantUML 1.2020.16
@enduml

PlantUML version 1.2020.16(Sun Aug 23 22:20:43 CEST 2020)
(APACHE source distribution)
Java Runtime: OpenJDK Runtime Environment
JVM: OpenJDK 64-Bit Server VM
Default Encoding: UTF-8
Language: en
Country: US
--></g></svg>