<?xml version="1.0" encoding="UTF-8" standalone="no"?><svg xmlns="http://www.w3.org/2000/svg" xmlns:xlink="http://www.w3.org/1999/xlink" contentScriptType="application/ecmascript" contentStyleType="text/css" height="345px" preserveAspectRatio="none" style="width:389px;height:345px;" version="1.1" viewBox="0 0 389 345" width="389px" zoomAndPan="magnify"><defs><filter height="300%" id="f1tkzqe3m0frsf" width="300%" x="-1" y="-1"><feGaussianBlur result="blurOut" stdDeviation="2.0"/><feColorMatrix in="blurOut" result="blurOut2" type="matrix" values="0 0 0 0 0 0 0 0 0 0 0 0 0 0 0 0 0 0 .4 0"/><feOffset dx="4.0" dy="4.0" in="blurOut2" result="blurOut3"/><feBlend in="SourceGraphic" in2="blurOut3" mode="normal"/></filter></defs><g><!--MD5=[fad13173894dc3c8a197ba181b1cd4f9]
class it.tidalwave.role.ui.MutableDisplayable--><a href="MutableDisplayable.html" target="_top" title="MutableDisplayable.html" xlink:actuate="onRequest" xlink:href="MutableDisplayable.html" xlink:show="new" xlink:title="MutableDisplayable.html" xlink:type="simple"><rect codeLine="5" fill="#FEFECE" filter="url(#f1tkzqe3m0frsf)" height="183.8164" id="it.tidalwave.role.ui.MutableDisplayable" style="stroke: #A80036; stroke-width: 1.5;" width="363" x="7" y="126"/><ellipse cx="117.75" cy="145.1328" fill="#B4A7E5" rx="11" ry="11" style="stroke: #A80036; stroke-width: 1.0;"/><path d="M114.1777,141.3979 L114.1777,139.2397 L121.5571,139.2397 L121.5571,141.3979 L119.0918,141.3979 L119.0918,149.4746 L121.5571,149.4746 L121.5571,151.6328 L114.1777,151.6328 L114.1777,149.4746 L116.6431,149.4746 L116.6431,141.3979 Z "/><text fill="#000000" font-family="sans-serif" font-size="14" font-style="italic" lengthAdjust="spacingAndGlyphs" textLength="133" x="138.25" y="144.5352">MutableDisplayable</text><text fill="#000000" font-family="sans-serif" font-size="10" font-style="italic" lengthAdjust="spacingAndGlyphs" textLength="91" x="159.25" y="157.1563">it.tidalwave.role.ui</text><line style="stroke: #A80036; stroke-width: 1.5;" x1="8" x2="369" y1="164.2656" y2="164.2656"/><ellipse cx="18" cy="175.2656" fill="none" rx="3" ry="3" style="stroke: #038048; stroke-width: 1.0;"/><text fill="#000000" font-family="sans-serif" font-size="11" lengthAdjust="spacingAndGlyphs" text-decoration="underline" textLength="271" x="27" y="178.9004">_MutableDisplayable_: Class&lt;MutableDisplayable&gt;</text><ellipse cx="18" cy="188.2207" fill="none" rx="3" ry="3" style="stroke: #038048; stroke-width: 1.0;"/><text fill="#000000" font-family="sans-serif" font-size="11" lengthAdjust="spacingAndGlyphs" text-decoration="underline" textLength="153" x="27" y="191.8555">PROP_DISPLAY_NAME: String</text><ellipse cx="18" cy="201.1758" fill="none" rx="3" ry="3" style="stroke: #038048; stroke-width: 1.0;"/><text fill="#000000" font-family="sans-serif" font-size="11" lengthAdjust="spacingAndGlyphs" text-decoration="underline" textLength="159" x="27" y="204.8105">PROP_DISPLAY_NAMES: String</text><line style="stroke: #A80036; stroke-width: 1.5;" x1="8" x2="369" y1="211.1309" y2="211.1309"/><ellipse cx="18" cy="222.1309" fill="#84BE84" rx="3" ry="3" style="stroke: #038048; stroke-width: 1.0;"/><text fill="#000000" font-family="sans-serif" font-size="11" font-style="italic" lengthAdjust="spacingAndGlyphs" textLength="154" x="27" y="225.7656">setDisplayName(String): void</text><ellipse cx="18" cy="235.0859" fill="#84BE84" rx="3" ry="3" style="stroke: #038048; stroke-width: 1.0;"/><text fill="#000000" font-family="sans-serif" font-size="11" font-style="italic" lengthAdjust="spacingAndGlyphs" textLength="194" x="27" y="238.7207">setDisplayName(String, Locale): void</text><ellipse cx="18" cy="248.041" fill="#84BE84" rx="3" ry="3" style="stroke: #038048; stroke-width: 1.0;"/><text fill="#000000" font-family="sans-serif" font-size="11" font-style="italic" lengthAdjust="spacingAndGlyphs" textLength="240" x="27" y="251.6758">setDisplayNames(Map&lt;Locale, String&gt;): void</text><ellipse cx="18" cy="260.9961" fill="#84BE84" rx="3" ry="3" style="stroke: #038048; stroke-width: 1.0;"/><text fill="#000000" font-family="sans-serif" font-size="11" font-style="italic" lengthAdjust="spacingAndGlyphs" textLength="317" x="27" y="264.6309">addPropertyChangeListener(PropertyChangeListener): void</text><ellipse cx="18" cy="273.9512" fill="#84BE84" rx="3" ry="3" style="stroke: #038048; stroke-width: 1.0;"/><text fill="#000000" font-family="sans-serif" font-size="11" font-style="italic" lengthAdjust="spacingAndGlyphs" textLength="337" x="27" y="277.5859">removePropertyChangeListener(PropertyChangeListener): void</text><ellipse cx="18" cy="286.9063" fill="#84BE84" rx="3" ry="3" style="stroke: #038048; stroke-width: 1.0;"/><text fill="#000000" font-family="sans-serif" font-size="11" lengthAdjust="spacingAndGlyphs" text-decoration="underline" textLength="160" x="27" y="290.541">of(String): MutableDisplayable</text><ellipse cx="18" cy="299.8613" fill="#84BE84" rx="3" ry="3" style="stroke: #038048; stroke-width: 1.0;"/><text fill="#000000" font-family="sans-serif" font-size="11" lengthAdjust="spacingAndGlyphs" text-decoration="underline" textLength="198" x="27" y="303.4961">of(String, String): MutableDisplayable</text></a><!--MD5=[e05cef5f540740c7b774d94550632b59]
class it.tidalwave.role.ui.Displayable--><a href="Displayable.html" target="_top" title="Displayable.html" xlink:actuate="onRequest" xlink:href="Displayable.html" xlink:show="new" xlink:title="Displayable.html" xlink:type="simple"><rect codeLine="18" fill="#FEFECE" filter="url(#f1tkzqe3m0frsf)" height="59.2207" id="it.tidalwave.role.ui.Displayable" style="stroke: #A80036; stroke-width: 1.5;" width="158" x="109.5" y="7"/><ellipse cx="140.25" cy="26.1328" fill="#B4A7E5" rx="11" ry="11" style="stroke: #A80036; stroke-width: 1.0;"/><path d="M136.6777,22.3979 L136.6777,20.2397 L144.0571,20.2397 L144.0571,22.3979 L141.5918,22.3979 L141.5918,30.4746 L144.0571,30.4746 L144.0571,32.6328 L136.6777,32.6328 L136.6777,30.4746 L139.1431,30.4746 L139.1431,22.3979 Z "/><text fill="#000000" font-family="sans-serif" font-size="14" font-style="italic" lengthAdjust="spacingAndGlyphs" textLength="78" x="164.25" y="25.5352">Displayable</text><text fill="#000000" font-family="sans-serif" font-size="10" font-style="italic" lengthAdjust="spacingAndGlyphs" textLength="91" x="157.75" y="38.1563">it.tidalwave.role.ui</text><line style="stroke: #A80036; stroke-width: 1.5;" x1="110.5" x2="266.5" y1="45.2656" y2="45.2656"/><ellipse cx="120.5" cy="56.2656" fill="#84BE84" rx="3" ry="3" style="stroke: #038048; stroke-width: 1.0;"/><text fill="#000000" font-family="sans-serif" font-size="11" font-style="italic" lengthAdjust="spacingAndGlyphs" textLength="132" x="129.5" y="59.9004">getDisplayName(): String</text></a><!--MD5=[e5fd3fc65cc855bf21671c6303f2940a]
reverse link it.tidalwave.role.ui.Displayable to it.tidalwave.role.ui.MutableDisplayable--><path codeLine="22" d="M188.5,86.4629 C188.5,98.6871 188.5,112.1581 188.5,125.6756 " fill="none" id="it.tidalwave.role.ui.Displayable-backto-it.tidalwave.role.ui.MutableDisplayable" style="stroke: #A80036; stroke-width: 1.0;"/><polygon fill="none" points="181.5001,86.0651,188.5,66.0651,195.5001,86.065,181.5001,86.0651" style="stroke: #A80036; stroke-width: 1.0;"/><text fill="#888888" font-family="sans-serif" font-size="10" lengthAdjust="spacingAndGlyphs" textLength="188" x="91.5" y="332.4844">UMLDoclet 2.0.12, PlantUML 1.2020.16</text><!--MD5=[5f1c3ce0ac1bbd1fb63576c7b50bb74f]
@startuml
    set namespaceSeparator none
    hide empty fields
    hide empty methods

    interface "<size:14>MutableDisplayable\n<size:10>it.tidalwave.role.ui" as it.tidalwave.role.ui.MutableDisplayable [[MutableDisplayable.html]] {
        {static} +_MutableDisplayable_: Class<MutableDisplayable>
        {static} +PROP_DISPLAY_NAME: String
        {static} +PROP_DISPLAY_NAMES: String
        {abstract} +setDisplayName(String): void
        {abstract} +setDisplayName(String, Locale): void
        {abstract} +setDisplayNames(Map<Locale, String>): void
        {abstract} +addPropertyChangeListener(PropertyChangeListener): void
        {abstract} +removePropertyChangeListener(PropertyChangeListener): void
        {static} +of(String): MutableDisplayable
        {static} +of(String, String): MutableDisplayable
    }

    interface "<size:14>Displayable\n<size:10>it.tidalwave.role.ui" as it.tidalwave.role.ui.Displayable [[Displayable.html]] {
        {abstract} +getDisplayName(): String
    }

    it.tidalwave.role.ui.Displayable <|- - it.tidalwave.role.ui.MutableDisplayable

    center footer UMLDoclet 2.0.12, PlantUML 1.2020.16
@enduml

PlantUML version 1.2020.16(Sun Aug 23 22:20:43 CEST 2020)
(APACHE source distribution)
Java Runtime: OpenJDK Runtime Environment
JVM: OpenJDK 64-Bit Server VM
Default Encoding: UTF-8
Language: en
Country: GB
--></g></svg>