<?xml version="1.0" encoding="UTF-8" standalone="no"?><svg xmlns="http://www.w3.org/2000/svg" xmlns:xlink="http://www.w3.org/1999/xlink" contentScriptType="application/ecmascript" contentStyleType="text/css" height="109px" preserveAspectRatio="none" style="width:331px;height:109px;" version="1.1" viewBox="0 0 331 109" width="331px" zoomAndPan="magnify"><defs><filter height="300%" id="fssxekfgsdag7" width="300%" x="-1" y="-1"><feGaussianBlur result="blurOut" stdDeviation="2.0"/><feColorMatrix in="blurOut" result="blurOut2" type="matrix" values="0 0 0 0 0 0 0 0 0 0 0 0 0 0 0 0 0 0 .4 0"/><feOffset dx="4.0" dy="4.0" in="blurOut2" result="blurOut3"/><feBlend in="SourceGraphic" in2="blurOut3" mode="normal"/></filter></defs><g><!--MD5=[26b7c2a38ddd77bcef6b8b4910d4ad86]
class it.tidalwave.northernwind.frontend.media.impl.Metadata--><a href="Metadata.html" target="_top" title="Metadata.html" xlink:actuate="onRequest" xlink:href="Metadata.html" xlink:show="new" xlink:title="Metadata.html" xlink:type="simple"><rect codeLine="5" fill="#FEFECE" filter="url(#fssxekfgsdag7)" height="72.1758" id="it.tidalwave.northernwind.frontend.media.impl.Metadata" style="stroke: #A80036; stroke-width: 1.5;" width="305" x="7" y="7"/><ellipse cx="42.7" cy="26.1328" fill="#B4A7E5" rx="11" ry="11" style="stroke: #A80036; stroke-width: 1.0;"/><path d="M39.1277,22.3979 L39.1277,20.2397 L46.5071,20.2397 L46.5071,22.3979 L44.0418,22.3979 L44.0418,30.4746 L46.5071,30.4746 L46.5071,32.6328 L39.1277,32.6328 L39.1277,30.4746 L41.5931,30.4746 L41.5931,22.3979 Z "/><text fill="#000000" font-family="sans-serif" font-size="14" font-style="italic" lengthAdjust="spacingAndGlyphs" textLength="63" x="143.3" y="25.5352">Metadata</text><text fill="#000000" font-family="sans-serif" font-size="10" font-style="italic" lengthAdjust="spacingAndGlyphs" textLength="227" x="61.3" y="38.1563">it.tidalwave.northernwind.frontend.media.impl</text><line style="stroke: #A80036; stroke-width: 1.5;" x1="8" x2="311" y1="45.2656" y2="45.2656"/><ellipse cx="18" cy="56.2656" fill="#84BE84" rx="3" ry="3" style="stroke: #038048; stroke-width: 1.0;"/><text fill="#000000" font-family="sans-serif" font-size="11" font-style="italic" lengthAdjust="spacingAndGlyphs" textLength="279" x="27" y="59.9004">interpolateString(String, ResourceProperties): String</text><ellipse cx="18" cy="69.2207" fill="#84BE84" rx="3" ry="3" style="stroke: #038048; stroke-width: 1.0;"/><text fill="#000000" font-family="sans-serif" font-size="11" font-style="italic" lengthAdjust="spacingAndGlyphs" textLength="142" x="27" y="72.8555">getDirectory(Class&lt;T&gt;): T</text></a><text fill="#888888" font-family="sans-serif" font-size="10" lengthAdjust="spacingAndGlyphs" textLength="188" x="65.5" y="95.8438">UMLDoclet 2.0.12, PlantUML 1.2020.16</text><!--MD5=[7ec7784aba74cc352b33e9a3e9ed2429]
@startuml
    set namespaceSeparator none
    hide empty fields
    hide empty methods

    interface "<size:14>Metadata\n<size:10>it.tidalwave.northernwind.frontend.media.impl" as it.tidalwave.northernwind.frontend.media.impl.Metadata [[Metadata.html]] {
        {abstract} +interpolateString(String, ResourceProperties): String
        {abstract} +getDirectory(Class<T>): T
    }

    center footer UMLDoclet 2.0.12, PlantUML 1.2020.16
@enduml

PlantUML version 1.2020.16(Sun Aug 23 22:20:43 CEST 2020)
(APACHE source distribution)
Java Runtime: OpenJDK Runtime Environment
JVM: OpenJDK 64-Bit Server VM
Default Encoding: UTF-8
Language: en
Country: GB
--></g></svg>