@startuml
    set namespaceSeparator none
    hide empty fields
    hide empty methods

    class "<size:14>HtmlHolder\n<size:10>it.tidalwave.northernwind.frontend.ui.component.htmltemplate" as it.tidalwave.northernwind.frontend.ui.component.htmltemplate.HtmlHolder [[HtmlHolder.html]] {
        +HtmlHolder(Id)
        +HtmlHolder(String)
        +setClassName(String): void
    }

    class "<size:14>TextHolder\n<size:10>it.tidalwave.northernwind.frontend.ui.component.htmltemplate" as it.tidalwave.northernwind.frontend.ui.component.htmltemplate.TextHolder [[TextHolder.html]]

    it.tidalwave.northernwind.frontend.ui.component.htmltemplate.TextHolder <|-- it.tidalwave.northernwind.frontend.ui.component.htmltemplate.HtmlHolder

    center footer UMLDoclet 2.0.12, PlantUML 1.2020.16
@enduml
