<?xml version="1.0" encoding="UTF-8" standalone="no"?><svg xmlns="http://www.w3.org/2000/svg" xmlns:xlink="http://www.w3.org/1999/xlink" contentScriptType="application/ecmascript" contentStyleType="text/css" height="386px" preserveAspectRatio="none" style="width:1055px;height:386px;" version="1.1" viewBox="0 0 1055 386" width="1055px" zoomAndPan="magnify"><defs/><g><text fill="#000000" font-family="sans-serif" font-size="12" lengthAdjust="spacingAndGlyphs" textLength="126" x="5" y="16.6016">An error has occured!</text><text fill="#000000" font-family="sans-serif" font-size="12" font-style="italic" lengthAdjust="spacingAndGlyphs" textLength="321" x="5" y="30.7344">Take it easy, don't push the little button on the joystick!</text><text fill="#000000" font-family="sans-serif" font-size="12" lengthAdjust="spacingAndGlyphs" textLength="0" x="9" y="44.8672"/><text fill="#000000" font-family="sans-serif" font-size="12" lengthAdjust="spacingAndGlyphs" textLength="236" x="5" y="59">Diagram size: 13 lines / 388 characters.</text><text fill="#000000" font-family="sans-serif" font-size="12" lengthAdjust="spacingAndGlyphs" textLength="0" x="9" y="73.1328"/><text fill="#000000" font-family="sans-serif" font-size="12" lengthAdjust="spacingAndGlyphs" textLength="261" x="5" y="87.2656">For some reason, dot/GraphViz has crashed.</text><text fill="#000000" font-family="sans-serif" font-size="12" lengthAdjust="spacingAndGlyphs" textLength="307" x="5" y="101.3984">This has been generated with PlantUML (1.2020.16).</text><text fill="#000000" font-family="sans-serif" font-size="12" lengthAdjust="spacingAndGlyphs" textLength="321" x="5" y="115.5313">This version of PlantUML is 884 days old, so you should</text><text fill="#000000" font-family="sans-serif" font-size="12" lengthAdjust="spacingAndGlyphs" textLength="332" x="13" y="129.6641">consider upgrading from https://plantuml.com/download</text><text fill="#000000" font-family="sans-serif" font-size="12" lengthAdjust="spacingAndGlyphs" textLength="0" x="9" y="143.7969"/><text fill="#000000" font-family="sans-serif" font-size="12" lengthAdjust="spacingAndGlyphs" textLength="261" x="5" y="157.9297">Java Runtime: OpenJDK Runtime Environment</text><text fill="#000000" font-family="sans-serif" font-size="12" lengthAdjust="spacingAndGlyphs" textLength="185" x="5" y="172.0625">JVM: OpenJDK 64-Bit Server VM</text><text fill="#000000" font-family="sans-serif" font-size="12" lengthAdjust="spacingAndGlyphs" textLength="142" x="5" y="186.1953">Default Encoding: UTF-8</text><text fill="#000000" font-family="sans-serif" font-size="12" lengthAdjust="spacingAndGlyphs" textLength="77" x="5" y="200.3281">Language: en</text><text fill="#000000" font-family="sans-serif" font-size="12" lengthAdjust="spacingAndGlyphs" textLength="68" x="5" y="214.4609">Country: GB</text><text fill="#000000" font-family="sans-serif" font-size="12" lengthAdjust="spacingAndGlyphs" textLength="0" x="9" y="228.5938"/><text fill="#000000" font-family="sans-serif" font-size="12" lengthAdjust="spacingAndGlyphs" textLength="167" x="5" y="242.7266">PLANTUML_LIMIT_SIZE: 4096</text><text fill="#000000" font-family="sans-serif" font-size="12" lengthAdjust="spacingAndGlyphs" textLength="0" x="9" y="256.8594"/><text fill="#000000" font-family="sans-serif" font-size="12" lengthAdjust="spacingAndGlyphs" textLength="904" x="5" y="270.9922">Default dot version: docker: Cannot connect to the Docker daemon at unix:///var/run/docker.sock. Is the docker daemon running?. See 'docker run --help'.</text><text fill="#000000" font-family="sans-serif" font-size="12" lengthAdjust="spacingAndGlyphs" textLength="0" x="9" y="285.125"/><text fill="#000000" font-family="sans-serif" font-size="12" lengthAdjust="spacingAndGlyphs" textLength="467" x="5" y="299.2578">Please go to https://plantuml.com/graphviz-dot to check your GraphViz version.</text><text fill="#000000" font-family="sans-serif" font-size="12" lengthAdjust="spacingAndGlyphs" textLength="0" x="9" y="313.3906"/><text fill="#000000" font-family="sans-serif" font-size="12" lengthAdjust="spacingAndGlyphs" textLength="275" x="5" y="327.5234">You should send this diagram and this image to</text><text fill="#000000" font-family="sans-serif" font-size="12" font-weight="bold" lengthAdjust="spacingAndGlyphs" textLength="130" x="284" y="327.5234">plantuml@gmail.com</text><text fill="#000000" font-family="sans-serif" font-size="12" lengthAdjust="spacingAndGlyphs" textLength="12" x="418" y="327.5234">or</text><text fill="#000000" font-family="sans-serif" font-size="12" lengthAdjust="spacingAndGlyphs" textLength="40" x="5" y="341.6563">post to</text><text fill="#000000" font-family="sans-serif" font-size="12" font-weight="bold" lengthAdjust="spacingAndGlyphs" textLength="157" x="49" y="341.6563">https://plantuml.com/qa</text><text fill="#000000" font-family="sans-serif" font-size="12" lengthAdjust="spacingAndGlyphs" textLength="105" x="210" y="341.6563">to solve this issue.</text><text fill="#000000" font-family="sans-serif" font-size="12" lengthAdjust="spacingAndGlyphs" textLength="375" x="5" y="355.7891">You can try to turn arround this issue by simplifing your diagram.</text><image height="46" width="107" x="938" xlink:href="data:image/png;base64,iVBORw0KGgoAAAANSUhEUgAAAGsAAAAuCAYAAAAvKufTAAACSUlEQVR4Xu2PQWrFQAzFev/DdVHoeVpwN0FY1E48MIERaKM85vt/fPzxc3yFAeNxTwPG454GjMc9DRiPexowtq3wZG9WsP1UN3jrgAFj2wpP9mYF2091g7cOGDC2rfBkb1aw/VQ3eOuAAeOYdrz1rt13bD/VFxswjml/ynrX7ju2n+qLDRjHtD9lvWv3HdtP9cUGjGPan6rAtzIr2H6qG7x1wIBxTDu+At/KrGD7qW7w1gEDxjHt+Ap8K7OC7ae6wVsHDBjb2pHdPqW9P9XN7r5pwNjWjuz2Ke39qW52900DxrZ2ZLdPae9PdbO7bxowtq3wZG9WmNpbN3jrgAFj2wpP9maFqb11g7cOGDC2rfBkb1aY2ls3eOuAAeNxTwPG454GjMc9DRiPexowHvc0YDzuacBY8vPr+19t3+1mZc+7sz2/Zdqev5fJt24aMJbkQZm273azsufd2Z7fMm3P38vkWzcNGEvyoEzbd7tZ2fPubM9vmbbn72XyrZsGjCXtmLd30/bWFxgwlrQj395N21tfYMBY0o58ezdtb32BAWPJ7pHXvblizzuyPb9l2p6/l8m3bhowluwewz+QuWLPO7I9v2Xanr+XybduGjCW7B7DP5C5Ys87sj2/Zdqev5fJt24aMJa0Y97eTdtbX2DAWNKOfHs3bW99gQFjSTvy7d20vfUFBowlr0eatt+tm7a3bl73DwwYS/KgTNvv1k3bWzev+wcGjCV5UKbtd+um7a2b1/0DA8bjngaMxz0NGI97GjAe9zRgPG7oL5d+9xVo7hUJAAAAAElFTkSuQmCC" y="6"/><text fill="#888888" font-family="sans-serif" font-size="10" lengthAdjust="spacingAndGlyphs" textLength="188" x="431.5" y="372.9883">UMLDoclet 2.0.12, PlantUML 1.2020.16</text><!--MD5=[5f1543a6b324e094af2349126f6f120d]
@startuml
    set namespaceSeparator none
    hide circle
    hide empty fields
    hide empty methods

    it.tidalwave.accounting.ui.customerexplorer - -> it.tidalwave.role.ui

    ' Package links
    class "it.tidalwave.accounting.ui.customerexplorer" [[it/tidalwave/accounting/ui/customerexplorer/package-summary.html]] {
    }

    center footer UMLDoclet 2.0.12, PlantUML 1.2020.16
@enduml

@startuml
    set namespaceSeparator none
    hide circle
    hide empty fields
    hide empty methods

    it.tidalwave.accounting.ui.customerexplorer - -> it.tidalwave.role.ui

    class "it.tidalwave.accounting.ui.customerexplorer" [[it/tidalwave/accounting/ui/customerexplorer/package-summary.html]] {
    }

    center footer UMLDoclet 2.0.12, PlantUML 1.2020.16
@enduml

PlantUML version 1.2020.16(Sun Aug 23 22:20:43 CEST 2020)
(APACHE source distribution)
Java Runtime: OpenJDK Runtime Environment
JVM: OpenJDK 64-Bit Server VM
Default Encoding: UTF-8
Language: en
Country: GB
--></g></svg>