@startuml
    set namespaceSeparator none
    hide empty fields
    hide empty methods

    class "<size:14>ApplyUnsharpMaskOp\n<size:10>it.tidalwave.image.op" as it.tidalwave.image.op.ApplyUnsharpMaskOp [[ApplyUnsharpMaskOp.html]] {
        +ApplyUnsharpMaskOp(double, double, double)
        +getIntensity(): double
        +getRadius(): double
        +getThreshold(): double
    }

    abstract class "<size:14>Operation\n<size:10>it.tidalwave.image.op" as it.tidalwave.image.op.Operation [[Operation.html]]

    it.tidalwave.image.op.Operation <|-- it.tidalwave.image.op.ApplyUnsharpMaskOp

    center footer UMLDoclet 2.0.12, PlantUML 1.2020.16
@enduml
