<?xml version="1.0" encoding="UTF-8" standalone="no"?><svg xmlns="http://www.w3.org/2000/svg" xmlns:xlink="http://www.w3.org/1999/xlink" contentScriptType="application/ecmascript" contentStyleType="text/css" height="213px" preserveAspectRatio="none" style="width:205px;height:213px;" version="1.1" viewBox="0 0 205 213" width="205px" zoomAndPan="magnify"><defs><filter height="300%" id="f74abknkpn22w" width="300%" x="-1" y="-1"><feGaussianBlur result="blurOut" stdDeviation="2.0"/><feColorMatrix in="blurOut" result="blurOut2" type="matrix" values="0 0 0 0 0 0 0 0 0 0 0 0 0 0 0 0 0 0 .4 0"/><feOffset dx="4.0" dy="4.0" in="blurOut2" result="blurOut3"/><feBlend in="SourceGraphic" in2="blurOut3" mode="normal"/></filter></defs><g><!--MD5=[af6b1e35b620045bf3c014713f9a75ca]
class it.tidalwave.image.op.ChangeFormatOp--><a href="ChangeFormatOp.html" target="_top" title="ChangeFormatOp.html" xlink:actuate="onRequest" xlink:href="ChangeFormatOp.html" xlink:show="new" xlink:title="ChangeFormatOp.html" xlink:type="simple"><rect codeLine="5" fill="#FEFECE" filter="url(#f74abknkpn22w)" height="72.1758" id="it.tidalwave.image.op.ChangeFormatOp" style="stroke: #A80036; stroke-width: 1.5;" width="179" x="7.5" y="105"/><ellipse cx="33.75" cy="124.1328" fill="#ADD1B2" rx="11" ry="11" style="stroke: #A80036; stroke-width: 1.0;"/><path d="M36.2231,130.2759 Q35.6421,130.5747 35.0029,130.7241 Q34.3638,130.8735 33.6582,130.8735 Q31.1514,130.8735 29.8315,129.2217 Q28.5117,127.5698 28.5117,124.4487 Q28.5117,121.3193 29.8315,119.6675 Q31.1514,118.0156 33.6582,118.0156 Q34.3638,118.0156 35.0112,118.165 Q35.6587,118.3145 36.2231,118.6133 L36.2231,121.3359 Q35.5923,120.7549 34.9988,120.4851 Q34.4053,120.2153 33.7744,120.2153 Q32.4297,120.2153 31.7449,121.282 Q31.0601,122.3486 31.0601,124.4487 Q31.0601,126.5405 31.7449,127.6072 Q32.4297,128.6738 33.7744,128.6738 Q34.4053,128.6738 34.9988,128.4041 Q35.5923,128.1343 36.2231,127.5532 Z "/><text fill="#000000" font-family="sans-serif" font-size="14" lengthAdjust="spacingAndGlyphs" textLength="122" x="50.25" y="123.5352">ChangeFormatOp</text><text fill="#000000" font-family="sans-serif" font-size="10" lengthAdjust="spacingAndGlyphs" textLength="105" x="58.75" y="136.1563">it.tidalwave.image.op</text><line style="stroke: #A80036; stroke-width: 1.5;" x1="8.5" x2="185.5" y1="143.2656" y2="143.2656"/><ellipse cx="18.5" cy="154.2656" fill="#84BE84" rx="3" ry="3" style="stroke: #038048; stroke-width: 1.0;"/><text fill="#000000" font-family="sans-serif" font-size="11" lengthAdjust="spacingAndGlyphs" textLength="153" x="27.5" y="157.9004">ChangeFormatOp(DataType)</text><ellipse cx="18.5" cy="167.2207" fill="#84BE84" rx="3" ry="3" style="stroke: #038048; stroke-width: 1.0;"/><text fill="#000000" font-family="sans-serif" font-size="11" lengthAdjust="spacingAndGlyphs" textLength="107" x="27.5" y="170.8555">getType(): DataType</text></a><!--MD5=[38d98585b86eb6b7711a62ae1ef153dd]
class it.tidalwave.image.op.Operation--><a href="Operation.html" target="_top" title="Operation.html" xlink:actuate="onRequest" xlink:href="Operation.html" xlink:show="new" xlink:title="Operation.html" xlink:type="simple"><rect codeLine="10" fill="#FEFECE" filter="url(#f74abknkpn22w)" height="38.2656" id="it.tidalwave.image.op.Operation" style="stroke: #A80036; stroke-width: 1.5;" width="137" x="28.5" y="7"/><ellipse cx="43.5" cy="26.1328" fill="#A9DCDF" rx="11" ry="11" style="stroke: #A80036; stroke-width: 1.0;"/><path d="M43.3633,21.481 L42.2095,26.5527 L44.5254,26.5527 Z M41.8691,19.2397 L44.8657,19.2397 L48.2109,31.6328 L45.7622,31.6328 L44.9985,28.5698 L41.7197,28.5698 L40.9727,31.6328 L38.5239,31.6328 Z "/><text fill="#000000" font-family="sans-serif" font-size="14" font-style="italic" lengthAdjust="spacingAndGlyphs" textLength="69" x="75.5" y="25.5352">Operation</text><text fill="#000000" font-family="sans-serif" font-size="10" font-style="italic" lengthAdjust="spacingAndGlyphs" textLength="105" x="57.5" y="38.1563">it.tidalwave.image.op</text></a><!--MD5=[a06656f5490d42ab5df3c282cb73e182]
reverse link it.tidalwave.image.op.Operation to it.tidalwave.image.op.ChangeFormatOp--><path codeLine="12" d="M97,65.5888 C97,78.3573 97,92.4348 97,104.935 " fill="none" id="it.tidalwave.image.op.Operation-backto-it.tidalwave.image.op.ChangeFormatOp" style="stroke: #A80036; stroke-width: 1.0;"/><polygon fill="none" points="90.0001,65.2484,97,45.2484,104.0001,65.2484,90.0001,65.2484" style="stroke: #A80036; stroke-width: 1.0;"/><text fill="#888888" font-family="sans-serif" font-size="10" lengthAdjust="spacingAndGlyphs" textLength="188" x="0" y="199.8438">UMLDoclet 2.0.12, PlantUML 1.2020.16</text><!--MD5=[487ce06c34d998e8d774266ba7c2cff2]
@startuml
    set namespaceSeparator none
    hide empty fields
    hide empty methods

    class "<size:14>ChangeFormatOp\n<size:10>it.tidalwave.image.op" as it.tidalwave.image.op.ChangeFormatOp [[ChangeFormatOp.html]] {
        +ChangeFormatOp(DataType)
        +getType(): DataType
    }

    abstract class "<size:14>Operation\n<size:10>it.tidalwave.image.op" as it.tidalwave.image.op.Operation [[Operation.html]]

    it.tidalwave.image.op.Operation <|- - it.tidalwave.image.op.ChangeFormatOp

    center footer UMLDoclet 2.0.12, PlantUML 1.2020.16
@enduml

PlantUML version 1.2020.16(Sun Aug 23 22:20:43 CEST 2020)
(APACHE source distribution)
Java Runtime: OpenJDK Runtime Environment
JVM: OpenJDK 64-Bit Server VM
Default Encoding: UTF-8
Language: en
Country: GB
--></g></svg>