@startuml
    set namespaceSeparator none
    hide empty fields
    hide empty methods

    abstract class "<size:14>OperationImplementation\n<size:10>it.tidalwave.image.op" as it.tidalwave.image.op.OperationImplementation<Op extends Operation, Model> [[OperationImplementation.html]] {
        +execute(EditableImage, Object): Object
        +canHandle(Op extends Operation): boolean
        #bind(Op extends Operation): void
        {abstract} #execute(Op extends Operation, EditableImage, Model): Model
    }

    center footer UMLDoclet 2.0.12, PlantUML 1.2020.16
@enduml
