<?xml version="1.0" encoding="UTF-8" standalone="no"?><svg xmlns="http://www.w3.org/2000/svg" xmlns:xlink="http://www.w3.org/1999/xlink" contentScriptType="application/ecmascript" contentStyleType="text/css" height="247px" preserveAspectRatio="none" style="width:342px;height:247px;" version="1.1" viewBox="0 0 342 247" width="342px" zoomAndPan="magnify"><defs><filter height="300%" id="f1m8pe6plh11ds" width="300%" x="-1" y="-1"><feGaussianBlur result="blurOut" stdDeviation="2.0"/><feColorMatrix in="blurOut" result="blurOut2" type="matrix" values="0 0 0 0 0 0 0 0 0 0 0 0 0 0 0 0 0 0 .4 0"/><feOffset dx="4.0" dy="4.0" in="blurOut2" result="blurOut3"/><feBlend in="SourceGraphic" in2="blurOut3" mode="normal"/></filter></defs><g><!--MD5=[f06195a1ca3ee9f0f3e88c0f5ac415df]
class it.tidalwave.image.op.ReadOp.Type--><a href="ReadOp.Type.html" target="_top" title="ReadOp.Type.html" xlink:actuate="onRequest" xlink:href="ReadOp.Type.html" xlink:show="new" xlink:title="ReadOp.Type.html" xlink:type="simple"><rect codeLine="5" fill="#FEFECE" filter="url(#f1m8pe6plh11ds)" height="106.0859" id="it.tidalwave.image.op.ReadOp.Type" style="stroke: #A80036; stroke-width: 1.5;" width="180" x="77" y="105"/><ellipse cx="111.35" cy="124.1328" fill="#EB937F" rx="11" ry="11" style="stroke: #A80036; stroke-width: 1.0;"/><path d="M114.9643,130.6328 L107.2445,130.6328 L107.2445,118.2397 L114.9643,118.2397 L114.9643,120.3979 L109.6933,120.3979 L109.6933,123.0708 L114.4662,123.0708 L114.4662,125.229 L109.6933,125.229 L109.6933,128.4746 L114.9643,128.4746 Z "/><text fill="#000000" font-family="sans-serif" font-size="14" lengthAdjust="spacingAndGlyphs" textLength="91" x="136.65" y="123.5352">ReadOp.Type</text><text fill="#000000" font-family="sans-serif" font-size="10" lengthAdjust="spacingAndGlyphs" textLength="105" x="129.65" y="136.1563">it.tidalwave.image.op</text><line style="stroke: #A80036; stroke-width: 1.5;" x1="78" x2="256" y1="143.2656" y2="143.2656"/><ellipse cx="88" cy="154.2656" fill="none" rx="3" ry="3" style="stroke: #038048; stroke-width: 1.0;"/><text fill="#000000" font-family="sans-serif" font-size="11" lengthAdjust="spacingAndGlyphs" text-decoration="underline" textLength="34" x="97" y="157.9004">IMAGE</text><ellipse cx="88" cy="167.2207" fill="none" rx="3" ry="3" style="stroke: #038048; stroke-width: 1.0;"/><text fill="#000000" font-family="sans-serif" font-size="11" lengthAdjust="spacingAndGlyphs" text-decoration="underline" textLength="63" x="97" y="170.8555">THUMBNAIL</text><ellipse cx="88" cy="180.1758" fill="none" rx="3" ry="3" style="stroke: #038048; stroke-width: 1.0;"/><text fill="#000000" font-family="sans-serif" font-size="11" lengthAdjust="spacingAndGlyphs" text-decoration="underline" textLength="61" x="97" y="183.8105">METADATA</text><line style="stroke: #A80036; stroke-width: 1.5;" x1="78" x2="256" y1="190.1309" y2="190.1309"/><polygon fill="#FFFF44" points="88,196.1309,92,200.1309,88,204.1309,84,200.1309" style="stroke: #B38D22; stroke-width: 1.0;"/><text fill="#000000" font-family="sans-serif" font-size="11" font-style="italic" lengthAdjust="spacingAndGlyphs" textLength="154" x="97" y="204.7656">read(ReadOp): EditableImage</text></a><!--MD5=[a6ddd717d3a6b542cece6fefea5aa258]
class it.tidalwave.image.op.ReadOp.Options--><a href="ReadOp.Options.html" target="_top" title="ReadOp.Options.html" xlink:actuate="onRequest" xlink:href="ReadOp.Options.html" xlink:show="new" xlink:title="ReadOp.Options.html" xlink:type="simple"><rect codeLine="12" fill="#FEFECE" filter="url(#f1m8pe6plh11ds)" height="38.2656" id="it.tidalwave.image.op.ReadOp.Options" style="stroke: #A80036; stroke-width: 1.5;" width="144" x="7" y="7"/><ellipse cx="22" cy="26.1328" fill="#B4A7E5" rx="11" ry="11" style="stroke: #A80036; stroke-width: 1.0;"/><path d="M18.4277,22.3979 L18.4277,20.2397 L25.8071,20.2397 L25.8071,22.3979 L23.3418,22.3979 L23.3418,30.4746 L25.8071,30.4746 L25.8071,32.6328 L18.4277,32.6328 L18.4277,30.4746 L20.8931,30.4746 L20.8931,22.3979 Z "/><text fill="#000000" font-family="sans-serif" font-size="14" font-style="italic" lengthAdjust="spacingAndGlyphs" textLength="112" x="36" y="25.5352">ReadOp.Options</text><text fill="#000000" font-family="sans-serif" font-size="10" font-style="italic" lengthAdjust="spacingAndGlyphs" textLength="105" x="39.5" y="38.1563">it.tidalwave.image.op</text></a><!--MD5=[7f2b2f4c8bbfe4318dda18c52beca036]
class it.tidalwave.image.op.ReadOp--><a href="ReadOp.html" target="_top" title="ReadOp.html" xlink:actuate="onRequest" xlink:href="ReadOp.html" xlink:show="new" xlink:title="ReadOp.html" xlink:type="simple"><rect codeLine="13" fill="#FEFECE" filter="url(#f1m8pe6plh11ds)" height="38.2656" id="it.tidalwave.image.op.ReadOp" style="stroke: #A80036; stroke-width: 1.5;" width="137" x="186.5" y="7"/><ellipse cx="201.5" cy="26.1328" fill="#ADD1B2" rx="11" ry="11" style="stroke: #A80036; stroke-width: 1.0;"/><path d="M203.9731,32.2759 Q203.3921,32.5747 202.7529,32.7241 Q202.1138,32.8735 201.4082,32.8735 Q198.9014,32.8735 197.5815,31.2217 Q196.2617,29.5698 196.2617,26.4487 Q196.2617,23.3193 197.5815,21.6675 Q198.9014,20.0156 201.4082,20.0156 Q202.1138,20.0156 202.7612,20.165 Q203.4087,20.3145 203.9731,20.6133 L203.9731,23.3359 Q203.3423,22.7549 202.7488,22.4851 Q202.1553,22.2153 201.5244,22.2153 Q200.1797,22.2153 199.4949,23.282 Q198.8101,24.3486 198.8101,26.4487 Q198.8101,28.5405 199.4949,29.6072 Q200.1797,30.6738 201.5244,30.6738 Q202.1553,30.6738 202.7488,30.4041 Q203.3423,30.1343 203.9731,29.5532 Z "/><text fill="#000000" font-family="sans-serif" font-size="14" lengthAdjust="spacingAndGlyphs" textLength="54" x="241" y="25.5352">ReadOp</text><text fill="#000000" font-family="sans-serif" font-size="10" lengthAdjust="spacingAndGlyphs" textLength="105" x="215.5" y="38.1563">it.tidalwave.image.op</text></a><!--MD5=[2283bb919bb7a509be5e6dd0a5e3cfc0]
reverse link it.tidalwave.image.op.ReadOp.Options to it.tidalwave.image.op.ReadOp.Type--><path codeLine="15" d="M103.1154,62.173 C111.8921,75.3382 122.0057,90.5085 131.5592,104.8388 " fill="none" id="it.tidalwave.image.op.ReadOp.Options-backto-it.tidalwave.image.op.ReadOp.Type" style="stroke: #A80036; stroke-width: 1.0; stroke-dasharray: 7.0,7.0;"/><polygon fill="none" points="97.0656,65.7179,91.796,45.1939,108.7144,57.952,97.0656,65.7179" style="stroke: #A80036; stroke-width: 1.0;"/><!--MD5=[6cfe60ea9b5da2bd53136a1af36dabaf]
reverse link it.tidalwave.image.op.ReadOp to it.tidalwave.image.op.ReadOp.Type--><path codeLine="16" d="M233.8553,57.7171 C224.4402,71.8397 213.0924,88.8613 202.4408,104.8388 " fill="none" id="it.tidalwave.image.op.ReadOp-backto-it.tidalwave.image.op.ReadOp.Type" style="stroke: #A80036; stroke-width: 1.0;"/><ellipse cx="237.7664" cy="51.8503" fill="#FFFFFF" rx="8" ry="8" style="stroke: #A80036; stroke-width: 1.0;"/><line style="stroke: #A80036; stroke-width: 1.0;" x1="233.3288" x2="242.204" y1="58.5067" y2="45.1939"/><line style="stroke: #A80036; stroke-width: 1.0;" x1="231.11" x2="244.4228" y1="47.4127" y2="56.2879"/><text fill="#888888" font-family="sans-serif" font-size="10" lengthAdjust="spacingAndGlyphs" textLength="188" x="68.25" y="233.7539">UMLDoclet 2.0.12, PlantUML 1.2020.16</text><!--MD5=[ed0705828a6d0fa6613c42ae0c1b2d16]
@startuml
    set namespaceSeparator none
    hide empty fields
    hide empty methods

    enum "<size:14>ReadOp.Type\n<size:10>it.tidalwave.image.op" as it.tidalwave.image.op.ReadOp.Type [[ReadOp.Type.html]] {
        {static} +IMAGE
        {static} +THUMBNAIL
        {static} +METADATA
        {abstract} #read(ReadOp): EditableImage
    }

    interface "<size:14>ReadOp.Options\n<size:10>it.tidalwave.image.op" as it.tidalwave.image.op.ReadOp.Options [[ReadOp.Options.html]]
    class "<size:14>ReadOp\n<size:10>it.tidalwave.image.op" as it.tidalwave.image.op.ReadOp [[ReadOp.html]]

    it.tidalwave.image.op.ReadOp.Options <|.. it.tidalwave.image.op.ReadOp.Type
    it.tidalwave.image.op.ReadOp +- - it.tidalwave.image.op.ReadOp.Type

    center footer UMLDoclet 2.0.12, PlantUML 1.2020.16
@enduml

PlantUML version 1.2020.16(Sun Aug 23 22:20:43 CEST 2020)
(APACHE source distribution)
Java Runtime: OpenJDK Runtime Environment
JVM: OpenJDK 64-Bit Server VM
Default Encoding: UTF-8
Language: en
Country: GB
--></g></svg>