@startuml
    set namespaceSeparator none
    hide empty fields
    hide empty methods

    class "<size:14>RotateQuadrantOp\n<size:10>it.tidalwave.image.op" as it.tidalwave.image.op.RotateQuadrantOp [[RotateQuadrantOp.html]] {
        +RotateQuadrantOp(int)
        +getDegrees(): int
    }

    abstract class "<size:14>Operation\n<size:10>it.tidalwave.image.op" as it.tidalwave.image.op.Operation [[Operation.html]]

    it.tidalwave.image.op.Operation <|-- it.tidalwave.image.op.RotateQuadrantOp

    center footer UMLDoclet 2.0.12, PlantUML 1.2020.16
@enduml
