@startuml
    set namespaceSeparator none
    hide empty fields
    hide empty methods

    class "<size:14>RotateOp\n<size:10>it.tidalwave.image.op" as it.tidalwave.image.op.RotateOp [[RotateOp.html]] {
        +RotateOp(double)
        +RotateOp(double, Quality)
        +getDegrees(): double
        +getQuality(): Quality
    }

    abstract class "<size:14>Operation\n<size:10>it.tidalwave.image.op" as it.tidalwave.image.op.Operation [[Operation.html]]

    it.tidalwave.image.op.Operation <|-- it.tidalwave.image.op.RotateOp

    center footer UMLDoclet 2.0.12, PlantUML 1.2020.16
@enduml
