@startuml
    set namespaceSeparator none
    hide empty fields
    hide empty methods

    class "<size:14>HtmlTemplateHtmlTextWithTitleViewController\n<size:10>it.tidalwave.northernwind.frontend.ui.component.htmltextwithtitle.htmltemplate" as it.tidalwave.northernwind.frontend.ui.component.htmltextwithtitle.htmltemplate.HtmlTemplateHtmlTextWithTitleViewController [[HtmlTemplateHtmlTextWithTitleViewController.html]] {
        +HtmlTemplateHtmlTextWithTitleViewController(HtmlTemplateHtmlTextWithTitleView, SiteNode)
        #render(List<TextWithTitle>): void
    }

    abstract class "<size:14>DefaultHtmlTextWithTitleViewController\n<size:10>it.tidalwave.northernwind.frontend.ui.component.htmltextwithtitle" as it.tidalwave.northernwind.frontend.ui.component.htmltextwithtitle.DefaultHtmlTextWithTitleViewController [[http://tidalwave.tidalwave.it/northernwind/it-tidalwave-northernwind-modules/it-tidalwave-northernwind-frontend-components/apidocs/it/tidalwave/northernwind/frontend/ui/component/htmltextwithtitle/DefaultHtmlTextWithTitleViewController.html?is-external=true]] {
        {abstract} #render(List<TextWithTitle>): void
    }

    it.tidalwave.northernwind.frontend.ui.component.htmltextwithtitle.DefaultHtmlTextWithTitleViewController <|-- it.tidalwave.northernwind.frontend.ui.component.htmltextwithtitle.htmltemplate.HtmlTemplateHtmlTextWithTitleViewController

    center footer UMLDoclet 2.0.12, PlantUML 1.2020.16
@enduml
