@startuml
    set namespaceSeparator none
    hide circle
    hide empty fields
    hide empty methods

    it.tidalwave.northernwind.profiling --> org.aspectj.lang
    it.tidalwave.northernwind.profiling --> it.tidalwave.northernwind.core.model
    it.tidalwave.northernwind.profiling.impl --> org.apache.commons.math3.stat.descriptive
    it.tidalwave.northernwind.profiling.impl --> it.tidalwave.northernwind.profiling
    it.tidalwave.northernwind.profiling.impl --> it.tidalwave.northernwind.core.model

    ' Package links
    class "it.tidalwave.northernwind.profiling" [[it/tidalwave/northernwind/profiling/package-summary.html]] {
    }
    class "it.tidalwave.northernwind.core.model" [[http://tidalwave.it/projects/northernwind/it-tidalwave-northernwind-modules/it-tidalwave-northernwind-core/apidocs/it/tidalwave/northernwind/core/model/package-summary.html?is-external=true]] {
    }
    class "it.tidalwave.northernwind.profiling.impl" [[it/tidalwave/northernwind/profiling/impl/package-summary.html]] {
    }

    center footer UMLDoclet 2.0.12, PlantUML 1.2020.16
@enduml
