<?xml version="1.0" encoding="UTF-8" standalone="no"?><svg xmlns="http://www.w3.org/2000/svg" xmlns:xlink="http://www.w3.org/1999/xlink" contentScriptType="application/ecmascript" contentStyleType="text/css" height="74px" preserveAspectRatio="none" style="width:202px;height:74px;" version="1.1" viewBox="0 0 202 74" width="202px" zoomAndPan="magnify"><defs><filter height="300%" id="f10z98c3qr4xy8" width="300%" x="-1" y="-1"><feGaussianBlur result="blurOut" stdDeviation="2.0"/><feColorMatrix in="blurOut" result="blurOut2" type="matrix" values="0 0 0 0 0 0 0 0 0 0 0 0 0 0 0 0 0 0 .4 0"/><feOffset dx="4.0" dy="4.0" in="blurOut2" result="blurOut3"/><feBlend in="SourceGraphic" in2="blurOut3" mode="normal"/></filter></defs><g><!--MD5=[4f9f8e827a92b0eb75191523c751e99d]
class it.tidalwave.actor.annotation.Actor--><a href="Actor.html" target="_top" title="Actor.html" xlink:actuate="onRequest" xlink:href="Actor.html" xlink:show="new" xlink:title="Actor.html" xlink:type="simple"><rect codeLine="5" fill="#FEFECE" filter="url(#f10z98c3qr4xy8)" height="37.5977" id="it.tidalwave.actor.annotation.Actor" style="stroke: #A80036; stroke-width: 1.5;" width="167" x="11.5" y="7"/><ellipse cx="26.5" cy="25.7988" fill="#E3664A" rx="11" ry="11" style="stroke: #A80036; stroke-width: 1.0;"/><path d="M31.375,24.5332 Q31.375,27.002 30.6875,28.4707 Q30,29.9395 28.8438,29.9395 Q27.6563,29.9395 27.6563,28.627 L27.6563,28.5645 L27.6719,28.2363 L27.625,28.2363 Q27.3125,29.0176 26.7813,29.4863 Q26.2656,29.9395 25.6719,29.9395 Q24.7813,29.9395 24.2813,29.1113 Q23.7969,28.2676 23.7969,26.7363 Q23.7969,25.4082 24.2031,24.2207 Q24.6094,23.0332 25.2969,22.3457 Q25.9844,21.6582 26.8438,21.6582 Q27.3906,21.6582 27.7344,22.0176 Q28.0938,22.377 28.2031,23.0957 L28.25,23.0957 L28.5156,21.8457 L29.6406,21.8457 L28.8281,26.0488 Q28.4844,27.7988 28.4844,28.3613 Q28.4844,28.6426 28.5625,28.7832 Q28.6563,28.9238 28.8906,28.9238 Q29.5156,28.9238 29.8906,27.7363 Q30.2813,26.5332 30.2813,24.5488 Q30.2813,22.2988 29.3906,20.9238 Q28.5156,19.5332 27.0625,19.5332 Q25.8281,19.5332 24.9063,20.4395 Q23.9844,21.3301 23.4844,22.9395 Q23,24.5488 23,26.5332 Q23,29.0957 23.9375,30.5957 Q24.8906,32.0801 26.5156,32.0801 Q27.2969,32.0801 28.0156,31.7832 Q28.7344,31.502 29.5781,30.7676 L30.1719,31.5801 Q29.2188,32.4082 28.3125,32.7676 Q27.4219,33.1426 26.4375,33.1426 Q25.0625,33.1426 24.0156,32.3301 Q22.9844,31.5332 22.4219,30.0176 Q21.8594,28.502 21.8594,26.5332 Q21.8594,24.1582 22.5,22.3301 Q23.1406,20.4863 24.3281,19.4863 Q25.5156,18.4863 27.0781,18.4863 Q28.3906,18.4863 29.3594,19.2363 Q30.3281,19.9863 30.8438,21.3613 Q31.375,22.7363 31.375,24.5332 Z M27.7656,24.2832 Q27.7656,22.6738 26.8594,22.6738 Q26.3594,22.6738 25.9531,23.252 Q25.5469,23.8145 25.3125,24.7676 Q25.0938,25.7207 25.0938,26.7207 Q25.0938,28.8926 25.8594,28.8926 Q26.4531,28.8926 26.875,28.1738 Q27.2969,27.4551 27.5313,26.1582 Q27.7656,24.8613 27.7656,24.2832 Z "/><text fill="#000000" font-family="sans-serif" font-size="14" lengthAdjust="spacingAndGlyphs" textLength="33" x="91.5" y="25.1318">Actor</text><text fill="#000000" font-family="sans-serif" font-size="10" lengthAdjust="spacingAndGlyphs" textLength="135" x="40.5" y="37.4785">it.tidalwave.actor.annotation</text></a><text fill="#888888" font-family="sans-serif" font-size="10" lengthAdjust="spacingAndGlyphs" textLength="190" x="0" y="60.9775">UMLDoclet 2.0.12, PlantUML 1.2020.16</text><!--MD5=[3b195dcb1d43458d3fb231d50947fe32]
@startuml
    set namespaceSeparator none
    hide empty fields
    hide empty methods

    annotation "<size:14>Actor\n<size:10>it.tidalwave.actor.annotation" as it.tidalwave.actor.annotation.Actor [[Actor.html]]

    center footer UMLDoclet 2.0.12, PlantUML 1.2020.16
@enduml

PlantUML version 1.2020.16(Sun Aug 23 22:20:43 CEST 2020)
(APACHE source distribution)
Java Runtime: OpenJDK Runtime Environment
JVM: OpenJDK 64-Bit Server VM
Default Encoding: UTF-8
Language: en
Country: US
--></g></svg>