@startuml
    set namespaceSeparator none
    hide empty fields
    hide empty methods

    interface "<size:14>IBizImporterPresentationControl\n<size:10>it.tidalwave.accounting.ui.importer.ibiz" as it.tidalwave.accounting.ui.importer.ibiz.IBizImporterPresentationControl [[IBizImporterPresentationControl.html]]

    center footer UMLDoclet 2.0.12, PlantUML 1.2020.16
@enduml
