@startuml
    set namespaceSeparator none
    hide empty fields
    hide empty methods

    interface "<size:14>GalleryAdapter\n<size:10>it.tidalwave.northernwind.frontend.ui.component.gallery.spi" as it.tidalwave.northernwind.frontend.ui.component.gallery.spi.GalleryAdapter [[GalleryAdapter.html]] {
        {abstract} +getExtraViewProperties(Id): ResourceProperties
        {abstract} +getInlinedScript(): String
        {abstract} +prepareCatalog(List<? extends GalleryItem>): void
        {abstract} +prepareGallery(GalleryItem, List<? extends GalleryItem>): void
        {abstract} +prepareFallbackGallery(GalleryItem, List<? extends GalleryItem>): void
        {abstract} +prepareFallbackLightbox(List<? extends GalleryItem>): void
        {abstract} +render(RenderContext): void
    }

    center footer UMLDoclet 2.0.12, PlantUML 1.2020.16
@enduml
