GROUP,PACKAGE,CLASS,INSTRUCTION_MISSED,INSTRUCTION_COVERED,BRANCH_MISSED,BRANCH_COVERED,LINE_MISSED,LINE_COVERED,COMPLEXITY_MISSED,COMPLEXITY_COVERED,METHOD_MISSED,METHOD_COVERED
TheseFoolishThings :: Examples :: DCI :: Displayable,it.tidalwave.thesefoolishthings.examples.dci.displayable,Main,0,27,0,0,0,5,0,3,0,3
TheseFoolishThings :: Examples :: DCI :: Displayable,it.tidalwave.thesefoolishthings.examples.dci.displayable,DisplayableExample,0,66,0,0,0,9,0,3,0,3
TheseFoolishThings :: Examples :: DCI :: Displayable,it.tidalwave.thesefoolishthings.examples.person,PersonDisplayable,0,17,0,0,0,1,0,1,0,1
TheseFoolishThings :: Examples :: DCI :: Displayable,it.tidalwave.thesefoolishthings.examples.person,PersonRenderable,0,19,0,0,0,2,0,1,0,1
TheseFoolishThings :: Examples :: DCI :: Displayable,it.tidalwave.thesefoolishthings.examples.dci.displayable.role,Displayable,0,3,0,0,0,1,0,1,0,1
TheseFoolishThings :: Examples :: DCI :: Displayable,it.tidalwave.thesefoolishthings.examples.dci.displayable.role,Renderable,0,3,0,0,0,1,0,1,0,1
