<?xml version="1.0" encoding="UTF-8" standalone="no"?><svg xmlns="http://www.w3.org/2000/svg" xmlns:xlink="http://www.w3.org/1999/xlink" contentScriptType="application/ecmascript" contentStyleType="text/css" height="118px" preserveAspectRatio="none" style="width:246px;height:118px;" version="1.1" viewBox="0 0 246 118" width="246px" zoomAndPan="magnify"><defs><filter height="300%" id="f1v0r82uyokici" width="300%" x="-1" y="-1"><feGaussianBlur result="blurOut" stdDeviation="2.0"/><feColorMatrix in="blurOut" result="blurOut2" type="matrix" values="0 0 0 0 0 0 0 0 0 0 0 0 0 0 0 0 0 0 .4 0"/><feOffset dx="4.0" dy="4.0" in="blurOut2" result="blurOut3"/><feBlend in="SourceGraphic" in2="blurOut3" mode="normal"/></filter></defs><g><!--MD5=[719701398cc32fd9d203db75b8efb4aa]
cluster it.tidalwave.util.annotation--><polygon fill="#FFFFFF" filter="url(#f1v0r82uyokici)" points="16,6,214,6,221,28.4883,224,28.4883,224,89,16,89,16,6" style="stroke: #000000; stroke-width: 1.5;"/><line style="stroke: #000000; stroke-width: 1.5;" x1="16" x2="221" y1="28.4883" y2="28.4883"/><text fill="#000000" font-family="sans-serif" font-size="14" font-weight="bold" lengthAdjust="spacingAndGlyphs" textLength="192" x="20" y="21.5352">it.tidalwave.util.annotation</text><!--MD5=[57ca5df4ea29156bf9e6aad3b9c7817c]
class it.tidalwave.util.annotation.VisibleForTesting--><a href="VisibleForTesting.html" target="_top" title="VisibleForTesting.html" xlink:actuate="onRequest" xlink:href="VisibleForTesting.html" xlink:show="new" xlink:title="VisibleForTesting.html" xlink:type="simple"><rect codeLine="3" fill="#FEFECE" filter="url(#f1v0r82uyokici)" height="48" id="it.tidalwave.util.annotation.VisibleForTesting" style="stroke: #A80036; stroke-width: 1.5;" width="130" x="55" y="33"/><ellipse cx="70" cy="49" fill="#E3664A" rx="11" ry="11" style="stroke: #A80036; stroke-width: 1.0;"/><path d="M72.5767,49.2261 Q72.5767,48.2881 72.1533,47.7568 Q71.73,47.2256 70.9912,47.2256 Q70.2524,47.2256 69.8333,47.7568 Q69.4141,48.2881 69.4141,49.2261 Q69.4141,50.1724 69.8333,50.7036 Q70.2524,51.2349 70.9912,51.2349 Q71.73,51.2349 72.1533,50.7036 Q72.5767,50.1724 72.5767,49.2261 Z M74.1206,52.6294 L72.4937,52.6294 L72.4937,51.9487 Q72.1782,52.3887 71.7507,52.592 Q71.3232,52.7954 70.7256,52.7954 Q69.3643,52.7954 68.53,51.8159 Q67.6958,50.8364 67.6958,49.2261 Q67.6958,47.624 68.5259,46.6487 Q69.356,45.6733 70.7256,45.6733 Q71.3149,45.6733 71.7632,45.8767 Q72.2114,46.0801 72.4937,46.4702 L72.4937,46.1299 Q72.4937,45.001 71.8752,44.3867 Q71.2568,43.7725 70.1113,43.7725 Q68.3848,43.7725 67.2932,45.2915 Q66.2017,46.8105 66.2017,49.2427 Q66.2017,51.791 67.4634,53.2976 Q68.7251,54.8042 70.8252,54.8042 Q71.4893,54.8042 72.1118,54.6091 Q72.7344,54.4141 73.3071,54.0239 L74.0708,55.4849 Q73.3984,55.9414 72.6057,56.1697 Q71.813,56.3979 70.9082,56.3979 Q68.0029,56.3979 66.2764,54.4639 Q64.5498,52.5298 64.5498,49.2427 Q64.5498,46.0303 66.1021,44.1003 Q67.6543,42.1704 70.2109,42.1704 Q72.0205,42.1704 73.0706,43.262 Q74.1206,44.3535 74.1206,46.2378 Z "/><text fill="#000000" font-family="sans-serif" font-size="12" lengthAdjust="spacingAndGlyphs" textLength="98" x="84" y="53.5352">VisibleForTesting</text><line style="stroke: #A80036; stroke-width: 1.5;" x1="56" x2="184" y1="65" y2="65"/><line style="stroke: #A80036; stroke-width: 1.5;" x1="56" x2="184" y1="73" y2="73"/></a><text fill="#888888" font-family="sans-serif" font-size="10" lengthAdjust="spacingAndGlyphs" textLength="188" x="20" y="104.668">UMLDoclet 2.0.12, PlantUML 1.2020.16</text><!--MD5=[5725807b695190acb8205ebd80c6babe]
@startuml
    namespace it.tidalwave.util.annotation {

        annotation VisibleForTesting [[VisibleForTesting.html]]

    }

    center footer UMLDoclet 2.0.12, PlantUML 1.2020.16
@enduml

PlantUML version 1.2020.16(Sun Aug 23 22:20:43 CEST 2020)
(APACHE source distribution)
Java Runtime: OpenJDK Runtime Environment
JVM: OpenJDK 64-Bit Server VM
Default Encoding: UTF-8
Language: en
Country: GB
--></g></svg>