<?xml version="1.0" encoding="UTF-8" standalone="no"?><svg xmlns="http://www.w3.org/2000/svg" xmlns:xlink="http://www.w3.org/1999/xlink" contentScriptType="application/ecmascript" contentStyleType="text/css" height="143px" preserveAspectRatio="none" style="width:301px;height:143px;" version="1.1" viewBox="0 0 301 143" width="301px" zoomAndPan="magnify"><defs><filter height="300%" id="f6ctejdupo4l6" width="300%" x="-1" y="-1"><feGaussianBlur result="blurOut" stdDeviation="2.0"/><feColorMatrix in="blurOut" result="blurOut2" type="matrix" values="0 0 0 0 0 0 0 0 0 0 0 0 0 0 0 0 0 0 .4 0"/><feOffset dx="4.0" dy="4.0" in="blurOut2" result="blurOut3"/><feBlend in="SourceGraphic" in2="blurOut3" mode="normal"/></filter></defs><g><!--MD5=[c4c289a19c40fe4e636fc9eb67c73418]
class it.tidalwave.role.StringRenderable--><a href="StringRenderable.html" target="_top" title="StringRenderable.html" xlink:actuate="onRequest" xlink:href="StringRenderable.html" xlink:show="new" xlink:title="StringRenderable.html" xlink:type="simple"><rect codeLine="5" fill="#FEFECE" filter="url(#f6ctejdupo4l6)" height="106.0859" id="it.tidalwave.role.StringRenderable" style="stroke: #A80036; stroke-width: 1.5;" width="275" x="7" y="7"/><ellipse cx="80.75" cy="26.1328" fill="#B4A7E5" rx="11" ry="11" style="stroke: #A80036; stroke-width: 1.0;"/><path d="M77.1777,22.3979 L77.1777,20.2397 L84.5571,20.2397 L84.5571,22.3979 L82.0918,22.3979 L82.0918,30.4746 L84.5571,30.4746 L84.5571,32.6328 L77.1777,32.6328 L77.1777,30.4746 L79.6431,30.4746 L79.6431,22.3979 Z "/><text fill="#000000" font-family="sans-serif" font-size="14" font-style="italic" lengthAdjust="spacingAndGlyphs" textLength="119" x="101.25" y="25.5352">StringRenderable</text><text fill="#000000" font-family="sans-serif" font-size="10" font-style="italic" lengthAdjust="spacingAndGlyphs" textLength="79" x="121.25" y="38.1563">it.tidalwave.role</text><line style="stroke: #A80036; stroke-width: 1.5;" x1="8" x2="281" y1="45.2656" y2="45.2656"/><ellipse cx="18" cy="56.2656" fill="none" rx="3" ry="3" style="stroke: #038048; stroke-width: 1.0;"/><text fill="#000000" font-family="sans-serif" font-size="11" lengthAdjust="spacingAndGlyphs" text-decoration="underline" textLength="249" x="27" y="59.9004">_StringRenderable_: Class&lt;StringRenderable&gt;</text><line style="stroke: #A80036; stroke-width: 1.5;" x1="8" x2="281" y1="66.2207" y2="66.2207"/><ellipse cx="18" cy="77.2207" fill="#84BE84" rx="3" ry="3" style="stroke: #038048; stroke-width: 1.0;"/><text fill="#000000" font-family="sans-serif" font-size="11" font-style="italic" lengthAdjust="spacingAndGlyphs" textLength="126" x="27" y="80.8555">render(Object...): String</text><ellipse cx="18" cy="90.1758" fill="#84BE84" rx="3" ry="3" style="stroke: #038048; stroke-width: 1.0;"/><text fill="#000000" font-family="sans-serif" font-size="11" lengthAdjust="spacingAndGlyphs" textLength="206" x="27" y="93.8105">renderTo(StringBuilder, Object...): void</text><ellipse cx="18" cy="103.1309" fill="#84BE84" rx="3" ry="3" style="stroke: #038048; stroke-width: 1.0;"/><text fill="#000000" font-family="sans-serif" font-size="11" lengthAdjust="spacingAndGlyphs" textLength="194" x="27" y="106.7656">renderTo(PrintWriter, Object...): void</text></a><text fill="#888888" font-family="sans-serif" font-size="10" lengthAdjust="spacingAndGlyphs" textLength="188" x="50.5" y="129.7539">UMLDoclet 2.0.12, PlantUML 1.2020.16</text><!--MD5=[f026b2dfa245ab515d8f94c4c2960cc0]
@startuml
    set namespaceSeparator none
    hide empty fields
    hide empty methods

    interface "<size:14>StringRenderable\n<size:10>it.tidalwave.role" as it.tidalwave.role.StringRenderable [[StringRenderable.html]] {
        {static} +_StringRenderable_: Class<StringRenderable>
        {abstract} +render(Object...): String
        +renderTo(StringBuilder, Object...): void
        +renderTo(PrintWriter, Object...): void
    }

    center footer UMLDoclet 2.0.12, PlantUML 1.2020.16
@enduml

PlantUML version 1.2020.16(Sun Aug 23 22:20:43 CEST 2020)
(APACHE source distribution)
Java Runtime: OpenJDK Runtime Environment
JVM: OpenJDK 64-Bit Server VM
Default Encoding: UTF-8
Language: en
Country: GB
--></g></svg>