<?xml version="1.0" encoding="UTF-8" standalone="no"?><svg xmlns="http://www.w3.org/2000/svg" xmlns:xlink="http://www.w3.org/1999/xlink" contentScriptType="application/ecmascript" contentStyleType="text/css" height="248px" preserveAspectRatio="none" style="width:240px;height:248px;" version="1.1" viewBox="0 0 240 248" width="240px" zoomAndPan="magnify"><defs><filter height="300%" id="fsdz8xnhvazkc" width="300%" x="-1" y="-1"><feGaussianBlur result="blurOut" stdDeviation="2.0"/><feColorMatrix in="blurOut" result="blurOut2" type="matrix" values="0 0 0 0 0 0 0 0 0 0 0 0 0 0 0 0 0 0 .4 0"/><feOffset dx="4.0" dy="4.0" in="blurOut2" result="blurOut3"/><feBlend in="SourceGraphic" in2="blurOut3" mode="normal"/></filter></defs><g><!--MD5=[8b7fbd086a6e353ab447b5943b2acac1]
class it.tidalwave.util.As.NotFoundBehaviour--><a href="As.NotFoundBehaviour.html" target="_top" title="As.NotFoundBehaviour.html" xlink:actuate="onRequest" xlink:href="As.NotFoundBehaviour.html" xlink:show="new" xlink:title="As.NotFoundBehaviour.html" xlink:type="simple"><rect codeLine="5" fill="#FEFECE" filter="url(#fsdz8xnhvazkc)" height="73.3535" id="it.tidalwave.util.As.NotFoundBehaviour" style="stroke: #A80036; stroke-width: 1.5;" width="201" x="13.5" y="139"/><ellipse cx="28.5" cy="165.1992" fill="#B4A7E5" rx="11" ry="11" style="stroke: #A80036; stroke-width: 1.0;"/><path d="M24.9277,161.4644 L24.9277,159.3062 L32.3071,159.3062 L32.3071,161.4644 L29.8418,161.4644 L29.8418,169.541 L32.3071,169.541 L32.3071,171.6992 L24.9277,171.6992 L24.9277,169.541 L27.3931,169.541 L27.3931,161.4644 Z "/><text fill="#000000" font-family="sans-serif" font-size="12" font-style="italic" lengthAdjust="spacingAndGlyphs" textLength="79" x="81.5" y="155.6016">«deprecated»</text><text fill="#000000" font-family="sans-serif" font-size="14" font-style="italic" lengthAdjust="spacingAndGlyphs" textLength="157" x="42.5" y="171.668">As.NotFoundBehaviour</text><text fill="#000000" font-family="sans-serif" font-size="10" font-style="italic" lengthAdjust="spacingAndGlyphs" textLength="76" x="83" y="184.2891">it.tidalwave.util</text><rect fill="#FFFFFF" height="16.1328" style="stroke: #000000; stroke-width: 1.0; stroke-dasharray: 2.0,2.0;" width="10" x="207.5" y="136"/><text fill="#000000" font-family="sans-serif" font-size="12" font-style="italic" lengthAdjust="spacingAndGlyphs" textLength="8" x="208.5" y="148.6016">T</text><line style="stroke: #A80036; stroke-width: 1.5;" x1="14.5" x2="213.5" y1="191.3984" y2="191.3984"/><ellipse cx="24.5" cy="202.3984" fill="#84BE84" rx="3" ry="3" style="stroke: #038048; stroke-width: 1.0;"/><text fill="#000000" font-family="sans-serif" font-size="11" font-style="italic" lengthAdjust="spacingAndGlyphs" textLength="96" x="33.5" y="206.0332">run(Throwable): T</text></a><!--MD5=[dab04e1bf87902def4158d0914d2f9d5]
class it.tidalwave.util.As--><a href="As.html" target="_top" title="As.html" xlink:actuate="onRequest" xlink:href="As.html" xlink:show="new" xlink:title="As.html" xlink:type="simple"><rect codeLine="9" fill="#FEFECE" filter="url(#fsdz8xnhvazkc)" height="72.1758" id="it.tidalwave.util.As" style="stroke: #A80036; stroke-width: 1.5;" width="214" x="7" y="7"/><ellipse cx="71.75" cy="26.1328" fill="#B4A7E5" rx="11" ry="11" style="stroke: #A80036; stroke-width: 1.0;"/><path d="M68.1777,22.3979 L68.1777,20.2397 L75.5571,20.2397 L75.5571,22.3979 L73.0918,22.3979 L73.0918,30.4746 L75.5571,30.4746 L75.5571,32.6328 L68.1777,32.6328 L68.1777,30.4746 L70.6431,30.4746 L70.6431,22.3979 Z "/><text fill="#000000" font-family="sans-serif" font-size="14" font-style="italic" lengthAdjust="spacingAndGlyphs" textLength="17" x="121.75" y="25.5352">As</text><text fill="#000000" font-family="sans-serif" font-size="10" font-style="italic" lengthAdjust="spacingAndGlyphs" textLength="76" x="92.25" y="38.1563">it.tidalwave.util</text><line style="stroke: #A80036; stroke-width: 1.5;" x1="8" x2="220" y1="45.2656" y2="45.2656"/><ellipse cx="18" cy="56.2656" fill="#84BE84" rx="3" ry="3" style="stroke: #038048; stroke-width: 1.0;"/><text fill="#000000" font-family="sans-serif" font-size="11" font-style="italic" lengthAdjust="spacingAndGlyphs" textLength="188" x="27" y="59.9004">maybeAs(Class&lt;T&gt;): Optional&lt;T&gt;</text><ellipse cx="18" cy="69.2207" fill="#84BE84" rx="3" ry="3" style="stroke: #038048; stroke-width: 1.0;"/><text fill="#000000" font-family="sans-serif" font-size="11" font-style="italic" lengthAdjust="spacingAndGlyphs" textLength="187" x="27" y="72.8555">asMany(Class&lt;T&gt;): Collection&lt;T&gt;</text></a><!--MD5=[d7f5b161456aa321b6bf4b864f5de21e]
reverse link it.tidalwave.util.As to it.tidalwave.util.As.NotFoundBehaviour--><path codeLine="14" d="M114,94.2067 C114,109.1032 114,125.0711 114,138.8772 " fill="none" id="it.tidalwave.util.As-backto-it.tidalwave.util.As.NotFoundBehaviour" style="stroke: #A80036; stroke-width: 1.0;"/><ellipse cx="114" cy="87.2062" fill="#FFFFFF" rx="8" ry="8" style="stroke: #A80036; stroke-width: 1.0;"/><line style="stroke: #A80036; stroke-width: 1.0;" x1="114" x2="114" y1="95.2062" y2="79.2062"/><line style="stroke: #A80036; stroke-width: 1.0;" x1="106" x2="122" y1="87.2062" y2="87.2062"/><text fill="#888888" font-family="sans-serif" font-size="10" lengthAdjust="spacingAndGlyphs" textLength="188" x="17" y="235.0215">UMLDoclet 2.0.12, PlantUML 1.2020.16</text><!--MD5=[ba99906ddffabebd0ab08658769dec38]
@startuml
    set namespaceSeparator none
    hide empty fields
    hide empty methods

    interface "<size:14>As.NotFoundBehaviour\n<size:10>it.tidalwave.util" as it.tidalwave.util.As.NotFoundBehaviour<T> <<deprecated>> [[As.NotFoundBehaviour.html]] {
        {abstract} +run(Throwable): T
    }

    interface "<size:14>As\n<size:10>it.tidalwave.util" as it.tidalwave.util.As [[As.html]] {
        {abstract} +maybeAs(Class<T>): Optional<T>
        {abstract} +asMany(Class<T>): Collection<T>
    }

    it.tidalwave.util.As +- - it.tidalwave.util.As.NotFoundBehaviour

    center footer UMLDoclet 2.0.12, PlantUML 1.2020.16
@enduml

PlantUML version 1.2020.16(Sun Aug 23 22:20:43 CEST 2020)
(APACHE source distribution)
Java Runtime: OpenJDK Runtime Environment
JVM: OpenJDK 64-Bit Server VM
Default Encoding: UTF-8
Language: en
Country: GB
--></g></svg>