<?xml version="1.0" encoding="UTF-8" standalone="no"?><svg xmlns="http://www.w3.org/2000/svg" xmlns:xlink="http://www.w3.org/1999/xlink" contentScriptType="application/ecmascript" contentStyleType="text/css" height="330px" preserveAspectRatio="none" style="width:526px;height:330px;" version="1.1" viewBox="0 0 526 330" width="526px" zoomAndPan="magnify"><defs><filter height="300%" id="f1loe2zakdkizz" width="300%" x="-1" y="-1"><feGaussianBlur result="blurOut" stdDeviation="2.0"/><feColorMatrix in="blurOut" result="blurOut2" type="matrix" values="0 0 0 0 0 0 0 0 0 0 0 0 0 0 0 0 0 0 .4 0"/><feOffset dx="4.0" dy="4.0" in="blurOut2" result="blurOut3"/><feBlend in="SourceGraphic" in2="blurOut3" mode="normal"/></filter></defs><g><!--MD5=[dab04e1bf87902def4158d0914d2f9d5]
class it.tidalwave.util.As--><a href="As.html" target="_top" title="As.html" xlink:actuate="onRequest" xlink:href="As.html" xlink:show="new" xlink:title="As.html" xlink:type="simple"><rect codeLine="5" fill="#FEFECE" filter="url(#f1loe2zakdkizz)" height="188.7715" id="it.tidalwave.util.As" style="stroke: #A80036; stroke-width: 1.5;" width="253" x="171" y="7"/><ellipse cx="255.25" cy="26.1328" fill="#B4A7E5" rx="11" ry="11" style="stroke: #A80036; stroke-width: 1.0;"/><path d="M251.6777,22.3979 L251.6777,20.2397 L259.0571,20.2397 L259.0571,22.3979 L256.5918,22.3979 L256.5918,30.4746 L259.0571,30.4746 L259.0571,32.6328 L251.6777,32.6328 L251.6777,30.4746 L254.1431,30.4746 L254.1431,22.3979 Z "/><text fill="#000000" font-family="sans-serif" font-size="14" font-style="italic" lengthAdjust="spacingAndGlyphs" textLength="17" x="305.25" y="25.5352">As</text><text fill="#000000" font-family="sans-serif" font-size="10" font-style="italic" lengthAdjust="spacingAndGlyphs" textLength="76" x="275.75" y="38.1563">it.tidalwave.util</text><line style="stroke: #A80036; stroke-width: 1.5;" x1="172" x2="423" y1="45.2656" y2="45.2656"/><ellipse cx="182" cy="56.2656" fill="#84BE84" rx="3" ry="3" style="stroke: #038048; stroke-width: 1.0;"/><text fill="#000000" font-family="sans-serif" font-size="11" lengthAdjust="spacingAndGlyphs" text-decoration="underline" textLength="114" x="191" y="59.9004">forObject(Object): As</text><ellipse cx="182" cy="69.2207" fill="#84BE84" rx="3" ry="3" style="stroke: #038048; stroke-width: 1.0;"/><text fill="#000000" font-family="sans-serif" font-size="11" lengthAdjust="spacingAndGlyphs" text-decoration="underline" textLength="155" x="191" y="72.8555">forObject(Object, Object): As</text><ellipse cx="182" cy="82.1758" fill="#84BE84" rx="3" ry="3" style="stroke: #038048; stroke-width: 1.0;"/><text fill="#000000" font-family="sans-serif" font-size="11" lengthAdjust="spacingAndGlyphs" text-decoration="underline" textLength="227" x="191" y="85.8105">forObject(Object, Collection&lt;Object&gt;): As</text><ellipse cx="182" cy="95.1309" fill="#84BE84" rx="3" ry="3" style="stroke: #038048; stroke-width: 1.0;"/><text fill="#000000" font-family="sans-serif" font-size="11" lengthAdjust="spacingAndGlyphs" textLength="87" x="191" y="98.7656">as(Class&lt;T&gt;): T</text><ellipse cx="182" cy="108.0859" fill="#84BE84" rx="3" ry="3" style="stroke: #038048; stroke-width: 1.0;"/><text fill="#000000" font-family="sans-serif" font-size="11" lengthAdjust="spacingAndGlyphs" text-decoration="line-through" textLength="12" x="191" y="111.7207">as</text><text fill="#000000" font-family="sans-serif" font-size="11" lengthAdjust="spacingAndGlyphs" textLength="212" x="203" y="111.7207">(Class&lt;T&gt;, NotFoundBehaviour&lt;T&gt;): T</text><ellipse cx="182" cy="121.041" fill="#84BE84" rx="3" ry="3" style="stroke: #038048; stroke-width: 1.0;"/><text fill="#000000" font-family="sans-serif" font-size="11" font-style="italic" lengthAdjust="spacingAndGlyphs" textLength="188" x="191" y="124.6758">maybeAs(Class&lt;T&gt;): Optional&lt;T&gt;</text><ellipse cx="182" cy="133.9961" fill="#84BE84" rx="3" ry="3" style="stroke: #038048; stroke-width: 1.0;"/><text fill="#000000" font-family="sans-serif" font-size="11" font-style="italic" lengthAdjust="spacingAndGlyphs" textLength="187" x="191" y="137.6309">asMany(Class&lt;T&gt;): Collection&lt;T&gt;</text><ellipse cx="182" cy="146.9512" fill="#84BE84" rx="3" ry="3" style="stroke: #038048; stroke-width: 1.0;"/><text fill="#000000" font-family="sans-serif" font-size="11" lengthAdjust="spacingAndGlyphs" text-decoration="underline" textLength="140" x="191" y="150.5859">type(Class&lt;?&gt;): Type&lt;T&gt;</text><ellipse cx="182" cy="159.9063" fill="#84BE84" rx="3" ry="3" style="stroke: #038048; stroke-width: 1.0;"/><text fill="#000000" font-family="sans-serif" font-size="11" lengthAdjust="spacingAndGlyphs" textLength="84" x="191" y="163.541">as(Type&lt;T&gt;): T</text><ellipse cx="182" cy="172.8613" fill="#84BE84" rx="3" ry="3" style="stroke: #038048; stroke-width: 1.0;"/><text fill="#000000" font-family="sans-serif" font-size="11" lengthAdjust="spacingAndGlyphs" textLength="185" x="191" y="176.4961">maybeAs(Type&lt;T&gt;): Optional&lt;T&gt;</text><ellipse cx="182" cy="185.8164" fill="#84BE84" rx="3" ry="3" style="stroke: #038048; stroke-width: 1.0;"/><text fill="#000000" font-family="sans-serif" font-size="11" lengthAdjust="spacingAndGlyphs" textLength="184" x="191" y="189.4512">asMany(Type&lt;T&gt;): Collection&lt;T&gt;</text></a><!--MD5=[8b7fbd086a6e353ab447b5943b2acac1]
class it.tidalwave.util.As.NotFoundBehaviour--><a href="As.NotFoundBehaviour.html" target="_top" title="As.NotFoundBehaviour.html" xlink:actuate="onRequest" xlink:href="As.NotFoundBehaviour.html" xlink:show="new" xlink:title="As.NotFoundBehaviour.html" xlink:type="simple"><rect codeLine="18" fill="#FEFECE" filter="url(#f1loe2zakdkizz)" height="38.2656" id="it.tidalwave.util.As.NotFoundBehaviour" style="stroke: #A80036; stroke-width: 1.5;" width="201" x="7" y="256"/><ellipse cx="22" cy="275.1328" fill="#B4A7E5" rx="11" ry="11" style="stroke: #A80036; stroke-width: 1.0;"/><path d="M18.4277,271.3979 L18.4277,269.2397 L25.8071,269.2397 L25.8071,271.3979 L23.3418,271.3979 L23.3418,279.4746 L25.8071,279.4746 L25.8071,281.6328 L18.4277,281.6328 L18.4277,279.4746 L20.8931,279.4746 L20.8931,271.3979 Z "/><text fill="#000000" font-family="sans-serif" font-size="14" font-style="italic" lengthAdjust="spacingAndGlyphs" textLength="157" x="36" y="274.5352">As.NotFoundBehaviour</text><text fill="#000000" font-family="sans-serif" font-size="10" font-style="italic" lengthAdjust="spacingAndGlyphs" textLength="76" x="76.5" y="287.1563">it.tidalwave.util</text><rect fill="#FFFFFF" height="16.1328" style="stroke: #000000; stroke-width: 1.0; stroke-dasharray: 2.0,2.0;" width="10" x="201" y="253"/><text fill="#000000" font-family="sans-serif" font-size="12" font-style="italic" lengthAdjust="spacingAndGlyphs" textLength="8" x="202" y="265.6016">T</text></a><!--MD5=[3638d370c8f45c38d5f01a714511ece9]
class it.tidalwave.util.As.Defaults--><a href="As.Defaults.html" target="_top" title="As.Defaults.html" xlink:actuate="onRequest" xlink:href="As.Defaults.html" xlink:show="new" xlink:title="As.Defaults.html" xlink:type="simple"><rect codeLine="19" fill="#FEFECE" filter="url(#f1loe2zakdkizz)" height="38.2656" id="it.tidalwave.util.As.Defaults" style="stroke: #A80036; stroke-width: 1.5;" width="109" x="243" y="256"/><ellipse cx="258" cy="275.1328" fill="#ADD1B2" rx="11" ry="11" style="stroke: #A80036; stroke-width: 1.0;"/><path d="M260.4731,281.2759 Q259.8921,281.5747 259.2529,281.7241 Q258.6138,281.8735 257.9082,281.8735 Q255.4014,281.8735 254.0815,280.2217 Q252.7617,278.5698 252.7617,275.4487 Q252.7617,272.3193 254.0815,270.6675 Q255.4014,269.0156 257.9082,269.0156 Q258.6138,269.0156 259.2612,269.165 Q259.9087,269.3145 260.4731,269.6133 L260.4731,272.3359 Q259.8423,271.7549 259.2488,271.4851 Q258.6553,271.2153 258.0244,271.2153 Q256.6797,271.2153 255.9949,272.282 Q255.3101,273.3486 255.3101,275.4487 Q255.3101,277.5405 255.9949,278.6072 Q256.6797,279.6738 258.0244,279.6738 Q258.6553,279.6738 259.2488,279.4041 Q259.8423,279.1343 260.4731,278.5532 Z "/><text fill="#000000" font-family="sans-serif" font-size="14" lengthAdjust="spacingAndGlyphs" textLength="77" x="272" y="274.5352">As.Defaults</text><text fill="#000000" font-family="sans-serif" font-size="10" lengthAdjust="spacingAndGlyphs" textLength="76" x="272.5" y="287.1563">it.tidalwave.util</text></a><!--MD5=[2ed00a69b476e19abf845fe0d2708ad9]
class it.tidalwave.util.As.Type--><a href="As.Type.html" target="_top" title="As.Type.html" xlink:actuate="onRequest" xlink:href="As.Type.html" xlink:show="new" xlink:title="As.Type.html" xlink:type="simple"><rect codeLine="20" fill="#FEFECE" filter="url(#f1loe2zakdkizz)" height="38.2656" id="it.tidalwave.util.As.Type" style="stroke: #A80036; stroke-width: 1.5;" width="120" x="387.5" y="256"/><ellipse cx="402.5" cy="275.1328" fill="#ADD1B2" rx="11" ry="11" style="stroke: #A80036; stroke-width: 1.0;"/><path d="M404.9731,281.2759 Q404.3921,281.5747 403.7529,281.7241 Q403.1138,281.8735 402.4082,281.8735 Q399.9014,281.8735 398.5815,280.2217 Q397.2617,278.5698 397.2617,275.4487 Q397.2617,272.3193 398.5815,270.6675 Q399.9014,269.0156 402.4082,269.0156 Q403.1138,269.0156 403.7612,269.165 Q404.4087,269.3145 404.9731,269.6133 L404.9731,272.3359 Q404.3423,271.7549 403.7488,271.4851 Q403.1553,271.2153 402.5244,271.2153 Q401.1797,271.2153 400.4949,272.282 Q399.8101,273.3486 399.8101,275.4487 Q399.8101,277.5405 400.4949,278.6072 Q401.1797,279.6738 402.5244,279.6738 Q403.1553,279.6738 403.7488,279.4041 Q404.3423,279.1343 404.9731,278.5532 Z "/><text fill="#000000" font-family="sans-serif" font-size="14" lengthAdjust="spacingAndGlyphs" textLength="54" x="427.5" y="274.5352">As.Type</text><text fill="#000000" font-family="sans-serif" font-size="10" lengthAdjust="spacingAndGlyphs" textLength="76" x="416.5" y="287.1563">it.tidalwave.util</text><rect fill="#FFFFFF" height="16.1328" style="stroke: #000000; stroke-width: 1.0; stroke-dasharray: 2.0,2.0;" width="10" x="500.5" y="253"/><text fill="#000000" font-family="sans-serif" font-size="12" font-style="italic" lengthAdjust="spacingAndGlyphs" textLength="8" x="501.5" y="265.6016">T</text></a><!--MD5=[d7f5b161456aa321b6bf4b864f5de21e]
reverse link it.tidalwave.util.As to it.tidalwave.util.As.NotFoundBehaviour--><path codeLine="22" d="M182.6115,206.4113 C161.8993,225.3249 142.5075,243.0326 128.6171,255.7167 " fill="none" id="it.tidalwave.util.As-backto-it.tidalwave.util.As.NotFoundBehaviour" style="stroke: #A80036; stroke-width: 1.0;"/><ellipse cx="187.9751" cy="201.5135" fill="#FFFFFF" rx="8" ry="8" style="stroke: #A80036; stroke-width: 1.0;"/><line style="stroke: #A80036; stroke-width: 1.0;" x1="182.0675" x2="193.8826" y1="206.9081" y2="196.119"/><line style="stroke: #A80036; stroke-width: 1.0;" x1="182.5805" x2="193.3696" y1="195.606" y2="207.4211"/><!--MD5=[af5b6056e886789d412fa9d4195faf94]
reverse link it.tidalwave.util.As to it.tidalwave.util.As.Defaults--><path codeLine="23" d="M297.5,211.3491 C297.5,228.3872 297.5,244.1432 297.5,255.7167 " fill="none" id="it.tidalwave.util.As-backto-it.tidalwave.util.As.Defaults" style="stroke: #A80036; stroke-width: 1.0;"/><ellipse cx="297.5001" cy="204.119" fill="#FFFFFF" rx="8" ry="8" style="stroke: #A80036; stroke-width: 1.0;"/><line style="stroke: #A80036; stroke-width: 1.0;" x1="297.5002" x2="297.5" y1="212.119" y2="196.119"/><line style="stroke: #A80036; stroke-width: 1.0;" x1="289.5001" x2="305.5001" y1="204.1191" y2="204.1189"/><!--MD5=[fca37a36938f99520e5f7a8fe75571de]
reverse link it.tidalwave.util.As to it.tidalwave.util.As.Type--><path codeLine="24" d="M389.33,207.7168 C405.2564,226.1382 420.1151,243.3248 430.8286,255.7167 " fill="none" id="it.tidalwave.util.As-backto-it.tidalwave.util.As.Type" style="stroke: #A80036; stroke-width: 1.0;"/><ellipse cx="384.5354" cy="202.1708" fill="#FFFFFF" rx="8" ry="8" style="stroke: #A80036; stroke-width: 1.0;"/><line style="stroke: #A80036; stroke-width: 1.0;" x1="389.7675" x2="379.3032" y1="208.2226" y2="196.119"/><line style="stroke: #A80036; stroke-width: 1.0;" x1="378.4835" x2="390.5872" y1="207.403" y2="196.9387"/><text fill="#888888" font-family="sans-serif" font-size="10" lengthAdjust="spacingAndGlyphs" textLength="188" x="160.25" y="316.9336">UMLDoclet 2.0.12, PlantUML 1.2020.16</text><!--MD5=[68c63c90e93e0b5759b1f23ffc2c9003]
@startuml
    set namespaceSeparator none
    hide empty fields
    hide empty methods

    interface "<size:14>As\n<size:10>it.tidalwave.util" as it.tidalwave.util.As [[As.html]] {
        {static} +forObject(Object): As
        {static} +forObject(Object, Object): As
        {static} +forObject(Object, Collection<Object>): As
        +as(Class<T>): T
        +- -as- -(Class<T>, NotFoundBehaviour<T>): T
        {abstract} +maybeAs(Class<T>): Optional<T>
        {abstract} +asMany(Class<T>): Collection<T>
        {static} +type(Class<?>): Type<T>
        +as(Type<T>): T
        +maybeAs(Type<T>): Optional<T>
        +asMany(Type<T>): Collection<T>
    }
    interface "<size:14>As.NotFoundBehaviour\n<size:10>it.tidalwave.util" as it.tidalwave.util.As.NotFoundBehaviour<T> [[As.NotFoundBehaviour.html]]
    class "<size:14>As.Defaults\n<size:10>it.tidalwave.util" as it.tidalwave.util.As.Defaults [[As.Defaults.html]]
    class "<size:14>As.Type\n<size:10>it.tidalwave.util" as it.tidalwave.util.As.Type<T> [[As.Type.html]]

    it.tidalwave.util.As +- - it.tidalwave.util.As.NotFoundBehaviour
    it.tidalwave.util.As +- - it.tidalwave.util.As.Defaults
    it.tidalwave.util.As +- - it.tidalwave.util.As.Type

    center footer UMLDoclet 2.0.12, PlantUML 1.2020.16
@enduml

PlantUML version 1.2020.16(Sun Aug 23 22:20:43 CEST 2020)
(APACHE source distribution)
Java Runtime: OpenJDK Runtime Environment
JVM: OpenJDK 64-Bit Server VM
Default Encoding: UTF-8
Language: en
Country: GB
--></g></svg>