@startuml
    set namespaceSeparator none
    hide empty fields
    hide empty methods

    class "<size:14>Finder.InMemorySortCriterion.DefaultInMemorySortCriterion\n<size:10>it.tidalwave.util" as it.tidalwave.util.Finder.InMemorySortCriterion.DefaultInMemorySortCriterion<T> [[Finder.InMemorySortCriterion.DefaultInMemorySortCriterion.html]] {
        +sort(List<? extends T>, SortDirection): void
    }

    interface "<size:14>Finder.InMemorySortCriterion\n<size:10>it.tidalwave.util" as it.tidalwave.util.Finder.InMemorySortCriterion<TYPE> [[Finder.InMemorySortCriterion.html]] {
        {abstract} +sort(List<? extends TYPE>, SortDirection): void
    }
    interface "<size:14>Serializable\n<size:10>java.io" as java.io.Serializable
    interface "<size:14>Finder.InMemorySortCriterion\n<size:10>it.tidalwave.util" as it.tidalwave.util.Finder.InMemorySortCriterion<TYPE> [[Finder.InMemorySortCriterion.html]] {
        {abstract} +sort(List<? extends TYPE>, SortDirection): void
    }

    it.tidalwave.util.Finder.InMemorySortCriterion <|.. it.tidalwave.util.Finder.InMemorySortCriterion.DefaultInMemorySortCriterion
    java.io.Serializable <|.. it.tidalwave.util.Finder.InMemorySortCriterion.DefaultInMemorySortCriterion
    it.tidalwave.util.Finder.InMemorySortCriterion +-- it.tidalwave.util.Finder.InMemorySortCriterion.DefaultInMemorySortCriterion

    center footer UMLDoclet 2.0.12, PlantUML 1.2020.16
@enduml
