<?xml version="1.0" encoding="UTF-8" standalone="no"?><svg xmlns="http://www.w3.org/2000/svg" xmlns:xlink="http://www.w3.org/1999/xlink" contentScriptType="application/ecmascript" contentStyleType="text/css" height="265px" preserveAspectRatio="none" style="width:2536px;height:265px;" version="1.1" viewBox="0 0 2536 265" width="2536px" zoomAndPan="magnify"><defs><filter height="300%" id="f5uqu4ljvo2b7" width="300%" x="-1" y="-1"><feGaussianBlur result="blurOut" stdDeviation="2.0"/><feColorMatrix in="blurOut" result="blurOut2" type="matrix" values="0 0 0 0 0 0 0 0 0 0 0 0 0 0 0 0 0 0 .4 0"/><feOffset dx="4.0" dy="4.0" in="blurOut2" result="blurOut3"/><feBlend in="SourceGraphic" in2="blurOut3" mode="normal"/></filter></defs><g><!--MD5=[4b2cdba6699f4d383d5c0d4d19a0a7fc]
class it.tidalwave.util.FunctionalCheckedExceptionWrappers--><a href="FunctionalCheckedExceptionWrappers.html" target="_top" title="FunctionalCheckedExceptionWrappers.html" xlink:actuate="onRequest" xlink:href="FunctionalCheckedExceptionWrappers.html" xlink:show="new" xlink:title="FunctionalCheckedExceptionWrappers.html" xlink:type="simple"><rect codeLine="5" fill="#FEFECE" filter="url(#f5uqu4ljvo2b7)" height="123.9961" id="it.tidalwave.util.FunctionalCheckedExceptionWrappers" style="stroke: #A80036; stroke-width: 1.5;" width="296" x="1130" y="7"/><ellipse cx="1145" cy="26.1328" fill="#ADD1B2" rx="11" ry="11" style="stroke: #A80036; stroke-width: 1.0;"/><path d="M1147.4731,32.2759 Q1146.8921,32.5747 1146.2529,32.7241 Q1145.6138,32.8735 1144.9082,32.8735 Q1142.4014,32.8735 1141.0815,31.2217 Q1139.7617,29.5698 1139.7617,26.4487 Q1139.7617,23.3193 1141.0815,21.6675 Q1142.4014,20.0156 1144.9082,20.0156 Q1145.6138,20.0156 1146.2612,20.165 Q1146.9087,20.3145 1147.4731,20.6133 L1147.4731,23.3359 Q1146.8423,22.7549 1146.2488,22.4851 Q1145.6553,22.2153 1145.0244,22.2153 Q1143.6797,22.2153 1142.9949,23.282 Q1142.3101,24.3486 1142.3101,26.4487 Q1142.3101,28.5405 1142.9949,29.6072 Q1143.6797,30.6738 1145.0244,30.6738 Q1145.6553,30.6738 1146.2488,30.4041 Q1146.8423,30.1343 1147.4731,29.5532 Z "/><text fill="#000000" font-family="sans-serif" font-size="14" lengthAdjust="spacingAndGlyphs" textLength="264" x="1159" y="25.5352">FunctionalCheckedExceptionWrappers</text><text fill="#000000" font-family="sans-serif" font-size="10" lengthAdjust="spacingAndGlyphs" textLength="76" x="1253" y="38.1563">it.tidalwave.util</text><line style="stroke: #A80036; stroke-width: 1.5;" x1="1131" x2="1425" y1="45.2656" y2="45.2656"/><ellipse cx="1141" cy="56.2656" fill="#84BE84" rx="3" ry="3" style="stroke: #038048; stroke-width: 1.0;"/><text fill="#000000" font-family="sans-serif" font-size="11" lengthAdjust="spacingAndGlyphs" text-decoration="underline" textLength="270" x="1150" y="59.9004">_f(FunctionWithException&lt;T, R&gt;): Function&lt;T, R&gt;</text><ellipse cx="1141" cy="69.2207" fill="#84BE84" rx="3" ry="3" style="stroke: #038048; stroke-width: 1.0;"/><text fill="#000000" font-family="sans-serif" font-size="11" lengthAdjust="spacingAndGlyphs" text-decoration="underline" textLength="264" x="1150" y="72.8555">_c(ConsumerWithException&lt;T&gt;): Consumer&lt;T&gt;</text><ellipse cx="1141" cy="82.1758" fill="#84BE84" rx="3" ry="3" style="stroke: #038048; stroke-width: 1.0;"/><text fill="#000000" font-family="sans-serif" font-size="11" lengthAdjust="spacingAndGlyphs" text-decoration="underline" textLength="240" x="1150" y="85.8105">_s(SupplierWithException&lt;T&gt;): Supplier&lt;T&gt;</text><ellipse cx="1141" cy="95.1309" fill="#84BE84" rx="3" ry="3" style="stroke: #038048; stroke-width: 1.0;"/><text fill="#000000" font-family="sans-serif" font-size="11" lengthAdjust="spacingAndGlyphs" text-decoration="underline" textLength="251" x="1150" y="98.7656">_p(PredicateWithException&lt;T&gt;): Predicate&lt;T&gt;</text><ellipse cx="1141" cy="108.0859" fill="#84BE84" rx="3" ry="3" style="stroke: #038048; stroke-width: 1.0;"/><text fill="#000000" font-family="sans-serif" font-size="11" lengthAdjust="spacingAndGlyphs" text-decoration="underline" textLength="201" x="1150" y="111.7207">_r(RunnableWithException): Runnable</text><ellipse cx="1141" cy="121.041" fill="#84BE84" rx="3" ry="3" style="stroke: #038048; stroke-width: 1.0;"/><text fill="#000000" font-family="sans-serif" font-size="11" lengthAdjust="spacingAndGlyphs" text-decoration="underline" textLength="266" x="1150" y="124.6758">wrappedException(Throwable): RuntimeException</text></a><!--MD5=[8788f1be001ebbbbcb0b76a72272cc16]
class it.tidalwave.util.FunctionalCheckedExceptionWrappers.FunctionWithException--><rect codeLine="13" fill="#FEFECE" filter="url(#f5uqu4ljvo2b7)" height="38.2656" id="it.tidalwave.util.FunctionalCheckedExceptionWrappers.FunctionWithException" style="stroke: #A80036; stroke-width: 1.5;" width="486" x="7" y="191"/><ellipse cx="22" cy="210.1328" fill="#B4A7E5" rx="11" ry="11" style="stroke: #A80036; stroke-width: 1.0;"/><path d="M18.4277,206.3979 L18.4277,204.2397 L25.8071,204.2397 L25.8071,206.3979 L23.3418,206.3979 L23.3418,214.4746 L25.8071,214.4746 L25.8071,216.6328 L18.4277,216.6328 L18.4277,214.4746 L20.8931,214.4746 L20.8931,206.3979 Z "/><text fill="#000000" font-family="sans-serif" font-size="14" font-style="italic" lengthAdjust="spacingAndGlyphs" textLength="426" x="36" y="209.5352">FunctionalCheckedExceptionWrappers.FunctionWithException</text><text fill="#000000" font-family="sans-serif" font-size="10" font-style="italic" lengthAdjust="spacingAndGlyphs" textLength="76" x="211" y="222.1563">it.tidalwave.util</text><rect fill="#FFFFFF" height="16.1328" style="stroke: #000000; stroke-width: 1.0; stroke-dasharray: 2.0,2.0;" width="26" x="470" y="188"/><text fill="#000000" font-family="sans-serif" font-size="12" font-style="italic" lengthAdjust="spacingAndGlyphs" textLength="24" x="471" y="200.6016">T, R</text><!--MD5=[c2f5f0fd05cccfd34e07cc7d785e0632]
class it.tidalwave.util.FunctionalCheckedExceptionWrappers.ConsumerWithException--><rect codeLine="14" fill="#FEFECE" filter="url(#f5uqu4ljvo2b7)" height="38.2656" id="it.tidalwave.util.FunctionalCheckedExceptionWrappers.ConsumerWithException" style="stroke: #A80036; stroke-width: 1.5;" width="481" x="528.5" y="191"/><ellipse cx="543.5" cy="210.1328" fill="#B4A7E5" rx="11" ry="11" style="stroke: #A80036; stroke-width: 1.0;"/><path d="M539.9277,206.3979 L539.9277,204.2397 L547.3071,204.2397 L547.3071,206.3979 L544.8418,206.3979 L544.8418,214.4746 L547.3071,214.4746 L547.3071,216.6328 L539.9277,216.6328 L539.9277,214.4746 L542.3931,214.4746 L542.3931,206.3979 Z "/><text fill="#000000" font-family="sans-serif" font-size="14" font-style="italic" lengthAdjust="spacingAndGlyphs" textLength="437" x="557.5" y="209.5352">FunctionalCheckedExceptionWrappers.ConsumerWithException</text><text fill="#000000" font-family="sans-serif" font-size="10" font-style="italic" lengthAdjust="spacingAndGlyphs" textLength="76" x="738" y="222.1563">it.tidalwave.util</text><rect fill="#FFFFFF" height="16.1328" style="stroke: #000000; stroke-width: 1.0; stroke-dasharray: 2.0,2.0;" width="10" x="1002.5" y="188"/><text fill="#000000" font-family="sans-serif" font-size="12" font-style="italic" lengthAdjust="spacingAndGlyphs" textLength="8" x="1003.5" y="200.6016">T</text><!--MD5=[4138e4c1c5251aebd0fcd107e412d291]
class it.tidalwave.util.FunctionalCheckedExceptionWrappers.SupplierWithException--><rect codeLine="15" fill="#FEFECE" filter="url(#f5uqu4ljvo2b7)" height="38.2656" id="it.tidalwave.util.FunctionalCheckedExceptionWrappers.SupplierWithException" style="stroke: #A80036; stroke-width: 1.5;" width="467" x="1044.5" y="191"/><ellipse cx="1059.5" cy="210.1328" fill="#B4A7E5" rx="11" ry="11" style="stroke: #A80036; stroke-width: 1.0;"/><path d="M1055.9277,206.3979 L1055.9277,204.2397 L1063.3071,204.2397 L1063.3071,206.3979 L1060.8418,206.3979 L1060.8418,214.4746 L1063.3071,214.4746 L1063.3071,216.6328 L1055.9277,216.6328 L1055.9277,214.4746 L1058.3931,214.4746 L1058.3931,206.3979 Z "/><text fill="#000000" font-family="sans-serif" font-size="14" font-style="italic" lengthAdjust="spacingAndGlyphs" textLength="423" x="1073.5" y="209.5352">FunctionalCheckedExceptionWrappers.SupplierWithException</text><text fill="#000000" font-family="sans-serif" font-size="10" font-style="italic" lengthAdjust="spacingAndGlyphs" textLength="76" x="1247" y="222.1563">it.tidalwave.util</text><rect fill="#FFFFFF" height="16.1328" style="stroke: #000000; stroke-width: 1.0; stroke-dasharray: 2.0,2.0;" width="10" x="1504.5" y="188"/><text fill="#000000" font-family="sans-serif" font-size="12" font-style="italic" lengthAdjust="spacingAndGlyphs" textLength="8" x="1505.5" y="200.6016">T</text><!--MD5=[77ebc6ee832b26c2e81ca98277b7f59e]
class it.tidalwave.util.FunctionalCheckedExceptionWrappers.PredicateWithException--><rect codeLine="16" fill="#FEFECE" filter="url(#f5uqu4ljvo2b7)" height="38.2656" id="it.tidalwave.util.FunctionalCheckedExceptionWrappers.PredicateWithException" style="stroke: #A80036; stroke-width: 1.5;" width="473" x="1546.5" y="191"/><ellipse cx="1561.5" cy="210.1328" fill="#B4A7E5" rx="11" ry="11" style="stroke: #A80036; stroke-width: 1.0;"/><path d="M1557.9277,206.3979 L1557.9277,204.2397 L1565.3071,204.2397 L1565.3071,206.3979 L1562.8418,206.3979 L1562.8418,214.4746 L1565.3071,214.4746 L1565.3071,216.6328 L1557.9277,216.6328 L1557.9277,214.4746 L1560.3931,214.4746 L1560.3931,206.3979 Z "/><text fill="#000000" font-family="sans-serif" font-size="14" font-style="italic" lengthAdjust="spacingAndGlyphs" textLength="429" x="1575.5" y="209.5352">FunctionalCheckedExceptionWrappers.PredicateWithException</text><text fill="#000000" font-family="sans-serif" font-size="10" font-style="italic" lengthAdjust="spacingAndGlyphs" textLength="76" x="1752" y="222.1563">it.tidalwave.util</text><rect fill="#FFFFFF" height="16.1328" style="stroke: #000000; stroke-width: 1.0; stroke-dasharray: 2.0,2.0;" width="10" x="2012.5" y="188"/><text fill="#000000" font-family="sans-serif" font-size="12" font-style="italic" lengthAdjust="spacingAndGlyphs" textLength="8" x="2013.5" y="200.6016">T</text><!--MD5=[1fa27261f0d5b94ec101ba510df80032]
class it.tidalwave.util.FunctionalCheckedExceptionWrappers.RunnableWithException--><rect codeLine="17" fill="#FEFECE" filter="url(#f5uqu4ljvo2b7)" height="38.2656" id="it.tidalwave.util.FunctionalCheckedExceptionWrappers.RunnableWithException" style="stroke: #A80036; stroke-width: 1.5;" width="463" x="2054.5" y="191"/><ellipse cx="2069.5" cy="210.1328" fill="#B4A7E5" rx="11" ry="11" style="stroke: #A80036; stroke-width: 1.0;"/><path d="M2065.9277,206.3979 L2065.9277,204.2397 L2073.3071,204.2397 L2073.3071,206.3979 L2070.8418,206.3979 L2070.8418,214.4746 L2073.3071,214.4746 L2073.3071,216.6328 L2065.9277,216.6328 L2065.9277,214.4746 L2068.3931,214.4746 L2068.3931,206.3979 Z "/><text fill="#000000" font-family="sans-serif" font-size="14" font-style="italic" lengthAdjust="spacingAndGlyphs" textLength="431" x="2083.5" y="209.5352">FunctionalCheckedExceptionWrappers.RunnableWithException</text><text fill="#000000" font-family="sans-serif" font-size="10" font-style="italic" lengthAdjust="spacingAndGlyphs" textLength="76" x="2261" y="222.1563">it.tidalwave.util</text><!--MD5=[23e3bc87d14220cd7fe6aae632eb3385]
reverse link it.tidalwave.util.FunctionalCheckedExceptionWrappers to it.tidalwave.util.FunctionalCheckedExceptionWrappers.FunctionWithException--><path codeLine="19" d="M1114.7917,91.3856 C914.1562,118.9046 577.1493,165.1284 388.54,190.9979 " fill="none" id="it.tidalwave.util.FunctionalCheckedExceptionWrappers-backto-it.tidalwave.util.FunctionalCheckedExceptionWrappers.FunctionWithException" style="stroke: #A80036; stroke-width: 1.0;"/><ellipse cx="1121.966" cy="90.4016" fill="#FFFFFF" rx="8" ry="8" style="stroke: #A80036; stroke-width: 1.0;"/><line style="stroke: #A80036; stroke-width: 1.0;" x1="1114.0402" x2="1129.8918" y1="91.4887" y2="89.3144"/><line style="stroke: #A80036; stroke-width: 1.0;" x1="1120.8789" x2="1123.0532" y1="82.4758" y2="98.3273"/><!--MD5=[cc6b7765a2f63b590b2fa400d25f0b58]
reverse link it.tidalwave.util.FunctionalCheckedExceptionWrappers to it.tidalwave.util.FunctionalCheckedExceptionWrappers.ConsumerWithException--><path codeLine="20" d="M1115.1699,114.1062 C1021.3855,140.0857 908.4315,171.3755 837.6488,190.9833 " fill="none" id="it.tidalwave.util.FunctionalCheckedExceptionWrappers-backto-it.tidalwave.util.FunctionalCheckedExceptionWrappers.ConsumerWithException" style="stroke: #A80036; stroke-width: 1.0;"/><ellipse cx="1122.0406" cy="112.203" fill="#FFFFFF" rx="8" ry="8" style="stroke: #A80036; stroke-width: 1.0;"/><line style="stroke: #A80036; stroke-width: 1.0;" x1="1114.3309" x2="1129.7502" y1="114.3387" y2="110.0672"/><line style="stroke: #A80036; stroke-width: 1.0;" x1="1119.9048" x2="1124.1763" y1="104.4933" y2="119.9126"/><!--MD5=[cf1d553f22d0c1d202826d0d710cadbb]
reverse link it.tidalwave.util.FunctionalCheckedExceptionWrappers to it.tidalwave.util.FunctionalCheckedExceptionWrappers.SupplierWithException--><path codeLine="21" d="M1278,146.4678 C1278,162.9897 1278,178.9963 1278,190.8098 " fill="none" id="it.tidalwave.util.FunctionalCheckedExceptionWrappers-backto-it.tidalwave.util.FunctionalCheckedExceptionWrappers.SupplierWithException" style="stroke: #A80036; stroke-width: 1.0;"/><ellipse cx="1278" cy="139.2551" fill="#FFFFFF" rx="8" ry="8" style="stroke: #A80036; stroke-width: 1.0;"/><line style="stroke: #A80036; stroke-width: 1.0;" x1="1278" x2="1278" y1="147.2551" y2="131.2551"/><line style="stroke: #A80036; stroke-width: 1.0;" x1="1270" x2="1286" y1="139.2551" y2="139.2551"/><!--MD5=[d4c18eacdb25b3e562fcdf2bea2b5196]
reverse link it.tidalwave.util.FunctionalCheckedExceptionWrappers to it.tidalwave.util.FunctionalCheckedExceptionWrappers.PredicateWithException--><path codeLine="22" d="M1440.825,114.462 C1533.5952,140.3642 1644.9265,171.4488 1714.836,190.9681 " fill="none" id="it.tidalwave.util.FunctionalCheckedExceptionWrappers-backto-it.tidalwave.util.FunctionalCheckedExceptionWrappers.PredicateWithException" style="stroke: #A80036; stroke-width: 1.0;"/><ellipse cx="1433.8098" cy="112.5034" fill="#FFFFFF" rx="8" ry="8" style="stroke: #A80036; stroke-width: 1.0;"/><line style="stroke: #A80036; stroke-width: 1.0;" x1="1441.515" x2="1426.1045" y1="114.6548" y2="110.3519"/><line style="stroke: #A80036; stroke-width: 1.0;" x1="1431.6583" x2="1435.9612" y1="120.2086" y2="104.7981"/><!--MD5=[a6b9ccb01abe28284abe28aaf8dfe682]
reverse link it.tidalwave.util.FunctionalCheckedExceptionWrappers to it.tidalwave.util.FunctionalCheckedExceptionWrappers.RunnableWithException--><path codeLine="23" d="M1441.3178,91.8451 C1638.3111,119.4007 1965.8615,165.2187 2149.8359,190.9532 " fill="none" id="it.tidalwave.util.FunctionalCheckedExceptionWrappers-backto-it.tidalwave.util.FunctionalCheckedExceptionWrappers.RunnableWithException" style="stroke: #A80036; stroke-width: 1.0;"/><ellipse cx="1434.1151" cy="90.8376" fill="#FFFFFF" rx="8" ry="8" style="stroke: #A80036; stroke-width: 1.0;"/><line style="stroke: #A80036; stroke-width: 1.0;" x1="1442.0379" x2="1426.1922" y1="91.9458" y2="89.7293"/><line style="stroke: #A80036; stroke-width: 1.0;" x1="1433.0068" x2="1435.2233" y1="98.7604" y2="82.9147"/><text fill="#888888" font-family="sans-serif" font-size="10" lengthAdjust="spacingAndGlyphs" textLength="188" x="1165.25" y="251.9336">UMLDoclet 2.0.12, PlantUML 1.2020.16</text><!--MD5=[524b4c049724e68e6af99f8b432b1d32]
@startuml
    set namespaceSeparator none
    hide empty fields
    hide empty methods

    class "<size:14>FunctionalCheckedExceptionWrappers\n<size:10>it.tidalwave.util" as it.tidalwave.util.FunctionalCheckedExceptionWrappers [[FunctionalCheckedExceptionWrappers.html]] {
        {static} +_f(FunctionWithException<T, R>): Function<T, R>
        {static} +_c(ConsumerWithException<T>): Consumer<T>
        {static} +_s(SupplierWithException<T>): Supplier<T>
        {static} +_p(PredicateWithException<T>): Predicate<T>
        {static} +_r(RunnableWithException): Runnable
        {static} +wrappedException(Throwable): RuntimeException
    }
    interface "<size:14>FunctionalCheckedExceptionWrappers.FunctionWithException\n<size:10>it.tidalwave.util" as it.tidalwave.util.FunctionalCheckedExceptionWrappers.FunctionWithException<T, R>
    interface "<size:14>FunctionalCheckedExceptionWrappers.ConsumerWithException\n<size:10>it.tidalwave.util" as it.tidalwave.util.FunctionalCheckedExceptionWrappers.ConsumerWithException<T>
    interface "<size:14>FunctionalCheckedExceptionWrappers.SupplierWithException\n<size:10>it.tidalwave.util" as it.tidalwave.util.FunctionalCheckedExceptionWrappers.SupplierWithException<T>
    interface "<size:14>FunctionalCheckedExceptionWrappers.PredicateWithException\n<size:10>it.tidalwave.util" as it.tidalwave.util.FunctionalCheckedExceptionWrappers.PredicateWithException<T>
    interface "<size:14>FunctionalCheckedExceptionWrappers.RunnableWithException\n<size:10>it.tidalwave.util" as it.tidalwave.util.FunctionalCheckedExceptionWrappers.RunnableWithException

    it.tidalwave.util.FunctionalCheckedExceptionWrappers +- - it.tidalwave.util.FunctionalCheckedExceptionWrappers.FunctionWithException
    it.tidalwave.util.FunctionalCheckedExceptionWrappers +- - it.tidalwave.util.FunctionalCheckedExceptionWrappers.ConsumerWithException
    it.tidalwave.util.FunctionalCheckedExceptionWrappers +- - it.tidalwave.util.FunctionalCheckedExceptionWrappers.SupplierWithException
    it.tidalwave.util.FunctionalCheckedExceptionWrappers +- - it.tidalwave.util.FunctionalCheckedExceptionWrappers.PredicateWithException
    it.tidalwave.util.FunctionalCheckedExceptionWrappers +- - it.tidalwave.util.FunctionalCheckedExceptionWrappers.RunnableWithException

    center footer UMLDoclet 2.0.12, PlantUML 1.2020.16
@enduml

PlantUML version 1.2020.16(Sun Aug 23 22:20:43 CEST 2020)
(APACHE source distribution)
Java Runtime: OpenJDK Runtime Environment
JVM: OpenJDK 64-Bit Server VM
Default Encoding: UTF-8
Language: en
Country: GB
--></g></svg>