@startuml
    namespace it.tidalwave.thesefoolishthings.examples.extendedfinderexample {

        class PersonRegistryImpl2bTest [[PersonRegistryImpl2bTest.html]]

        class FinderExample2Test [[FinderExample2Test.html]] {
            +must_not_crash(): void
        }

        class PersonRegistryImpl2aTest [[PersonRegistryImpl2aTest.html]]

        class PersonFinderTestSupport [[PersonFinderTestSupport.html]] {
            +PersonFinderTestSupport(Supplier<PersonRegistry2>)
            +setup(): void
            +testAllPersons(): void
            +testAllPersonsSortedByFirstName(): void
            +testAllPersonsSortedByLastNameDescending(): void
            +testPersonRange(): void
            +testLastNameStartingWithB(): void
            +testLastNameStartingWithBSortedByFirstName(): void
            +testLastNameIsBerniniFirstResult(): void
        }

        PersonFinderTestSupport <|-- PersonRegistryImpl2bTest
        PersonFinderTestSupport <|-- PersonRegistryImpl2aTest
    }

    center footer UMLDoclet 2.0.12, PlantUML 1.2020.16
@enduml
