@startuml
    set namespaceSeparator none
    hide circle
    hide empty fields
    hide empty methods

    it.tidalwave.role.spring --> it.tidalwave.role.spi
    it.tidalwave.role.spring --> it.tidalwave.util
    it.tidalwave.role.spring.spi --> it.tidalwave.role.spi
    it.tidalwave.role.spring.spi --> org.springframework.beans.factory
    it.tidalwave.role.spring.spi --> org.aspectj.lang
    it.tidalwave.util.spring --> org.springframework.context.annotation
    it.tidalwave.util.spring --> org.springframework.core.type.filter

    ' Package links
    class "it.tidalwave.role.spring" [[it/tidalwave/role/spring/package-summary.html]] {
    }
    class "it.tidalwave.role.spi" [[https://tidalwave.bitbucket.io/thesefoolishthings/modules/it-tidalwave-util/apidocs/it/tidalwave/role/spi/package-summary.html?is-external=true]] {
    }
    class "it.tidalwave.util" [[https://tidalwave.bitbucket.io/thesefoolishthings/modules/it-tidalwave-util/apidocs/it/tidalwave/util/package-summary.html?is-external=true]] {
    }
    class "it.tidalwave.role.spring.spi" [[it/tidalwave/role/spring/spi/package-summary.html]] {
    }
    class "it.tidalwave.util.spring" [[it/tidalwave/util/spring/package-summary.html]] {
    }

    center footer UMLDoclet 2.0.12, PlantUML 1.2020.16
@enduml
