<?xml version="1.0" encoding="UTF-8" standalone="no"?><svg xmlns="http://www.w3.org/2000/svg" xmlns:xlink="http://www.w3.org/1999/xlink" contentScriptType="application/ecmascript" contentStyleType="text/css" height="252px" preserveAspectRatio="none" style="width:1224px;height:252px;" version="1.1" viewBox="0 0 1224 252" width="1224px" zoomAndPan="magnify"><defs><filter height="300%" id="fl3xlfbny16dy" width="300%" x="-1" y="-1"><feGaussianBlur result="blurOut" stdDeviation="2.0"/><feColorMatrix in="blurOut" result="blurOut2" type="matrix" values="0 0 0 0 0 0 0 0 0 0 0 0 0 0 0 0 0 0 .4 0"/><feOffset dx="4.0" dy="4.0" in="blurOut2" result="blurOut3"/><feBlend in="SourceGraphic" in2="blurOut3" mode="normal"/></filter></defs><g><!--MD5=[5a45adc290434634f44e7efc10620d44]
cluster it.tidalwave.northernwind.frontend.filesystem.basic--><polygon fill="#FFFFFF" filter="url(#fl3xlfbny16dy)" points="16,127,389,127,396,149.4883,1202,149.4883,1202,223,16,223,16,127" style="stroke: #000000; stroke-width: 1.5;"/><line style="stroke: #000000; stroke-width: 1.5;" x1="16" x2="396" y1="149.4883" y2="149.4883"/><text fill="#000000" font-family="sans-serif" font-size="14" font-weight="bold" lengthAdjust="spacingAndGlyphs" textLength="367" x="20" y="142.5352">it.tidalwave.northernwind.frontend.filesystem.basic</text><!--MD5=[739e9bb822fe15eb97bc3207575fcd8d]
cluster it.tidalwave.northernwind.core.model--><polygon fill="#FFFFFF" filter="url(#fl3xlfbny16dy)" points="690,6,960,6,967,28.4883,970,28.4883,970,102,690,102,690,6" style="stroke: #000000; stroke-width: 1.5;"/><line style="stroke: #000000; stroke-width: 1.5;" x1="690" x2="967" y1="28.4883" y2="28.4883"/><text fill="#000000" font-family="sans-serif" font-size="14" font-weight="bold" lengthAdjust="spacingAndGlyphs" textLength="264" x="694" y="21.5352">it.tidalwave.northernwind.core.model</text><!--MD5=[3b56ca121c01ddcf34832d010aed8056]
class it.tidalwave.northernwind.frontend.filesystem.basic.LocalFileSystemProvider--><a href="LocalFileSystemProvider.html" target="_top" title="LocalFileSystemProvider.html" xlink:actuate="onRequest" xlink:href="LocalFileSystemProvider.html" xlink:show="new" xlink:title="LocalFileSystemProvider.html" xlink:type="simple"><rect codeLine="3" fill="#FEFECE" filter="url(#fl3xlfbny16dy)" height="60.9551" id="it.tidalwave.northernwind.frontend.filesystem.basic.LocalFileSystemProvider" style="stroke: #A80036; stroke-width: 1.5;" width="219" x="974.5" y="154"/><ellipse cx="1012.45" cy="170" fill="#ADD1B2" rx="11" ry="11" style="stroke: #A80036; stroke-width: 1.0;"/><path d="M1014.9231,176.1431 Q1014.3421,176.4419 1013.7029,176.5913 Q1013.0638,176.7407 1012.3582,176.7407 Q1009.8514,176.7407 1008.5315,175.0889 Q1007.2117,173.437 1007.2117,170.3159 Q1007.2117,167.1865 1008.5315,165.5347 Q1009.8514,163.8828 1012.3582,163.8828 Q1013.0638,163.8828 1013.7112,164.0322 Q1014.3587,164.1816 1014.9231,164.4805 L1014.9231,167.2031 Q1014.2923,166.6221 1013.6988,166.3523 Q1013.1053,166.0825 1012.4744,166.0825 Q1011.1297,166.0825 1010.4449,167.1492 Q1009.7601,168.2158 1009.7601,170.3159 Q1009.7601,172.4077 1010.4449,173.4744 Q1011.1297,174.541 1012.4744,174.541 Q1013.1053,174.541 1013.6988,174.2712 Q1014.2923,174.0015 1014.9231,173.4204 Z "/><text fill="#000000" font-family="sans-serif" font-size="12" lengthAdjust="spacingAndGlyphs" textLength="136" x="1031.55" y="174.5352">LocalFileSystemProvider</text><line style="stroke: #A80036; stroke-width: 1.5;" x1="975.5" x2="1192.5" y1="186" y2="186"/><line style="stroke: #A80036; stroke-width: 1.5;" x1="975.5" x2="1192.5" y1="194" y2="194"/><ellipse cx="985.5" cy="205" fill="#84BE84" rx="3" ry="3" style="stroke: #038048; stroke-width: 1.0;"/><text fill="#000000" font-family="sans-serif" font-size="11" lengthAdjust="spacingAndGlyphs" textLength="193" x="994.5" y="208.6348">getFileSystem(): ResourceFileSystem</text></a><!--MD5=[11265b99746f5a916b16c74122786e59]
class it.tidalwave.northernwind.frontend.filesystem.basic.LocalCopyFileSystemProvider--><a href="LocalCopyFileSystemProvider.html" target="_top" title="LocalCopyFileSystemProvider.html" xlink:actuate="onRequest" xlink:href="LocalCopyFileSystemProvider.html" xlink:show="new" xlink:title="LocalCopyFileSystemProvider.html" xlink:type="simple"><rect codeLine="7" fill="#FEFECE" filter="url(#fl3xlfbny16dy)" height="60.9551" id="it.tidalwave.northernwind.frontend.filesystem.basic.LocalCopyFileSystemProvider" style="stroke: #A80036; stroke-width: 1.5;" width="219" x="720.5" y="154"/><ellipse cx="745.4" cy="170" fill="#ADD1B2" rx="11" ry="11" style="stroke: #A80036; stroke-width: 1.0;"/><path d="M747.8731,176.1431 Q747.2921,176.4419 746.6529,176.5913 Q746.0138,176.7407 745.3082,176.7407 Q742.8014,176.7407 741.4815,175.0889 Q740.1617,173.437 740.1617,170.3159 Q740.1617,167.1865 741.4815,165.5347 Q742.8014,163.8828 745.3082,163.8828 Q746.0138,163.8828 746.6612,164.0322 Q747.3087,164.1816 747.8731,164.4805 L747.8731,167.2031 Q747.2423,166.6221 746.6488,166.3523 Q746.0553,166.0825 745.4244,166.0825 Q744.0797,166.0825 743.3949,167.1492 Q742.7101,168.2158 742.7101,170.3159 Q742.7101,172.4077 743.3949,173.4744 Q744.0797,174.541 745.4244,174.541 Q746.0553,174.541 746.6488,174.2712 Q747.2423,174.0015 747.8731,173.4204 Z "/><text fill="#000000" font-family="sans-serif" font-size="12" lengthAdjust="spacingAndGlyphs" textLength="165" x="761.6" y="174.5352">LocalCopyFileSystemProvider</text><line style="stroke: #A80036; stroke-width: 1.5;" x1="721.5" x2="938.5" y1="186" y2="186"/><line style="stroke: #A80036; stroke-width: 1.5;" x1="721.5" x2="938.5" y1="194" y2="194"/><ellipse cx="731.5" cy="205" fill="#84BE84" rx="3" ry="3" style="stroke: #038048; stroke-width: 1.0;"/><text fill="#000000" font-family="sans-serif" font-size="11" lengthAdjust="spacingAndGlyphs" textLength="193" x="740.5" y="208.6348">getFileSystem(): ResourceFileSystem</text></a><!--MD5=[0d596dd42a8e9d19caa36b70ba5c9b26]
class it.tidalwave.northernwind.frontend.filesystem.basic.FileSystemProvidersProvider--><a href="FileSystemProvidersProvider.html" target="_top" title="FileSystemProvidersProvider.html" xlink:actuate="onRequest" xlink:href="FileSystemProvidersProvider.html" xlink:show="new" xlink:title="FileSystemProvidersProvider.html" xlink:type="simple"><rect codeLine="11" fill="#FEFECE" filter="url(#fl3xlfbny16dy)" height="60.9551" id="it.tidalwave.northernwind.frontend.filesystem.basic.FileSystemProvidersProvider" style="stroke: #A80036; stroke-width: 1.5;" width="406" x="279" y="154"/><ellipse cx="397.25" cy="170" fill="#B4A7E5" rx="11" ry="11" style="stroke: #A80036; stroke-width: 1.0;"/><path d="M393.6777,166.2651 L393.6777,164.1069 L401.0571,164.1069 L401.0571,166.2651 L398.5918,166.2651 L398.5918,174.3418 L401.0571,174.3418 L401.0571,176.5 L393.6777,176.5 L393.6777,174.3418 L396.1431,174.3418 L396.1431,166.2651 Z "/><text fill="#000000" font-family="sans-serif" font-size="12" font-style="italic" lengthAdjust="spacingAndGlyphs" textLength="161" x="417.75" y="174.5352">FileSystemProvidersProvider</text><line style="stroke: #A80036; stroke-width: 1.5;" x1="280" x2="684" y1="186" y2="186"/><line style="stroke: #A80036; stroke-width: 1.5;" x1="280" x2="684" y1="194" y2="194"/><ellipse cx="290" cy="205" fill="#84BE84" rx="3" ry="3" style="stroke: #038048; stroke-width: 1.0;"/><text fill="#000000" font-family="sans-serif" font-size="11" font-style="italic" lengthAdjust="spacingAndGlyphs" textLength="380" x="299" y="208.6348">getFileSystemProviders(): List&lt;? extends ResourceFileSystemProvider&gt;</text></a><!--MD5=[0b3b3632f160eb0835184ebff7004abb]
class it.tidalwave.northernwind.frontend.filesystem.basic.ZipFileSystemProvider--><a href="ZipFileSystemProvider.html" target="_top" title="ZipFileSystemProvider.html" xlink:actuate="onRequest" xlink:href="ZipFileSystemProvider.html" xlink:show="new" xlink:title="ZipFileSystemProvider.html" xlink:type="simple"><rect codeLine="15" fill="#FEFECE" filter="url(#fl3xlfbny16dy)" height="60.9551" id="it.tidalwave.northernwind.frontend.filesystem.basic.ZipFileSystemProvider" style="stroke: #A80036; stroke-width: 1.5;" width="219" x="24.5" y="154"/><ellipse cx="67.4" cy="170" fill="#ADD1B2" rx="11" ry="11" style="stroke: #A80036; stroke-width: 1.0;"/><path d="M69.8731,176.1431 Q69.2921,176.4419 68.6529,176.5913 Q68.0138,176.7407 67.3082,176.7407 Q64.8014,176.7407 63.4815,175.0889 Q62.1617,173.437 62.1617,170.3159 Q62.1617,167.1865 63.4815,165.5347 Q64.8014,163.8828 67.3082,163.8828 Q68.0138,163.8828 68.6612,164.0322 Q69.3087,164.1816 69.8731,164.4805 L69.8731,167.2031 Q69.2423,166.6221 68.6488,166.3523 Q68.0553,166.0825 67.4244,166.0825 Q66.0797,166.0825 65.3949,167.1492 Q64.7101,168.2158 64.7101,170.3159 Q64.7101,172.4077 65.3949,173.4744 Q66.0797,174.541 67.4244,174.541 Q68.0553,174.541 68.6488,174.2712 Q69.2423,174.0015 69.8731,173.4204 Z "/><text fill="#000000" font-family="sans-serif" font-size="12" lengthAdjust="spacingAndGlyphs" textLength="125" x="87.6" y="174.5352">ZipFileSystemProvider</text><line style="stroke: #A80036; stroke-width: 1.5;" x1="25.5" x2="242.5" y1="186" y2="186"/><line style="stroke: #A80036; stroke-width: 1.5;" x1="25.5" x2="242.5" y1="194" y2="194"/><ellipse cx="35.5" cy="205" fill="#84BE84" rx="3" ry="3" style="stroke: #038048; stroke-width: 1.0;"/><text fill="#000000" font-family="sans-serif" font-size="11" lengthAdjust="spacingAndGlyphs" textLength="193" x="44.5" y="208.6348">getFileSystem(): ResourceFileSystem</text></a><!--MD5=[35c78745d2c67b9c273170bd89205265]
class it.tidalwave.northernwind.core.model.ResourceFileSystemProvider--><a href="http://tidalwave.tidalwave.it/northernwind/it-tidalwave-northernwind-modules/it-tidalwave-northernwind-core/apidocs/it/tidalwave/northernwind/core/model/ResourceFileSystemProvider.html?is-external=true" target="_top" title="http://tidalwave.tidalwave.it/northernwind/it-tidalwave-northernwind-modules/it-tidalwave-northernwind-core/apidocs/it/tidalwave/northernwind/core/model/ResourceFileSystemProvider.html?is-external=true" xlink:actuate="onRequest" xlink:href="http://tidalwave.tidalwave.it/northernwind/it-tidalwave-northernwind-modules/it-tidalwave-northernwind-core/apidocs/it/tidalwave/northernwind/core/model/ResourceFileSystemProvider.html?is-external=true" xlink:show="new" xlink:title="http://tidalwave.tidalwave.it/northernwind/it-tidalwave-northernwind-modules/it-tidalwave-northernwind-core/apidocs/it/tidalwave/northernwind/core/model/ResourceFileSystemProvider.html?is-external=true" xlink:type="simple"><rect codeLine="25" fill="#FEFECE" filter="url(#fl3xlfbny16dy)" height="60.9551" id="it.tidalwave.northernwind.core.model.ResourceFileSystemProvider" style="stroke: #A80036; stroke-width: 1.5;" width="219" x="720.5" y="33"/><ellipse cx="747.65" cy="49" fill="#B4A7E5" rx="11" ry="11" style="stroke: #A80036; stroke-width: 1.0;"/><path d="M744.0777,45.2651 L744.0777,43.1069 L751.4571,43.1069 L751.4571,45.2651 L748.9918,45.2651 L748.9918,53.3418 L751.4571,53.3418 L751.4571,55.5 L744.0777,55.5 L744.0777,53.3418 L746.5431,53.3418 L746.5431,45.2651 Z "/><text fill="#000000" font-family="sans-serif" font-size="12" font-style="italic" lengthAdjust="spacingAndGlyphs" textLength="160" x="764.35" y="53.5352">ResourceFileSystemProvider</text><line style="stroke: #A80036; stroke-width: 1.5;" x1="721.5" x2="938.5" y1="65" y2="65"/><line style="stroke: #A80036; stroke-width: 1.5;" x1="721.5" x2="938.5" y1="73" y2="73"/><ellipse cx="731.5" cy="84" fill="#84BE84" rx="3" ry="3" style="stroke: #038048; stroke-width: 1.0;"/><text fill="#000000" font-family="sans-serif" font-size="11" font-style="italic" lengthAdjust="spacingAndGlyphs" textLength="193" x="740.5" y="87.6348">getFileSystem(): ResourceFileSystem</text></a><!--MD5=[14cb4f2698a8f5667cd12e5183bef02a]
reverse link it.tidalwave.northernwind.core.model.ResourceFileSystemProvider to it.tidalwave.northernwind.frontend.filesystem.basic.LocalFileSystemProvider--><path codeLine="19" d="M912.3383,102.7241 C947.2363,119.3488 987.2901,138.4295 1019.9256,153.9764 " fill="none" id="it.tidalwave.northernwind.core.model.ResourceFileSystemProvider-backto-it.tidalwave.northernwind.frontend.filesystem.basic.LocalFileSystemProvider" style="stroke: #A80036; stroke-width: 1.0; stroke-dasharray: 7.0,7.0;"/><polygon fill="none" points="909.1403,108.9545,894.0949,94.0334,915.1614,96.3153,909.1403,108.9545" style="stroke: #A80036; stroke-width: 1.0;"/><!--MD5=[f3d3b1b6856e68d1397e6b9562ee6c6e]
reverse link it.tidalwave.northernwind.core.model.ResourceFileSystemProvider to it.tidalwave.northernwind.frontend.filesystem.basic.LocalCopyFileSystemProvider--><path codeLine="20" d="M830,114.2927 C830,127.7857 830,141.9401 830,153.9764 " fill="none" id="it.tidalwave.northernwind.core.model.ResourceFileSystemProvider-backto-it.tidalwave.northernwind.frontend.filesystem.basic.LocalCopyFileSystemProvider" style="stroke: #A80036; stroke-width: 1.0; stroke-dasharray: 7.0,7.0;"/><polygon fill="none" points="823.0001,114.0334,830,94.0334,837.0001,114.0334,823.0001,114.0334" style="stroke: #A80036; stroke-width: 1.0;"/><!--MD5=[7a0d03d993433f7d7436f805c1aefda4]
reverse link it.tidalwave.northernwind.core.model.ResourceFileSystemProvider to it.tidalwave.northernwind.frontend.filesystem.basic.ZipFileSystemProvider--><path codeLine="21" d="M699.9399,73.3355 C558.4465,84.8694 341.7683,105.2007 262,127 C238.2653,133.4863 213.3349,143.8046 191.8467,153.9217 " fill="none" id="it.tidalwave.northernwind.core.model.ResourceFileSystemProvider-backto-it.tidalwave.northernwind.frontend.filesystem.basic.ZipFileSystemProvider" style="stroke: #A80036; stroke-width: 1.0; stroke-dasharray: 7.0,7.0;"/><polygon fill="none" points="699.7474,66.3284,720.2452,71.6985,700.8725,80.2831,699.7474,66.3284" style="stroke: #A80036; stroke-width: 1.0;"/><text fill="#888888" font-family="sans-serif" font-size="10" lengthAdjust="spacingAndGlyphs" textLength="188" x="509" y="238.668">UMLDoclet 2.0.12, PlantUML 1.2020.16</text><!--MD5=[616b147057307ff706100b3944ce5876]
@startuml
    namespace it.tidalwave.northernwind.frontend.filesystem.basic {

        class LocalFileSystemProvider [[LocalFileSystemProvider.html]] {
            +getFileSystem(): ResourceFileSystem
        }

        class LocalCopyFileSystemProvider [[LocalCopyFileSystemProvider.html]] {
            +getFileSystem(): ResourceFileSystem
        }

        interface FileSystemProvidersProvider [[FileSystemProvidersProvider.html]] {
            {abstract} +getFileSystemProviders(): List<? extends ResourceFileSystemProvider>
        }

        class ZipFileSystemProvider [[ZipFileSystemProvider.html]] {
            +getFileSystem(): ResourceFileSystem
        }

        it.tidalwave.northernwind.core.model.ResourceFileSystemProvider <|.. LocalFileSystemProvider
        it.tidalwave.northernwind.core.model.ResourceFileSystemProvider <|.. LocalCopyFileSystemProvider
        it.tidalwave.northernwind.core.model.ResourceFileSystemProvider <|.. ZipFileSystemProvider
    }

    namespace it.tidalwave.northernwind.core.model {
        interface ResourceFileSystemProvider [[http://tidalwave.tidalwave.it/northernwind/it-tidalwave-northernwind-modules/it-tidalwave-northernwind-core/apidocs/it/tidalwave/northernwind/core/model/ResourceFileSystemProvider.html?is-external=true]] {
            {abstract} +getFileSystem(): ResourceFileSystem
        }
    }

    center footer UMLDoclet 2.0.12, PlantUML 1.2020.16
@enduml

PlantUML version 1.2020.16(Sun Aug 23 22:20:43 CEST 2020)
(APACHE source distribution)
Java Runtime: OpenJDK Runtime Environment
JVM: OpenJDK 64-Bit Server VM
Default Encoding: UTF-8
Language: en
Country: GB
--></g></svg>