<?xml version="1.0" encoding="UTF-8" standalone="no"?><svg xmlns="http://www.w3.org/2000/svg" xmlns:xlink="http://www.w3.org/1999/xlink" contentScriptType="application/ecmascript" contentStyleType="text/css" height="294px" preserveAspectRatio="none" style="width:541px;height:294px;" version="1.1" viewBox="0 0 541 294" width="541px" zoomAndPan="magnify"><defs><filter height="300%" id="f1tixtz1czoi4o" width="300%" x="-1" y="-1"><feGaussianBlur result="blurOut" stdDeviation="2.0"/><feColorMatrix in="blurOut" result="blurOut2" type="matrix" values="0 0 0 0 0 0 0 0 0 0 0 0 0 0 0 0 0 0 .4 0"/><feOffset dx="4.0" dy="4.0" in="blurOut2" result="blurOut3"/><feBlend in="SourceGraphic" in2="blurOut3" mode="normal"/></filter></defs><g><!--MD5=[9fbeb579acdf148cf1473e303c1377a5]
class it.tidalwave.northernwind.frontend.ui.component.blog.htmltemplate.HtmlTemplateBlogViewController--><a href="HtmlTemplateBlogViewController.html" target="_top" title="HtmlTemplateBlogViewController.html" xlink:actuate="onRequest" xlink:href="HtmlTemplateBlogViewController.html" xlink:show="new" xlink:title="HtmlTemplateBlogViewController.html" xlink:type="simple"><rect codeLine="5" fill="#FEFECE" filter="url(#f1tixtz1czoi4o)" height="119.041" id="it.tidalwave.northernwind.frontend.ui.component.blog.htmltemplate.HtmlTemplateBlogViewController" style="stroke: #A80036; stroke-width: 1.5;" width="513" x="9" y="139"/><ellipse cx="95.25" cy="158.1328" fill="#ADD1B2" rx="11" ry="11" style="stroke: #A80036; stroke-width: 1.0;"/><path d="M97.7231,164.2759 Q97.1421,164.5747 96.5029,164.7241 Q95.8638,164.8735 95.1582,164.8735 Q92.6514,164.8735 91.3315,163.2217 Q90.0117,161.5698 90.0117,158.4487 Q90.0117,155.3193 91.3315,153.6675 Q92.6514,152.0156 95.1582,152.0156 Q95.8638,152.0156 96.5112,152.165 Q97.1587,152.3145 97.7231,152.6133 L97.7231,155.3359 Q97.0923,154.7549 96.4988,154.4851 Q95.9053,154.2153 95.2744,154.2153 Q93.9297,154.2153 93.2449,155.282 Q92.5601,156.3486 92.5601,158.4487 Q92.5601,160.5405 93.2449,161.6072 Q93.9297,162.6738 95.2744,162.6738 Q95.9053,162.6738 96.4988,162.4041 Q97.0923,162.1343 97.7231,161.5532 Z "/><text fill="#000000" font-family="sans-serif" font-size="14" lengthAdjust="spacingAndGlyphs" textLength="228" x="167.75" y="157.5352">HtmlTemplateBlogViewController</text><text fill="#000000" font-family="sans-serif" font-size="10" lengthAdjust="spacingAndGlyphs" textLength="332" x="115.75" y="170.1563">it.tidalwave.northernwind.frontend.ui.component.blog.htmltemplate</text><line style="stroke: #A80036; stroke-width: 1.5;" x1="10" x2="521" y1="177.2656" y2="177.2656"/><ellipse cx="20" cy="188.2656" fill="none" rx="3" ry="3" style="stroke: #038048; stroke-width: 1.0;"/><text fill="#000000" font-family="sans-serif" font-size="11" lengthAdjust="spacingAndGlyphs" text-decoration="underline" textLength="258" x="29" y="191.9004">P_TEMPLATE_POSTS_PATH: Key&lt;ResourcePath&gt;</text><ellipse cx="20" cy="201.2207" fill="none" rx="3" ry="3" style="stroke: #038048; stroke-width: 1.0;"/><text fill="#000000" font-family="sans-serif" font-size="11" lengthAdjust="spacingAndGlyphs" text-decoration="underline" textLength="292" x="29" y="204.8555">P_TEMPLATE_TAG_CLOUD_PATH: Key&lt;ResourcePath&gt;</text><line style="stroke: #A80036; stroke-width: 1.5;" x1="10" x2="521" y1="211.1758" y2="211.1758"/><ellipse cx="20" cy="222.1758" fill="#84BE84" rx="3" ry="3" style="stroke: #038048; stroke-width: 1.0;"/><text fill="#000000" font-family="sans-serif" font-size="11" lengthAdjust="spacingAndGlyphs" textLength="487" x="29" y="225.8105">HtmlTemplateBlogViewController(SiteNode, HtmlTemplateBlogView, RequestLocaleManager)</text><polygon fill="#FFFF44" points="20,230.1309,24,234.1309,20,238.1309,16,234.1309" style="stroke: #B38D22; stroke-width: 1.0;"/><text fill="#000000" font-family="sans-serif" font-size="11" lengthAdjust="spacingAndGlyphs" textLength="354" x="29" y="238.7656">renderPosts(List&lt;Content&gt;, List&lt;Content&gt;, List&lt;Content&gt;): void</text><polygon fill="#FFFF44" points="20,243.0859,24,247.0859,20,251.0859,16,247.0859" style="stroke: #B38D22; stroke-width: 1.0;"/><text fill="#000000" font-family="sans-serif" font-size="11" lengthAdjust="spacingAndGlyphs" textLength="272" x="29" y="251.7207">renderTagCloud(Collection&lt;TagAndCount&gt;): void</text></a><!--MD5=[2b540a5ae15ceceddc99585e75e3a227]
class it.tidalwave.northernwind.frontend.ui.component.blog.DefaultBlogViewController--><a href="../DefaultBlogViewController.html" target="_top" title="../DefaultBlogViewController.html" xlink:actuate="onRequest" xlink:href="../DefaultBlogViewController.html" xlink:show="new" xlink:title="../DefaultBlogViewController.html" xlink:type="simple"><rect codeLine="13" fill="#FEFECE" filter="url(#f1tixtz1czoi4o)" height="72.1758" id="it.tidalwave.northernwind.frontend.ui.component.blog.DefaultBlogViewController" style="stroke: #A80036; stroke-width: 1.5;" width="380" x="75.5" y="7"/><ellipse cx="129.75" cy="26.1328" fill="#A9DCDF" rx="11" ry="11" style="stroke: #A80036; stroke-width: 1.0;"/><path d="M129.6133,21.481 L128.4595,26.5527 L130.7754,26.5527 Z M128.1191,19.2397 L131.1157,19.2397 L134.4609,31.6328 L132.0122,31.6328 L131.2485,28.5698 L127.9697,28.5698 L127.2227,31.6328 L124.7739,31.6328 Z "/><text fill="#000000" font-family="sans-serif" font-size="14" font-style="italic" lengthAdjust="spacingAndGlyphs" textLength="181" x="191.25" y="25.5352">DefaultBlogViewController</text><text fill="#000000" font-family="sans-serif" font-size="10" font-style="italic" lengthAdjust="spacingAndGlyphs" textLength="263" x="150.25" y="38.1563">it.tidalwave.northernwind.frontend.ui.component.blog</text><line style="stroke: #A80036; stroke-width: 1.5;" x1="76.5" x2="454.5" y1="45.2656" y2="45.2656"/><polygon fill="#FFFF44" points="86.5,51.2656,90.5,55.2656,86.5,59.2656,82.5,55.2656" style="stroke: #B38D22; stroke-width: 1.0;"/><text fill="#000000" font-family="sans-serif" font-size="11" font-style="italic" lengthAdjust="spacingAndGlyphs" textLength="354" x="95.5" y="59.9004">renderPosts(List&lt;Content&gt;, List&lt;Content&gt;, List&lt;Content&gt;): void</text><polygon fill="#FFFF44" points="86.5,64.2207,90.5,68.2207,86.5,72.2207,82.5,68.2207" style="stroke: #B38D22; stroke-width: 1.0;"/><text fill="#000000" font-family="sans-serif" font-size="11" font-style="italic" lengthAdjust="spacingAndGlyphs" textLength="272" x="95.5" y="72.8555">renderTagCloud(Collection&lt;TagAndCount&gt;): void</text></a><!--MD5=[1180caab87b0551f5a027858461177f0]
reverse link it.tidalwave.northernwind.frontend.ui.component.blog.DefaultBlogViewController to it.tidalwave.northernwind.frontend.ui.component.blog.htmltemplate.HtmlTemplateBlogViewController--><path codeLine="18" d="M265.5,99.076 C265.5,112.006 265.5,125.8051 265.5,138.8799 " fill="none" id="it.tidalwave.northernwind.frontend.ui.component.blog.DefaultBlogViewController-backto-it.tidalwave.northernwind.frontend.ui.component.blog.htmltemplate.HtmlTemplateBlogViewController" style="stroke: #A80036; stroke-width: 1.0;"/><polygon fill="none" points="258.5001,99.0657,265.5,79.0657,272.5001,99.0656,258.5001,99.0657" style="stroke: #A80036; stroke-width: 1.0;"/><text fill="#888888" font-family="sans-serif" font-size="10" lengthAdjust="spacingAndGlyphs" textLength="188" x="167.5" y="280.709">UMLDoclet 2.0.12, PlantUML 1.2020.16</text><!--MD5=[f4f5ad2c8652773417754b6123fd0845]
@startuml
    set namespaceSeparator none
    hide empty fields
    hide empty methods

    class "<size:14>HtmlTemplateBlogViewController\n<size:10>it.tidalwave.northernwind.frontend.ui.component.blog.htmltemplate" as it.tidalwave.northernwind.frontend.ui.component.blog.htmltemplate.HtmlTemplateBlogViewController [[HtmlTemplateBlogViewController.html]] {
        {static} +P_TEMPLATE_POSTS_PATH: Key<ResourcePath>
        {static} +P_TEMPLATE_TAG_CLOUD_PATH: Key<ResourcePath>
        +HtmlTemplateBlogViewController(SiteNode, HtmlTemplateBlogView, RequestLocaleManager)
        #renderPosts(List<Content>, List<Content>, List<Content>): void
        #renderTagCloud(Collection<TagAndCount>): void
    }

    abstract class "<size:14>DefaultBlogViewController\n<size:10>it.tidalwave.northernwind.frontend.ui.component.blog" as it.tidalwave.northernwind.frontend.ui.component.blog.DefaultBlogViewController [[../DefaultBlogViewController.html]] {
        {abstract} #renderPosts(List<Content>, List<Content>, List<Content>): void
        {abstract} #renderTagCloud(Collection<TagAndCount>): void
    }

    it.tidalwave.northernwind.frontend.ui.component.blog.DefaultBlogViewController <|- - it.tidalwave.northernwind.frontend.ui.component.blog.htmltemplate.HtmlTemplateBlogViewController

    center footer UMLDoclet 2.0.12, PlantUML 1.2020.16
@enduml

PlantUML version 1.2020.16(Sun Aug 23 22:20:43 CEST 2020)
(APACHE source distribution)
Java Runtime: OpenJDK Runtime Environment
JVM: OpenJDK 64-Bit Server VM
Default Encoding: UTF-8
Language: en
Country: GB
--></g></svg>