<?xml version="1.0" encoding="UTF-8" standalone="no"?><svg xmlns="http://www.w3.org/2000/svg" xmlns:xlink="http://www.w3.org/1999/xlink" contentScriptType="application/ecmascript" contentStyleType="text/css" height="369px" preserveAspectRatio="none" style="width:1270px;height:369px;" version="1.1" viewBox="0 0 1270 369" width="1270px" zoomAndPan="magnify"><defs><filter height="300%" id="f10jw0tlsow4yt" width="300%" x="-1" y="-1"><feGaussianBlur result="blurOut" stdDeviation="2.0"/><feColorMatrix in="blurOut" result="blurOut2" type="matrix" values="0 0 0 0 0 0 0 0 0 0 0 0 0 0 0 0 0 0 .4 0"/><feOffset dx="4.0" dy="4.0" in="blurOut2" result="blurOut3"/><feBlend in="SourceGraphic" in2="blurOut3" mode="normal"/></filter></defs><g><!--MD5=[9c1fa90675953dfaa20158f00ed253d5]
cluster it.tidalwave.northernwind.frontend.ui.component.blog.htmltemplate--><polygon fill="#FFFFFF" filter="url(#f10jw0tlsow4yt)" points="215,192,705,192,712,214.4883,1248,214.4883,1248,340,215,340,215,192" style="stroke: #000000; stroke-width: 1.5;"/><line style="stroke: #000000; stroke-width: 1.5;" x1="215" x2="712" y1="214.4883" y2="214.4883"/><text fill="#000000" font-family="sans-serif" font-size="14" font-weight="bold" lengthAdjust="spacingAndGlyphs" textLength="484" x="219" y="207.5352">it.tidalwave.northernwind.frontend.ui.component.blog.htmltemplate</text><!--MD5=[e5a41c449c1a068d941fa2cbecca88be]
cluster it.tidalwave.northernwind.frontend.ui.component.htmlfragment.htmltemplate--><polygon fill="#FFFFFF" filter="url(#f10jw0tlsow4yt)" points="16,45,574,45,581,67.4883,584,67.4883,584,128,16,128,16,45" style="stroke: #000000; stroke-width: 1.5;"/><line style="stroke: #000000; stroke-width: 1.5;" x1="16" x2="581" y1="67.4883" y2="67.4883"/><text fill="#000000" font-family="sans-serif" font-size="14" font-weight="bold" lengthAdjust="spacingAndGlyphs" textLength="552" x="20" y="60.5352">it.tidalwave.northernwind.frontend.ui.component.htmlfragment.htmltemplate</text><!--MD5=[e68c14196269d1f2dad59416aa1d49ed]
cluster it.tidalwave.northernwind.frontend.ui.component.blog--><polygon fill="#FFFFFF" filter="url(#f10jw0tlsow4yt)" points="608,6,997,6,1004,28.4883,1173,28.4883,1173,167,608,167,608,6" style="stroke: #000000; stroke-width: 1.5;"/><line style="stroke: #000000; stroke-width: 1.5;" x1="608" x2="1004" y1="28.4883" y2="28.4883"/><text fill="#000000" font-family="sans-serif" font-size="14" font-weight="bold" lengthAdjust="spacingAndGlyphs" textLength="383" x="612" y="21.5352">it.tidalwave.northernwind.frontend.ui.component.blog</text><!--MD5=[7439c4a17a20c86491617d937167363c]
class it.tidalwave.northernwind.frontend.ui.component.blog.htmltemplate.HtmlTemplateBlogView--><a href="HtmlTemplateBlogView.html" target="_top" title="HtmlTemplateBlogView.html" xlink:actuate="onRequest" xlink:href="HtmlTemplateBlogView.html" xlink:show="new" xlink:title="HtmlTemplateBlogView.html" xlink:type="simple"><rect codeLine="3" fill="#FEFECE" filter="url(#f10jw0tlsow4yt)" height="99.8203" id="it.tidalwave.northernwind.frontend.ui.component.blog.htmltemplate.HtmlTemplateBlogView" style="stroke: #A80036; stroke-width: 1.5;" width="469" x="222.5" y="225.5"/><ellipse cx="386.25" cy="241.5" fill="#ADD1B2" rx="11" ry="11" style="stroke: #A80036; stroke-width: 1.0;"/><path d="M388.7231,247.6431 Q388.1421,247.9419 387.5029,248.0913 Q386.8638,248.2407 386.1582,248.2407 Q383.6514,248.2407 382.3315,246.5889 Q381.0117,244.937 381.0117,241.8159 Q381.0117,238.6865 382.3315,237.0347 Q383.6514,235.3828 386.1582,235.3828 Q386.8638,235.3828 387.5112,235.5322 Q388.1587,235.6816 388.7231,235.9805 L388.7231,238.7031 Q388.0923,238.1221 387.4988,237.8523 Q386.9053,237.5825 386.2744,237.5825 Q384.9297,237.5825 384.2449,238.6492 Q383.5601,239.7158 383.5601,241.8159 Q383.5601,243.9077 384.2449,244.9744 Q384.9297,246.041 386.2744,246.041 Q386.9053,246.041 387.4988,245.7712 Q388.0923,245.5015 388.7231,244.9204 Z "/><text fill="#000000" font-family="sans-serif" font-size="12" lengthAdjust="spacingAndGlyphs" textLength="133" x="406.75" y="246.0352">HtmlTemplateBlogView</text><line style="stroke: #A80036; stroke-width: 1.5;" x1="223.5" x2="690.5" y1="257.5" y2="257.5"/><line style="stroke: #A80036; stroke-width: 1.5;" x1="223.5" x2="690.5" y1="265.5" y2="265.5"/><ellipse cx="233.5" cy="276.5" fill="#84BE84" rx="3" ry="3" style="stroke: #038048; stroke-width: 1.0;"/><text fill="#000000" font-family="sans-serif" font-size="11" lengthAdjust="spacingAndGlyphs" textLength="164" x="242.5" y="280.1348">HtmlTemplateBlogView(Id, Site)</text><ellipse cx="233.5" cy="289.4551" fill="#84BE84" rx="3" ry="3" style="stroke: #038048; stroke-width: 1.0;"/><text fill="#000000" font-family="sans-serif" font-size="11" lengthAdjust="spacingAndGlyphs" textLength="108" x="242.5" y="293.0898">setTitle(String): void</text><ellipse cx="233.5" cy="302.4102" fill="#84BE84" rx="3" ry="3" style="stroke: #038048; stroke-width: 1.0;"/><text fill="#000000" font-family="sans-serif" font-size="11" lengthAdjust="spacingAndGlyphs" textLength="443" x="242.5" y="306.0449">renderPosts(Optional&lt;ResourcePath&gt;, Aggregates, Aggregates, Aggregates): void</text><ellipse cx="233.5" cy="315.3652" fill="#84BE84" rx="3" ry="3" style="stroke: #038048; stroke-width: 1.0;"/><text fill="#000000" font-family="sans-serif" font-size="11" lengthAdjust="spacingAndGlyphs" textLength="330" x="242.5" y="319">renderTagCloud(Optional&lt;ResourcePath&gt;, Aggregates): void</text></a><!--MD5=[9fbeb579acdf148cf1473e303c1377a5]
class it.tidalwave.northernwind.frontend.ui.component.blog.htmltemplate.HtmlTemplateBlogViewController--><a href="HtmlTemplateBlogViewController.html" target="_top" title="HtmlTemplateBlogViewController.html" xlink:actuate="onRequest" xlink:href="HtmlTemplateBlogViewController.html" xlink:show="new" xlink:title="HtmlTemplateBlogViewController.html" xlink:type="simple"><rect codeLine="10" fill="#FEFECE" filter="url(#f10jw0tlsow4yt)" height="112.7754" id="it.tidalwave.northernwind.frontend.ui.component.blog.htmltemplate.HtmlTemplateBlogViewController" style="stroke: #A80036; stroke-width: 1.5;" width="513" x="726.5" y="219"/><ellipse cx="884.25" cy="235" fill="#ADD1B2" rx="11" ry="11" style="stroke: #A80036; stroke-width: 1.0;"/><path d="M886.7231,241.1431 Q886.1421,241.4419 885.5029,241.5913 Q884.8638,241.7407 884.1582,241.7407 Q881.6514,241.7407 880.3315,240.0889 Q879.0117,238.437 879.0117,235.3159 Q879.0117,232.1865 880.3315,230.5347 Q881.6514,228.8828 884.1582,228.8828 Q884.8638,228.8828 885.5112,229.0322 Q886.1587,229.1816 886.7231,229.4805 L886.7231,232.2031 Q886.0923,231.6221 885.4988,231.3523 Q884.9053,231.0825 884.2744,231.0825 Q882.9297,231.0825 882.2449,232.1492 Q881.5601,233.2158 881.5601,235.3159 Q881.5601,237.4077 882.2449,238.4744 Q882.9297,239.541 884.2744,239.541 Q884.9053,239.541 885.4988,239.2712 Q886.0923,239.0015 886.7231,238.4204 Z "/><text fill="#000000" font-family="sans-serif" font-size="12" lengthAdjust="spacingAndGlyphs" textLength="189" x="904.75" y="239.5352">HtmlTemplateBlogViewController</text><line style="stroke: #A80036; stroke-width: 1.5;" x1="727.5" x2="1238.5" y1="251" y2="251"/><ellipse cx="737.5" cy="262" fill="none" rx="3" ry="3" style="stroke: #038048; stroke-width: 1.0;"/><text fill="#000000" font-family="sans-serif" font-size="11" lengthAdjust="spacingAndGlyphs" text-decoration="underline" textLength="258" x="746.5" y="265.6348">P_TEMPLATE_POSTS_PATH: Key&lt;ResourcePath&gt;</text><ellipse cx="737.5" cy="274.9551" fill="none" rx="3" ry="3" style="stroke: #038048; stroke-width: 1.0;"/><text fill="#000000" font-family="sans-serif" font-size="11" lengthAdjust="spacingAndGlyphs" text-decoration="underline" textLength="292" x="746.5" y="278.5898">P_TEMPLATE_TAG_CLOUD_PATH: Key&lt;ResourcePath&gt;</text><line style="stroke: #A80036; stroke-width: 1.5;" x1="727.5" x2="1238.5" y1="284.9102" y2="284.9102"/><ellipse cx="737.5" cy="295.9102" fill="#84BE84" rx="3" ry="3" style="stroke: #038048; stroke-width: 1.0;"/><text fill="#000000" font-family="sans-serif" font-size="11" lengthAdjust="spacingAndGlyphs" textLength="487" x="746.5" y="299.5449">HtmlTemplateBlogViewController(SiteNode, HtmlTemplateBlogView, RequestLocaleManager)</text><polygon fill="#FFFF44" points="737.5,303.8652,741.5,307.8652,737.5,311.8652,733.5,307.8652" style="stroke: #B38D22; stroke-width: 1.0;"/><text fill="#000000" font-family="sans-serif" font-size="11" lengthAdjust="spacingAndGlyphs" textLength="354" x="746.5" y="312.5">renderPosts(List&lt;Content&gt;, List&lt;Content&gt;, List&lt;Content&gt;): void</text><polygon fill="#FFFF44" points="737.5,316.8203,741.5,320.8203,737.5,324.8203,733.5,320.8203" style="stroke: #B38D22; stroke-width: 1.0;"/><text fill="#000000" font-family="sans-serif" font-size="11" lengthAdjust="spacingAndGlyphs" textLength="272" x="746.5" y="325.4551">renderTagCloud(Collection&lt;TagAndCount&gt;): void</text></a><!--MD5=[29faf4ef4f5626ea036e882b9bdb2503]
class it.tidalwave.northernwind.frontend.ui.component.htmlfragment.htmltemplate.HtmlTemplateHtmlFragmentView--><a href="../../htmlfragment/htmltemplate/HtmlTemplateHtmlFragmentView.html" target="_top" title="../../htmlfragment/htmltemplate/HtmlTemplateHtmlFragmentView.html" xlink:actuate="onRequest" xlink:href="../../htmlfragment/htmltemplate/HtmlTemplateHtmlFragmentView.html" xlink:show="new" xlink:title="../../htmlfragment/htmltemplate/HtmlTemplateHtmlFragmentView.html" xlink:type="simple"><rect codeLine="24" fill="#FEFECE" filter="url(#f10jw0tlsow4yt)" height="48" id="it.tidalwave.northernwind.frontend.ui.component.htmlfragment.htmltemplate.HtmlTemplateHtmlFragmentView" style="stroke: #A80036; stroke-width: 1.5;" width="222" x="346" y="72"/><ellipse cx="361" cy="88" fill="#ADD1B2" rx="11" ry="11" style="stroke: #A80036; stroke-width: 1.0;"/><path d="M363.4731,94.1431 Q362.8921,94.4419 362.2529,94.5913 Q361.6138,94.7407 360.9082,94.7407 Q358.4014,94.7407 357.0815,93.0889 Q355.7617,91.437 355.7617,88.3159 Q355.7617,85.1865 357.0815,83.5347 Q358.4014,81.8828 360.9082,81.8828 Q361.6138,81.8828 362.2612,82.0322 Q362.9087,82.1816 363.4731,82.4805 L363.4731,85.2031 Q362.8423,84.6221 362.2488,84.3523 Q361.6553,84.0825 361.0244,84.0825 Q359.6797,84.0825 358.9949,85.1492 Q358.3101,86.2158 358.3101,88.3159 Q358.3101,90.4077 358.9949,91.4744 Q359.6797,92.541 361.0244,92.541 Q361.6553,92.541 362.2488,92.2712 Q362.8423,92.0015 363.4731,91.4204 Z "/><text fill="#000000" font-family="sans-serif" font-size="12" lengthAdjust="spacingAndGlyphs" textLength="190" x="375" y="92.5352">HtmlTemplateHtmlFragmentView</text><line style="stroke: #A80036; stroke-width: 1.5;" x1="347" x2="567" y1="104" y2="104"/><line style="stroke: #A80036; stroke-width: 1.5;" x1="347" x2="567" y1="112" y2="112"/></a><!--MD5=[338fe56ad8fc8a3f207ba96532f48943]
class it.tidalwave.northernwind.frontend.ui.component.blog.BlogView--><a href="../BlogView.html" target="_top" title="../BlogView.html" xlink:actuate="onRequest" xlink:href="../BlogView.html" xlink:show="new" xlink:title="../BlogView.html" xlink:type="simple"><rect codeLine="29" fill="#FEFECE" filter="url(#f10jw0tlsow4yt)" height="60.9551" id="it.tidalwave.northernwind.frontend.ui.component.blog.BlogView" style="stroke: #A80036; stroke-width: 1.5;" width="134" x="616" y="65.5"/><ellipse cx="653.95" cy="81.5" fill="#B4A7E5" rx="11" ry="11" style="stroke: #A80036; stroke-width: 1.0;"/><path d="M650.3777,77.7651 L650.3777,75.6069 L657.7571,75.6069 L657.7571,77.7651 L655.2918,77.7651 L655.2918,85.8418 L657.7571,85.8418 L657.7571,88 L650.3777,88 L650.3777,85.8418 L652.8431,85.8418 L652.8431,77.7651 Z "/><text fill="#000000" font-family="sans-serif" font-size="12" font-style="italic" lengthAdjust="spacingAndGlyphs" textLength="51" x="673.05" y="86.0352">BlogView</text><line style="stroke: #A80036; stroke-width: 1.5;" x1="617" x2="749" y1="97.5" y2="97.5"/><line style="stroke: #A80036; stroke-width: 1.5;" x1="617" x2="749" y1="105.5" y2="105.5"/><ellipse cx="627" cy="116.5" fill="#84BE84" rx="3" ry="3" style="stroke: #038048; stroke-width: 1.0;"/><text fill="#000000" font-family="sans-serif" font-size="11" font-style="italic" lengthAdjust="spacingAndGlyphs" textLength="108" x="636" y="120.1348">setTitle(String): void</text></a><!--MD5=[2b540a5ae15ceceddc99585e75e3a227]
class it.tidalwave.northernwind.frontend.ui.component.blog.DefaultBlogViewController--><a href="../DefaultBlogViewController.html" target="_top" title="../DefaultBlogViewController.html" xlink:actuate="onRequest" xlink:href="../DefaultBlogViewController.html" xlink:show="new" xlink:title="../DefaultBlogViewController.html" xlink:type="simple"><rect codeLine="32" fill="#FEFECE" filter="url(#f10jw0tlsow4yt)" height="125.7305" id="it.tidalwave.northernwind.frontend.ui.component.blog.DefaultBlogViewController" style="stroke: #A80036; stroke-width: 1.5;" width="380" x="785" y="33"/><ellipse cx="896.75" cy="49" fill="#A9DCDF" rx="11" ry="11" style="stroke: #A80036; stroke-width: 1.0;"/><path d="M896.6133,44.3481 L895.4595,49.4199 L897.7754,49.4199 Z M895.1191,42.1069 L898.1157,42.1069 L901.4609,54.5 L899.0122,54.5 L898.2485,51.437 L894.9697,51.437 L894.2227,54.5 L891.7739,54.5 Z "/><text fill="#000000" font-family="sans-serif" font-size="12" font-style="italic" lengthAdjust="spacingAndGlyphs" textLength="148" x="917.25" y="53.5352">DefaultBlogViewController</text><line style="stroke: #A80036; stroke-width: 1.5;" x1="786" x2="1164" y1="65" y2="65"/><polygon fill="none" points="796,71,800,75,796,79,792,75" style="stroke: #B38D22; stroke-width: 1.0;"/><text fill="#000000" font-family="sans-serif" font-size="11" lengthAdjust="spacingAndGlyphs" text-decoration="underline" textLength="225" x="805" y="79.6348">DATE_KEYS: List&lt;Key&lt;ZonedDateTime&gt;&gt;</text><ellipse cx="796" cy="88.9551" fill="none" rx="3" ry="3" style="stroke: #038048; stroke-width: 1.0;"/><text fill="#000000" font-family="sans-serif" font-size="11" lengthAdjust="spacingAndGlyphs" text-decoration="underline" textLength="122" x="805" y="92.5898">TIME0: ZonedDateTime</text><ellipse cx="796" cy="101.9102" fill="none" rx="3" ry="3" style="stroke: #038048; stroke-width: 1.0;"/><text fill="#000000" font-family="sans-serif" font-size="11" lengthAdjust="spacingAndGlyphs" text-decoration="underline" textLength="148" x="805" y="105.5449">DEFAULT_TIMEZONE: String</text><polygon fill="none" points="796,109.8652,800,113.8652,796,117.8652,792,113.8652" style="stroke: #B38D22; stroke-width: 1.0;"/><text fill="#000000" font-family="sans-serif" font-size="11" lengthAdjust="spacingAndGlyphs" textLength="122" x="805" y="118.5">title: Optional&lt;String&gt;</text><line style="stroke: #A80036; stroke-width: 1.5;" x1="786" x2="1164" y1="124.8203" y2="124.8203"/><polygon fill="#FFFF44" points="796,130.8203,800,134.8203,796,138.8203,792,134.8203" style="stroke: #B38D22; stroke-width: 1.0;"/><text fill="#000000" font-family="sans-serif" font-size="11" font-style="italic" lengthAdjust="spacingAndGlyphs" textLength="354" x="805" y="139.4551">renderPosts(List&lt;Content&gt;, List&lt;Content&gt;, List&lt;Content&gt;): void</text><polygon fill="#FFFF44" points="796,143.7754,800,147.7754,796,151.7754,792,147.7754" style="stroke: #B38D22; stroke-width: 1.0;"/><text fill="#000000" font-family="sans-serif" font-size="11" font-style="italic" lengthAdjust="spacingAndGlyphs" textLength="272" x="805" y="152.4102">renderTagCloud(Collection&lt;TagAndCount&gt;): void</text></a><!--MD5=[f52cae5dd39a1e29ade14fda1bb196dd]
reverse link it.tidalwave.northernwind.frontend.ui.component.htmlfragment.htmltemplate.HtmlTemplateHtmlFragmentView to it.tidalwave.northernwind.frontend.ui.component.blog.htmltemplate.HtmlTemplateBlogView--><path codeLine="18" d="M457,140.3595 C457,166.0891 457,198.5739 457,225.2456 " fill="none" id="it.tidalwave.northernwind.frontend.ui.component.htmlfragment.htmltemplate.HtmlTemplateHtmlFragmentView-backto-it.tidalwave.northernwind.frontend.ui.component.blog.htmltemplate.HtmlTemplateBlogView" style="stroke: #A80036; stroke-width: 1.0;"/><polygon fill="none" points="450.0001,140.2082,457,120.2082,464.0001,140.2081,450.0001,140.2082" style="stroke: #A80036; stroke-width: 1.0;"/><!--MD5=[2331a7a84e9ec4078c35b46054cb8537]
reverse link it.tidalwave.northernwind.frontend.ui.component.blog.BlogView to it.tidalwave.northernwind.frontend.ui.component.blog.htmltemplate.HtmlTemplateBlogView--><path codeLine="19" d="M628.7109,139.119 C596.0564,165.0547 554.3453,198.1837 520.2107,225.2951 " fill="none" id="it.tidalwave.northernwind.frontend.ui.component.blog.BlogView-backto-it.tidalwave.northernwind.frontend.ui.component.blog.htmltemplate.HtmlTemplateBlogView" style="stroke: #A80036; stroke-width: 1.0; stroke-dasharray: 7.0,7.0;"/><polygon fill="none" points="624.3911,133.6107,644.406,126.6532,633.0984,144.5736,624.3911,133.6107" style="stroke: #A80036; stroke-width: 1.0;"/><!--MD5=[1180caab87b0551f5a027858461177f0]
reverse link it.tidalwave.northernwind.frontend.ui.component.blog.DefaultBlogViewController to it.tidalwave.northernwind.frontend.ui.component.blog.htmltemplate.HtmlTemplateBlogViewController--><path codeLine="20" d="M978.7059,179.15 C979.3058,192.6105 979.9145,206.27 980.4778,218.9086 " fill="none" id="it.tidalwave.northernwind.frontend.ui.component.blog.DefaultBlogViewController-backto-it.tidalwave.northernwind.frontend.ui.component.blog.htmltemplate.HtmlTemplateBlogViewController" style="stroke: #A80036; stroke-width: 1.0;"/><polygon fill="none" points="971.7068,179.3245,977.8093,159.0326,985.6929,178.701,971.7068,179.3245" style="stroke: #A80036; stroke-width: 1.0;"/><text fill="#888888" font-family="sans-serif" font-size="10" lengthAdjust="spacingAndGlyphs" textLength="188" x="532" y="355.668">UMLDoclet 2.0.12, PlantUML 1.2020.16</text><!--MD5=[37e333400f57ac799f2617288802af31]
@startuml
    namespace it.tidalwave.northernwind.frontend.ui.component.blog.htmltemplate {

        class HtmlTemplateBlogView [[HtmlTemplateBlogView.html]] {
            +HtmlTemplateBlogView(Id, Site)
            +setTitle(String): void
            +renderPosts(Optional<ResourcePath>, Aggregates, Aggregates, Aggregates): void
            +renderTagCloud(Optional<ResourcePath>, Aggregates): void
        }

        class HtmlTemplateBlogViewController [[HtmlTemplateBlogViewController.html]] {
            {static} +P_TEMPLATE_POSTS_PATH: Key<ResourcePath>
            {static} +P_TEMPLATE_TAG_CLOUD_PATH: Key<ResourcePath>
            +HtmlTemplateBlogViewController(SiteNode, HtmlTemplateBlogView, RequestLocaleManager)
            #renderPosts(List<Content>, List<Content>, List<Content>): void
            #renderTagCloud(Collection<TagAndCount>): void
        }

        it.tidalwave.northernwind.frontend.ui.component.htmlfragment.htmltemplate.HtmlTemplateHtmlFragmentView <|- - HtmlTemplateBlogView
        it.tidalwave.northernwind.frontend.ui.component.blog.BlogView <|.. HtmlTemplateBlogView
        it.tidalwave.northernwind.frontend.ui.component.blog.DefaultBlogViewController <|- - HtmlTemplateBlogViewController
    }

    namespace it.tidalwave.northernwind.frontend.ui.component.htmlfragment.htmltemplate {
        class HtmlTemplateHtmlFragmentView [[../../htmlfragment/htmltemplate/HtmlTemplateHtmlFragmentView.html]] {
        }
    }

    namespace it.tidalwave.northernwind.frontend.ui.component.blog {
        interface BlogView [[../BlogView.html]] {
            {abstract} +setTitle(String): void
        }
        abstract class DefaultBlogViewController [[../DefaultBlogViewController.html]] {
            {static} #DATE_KEYS: List<Key<ZonedDateTime>>
            {static} +TIME0: ZonedDateTime
            {static} +DEFAULT_TIMEZONE: String
            #title: Optional<String>
            {abstract} #renderPosts(List<Content>, List<Content>, List<Content>): void
            {abstract} #renderTagCloud(Collection<TagAndCount>): void
        }
    }

    center footer UMLDoclet 2.0.12, PlantUML 1.2020.16
@enduml

PlantUML version 1.2020.16(Sun Aug 23 22:20:43 CEST 2020)
(APACHE source distribution)
Java Runtime: OpenJDK Runtime Environment
JVM: OpenJDK 64-Bit Server VM
Default Encoding: UTF-8
Language: en
Country: GB
--></g></svg>