<?xml version="1.0" encoding="UTF-8" standalone="no"?><svg xmlns="http://www.w3.org/2000/svg" xmlns:xlink="http://www.w3.org/1999/xlink" contentScriptType="application/ecmascript" contentStyleType="text/css" height="231px" preserveAspectRatio="none" style="width:363px;height:231px;" version="1.1" viewBox="0 0 363 231" width="363px" zoomAndPan="magnify"><defs><filter height="300%" id="f74sn76bb7f73" width="300%" x="-1" y="-1"><feGaussianBlur result="blurOut" stdDeviation="2.0"/><feColorMatrix in="blurOut" result="blurOut2" type="matrix" values="0 0 0 0 0 0 0 0 0 0 0 0 0 0 0 0 0 0 .4 0"/><feOffset dx="4.0" dy="4.0" in="blurOut2" result="blurOut3"/><feBlend in="SourceGraphic" in2="blurOut3" mode="normal"/></filter></defs><g><!--MD5=[7fa900f3a2e42940d4279ec322a0b13b]
class it.tidalwave.thesefoolishthings.examples.extendedfinderexample.PersonRegistryImpl2b--><a href="PersonRegistryImpl2b.html" target="_top" title="PersonRegistryImpl2b.html" xlink:actuate="onRequest" xlink:href="PersonRegistryImpl2b.html" xlink:show="new" xlink:title="PersonRegistryImpl2b.html" xlink:type="simple"><rect codeLine="5" fill="#FEFECE" filter="url(#f74sn76bb7f73)" height="70.8955" id="it.tidalwave.thesefoolishthings.examples.extendedfinderexample.PersonRegistryImpl2b" style="stroke: #A80036; stroke-width: 1.5;" width="336" x="7.5" y="125"/><ellipse cx="22.5" cy="143.7988" fill="#ADD1B2" rx="11" ry="11" style="stroke: #A80036; stroke-width: 1.0;"/><path d="M20.4063,143.6426 Q20.4063,145.5176 20.9844,146.5332 Q21.5625,147.5332 22.7188,147.5332 Q24.0625,147.5332 24.7188,145.5176 L26.9844,145.9395 Q25.875,149.4707 22.7031,149.4707 Q20.3594,149.4707 19.1406,147.9863 Q17.9219,146.502 17.9219,143.6426 Q17.9219,137.9238 22.625,137.9238 Q24.1719,137.9238 25.2031,138.7363 Q26.25,139.5488 26.75,141.1582 L24.4844,141.7051 Q24.25,140.8301 23.7656,140.3457 Q23.2813,139.8457 22.6563,139.8457 Q20.4063,139.8457 20.4063,143.6426 Z "/><text fill="#000000" font-family="sans-serif" font-size="14" lengthAdjust="spacingAndGlyphs" textLength="138" x="119.5" y="143.1318">PersonRegistryImpl2b</text><text fill="#000000" font-family="sans-serif" font-size="10" lengthAdjust="spacingAndGlyphs" textLength="304" x="36.5" y="155.4785">it.tidalwave.thesefoolishthings.examples.extendedfinderexample</text><line style="stroke: #A80036; stroke-width: 1.5;" x1="8.5" x2="342.5" y1="162.5977" y2="162.5977"/><ellipse cx="18.5" cy="173.5977" fill="#84BE84" rx="3" ry="3" style="stroke: #038048; stroke-width: 1.0;"/><text fill="#000000" font-family="sans-serif" font-size="11" lengthAdjust="spacingAndGlyphs" textLength="86" x="27.5" y="176.9155">add(Person): void</text><ellipse cx="18.5" cy="186.2466" fill="#84BE84" rx="3" ry="3" style="stroke: #038048; stroke-width: 1.0;"/><text fill="#000000" font-family="sans-serif" font-size="11" lengthAdjust="spacingAndGlyphs" textLength="130" x="27.5" y="189.5645">findPerson(): PersonFinder</text></a><!--MD5=[f437b285e9c234b52cf5f7c476f0dc8e]
class it.tidalwave.thesefoolishthings.examples.extendedfinderexample.PersonRegistry2--><a href="PersonRegistry2.html" target="_top" title="PersonRegistry2.html" xlink:actuate="onRequest" xlink:href="PersonRegistry2.html" xlink:show="new" xlink:title="PersonRegistry2.html" xlink:type="simple"><rect codeLine="10" fill="#FEFECE" filter="url(#f74sn76bb7f73)" height="58.2466" id="it.tidalwave.thesefoolishthings.examples.extendedfinderexample.PersonRegistry2" style="stroke: #A80036; stroke-width: 1.5;" width="337" x="7" y="7"/><ellipse cx="22" cy="25.7988" fill="#B4A7E5" rx="11" ry="11" style="stroke: #A80036; stroke-width: 1.0;"/><path d="M18.2969,20.0957 L25.9063,20.0957 L25.9063,21.9863 L23.3281,21.9863 L23.3281,29.4082 L25.9063,29.4082 L25.9063,31.2988 L18.2969,31.2988 L18.2969,29.4082 L20.8906,29.4082 L20.8906,21.9863 L18.2969,21.9863 L18.2969,20.0957 Z "/><text fill="#000000" font-family="sans-serif" font-size="14" font-style="italic" lengthAdjust="spacingAndGlyphs" textLength="105" x="136" y="25.1318">PersonRegistry2</text><text fill="#000000" font-family="sans-serif" font-size="10" font-style="italic" lengthAdjust="spacingAndGlyphs" textLength="305" x="36" y="37.4785">it.tidalwave.thesefoolishthings.examples.extendedfinderexample</text><line style="stroke: #A80036; stroke-width: 1.5;" x1="8" x2="343" y1="44.5977" y2="44.5977"/><ellipse cx="18" cy="55.5977" fill="#84BE84" rx="3" ry="3" style="stroke: #038048; stroke-width: 1.0;"/><text fill="#000000" font-family="sans-serif" font-size="11" font-style="italic" lengthAdjust="spacingAndGlyphs" textLength="134" x="27" y="58.9155">findPerson(): PersonFinder</text></a><!--MD5=[231b1734999c0c01b4459540f4c1a48b]
reverse link it.tidalwave.thesefoolishthings.examples.extendedfinderexample.PersonRegistry2 to it.tidalwave.thesefoolishthings.examples.extendedfinderexample.PersonRegistryImpl2b--><path codeLine="14" d="M175.5,85.44 C175.5,98.66 175.5,112.7 175.5,124.97 " fill="none" id="it.tidalwave.thesefoolishthings.examples.extendedfinderexample.PersonRegistry2-backto-it.tidalwave.thesefoolishthings.examples.extendedfinderexample.PersonRegistryImpl2b" style="stroke: #A80036; stroke-width: 1.0; stroke-dasharray: 7.0,7.0;"/><polygon fill="none" points="168.5,85.1,175.5,65.1,182.5,85.1,168.5,85.1" style="stroke: #A80036; stroke-width: 1.0;"/><text fill="#888888" font-family="sans-serif" font-size="10" lengthAdjust="spacingAndGlyphs" textLength="190" x="77.5" y="218.2754">UMLDoclet 2.0.12, PlantUML 1.2020.16</text><!--MD5=[9381f11dc7e0906c4239228113ff260a]
@startuml
    set namespaceSeparator none
    hide empty fields
    hide empty methods

    class "<size:14>PersonRegistryImpl2b\n<size:10>it.tidalwave.thesefoolishthings.examples.extendedfinderexample" as it.tidalwave.thesefoolishthings.examples.extendedfinderexample.PersonRegistryImpl2b [[PersonRegistryImpl2b.html]] {
        +add(Person): void
        +findPerson(): PersonFinder
    }

    interface "<size:14>PersonRegistry2\n<size:10>it.tidalwave.thesefoolishthings.examples.extendedfinderexample" as it.tidalwave.thesefoolishthings.examples.extendedfinderexample.PersonRegistry2 [[PersonRegistry2.html]] {
        {abstract} +findPerson(): PersonFinder
    }

    it.tidalwave.thesefoolishthings.examples.extendedfinderexample.PersonRegistry2 <|.. it.tidalwave.thesefoolishthings.examples.extendedfinderexample.PersonRegistryImpl2b

    center footer UMLDoclet 2.0.12, PlantUML 1.2020.16
@enduml

PlantUML version 1.2020.16(Sun Aug 23 22:20:43 CEST 2020)
(APACHE source distribution)
Java Runtime: OpenJDK Runtime Environment
JVM: OpenJDK 64-Bit Server VM
Default Encoding: UTF-8
Language: en
Country: US
--></g></svg>