<?xml version="1.0" encoding="UTF-8" standalone="no"?><svg xmlns="http://www.w3.org/2000/svg" xmlns:xlink="http://www.w3.org/1999/xlink" contentScriptType="application/ecmascript" contentStyleType="text/css" height="96px" preserveAspectRatio="none" style="width:272px;height:96px;" version="1.1" viewBox="0 0 272 96" width="272px" zoomAndPan="magnify"><defs><filter height="300%" id="f17jqijkxfc0ym" width="300%" x="-1" y="-1"><feGaussianBlur result="blurOut" stdDeviation="2.0"/><feColorMatrix in="blurOut" result="blurOut2" type="matrix" values="0 0 0 0 0 0 0 0 0 0 0 0 0 0 0 0 0 0 .4 0"/><feOffset dx="4.0" dy="4.0" in="blurOut2" result="blurOut3"/><feBlend in="SourceGraphic" in2="blurOut3" mode="normal"/></filter></defs><g><!--MD5=[ac9e429ca1c210cc33418fe9f928e496]
class it.tidalwave.image.java2d.AdditionalOperations--><a href="AdditionalOperations.html" target="_top" title="AdditionalOperations.html" xlink:actuate="onRequest" xlink:href="AdditionalOperations.html" xlink:show="new" xlink:title="AdditionalOperations.html" xlink:type="simple"><rect codeLine="5" fill="#FEFECE" filter="url(#f17jqijkxfc0ym)" height="59.2207" id="it.tidalwave.image.java2d.AdditionalOperations" style="stroke: #A80036; stroke-width: 1.5;" width="246" x="7" y="7"/><ellipse cx="52.25" cy="26.1328" fill="#ADD1B2" rx="11" ry="11" style="stroke: #A80036; stroke-width: 1.0;"/><path d="M54.7231,32.2759 Q54.1421,32.5747 53.5029,32.7241 Q52.8638,32.8735 52.1582,32.8735 Q49.6514,32.8735 48.3315,31.2217 Q47.0117,29.5698 47.0117,26.4487 Q47.0117,23.3193 48.3315,21.6675 Q49.6514,20.0156 52.1582,20.0156 Q52.8638,20.0156 53.5112,20.165 Q54.1587,20.3145 54.7231,20.6133 L54.7231,23.3359 Q54.0923,22.7549 53.4988,22.4851 Q52.9053,22.2153 52.2744,22.2153 Q50.9297,22.2153 50.2449,23.282 Q49.5601,24.3486 49.5601,26.4487 Q49.5601,28.5405 50.2449,29.6072 Q50.9297,30.6738 52.2744,30.6738 Q52.9053,30.6738 53.4988,30.4041 Q54.0923,30.1343 54.7231,29.5532 Z "/><text fill="#000000" font-family="sans-serif" font-size="14" lengthAdjust="spacingAndGlyphs" textLength="147" x="72.75" y="25.5352">AdditionalOperations</text><text fill="#000000" font-family="sans-serif" font-size="10" lengthAdjust="spacingAndGlyphs" textLength="125" x="83.75" y="38.1563">it.tidalwave.image.java2d</text><line style="stroke: #A80036; stroke-width: 1.5;" x1="8" x2="252" y1="45.2656" y2="45.2656"/><ellipse cx="18" cy="56.2656" fill="#84BE84" rx="3" ry="3" style="stroke: #038048; stroke-width: 1.0;"/><text fill="#000000" font-family="sans-serif" font-size="11" lengthAdjust="spacingAndGlyphs" text-decoration="underline" textLength="220" x="27" y="59.9004">register(ImplementationFactoryJ2D): void</text></a><text fill="#888888" font-family="sans-serif" font-size="10" lengthAdjust="spacingAndGlyphs" textLength="188" x="36" y="82.8887">UMLDoclet 2.0.12, PlantUML 1.2020.16</text><!--MD5=[caac225234f6809eadb4ae69bd182ec7]
@startuml
    set namespaceSeparator none
    hide empty fields
    hide empty methods

    class "<size:14>AdditionalOperations\n<size:10>it.tidalwave.image.java2d" as it.tidalwave.image.java2d.AdditionalOperations [[AdditionalOperations.html]] {
        {static} +register(ImplementationFactoryJ2D): void
    }

    center footer UMLDoclet 2.0.12, PlantUML 1.2020.16
@enduml

PlantUML version 1.2020.16(Sun Aug 23 22:20:43 CEST 2020)
(APACHE source distribution)
Java Runtime: OpenJDK Runtime Environment
JVM: OpenJDK 64-Bit Server VM
Default Encoding: UTF-8
Language: en
Country: GB
--></g></svg>