<?xml version="1.0" encoding="UTF-8" standalone="no"?><svg xmlns="http://www.w3.org/2000/svg" xmlns:xlink="http://www.w3.org/1999/xlink" contentScriptType="application/ecmascript" contentStyleType="text/css" height="196px" preserveAspectRatio="none" style="width:576px;height:196px;" version="1.1" viewBox="0 0 576 196" width="576px" zoomAndPan="magnify"><defs><filter height="300%" id="f1c88h95cxrw4f" width="300%" x="-1" y="-1"><feGaussianBlur result="blurOut" stdDeviation="2.0"/><feColorMatrix in="blurOut" result="blurOut2" type="matrix" values="0 0 0 0 0 0 0 0 0 0 0 0 0 0 0 0 0 0 .4 0"/><feOffset dx="4.0" dy="4.0" in="blurOut2" result="blurOut3"/><feBlend in="SourceGraphic" in2="blurOut3" mode="normal"/></filter></defs><g><!--MD5=[91dffaf7eecb2345ffc22f18c02398da]
cluster it.tidalwave.role.spring--><polygon fill="#FFFFFF" filter="url(#f1c88h95cxrw4f)" points="16,6,185,6,192,28.4883,554,28.4883,554,167,16,167,16,6" style="stroke: #000000; stroke-width: 1.5;"/><line style="stroke: #000000; stroke-width: 1.5;" x1="16" x2="192" y1="28.4883" y2="28.4883"/><text fill="#000000" font-family="sans-serif" font-size="14" font-weight="bold" lengthAdjust="spacingAndGlyphs" textLength="163" x="20" y="21.5352">it.tidalwave.role.spring</text><!--MD5=[2a4ee144ec3d6f1744c1eeb0306a37f1]
class it.tidalwave.role.spring.SpringDefaultAsTest--><a href="SpringDefaultAsTest.html" target="_top" title="SpringDefaultAsTest.html" xlink:actuate="onRequest" xlink:href="SpringDefaultAsTest.html" xlink:show="new" xlink:title="SpringDefaultAsTest.html" xlink:type="simple"><rect codeLine="3" fill="#FEFECE" filter="url(#f1c88h95cxrw4f)" height="125.7305" id="it.tidalwave.role.spring.SpringDefaultAsTest" style="stroke: #A80036; stroke-width: 1.5;" width="522" x="24" y="33"/><ellipse cx="222.75" cy="49" fill="#ADD1B2" rx="11" ry="11" style="stroke: #A80036; stroke-width: 1.0;"/><path d="M225.2231,55.1431 Q224.6421,55.4419 224.0029,55.5913 Q223.3638,55.7407 222.6582,55.7407 Q220.1514,55.7407 218.8315,54.0889 Q217.5117,52.437 217.5117,49.3159 Q217.5117,46.1865 218.8315,44.5347 Q220.1514,42.8828 222.6582,42.8828 Q223.3638,42.8828 224.0112,43.0322 Q224.6587,43.1816 225.2231,43.4805 L225.2231,46.2031 Q224.5923,45.6221 223.9988,45.3523 Q223.4053,45.0825 222.7744,45.0825 Q221.4297,45.0825 220.7449,46.1492 Q220.0601,47.2158 220.0601,49.3159 Q220.0601,51.4077 220.7449,52.4744 Q221.4297,53.541 222.7744,53.541 Q223.4053,53.541 223.9988,53.2712 Q224.5923,53.0015 225.2231,52.4204 Z "/><text fill="#000000" font-family="sans-serif" font-size="12" lengthAdjust="spacingAndGlyphs" textLength="116" x="243.25" y="53.5352">SpringDefaultAsTest</text><line style="stroke: #A80036; stroke-width: 1.5;" x1="25" x2="545" y1="65" y2="65"/><line style="stroke: #A80036; stroke-width: 1.5;" x1="25" x2="545" y1="73" y2="73"/><ellipse cx="35" cy="84" fill="#84BE84" rx="3" ry="3" style="stroke: #038048; stroke-width: 1.0;"/><text fill="#000000" font-family="sans-serif" font-size="11" lengthAdjust="spacingAndGlyphs" textLength="67" x="44" y="87.6348">setup(): void</text><ellipse cx="35" cy="96.9551" fill="#84BE84" rx="3" ry="3" style="stroke: #038048; stroke-width: 1.0;"/><text fill="#000000" font-family="sans-serif" font-size="11" lengthAdjust="spacingAndGlyphs" textLength="319" x="44" y="100.5898">must_inject_a_role_properly_assigning_its_owner_1(): void</text><ellipse cx="35" cy="109.9102" fill="#84BE84" rx="3" ry="3" style="stroke: #038048; stroke-width: 1.0;"/><text fill="#000000" font-family="sans-serif" font-size="11" lengthAdjust="spacingAndGlyphs" textLength="496" x="44" y="113.5449">must_inject_a_role_supporting_multiple_datum_types_properly_assigning_its_owner(): void</text><ellipse cx="35" cy="122.8652" fill="#84BE84" rx="3" ry="3" style="stroke: #038048; stroke-width: 1.0;"/><text fill="#000000" font-family="sans-serif" font-size="11" lengthAdjust="spacingAndGlyphs" textLength="396" x="44" y="126.5">must_throw_AsException_when_asking_for_an_unavailable_role_1(): void</text><ellipse cx="35" cy="135.8203" fill="#84BE84" rx="3" ry="3" style="stroke: #038048; stroke-width: 1.0;"/><text fill="#000000" font-family="sans-serif" font-size="11" lengthAdjust="spacingAndGlyphs" textLength="396" x="44" y="139.4551">must_throw_AsException_when_asking_for_an_unavailable_role_2(): void</text><ellipse cx="35" cy="148.7754" fill="#84BE84" rx="3" ry="3" style="stroke: #038048; stroke-width: 1.0;"/><text fill="#000000" font-family="sans-serif" font-size="11" lengthAdjust="spacingAndGlyphs" textLength="406" x="44" y="152.4102">must_return_the_datum_object_when_it_directly_implements_a_role(): void</text></a><text fill="#888888" font-family="sans-serif" font-size="10" lengthAdjust="spacingAndGlyphs" textLength="188" x="185" y="182.668">UMLDoclet 2.0.12, PlantUML 1.2020.16</text><!--MD5=[ec4ad1e589f412c22cded0d634b76863]
@startuml
    namespace it.tidalwave.role.spring {

        class SpringDefaultAsTest [[SpringDefaultAsTest.html]] {
            +setup(): void
            +must_inject_a_role_properly_assigning_its_owner_1(): void
            +must_inject_a_role_supporting_multiple_datum_types_properly_assigning_its_owner(): void
            +must_throw_AsException_when_asking_for_an_unavailable_role_1(): void
            +must_throw_AsException_when_asking_for_an_unavailable_role_2(): void
            +must_return_the_datum_object_when_it_directly_implements_a_role(): void
        }

    }

    center footer UMLDoclet 2.0.12, PlantUML 1.2020.16
@enduml

PlantUML version 1.2020.16(Sun Aug 23 22:20:43 CEST 2020)
(APACHE source distribution)
Java Runtime: OpenJDK Runtime Environment
JVM: OpenJDK 64-Bit Server VM
Default Encoding: UTF-8
Language: en
Country: GB
--></g></svg>