<?xml version="1.0" encoding="UTF-8" standalone="no"?><svg xmlns="http://www.w3.org/2000/svg" xmlns:xlink="http://www.w3.org/1999/xlink" contentScriptType="application/ecmascript" contentStyleType="text/css" height="235px" preserveAspectRatio="none" style="width:319px;height:235px;" version="1.1" viewBox="0 0 319 235" width="319px" zoomAndPan="magnify"><defs><filter height="300%" id="fd7731h93qnpx" width="300%" x="-1" y="-1"><feGaussianBlur result="blurOut" stdDeviation="2.0"/><feColorMatrix in="blurOut" result="blurOut2" type="matrix" values="0 0 0 0 0 0 0 0 0 0 0 0 0 0 0 0 0 0 .4 0"/><feOffset dx="4.0" dy="4.0" in="blurOut2" result="blurOut3"/><feBlend in="SourceGraphic" in2="blurOut3" mode="normal"/></filter></defs><g><!--MD5=[28f428c66ea6dc6ddd3e830eb1887f56]
class it.tidalwave.role.Composite--><a href="Composite.html" target="_top" title="Composite.html" xlink:actuate="onRequest" xlink:href="Composite.html" xlink:show="new" xlink:title="Composite.html" xlink:type="simple"><rect codeLine="5" fill="#FEFECE" filter="url(#fd7731h93qnpx)" height="91.5444" id="it.tidalwave.role.Composite" style="stroke: #A80036; stroke-width: 1.5;" width="293" x="7" y="10"/><ellipse cx="22" cy="28.7988" fill="#B4A7E5" rx="11" ry="11" style="stroke: #A80036; stroke-width: 1.0;"/><path d="M18.2969,23.0957 L25.9063,23.0957 L25.9063,24.9863 L23.3281,24.9863 L23.3281,32.4082 L25.9063,32.4082 L25.9063,34.2988 L18.2969,34.2988 L18.2969,32.4082 L20.8906,32.4082 L20.8906,24.9863 L18.2969,24.9863 L18.2969,23.0957 Z "/><text fill="#000000" font-family="sans-serif" font-size="14" font-style="italic" lengthAdjust="spacingAndGlyphs" textLength="67" x="40.5" y="28.1318">Composite</text><text fill="#000000" font-family="sans-serif" font-size="10" font-style="italic" lengthAdjust="spacingAndGlyphs" textLength="76" x="36" y="40.4785">it.tidalwave.role</text><rect fill="#FFFFFF" height="15.7988" style="stroke: #000000; stroke-width: 1.0; stroke-dasharray: 2.0,2.0;" width="183" x="120" y="7"/><text fill="#000000" font-family="sans-serif" font-size="12" font-style="italic" lengthAdjust="spacingAndGlyphs" textLength="181" x="121" y="19.2559">T, F extends Finder&lt;? extends T&gt;</text><line style="stroke: #A80036; stroke-width: 1.5;" x1="8" x2="299" y1="47.5977" y2="47.5977"/><ellipse cx="18" cy="58.5977" fill="none" rx="3" ry="3" style="stroke: #038048; stroke-width: 1.0;"/><text fill="#000000" font-family="sans-serif" font-size="11" lengthAdjust="spacingAndGlyphs" text-decoration="underline" textLength="157" x="27" y="61.9155">_Composite_: Class&lt;Composite&gt;</text><ellipse cx="18" cy="71.2466" fill="none" rx="3" ry="3" style="stroke: #038048; stroke-width: 1.0;"/><text fill="#000000" font-family="sans-serif" font-size="11" lengthAdjust="spacingAndGlyphs" text-decoration="underline" textLength="224" x="27" y="74.5645">DEFAULT: Composite&lt;Object, Finder&lt;Object&gt;&gt;</text><line style="stroke: #A80036; stroke-width: 1.5;" x1="8" x2="299" y1="80.8955" y2="80.8955"/><ellipse cx="18" cy="91.8955" fill="#84BE84" rx="3" ry="3" style="stroke: #038048; stroke-width: 1.0;"/><text fill="#000000" font-family="sans-serif" font-size="11" font-style="italic" lengthAdjust="spacingAndGlyphs" textLength="228" x="27" y="95.2134">findChildren(): F extends Finder&lt;? extends T&gt;</text></a><!--MD5=[96fda046302279efd0df60a539f9f1f0]
class it.tidalwave.role.Composite.Visitor--><a href="Composite.Visitor.html" target="_top" title="Composite.Visitor.html" xlink:actuate="onRequest" xlink:href="Composite.Visitor.html" xlink:show="new" xlink:title="Composite.Visitor.html" xlink:type="simple"><rect codeLine="10" fill="#FEFECE" filter="url(#fd7731h93qnpx)" height="37.5977" id="it.tidalwave.role.Composite.Visitor" style="stroke: #A80036; stroke-width: 1.5;" width="168" x="69.5" y="162"/><ellipse cx="84.5" cy="180.7988" fill="#B4A7E5" rx="11" ry="11" style="stroke: #A80036; stroke-width: 1.0;"/><path d="M80.7969,175.0957 L88.4063,175.0957 L88.4063,176.9863 L85.8281,176.9863 L85.8281,184.4082 L88.4063,184.4082 L88.4063,186.2988 L80.7969,186.2988 L80.7969,184.4082 L83.3906,184.4082 L83.3906,176.9863 L80.7969,176.9863 L80.7969,175.0957 Z "/><text fill="#000000" font-family="sans-serif" font-size="14" font-style="italic" lengthAdjust="spacingAndGlyphs" textLength="110" x="98.5" y="180.1318">Composite.Visitor</text><text fill="#000000" font-family="sans-serif" font-size="10" font-style="italic" lengthAdjust="spacingAndGlyphs" textLength="76" x="115.5" y="192.4785">it.tidalwave.role</text><rect fill="#FFFFFF" height="15.7988" style="stroke: #000000; stroke-width: 1.0; stroke-dasharray: 2.0,2.0;" width="24" x="216.5" y="159"/><text fill="#000000" font-family="sans-serif" font-size="12" font-style="italic" lengthAdjust="spacingAndGlyphs" textLength="22" x="217.5" y="171.2559">T, R</text></a><!--MD5=[c0a6916de380d2acc83b64a898d5fdf8]
reverse link it.tidalwave.role.Composite to it.tidalwave.role.Composite.Visitor--><path codeLine="12" d="M153.5,117.22 C153.5,133.51 153.5,149.93 153.5,161.89 " fill="none" id="it.tidalwave.role.Composite-backto-it.tidalwave.role.Composite.Visitor" style="stroke: #A80036; stroke-width: 1.0;"/><ellipse cx="153.5" cy="110.1" fill="#FFFFFF" rx="8" ry="8" style="stroke: #A80036; stroke-width: 1.0;"/><line style="stroke: #A80036; stroke-width: 1.0;" x1="153.5" x2="153.5" y1="118.1" y2="102.1"/><line style="stroke: #A80036; stroke-width: 1.0;" x1="145.5" x2="161.5" y1="110.1" y2="110.1"/><text fill="#888888" font-family="sans-serif" font-size="10" lengthAdjust="spacingAndGlyphs" textLength="190" x="55.5" y="221.9775">UMLDoclet 2.0.12, PlantUML 1.2020.16</text><!--MD5=[c0394554a7080570e354c0e90cef0357]
@startuml
    set namespaceSeparator none
    hide empty fields
    hide empty methods

    interface "<size:14>Composite\n<size:10>it.tidalwave.role" as it.tidalwave.role.Composite<T, F extends Finder<? extends T>> [[Composite.html]] {
        {static} +_Composite_: Class<Composite>
        {static} +DEFAULT: Composite<Object, Finder<Object>>
        {abstract} +findChildren(): F extends Finder<? extends T>
    }
    interface "<size:14>Composite.Visitor\n<size:10>it.tidalwave.role" as it.tidalwave.role.Composite.Visitor<T, R> [[Composite.Visitor.html]]

    it.tidalwave.role.Composite +- - it.tidalwave.role.Composite.Visitor

    center footer UMLDoclet 2.0.12, PlantUML 1.2020.16
@enduml

PlantUML version 1.2020.16(Sun Aug 23 22:20:43 CEST 2020)
(APACHE source distribution)
Java Runtime: OpenJDK Runtime Environment
JVM: OpenJDK 64-Bit Server VM
Default Encoding: UTF-8
Language: en
Country: US
--></g></svg>