@startuml
    set namespaceSeparator none
    hide empty fields
    hide empty methods

    interface "<size:14>ContextManager.SupplierWithException\n<size:10>it.tidalwave.role" as it.tidalwave.role.ContextManager.SupplierWithException<T, E extends Throwable> [[ContextManager.SupplierWithException.html]] {
        {abstract} +get(): T
    }

    interface "<size:14>ContextManager\n<size:10>it.tidalwave.role" as it.tidalwave.role.ContextManager [[ContextManager.html]] {
        {abstract} +getContexts(): List<Object>
        {abstract} +findContextOfType(Class<T>): T
        {abstract} +addGlobalContext(Object): void
        {abstract} +removeGlobalContext(Object): void
        {abstract} +addLocalContext(Object): void
        {abstract} +removeLocalContext(Object): void
        {abstract} +runEWithContexts(SupplierWithException<T, E extends Throwable>, Object...): T
    }

    it.tidalwave.role.ContextManager +-- it.tidalwave.role.ContextManager.SupplierWithException

    center footer UMLDoclet 2.0.12, PlantUML 1.2020.16
@enduml
