<?xml version="1.0" encoding="UTF-8" standalone="no"?><svg xmlns="http://www.w3.org/2000/svg" xmlns:xlink="http://www.w3.org/1999/xlink" contentScriptType="application/ecmascript" contentStyleType="text/css" height="128px" preserveAspectRatio="none" style="width:215px;height:128px;" version="1.1" viewBox="0 0 215 128" width="215px" zoomAndPan="magnify"><defs><filter height="300%" id="f1x6xo5xb004oa" width="300%" x="-1" y="-1"><feGaussianBlur result="blurOut" stdDeviation="2.0"/><feColorMatrix in="blurOut" result="blurOut2" type="matrix" values="0 0 0 0 0 0 0 0 0 0 0 0 0 0 0 0 0 0 .4 0"/><feOffset dx="4.0" dy="4.0" in="blurOut2" result="blurOut3"/><feBlend in="SourceGraphic" in2="blurOut3" mode="normal"/></filter></defs><g><!--MD5=[9f1499dda238812d62a98ae179449596]
class it.tidalwave.role.Removable--><a href="Removable.html" target="_top" title="Removable.html" xlink:actuate="onRequest" xlink:href="Removable.html" xlink:show="new" xlink:title="Removable.html" xlink:type="simple"><rect codeLine="5" fill="#FEFECE" filter="url(#f1x6xo5xb004oa)" height="91.5444" id="it.tidalwave.role.Removable" style="stroke: #A80036; stroke-width: 1.5;" width="189" x="7" y="7"/><ellipse cx="59.25" cy="25.7988" fill="#B4A7E5" rx="11" ry="11" style="stroke: #A80036; stroke-width: 1.0;"/><path d="M55.5469,20.0957 L63.1563,20.0957 L63.1563,21.9863 L60.5781,21.9863 L60.5781,29.4082 L63.1563,29.4082 L63.1563,31.2988 L55.5469,31.2988 L55.5469,29.4082 L58.1406,29.4082 L58.1406,21.9863 L55.5469,21.9863 L55.5469,20.0957 Z "/><text fill="#000000" font-family="sans-serif" font-size="14" font-style="italic" lengthAdjust="spacingAndGlyphs" textLength="70" x="82.75" y="25.1318">Removable</text><text fill="#000000" font-family="sans-serif" font-size="10" font-style="italic" lengthAdjust="spacingAndGlyphs" textLength="76" x="79.75" y="37.4785">it.tidalwave.role</text><line style="stroke: #A80036; stroke-width: 1.5;" x1="8" x2="195" y1="44.5977" y2="44.5977"/><ellipse cx="18" cy="55.5977" fill="none" rx="3" ry="3" style="stroke: #038048; stroke-width: 1.0;"/><text fill="#000000" font-family="sans-serif" font-size="11" lengthAdjust="spacingAndGlyphs" text-decoration="underline" textLength="163" x="27" y="58.9155">_Removable_: Class&lt;Removable&gt;</text><ellipse cx="18" cy="68.2466" fill="none" rx="3" ry="3" style="stroke: #038048; stroke-width: 1.0;"/><text fill="#000000" font-family="sans-serif" font-size="11" lengthAdjust="spacingAndGlyphs" text-decoration="underline" textLength="105" x="27" y="71.5645">DEFAULT: Removable</text><line style="stroke: #A80036; stroke-width: 1.5;" x1="8" x2="195" y1="77.8955" y2="77.8955"/><ellipse cx="18" cy="88.8955" fill="#84BE84" rx="3" ry="3" style="stroke: #038048; stroke-width: 1.0;"/><text fill="#000000" font-family="sans-serif" font-size="11" font-style="italic" lengthAdjust="spacingAndGlyphs" textLength="70" x="27" y="92.2134">remove(): void</text></a><text fill="#888888" font-family="sans-serif" font-size="10" lengthAdjust="spacingAndGlyphs" textLength="190" x="6.5" y="114.9243">UMLDoclet 2.0.12, PlantUML 1.2020.16</text><!--MD5=[ffaf8c1c1ef0de85d9476820713af4cc]
@startuml
    set namespaceSeparator none
    hide empty fields
    hide empty methods

    interface "<size:14>Removable\n<size:10>it.tidalwave.role" as it.tidalwave.role.Removable [[Removable.html]] {
        {static} +_Removable_: Class<Removable>
        {static} +DEFAULT: Removable
        {abstract} +remove(): void
    }

    center footer UMLDoclet 2.0.12, PlantUML 1.2020.16
@enduml

PlantUML version 1.2020.16(Sun Aug 23 22:20:43 CEST 2020)
(APACHE source distribution)
Java Runtime: OpenJDK Runtime Environment
JVM: OpenJDK 64-Bit Server VM
Default Encoding: UTF-8
Language: en
Country: US
--></g></svg>