@startuml
    set namespaceSeparator none
    hide circle
    hide empty fields
    hide empty methods

    it.tidalwave.role.spi --> it.tidalwave.util
    it.tidalwave.role.spi --> it.tidalwave.role.impl
    it.tidalwave.util --> it.tidalwave.role.spi
    it.tidalwave.util.ui --> it.tidalwave.util
    it.tidalwave.util.spi --> it.tidalwave.util
    it.tidalwave.util.thread.annotation --> it.tidalwave.util.thread

    ' Package links
    class "it.tidalwave.role.spi" [[it/tidalwave/role/spi/package-summary.html]] {
    }
    class "it.tidalwave.util" [[it/tidalwave/util/package-summary.html]] {
    }
    class "it.tidalwave.util.ui" [[it/tidalwave/util/ui/package-summary.html]] {
    }
    class "it.tidalwave.util.spi" [[it/tidalwave/util/spi/package-summary.html]] {
    }
    class "it.tidalwave.util.thread.annotation" [[it/tidalwave/util/thread/annotation/package-summary.html]] {
    }
    class "it.tidalwave.util.thread" [[it/tidalwave/util/thread/package-summary.html]] {
    }

    center footer UMLDoclet 2.0.12, PlantUML 1.2020.16
@enduml
