<?xml version="1.0" encoding="UTF-8" standalone="no"?><svg xmlns="http://www.w3.org/2000/svg" xmlns:xlink="http://www.w3.org/1999/xlink" contentScriptType="application/ecmascript" contentStyleType="text/css" height="151px" preserveAspectRatio="none" style="width:667px;height:151px;" version="1.1" viewBox="0 0 667 151" width="667px" zoomAndPan="magnify"><defs><filter height="300%" id="fch6il3qr5m0z" width="300%" x="-1" y="-1"><feGaussianBlur result="blurOut" stdDeviation="2.0"/><feColorMatrix in="blurOut" result="blurOut2" type="matrix" values="0 0 0 0 0 0 0 0 0 0 0 0 0 0 0 0 0 0 .4 0"/><feOffset dx="4.0" dy="4.0" in="blurOut2" result="blurOut3"/><feBlend in="SourceGraphic" in2="blurOut3" mode="normal"/></filter></defs><g><!--MD5=[d39c43ac59af4b6a0c111f3610b3af39]
class it.tidalwave.role.spi--><a href="it/tidalwave/role/spi/package-summary.html" target="_top" title="it/tidalwave/role/spi/package-summary.html" xlink:actuate="onRequest" xlink:href="it/tidalwave/role/spi/package-summary.html" xlink:show="new" xlink:title="it/tidalwave/role/spi/package-summary.html" xlink:type="simple"><rect codeLine="14" fill="#FEFECE" filter="url(#fch6il3qr5m0z)" height="24.1328" id="it.tidalwave.role.spi" style="stroke: #A80036; stroke-width: 1.5;" width="118" x="297" y="7"/><text fill="#000000" font-family="sans-serif" font-size="12" lengthAdjust="spacingAndGlyphs" textLength="112" x="300" y="23.6016">it.tidalwave.role.spi</text></a><!--MD5=[e2825e41240dc3ac7b156e1d527e9be0]
class it.tidalwave.util--><a href="it/tidalwave/util/package-summary.html" target="_top" title="it/tidalwave/util/package-summary.html" xlink:actuate="onRequest" xlink:href="it/tidalwave/util/package-summary.html" xlink:show="new" xlink:title="it/tidalwave/util/package-summary.html" xlink:type="simple"><rect codeLine="16" fill="#FEFECE" filter="url(#fch6il3qr5m0z)" height="24.1328" id="it.tidalwave.util" style="stroke: #A80036; stroke-width: 1.5;" width="92" x="163" y="91"/><text fill="#000000" font-family="sans-serif" font-size="12" lengthAdjust="spacingAndGlyphs" textLength="86" x="166" y="107.6016">it.tidalwave.util</text></a><!--MD5=[fed12ef554d02d9fda98f88ad87f181e]
class it.tidalwave.role.impl--><rect fill="#FEFECE" filter="url(#fch6il3qr5m0z)" height="24.1328" id="it.tidalwave.role.impl" style="stroke: #A80036; stroke-width: 1.5;" width="126" x="293" y="91"/><text fill="#000000" font-family="sans-serif" font-size="12" lengthAdjust="spacingAndGlyphs" textLength="120" x="296" y="107.6016">it.tidalwave.role.impl</text><!--MD5=[d9cc2a12eccdaec0b66e99308938522a]
class it.tidalwave.util.ui--><a href="it/tidalwave/util/ui/package-summary.html" target="_top" title="it/tidalwave/util/ui/package-summary.html" xlink:actuate="onRequest" xlink:href="it/tidalwave/util/ui/package-summary.html" xlink:show="new" xlink:title="it/tidalwave/util/ui/package-summary.html" xlink:type="simple"><rect codeLine="18" fill="#FEFECE" filter="url(#fch6il3qr5m0z)" height="24.1328" id="it.tidalwave.util.ui" style="stroke: #A80036; stroke-width: 1.5;" width="106" x="7" y="7"/><text fill="#000000" font-family="sans-serif" font-size="12" lengthAdjust="spacingAndGlyphs" textLength="100" x="10" y="23.6016">it.tidalwave.util.ui</text></a><!--MD5=[cadb40e77b29b34c4214bbbd416f90c0]
class it.tidalwave.util.spi--><a href="it/tidalwave/util/spi/package-summary.html" target="_top" title="it/tidalwave/util/spi/package-summary.html" xlink:actuate="onRequest" xlink:href="it/tidalwave/util/spi/package-summary.html" xlink:show="new" xlink:title="it/tidalwave/util/spi/package-summary.html" xlink:type="simple"><rect codeLine="20" fill="#FEFECE" filter="url(#fch6il3qr5m0z)" height="24.1328" id="it.tidalwave.util.spi" style="stroke: #A80036; stroke-width: 1.5;" width="113" x="148.5" y="7"/><text fill="#000000" font-family="sans-serif" font-size="12" lengthAdjust="spacingAndGlyphs" textLength="107" x="151.5" y="23.6016">it.tidalwave.util.spi</text></a><!--MD5=[40d1e2fbcca84a720f6726bc639a72ee]
class it.tidalwave.util.thread.annotation--><a href="it/tidalwave/util/thread/annotation/package-summary.html" target="_top" title="it/tidalwave/util/thread/annotation/package-summary.html" xlink:actuate="onRequest" xlink:href="it/tidalwave/util/thread/annotation/package-summary.html" xlink:show="new" xlink:title="it/tidalwave/util/thread/annotation/package-summary.html" xlink:type="simple"><rect codeLine="22" fill="#FEFECE" filter="url(#fch6il3qr5m0z)" height="24.1328" id="it.tidalwave.util.thread.annotation" style="stroke: #A80036; stroke-width: 1.5;" width="198" x="450" y="7"/><text fill="#000000" font-family="sans-serif" font-size="12" lengthAdjust="spacingAndGlyphs" textLength="192" x="453" y="23.6016">it.tidalwave.util.thread.annotation</text></a><!--MD5=[f7df328f4ed388087e55c53026f9cffd]
class it.tidalwave.util.thread--><a href="it/tidalwave/util/thread/package-summary.html" target="_top" title="it/tidalwave/util/thread/package-summary.html" xlink:actuate="onRequest" xlink:href="it/tidalwave/util/thread/package-summary.html" xlink:show="new" xlink:title="it/tidalwave/util/thread/package-summary.html" xlink:type="simple"><rect codeLine="24" fill="#FEFECE" filter="url(#fch6il3qr5m0z)" height="24.1328" id="it.tidalwave.util.thread" style="stroke: #A80036; stroke-width: 1.5;" width="134" x="482" y="91"/><text fill="#000000" font-family="sans-serif" font-size="12" lengthAdjust="spacingAndGlyphs" textLength="128" x="485" y="107.6016">it.tidalwave.util.thread</text></a><!--MD5=[5b57471570d0cb4db9ca4156b62a2187]
link it.tidalwave.role.spi to it.tidalwave.util--><path codeLine="6" d="M325.6818,31.0352 C294.9876,46.0679 249.7239,71.7871 225.1182,88.0628 " fill="none" id="it.tidalwave.role.spi-to-it.tidalwave.util" style="stroke: #A80036; stroke-width: 1.0;"/><polygon fill="#A80036" points="220.7723,90.9872,230.4722,89.281,224.9205,88.1957,226.0058,82.6439,220.7723,90.9872" style="stroke: #A80036; stroke-width: 1.0;"/><!--MD5=[70424af22c136347faeff5e80089b09f]
link it.tidalwave.util to it.tidalwave.role.spi--><path codeLine="8" d="M239.8167,90.9872 C270.7548,75.965 316.0367,50.2465 340.4351,33.9614 " fill="none" id="it.tidalwave.util-to-it.tidalwave.role.spi" style="stroke: #A80036; stroke-width: 1.0;"/><polygon fill="#A80036" points="344.7397,31.0352,335.0479,32.787,340.6047,33.8462,339.5455,39.403,344.7397,31.0352" style="stroke: #A80036; stroke-width: 1.0;"/><!--MD5=[09c083c1f6b8b5dda95d35bd2f46d0e7]
link it.tidalwave.role.spi to it.tidalwave.role.impl--><path codeLine="7" d="M356,31.0352 C356,45.3818 356,69.4615 356,85.777 " fill="none" id="it.tidalwave.role.spi-to-it.tidalwave.role.impl" style="stroke: #A80036; stroke-width: 1.0;"/><polygon fill="#A80036" points="356,90.9872,360,81.9872,356,85.9872,352,81.9872,356,90.9872" style="stroke: #A80036; stroke-width: 1.0;"/><!--MD5=[c7b1b3eb320c2ec1796793d4eeaa8d97]
link it.tidalwave.util.ui to it.tidalwave.util--><path codeLine="9" d="M81.3481,31.0352 C108.2346,46.1926 154.3927,72.2147 183.2194,88.466 " fill="none" id="it.tidalwave.util.ui-to-it.tidalwave.util" style="stroke: #A80036; stroke-width: 1.0;"/><polygon fill="#A80036" points="187.6915,90.9872,181.8158,83.083,183.3359,88.5318,177.8872,90.0519,187.6915,90.9872" style="stroke: #A80036; stroke-width: 1.0;"/><!--MD5=[4b6963b8be3ed41836ad51d65a687825]
link it.tidalwave.util.spi to it.tidalwave.util--><path codeLine="10" d="M205.5731,31.0352 C206.2563,45.3818 207.4029,69.4615 208.1799,85.777 " fill="none" id="it.tidalwave.util.spi-to-it.tidalwave.util" style="stroke: #A80036; stroke-width: 1.0;"/><polygon fill="#A80036" points="208.428,90.9872,211.9953,81.8071,208.1901,85.9929,204.0044,82.1877,208.428,90.9872" style="stroke: #A80036; stroke-width: 1.0;"/><!--MD5=[9dd599068abb2949190f7187cc98f969]
link it.tidalwave.util.thread.annotation to it.tidalwave.util.thread--><path codeLine="11" d="M549,31.0352 C549,45.3818 549,69.4615 549,85.777 " fill="none" id="it.tidalwave.util.thread.annotation-to-it.tidalwave.util.thread" style="stroke: #A80036; stroke-width: 1.0;"/><polygon fill="#A80036" points="549,90.9872,553,81.9872,549,85.9872,545,81.9872,549,90.9872" style="stroke: #A80036; stroke-width: 1.0;"/><text fill="#888888" font-family="sans-serif" font-size="10" lengthAdjust="spacingAndGlyphs" textLength="188" x="230.5" y="137.8008">UMLDoclet 2.0.12, PlantUML 1.2020.16</text><!--MD5=[4893ebb1ecf9e24c6c40fcc0d86db751]
@startuml
    set namespaceSeparator none
    hide circle
    hide empty fields
    hide empty methods

    it.tidalwave.role.spi - -> it.tidalwave.util
    it.tidalwave.role.spi - -> it.tidalwave.role.impl
    it.tidalwave.util - -> it.tidalwave.role.spi
    it.tidalwave.util.ui - -> it.tidalwave.util
    it.tidalwave.util.spi - -> it.tidalwave.util
    it.tidalwave.util.thread.annotation - -> it.tidalwave.util.thread

    ' Package links
    class "it.tidalwave.role.spi" [[it/tidalwave/role/spi/package-summary.html]] {
    }
    class "it.tidalwave.util" [[it/tidalwave/util/package-summary.html]] {
    }
    class "it.tidalwave.util.ui" [[it/tidalwave/util/ui/package-summary.html]] {
    }
    class "it.tidalwave.util.spi" [[it/tidalwave/util/spi/package-summary.html]] {
    }
    class "it.tidalwave.util.thread.annotation" [[it/tidalwave/util/thread/annotation/package-summary.html]] {
    }
    class "it.tidalwave.util.thread" [[it/tidalwave/util/thread/package-summary.html]] {
    }

    center footer UMLDoclet 2.0.12, PlantUML 1.2020.16
@enduml

@startuml
    set namespaceSeparator none
    hide circle
    hide empty fields
    hide empty methods

    it.tidalwave.role.spi - -> it.tidalwave.util
    it.tidalwave.role.spi - -> it.tidalwave.role.impl
    it.tidalwave.util - -> it.tidalwave.role.spi
    it.tidalwave.util.ui - -> it.tidalwave.util
    it.tidalwave.util.spi - -> it.tidalwave.util
    it.tidalwave.util.thread.annotation - -> it.tidalwave.util.thread

    class "it.tidalwave.role.spi" [[it/tidalwave/role/spi/package-summary.html]] {
    }
    class "it.tidalwave.util" [[it/tidalwave/util/package-summary.html]] {
    }
    class "it.tidalwave.util.ui" [[it/tidalwave/util/ui/package-summary.html]] {
    }
    class "it.tidalwave.util.spi" [[it/tidalwave/util/spi/package-summary.html]] {
    }
    class "it.tidalwave.util.thread.annotation" [[it/tidalwave/util/thread/annotation/package-summary.html]] {
    }
    class "it.tidalwave.util.thread" [[it/tidalwave/util/thread/package-summary.html]] {
    }

    center footer UMLDoclet 2.0.12, PlantUML 1.2020.16
@enduml

PlantUML version 1.2020.16(Sun Aug 23 22:20:43 CEST 2020)
(APACHE source distribution)
Java Runtime: OpenJDK Runtime Environment
JVM: OpenJDK 64-Bit Server VM
Default Encoding: UTF-8
Language: en
Country: GB
--></g></svg>