<?xml version="1.0" encoding="UTF-8" standalone="no"?><svg xmlns="http://www.w3.org/2000/svg" xmlns:xlink="http://www.w3.org/1999/xlink" contentScriptType="application/ecmascript" contentStyleType="text/css" height="361px" preserveAspectRatio="none" style="width:233px;height:361px;" version="1.1" viewBox="0 0 233 361" width="233px" zoomAndPan="magnify"><defs><filter height="300%" id="fken6x8gx8esa" width="300%" x="-1" y="-1"><feGaussianBlur result="blurOut" stdDeviation="2.0"/><feColorMatrix in="blurOut" result="blurOut2" type="matrix" values="0 0 0 0 0 0 0 0 0 0 0 0 0 0 0 0 0 0 .4 0"/><feOffset dx="4.0" dy="4.0" in="blurOut2" result="blurOut3"/><feBlend in="SourceGraphic" in2="blurOut3" mode="normal"/></filter></defs><g><!--MD5=[7b20db2ac40a29d65a71cf81b3f6263d]
class it.tidalwave.accounting.model.types.Money--><a href="Money.html" target="_top" title="Money.html" xlink:actuate="onRequest" xlink:href="Money.html" xlink:show="new" xlink:title="Money.html" xlink:type="simple"><rect codeLine="5" fill="#FEFECE" filter="url(#fken6x8gx8esa)" height="196.7715" id="it.tidalwave.accounting.model.types.Money" style="stroke: #A80036; stroke-width: 1.5;" width="207" x="7" y="129"/><ellipse cx="22" cy="148.1328" fill="#ADD1B2" rx="11" ry="11" style="stroke: #A80036; stroke-width: 1.0;"/><path d="M24.4731,154.2759 Q23.8921,154.5747 23.2529,154.7241 Q22.6138,154.8735 21.9082,154.8735 Q19.4014,154.8735 18.0815,153.2217 Q16.7617,151.5698 16.7617,148.4487 Q16.7617,145.3193 18.0815,143.6675 Q19.4014,142.0156 21.9082,142.0156 Q22.6138,142.0156 23.2612,142.165 Q23.9087,142.3145 24.4731,142.6133 L24.4731,145.3359 Q23.8423,144.7549 23.2488,144.4851 Q22.6553,144.2153 22.0244,144.2153 Q20.6797,144.2153 19.9949,145.282 Q19.3101,146.3486 19.3101,148.4487 Q19.3101,150.5405 19.9949,151.6072 Q20.6797,152.6738 22.0244,152.6738 Q22.6553,152.6738 23.2488,152.4041 Q23.8423,152.1343 24.4731,151.5532 Z "/><text fill="#000000" font-family="sans-serif" font-size="14" lengthAdjust="spacingAndGlyphs" textLength="45" x="101" y="147.5352">Money</text><text fill="#000000" font-family="sans-serif" font-size="10" lengthAdjust="spacingAndGlyphs" textLength="175" x="36" y="160.1563">it.tidalwave.accounting.model.types</text><line style="stroke: #A80036; stroke-width: 1.5;" x1="8" x2="213" y1="167.2656" y2="167.2656"/><ellipse cx="18" cy="178.2656" fill="none" rx="3" ry="3" style="stroke: #038048; stroke-width: 1.0;"/><text fill="#000000" font-family="sans-serif" font-size="11" lengthAdjust="spacingAndGlyphs" text-decoration="underline" textLength="70" x="27" y="181.9004">ZERO: Money</text><line style="stroke: #A80036; stroke-width: 1.5;" x1="8" x2="213" y1="188.2207" y2="188.2207"/><ellipse cx="18" cy="199.2207" fill="#84BE84" rx="3" ry="3" style="stroke: #038048; stroke-width: 1.0;"/><text fill="#000000" font-family="sans-serif" font-size="11" lengthAdjust="spacingAndGlyphs" textLength="105" x="27" y="202.8555">Money(long, String)</text><ellipse cx="18" cy="212.1758" fill="#84BE84" rx="3" ry="3" style="stroke: #038048; stroke-width: 1.0;"/><text fill="#000000" font-family="sans-serif" font-size="11" lengthAdjust="spacingAndGlyphs" text-decoration="underline" textLength="111" x="27" y="215.8105">parse(String): Money</text><ellipse cx="18" cy="225.1309" fill="#84BE84" rx="3" ry="3" style="stroke: #038048; stroke-width: 1.0;"/><text fill="#000000" font-family="sans-serif" font-size="11" lengthAdjust="spacingAndGlyphs" textLength="104" x="27" y="228.7656">add(Money): Money</text><ellipse cx="18" cy="238.0859" fill="#84BE84" rx="3" ry="3" style="stroke: #038048; stroke-width: 1.0;"/><text fill="#000000" font-family="sans-serif" font-size="11" lengthAdjust="spacingAndGlyphs" textLength="129" x="27" y="241.7207">subtract(Money): Money</text><ellipse cx="18" cy="251.041" fill="#84BE84" rx="3" ry="3" style="stroke: #038048; stroke-width: 1.0;"/><text fill="#000000" font-family="sans-serif" font-size="11" lengthAdjust="spacingAndGlyphs" textLength="125" x="27" y="254.6758">divided(Money): double</text><ellipse cx="18" cy="263.9961" fill="#84BE84" rx="3" ry="3" style="stroke: #038048; stroke-width: 1.0;"/><text fill="#000000" font-family="sans-serif" font-size="11" lengthAdjust="spacingAndGlyphs" text-decoration="underline" textLength="149" x="27" y="267.6309">getFormat(): DecimalFormat</text><ellipse cx="18" cy="276.9512" fill="#84BE84" rx="3" ry="3" style="stroke: #038048; stroke-width: 1.0;"/><text fill="#000000" font-family="sans-serif" font-size="11" lengthAdjust="spacingAndGlyphs" textLength="124" x="27" y="280.5859">compareTo(Money): int</text><ellipse cx="18" cy="289.9063" fill="#84BE84" rx="3" ry="3" style="stroke: #038048; stroke-width: 1.0;"/><text fill="#000000" font-family="sans-serif" font-size="11" lengthAdjust="spacingAndGlyphs" textLength="144" x="27" y="293.541">isEqualTo(Money): boolean</text><ellipse cx="18" cy="302.8613" fill="#84BE84" rx="3" ry="3" style="stroke: #038048; stroke-width: 1.0;"/><text fill="#000000" font-family="sans-serif" font-size="11" lengthAdjust="spacingAndGlyphs" textLength="158" x="27" y="306.4961">greaterThan(Money): boolean</text><ellipse cx="18" cy="315.8164" fill="#84BE84" rx="3" ry="3" style="stroke: #038048; stroke-width: 1.0;"/><text fill="#000000" font-family="sans-serif" font-size="11" lengthAdjust="spacingAndGlyphs" textLength="148" x="27" y="319.4512">lowerThan(Money): boolean</text></a><!--MD5=[008d82c49f85b4d489e041917c99c847]
class java.lang.Comparable--><rect codeLine="19" fill="#FEFECE" filter="url(#fken6x8gx8esa)" height="59.2207" id="java.lang.Comparable" style="stroke: #A80036; stroke-width: 1.5;" width="157" x="32" y="10"/><ellipse cx="47" cy="29.1328" fill="#B4A7E5" rx="11" ry="11" style="stroke: #A80036; stroke-width: 1.0;"/><path d="M43.4277,25.3979 L43.4277,23.2397 L50.8071,23.2397 L50.8071,25.3979 L48.3418,25.3979 L48.3418,33.4746 L50.8071,33.4746 L50.8071,35.6328 L43.4277,35.6328 L43.4277,33.4746 L45.8931,33.4746 L45.8931,25.3979 Z "/><text fill="#000000" font-family="sans-serif" font-size="14" font-style="italic" lengthAdjust="spacingAndGlyphs" textLength="84" x="61" y="28.5352">Comparable</text><text fill="#000000" font-family="sans-serif" font-size="10" font-style="italic" lengthAdjust="spacingAndGlyphs" textLength="44" x="81" y="41.1563">java.lang</text><rect fill="#FFFFFF" height="16.1328" style="stroke: #000000; stroke-width: 1.0; stroke-dasharray: 2.0,2.0;" width="39" x="153" y="7"/><text fill="#000000" font-family="sans-serif" font-size="12" font-style="italic" lengthAdjust="spacingAndGlyphs" textLength="37" x="154" y="19.6016">Money</text><line style="stroke: #A80036; stroke-width: 1.5;" x1="33" x2="188" y1="48.2656" y2="48.2656"/><ellipse cx="43" cy="59.2656" fill="#84BE84" rx="3" ry="3" style="stroke: #038048; stroke-width: 1.0;"/><text fill="#000000" font-family="sans-serif" font-size="11" font-style="italic" lengthAdjust="spacingAndGlyphs" textLength="124" x="52" y="62.9004">compareTo(Money): int</text><!--MD5=[49f729cbac1602575e026eb28d33c86e]
reverse link java.lang.Comparable to it.tidalwave.accounting.model.types.Money--><path codeLine="23" d="M110.5,89.5456 C110.5,101.6931 110.5,115.1044 110.5,128.6503 " fill="none" id="java.lang.Comparable-backto-it.tidalwave.accounting.model.types.Money" style="stroke: #A80036; stroke-width: 1.0; stroke-dasharray: 7.0,7.0;"/><polygon fill="none" points="103.5001,89.2892,110.5,69.2892,117.5001,89.2891,103.5001,89.2892" style="stroke: #A80036; stroke-width: 1.0;"/><text fill="#888888" font-family="sans-serif" font-size="10" lengthAdjust="spacingAndGlyphs" textLength="188" x="13.5" y="348.4395">UMLDoclet 2.0.12, PlantUML 1.2020.16</text><!--MD5=[e4bee59a229902424747cf5d8655e8dd]
@startuml
    set namespaceSeparator none
    hide empty fields
    hide empty methods

    class "<size:14>Money\n<size:10>it.tidalwave.accounting.model.types" as it.tidalwave.accounting.model.types.Money [[Money.html]] {
        {static} +ZERO: Money
        +Money(long, String)
        {static} +parse(String): Money
        +add(Money): Money
        +subtract(Money): Money
        +divided(Money): double
        {static} +getFormat(): DecimalFormat
        +compareTo(Money): int
        +isEqualTo(Money): boolean
        +greaterThan(Money): boolean
        +lowerThan(Money): boolean
    }

    interface "<size:14>Comparable\n<size:10>java.lang" as java.lang.Comparable<Money> {
        {abstract} +compareTo(Money): int
    }

    java.lang.Comparable <|.. it.tidalwave.accounting.model.types.Money

    center footer UMLDoclet 2.0.12, PlantUML 1.2020.16
@enduml

PlantUML version 1.2020.16(Sun Aug 23 22:20:43 CEST 2020)
(APACHE source distribution)
Java Runtime: OpenJDK Runtime Environment
JVM: OpenJDK 64-Bit Server VM
Default Encoding: UTF-8
Language: en
Country: GB
--></g></svg>