GROUP,PACKAGE,CLASS,INSTRUCTION_MISSED,INSTRUCTION_COVERED,BRANCH_MISSED,BRANCH_COVERED,LINE_MISSED,LINE_COVERED,COMPLEXITY_MISSED,COMPLEXITY_COVERED,METHOD_MISSED,METHOD_COVERED
TheseFoolishThings :: Examples :: Finder :: JPA Finder/it-tidalwave-thesefoolishthings-examples-data,it.tidalwave.thesefoolishthings.examples.person,ListOfPersons,27,0,0,0,7,0,4,0,4,0
TheseFoolishThings :: Examples :: Finder :: JPA Finder/it-tidalwave-thesefoolishthings-examples-data,it.tidalwave.thesefoolishthings.examples.person,DefaultPersonRegistry,18,0,0,0,5,0,3,0,3,0
TheseFoolishThings :: Examples :: Finder :: JPA Finder/it-tidalwave-thesefoolishthings-examples-data,it.tidalwave.thesefoolishthings.examples.person,PersonRegistryHelper,5,56,0,0,2,3,1,2,1,2
TheseFoolishThings :: Examples :: Finder :: JPA Finder/it-tidalwave-thesefoolishthings-examples-data,it.tidalwave.thesefoolishthings.examples.person,Person,0,20,0,0,0,4,0,3,0,3
TheseFoolishThings :: Examples :: Finder :: JPA Finder/it-tidalwave-role,it.tidalwave.role.io.spi,PathTextReadable,20,0,0,0,7,0,3,0,3,0
TheseFoolishThings :: Examples :: Finder :: JPA Finder/it-tidalwave-role,it.tidalwave.role.io.spi,PathBinaryReadable,15,0,0,0,5,0,2,0,2,0
TheseFoolishThings :: Examples :: Finder :: JPA Finder/it-tidalwave-role,it.tidalwave.role.io.spi,PathTextWritable,27,0,0,0,8,0,3,0,3,0
TheseFoolishThings :: Examples :: Finder :: JPA Finder/it-tidalwave-role,it.tidalwave.role.io.spi,PathBinaryWritable,15,0,0,0,5,0,2,0,2,0
TheseFoolishThings :: Examples :: Finder :: JPA Finder/it-tidalwave-role,it.tidalwave.role.io,Unmarshallable,3,0,0,0,1,0,1,0,1,0
TheseFoolishThings :: Examples :: Finder :: JPA Finder/it-tidalwave-role,it.tidalwave.role.io,BinaryReadable,7,0,0,0,2,0,1,0,1,0
TheseFoolishThings :: Examples :: Finder :: JPA Finder/it-tidalwave-role,it.tidalwave.role.io,BinaryWritable.new BinaryWritable() {...},8,0,0,0,2,0,2,0,2,0
TheseFoolishThings :: Examples :: Finder :: JPA Finder/it-tidalwave-role,it.tidalwave.role.io,TextReadable,7,0,0,0,2,0,1,0,1,0
TheseFoolishThings :: Examples :: Finder :: JPA Finder/it-tidalwave-role,it.tidalwave.role.io,Persistable,3,0,0,0,1,0,1,0,1,0
TheseFoolishThings :: Examples :: Finder :: JPA Finder/it-tidalwave-role,it.tidalwave.role.io,BinaryWritable,7,0,0,0,2,0,1,0,1,0
TheseFoolishThings :: Examples :: Finder :: JPA Finder/it-tidalwave-role,it.tidalwave.role.io,TextWritable.new TextWritable() {...},8,0,0,0,2,0,2,0,2,0
TheseFoolishThings :: Examples :: Finder :: JPA Finder/it-tidalwave-role,it.tidalwave.role.io,TextReadable.new TextReadable() {...},8,0,0,0,2,0,2,0,2,0
TheseFoolishThings :: Examples :: Finder :: JPA Finder/it-tidalwave-role,it.tidalwave.role.io,TextWritable,7,0,0,0,2,0,1,0,1,0
TheseFoolishThings :: Examples :: Finder :: JPA Finder/it-tidalwave-role,it.tidalwave.role.io,BinaryReadable.new BinaryReadable() {...},8,0,0,0,2,0,2,0,2,0
TheseFoolishThings :: Examples :: Finder :: JPA Finder/it-tidalwave-role,it.tidalwave.role.io,Marshallable,3,0,0,0,1,0,1,0,1,0
TheseFoolishThings :: Examples :: Finder :: JPA Finder/it-tidalwave-role,it.tidalwave.role.impl,MapAggregate,42,0,0,0,11,0,5,0,5,0
TheseFoolishThings :: Examples :: Finder :: JPA Finder/it-tidalwave-role,it.tidalwave.role.impl,DefaultSimpleComposite,0,3,0,0,0,1,0,1,0,1
TheseFoolishThings :: Examples :: Finder :: JPA Finder/it-tidalwave-role,it.tidalwave.role.impl,DefaultIdentifiable,16,0,0,0,1,0,1,0,1,0
TheseFoolishThings :: Examples :: Finder :: JPA Finder/it-tidalwave-role,it.tidalwave.role,Sortable,7,0,0,0,2,0,1,0,1,0
TheseFoolishThings :: Examples :: Finder :: JPA Finder/it-tidalwave-role,it.tidalwave.role,Aggregate,28,0,0,0,6,0,6,0,6,0
TheseFoolishThings :: Examples :: Finder :: JPA Finder/it-tidalwave-role,it.tidalwave.role,Identifiable,8,0,0,0,2,0,2,0,2,0
TheseFoolishThings :: Examples :: Finder :: JPA Finder/it-tidalwave-role,it.tidalwave.role,Composite.new Composite() {...},2,3,0,0,1,1,1,1,1,1
TheseFoolishThings :: Examples :: Finder :: JPA Finder/it-tidalwave-role,it.tidalwave.role,Composite.Visitor,5,0,0,0,4,0,4,0,4,0
TheseFoolishThings :: Examples :: Finder :: JPA Finder/it-tidalwave-role,it.tidalwave.role,Sortable.new Sortable() {...},9,0,0,0,5,0,5,0,5,0
TheseFoolishThings :: Examples :: Finder :: JPA Finder/it-tidalwave-role,it.tidalwave.role,Removable,6,0,0,0,2,0,2,0,2,0
TheseFoolishThings :: Examples :: Finder :: JPA Finder/it-tidalwave-role,it.tidalwave.role,SimpleComposite,0,12,0,0,0,3,0,3,0,3
TheseFoolishThings :: Examples :: Finder :: JPA Finder/it-tidalwave-role,it.tidalwave.role,Composite,9,7,0,0,3,2,2,1,2,1
TheseFoolishThings :: Examples :: Finder :: JPA Finder/it-tidalwave-util,it.tidalwave.util.thread,ThreadAssertions,17,0,2,0,5,0,4,0,3,0
TheseFoolishThings :: Examples :: Finder :: JPA Finder/it-tidalwave-util,it.tidalwave.util.thread,ThreadType,21,0,0,0,2,0,1,0,1,0
TheseFoolishThings :: Examples :: Finder :: JPA Finder/it-tidalwave-util,it.tidalwave.util.spi,DefaultProcessExecutor.DefaultConsoleOutput,261,0,26,0,61,0,20,0,7,0
TheseFoolishThings :: Examples :: Finder :: JPA Finder/it-tidalwave-util,it.tidalwave.util.spi,FinderWithIdMapSupport,37,0,0,0,9,0,4,0,4,0
TheseFoolishThings :: Examples :: Finder :: JPA Finder/it-tidalwave-util,it.tidalwave.util.spi,DefaultProcessExecutor.DefaultConsoleOutput.new Runnable() {...},37,0,4,0,9,0,4,0,2,0
TheseFoolishThings :: Examples :: Finder :: JPA Finder/it-tidalwave-util,it.tidalwave.util.spi,DefaultProcessExecutor.DefaultConsoleOutput.new Runnable() {...},19,0,0,0,6,0,2,0,2,0
TheseFoolishThings :: Examples :: Finder :: JPA Finder/it-tidalwave-util,it.tidalwave.util.spi,DefaultProcessExecutor,169,0,6,0,31,0,12,0,9,0
TheseFoolishThings :: Examples :: Finder :: JPA Finder/it-tidalwave-util,it.tidalwave.util.spi,ArrayListCollectorSupport,17,0,0,0,5,0,6,0,6,0
TheseFoolishThings :: Examples :: Finder :: JPA Finder/it-tidalwave-util,it.tidalwave.util.spi,ContextSnapshot,0,51,0,2,0,10,0,6,0,5
TheseFoolishThings :: Examples :: Finder :: JPA Finder/it-tidalwave-util,it.tidalwave.util.spi,HierarchicFinderSupport.Sorter,7,0,0,0,2,0,1,0,1,0
TheseFoolishThings :: Examples :: Finder :: JPA Finder/it-tidalwave-util,it.tidalwave.util.spi,FinderWithIdSupport,62,0,0,0,12,0,8,0,8,0
TheseFoolishThings :: Examples :: Finder :: JPA Finder/it-tidalwave-util,it.tidalwave.util.spi,SimpleFinderSupport,4,5,0,0,2,2,1,1,1,1
TheseFoolishThings :: Examples :: Finder :: JPA Finder/it-tidalwave-util,it.tidalwave.util.spi,HierarchicFinderSupport,144,189,3,5,29,37,11,13,9,11
TheseFoolishThings :: Examples :: Finder :: JPA Finder/it-tidalwave-util,it.tidalwave.role.spi,OwnerRoleFactoryProvider,0,4,0,0,0,1,0,1,0,1
TheseFoolishThings :: Examples :: Finder :: JPA Finder/it-tidalwave-util,it.tidalwave.role.spi,SystemRoleFactory.Inner,3,12,0,0,1,4,1,2,1,2
TheseFoolishThings :: Examples :: Finder :: JPA Finder/it-tidalwave-util,it.tidalwave.role.spi,OwnerRoleFactoryProvider.Inner,3,4,0,0,1,2,1,1,1,1
TheseFoolishThings :: Examples :: Finder :: JPA Finder/it-tidalwave-util,it.tidalwave.role.spi,SystemRoleFactory,0,16,0,0,0,6,0,4,0,4
TheseFoolishThings :: Examples :: Finder :: JPA Finder/it-tidalwave-util,it.tidalwave.role.spi,SystemRoleFactorySupport,29,477,6,40,7,90,7,31,1,14
TheseFoolishThings :: Examples :: Finder :: JPA Finder/it-tidalwave-util,it.tidalwave.util.impl.finder,ArrayListFinder,0,31,0,0,0,8,0,3,0,3
TheseFoolishThings :: Examples :: Finder :: JPA Finder/it-tidalwave-util,it.tidalwave.util.impl.finder,MappingFinder,0,39,0,0,0,10,0,3,0,3
TheseFoolishThings :: Examples :: Finder :: JPA Finder/it-tidalwave-util,it.tidalwave.util.impl.finder,SupplierFinder,15,14,0,0,4,4,1,2,1,2
TheseFoolishThings :: Examples :: Finder :: JPA Finder/it-tidalwave-util,it.tidalwave.util.impl.finder,ProviderFinder,0,35,0,0,0,8,0,3,0,3
TheseFoolishThings :: Examples :: Finder :: JPA Finder/it-tidalwave-util,it.tidalwave.util,Initializer.EmptyInitializer,5,0,0,0,2,0,2,0,2,0
TheseFoolishThings :: Examples :: Finder :: JPA Finder/it-tidalwave-util,it.tidalwave.util,NamedCallback,3,0,0,0,1,0,1,0,1,0
TheseFoolishThings :: Examples :: Finder :: JPA Finder/it-tidalwave-util,it.tidalwave.util,ContextManager.Inner,3,12,0,0,1,4,1,2,1,2
TheseFoolishThings :: Examples :: Finder :: JPA Finder/it-tidalwave-util,it.tidalwave.util,Finder.SortCriterion,8,0,0,0,3,0,2,0,2,0
TheseFoolishThings :: Examples :: Finder :: JPA Finder/it-tidalwave-util,it.tidalwave.util,CollectionUtils,9,138,0,10,1,27,1,14,1,9
TheseFoolishThings :: Examples :: Finder :: JPA Finder/it-tidalwave-util,it.tidalwave.util,RoleFactory,0,42,0,4,0,8,0,4,0,2
TheseFoolishThings :: Examples :: Finder :: JPA Finder/it-tidalwave-util,it.tidalwave.util,Finder,94,26,6,0,18,5,17,5,14,5
TheseFoolishThings :: Examples :: Finder :: JPA Finder/it-tidalwave-util,it.tidalwave.util,Initializer,4,0,0,0,1,0,1,0,1,0
TheseFoolishThings :: Examples :: Finder :: JPA Finder/it-tidalwave-util,it.tidalwave.util,ContextManager,40,50,0,0,9,11,6,7,6,7
TheseFoolishThings :: Examples :: Finder :: JPA Finder/it-tidalwave-util,it.tidalwave.util,LazySupplier,0,49,1,5,0,9,1,6,0,4
TheseFoolishThings :: Examples :: Finder :: JPA Finder/it-tidalwave-util,it.tidalwave.util,Callback,4,0,0,0,1,0,2,0,2,0
TheseFoolishThings :: Examples :: Finder :: JPA Finder/it-tidalwave-util,it.tidalwave.util,DuplicateException,7,0,0,0,4,0,2,0,2,0
TheseFoolishThings :: Examples :: Finder :: JPA Finder/it-tidalwave-util,it.tidalwave.util,Finder.InMemorySortCriterion,17,0,0,0,4,0,3,0,3,0
TheseFoolishThings :: Examples :: Finder :: JPA Finder/it-tidalwave-util,it.tidalwave.util,Finder.SortDirection,3,17,0,0,1,2,1,1,1,1
TheseFoolishThings :: Examples :: Finder :: JPA Finder/it-tidalwave-util,it.tidalwave.util,Finder.InMemorySortCriterion.DefaultInMemorySortCriterion,15,0,0,0,2,0,2,0,2,0
TheseFoolishThings :: Examples :: Finder :: JPA Finder/it-tidalwave-util,it.tidalwave.util,FunctionalCheckedExceptionWrappers,11,64,0,4,6,23,2,11,2,9
TheseFoolishThings :: Examples :: Finder :: JPA Finder/it-tidalwave-util,it.tidalwave.util,Pair.Factory,0,29,0,0,0,4,0,3,0,3
TheseFoolishThings :: Examples :: Finder :: JPA Finder/it-tidalwave-util,it.tidalwave.util,IdFactory,32,0,0,0,6,0,5,0,5,0
TheseFoolishThings :: Examples :: Finder :: JPA Finder/it-tidalwave-util,it.tidalwave.util,Triple,0,30,0,0,0,4,0,5,0,5
TheseFoolishThings :: Examples :: Finder :: JPA Finder/it-tidalwave-util,it.tidalwave.util,As.Type,0,3,0,0,0,1,0,1,0,1
TheseFoolishThings :: Examples :: Finder :: JPA Finder/it-tidalwave-util,it.tidalwave.util,TimeProvider.DefaultTimeProvider,0,5,0,0,0,2,0,2,0,2
TheseFoolishThings :: Examples :: Finder :: JPA Finder/it-tidalwave-util,it.tidalwave.util,AsExtensions,28,8,0,0,6,2,6,2,6,2
TheseFoolishThings :: Examples :: Finder :: JPA Finder/it-tidalwave-util,it.tidalwave.util,PreferencesHandler,20,0,0,0,6,0,3,0,3,0
TheseFoolishThings :: Examples :: Finder :: JPA Finder/it-tidalwave-util,it.tidalwave.util,AsException,6,5,0,0,2,2,1,1,1,1
TheseFoolishThings :: Examples :: Finder :: JPA Finder/it-tidalwave-util,it.tidalwave.util,PreferencesHandler.Inner,7,0,0,0,2,0,2,0,2,0
TheseFoolishThings :: Examples :: Finder :: JPA Finder/it-tidalwave-util,it.tidalwave.util,ContextManager.Binder,0,51,0,4,0,9,0,4,0,2
TheseFoolishThings :: Examples :: Finder :: JPA Finder/it-tidalwave-util,it.tidalwave.util,ShortNames,11,206,3,17,3,40,4,15,1,8
TheseFoolishThings :: Examples :: Finder :: JPA Finder/it-tidalwave-util,it.tidalwave.util,StreamUtils,2,88,2,2,0,16,2,4,0,4
TheseFoolishThings :: Examples :: Finder :: JPA Finder/it-tidalwave-util,it.tidalwave.util,SimpleTask,3,0,0,0,1,0,1,0,1,0
TheseFoolishThings :: Examples :: Finder :: JPA Finder/it-tidalwave-util,it.tidalwave.util,BundleUtilities,6,22,0,2,1,4,1,2,1,1
TheseFoolishThings :: Examples :: Finder :: JPA Finder/it-tidalwave-util,it.tidalwave.util,Task,37,21,0,0,7,3,5,1,5,1
TheseFoolishThings :: Examples :: Finder :: JPA Finder/it-tidalwave-util,it.tidalwave.util,Id,9,22,1,1,1,4,2,4,1,4
TheseFoolishThings :: Examples :: Finder :: JPA Finder/it-tidalwave-util,it.tidalwave.util,ReflectionUtils,87,218,13,23,22,48,12,13,1,6
TheseFoolishThings :: Examples :: Finder :: JPA Finder/it-tidalwave-util,it.tidalwave.util,StreamUtils.new Spliterators.AbstractSpliterator() {...},0,37,0,4,0,5,0,4,0,2
TheseFoolishThings :: Examples :: Finder :: JPA Finder/it-tidalwave-util,it.tidalwave.util,As,25,30,1,1,4,4,5,5,4,5
TheseFoolishThings :: Examples :: Finder :: JPA Finder/it-tidalwave-util,it.tidalwave.util,TypeSafeMultiMap,0,10,0,0,0,2,0,2,0,2
TheseFoolishThings :: Examples :: Finder :: JPA Finder/it-tidalwave-util,it.tidalwave.util,Task.new Task() {...},11,0,0,0,3,0,2,0,2,0
TheseFoolishThings :: Examples :: Finder :: JPA Finder/it-tidalwave-util,it.tidalwave.util,Pair,18,163,0,0,3,20,3,29,3,29
TheseFoolishThings :: Examples :: Finder :: JPA Finder/it-tidalwave-util,it.tidalwave.util,TypeSafeMap,0,18,0,0,0,5,0,3,0,3
TheseFoolishThings :: Examples :: Finder :: JPA Finder/it-tidalwave-util,it.tidalwave.util,NotFoundException,47,15,10,2,15,5,11,3,6,2
TheseFoolishThings :: Examples :: Finder :: JPA Finder/it-tidalwave-util,it.tidalwave.util,Parameters,84,35,12,4,15,6,9,3,3,1
TheseFoolishThings :: Examples :: Finder :: JPA Finder/it-tidalwave-util,it.tidalwave.util,Key,12,61,0,2,4,12,3,7,3,6
TheseFoolishThings :: Examples :: Finder :: JPA Finder/it-tidalwave-util,it.tidalwave.util,LocalizedDateTimeFormatters,0,16,0,0,0,3,0,1,0,1
TheseFoolishThings :: Examples :: Finder :: JPA Finder/it-tidalwave-util,it.tidalwave.util,TimeProvider,3,33,1,1,1,7,2,4,1,4
TheseFoolishThings :: Examples :: Finder :: JPA Finder/it-tidalwave-util,it.tidalwave.util,Task.new Task() {...},10,0,0,0,2,0,2,0,2,0
TheseFoolishThings :: Examples :: Finder :: JPA Finder/it-tidalwave-util,it.tidalwave.util,Task.new Task() {...},11,0,0,0,3,0,2,0,2,0
TheseFoolishThings :: Examples :: Finder :: JPA Finder/it-tidalwave-util,it.tidalwave.util,ConcurrentHashMapWithOptionals,0,24,0,2,0,3,0,5,0,4
TheseFoolishThings :: Examples :: Finder :: JPA Finder/it-tidalwave-util,it.tidalwave.util.impl,DefaultOwnerRoleFactory,7,58,1,1,1,12,1,3,0,3
TheseFoolishThings :: Examples :: Finder :: JPA Finder/it-tidalwave-util,it.tidalwave.util.impl,DefaultSystemRoleFactory,0,3,0,0,0,1,0,1,0,1
TheseFoolishThings :: Examples :: Finder :: JPA Finder/it-tidalwave-util,it.tidalwave.util.impl,AsDelegate,33,119,1,9,6,23,4,11,3,7
TheseFoolishThings :: Examples :: Finder :: JPA Finder/it-tidalwave-util,it.tidalwave.util.impl,DefaultOwnerRoleFactoryProvider,0,8,0,0,0,2,0,2,0,2
TheseFoolishThings :: Examples :: Finder :: JPA Finder/it-tidalwave-util,it.tidalwave.util.impl,DefaultSystemRoleFactoryProvider,0,7,0,0,0,2,0,2,0,2
TheseFoolishThings :: Examples :: Finder :: JPA Finder/it-tidalwave-util,it.tidalwave.util.impl,DefaultContextManager.new ThreadLocal() {...},0,10,0,0,0,2,0,2,0,2
TheseFoolishThings :: Examples :: Finder :: JPA Finder/it-tidalwave-util,it.tidalwave.util.impl,OwnerAndRole,0,71,0,4,0,8,0,4,0,2
TheseFoolishThings :: Examples :: Finder :: JPA Finder/it-tidalwave-util,it.tidalwave.util.impl,TypeSafeHashMap,13,78,0,0,3,17,3,10,3,10
TheseFoolishThings :: Examples :: Finder :: JPA Finder/it-tidalwave-util,it.tidalwave.util.impl,MultiMap,0,50,0,6,0,13,0,8,0,5
TheseFoolishThings :: Examples :: Finder :: JPA Finder/it-tidalwave-util,it.tidalwave.util.impl,DefaultContextManagerProvider,0,7,0,0,0,2,0,2,0,2
TheseFoolishThings :: Examples :: Finder :: JPA Finder/it-tidalwave-util,it.tidalwave.util.impl,ServiceLoaderLocator,31,88,5,7,4,20,4,8,0,6
TheseFoolishThings :: Examples :: Finder :: JPA Finder/it-tidalwave-util,it.tidalwave.util.impl,TypeSafeHashMultiMap,13,86,0,2,3,20,3,11,3,10
TheseFoolishThings :: Examples :: Finder :: JPA Finder/it-tidalwave-util,it.tidalwave.util.impl,DefaultOwnerRoleFactory.new Task() {...},22,35,3,1,3,4,2,2,0,2
TheseFoolishThings :: Examples :: Finder :: JPA Finder/it-tidalwave-util,it.tidalwave.util.impl,DefaultPreferencesHandler,135,0,8,0,31,0,9,0,4,0
TheseFoolishThings :: Examples :: Finder :: JPA Finder/it-tidalwave-util,it.tidalwave.util.impl,DefaultContextManager,34,106,5,3,8,26,4,9,1,8
