<?xml version="1.0" encoding="UTF-8" standalone="no"?><svg xmlns="http://www.w3.org/2000/svg" xmlns:xlink="http://www.w3.org/1999/xlink" contentScriptType="application/ecmascript" contentStyleType="text/css" height="1918px" preserveAspectRatio="none" style="width:1095px;height:1918px;" version="1.1" viewBox="0 0 1095 1918" width="1095px" zoomAndPan="magnify"><defs><filter height="300%" id="f1ehrrp30aa6po" width="300%" x="-1" y="-1"><feGaussianBlur result="blurOut" stdDeviation="2.0"/><feColorMatrix in="blurOut" result="blurOut2" type="matrix" values="0 0 0 0 0 0 0 0 0 0 0 0 0 0 0 0 0 0 .4 0"/><feOffset dx="4.0" dy="4.0" in="blurOut2" result="blurOut3"/><feBlend in="SourceGraphic" in2="blurOut3" mode="normal"/></filter></defs><g><!--MD5=[c2dd607596ee709109f36c85b392a947]
cluster it.tidalwave.image.metadata--><polygon fill="#FFFFFF" filter="url(#f1ehrrp30aa6po)" points="16,6,222,6,229,28.4883,951,28.4883,951,1889,16,1889,16,6" style="stroke: #000000; stroke-width: 1.5;"/><line style="stroke: #000000; stroke-width: 1.5;" x1="16" x2="229" y1="28.4883" y2="28.4883"/><text fill="#000000" font-family="sans-serif" font-size="14" font-weight="bold" lengthAdjust="spacingAndGlyphs" textLength="200" x="20" y="21.5352">it.tidalwave.image.metadata</text><!--MD5=[0d852700fdad35b7061d461d6907a324]
cluster java.io--><polygon fill="#FFFFFF" filter="url(#f1ehrrp30aa6po)" points="959,301,1011,301,1018,323.4883,1073,323.4883,1073,384,959,384,959,301" style="stroke: #000000; stroke-width: 1.5;"/><line style="stroke: #000000; stroke-width: 1.5;" x1="959" x2="1018" y1="323.4883" y2="323.4883"/><text fill="#000000" font-family="sans-serif" font-size="14" font-weight="bold" lengthAdjust="spacingAndGlyphs" textLength="46" x="963" y="316.5352">java.io</text><!--MD5=[319986ac99fdf7b1e4f98a1038917985]
class it.tidalwave.image.metadata.Directory--><a href="Directory.html" target="_top" title="Directory.html" xlink:actuate="onRequest" xlink:href="Directory.html" xlink:show="new" xlink:title="Directory.html" xlink:type="simple"><rect codeLine="3" fill="#FEFECE" filter="url(#f1ehrrp30aa6po)" height="384.832" id="it.tidalwave.image.metadata.Directory" style="stroke: #A80036; stroke-width: 1.5;" width="291" x="651.5" y="437"/><ellipse cx="766.75" cy="453" fill="#ADD1B2" rx="11" ry="11" style="stroke: #A80036; stroke-width: 1.0;"/><path d="M769.2231,459.1431 Q768.6421,459.4419 768.0029,459.5913 Q767.3638,459.7407 766.6582,459.7407 Q764.1514,459.7407 762.8315,458.0889 Q761.5117,456.437 761.5117,453.3159 Q761.5117,450.1865 762.8315,448.5347 Q764.1514,446.8828 766.6582,446.8828 Q767.3638,446.8828 768.0112,447.0322 Q768.6587,447.1816 769.2231,447.4805 L769.2231,450.2031 Q768.5923,449.6221 767.9988,449.3523 Q767.4053,449.0825 766.7744,449.0825 Q765.4297,449.0825 764.7449,450.1492 Q764.0601,451.2158 764.0601,453.3159 Q764.0601,455.4077 764.7449,456.4744 Q765.4297,457.541 766.7744,457.541 Q767.4053,457.541 767.9988,457.2712 Q768.5923,457.0015 769.2231,456.4204 Z "/><text fill="#000000" font-family="sans-serif" font-size="12" lengthAdjust="spacingAndGlyphs" textLength="52" x="787.25" y="457.5352">Directory</text><line style="stroke: #A80036; stroke-width: 1.5;" x1="652.5" x2="941.5" y1="469" y2="469"/><polygon fill="none" points="662.5,475,666.5,479,662.5,483,658.5,479" style="stroke: #B38D22; stroke-width: 1.0;"/><text fill="#000000" font-family="sans-serif" font-size="11" lengthAdjust="spacingAndGlyphs" text-decoration="underline" textLength="183" x="671.5" y="483.6348">tagMapByCode: Map&lt;String, Tag&gt;</text><line style="stroke: #A80036; stroke-width: 1.5;" x1="652.5" x2="941.5" y1="489.9551" y2="489.9551"/><ellipse cx="662.5" cy="500.9551" fill="#84BE84" rx="3" ry="3" style="stroke: #038048; stroke-width: 1.0;"/><text fill="#000000" font-family="sans-serif" font-size="11" lengthAdjust="spacingAndGlyphs" textLength="58" x="671.5" y="504.5898">Directory()</text><ellipse cx="662.5" cy="513.9102" fill="#84BE84" rx="3" ry="3" style="stroke: #038048; stroke-width: 1.0;"/><text fill="#000000" font-family="sans-serif" font-size="11" lengthAdjust="spacingAndGlyphs" textLength="95" x="671.5" y="517.5449">Directory(Instant)</text><ellipse cx="662.5" cy="526.8652" fill="#84BE84" rx="3" ry="3" style="stroke: #038048; stroke-width: 1.0;"/><text fill="#000000" font-family="sans-serif" font-size="11" lengthAdjust="spacingAndGlyphs" textLength="147" x="671.5" y="530.5">get(Tag&lt;T&gt;): Optional&lt;T&gt;</text><ellipse cx="662.5" cy="539.8203" fill="#84BE84" rx="3" ry="3" style="stroke: #038048; stroke-width: 1.0;"/><text fill="#000000" font-family="sans-serif" font-size="11" lengthAdjust="spacingAndGlyphs" textLength="208" x="671.5" y="543.4551">get(Tag&lt;​U&gt;, Class&lt;T&gt;): Optional&lt;T&gt;</text><ellipse cx="662.5" cy="552.7754" fill="#84BE84" rx="3" ry="3" style="stroke: #038048; stroke-width: 1.0;"/><text fill="#000000" font-family="sans-serif" font-size="11" lengthAdjust="spacingAndGlyphs" textLength="176" x="671.5" y="556.4102">get(int, Class&lt;T&gt;): Optional&lt;T&gt;</text><ellipse cx="662.5" cy="565.7305" fill="#84BE84" rx="3" ry="3" style="stroke: #038048; stroke-width: 1.0;"/><text fill="#000000" font-family="sans-serif" font-size="11" lengthAdjust="spacingAndGlyphs" textLength="101" x="671.5" y="569.3652">getRaw(int): Object</text><ellipse cx="662.5" cy="578.6855" fill="#84BE84" rx="3" ry="3" style="stroke: #038048; stroke-width: 1.0;"/><text fill="#000000" font-family="sans-serif" font-size="11" lengthAdjust="spacingAndGlyphs" textLength="137" x="671.5" y="582.3203">set(Tag&lt;?&gt;, Object): void</text><ellipse cx="662.5" cy="591.6406" fill="#84BE84" rx="3" ry="3" style="stroke: #038048; stroke-width: 1.0;"/><text fill="#000000" font-family="sans-serif" font-size="11" lengthAdjust="spacingAndGlyphs" textLength="129" x="671.5" y="595.2754">setRaw(int, Object): void</text><ellipse cx="662.5" cy="604.5957" fill="#84BE84" rx="3" ry="3" style="stroke: #038048; stroke-width: 1.0;"/><text fill="#000000" font-family="sans-serif" font-size="11" lengthAdjust="spacingAndGlyphs" textLength="117" x="671.5" y="608.2305">contains(int): boolean</text><ellipse cx="662.5" cy="617.5508" fill="#84BE84" rx="3" ry="3" style="stroke: #038048; stroke-width: 1.0;"/><text fill="#000000" font-family="sans-serif" font-size="11" lengthAdjust="spacingAndGlyphs" textLength="91" x="671.5" y="621.1855">remove(int): void</text><ellipse cx="662.5" cy="630.5059" fill="#84BE84" rx="3" ry="3" style="stroke: #038048; stroke-width: 1.0;"/><text fill="#000000" font-family="sans-serif" font-size="11" lengthAdjust="spacingAndGlyphs" textLength="193" x="671.5" y="634.1406">getTagInfo(int): Optional&lt;Tag&lt;?&gt;&gt;</text><ellipse cx="662.5" cy="643.4609" fill="#84BE84" rx="3" ry="3" style="stroke: #038048; stroke-width: 1.0;"/><text fill="#000000" font-family="sans-serif" font-size="11" lengthAdjust="spacingAndGlyphs" textLength="107" x="671.5" y="647.0957">getTagCodes(): int[]</text><ellipse cx="662.5" cy="656.416" fill="#84BE84" rx="3" ry="3" style="stroke: #038048; stroke-width: 1.0;"/><text fill="#000000" font-family="sans-serif" font-size="11" lengthAdjust="spacingAndGlyphs" textLength="215" x="671.5" y="660.0508">forEachTag(Consumer&lt;Tag&lt;?&gt;&gt;): void</text><ellipse cx="662.5" cy="669.3711" fill="#84BE84" rx="3" ry="3" style="stroke: #038048; stroke-width: 1.0;"/><text fill="#000000" font-family="sans-serif" font-size="11" lengthAdjust="spacingAndGlyphs" textLength="265" x="671.5" y="673.0059">forEachTag(BiConsumer&lt;Tag&lt;?&gt;, Object&gt;): void</text><ellipse cx="662.5" cy="682.3262" fill="#84BE84" rx="3" ry="3" style="stroke: #038048; stroke-width: 1.0;"/><text fill="#000000" font-family="sans-serif" font-size="11" lengthAdjust="spacingAndGlyphs" textLength="196" x="671.5" y="685.9609">forEachTagCode(IntConsumer): void</text><ellipse cx="662.5" cy="695.2813" fill="#84BE84" rx="3" ry="3" style="stroke: #038048; stroke-width: 1.0;"/><text fill="#000000" font-family="sans-serif" font-size="11" lengthAdjust="spacingAndGlyphs" textLength="99" x="671.5" y="698.916">isEmpty(): boolean</text><ellipse cx="662.5" cy="708.2363" fill="#84BE84" rx="3" ry="3" style="stroke: #038048; stroke-width: 1.0;"/><text fill="#000000" font-family="sans-serif" font-size="11" lengthAdjust="spacingAndGlyphs" textLength="203" x="671.5" y="711.8711">getSubDirectoryNames(): Set&lt;String&gt;</text><ellipse cx="662.5" cy="721.1914" fill="#84BE84" rx="3" ry="3" style="stroke: #038048; stroke-width: 1.0;"/><text fill="#000000" font-family="sans-serif" font-size="11" lengthAdjust="spacingAndGlyphs" textLength="247" x="671.5" y="724.8262">getSubDirectory(String): Optional&lt;Directory&gt;</text><ellipse cx="662.5" cy="734.1465" fill="#84BE84" rx="3" ry="3" style="stroke: #038048; stroke-width: 1.0;"/><text fill="#000000" font-family="sans-serif" font-size="11" lengthAdjust="spacingAndGlyphs" textLength="192" x="671.5" y="737.7813">getLatestModificationTime(): Instant</text><ellipse cx="662.5" cy="747.1016" fill="#84BE84" rx="3" ry="3" style="stroke: #038048; stroke-width: 1.0;"/><text fill="#000000" font-family="sans-serif" font-size="11" lengthAdjust="spacingAndGlyphs" textLength="147" x="671.5" y="750.7363">load(DirectoryLoader): void</text><polygon fill="#FFFF44" points="662.5,755.0566,666.5,759.0566,662.5,763.0566,658.5,759.0566" style="stroke: #B38D22; stroke-width: 1.0;"/><text fill="#000000" font-family="sans-serif" font-size="11" lengthAdjust="spacingAndGlyphs" textLength="68" x="671.5" y="763.6914">touch(): void</text><ellipse cx="662.5" cy="773.0117" fill="#84BE84" rx="3" ry="3" style="stroke: #038048; stroke-width: 1.0;"/><text fill="#000000" font-family="sans-serif" font-size="11" lengthAdjust="spacingAndGlyphs" textLength="161" x="671.5" y="776.6465">toHexString(Rational[]): String</text><polygon fill="#FFFF44" points="662.5,780.9668,666.5,784.9668,662.5,788.9668,658.5,784.9668" style="stroke: #B38D22; stroke-width: 1.0;"/><text fill="#000000" font-family="sans-serif" font-size="11" lengthAdjust="spacingAndGlyphs" textLength="182" x="671.5" y="789.6016">isSubClass(Class, String): boolean</text><polygon fill="#FFFF44" points="662.5,793.9219,666.5,797.9219,662.5,801.9219,658.5,797.9219" style="stroke: #B38D22; stroke-width: 1.0;"/><text fill="#000000" font-family="sans-serif" font-size="11" lengthAdjust="spacingAndGlyphs" text-decoration="underline" textLength="169" x="671.5" y="802.5566">formatDateTime(Instant): String</text><polygon fill="#FFFF44" points="662.5,806.877,666.5,810.877,662.5,814.877,658.5,810.877" style="stroke: #B38D22; stroke-width: 1.0;"/><text fill="#000000" font-family="sans-serif" font-size="11" lengthAdjust="spacingAndGlyphs" text-decoration="underline" textLength="163" x="671.5" y="815.5117">parseDateTime(String): Instant</text></a><!--MD5=[adecf433c2f829476ba23cca41ff36b2]
class it.tidalwave.image.metadata.Directory.Tag--><a href="Directory.Tag.html" target="_top" title="Directory.Tag.html" xlink:actuate="onRequest" xlink:href="Directory.Tag.html" xlink:show="new" xlink:title="Directory.Tag.html" xlink:type="simple"><rect codeLine="32" fill="#FEFECE" filter="url(#f1ehrrp30aa6po)" height="48" id="it.tidalwave.image.metadata.Directory.Tag" style="stroke: #A80036; stroke-width: 1.5;" width="122" x="821" y="974"/><ellipse cx="836" cy="990" fill="#ADD1B2" rx="11" ry="11" style="stroke: #A80036; stroke-width: 1.0;"/><path d="M838.4731,996.1431 Q837.8921,996.4419 837.2529,996.5913 Q836.6138,996.7407 835.9082,996.7407 Q833.4014,996.7407 832.0815,995.0889 Q830.7617,993.437 830.7617,990.3159 Q830.7617,987.1865 832.0815,985.5347 Q833.4014,983.8828 835.9082,983.8828 Q836.6138,983.8828 837.2612,984.0322 Q837.9087,984.1816 838.4731,984.4805 L838.4731,987.2031 Q837.8423,986.6221 837.2488,986.3523 Q836.6553,986.0825 836.0244,986.0825 Q834.6797,986.0825 833.9949,987.1492 Q833.3101,988.2158 833.3101,990.3159 Q833.3101,992.4077 833.9949,993.4744 Q834.6797,994.541 836.0244,994.541 Q836.6553,994.541 837.2488,994.2712 Q837.8423,994.0015 838.4731,993.4204 Z "/><text fill="#000000" font-family="sans-serif" font-size="12" lengthAdjust="spacingAndGlyphs" textLength="78" x="850" y="994.5352">Directory.Tag</text><rect fill="#FFFFFF" height="16.1328" style="stroke: #000000; stroke-width: 1.0; stroke-dasharray: 2.0,2.0;" width="10" x="936" y="971"/><text fill="#000000" font-family="sans-serif" font-size="12" font-style="italic" lengthAdjust="spacingAndGlyphs" textLength="8" x="937" y="983.6016">T</text><line style="stroke: #A80036; stroke-width: 1.5;" x1="822" x2="942" y1="1006" y2="1006"/><line style="stroke: #A80036; stroke-width: 1.5;" x1="822" x2="942" y1="1014" y2="1014"/></a><!--MD5=[aec96e7fffd06f092ad69d1c906fd0f0]
class it.tidalwave.image.metadata.EXIF--><a href="EXIF.html" target="_top" title="EXIF.html" xlink:actuate="onRequest" xlink:href="EXIF.html" xlink:show="new" xlink:title="EXIF.html" xlink:type="simple"><rect codeLine="35" fill="#FEFECE" filter="url(#f1ehrrp30aa6po)" height="268.2363" id="it.tidalwave.image.metadata.EXIF" style="stroke: #A80036; stroke-width: 1.5;" width="293" x="321.5" y="495.5"/><ellipse cx="451.75" cy="511.5" fill="#ADD1B2" rx="11" ry="11" style="stroke: #A80036; stroke-width: 1.0;"/><path d="M454.2231,517.6431 Q453.6421,517.9419 453.0029,518.0913 Q452.3638,518.2407 451.6582,518.2407 Q449.1514,518.2407 447.8315,516.5889 Q446.5117,514.937 446.5117,511.8159 Q446.5117,508.6865 447.8315,507.0347 Q449.1514,505.3828 451.6582,505.3828 Q452.3638,505.3828 453.0112,505.5322 Q453.6587,505.6816 454.2231,505.9805 L454.2231,508.7031 Q453.5923,508.1221 452.9988,507.8523 Q452.4053,507.5825 451.7744,507.5825 Q450.4297,507.5825 449.7449,508.6492 Q449.0601,509.7158 449.0601,511.8159 Q449.0601,513.9077 449.7449,514.9744 Q450.4297,516.041 451.7744,516.041 Q452.4053,516.041 452.9988,515.7712 Q453.5923,515.5015 454.2231,514.9204 Z "/><text fill="#000000" font-family="sans-serif" font-size="12" lengthAdjust="spacingAndGlyphs" textLength="24" x="472.25" y="516.0352">EXIF</text><line style="stroke: #A80036; stroke-width: 1.5;" x1="322.5" x2="613.5" y1="527.5" y2="527.5"/><line style="stroke: #A80036; stroke-width: 1.5;" x1="322.5" x2="613.5" y1="535.5" y2="535.5"/><ellipse cx="332.5" cy="546.5" fill="#84BE84" rx="3" ry="3" style="stroke: #038048; stroke-width: 1.0;"/><text fill="#000000" font-family="sans-serif" font-size="11" lengthAdjust="spacingAndGlyphs" textLength="30" x="341.5" y="550.1348">EXIF()</text><ellipse cx="332.5" cy="559.4551" fill="#84BE84" rx="3" ry="3" style="stroke: #038048; stroke-width: 1.0;"/><text fill="#000000" font-family="sans-serif" font-size="11" lengthAdjust="spacingAndGlyphs" textLength="67" x="341.5" y="563.0898">EXIF(Instant)</text><ellipse cx="332.5" cy="572.4102" fill="#84BE84" rx="3" ry="3" style="stroke: #038048; stroke-width: 1.0;"/><text fill="#000000" font-family="sans-serif" font-size="11" lengthAdjust="spacingAndGlyphs" textLength="191" x="341.5" y="576.0449">getBitsPerSample(): Optional&lt;int[]&gt;</text><ellipse cx="332.5" cy="585.3652" fill="#84BE84" rx="3" ry="3" style="stroke: #038048; stroke-width: 1.0;"/><text fill="#000000" font-family="sans-serif" font-size="11" lengthAdjust="spacingAndGlyphs" textLength="203" x="341.5" y="589">getUserComment(): Optional&lt;byte[]&gt;</text><ellipse cx="332.5" cy="598.3203" fill="#84BE84" rx="3" ry="3" style="stroke: #038048; stroke-width: 1.0;"/><text fill="#000000" font-family="sans-serif" font-size="11" lengthAdjust="spacingAndGlyphs" textLength="250" x="341.5" y="601.9551">getUserCommentAsString(): Optional&lt;String&gt;</text><ellipse cx="332.5" cy="611.2754" fill="#84BE84" rx="3" ry="3" style="stroke: #038048; stroke-width: 1.0;"/><text fill="#000000" font-family="sans-serif" font-size="11" lengthAdjust="spacingAndGlyphs" textLength="208" x="341.5" y="614.9102">setUserCommentAsString(String): void</text><ellipse cx="332.5" cy="624.2305" fill="#84BE84" rx="3" ry="3" style="stroke: #038048; stroke-width: 1.0;"/><text fill="#000000" font-family="sans-serif" font-size="11" lengthAdjust="spacingAndGlyphs" textLength="239" x="341.5" y="627.8652">getOriginalRawFileName(): Optional&lt;String&gt;</text><ellipse cx="332.5" cy="637.1855" fill="#84BE84" rx="3" ry="3" style="stroke: #038048; stroke-width: 1.0;"/><text fill="#000000" font-family="sans-serif" font-size="11" lengthAdjust="spacingAndGlyphs" textLength="207" x="341.5" y="640.8203">getICCProfile(): Optional&lt;ICC_Profile&gt;</text><ellipse cx="332.5" cy="650.1406" fill="#84BE84" rx="3" ry="3" style="stroke: #038048; stroke-width: 1.0;"/><text fill="#000000" font-family="sans-serif" font-size="11" lengthAdjust="spacingAndGlyphs" textLength="220" x="341.5" y="653.7754">getDateTimeAsDate(): Optional&lt;Instant&gt;</text><ellipse cx="332.5" cy="663.0957" fill="#84BE84" rx="3" ry="3" style="stroke: #038048; stroke-width: 1.0;"/><text fill="#000000" font-family="sans-serif" font-size="11" lengthAdjust="spacingAndGlyphs" textLength="178" x="341.5" y="666.7305">setDateTimeAsDate(Instant): void</text><ellipse cx="332.5" cy="676.0508" fill="#84BE84" rx="3" ry="3" style="stroke: #038048; stroke-width: 1.0;"/><text fill="#000000" font-family="sans-serif" font-size="11" lengthAdjust="spacingAndGlyphs" textLength="263" x="341.5" y="679.6855">getDateTimeOriginalAsDate(): Optional&lt;Instant&gt;</text><ellipse cx="332.5" cy="689.0059" fill="#84BE84" rx="3" ry="3" style="stroke: #038048; stroke-width: 1.0;"/><text fill="#000000" font-family="sans-serif" font-size="11" lengthAdjust="spacingAndGlyphs" textLength="221" x="341.5" y="692.6406">setDateTimeOriginalAsDate(Instant): void</text><ellipse cx="332.5" cy="701.9609" fill="#84BE84" rx="3" ry="3" style="stroke: #038048; stroke-width: 1.0;"/><text fill="#000000" font-family="sans-serif" font-size="11" lengthAdjust="spacingAndGlyphs" textLength="267" x="341.5" y="705.5957">getDateTimeDigitizedAsDate(): Optional&lt;Instant&gt;</text><ellipse cx="332.5" cy="714.916" fill="#84BE84" rx="3" ry="3" style="stroke: #038048; stroke-width: 1.0;"/><text fill="#000000" font-family="sans-serif" font-size="11" lengthAdjust="spacingAndGlyphs" textLength="225" x="341.5" y="718.5508">setDateTimeDigitizedAsDate(Instant): void</text><ellipse cx="332.5" cy="727.8711" fill="#84BE84" rx="3" ry="3" style="stroke: #038048; stroke-width: 1.0;"/><text fill="#000000" font-family="sans-serif" font-size="11" lengthAdjust="spacingAndGlyphs" textLength="135" x="341.5" y="731.5059">setDateTime(String): void</text><ellipse cx="332.5" cy="740.8262" fill="#84BE84" rx="3" ry="3" style="stroke: #038048; stroke-width: 1.0;"/><text fill="#000000" font-family="sans-serif" font-size="11" lengthAdjust="spacingAndGlyphs" textLength="182" x="341.5" y="744.4609">setDateTimeDigitized(String): void</text><ellipse cx="332.5" cy="753.7813" fill="#84BE84" rx="3" ry="3" style="stroke: #038048; stroke-width: 1.0;"/><text fill="#000000" font-family="sans-serif" font-size="11" lengthAdjust="spacingAndGlyphs" textLength="178" x="341.5" y="757.416">setDateTimeOriginal(String): void</text></a><!--MD5=[5b688c62cc40fda44c8555f94525e0c8]
class it.tidalwave.image.metadata.JavaBeanSupport--><a href="JavaBeanSupport.html" target="_top" title="JavaBeanSupport.html" xlink:actuate="onRequest" xlink:href="JavaBeanSupport.html" xlink:show="new" xlink:title="JavaBeanSupport.html" xlink:type="simple"><rect codeLine="55" fill="#FEFECE" filter="url(#f1ehrrp30aa6po)" height="229.3711" id="it.tidalwave.image.metadata.JavaBeanSupport" style="stroke: #A80036; stroke-width: 1.5;" width="401" x="542.5" y="33"/><ellipse cx="690.25" cy="49" fill="#A9DCDF" rx="11" ry="11" style="stroke: #A80036; stroke-width: 1.0;"/><path d="M690.1133,44.3481 L688.9595,49.4199 L691.2754,49.4199 Z M688.6191,42.1069 L691.6157,42.1069 L694.9609,54.5 L692.5122,54.5 L691.7485,51.437 L688.4697,51.437 L687.7227,54.5 L685.2739,54.5 Z "/><text fill="#000000" font-family="sans-serif" font-size="12" font-style="italic" lengthAdjust="spacingAndGlyphs" textLength="97" x="710.75" y="53.5352">JavaBeanSupport</text><line style="stroke: #A80036; stroke-width: 1.5;" x1="543.5" x2="942.5" y1="65" y2="65"/><polygon fill="none" points="553.5,71,557.5,75,553.5,79,549.5,75" style="stroke: #B38D22; stroke-width: 1.0;"/><text fill="#000000" font-family="sans-serif" font-size="11" lengthAdjust="spacingAndGlyphs" textLength="155" x="562.5" y="79.6348">pcs: PropertyChangeSupport</text><polygon fill="none" points="553.5,83.9551,557.5,87.9551,553.5,91.9551,549.5,87.9551" style="stroke: #B38D22; stroke-width: 1.0;"/><text fill="#000000" font-family="sans-serif" font-size="11" lengthAdjust="spacingAndGlyphs" textLength="265" x="562.5" y="92.5898">vetoableChangeSupport: VetoableChangeSupport</text><line style="stroke: #A80036; stroke-width: 1.5;" x1="543.5" x2="942.5" y1="98.9102" y2="98.9102"/><ellipse cx="553.5" cy="109.9102" fill="#84BE84" rx="3" ry="3" style="stroke: #038048; stroke-width: 1.0;"/><text fill="#000000" font-family="sans-serif" font-size="11" lengthAdjust="spacingAndGlyphs" textLength="317" x="562.5" y="113.5449">addPropertyChangeListener(PropertyChangeListener): void</text><ellipse cx="553.5" cy="122.8652" fill="#84BE84" rx="3" ry="3" style="stroke: #038048; stroke-width: 1.0;"/><text fill="#000000" font-family="sans-serif" font-size="11" lengthAdjust="spacingAndGlyphs" textLength="337" x="562.5" y="126.5">removePropertyChangeListener(PropertyChangeListener): void</text><ellipse cx="553.5" cy="135.8203" fill="#84BE84" rx="3" ry="3" style="stroke: #038048; stroke-width: 1.0;"/><text fill="#000000" font-family="sans-serif" font-size="11" lengthAdjust="spacingAndGlyphs" textLength="305" x="562.5" y="139.4551">getPropertyChangeListeners(): PropertyChangeListener[]</text><ellipse cx="553.5" cy="148.7754" fill="#84BE84" rx="3" ry="3" style="stroke: #038048; stroke-width: 1.0;"/><text fill="#000000" font-family="sans-serif" font-size="11" lengthAdjust="spacingAndGlyphs" textLength="355" x="562.5" y="152.4102">addPropertyChangeListener(String, PropertyChangeListener): void</text><ellipse cx="553.5" cy="161.7305" fill="#84BE84" rx="3" ry="3" style="stroke: #038048; stroke-width: 1.0;"/><text fill="#000000" font-family="sans-serif" font-size="11" lengthAdjust="spacingAndGlyphs" textLength="375" x="562.5" y="165.3652">removePropertyChangeListener(String, PropertyChangeListener): void</text><ellipse cx="553.5" cy="174.6855" fill="#84BE84" rx="3" ry="3" style="stroke: #038048; stroke-width: 1.0;"/><text fill="#000000" font-family="sans-serif" font-size="11" lengthAdjust="spacingAndGlyphs" textLength="337" x="562.5" y="178.3203">getPropertyChangeListeners(String): PropertyChangeListener[]</text><ellipse cx="553.5" cy="187.6406" fill="#84BE84" rx="3" ry="3" style="stroke: #038048; stroke-width: 1.0;"/><text fill="#000000" font-family="sans-serif" font-size="11" lengthAdjust="spacingAndGlyphs" textLength="317" x="562.5" y="191.2754">addVetoableChangeListener(VetoableChangeListener): void</text><ellipse cx="553.5" cy="200.5957" fill="#84BE84" rx="3" ry="3" style="stroke: #038048; stroke-width: 1.0;"/><text fill="#000000" font-family="sans-serif" font-size="11" lengthAdjust="spacingAndGlyphs" textLength="337" x="562.5" y="204.2305">removeVetoableChangeListener(VetoableChangeListener): void</text><ellipse cx="553.5" cy="213.5508" fill="#84BE84" rx="3" ry="3" style="stroke: #038048; stroke-width: 1.0;"/><text fill="#000000" font-family="sans-serif" font-size="11" lengthAdjust="spacingAndGlyphs" textLength="305" x="562.5" y="217.1855">getVetoableChangeListeners(): VetoableChangeListener[]</text><ellipse cx="553.5" cy="226.5059" fill="#84BE84" rx="3" ry="3" style="stroke: #038048; stroke-width: 1.0;"/><text fill="#000000" font-family="sans-serif" font-size="11" lengthAdjust="spacingAndGlyphs" textLength="355" x="562.5" y="230.1406">addVetoableChangeListener(String, VetoableChangeListener): void</text><ellipse cx="553.5" cy="239.4609" fill="#84BE84" rx="3" ry="3" style="stroke: #038048; stroke-width: 1.0;"/><text fill="#000000" font-family="sans-serif" font-size="11" lengthAdjust="spacingAndGlyphs" textLength="375" x="562.5" y="243.0957">removeVetoableChangeListener(String, VetoableChangeListener): void</text><ellipse cx="553.5" cy="252.416" fill="#84BE84" rx="3" ry="3" style="stroke: #038048; stroke-width: 1.0;"/><text fill="#000000" font-family="sans-serif" font-size="11" lengthAdjust="spacingAndGlyphs" textLength="337" x="562.5" y="256.0508">getVetoableChangeListeners(String): VetoableChangeListener[]</text></a><!--MD5=[22f8aeee0d43712971eca5a0dc7e16f9]
class it.tidalwave.image.metadata.IPTC--><a href="IPTC.html" target="_top" title="IPTC.html" xlink:actuate="onRequest" xlink:href="IPTC.html" xlink:show="new" xlink:title="IPTC.html" xlink:type="simple"><rect codeLine="72" fill="#FEFECE" filter="url(#f1ehrrp30aa6po)" height="99.8203" id="it.tidalwave.image.metadata.IPTC" style="stroke: #A80036; stroke-width: 1.5;" width="262" x="24" y="579.5"/><ellipse cx="137.75" cy="595.5" fill="#ADD1B2" rx="11" ry="11" style="stroke: #A80036; stroke-width: 1.0;"/><path d="M140.2231,601.6431 Q139.6421,601.9419 139.0029,602.0913 Q138.3638,602.2407 137.6582,602.2407 Q135.1514,602.2407 133.8315,600.5889 Q132.5117,598.937 132.5117,595.8159 Q132.5117,592.6865 133.8315,591.0347 Q135.1514,589.3828 137.6582,589.3828 Q138.3638,589.3828 139.0112,589.5322 Q139.6587,589.6816 140.2231,589.9805 L140.2231,592.7031 Q139.5923,592.1221 138.9988,591.8523 Q138.4053,591.5825 137.7744,591.5825 Q136.4297,591.5825 135.7449,592.6492 Q135.0601,593.7158 135.0601,595.8159 Q135.0601,597.9077 135.7449,598.9744 Q136.4297,600.041 137.7744,600.041 Q138.4053,600.041 138.9988,599.7712 Q139.5923,599.5015 140.2231,598.9204 Z "/><text fill="#000000" font-family="sans-serif" font-size="12" lengthAdjust="spacingAndGlyphs" textLength="26" x="158.25" y="600.0352">IPTC</text><line style="stroke: #A80036; stroke-width: 1.5;" x1="25" x2="285" y1="611.5" y2="611.5"/><line style="stroke: #A80036; stroke-width: 1.5;" x1="25" x2="285" y1="619.5" y2="619.5"/><ellipse cx="35" cy="630.5" fill="#84BE84" rx="3" ry="3" style="stroke: #038048; stroke-width: 1.0;"/><text fill="#000000" font-family="sans-serif" font-size="11" lengthAdjust="spacingAndGlyphs" textLength="32" x="44" y="634.1348">IPTC()</text><ellipse cx="35" cy="643.4551" fill="#84BE84" rx="3" ry="3" style="stroke: #038048; stroke-width: 1.0;"/><text fill="#000000" font-family="sans-serif" font-size="11" lengthAdjust="spacingAndGlyphs" textLength="69" x="44" y="647.0898">IPTC(Instant)</text><ellipse cx="35" cy="656.4102" fill="#84BE84" rx="3" ry="3" style="stroke: #038048; stroke-width: 1.0;"/><text fill="#000000" font-family="sans-serif" font-size="11" lengthAdjust="spacingAndGlyphs" textLength="236" x="44" y="660.0449">getDateCreatedAsDate(): Optional&lt;Instant&gt;</text><ellipse cx="35" cy="669.3652" fill="#84BE84" rx="3" ry="3" style="stroke: #038048; stroke-width: 1.0;"/><text fill="#000000" font-family="sans-serif" font-size="11" lengthAdjust="spacingAndGlyphs" textLength="194" x="44" y="673">setDateCreatedAsDate(Instant): void</text></a><!--MD5=[aebdcd06cec78484a6779618c6993d51]
class it.tidalwave.image.metadata.MakerNote--><a href="MakerNote.html" target="_top" title="MakerNote.html" xlink:actuate="onRequest" xlink:href="MakerNote.html" xlink:show="new" xlink:title="MakerNote.html" xlink:type="simple"><rect codeLine="79" fill="#FEFECE" filter="url(#f1ehrrp30aa6po)" height="48" id="it.tidalwave.image.metadata.MakerNote" style="stroke: #A80036; stroke-width: 1.5;" width="95" x="690.5" y="974"/><ellipse cx="705.5" cy="990" fill="#ADD1B2" rx="11" ry="11" style="stroke: #A80036; stroke-width: 1.0;"/><path d="M707.9731,996.1431 Q707.3921,996.4419 706.7529,996.5913 Q706.1138,996.7407 705.4082,996.7407 Q702.9014,996.7407 701.5815,995.0889 Q700.2617,993.437 700.2617,990.3159 Q700.2617,987.1865 701.5815,985.5347 Q702.9014,983.8828 705.4082,983.8828 Q706.1138,983.8828 706.7612,984.0322 Q707.4087,984.1816 707.9731,984.4805 L707.9731,987.2031 Q707.3423,986.6221 706.7488,986.3523 Q706.1553,986.0825 705.5244,986.0825 Q704.1797,986.0825 703.4949,987.1492 Q702.8101,988.2158 702.8101,990.3159 Q702.8101,992.4077 703.4949,993.4744 Q704.1797,994.541 705.5244,994.541 Q706.1553,994.541 706.7488,994.2712 Q707.3423,994.0015 707.9731,993.4204 Z "/><text fill="#000000" font-family="sans-serif" font-size="12" lengthAdjust="spacingAndGlyphs" textLength="63" x="719.5" y="994.5352">MakerNote</text><line style="stroke: #A80036; stroke-width: 1.5;" x1="691.5" x2="784.5" y1="1006" y2="1006"/><line style="stroke: #A80036; stroke-width: 1.5;" x1="691.5" x2="784.5" y1="1014" y2="1014"/></a><!--MD5=[8db2d60cc4892d9666b47f49b0914d23]
class it.tidalwave.image.metadata.WangAnnotations--><a href="WangAnnotations.html" target="_top" title="WangAnnotations.html" xlink:actuate="onRequest" xlink:href="WangAnnotations.html" xlink:show="new" xlink:title="WangAnnotations.html" xlink:type="simple"><rect codeLine="81" fill="#FEFECE" filter="url(#f1ehrrp30aa6po)" height="73.9102" id="it.tidalwave.image.metadata.WangAnnotations" style="stroke: #A80036; stroke-width: 1.5;" width="173" x="237.5" y="1174"/><ellipse cx="271.85" cy="1190" fill="#ADD1B2" rx="11" ry="11" style="stroke: #A80036; stroke-width: 1.0;"/><path d="M274.3231,1196.1431 Q273.7421,1196.4419 273.1029,1196.5913 Q272.4638,1196.7407 271.7582,1196.7407 Q269.2514,1196.7407 267.9315,1195.0889 Q266.6117,1193.437 266.6117,1190.3159 Q266.6117,1187.1865 267.9315,1185.5347 Q269.2514,1183.8828 271.7582,1183.8828 Q272.4638,1183.8828 273.1112,1184.0322 Q273.7587,1184.1816 274.3231,1184.4805 L274.3231,1187.2031 Q273.6923,1186.6221 273.0988,1186.3523 Q272.5053,1186.0825 271.8744,1186.0825 Q270.5297,1186.0825 269.8449,1187.1492 Q269.1601,1188.2158 269.1601,1190.3159 Q269.1601,1192.4077 269.8449,1193.4744 Q270.5297,1194.541 271.8744,1194.541 Q272.5053,1194.541 273.0988,1194.2712 Q273.6923,1194.0015 274.3231,1193.4204 Z "/><text fill="#000000" font-family="sans-serif" font-size="12" lengthAdjust="spacingAndGlyphs" textLength="98" x="290.15" y="1194.5352">WangAnnotations</text><line style="stroke: #A80036; stroke-width: 1.5;" x1="238.5" x2="409.5" y1="1206" y2="1206"/><line style="stroke: #A80036; stroke-width: 1.5;" x1="238.5" x2="409.5" y1="1214" y2="1214"/><ellipse cx="248.5" cy="1225" fill="#84BE84" rx="3" ry="3" style="stroke: #038048; stroke-width: 1.0;"/><text fill="#000000" font-family="sans-serif" font-size="11" lengthAdjust="spacingAndGlyphs" textLength="134" x="257.5" y="1228.6348">WangAnnotations(byte[])</text><ellipse cx="248.5" cy="1237.9551" fill="#84BE84" rx="3" ry="3" style="stroke: #038048; stroke-width: 1.0;"/><text fill="#000000" font-family="sans-serif" font-size="11" lengthAdjust="spacingAndGlyphs" textLength="147" x="257.5" y="1241.5898">render(EditableImage): void</text></a><!--MD5=[5d3e322f9402568ffb999750b24a71d8]
class it.tidalwave.image.metadata.WangAnnotations.Attributes--><a href="WangAnnotations.Attributes.html" target="_top" title="WangAnnotations.Attributes.html" xlink:actuate="onRequest" xlink:href="WangAnnotations.Attributes.html" xlink:show="new" xlink:title="WangAnnotations.Attributes.html" xlink:type="simple"><rect codeLine="86" fill="#FEFECE" filter="url(#f1ehrrp30aa6po)" height="99.8203" id="it.tidalwave.image.metadata.WangAnnotations.Attributes" style="stroke: #A80036; stroke-width: 1.5;" width="302" x="34" y="1584"/><ellipse cx="101.75" cy="1600" fill="#ADD1B2" rx="11" ry="11" style="stroke: #A80036; stroke-width: 1.0;"/><path d="M104.2231,1606.1431 Q103.6421,1606.4419 103.0029,1606.5913 Q102.3638,1606.7407 101.6582,1606.7407 Q99.1514,1606.7407 97.8315,1605.0889 Q96.5117,1603.437 96.5117,1600.3159 Q96.5117,1597.1865 97.8315,1595.5347 Q99.1514,1593.8828 101.6582,1593.8828 Q102.3638,1593.8828 103.0112,1594.0322 Q103.6587,1594.1816 104.2231,1594.4805 L104.2231,1597.2031 Q103.5923,1596.6221 102.9988,1596.3523 Q102.4053,1596.0825 101.7744,1596.0825 Q100.4297,1596.0825 99.7449,1597.1492 Q99.0601,1598.2158 99.0601,1600.3159 Q99.0601,1602.4077 99.7449,1603.4744 Q100.4297,1604.541 101.7744,1604.541 Q102.4053,1604.541 102.9988,1604.2712 Q103.5923,1604.0015 104.2231,1603.4204 Z "/><text fill="#000000" font-family="sans-serif" font-size="12" lengthAdjust="spacingAndGlyphs" textLength="158" x="122.25" y="1604.5352">WangAnnotations.Attributes</text><line style="stroke: #A80036; stroke-width: 1.5;" x1="35" x2="335" y1="1616" y2="1616"/><line style="stroke: #A80036; stroke-width: 1.5;" x1="35" x2="335" y1="1624" y2="1624"/><polygon fill="#FFFF44" points="45,1630,49,1634,45,1638,41,1634" style="stroke: #B38D22; stroke-width: 1.0;"/><text fill="#000000" font-family="sans-serif" font-size="11" lengthAdjust="spacingAndGlyphs" textLength="93" x="54" y="1638.6348">Attributes(byte[])</text><ellipse cx="45" cy="1647.9551" fill="#84BE84" rx="3" ry="3" style="stroke: #038048; stroke-width: 1.0;"/><text fill="#000000" font-family="sans-serif" font-size="11" lengthAdjust="spacingAndGlyphs" textLength="71" x="54" y="1651.5898">getType(): int</text><ellipse cx="45" cy="1660.9102" fill="#84BE84" rx="3" ry="3" style="stroke: #038048; stroke-width: 1.0;"/><text fill="#000000" font-family="sans-serif" font-size="11" lengthAdjust="spacingAndGlyphs" textLength="276" x="54" y="1664.5449">drawString(Graphics2D, EditableImage, String): void</text><ellipse cx="45" cy="1673.8652" fill="#84BE84" rx="3" ry="3" style="stroke: #038048; stroke-width: 1.0;"/><text fill="#000000" font-family="sans-serif" font-size="11" lengthAdjust="spacingAndGlyphs" textLength="258" x="54" y="1677.5">drawRectangle(Graphics2D, EditableImage): void</text></a><!--MD5=[3fd5389c09aefcf041001612bd1da8ec]
class it.tidalwave.image.metadata.WangAnnotations.Attributes.LogFont--><a href="WangAnnotations.Attributes.LogFont.html" target="_top" title="WangAnnotations.Attributes.LogFont.html" xlink:actuate="onRequest" xlink:href="WangAnnotations.Attributes.LogFont.html" xlink:show="new" xlink:title="WangAnnotations.Attributes.LogFont.html" xlink:type="simple"><rect codeLine="93" fill="#FEFECE" filter="url(#f1ehrrp30aa6po)" height="73.9102" id="it.tidalwave.image.metadata.WangAnnotations.Attributes.LogFont" style="stroke: #A80036; stroke-width: 1.5;" width="238" x="66" y="1807"/><ellipse cx="81" cy="1823" fill="#ADD1B2" rx="11" ry="11" style="stroke: #A80036; stroke-width: 1.0;"/><path d="M83.4731,1829.1431 Q82.8921,1829.4419 82.2529,1829.5913 Q81.6138,1829.7407 80.9082,1829.7407 Q78.4014,1829.7407 77.0815,1828.0889 Q75.7617,1826.437 75.7617,1823.3159 Q75.7617,1820.1865 77.0815,1818.5347 Q78.4014,1816.8828 80.9082,1816.8828 Q81.6138,1816.8828 82.2612,1817.0322 Q82.9087,1817.1816 83.4731,1817.4805 L83.4731,1820.2031 Q82.8423,1819.6221 82.2488,1819.3523 Q81.6553,1819.0825 81.0244,1819.0825 Q79.6797,1819.0825 78.9949,1820.1492 Q78.3101,1821.2158 78.3101,1823.3159 Q78.3101,1825.4077 78.9949,1826.4744 Q79.6797,1827.541 81.0244,1827.541 Q81.6553,1827.541 82.2488,1827.2712 Q82.8423,1827.0015 83.4731,1826.4204 Z "/><text fill="#000000" font-family="sans-serif" font-size="12" lengthAdjust="spacingAndGlyphs" textLength="206" x="95" y="1827.5352">WangAnnotations.Attributes.LogFont</text><line style="stroke: #A80036; stroke-width: 1.5;" x1="67" x2="303" y1="1839" y2="1839"/><line style="stroke: #A80036; stroke-width: 1.5;" x1="67" x2="303" y1="1847" y2="1847"/><polygon fill="#FFFF44" points="77,1853,81,1857,77,1861,73,1857" style="stroke: #B38D22; stroke-width: 1.0;"/><text fill="#000000" font-family="sans-serif" font-size="11" lengthAdjust="spacingAndGlyphs" textLength="83" x="86" y="1861.6348">LogFont(byte[])</text><ellipse cx="77" cy="1870.9551" fill="#84BE84" rx="3" ry="3" style="stroke: #038048; stroke-width: 1.0;"/><text fill="#000000" font-family="sans-serif" font-size="11" lengthAdjust="spacingAndGlyphs" textLength="95" x="86" y="1874.5898">createFont(): Font</text></a><!--MD5=[7e4b48282eda49816f9dea1893753dc9]
class it.tidalwave.image.metadata.WangAnnotations.Internal--><a href="WangAnnotations.Internal.html" target="_top" title="WangAnnotations.Internal.html" xlink:actuate="onRequest" xlink:href="WangAnnotations.Internal.html" xlink:show="new" xlink:title="WangAnnotations.Internal.html" xlink:type="simple"><rect codeLine="98" fill="#FEFECE" filter="url(#f1ehrrp30aa6po)" height="73.9102" id="it.tidalwave.image.metadata.WangAnnotations.Internal" style="stroke: #A80036; stroke-width: 1.5;" width="177" x="372.5" y="1371"/><ellipse cx="387.5" cy="1387" fill="#A9DCDF" rx="11" ry="11" style="stroke: #A80036; stroke-width: 1.0;"/><path d="M387.3633,1382.3481 L386.2095,1387.4199 L388.5254,1387.4199 Z M385.8691,1380.1069 L388.8657,1380.1069 L392.2109,1392.5 L389.7622,1392.5 L388.9985,1389.437 L385.7197,1389.437 L384.9727,1392.5 L382.5239,1392.5 Z "/><text fill="#000000" font-family="sans-serif" font-size="12" font-style="italic" lengthAdjust="spacingAndGlyphs" textLength="145" x="401.5" y="1391.5352">WangAnnotations.Internal</text><line style="stroke: #A80036; stroke-width: 1.5;" x1="373.5" x2="548.5" y1="1403" y2="1403"/><line style="stroke: #A80036; stroke-width: 1.5;" x1="373.5" x2="548.5" y1="1411" y2="1411"/><ellipse cx="383.5" cy="1422" fill="#84BE84" rx="3" ry="3" style="stroke: #038048; stroke-width: 1.0;"/><text fill="#000000" font-family="sans-serif" font-size="11" lengthAdjust="spacingAndGlyphs" textLength="103" x="392.5" y="1425.6348">Internal(Attributes)</text><ellipse cx="383.5" cy="1434.9551" fill="#84BE84" rx="3" ry="3" style="stroke: #038048; stroke-width: 1.0;"/><text fill="#000000" font-family="sans-serif" font-size="11" font-style="italic" lengthAdjust="spacingAndGlyphs" textLength="147" x="392.5" y="1438.5898">render(EditableImage): void</text></a><!--MD5=[44855f1631fbce20ce498403d4001642]
class it.tidalwave.image.metadata.WangAnnotations.OiAnText--><a href="WangAnnotations.OiAnText.html" target="_top" title="WangAnnotations.OiAnText.html" xlink:actuate="onRequest" xlink:href="WangAnnotations.OiAnText.html" xlink:show="new" xlink:title="WangAnnotations.OiAnText.html" xlink:type="simple"><rect codeLine="103" fill="#FEFECE" filter="url(#f1ehrrp30aa6po)" height="73.9102" id="it.tidalwave.image.metadata.WangAnnotations.OiAnText" style="stroke: #A80036; stroke-width: 1.5;" width="187" x="371.5" y="1597"/><ellipse cx="386.5" cy="1613" fill="#ADD1B2" rx="11" ry="11" style="stroke: #A80036; stroke-width: 1.0;"/><path d="M388.9731,1619.1431 Q388.3921,1619.4419 387.7529,1619.5913 Q387.1138,1619.7407 386.4082,1619.7407 Q383.9014,1619.7407 382.5815,1618.0889 Q381.2617,1616.437 381.2617,1613.3159 Q381.2617,1610.1865 382.5815,1608.5347 Q383.9014,1606.8828 386.4082,1606.8828 Q387.1138,1606.8828 387.7612,1607.0322 Q388.4087,1607.1816 388.9731,1607.4805 L388.9731,1610.2031 Q388.3423,1609.6221 387.7488,1609.3523 Q387.1553,1609.0825 386.5244,1609.0825 Q385.1797,1609.0825 384.4949,1610.1492 Q383.8101,1611.2158 383.8101,1613.3159 Q383.8101,1615.4077 384.4949,1616.4744 Q385.1797,1617.541 386.5244,1617.541 Q387.1553,1617.541 387.7488,1617.2712 Q388.3423,1617.0015 388.9731,1616.4204 Z "/><text fill="#000000" font-family="sans-serif" font-size="12" lengthAdjust="spacingAndGlyphs" textLength="155" x="400.5" y="1617.5352">WangAnnotations.OiAnText</text><line style="stroke: #A80036; stroke-width: 1.5;" x1="372.5" x2="557.5" y1="1629" y2="1629"/><line style="stroke: #A80036; stroke-width: 1.5;" x1="372.5" x2="557.5" y1="1637" y2="1637"/><polygon fill="#FFFF44" points="382.5,1643,386.5,1647,382.5,1651,378.5,1647" style="stroke: #B38D22; stroke-width: 1.0;"/><text fill="#000000" font-family="sans-serif" font-size="11" lengthAdjust="spacingAndGlyphs" textLength="150" x="391.5" y="1651.6348">OiAnText(Attributes, byte[])</text><ellipse cx="382.5" cy="1660.9551" fill="#84BE84" rx="3" ry="3" style="stroke: #038048; stroke-width: 1.0;"/><text fill="#000000" font-family="sans-serif" font-size="11" lengthAdjust="spacingAndGlyphs" textLength="147" x="391.5" y="1664.5898">render(EditableImage): void</text></a><!--MD5=[bd45fbb4e6f036b08bdc14807dd922de]
class it.tidalwave.image.metadata.WangAnnotations.OiHilite--><a href="WangAnnotations.OiHilite.html" target="_top" title="WangAnnotations.OiHilite.html" xlink:actuate="onRequest" xlink:href="WangAnnotations.OiHilite.html" xlink:show="new" xlink:title="WangAnnotations.OiHilite.html" xlink:type="simple"><rect codeLine="108" fill="#FEFECE" filter="url(#f1ehrrp30aa6po)" height="73.9102" id="it.tidalwave.image.metadata.WangAnnotations.OiHilite" style="stroke: #A80036; stroke-width: 1.5;" width="175" x="593.5" y="1597"/><ellipse cx="608.5" cy="1613" fill="#ADD1B2" rx="11" ry="11" style="stroke: #A80036; stroke-width: 1.0;"/><path d="M610.9731,1619.1431 Q610.3921,1619.4419 609.7529,1619.5913 Q609.1138,1619.7407 608.4082,1619.7407 Q605.9014,1619.7407 604.5815,1618.0889 Q603.2617,1616.437 603.2617,1613.3159 Q603.2617,1610.1865 604.5815,1608.5347 Q605.9014,1606.8828 608.4082,1606.8828 Q609.1138,1606.8828 609.7612,1607.0322 Q610.4087,1607.1816 610.9731,1607.4805 L610.9731,1610.2031 Q610.3423,1609.6221 609.7488,1609.3523 Q609.1553,1609.0825 608.5244,1609.0825 Q607.1797,1609.0825 606.4949,1610.1492 Q605.8101,1611.2158 605.8101,1613.3159 Q605.8101,1615.4077 606.4949,1616.4744 Q607.1797,1617.541 608.5244,1617.541 Q609.1553,1617.541 609.7488,1617.2712 Q610.3423,1617.0015 610.9731,1616.4204 Z "/><text fill="#000000" font-family="sans-serif" font-size="12" lengthAdjust="spacingAndGlyphs" textLength="143" x="622.5" y="1617.5352">WangAnnotations.OiHilite</text><line style="stroke: #A80036; stroke-width: 1.5;" x1="594.5" x2="767.5" y1="1629" y2="1629"/><line style="stroke: #A80036; stroke-width: 1.5;" x1="594.5" x2="767.5" y1="1637" y2="1637"/><polygon fill="#FFFF44" points="604.5,1643,608.5,1647,604.5,1651,600.5,1647" style="stroke: #B38D22; stroke-width: 1.0;"/><text fill="#000000" font-family="sans-serif" font-size="11" lengthAdjust="spacingAndGlyphs" textLength="101" x="613.5" y="1651.6348">OiHilite(Attributes)</text><ellipse cx="604.5" cy="1660.9551" fill="#84BE84" rx="3" ry="3" style="stroke: #038048; stroke-width: 1.0;"/><text fill="#000000" font-family="sans-serif" font-size="11" lengthAdjust="spacingAndGlyphs" textLength="147" x="613.5" y="1664.5898">render(EditableImage): void</text></a><!--MD5=[b52548360f7b22703f16284bf14d73f2]
class it.tidalwave.image.metadata.XMP--><a href="XMP.html" target="_top" title="XMP.html" xlink:actuate="onRequest" xlink:href="XMP.html" xlink:show="new" xlink:title="XMP.html" xlink:type="simple"><rect codeLine="113" fill="#FEFECE" filter="url(#f1ehrrp30aa6po)" height="60.9551" id="it.tidalwave.image.metadata.XMP" style="stroke: #A80036; stroke-width: 1.5;" width="250" x="405" y="967.5"/><ellipse cx="513.25" cy="983.5" fill="#ADD1B2" rx="11" ry="11" style="stroke: #A80036; stroke-width: 1.0;"/><path d="M515.7231,989.6431 Q515.1421,989.9419 514.5029,990.0913 Q513.8638,990.2407 513.1582,990.2407 Q510.6514,990.2407 509.3315,988.5889 Q508.0117,986.937 508.0117,983.8159 Q508.0117,980.6865 509.3315,979.0347 Q510.6514,977.3828 513.1582,977.3828 Q513.8638,977.3828 514.5112,977.5322 Q515.1587,977.6816 515.7231,977.9805 L515.7231,980.7031 Q515.0923,980.1221 514.4988,979.8523 Q513.9053,979.5825 513.2744,979.5825 Q511.9297,979.5825 511.2449,980.6492 Q510.5601,981.7158 510.5601,983.8159 Q510.5601,985.9077 511.2449,986.9744 Q511.9297,988.041 513.2744,988.041 Q513.9053,988.041 514.4988,987.7712 Q515.0923,987.5015 515.7231,986.9204 Z "/><text fill="#000000" font-family="sans-serif" font-size="12" lengthAdjust="spacingAndGlyphs" textLength="25" x="533.75" y="988.0352">XMP</text><line style="stroke: #A80036; stroke-width: 1.5;" x1="406" x2="654" y1="999.5" y2="999.5"/><line style="stroke: #A80036; stroke-width: 1.5;" x1="406" x2="654" y1="1007.5" y2="1007.5"/><ellipse cx="416" cy="1018.5" fill="#84BE84" rx="3" ry="3" style="stroke: #038048; stroke-width: 1.0;"/><text fill="#000000" font-family="sans-serif" font-size="11" lengthAdjust="spacingAndGlyphs" textLength="224" x="425" y="1022.1348">_setProperties(Map&lt;String, String&gt;): void</text></a><!--MD5=[51d5ed055800a764230cf6c4cd059250]
class it.tidalwave.image.metadata.TIFF--><a href="TIFF.html" target="_top" title="TIFF.html" xlink:actuate="onRequest" xlink:href="TIFF.html" xlink:show="new" xlink:title="TIFF.html" xlink:type="simple"><rect codeLine="117" fill="#FEFECE" filter="url(#f1ehrrp30aa6po)" height="73.9102" id="it.tidalwave.image.metadata.TIFF" style="stroke: #A80036; stroke-width: 1.5;" width="93" x="277.5" y="961"/><ellipse cx="309.6" cy="977" fill="#ADD1B2" rx="11" ry="11" style="stroke: #A80036; stroke-width: 1.0;"/><path d="M312.0731,983.1431 Q311.4921,983.4419 310.8529,983.5913 Q310.2138,983.7407 309.5082,983.7407 Q307.0014,983.7407 305.6815,982.0889 Q304.3617,980.437 304.3617,977.3159 Q304.3617,974.1865 305.6815,972.5347 Q307.0014,970.8828 309.5082,970.8828 Q310.2138,970.8828 310.8612,971.0322 Q311.5087,971.1816 312.0731,971.4805 L312.0731,974.2031 Q311.4423,973.6221 310.8488,973.3523 Q310.2553,973.0825 309.6244,973.0825 Q308.2797,973.0825 307.5949,974.1492 Q306.9101,975.2158 306.9101,977.3159 Q306.9101,979.4077 307.5949,980.4744 Q308.2797,981.541 309.6244,981.541 Q310.2553,981.541 310.8488,981.2712 Q311.4423,981.0015 312.0731,980.4204 Z "/><text fill="#000000" font-family="sans-serif" font-size="12" lengthAdjust="spacingAndGlyphs" textLength="23" x="327.4" y="981.5352">TIFF</text><line style="stroke: #A80036; stroke-width: 1.5;" x1="278.5" x2="369.5" y1="993" y2="993"/><line style="stroke: #A80036; stroke-width: 1.5;" x1="278.5" x2="369.5" y1="1001" y2="1001"/><ellipse cx="288.5" cy="1012" fill="#84BE84" rx="3" ry="3" style="stroke: #038048; stroke-width: 1.0;"/><text fill="#000000" font-family="sans-serif" font-size="11" lengthAdjust="spacingAndGlyphs" textLength="30" x="297.5" y="1015.6348">TIFF()</text><ellipse cx="288.5" cy="1024.9551" fill="#84BE84" rx="3" ry="3" style="stroke: #038048; stroke-width: 1.0;"/><text fill="#000000" font-family="sans-serif" font-size="11" lengthAdjust="spacingAndGlyphs" textLength="67" x="297.5" y="1028.5898">TIFF(Instant)</text></a><!--MD5=[31afa35fe63b59bdf46be5a49aa1f741]
class it.tidalwave.image.metadata.EXIFDirectoryGenerated--><rect fill="#FEFECE" filter="url(#f1ehrrp30aa6po)" height="48" id="it.tidalwave.image.metadata.EXIFDirectoryGenerated" style="stroke: #A80036; stroke-width: 1.5;" width="169" x="338.5" y="123.5"/><ellipse cx="353.5" cy="139.5" fill="#ADD1B2" rx="11" ry="11" style="stroke: #A80036; stroke-width: 1.0;"/><path d="M355.9731,145.6431 Q355.3921,145.9419 354.7529,146.0913 Q354.1138,146.2407 353.4082,146.2407 Q350.9014,146.2407 349.5815,144.5889 Q348.2617,142.937 348.2617,139.8159 Q348.2617,136.6865 349.5815,135.0347 Q350.9014,133.3828 353.4082,133.3828 Q354.1138,133.3828 354.7612,133.5322 Q355.4087,133.6816 355.9731,133.9805 L355.9731,136.7031 Q355.3423,136.1221 354.7488,135.8523 Q354.1553,135.5825 353.5244,135.5825 Q352.1797,135.5825 351.4949,136.6492 Q350.8101,137.7158 350.8101,139.8159 Q350.8101,141.9077 351.4949,142.9744 Q352.1797,144.041 353.5244,144.041 Q354.1553,144.041 354.7488,143.7712 Q355.3423,143.5015 355.9731,142.9204 Z "/><text fill="#000000" font-family="sans-serif" font-size="12" lengthAdjust="spacingAndGlyphs" textLength="137" x="367.5" y="144.0352">EXIFDirectoryGenerated</text><line style="stroke: #A80036; stroke-width: 1.5;" x1="339.5" x2="506.5" y1="155.5" y2="155.5"/><line style="stroke: #A80036; stroke-width: 1.5;" x1="339.5" x2="506.5" y1="163.5" y2="163.5"/><!--MD5=[310307119eee6d45a517e0c67921f093]
class it.tidalwave.image.metadata.EXIFDirectoryGenerated.FileSource--><rect fill="#FEFECE" filter="url(#f1ehrrp30aa6po)" height="48" id="it.tidalwave.image.metadata.EXIFDirectoryGenerated.FileSource" style="stroke: #A80036; stroke-width: 1.5;" width="89" x="23.5" y="974"/><ellipse cx="38.5" cy="990" fill="#ADD1B2" rx="11" ry="11" style="stroke: #A80036; stroke-width: 1.0;"/><path d="M40.9731,996.1431 Q40.3921,996.4419 39.7529,996.5913 Q39.1138,996.7407 38.4082,996.7407 Q35.9014,996.7407 34.5815,995.0889 Q33.2617,993.437 33.2617,990.3159 Q33.2617,987.1865 34.5815,985.5347 Q35.9014,983.8828 38.4082,983.8828 Q39.1138,983.8828 39.7612,984.0322 Q40.4087,984.1816 40.9731,984.4805 L40.9731,987.2031 Q40.3423,986.6221 39.7488,986.3523 Q39.1553,986.0825 38.5244,986.0825 Q37.1797,986.0825 36.4949,987.1492 Q35.8101,988.2158 35.8101,990.3159 Q35.8101,992.4077 36.4949,993.4744 Q37.1797,994.541 38.5244,994.541 Q39.1553,994.541 39.7488,994.2712 Q40.3423,994.0015 40.9731,993.4204 Z "/><text fill="#000000" font-family="sans-serif" font-size="12" lengthAdjust="spacingAndGlyphs" textLength="57" x="52.5" y="994.5352">FileSource</text><line style="stroke: #A80036; stroke-width: 1.5;" x1="24.5" x2="111.5" y1="1006" y2="1006"/><line style="stroke: #A80036; stroke-width: 1.5;" x1="24.5" x2="111.5" y1="1014" y2="1014"/><!--MD5=[4ae63d97fef43974a87783a152e9231b]
class it.tidalwave.image.metadata.EXIFDirectoryGenerated.SceneType--><rect fill="#FEFECE" filter="url(#f1ehrrp30aa6po)" height="48" id="it.tidalwave.image.metadata.EXIFDirectoryGenerated.SceneType" style="stroke: #A80036; stroke-width: 1.5;" width="94" x="148" y="974"/><ellipse cx="163" cy="990" fill="#ADD1B2" rx="11" ry="11" style="stroke: #A80036; stroke-width: 1.0;"/><path d="M165.4731,996.1431 Q164.8921,996.4419 164.2529,996.5913 Q163.6138,996.7407 162.9082,996.7407 Q160.4014,996.7407 159.0815,995.0889 Q157.7617,993.437 157.7617,990.3159 Q157.7617,987.1865 159.0815,985.5347 Q160.4014,983.8828 162.9082,983.8828 Q163.6138,983.8828 164.2612,984.0322 Q164.9087,984.1816 165.4731,984.4805 L165.4731,987.2031 Q164.8423,986.6221 164.2488,986.3523 Q163.6553,986.0825 163.0244,986.0825 Q161.6797,986.0825 160.9949,987.1492 Q160.3101,988.2158 160.3101,990.3159 Q160.3101,992.4077 160.9949,993.4744 Q161.6797,994.541 163.0244,994.541 Q163.6553,994.541 164.2488,994.2712 Q164.8423,994.0015 165.4731,993.4204 Z "/><text fill="#000000" font-family="sans-serif" font-size="12" lengthAdjust="spacingAndGlyphs" textLength="62" x="177" y="994.5352">SceneType</text><line style="stroke: #A80036; stroke-width: 1.5;" x1="149" x2="241" y1="1006" y2="1006"/><line style="stroke: #A80036; stroke-width: 1.5;" x1="149" x2="241" y1="1014" y2="1014"/><!--MD5=[fabff8912a85a4ade17492584d167f83]
class it.tidalwave.image.metadata.IPTCDirectoryGenerated--><rect fill="#FEFECE" filter="url(#f1ehrrp30aa6po)" height="48" id="it.tidalwave.image.metadata.IPTCDirectoryGenerated" style="stroke: #A80036; stroke-width: 1.5;" width="171" x="69.5" y="123.5"/><ellipse cx="84.5" cy="139.5" fill="#ADD1B2" rx="11" ry="11" style="stroke: #A80036; stroke-width: 1.0;"/><path d="M86.9731,145.6431 Q86.3921,145.9419 85.7529,146.0913 Q85.1138,146.2407 84.4082,146.2407 Q81.9014,146.2407 80.5815,144.5889 Q79.2617,142.937 79.2617,139.8159 Q79.2617,136.6865 80.5815,135.0347 Q81.9014,133.3828 84.4082,133.3828 Q85.1138,133.3828 85.7612,133.5322 Q86.4087,133.6816 86.9731,133.9805 L86.9731,136.7031 Q86.3423,136.1221 85.7488,135.8523 Q85.1553,135.5825 84.5244,135.5825 Q83.1797,135.5825 82.4949,136.6492 Q81.8101,137.7158 81.8101,139.8159 Q81.8101,141.9077 82.4949,142.9744 Q83.1797,144.041 84.5244,144.041 Q85.1553,144.041 85.7488,143.7712 Q86.3423,143.5015 86.9731,142.9204 Z "/><text fill="#000000" font-family="sans-serif" font-size="12" lengthAdjust="spacingAndGlyphs" textLength="139" x="98.5" y="144.0352">IPTCDirectoryGenerated</text><line style="stroke: #A80036; stroke-width: 1.5;" x1="70.5" x2="239.5" y1="155.5" y2="155.5"/><line style="stroke: #A80036; stroke-width: 1.5;" x1="70.5" x2="239.5" y1="163.5" y2="163.5"/><!--MD5=[5a5af9b0547913863cbe0ddf55a9ab5e]
class java.io.Serializable--><rect codeLine="145" fill="#FEFECE" filter="url(#f1ehrrp30aa6po)" height="48" id="java.io.Serializable" style="stroke: #A80036; stroke-width: 1.5;" width="98" x="967" y="328"/><ellipse cx="982" cy="344" fill="#B4A7E5" rx="11" ry="11" style="stroke: #A80036; stroke-width: 1.0;"/><path d="M978.4277,340.2651 L978.4277,338.1069 L985.8071,338.1069 L985.8071,340.2651 L983.3418,340.2651 L983.3418,348.3418 L985.8071,348.3418 L985.8071,350.5 L978.4277,350.5 L978.4277,348.3418 L980.8931,348.3418 L980.8931,340.2651 Z "/><text fill="#000000" font-family="sans-serif" font-size="12" font-style="italic" lengthAdjust="spacingAndGlyphs" textLength="66" x="996" y="348.5352">Serializable</text><line style="stroke: #A80036; stroke-width: 1.5;" x1="968" x2="1064" y1="360" y2="360"/><line style="stroke: #A80036; stroke-width: 1.5;" x1="968" x2="1064" y1="368" y2="368"/><!--MD5=[183cdd92d5ca9fca9fc330169faa58ab]
reverse link it.tidalwave.image.metadata.JavaBeanSupport to it.tidalwave.image.metadata.Directory--><path codeLine="122" d="M758.0794,282.0974 C763.4444,329.9854 769.5952,384.8864 775.3989,436.6903 " fill="none" id="it.tidalwave.image.metadata.JavaBeanSupport-backto-it.tidalwave.image.metadata.Directory" style="stroke: #A80036; stroke-width: 1.0;"/><polygon fill="none" points="751.1018,282.6879,755.8315,262.0328,765.0148,281.1291,751.1018,282.6879" style="stroke: #A80036; stroke-width: 1.0;"/><!--MD5=[c9b670264a19e9aec05cb3ba784ccd01]
reverse link java.io.Serializable to it.tidalwave.image.metadata.Directory--><path codeLine="123" d="M984.3001,392.1677 C972.4729,407.1543 958.141,425.3145 942.73,444.8421 " fill="none" id="java.io.Serializable-backto-it.tidalwave.image.metadata.Directory" style="stroke: #A80036; stroke-width: 1.0; stroke-dasharray: 7.0,7.0;"/><polygon fill="none" points="979.0632,387.5042,996.9483,376.1409,990.0531,396.1773,979.0632,387.5042" style="stroke: #A80036; stroke-width: 1.0;"/><!--MD5=[eb6e3dd4557e05146349df14741d87aa]
link it.tidalwave.image.metadata.Directory to it.tidalwave.image.metadata.Directory.Tag--><path codeLine="124" d="M824.6682,822.3461 C829.9286,848.6352 836.0175,875.1187 843,900 C849.7049,923.8922 860.2398,949.9509 868.671,969.1873 " fill="none" id="it.tidalwave.image.metadata.Directory-to-it.tidalwave.image.metadata.Directory.Tag" style="stroke: #A80036; stroke-width: 1.0;"/><polygon fill="#A80036" points="870.7655,973.9254,870.7852,964.0766,868.7439,969.3523,863.4682,967.3111,870.7655,973.9254" style="stroke: #A80036; stroke-width: 1.0;"/><text fill="#000000" font-family="sans-serif" font-size="13" lengthAdjust="spacingAndGlyphs" textLength="27" x="844" y="896.5684">tags</text><text fill="#000000" font-family="sans-serif" font-size="13" lengthAdjust="spacingAndGlyphs" textLength="6" x="861.1179" y="963.4426">*</text><!--MD5=[35749271b99a01617c9b19616d426307]
reverse link it.tidalwave.image.metadata.Directory to it.tidalwave.image.metadata.Directory.Tag--><path codeLine="125" d="M866.1826,836.8817 C869.9489,852.3801 873.2918,867.8697 876,883 C881.5302,913.8971 882.534,950.1501 882.4832,973.5688 " fill="none" id="it.tidalwave.image.metadata.Directory-backto-it.tidalwave.image.metadata.Directory.Tag" style="stroke: #A80036; stroke-width: 1.0;"/><ellipse cx="864.3995" cy="829.7896" fill="#FFFFFF" rx="8" ry="8" style="stroke: #A80036; stroke-width: 1.0;"/><line style="stroke: #A80036; stroke-width: 1.0;" x1="866.3503" x2="862.4487" y1="837.5481" y2="822.0311"/><line style="stroke: #A80036; stroke-width: 1.0;" x1="856.641" x2="872.158" y1="831.7404" y2="827.8388"/><!--MD5=[dfac02cb519d85110601224268e972d6]
reverse link it.tidalwave.image.metadata.EXIFDirectoryGenerated to it.tidalwave.image.metadata.EXIF--><path codeLine="126" d="M427.142,191.8649 C433.5169,260.1475 445.9903,393.7515 455.4864,495.4653 " fill="none" id="it.tidalwave.image.metadata.EXIFDirectoryGenerated-backto-it.tidalwave.image.metadata.EXIF" style="stroke: #A80036; stroke-width: 1.0;"/><polygon fill="none" points="420.1519,192.2969,425.2624,171.7328,434.0913,190.9955,420.1519,192.2969" style="stroke: #A80036; stroke-width: 1.0;"/><!--MD5=[d5ed70d1623df7ea0ee123c2cd83a031]
link it.tidalwave.image.metadata.EXIF to it.tidalwave.image.metadata.EXIFDirectoryGenerated.FileSource--><path codeLine="127" d="M364.6655,763.5778 C345.6636,784.3585 325.1185,804.652 304,822 C261.1031,857.2382 240.0842,850.6073 195,883 C157.9316,909.6334 119.6701,945.6582 94.965,970.2457 " fill="none" id="it.tidalwave.image.metadata.EXIF-to-it.tidalwave.image.metadata.EXIFDirectoryGenerated.FileSource" style="stroke: #A80036; stroke-width: 1.0;"/><polygon fill="#A80036" points="91.4201,973.7879,100.6138,970.2559,94.957,970.2537,94.9592,964.5969,91.4201,973.7879" style="stroke: #A80036; stroke-width: 1.0;"/><text fill="#000000" font-family="sans-serif" font-size="13" lengthAdjust="spacingAndGlyphs" textLength="62" x="196" y="896.5684">fileSource</text><text fill="#000000" font-family="sans-serif" font-size="13" lengthAdjust="spacingAndGlyphs" textLength="24" x="70.3465" y="963.2698">0..1</text><!--MD5=[2a6ed9b962d5d634a7e89954d94fa223]
link it.tidalwave.image.metadata.EXIF to it.tidalwave.image.metadata.EXIFDirectoryGenerated.SceneType--><path codeLine="128" d="M368.6685,763.5794 C312.9887,838.7369 248.3773,925.9505 215.9075,969.7787 " fill="none" id="it.tidalwave.image.metadata.EXIF-to-it.tidalwave.image.metadata.EXIFDirectoryGenerated.SceneType" style="stroke: #A80036; stroke-width: 1.0;"/><polygon fill="#A80036" points="212.867,973.8828,221.4387,969.0325,215.8435,969.8653,215.0107,964.2701,212.867,973.8828" style="stroke: #A80036; stroke-width: 1.0;"/><text fill="#000000" font-family="sans-serif" font-size="13" lengthAdjust="spacingAndGlyphs" textLength="66" x="280" y="896.5684">sceneType</text><text fill="#000000" font-family="sans-serif" font-size="13" lengthAdjust="spacingAndGlyphs" textLength="24" x="190.3704" y="963.389">0..1</text><!--MD5=[6e9fed28dcfd130ac12b43d5ed68b02d]
reverse link it.tidalwave.image.metadata.IPTCDirectoryGenerated to it.tidalwave.image.metadata.IPTC--><path codeLine="129" d="M155,191.7554 C155,281.5882 155,484.8019 155,579.3588 " fill="none" id="it.tidalwave.image.metadata.IPTCDirectoryGenerated-backto-it.tidalwave.image.metadata.IPTC" style="stroke: #A80036; stroke-width: 1.0;"/><polygon fill="none" points="148.0001,191.7328,155,171.7328,162.0001,191.7327,148.0001,191.7328" style="stroke: #A80036; stroke-width: 1.0;"/><!--MD5=[eb5458b6765d77da6886a285251e7357]
reverse link it.tidalwave.image.metadata.Directory to it.tidalwave.image.metadata.MakerNote--><path codeLine="130" d="M762.9953,841.8853 C754.4517,895.2464 746.4244,945.3832 741.8714,973.8203 " fill="none" id="it.tidalwave.image.metadata.Directory-backto-it.tidalwave.image.metadata.MakerNote" style="stroke: #A80036; stroke-width: 1.0;"/><polygon fill="none" points="756.0869,840.7561,766.1608,822.1143,769.9108,842.9694,756.0869,840.7561" style="stroke: #A80036; stroke-width: 1.0;"/><!--MD5=[55de1567e63aa6488a0911f6f715b150]
reverse link it.tidalwave.image.metadata.WangAnnotations to it.tidalwave.image.metadata.WangAnnotations.Attributes--><path codeLine="131" d="M253.5424,1258.8955 C240.5564,1273.1521 231,1290.2001 231,1309.5 C231,1309.5 231,1309.5 231,1514.5 C231,1538.2867 222.9639,1563.0656 213.6094,1583.8518 " fill="none" id="it.tidalwave.image.metadata.WangAnnotations-backto-it.tidalwave.image.metadata.WangAnnotations.Attributes" style="stroke: #A80036; stroke-width: 1.0;"/><ellipse cx="258.8647" cy="1253.6735" fill="#FFFFFF" rx="8" ry="8" style="stroke: #A80036; stroke-width: 1.0;"/><line style="stroke: #A80036; stroke-width: 1.0;" x1="253.1542" x2="264.5751" y1="1259.2762" y2="1248.0707"/><line style="stroke: #A80036; stroke-width: 1.0;" x1="253.2619" x2="264.4674" y1="1247.963" y2="1259.3839"/><!--MD5=[f6cb640f0f2e6b1e4c6e22db5bd7fd0f]
reverse link it.tidalwave.image.metadata.WangAnnotations.Attributes to it.tidalwave.image.metadata.WangAnnotations.Attributes.LogFont--><path codeLine="132" d="M185,1699.2172 C185,1734.6109 185,1777.0819 185,1806.8402 " fill="none" id="it.tidalwave.image.metadata.WangAnnotations.Attributes-backto-it.tidalwave.image.metadata.WangAnnotations.Attributes.LogFont" style="stroke: #A80036; stroke-width: 1.0;"/><ellipse cx="185.0001" cy="1692.0334" fill="#FFFFFF" rx="8" ry="8" style="stroke: #A80036; stroke-width: 1.0;"/><line style="stroke: #A80036; stroke-width: 1.0;" x1="185.0002" x2="185" y1="1700.0334" y2="1684.0334"/><line style="stroke: #A80036; stroke-width: 1.0;" x1="177.0001" x2="193.0001" y1="1692.0335" y2="1692.0333"/><!--MD5=[d33c4f3333dd0bb10e8ee2dbebe37c48]
reverse link it.tidalwave.image.metadata.WangAnnotations to it.tidalwave.image.metadata.WangAnnotations.Internal--><path codeLine="133" d="M358.4955,1260.603 C382.2943,1294.8246 413.4302,1339.5968 435.1144,1370.7776 " fill="none" id="it.tidalwave.image.metadata.WangAnnotations-backto-it.tidalwave.image.metadata.WangAnnotations.Internal" style="stroke: #A80036; stroke-width: 1.0;"/><ellipse cx="354.3362" cy="1254.6221" fill="#FFFFFF" rx="8" ry="8" style="stroke: #A80036; stroke-width: 1.0;"/><line style="stroke: #A80036; stroke-width: 1.0;" x1="358.9038" x2="349.7687" y1="1261.19" y2="1248.0542"/><line style="stroke: #A80036; stroke-width: 1.0;" x1="347.7683" x2="360.9042" y1="1259.1897" y2="1250.0546"/><!--MD5=[7abcecae2c304b6e6bd72ec50dc04de7]
link it.tidalwave.image.metadata.WangAnnotations.Internal to it.tidalwave.image.metadata.WangAnnotations.Attributes--><path codeLine="134" d="M415.7333,1445.0662 C370.7209,1481.9242 301.2098,1538.8427 250.2424,1580.5769 " fill="none" id="it.tidalwave.image.metadata.WangAnnotations.Internal-to-it.tidalwave.image.metadata.WangAnnotations.Attributes" style="stroke: #A80036; stroke-width: 1.0;"/><polygon fill="#A80036" points="246.2975,1583.8071,255.7951,1581.2001,250.1661,1580.6394,250.7267,1575.0104,246.2975,1583.8071" style="stroke: #A80036; stroke-width: 1.0;"/><text fill="#000000" font-family="sans-serif" font-size="13" lengthAdjust="spacingAndGlyphs" textLength="61" x="341" y="1519.5684">attributes</text><!--MD5=[a37e1135f0e0a2f67d7ae4ce7693a53d]
reverse link it.tidalwave.image.metadata.WangAnnotations.Internal to it.tidalwave.image.metadata.WangAnnotations.OiAnText--><path codeLine="135" d="M462.0141,1465.2952 C462.7454,1506.6135 463.7112,1561.1828 464.3436,1596.9135 " fill="none" id="it.tidalwave.image.metadata.WangAnnotations.Internal-backto-it.tidalwave.image.metadata.WangAnnotations.OiAnText" style="stroke: #A80036; stroke-width: 1.0;"/><polygon fill="none" points="455.0112,1465.187,461.656,1445.0662,469.009,1464.9392,455.0112,1465.187" style="stroke: #A80036; stroke-width: 1.0;"/><!--MD5=[cbbf40f63203e8d8c38b48c6e864b94a]
reverse link it.tidalwave.image.metadata.WangAnnotations to it.tidalwave.image.metadata.WangAnnotations.OiAnText--><path codeLine="136" d="M316.7103,1263.2572 C315.1703,1278.1649 314,1294.4465 314,1309.5 C314,1309.5 314,1309.5 314,1514.5 C314,1537.8184 358.8379,1571.2077 399.6474,1596.768 " fill="none" id="it.tidalwave.image.metadata.WangAnnotations-backto-it.tidalwave.image.metadata.WangAnnotations.OiAnText" style="stroke: #A80036; stroke-width: 1.0;"/><ellipse cx="317.5075" cy="1256.2764" fill="#FFFFFF" rx="8" ry="8" style="stroke: #A80036; stroke-width: 1.0;"/><line style="stroke: #A80036; stroke-width: 1.0;" x1="316.5997" x2="318.4153" y1="1264.2248" y2="1248.3281"/><line style="stroke: #A80036; stroke-width: 1.0;" x1="309.5592" x2="325.4558" y1="1255.3686" y2="1257.1842"/><!--MD5=[44f5002c5733a9a1f0d63acdc5452877]
reverse link it.tidalwave.image.metadata.WangAnnotations.Internal to it.tidalwave.image.metadata.WangAnnotations.OiHilite--><path codeLine="137" d="M511.0555,1459.4207 C551.8357,1501.3131 608.4407,1559.4619 644.8981,1596.9135 " fill="none" id="it.tidalwave.image.metadata.WangAnnotations.Internal-backto-it.tidalwave.image.metadata.WangAnnotations.OiHilite" style="stroke: #A80036; stroke-width: 1.0;"/><polygon fill="none" points="506.0169,1464.2801,497.0822,1445.0662,516.0487,1454.5146,506.0169,1464.2801" style="stroke: #A80036; stroke-width: 1.0;"/><!--MD5=[2da9fac1839652162ad1772017a07abf]
reverse link it.tidalwave.image.metadata.WangAnnotations to it.tidalwave.image.metadata.WangAnnotations.OiHilite--><path codeLine="138" d="M425.8335,1222.839 C518.8585,1236.5801 642,1263.464 642,1309.5 C642,1309.5 642,1309.5 642,1514.5 C642,1543.0887 652.2124,1573.7105 662.1854,1596.7984 " fill="none" id="it.tidalwave.image.metadata.WangAnnotations-backto-it.tidalwave.image.metadata.WangAnnotations.OiHilite" style="stroke: #A80036; stroke-width: 1.0;"/><ellipse cx="418.8145" cy="1221.8365" fill="#FFFFFF" rx="8" ry="8" style="stroke: #A80036; stroke-width: 1.0;"/><line style="stroke: #A80036; stroke-width: 1.0;" x1="426.7342" x2="410.8949" y1="1222.9677" y2="1220.7054"/><line style="stroke: #A80036; stroke-width: 1.0;" x1="417.6834" x2="419.9457" y1="1229.7562" y2="1213.9169"/><!--MD5=[6926d22fdb453343cf1ab4f5c6342014]
reverse link it.tidalwave.image.metadata.Directory to it.tidalwave.image.metadata.XMP--><path codeLine="139" d="M645.6884,838.3327 C608.8282,889.2052 573.8126,937.532 552.1541,967.424 " fill="none" id="it.tidalwave.image.metadata.Directory-backto-it.tidalwave.image.metadata.XMP" style="stroke: #A80036; stroke-width: 1.0;"/><polygon fill="none" points="640.0364,834.2027,657.4396,822.1143,651.3734,842.417,640.0364,834.2027" style="stroke: #A80036; stroke-width: 1.0;"/><!--MD5=[8a74577799fe9bad23e851e057d63630]
reverse link it.tidalwave.image.metadata.EXIF to it.tidalwave.image.metadata.TIFF--><path codeLine="140" d="M408.2701,782.3505 C382.6479,847.9184 354.8896,918.9528 338.4947,960.9077 " fill="none" id="it.tidalwave.image.metadata.EXIF-backto-it.tidalwave.image.metadata.TIFF" style="stroke: #A80036; stroke-width: 1.0;"/><polygon fill="none" points="401.806,779.6598,415.6053,763.5794,414.8457,784.7554,401.806,779.6598" style="stroke: #A80036; stroke-width: 1.0;"/><!--MD5=[43bd1a39f442da60b7840751634f490d]
link it.tidalwave.image.metadata.TIFF to it.tidalwave.image.metadata.WangAnnotations--><path codeLine="141" d="M324,1035.1018 C324,1072.4026 324,1129.8204 324,1168.8275 " fill="none" id="it.tidalwave.image.metadata.TIFF-to-it.tidalwave.image.metadata.WangAnnotations" style="stroke: #A80036; stroke-width: 1.0;"/><polygon fill="#A80036" points="324,1173.9667,328,1164.9667,324,1168.9667,320,1164.9667,324,1173.9667" style="stroke: #A80036; stroke-width: 1.0;"/><text fill="#000000" font-family="sans-serif" font-size="13" lengthAdjust="spacingAndGlyphs" textLength="118" x="325" y="1109.5684">wangAnnotations2</text><text fill="#000000" font-family="sans-serif" font-size="13" lengthAdjust="spacingAndGlyphs" textLength="24" x="297.7875" y="1163.3611">0..1</text><text fill="#888888" font-family="sans-serif" font-size="10" lengthAdjust="spacingAndGlyphs" textLength="188" x="444.5" y="1904.668">UMLDoclet 2.0.12, PlantUML 1.2020.16</text><!--MD5=[e6bed2871e3a36aaf21f651206d14ac3]
@startuml
    namespace it.tidalwave.image.metadata {

        class Directory [[Directory.html]] {
            {static} #tagMapByCode: Map<String, Tag>
            +Directory()
            +Directory(Instant)
            +get(Tag<T>): Optional<T>
            +get(Tag<​U>, Class<T>): Optional<T>
            +get(int, Class<T>): Optional<T>
            +getRaw(int): Object
            +set(Tag<?>, Object): void
            +setRaw(int, Object): void
            +contains(int): boolean
            +remove(int): void
            +getTagInfo(int): Optional<Tag<?>>
            +getTagCodes(): int[]
            +forEachTag(Consumer<Tag<?>>): void
            +forEachTag(BiConsumer<Tag<?>, Object>): void
            +forEachTagCode(IntConsumer): void
            +isEmpty(): boolean
            +getSubDirectoryNames(): Set<String>
            +getSubDirectory(String): Optional<Directory>
            +getLatestModificationTime(): Instant
            +load(DirectoryLoader): void
            #touch(): void
            +toHexString(Rational[]): String
            #isSubClass(Class, String): boolean
            {static} #formatDateTime(Instant): String
            {static} #parseDateTime(String): Instant
        }

        class it.tidalwave.image.metadata.Directory.Tag<T> [[Directory.Tag.html]] {
        }

        class EXIF [[EXIF.html]] {
            +EXIF()
            +EXIF(Instant)
            +getBitsPerSample(): Optional<int[]>
            +getUserComment(): Optional<byte[]>
            +getUserCommentAsString(): Optional<String>
            +setUserCommentAsString(String): void
            +getOriginalRawFileName(): Optional<String>
            +getICCProfile(): Optional<ICC_Profile>
            +getDateTimeAsDate(): Optional<Instant>
            +setDateTimeAsDate(Instant): void
            +getDateTimeOriginalAsDate(): Optional<Instant>
            +setDateTimeOriginalAsDate(Instant): void
            +getDateTimeDigitizedAsDate(): Optional<Instant>
            +setDateTimeDigitizedAsDate(Instant): void
            +setDateTime(String): void
            +setDateTimeDigitized(String): void
            +setDateTimeOriginal(String): void
        }

        abstract class JavaBeanSupport [[JavaBeanSupport.html]] {
            #pcs: PropertyChangeSupport
            #vetoableChangeSupport: VetoableChangeSupport
            +addPropertyChangeListener(PropertyChangeListener): void
            +removePropertyChangeListener(PropertyChangeListener): void
            +getPropertyChangeListeners(): PropertyChangeListener[]
            +addPropertyChangeListener(String, PropertyChangeListener): void
            +removePropertyChangeListener(String, PropertyChangeListener): void
            +getPropertyChangeListeners(String): PropertyChangeListener[]
            +addVetoableChangeListener(VetoableChangeListener): void
            +removeVetoableChangeListener(VetoableChangeListener): void
            +getVetoableChangeListeners(): VetoableChangeListener[]
            +addVetoableChangeListener(String, VetoableChangeListener): void
            +removeVetoableChangeListener(String, VetoableChangeListener): void
            +getVetoableChangeListeners(String): VetoableChangeListener[]
        }

        class IPTC [[IPTC.html]] {
            +IPTC()
            +IPTC(Instant)
            +getDateCreatedAsDate(): Optional<Instant>
            +setDateCreatedAsDate(Instant): void
        }

        class MakerNote [[MakerNote.html]]

        class WangAnnotations [[WangAnnotations.html]] {
            +WangAnnotations(byte[])
            +render(EditableImage): void
        }

        class it.tidalwave.image.metadata.WangAnnotations.Attributes [[WangAnnotations.Attributes.html]] {
            #Attributes(byte[])
            +getType(): int
            +drawString(Graphics2D, EditableImage, String): void
            +drawRectangle(Graphics2D, EditableImage): void
        }

        class it.tidalwave.image.metadata.WangAnnotations.Attributes.LogFont [[WangAnnotations.Attributes.LogFont.html]] {
            #LogFont(byte[])
            +createFont(): Font
        }

        abstract class it.tidalwave.image.metadata.WangAnnotations.Internal [[WangAnnotations.Internal.html]] {
            +Internal(Attributes)
            {abstract} +render(EditableImage): void
        }

        class it.tidalwave.image.metadata.WangAnnotations.OiAnText [[WangAnnotations.OiAnText.html]] {
            #OiAnText(Attributes, byte[])
            +render(EditableImage): void
        }

        class it.tidalwave.image.metadata.WangAnnotations.OiHilite [[WangAnnotations.OiHilite.html]] {
            #OiHilite(Attributes)
            +render(EditableImage): void
        }

        class XMP [[XMP.html]] {
            +_setProperties(Map<String, String>): void
        }

        class TIFF [[TIFF.html]] {
            +TIFF()
            +TIFF(Instant)
        }

        JavaBeanSupport <|- - Directory
        java.io.Serializable <|.. Directory
        Directory - -> "*" it.tidalwave.image.metadata.Directory.Tag: tags
        Directory +- - it.tidalwave.image.metadata.Directory.Tag
        EXIFDirectoryGenerated <|- - EXIF
        EXIF - -> "0..1" it.tidalwave.image.metadata.EXIFDirectoryGenerated.FileSource: fileSource
        EXIF - -> "0..1" it.tidalwave.image.metadata.EXIFDirectoryGenerated.SceneType: sceneType
        IPTCDirectoryGenerated <|- - IPTC
        Directory <|- - MakerNote
        WangAnnotations +- - it.tidalwave.image.metadata.WangAnnotations.Attributes
        it.tidalwave.image.metadata.WangAnnotations.Attributes +- - it.tidalwave.image.metadata.WangAnnotations.Attributes.LogFont
        WangAnnotations +- - it.tidalwave.image.metadata.WangAnnotations.Internal
        it.tidalwave.image.metadata.WangAnnotations.Internal - -> it.tidalwave.image.metadata.WangAnnotations.Attributes: attributes
        it.tidalwave.image.metadata.WangAnnotations.Internal <|- - it.tidalwave.image.metadata.WangAnnotations.OiAnText
        WangAnnotations +- - it.tidalwave.image.metadata.WangAnnotations.OiAnText
        it.tidalwave.image.metadata.WangAnnotations.Internal <|- - it.tidalwave.image.metadata.WangAnnotations.OiHilite
        WangAnnotations +- - it.tidalwave.image.metadata.WangAnnotations.OiHilite
        Directory <|- - XMP
        EXIF <|- - TIFF
        TIFF - -> "0..1" WangAnnotations: wangAnnotations2
    }

    namespace java.io {
        interface Serializable
    }

    center footer UMLDoclet 2.0.12, PlantUML 1.2020.16
@enduml

PlantUML version 1.2020.16(Sun Aug 23 22:20:43 CEST 2020)
(APACHE source distribution)
Java Runtime: OpenJDK Runtime Environment
JVM: OpenJDK 64-Bit Server VM
Default Encoding: UTF-8
Language: en
Country: GB
--></g></svg>