<?xml version="1.0" encoding="UTF-8" standalone="no"?><svg xmlns="http://www.w3.org/2000/svg" xmlns:xlink="http://www.w3.org/1999/xlink" contentScriptType="application/ecmascript" contentStyleType="text/css" height="200px" preserveAspectRatio="none" style="width:276px;height:200px;" version="1.1" viewBox="0 0 276 200" width="276px" zoomAndPan="magnify"><defs><filter height="300%" id="f12kr3t9xhkq7r" width="300%" x="-1" y="-1"><feGaussianBlur result="blurOut" stdDeviation="2.0"/><feColorMatrix in="blurOut" result="blurOut2" type="matrix" values="0 0 0 0 0 0 0 0 0 0 0 0 0 0 0 0 0 0 .4 0"/><feOffset dx="4.0" dy="4.0" in="blurOut2" result="blurOut3"/><feBlend in="SourceGraphic" in2="blurOut3" mode="normal"/></filter></defs><g><!--MD5=[b52548360f7b22703f16284bf14d73f2]
class it.tidalwave.image.metadata.XMP--><a href="XMP.html" target="_top" title="XMP.html" xlink:actuate="onRequest" xlink:href="XMP.html" xlink:show="new" xlink:title="XMP.html" xlink:type="simple"><rect codeLine="5" fill="#FEFECE" filter="url(#f12kr3t9xhkq7r)" height="59.2207" id="it.tidalwave.image.metadata.XMP" style="stroke: #A80036; stroke-width: 1.5;" width="250" x="7" y="105"/><ellipse cx="57.75" cy="124.1328" fill="#ADD1B2" rx="11" ry="11" style="stroke: #A80036; stroke-width: 1.0;"/><path d="M60.2231,130.2759 Q59.6421,130.5747 59.0029,130.7241 Q58.3638,130.8735 57.6582,130.8735 Q55.1514,130.8735 53.8315,129.2217 Q52.5117,127.5698 52.5117,124.4487 Q52.5117,121.3193 53.8315,119.6675 Q55.1514,118.0156 57.6582,118.0156 Q58.3638,118.0156 59.0112,118.165 Q59.6587,118.3145 60.2231,118.6133 L60.2231,121.3359 Q59.5923,120.7549 58.9988,120.4851 Q58.4053,120.2153 57.7744,120.2153 Q56.4297,120.2153 55.7449,121.282 Q55.0601,122.3486 55.0601,124.4487 Q55.0601,126.5405 55.7449,127.6072 Q56.4297,128.6738 57.7744,128.6738 Q58.4053,128.6738 58.9988,128.4041 Q59.5923,128.1343 60.2231,127.5532 Z "/><text fill="#000000" font-family="sans-serif" font-size="14" lengthAdjust="spacingAndGlyphs" textLength="29" x="133.75" y="123.5352">XMP</text><text fill="#000000" font-family="sans-serif" font-size="10" lengthAdjust="spacingAndGlyphs" textLength="140" x="78.25" y="136.1563">it.tidalwave.image.metadata</text><line style="stroke: #A80036; stroke-width: 1.5;" x1="8" x2="256" y1="143.2656" y2="143.2656"/><ellipse cx="18" cy="154.2656" fill="#84BE84" rx="3" ry="3" style="stroke: #038048; stroke-width: 1.0;"/><text fill="#000000" font-family="sans-serif" font-size="11" lengthAdjust="spacingAndGlyphs" textLength="224" x="27" y="157.9004">_setProperties(Map&lt;String, String&gt;): void</text></a><!--MD5=[319986ac99fdf7b1e4f98a1038917985]
class it.tidalwave.image.metadata.Directory--><a href="Directory.html" target="_top" title="Directory.html" xlink:actuate="onRequest" xlink:href="Directory.html" xlink:show="new" xlink:title="Directory.html" xlink:type="simple"><rect codeLine="9" fill="#FEFECE" filter="url(#f12kr3t9xhkq7r)" height="38.2656" id="it.tidalwave.image.metadata.Directory" style="stroke: #A80036; stroke-width: 1.5;" width="172" x="46" y="7"/><ellipse cx="61" cy="26.1328" fill="#ADD1B2" rx="11" ry="11" style="stroke: #A80036; stroke-width: 1.0;"/><path d="M63.4731,32.2759 Q62.8921,32.5747 62.2529,32.7241 Q61.6138,32.8735 60.9082,32.8735 Q58.4014,32.8735 57.0815,31.2217 Q55.7617,29.5698 55.7617,26.4487 Q55.7617,23.3193 57.0815,21.6675 Q58.4014,20.0156 60.9082,20.0156 Q61.6138,20.0156 62.2612,20.165 Q62.9087,20.3145 63.4731,20.6133 L63.4731,23.3359 Q62.8423,22.7549 62.2488,22.4851 Q61.6553,22.2153 61.0244,22.2153 Q59.6797,22.2153 58.9949,23.282 Q58.3101,24.3486 58.3101,26.4487 Q58.3101,28.5405 58.9949,29.6072 Q59.6797,30.6738 61.0244,30.6738 Q61.6553,30.6738 62.2488,30.4041 Q62.8423,30.1343 63.4731,29.5532 Z "/><text fill="#000000" font-family="sans-serif" font-size="14" lengthAdjust="spacingAndGlyphs" textLength="62" x="114" y="25.5352">Directory</text><text fill="#000000" font-family="sans-serif" font-size="10" lengthAdjust="spacingAndGlyphs" textLength="140" x="75" y="38.1563">it.tidalwave.image.metadata</text></a><!--MD5=[6926d22fdb453343cf1ab4f5c6342014]
reverse link it.tidalwave.image.metadata.Directory to it.tidalwave.image.metadata.XMP--><path codeLine="11" d="M132,65.3533 C132,78.4123 132,92.7197 132,104.9146 " fill="none" id="it.tidalwave.image.metadata.Directory-backto-it.tidalwave.image.metadata.XMP" style="stroke: #A80036; stroke-width: 1.0;"/><polygon fill="none" points="125.0001,65.1479,132,45.1479,139.0001,65.1478,125.0001,65.1479" style="stroke: #A80036; stroke-width: 1.0;"/><text fill="#888888" font-family="sans-serif" font-size="10" lengthAdjust="spacingAndGlyphs" textLength="188" x="35" y="186.8887">UMLDoclet 2.0.12, PlantUML 1.2020.16</text><!--MD5=[2bf240bbb9a381e13febaa8e201e3656]
@startuml
    set namespaceSeparator none
    hide empty fields
    hide empty methods

    class "<size:14>XMP\n<size:10>it.tidalwave.image.metadata" as it.tidalwave.image.metadata.XMP [[XMP.html]] {
        +_setProperties(Map<String, String>): void
    }

    class "<size:14>Directory\n<size:10>it.tidalwave.image.metadata" as it.tidalwave.image.metadata.Directory [[Directory.html]]

    it.tidalwave.image.metadata.Directory <|- - it.tidalwave.image.metadata.XMP

    center footer UMLDoclet 2.0.12, PlantUML 1.2020.16
@enduml

PlantUML version 1.2020.16(Sun Aug 23 22:20:43 CEST 2020)
(APACHE source distribution)
Java Runtime: OpenJDK Runtime Environment
JVM: OpenJDK 64-Bit Server VM
Default Encoding: UTF-8
Language: en
Country: GB
--></g></svg>