@startuml
    set namespaceSeparator none
    hide empty fields
    hide empty methods

    class "<size:14>XMP\n<size:10>it.tidalwave.image.metadata" as it.tidalwave.image.metadata.XMP [[XMP.html]] {
        +_setProperties(Map<String, String>): void
    }

    class "<size:14>Directory\n<size:10>it.tidalwave.image.metadata" as it.tidalwave.image.metadata.Directory [[Directory.html]]

    it.tidalwave.image.metadata.Directory <|-- it.tidalwave.image.metadata.XMP

    center footer UMLDoclet 2.0.12, PlantUML 1.2020.16
@enduml
