@startuml
    namespace it.tidalwave.northernwind.frontend.filesystem.scm.spi {

        abstract class ScmWorkingDirectorySupport [[ScmWorkingDirectorySupport.html]] {
            #folder: Path
            +isEmpty(): boolean
            +getLatestTagMatching(String): Optional<Tag>
            {abstract} +listTags(): List<String>
            {static} #reversed(List<T>): List<T>
        }

        interface ScmWorkingDirectory [[ScmWorkingDirectory.html]] {
            {abstract} +cloneFrom(URI): void
            {abstract} +fetchChangesets(): void
            {abstract} +getCurrentTag(): Optional<Tag>
            {abstract} +checkOut(Tag): void
            {abstract} +getTags(): List<Tag>
            {abstract} +getLatestTagMatching(String): Optional<Tag>
            {abstract} +getFolder(): Path
            {abstract} +isEmpty(): boolean
            {abstract} +getConfigFolderName(): String
        }

        class Tag [[Tag.html]] {
        }

        abstract class ScmFileSystemProvider [[ScmFileSystemProvider.html]] {
            +checkForUpdates(): void
            {abstract} +createWorkingDirectory(Path): ScmWorkingDirectory
        }

        ScmWorkingDirectory <|.. ScmWorkingDirectorySupport
        ScmWorkingDirectorySupport --> "*" Tag: tags
        it.tidalwave.northernwind.core.model.ResourceFileSystemProvider <|.. ScmFileSystemProvider
    }

    namespace it.tidalwave.northernwind.core.model {
        interface ResourceFileSystemProvider [[../../../../core/model/ResourceFileSystemProvider.html]] {
            {abstract} +getFileSystem(): ResourceFileSystem
        }
    }

    center footer UMLDoclet 2.0.12, PlantUML 1.2020.16
@enduml
