<?xml version="1.0" encoding="UTF-8" standalone="no"?><svg xmlns="http://www.w3.org/2000/svg" xmlns:xlink="http://www.w3.org/1999/xlink" contentScriptType="application/ecmascript" contentStyleType="text/css" height="247px" preserveAspectRatio="none" style="width:702px;height:247px;" version="1.1" viewBox="0 0 702 247" width="702px" zoomAndPan="magnify"><defs><filter height="300%" id="fe9wozwha9swe" width="300%" x="-1" y="-1"><feGaussianBlur result="blurOut" stdDeviation="2.0"/><feColorMatrix in="blurOut" result="blurOut2" type="matrix" values="0 0 0 0 0 0 0 0 0 0 0 0 0 0 0 0 0 0 .4 0"/><feOffset dx="4.0" dy="4.0" in="blurOut2" result="blurOut3"/><feBlend in="SourceGraphic" in2="blurOut3" mode="normal"/></filter></defs><g><!--MD5=[bf0d5b2948bbcae6928ce23aa5653fb4]
class it.tidalwave.northernwind.frontend.ui.component.menu.htmltemplate.HtmlTemplateHorizontalMenuView--><a href="HtmlTemplateHorizontalMenuView.html" target="_top" title="HtmlTemplateHorizontalMenuView.html" xlink:actuate="onRequest" xlink:href="HtmlTemplateHorizontalMenuView.html" xlink:show="new" xlink:title="HtmlTemplateHorizontalMenuView.html" xlink:type="simple"><rect codeLine="5" fill="#FEFECE" filter="url(#fe9wozwha9swe)" height="59.2207" id="it.tidalwave.northernwind.frontend.ui.component.menu.htmltemplate.HtmlTemplateHorizontalMenuView" style="stroke: #A80036; stroke-width: 1.5;" width="370" x="170" y="152"/><ellipse cx="185" cy="171.1328" fill="#ADD1B2" rx="11" ry="11" style="stroke: #A80036; stroke-width: 1.0;"/><path d="M187.4731,177.2759 Q186.8921,177.5747 186.2529,177.7241 Q185.6138,177.8735 184.9082,177.8735 Q182.4014,177.8735 181.0815,176.2217 Q179.7617,174.5698 179.7617,171.4487 Q179.7617,168.3193 181.0815,166.6675 Q182.4014,165.0156 184.9082,165.0156 Q185.6138,165.0156 186.2612,165.165 Q186.9087,165.3145 187.4731,165.6133 L187.4731,168.3359 Q186.8423,167.7549 186.2488,167.4851 Q185.6553,167.2153 185.0244,167.2153 Q183.6797,167.2153 182.9949,168.282 Q182.3101,169.3486 182.3101,171.4487 Q182.3101,173.5405 182.9949,174.6072 Q183.6797,175.6738 185.0244,175.6738 Q185.6553,175.6738 186.2488,175.4041 Q186.8423,175.1343 187.4731,174.5532 Z "/><text fill="#000000" font-family="sans-serif" font-size="14" lengthAdjust="spacingAndGlyphs" textLength="238" x="249" y="170.5352">HtmlTemplateHorizontalMenuView</text><text fill="#000000" font-family="sans-serif" font-size="10" lengthAdjust="spacingAndGlyphs" textLength="338" x="199" y="183.1563">it.tidalwave.northernwind.frontend.ui.component.menu.htmltemplate</text><line style="stroke: #A80036; stroke-width: 1.5;" x1="171" x2="539" y1="190.2656" y2="190.2656"/><ellipse cx="181" cy="201.2656" fill="#84BE84" rx="3" ry="3" style="stroke: #038048; stroke-width: 1.0;"/><text fill="#000000" font-family="sans-serif" font-size="11" lengthAdjust="spacingAndGlyphs" textLength="201" x="190" y="204.9004">HtmlTemplateHorizontalMenuView(Id)</text></a><!--MD5=[615a3a839e33691ecb1928340c5c0ee2]
class it.tidalwave.northernwind.frontend.ui.component.htmltemplate.HtmlHolder--><a href="../../htmltemplate/HtmlHolder.html" target="_top" title="../../htmltemplate/HtmlHolder.html" xlink:actuate="onRequest" xlink:href="../../htmltemplate/HtmlHolder.html" xlink:show="new" xlink:title="../../htmltemplate/HtmlHolder.html" xlink:type="simple"><rect codeLine="9" fill="#FEFECE" filter="url(#fe9wozwha9swe)" height="38.2656" id="it.tidalwave.northernwind.frontend.ui.component.htmltemplate.HtmlHolder" style="stroke: #A80036; stroke-width: 1.5;" width="340" x="7" y="30.5"/><ellipse cx="22" cy="49.6328" fill="#ADD1B2" rx="11" ry="11" style="stroke: #A80036; stroke-width: 1.0;"/><path d="M24.4731,55.7759 Q23.8921,56.0747 23.2529,56.2241 Q22.6138,56.3735 21.9082,56.3735 Q19.4014,56.3735 18.0815,54.7217 Q16.7617,53.0698 16.7617,49.9487 Q16.7617,46.8193 18.0815,45.1675 Q19.4014,43.5156 21.9082,43.5156 Q22.6138,43.5156 23.2612,43.665 Q23.9087,43.8145 24.4731,44.1133 L24.4731,46.8359 Q23.8423,46.2549 23.2488,45.9851 Q22.6553,45.7153 22.0244,45.7153 Q20.6797,45.7153 19.9949,46.782 Q19.3101,47.8486 19.3101,49.9487 Q19.3101,52.0405 19.9949,53.1072 Q20.6797,54.1738 22.0244,54.1738 Q22.6553,54.1738 23.2488,53.9041 Q23.8423,53.6343 24.4731,53.0532 Z "/><text fill="#000000" font-family="sans-serif" font-size="14" lengthAdjust="spacingAndGlyphs" textLength="78" x="151" y="49.0352">HtmlHolder</text><text fill="#000000" font-family="sans-serif" font-size="10" lengthAdjust="spacingAndGlyphs" textLength="308" x="36" y="61.6563">it.tidalwave.northernwind.frontend.ui.component.htmltemplate</text></a><!--MD5=[65ce5c0dc7513bf08a92a435e19e85ee]
class it.tidalwave.northernwind.frontend.ui.component.menu.MenuView--><a href="../MenuView.html" target="_top" title="../MenuView.html" xlink:actuate="onRequest" xlink:href="../MenuView.html" xlink:show="new" xlink:title="../MenuView.html" xlink:type="simple"><rect codeLine="10" fill="#FEFECE" filter="url(#fe9wozwha9swe)" height="85.1309" id="it.tidalwave.northernwind.frontend.ui.component.menu.MenuView" style="stroke: #A80036; stroke-width: 1.5;" width="301" x="382.5" y="7"/><ellipse cx="397.5" cy="26.1328" fill="#B4A7E5" rx="11" ry="11" style="stroke: #A80036; stroke-width: 1.0;"/><path d="M393.9277,22.3979 L393.9277,20.2397 L401.3071,20.2397 L401.3071,22.3979 L398.8418,22.3979 L398.8418,30.4746 L401.3071,30.4746 L401.3071,32.6328 L393.9277,32.6328 L393.9277,30.4746 L396.3931,30.4746 L396.3931,22.3979 Z "/><text fill="#000000" font-family="sans-serif" font-size="14" font-style="italic" lengthAdjust="spacingAndGlyphs" textLength="70" x="511" y="25.5352">MenuView</text><text fill="#000000" font-family="sans-serif" font-size="10" font-style="italic" lengthAdjust="spacingAndGlyphs" textLength="269" x="411.5" y="38.1563">it.tidalwave.northernwind.frontend.ui.component.menu</text><line style="stroke: #A80036; stroke-width: 1.5;" x1="383.5" x2="682.5" y1="45.2656" y2="45.2656"/><ellipse cx="393.5" cy="56.2656" fill="#84BE84" rx="3" ry="3" style="stroke: #038048; stroke-width: 1.0;"/><text fill="#000000" font-family="sans-serif" font-size="11" font-style="italic" lengthAdjust="spacingAndGlyphs" textLength="149" x="402.5" y="59.9004">addLink(String, String): void</text><ellipse cx="393.5" cy="69.2207" fill="#84BE84" rx="3" ry="3" style="stroke: #038048; stroke-width: 1.0;"/><text fill="#000000" font-family="sans-serif" font-size="11" font-style="italic" lengthAdjust="spacingAndGlyphs" textLength="108" x="402.5" y="72.8555">setTitle(String): void</text><ellipse cx="393.5" cy="82.1758" fill="#84BE84" rx="3" ry="3" style="stroke: #038048; stroke-width: 1.0;"/><text fill="#000000" font-family="sans-serif" font-size="11" font-style="italic" lengthAdjust="spacingAndGlyphs" textLength="134" x="402.5" y="85.8105">setTemplate(String): void</text></a><!--MD5=[b751ce53668f0809c8f9d03244dc8b6c]
reverse link it.tidalwave.northernwind.frontend.ui.component.htmltemplate.HtmlHolder to it.tidalwave.northernwind.frontend.ui.component.menu.htmltemplate.HtmlTemplateHorizontalMenuView--><path codeLine="16" d="M219.1488,80.7564 C248.1377,102.2538 286.4026,130.63 314.9329,151.7873 " fill="none" id="it.tidalwave.northernwind.frontend.ui.component.htmltemplate.HtmlHolder-backto-it.tidalwave.northernwind.frontend.ui.component.menu.htmltemplate.HtmlTemplateHorizontalMenuView" style="stroke: #A80036; stroke-width: 1.0;"/><polygon fill="none" points="214.7779,86.2298,202.8827,68.6939,223.1171,74.9845,214.7779,86.2298" style="stroke: #A80036; stroke-width: 1.0;"/><!--MD5=[6e2012a7af981cf7694bbddd4e61efd1]
reverse link it.tidalwave.northernwind.frontend.ui.component.menu.MenuView to it.tidalwave.northernwind.frontend.ui.component.menu.htmltemplate.HtmlTemplateHorizontalMenuView--><path codeLine="17" d="M459.086,104.3126 C437.0521,120.6524 413.7474,137.9345 394.7883,151.9941 " fill="none" id="it.tidalwave.northernwind.frontend.ui.component.menu.MenuView-backto-it.tidalwave.northernwind.frontend.ui.component.menu.htmltemplate.HtmlTemplateHorizontalMenuView" style="stroke: #A80036; stroke-width: 1.0; stroke-dasharray: 7.0,7.0;"/><polygon fill="none" points="454.9741,98.6472,475.2085,92.3566,463.3134,109.8925,454.9741,98.6472" style="stroke: #A80036; stroke-width: 1.0;"/><text fill="#888888" font-family="sans-serif" font-size="10" lengthAdjust="spacingAndGlyphs" textLength="188" x="248.25" y="233.8887">UMLDoclet 2.0.12, PlantUML 1.2020.16</text><!--MD5=[5e09b8bbe67a86865f19979515e38af9]
@startuml
    set namespaceSeparator none
    hide empty fields
    hide empty methods

    class "<size:14>HtmlTemplateHorizontalMenuView\n<size:10>it.tidalwave.northernwind.frontend.ui.component.menu.htmltemplate" as it.tidalwave.northernwind.frontend.ui.component.menu.htmltemplate.HtmlTemplateHorizontalMenuView [[HtmlTemplateHorizontalMenuView.html]] {
        +HtmlTemplateHorizontalMenuView(Id)
    }

    class "<size:14>HtmlHolder\n<size:10>it.tidalwave.northernwind.frontend.ui.component.htmltemplate" as it.tidalwave.northernwind.frontend.ui.component.htmltemplate.HtmlHolder [[../../htmltemplate/HtmlHolder.html]]
    interface "<size:14>MenuView\n<size:10>it.tidalwave.northernwind.frontend.ui.component.menu" as it.tidalwave.northernwind.frontend.ui.component.menu.MenuView [[../MenuView.html]] {
        {abstract} +addLink(String, String): void
        {abstract} +setTitle(String): void
        {abstract} +setTemplate(String): void
    }

    it.tidalwave.northernwind.frontend.ui.component.htmltemplate.HtmlHolder <|- - it.tidalwave.northernwind.frontend.ui.component.menu.htmltemplate.HtmlTemplateHorizontalMenuView
    it.tidalwave.northernwind.frontend.ui.component.menu.MenuView <|.. it.tidalwave.northernwind.frontend.ui.component.menu.htmltemplate.HtmlTemplateHorizontalMenuView

    center footer UMLDoclet 2.0.12, PlantUML 1.2020.16
@enduml

PlantUML version 1.2020.16(Sun Aug 23 22:20:43 CEST 2020)
(APACHE source distribution)
Java Runtime: OpenJDK Runtime Environment
JVM: OpenJDK 64-Bit Server VM
Default Encoding: UTF-8
Language: en
Country: GB
--></g></svg>