<?xml version="1.0" encoding="UTF-8" standalone="no"?><svg xmlns="http://www.w3.org/2000/svg" xmlns:xlink="http://www.w3.org/1999/xlink" contentScriptType="application/ecmascript" contentStyleType="text/css" height="221px" preserveAspectRatio="none" style="width:302px;height:221px;" version="1.1" viewBox="0 0 302 221" width="302px" zoomAndPan="magnify"><defs><filter height="300%" id="f1ktdn33sxploq" width="300%" x="-1" y="-1"><feGaussianBlur result="blurOut" stdDeviation="2.0"/><feColorMatrix in="blurOut" result="blurOut2" type="matrix" values="0 0 0 0 0 0 0 0 0 0 0 0 0 0 0 0 0 0 .4 0"/><feOffset dx="4.0" dy="4.0" in="blurOut2" result="blurOut3"/><feBlend in="SourceGraphic" in2="blurOut3" mode="normal"/></filter></defs><g><!--MD5=[808cc900e82ddf8a81636cabb2122f33]
class it.tidalwave.bluemarine2.model.impl.role.RepositoryEntitySupportDisplayable--><a href="RepositoryEntitySupportDisplayable.html" target="_top" title="RepositoryEntitySupportDisplayable.html" xlink:actuate="onRequest" xlink:href="RepositoryEntitySupportDisplayable.html" xlink:show="new" xlink:title="RepositoryEntitySupportDisplayable.html" xlink:type="simple"><rect codeLine="5" fill="#FEFECE" filter="url(#f1ktdn33sxploq)" height="59.2207" id="it.tidalwave.bluemarine2.model.impl.role.RepositoryEntitySupportDisplayable" style="stroke: #A80036; stroke-width: 1.5;" width="276" x="7" y="126"/><ellipse cx="22" cy="145.1328" fill="#ADD1B2" rx="11" ry="11" style="stroke: #A80036; stroke-width: 1.0;"/><path d="M24.4731,151.2759 Q23.8921,151.5747 23.2529,151.7241 Q22.6138,151.8735 21.9082,151.8735 Q19.4014,151.8735 18.0815,150.2217 Q16.7617,148.5698 16.7617,145.4487 Q16.7617,142.3193 18.0815,140.6675 Q19.4014,139.0156 21.9082,139.0156 Q22.6138,139.0156 23.2612,139.165 Q23.9087,139.3145 24.4731,139.6133 L24.4731,142.3359 Q23.8423,141.7549 23.2488,141.4851 Q22.6553,141.2153 22.0244,141.2153 Q20.6797,141.2153 19.9949,142.282 Q19.3101,143.3486 19.3101,145.4487 Q19.3101,147.5405 19.9949,148.6072 Q20.6797,149.6738 22.0244,149.6738 Q22.6553,149.6738 23.2488,149.4041 Q23.8423,149.1343 24.4731,148.5532 Z "/><text fill="#000000" font-family="sans-serif" font-size="14" lengthAdjust="spacingAndGlyphs" textLength="244" x="36" y="144.5352">RepositoryEntitySupportDisplayable</text><text fill="#000000" font-family="sans-serif" font-size="10" lengthAdjust="spacingAndGlyphs" textLength="200" x="58" y="157.1563">it.tidalwave.bluemarine2.model.impl.role</text><line style="stroke: #A80036; stroke-width: 1.5;" x1="8" x2="282" y1="164.2656" y2="164.2656"/><ellipse cx="18" cy="175.2656" fill="#84BE84" rx="3" ry="3" style="stroke: #038048; stroke-width: 1.0;"/><text fill="#000000" font-family="sans-serif" font-size="11" lengthAdjust="spacingAndGlyphs" textLength="132" x="27" y="178.9004">getDisplayName(): String</text></a><!--MD5=[e05cef5f540740c7b774d94550632b59]
class it.tidalwave.role.ui.Displayable--><rect codeLine="9" fill="#FEFECE" filter="url(#f1ktdn33sxploq)" height="59.2207" id="it.tidalwave.role.ui.Displayable" style="stroke: #A80036; stroke-width: 1.5;" width="158" x="66" y="7"/><ellipse cx="96.75" cy="26.1328" fill="#B4A7E5" rx="11" ry="11" style="stroke: #A80036; stroke-width: 1.0;"/><path d="M93.1777,22.3979 L93.1777,20.2397 L100.5571,20.2397 L100.5571,22.3979 L98.0918,22.3979 L98.0918,30.4746 L100.5571,30.4746 L100.5571,32.6328 L93.1777,32.6328 L93.1777,30.4746 L95.6431,30.4746 L95.6431,22.3979 Z "/><text fill="#000000" font-family="sans-serif" font-size="14" font-style="italic" lengthAdjust="spacingAndGlyphs" textLength="78" x="120.75" y="25.5352">Displayable</text><text fill="#000000" font-family="sans-serif" font-size="10" font-style="italic" lengthAdjust="spacingAndGlyphs" textLength="91" x="114.25" y="38.1563">it.tidalwave.role.ui</text><line style="stroke: #A80036; stroke-width: 1.5;" x1="67" x2="223" y1="45.2656" y2="45.2656"/><ellipse cx="77" cy="56.2656" fill="#84BE84" rx="3" ry="3" style="stroke: #038048; stroke-width: 1.0;"/><text fill="#000000" font-family="sans-serif" font-size="11" font-style="italic" lengthAdjust="spacingAndGlyphs" textLength="132" x="86" y="59.9004">getDisplayName(): String</text><!--MD5=[a98069b9880cab5238714bdc359a015f]
reverse link it.tidalwave.role.ui.Displayable to it.tidalwave.bluemarine2.model.impl.role.RepositoryEntitySupportDisplayable--><path codeLine="13" d="M145,86.3288 C145,99.7348 145,113.8139 145,125.7447 " fill="none" id="it.tidalwave.role.ui.Displayable-backto-it.tidalwave.bluemarine2.model.impl.role.RepositoryEntitySupportDisplayable" style="stroke: #A80036; stroke-width: 1.0; stroke-dasharray: 7.0,7.0;"/><polygon fill="none" points="138.0001,86.2218,145,66.2218,152.0001,86.2217,138.0001,86.2218" style="stroke: #A80036; stroke-width: 1.0;"/><text fill="#888888" font-family="sans-serif" font-size="10" lengthAdjust="spacingAndGlyphs" textLength="188" x="48" y="207.8887">UMLDoclet 2.0.12, PlantUML 1.2020.16</text><!--MD5=[1145f9a76f6721a268ed8084276841a0]
@startuml
    set namespaceSeparator none
    hide empty fields
    hide empty methods

    class "<size:14>RepositoryEntitySupportDisplayable\n<size:10>it.tidalwave.bluemarine2.model.impl.role" as it.tidalwave.bluemarine2.model.impl.role.RepositoryEntitySupportDisplayable [[RepositoryEntitySupportDisplayable.html]] {
        +getDisplayName(): String
    }

    interface "<size:14>Displayable\n<size:10>it.tidalwave.role.ui" as it.tidalwave.role.ui.Displayable {
        {abstract} +getDisplayName(): String
    }

    it.tidalwave.role.ui.Displayable <|.. it.tidalwave.bluemarine2.model.impl.role.RepositoryEntitySupportDisplayable

    center footer UMLDoclet 2.0.12, PlantUML 1.2020.16
@enduml

PlantUML version 1.2020.16(Sun Aug 23 22:20:43 CEST 2020)
(APACHE source distribution)
Java Runtime: OpenJDK Runtime Environment
JVM: OpenJDK 64-Bit Server VM
Default Encoding: UTF-8
Language: en
Country: GB
--></g></svg>