<?xml version="1.0" encoding="UTF-8" standalone="no"?><svg xmlns="http://www.w3.org/2000/svg" xmlns:xlink="http://www.w3.org/1999/xlink" contentScriptType="application/ecmascript" contentStyleType="text/css" height="122px" preserveAspectRatio="none" style="width:200px;height:122px;" version="1.1" viewBox="0 0 200 122" width="200px" zoomAndPan="magnify"><defs><filter height="300%" id="f11ls9xy8ny76l" width="300%" x="-1" y="-1"><feGaussianBlur result="blurOut" stdDeviation="2.0"/><feColorMatrix in="blurOut" result="blurOut2" type="matrix" values="0 0 0 0 0 0 0 0 0 0 0 0 0 0 0 0 0 0 .4 0"/><feOffset dx="4.0" dy="4.0" in="blurOut2" result="blurOut3"/><feBlend in="SourceGraphic" in2="blurOut3" mode="normal"/></filter></defs><g><!--MD5=[66be5b1692a60590a7169bc8eb77308e]
class it.tidalwave.actor.spi.ActorGroupActivator--><a href="ActorGroupActivator.html" target="_top" title="ActorGroupActivator.html" xlink:actuate="onRequest" xlink:href="ActorGroupActivator.html" xlink:show="new" xlink:title="ActorGroupActivator.html" xlink:type="simple"><rect codeLine="5" fill="#FEFECE" filter="url(#f11ls9xy8ny76l)" height="85.1309" id="it.tidalwave.actor.spi.ActorGroupActivator" style="stroke: #A80036; stroke-width: 1.5;" width="173" x="7.5" y="7"/><ellipse cx="22.5" cy="26.1328" fill="#ADD1B2" rx="11" ry="11" style="stroke: #A80036; stroke-width: 1.0;"/><path d="M24.9731,32.2759 Q24.3921,32.5747 23.7529,32.7241 Q23.1138,32.8735 22.4082,32.8735 Q19.9014,32.8735 18.5815,31.2217 Q17.2617,29.5698 17.2617,26.4487 Q17.2617,23.3193 18.5815,21.6675 Q19.9014,20.0156 22.4082,20.0156 Q23.1138,20.0156 23.7612,20.165 Q24.4087,20.3145 24.9731,20.6133 L24.9731,23.3359 Q24.3423,22.7549 23.7488,22.4851 Q23.1553,22.2153 22.5244,22.2153 Q21.1797,22.2153 20.4949,23.282 Q19.8101,24.3486 19.8101,26.4487 Q19.8101,28.5405 20.4949,29.6072 Q21.1797,30.6738 22.5244,30.6738 Q23.1553,30.6738 23.7488,30.4041 Q24.3423,30.1343 24.9731,29.5532 Z "/><text fill="#000000" font-family="sans-serif" font-size="14" lengthAdjust="spacingAndGlyphs" textLength="141" x="36.5" y="25.5352">ActorGroupActivator</text><text fill="#000000" font-family="sans-serif" font-size="10" lengthAdjust="spacingAndGlyphs" textLength="102" x="56" y="38.1563">it.tidalwave.actor.spi</text><line style="stroke: #A80036; stroke-width: 1.5;" x1="8.5" x2="179.5" y1="45.2656" y2="45.2656"/><ellipse cx="18.5" cy="56.2656" fill="#84BE84" rx="3" ry="3" style="stroke: #038048; stroke-width: 1.0;"/><text fill="#000000" font-family="sans-serif" font-size="11" lengthAdjust="spacingAndGlyphs" textLength="136" x="27.5" y="59.9004">add(ActorActivator): void</text><ellipse cx="18.5" cy="69.2207" fill="#84BE84" rx="3" ry="3" style="stroke: #038048; stroke-width: 1.0;"/><text fill="#000000" font-family="sans-serif" font-size="11" lengthAdjust="spacingAndGlyphs" textLength="78" x="27.5" y="72.8555">activate(): void</text><ellipse cx="18.5" cy="82.1758" fill="#84BE84" rx="3" ry="3" style="stroke: #038048; stroke-width: 1.0;"/><text fill="#000000" font-family="sans-serif" font-size="11" lengthAdjust="spacingAndGlyphs" textLength="91" x="27.5" y="85.8105">deactivate(): void</text></a><text fill="#888888" font-family="sans-serif" font-size="10" lengthAdjust="spacingAndGlyphs" textLength="188" x="0" y="108.7988">UMLDoclet 2.0.12, PlantUML 1.2020.16</text><!--MD5=[c633ae49e5bd7f7acddf22484b8ae40c]
@startuml
    set namespaceSeparator none
    hide empty fields
    hide empty methods

    class "<size:14>ActorGroupActivator\n<size:10>it.tidalwave.actor.spi" as it.tidalwave.actor.spi.ActorGroupActivator [[ActorGroupActivator.html]] {
        +add(ActorActivator): void
        +activate(): void
        +deactivate(): void
    }

    center footer UMLDoclet 2.0.12, PlantUML 1.2020.16
@enduml

PlantUML version 1.2020.16(Sun Aug 23 22:20:43 CEST 2020)
(APACHE source distribution)
Java Runtime: OpenJDK Runtime Environment
JVM: OpenJDK 64-Bit Server VM
Default Encoding: UTF-8
Language: en
Country: GB
--></g></svg>