<?xml version="1.0" encoding="UTF-8" standalone="no"?><svg xmlns="http://www.w3.org/2000/svg" xmlns:xlink="http://www.w3.org/1999/xlink" contentScriptType="application/ecmascript" contentStyleType="text/css" height="247px" preserveAspectRatio="none" style="width:280px;height:247px;" version="1.1" viewBox="0 0 280 247" width="280px" zoomAndPan="magnify"><defs><filter height="300%" id="f1hfdlqpot07sl" width="300%" x="-1" y="-1"><feGaussianBlur result="blurOut" stdDeviation="2.0"/><feColorMatrix in="blurOut" result="blurOut2" type="matrix" values="0 0 0 0 0 0 0 0 0 0 0 0 0 0 0 0 0 0 .4 0"/><feOffset dx="4.0" dy="4.0" in="blurOut2" result="blurOut3"/><feBlend in="SourceGraphic" in2="blurOut3" mode="normal"/></filter></defs><g><!--MD5=[557ce85cee0cba2ec134671511976a47]
class it.tidalwave.role.ui.javafx.example.large.data.SimpleDciEntity--><a href="SimpleDciEntity.html" target="_top" title="SimpleDciEntity.html" xlink:actuate="onRequest" xlink:href="SimpleDciEntity.html" xlink:show="new" xlink:title="SimpleDciEntity.html" xlink:type="simple"><rect codeLine="5" fill="#FEFECE" filter="url(#f1hfdlqpot07sl)" height="59.2207" id="it.tidalwave.role.ui.javafx.example.large.data.SimpleDciEntity" style="stroke: #A80036; stroke-width: 1.5;" width="254" x="7" y="152"/><ellipse cx="22" cy="171.1328" fill="#ADD1B2" rx="11" ry="11" style="stroke: #A80036; stroke-width: 1.0;"/><path d="M24.4731,177.2759 Q23.8921,177.5747 23.2529,177.7241 Q22.6138,177.8735 21.9082,177.8735 Q19.4014,177.8735 18.0815,176.2217 Q16.7617,174.5698 16.7617,171.4487 Q16.7617,168.3193 18.0815,166.6675 Q19.4014,165.0156 21.9082,165.0156 Q22.6138,165.0156 23.2612,165.165 Q23.9087,165.3145 24.4731,165.6133 L24.4731,168.3359 Q23.8423,167.7549 23.2488,167.4851 Q22.6553,167.2153 22.0244,167.2153 Q20.6797,167.2153 19.9949,168.282 Q19.3101,169.3486 19.3101,171.4487 Q19.3101,173.5405 19.9949,174.6072 Q20.6797,175.6738 22.0244,175.6738 Q22.6553,175.6738 23.2488,175.4041 Q23.8423,175.1343 24.4731,174.5532 Z "/><text fill="#000000" font-family="sans-serif" font-size="14" lengthAdjust="spacingAndGlyphs" textLength="105" x="94.5" y="170.5352">SimpleDciEntity</text><text fill="#000000" font-family="sans-serif" font-size="10" lengthAdjust="spacingAndGlyphs" textLength="222" x="36" y="183.1563">it.tidalwave.role.ui.javafx.example.large.data</text><line style="stroke: #A80036; stroke-width: 1.5;" x1="8" x2="260" y1="190.2656" y2="190.2656"/><ellipse cx="18" cy="201.2656" fill="#84BE84" rx="3" ry="3" style="stroke: #038048; stroke-width: 1.0;"/><text fill="#000000" font-family="sans-serif" font-size="11" lengthAdjust="spacingAndGlyphs" textLength="162" x="27" y="204.9004">SimpleDciEntity(String, int, int)</text></a><!--MD5=[dab04e1bf87902def4158d0914d2f9d5]
class it.tidalwave.util.As--><rect codeLine="9" fill="#FEFECE" filter="url(#f1hfdlqpot07sl)" height="85.1309" id="it.tidalwave.util.As" style="stroke: #A80036; stroke-width: 1.5;" width="250" x="9" y="7"/><ellipse cx="91.75" cy="26.1328" fill="#B4A7E5" rx="11" ry="11" style="stroke: #A80036; stroke-width: 1.0;"/><path d="M88.1777,22.3979 L88.1777,20.2397 L95.5571,20.2397 L95.5571,22.3979 L93.0918,22.3979 L93.0918,30.4746 L95.5571,30.4746 L95.5571,32.6328 L88.1777,32.6328 L88.1777,30.4746 L90.6431,30.4746 L90.6431,22.3979 Z "/><text fill="#000000" font-family="sans-serif" font-size="14" font-style="italic" lengthAdjust="spacingAndGlyphs" textLength="17" x="141.75" y="25.5352">As</text><text fill="#000000" font-family="sans-serif" font-size="10" font-style="italic" lengthAdjust="spacingAndGlyphs" textLength="76" x="112.25" y="38.1563">it.tidalwave.util</text><line style="stroke: #A80036; stroke-width: 1.5;" x1="10" x2="258" y1="45.2656" y2="45.2656"/><ellipse cx="20" cy="56.2656" fill="#84BE84" rx="3" ry="3" style="stroke: #038048; stroke-width: 1.0;"/><text fill="#000000" font-family="sans-serif" font-size="11" font-style="italic" lengthAdjust="spacingAndGlyphs" textLength="87" x="29" y="59.9004">as(Class&lt;T&gt;): T</text><ellipse cx="20" cy="69.2207" fill="#84BE84" rx="3" ry="3" style="stroke: #038048; stroke-width: 1.0;"/><text fill="#000000" font-family="sans-serif" font-size="11" font-style="italic" lengthAdjust="spacingAndGlyphs" textLength="224" x="29" y="72.8555">as(Class&lt;T&gt;, NotFoundBehaviour&lt;T&gt;): T</text><ellipse cx="20" cy="82.1758" fill="#84BE84" rx="3" ry="3" style="stroke: #038048; stroke-width: 1.0;"/><text fill="#000000" font-family="sans-serif" font-size="11" font-style="italic" lengthAdjust="spacingAndGlyphs" textLength="187" x="29" y="85.8105">asMany(Class&lt;T&gt;): Collection&lt;T&gt;</text><!--MD5=[06ba1867cf6686de24d93152a134faf6]
reverse link it.tidalwave.util.As to it.tidalwave.role.ui.javafx.example.large.data.SimpleDciEntity--><path codeLine="15" d="M134,112.6631 C134,126.3257 134,140.1508 134,151.7905 " fill="none" id="it.tidalwave.util.As-backto-it.tidalwave.role.ui.javafx.example.large.data.SimpleDciEntity" style="stroke: #A80036; stroke-width: 1.0; stroke-dasharray: 7.0,7.0;"/><polygon fill="none" points="127.0001,112.3567,134,92.3566,141.0001,112.3566,127.0001,112.3567" style="stroke: #A80036; stroke-width: 1.0;"/><text fill="#888888" font-family="sans-serif" font-size="10" lengthAdjust="spacingAndGlyphs" textLength="188" x="37" y="233.8887">UMLDoclet 2.0.12, PlantUML 1.2020.16</text><!--MD5=[73fb967d8ddb984a8760f88b93eeeed7]
@startuml
    set namespaceSeparator none
    hide empty fields
    hide empty methods

    class "<size:14>SimpleDciEntity\n<size:10>it.tidalwave.role.ui.javafx.example.large.data" as it.tidalwave.role.ui.javafx.example.large.data.SimpleDciEntity [[SimpleDciEntity.html]] {
        +SimpleDciEntity(String, int, int)
    }

    interface "<size:14>As\n<size:10>it.tidalwave.util" as it.tidalwave.util.As {
        {abstract} +as(Class<T>): T
        {abstract} +as(Class<T>, NotFoundBehaviour<T>): T
        {abstract} +asMany(Class<T>): Collection<T>
    }

    it.tidalwave.util.As <|.. it.tidalwave.role.ui.javafx.example.large.data.SimpleDciEntity

    center footer UMLDoclet 2.0.12, PlantUML 1.2020.16
@enduml

PlantUML version 1.2020.16(Sun Aug 23 22:20:43 CEST 2020)
(APACHE source distribution)
Java Runtime: OpenJDK Runtime Environment
JVM: OpenJDK 64-Bit Server VM
Default Encoding: UTF-8
Language: en
Country: GB
--></g></svg>