@startuml
    set namespaceSeparator none
    hide empty fields
    hide empty methods

    class "<size:14>SimpleDciEntity\n<size:10>it.tidalwave.role.ui.javafx.example.large.data" as it.tidalwave.role.ui.javafx.example.large.data.SimpleDciEntity [[SimpleDciEntity.html]] {
        +SimpleDciEntity(String, int, int)
    }

    interface "<size:14>As\n<size:10>it.tidalwave.util" as it.tidalwave.util.As {
        {abstract} +as(Class<T>): T
        {abstract} +as(Class<T>, NotFoundBehaviour<T>): T
        {abstract} +asMany(Class<T>): Collection<T>
    }

    it.tidalwave.util.As <|.. it.tidalwave.role.ui.javafx.example.large.data.SimpleDciEntity

    center footer UMLDoclet 2.0.12, PlantUML 1.2020.16
@enduml
