<?xml version="1.0" encoding="UTF-8" standalone="no"?><svg xmlns="http://www.w3.org/2000/svg" xmlns:xlink="http://www.w3.org/1999/xlink" contentScriptType="application/ecmascript" contentStyleType="text/css" height="403px" preserveAspectRatio="none" style="width:818px;height:403px;" version="1.1" viewBox="0 0 818 403" width="818px" zoomAndPan="magnify"><defs><filter height="300%" id="f1b3175ahasxra" width="300%" x="-1" y="-1"><feGaussianBlur result="blurOut" stdDeviation="2.0"/><feColorMatrix in="blurOut" result="blurOut2" type="matrix" values="0 0 0 0 0 0 0 0 0 0 0 0 0 0 0 0 0 0 .4 0"/><feOffset dx="4.0" dy="4.0" in="blurOut2" result="blurOut3"/><feBlend in="SourceGraphic" in2="blurOut3" mode="normal"/></filter></defs><g><!--MD5=[dc7be10117d2537fe6392dc262c9c8bd]
class it.tidalwave.thesefoolishthings.examples.person--><a href="it/tidalwave/thesefoolishthings/examples/person/package-summary.html" target="_top" title="it/tidalwave/thesefoolishthings/examples/person/package-summary.html" xlink:actuate="onRequest" xlink:href="it/tidalwave/thesefoolishthings/examples/person/package-summary.html" xlink:show="new" xlink:title="it/tidalwave/thesefoolishthings/examples/person/package-summary.html" xlink:type="simple"><rect codeLine="18" fill="#FEFECE" filter="url(#f1b3175ahasxra)" height="24.1328" id="it.tidalwave.thesefoolishthings.examples.person" style="stroke: #A80036; stroke-width: 1.5;" width="281" x="275.5" y="175"/><text fill="#000000" font-family="sans-serif" font-size="12" lengthAdjust="spacingAndGlyphs" textLength="275" x="278.5" y="191.6016">it.tidalwave.thesefoolishthings.examples.person</text></a><!--MD5=[e2825e41240dc3ac7b156e1d527e9be0]
class it.tidalwave.util--><a href="https://tidalwave.bitbucket.io/thesefoolishthings/modules/it-tidalwave-util/apidocs/it/tidalwave/util/package-summary.html?is-external=true" target="_top" title="https://tidalwave.bitbucket.io/thesefoolishthings/modules/it-tidalwave-util/apidocs/it/tidalwave/util/package-summary.html?is-external=true" xlink:actuate="onRequest" xlink:href="https://tidalwave.bitbucket.io/thesefoolishthings/modules/it-tidalwave-util/apidocs/it/tidalwave/util/package-summary.html?is-external=true" xlink:show="new" xlink:title="https://tidalwave.bitbucket.io/thesefoolishthings/modules/it-tidalwave-util/apidocs/it/tidalwave/util/package-summary.html?is-external=true" xlink:type="simple"><rect codeLine="20" fill="#FEFECE" filter="url(#f1b3175ahasxra)" height="24.1328" id="it.tidalwave.util" style="stroke: #A80036; stroke-width: 1.5;" width="92" x="7" y="259"/><text fill="#000000" font-family="sans-serif" font-size="12" lengthAdjust="spacingAndGlyphs" textLength="86" x="10" y="275.6016">it.tidalwave.util</text></a><!--MD5=[e6ce6670e8c393bb0cbcbe137df050e1]
class it.tidalwave.thesefoolishthings.examples.dci.swing.role--><a href="it/tidalwave/thesefoolishthings/examples/dci/swing/role/package-summary.html" target="_top" title="it/tidalwave/thesefoolishthings/examples/dci/swing/role/package-summary.html" xlink:actuate="onRequest" xlink:href="it/tidalwave/thesefoolishthings/examples/dci/swing/role/package-summary.html" xlink:show="new" xlink:title="it/tidalwave/thesefoolishthings/examples/dci/swing/role/package-summary.html" xlink:type="simple"><rect codeLine="22" fill="#FEFECE" filter="url(#f1b3175ahasxra)" height="24.1328" id="it.tidalwave.thesefoolishthings.examples.dci.swing.role" style="stroke: #A80036; stroke-width: 1.5;" width="320" x="134" y="259"/><text fill="#000000" font-family="sans-serif" font-size="12" lengthAdjust="spacingAndGlyphs" textLength="314" x="137" y="275.6016">it.tidalwave.thesefoolishthings.examples.dci.swing.role</text></a><!--MD5=[d3b44b914aa2370fe6d684de0096bcf1]
class it.tidalwave.role--><a href="https://tidalwave.bitbucket.io/thesefoolishthings/modules/it-tidalwave-role/apidocs/it/tidalwave/role/package-summary.html?is-external=true" target="_top" title="https://tidalwave.bitbucket.io/thesefoolishthings/modules/it-tidalwave-role/apidocs/it/tidalwave/role/package-summary.html?is-external=true" xlink:actuate="onRequest" xlink:href="https://tidalwave.bitbucket.io/thesefoolishthings/modules/it-tidalwave-role/apidocs/it/tidalwave/role/package-summary.html?is-external=true" xlink:show="new" xlink:title="https://tidalwave.bitbucket.io/thesefoolishthings/modules/it-tidalwave-role/apidocs/it/tidalwave/role/package-summary.html?is-external=true" xlink:type="simple"><rect codeLine="24" fill="#FEFECE" filter="url(#f1b3175ahasxra)" height="24.1328" id="it.tidalwave.role" style="stroke: #A80036; stroke-width: 1.5;" width="97" x="489.5" y="259"/><text fill="#000000" font-family="sans-serif" font-size="12" lengthAdjust="spacingAndGlyphs" textLength="91" x="492.5" y="275.6016">it.tidalwave.role</text></a><!--MD5=[804e854e27f140191bd7503628e15cd4]
class org.jdesktop.observablecollections--><rect fill="#FEFECE" filter="url(#f1b3175ahasxra)" height="24.1328" id="org.jdesktop.observablecollections" style="stroke: #A80036; stroke-width: 1.5;" width="207" x="363.5" y="343"/><text fill="#000000" font-family="sans-serif" font-size="12" lengthAdjust="spacingAndGlyphs" textLength="201" x="366.5" y="359.6016">org.jdesktop.observablecollections</text><!--MD5=[76f8af77e0740acd956a919276341700]
class it.tidalwave.thesefoolishthings.examples.dci.swing--><a href="it/tidalwave/thesefoolishthings/examples/dci/swing/package-summary.html" target="_top" title="it/tidalwave/thesefoolishthings/examples/dci/swing/package-summary.html" xlink:actuate="onRequest" xlink:href="it/tidalwave/thesefoolishthings/examples/dci/swing/package-summary.html" xlink:show="new" xlink:title="it/tidalwave/thesefoolishthings/examples/dci/swing/package-summary.html" xlink:type="simple"><rect codeLine="26" fill="#FEFECE" filter="url(#f1b3175ahasxra)" height="24.1328" id="it.tidalwave.thesefoolishthings.examples.dci.swing" style="stroke: #A80036; stroke-width: 1.5;" width="294" x="487" y="7"/><text fill="#000000" font-family="sans-serif" font-size="12" lengthAdjust="spacingAndGlyphs" textLength="288" x="490" y="23.6016">it.tidalwave.thesefoolishthings.examples.dci.swing</text></a><!--MD5=[93c58fd4fc7af97b88de8a4e8134e7ff]
class it.tidalwave.thesefoolishthings.examples.dci.swing.swing--><a href="it/tidalwave/thesefoolishthings/examples/dci/swing/swing/package-summary.html" target="_top" title="it/tidalwave/thesefoolishthings/examples/dci/swing/swing/package-summary.html" xlink:actuate="onRequest" xlink:href="it/tidalwave/thesefoolishthings/examples/dci/swing/swing/package-summary.html" xlink:show="new" xlink:title="it/tidalwave/thesefoolishthings/examples/dci/swing/swing/package-summary.html" xlink:type="simple"><rect codeLine="28" fill="#FEFECE" filter="url(#f1b3175ahasxra)" height="24.1328" id="it.tidalwave.thesefoolishthings.examples.dci.swing.swing" style="stroke: #A80036; stroke-width: 1.5;" width="330" x="469" y="91"/><text fill="#000000" font-family="sans-serif" font-size="12" lengthAdjust="spacingAndGlyphs" textLength="324" x="472" y="107.6016">it.tidalwave.thesefoolishthings.examples.dci.swing.swing</text></a><!--MD5=[cd253d21396c55bc4bf71c50112f1e9a]
class org.jdesktop.beansbinding--><rect fill="#FEFECE" filter="url(#f1b3175ahasxra)" height="24.1328" id="org.jdesktop.beansbinding" style="stroke: #A80036; stroke-width: 1.5;" width="162" x="592" y="175"/><text fill="#000000" font-family="sans-serif" font-size="12" lengthAdjust="spacingAndGlyphs" textLength="156" x="595" y="191.6016">org.jdesktop.beansbinding</text><!--MD5=[58fe540f21f559d88fb6a7275dca6f23]
link it.tidalwave.thesefoolishthings.examples.person to it.tidalwave.util--><path codeLine="6" d="M363.991,199.0352 C294.8262,215.0402 173.3135,243.1589 104.4382,259.0969 " fill="none" id="it.tidalwave.thesefoolishthings.examples.person-to-it.tidalwave.util" style="stroke: #A80036; stroke-width: 1.0;"/><polygon fill="#A80036" points="99.1642,260.3174,108.8343,262.1853,104.0355,259.1901,107.0307,254.3913,99.1642,260.3174" style="stroke: #A80036; stroke-width: 1.0;"/><!--MD5=[2bd059616eb353cd7b2a507823cb57ee]
link it.tidalwave.thesefoolishthings.examples.person to it.tidalwave.thesefoolishthings.examples.dci.swing.role--><path codeLine="7" d="M398.5204,199.0352 C376.6871,214.0679 339.3331,239.7871 315.6946,256.0628 " fill="none" id="it.tidalwave.thesefoolishthings.examples.person-to-it.tidalwave.thesefoolishthings.examples.dci.swing.role" style="stroke: #A80036; stroke-width: 1.0;"/><polygon fill="#A80036" points="311.4472,258.9872,321.1284,257.1778,315.5654,256.1517,316.5916,250.5887,311.4472,258.9872" style="stroke: #A80036; stroke-width: 1.0;"/><!--MD5=[367b953fa5f1ea33a853ad1daa57fd76]
link it.tidalwave.thesefoolishthings.examples.person to it.tidalwave.role--><path codeLine="8" d="M433.4796,199.0352 C455.3129,214.0679 492.6669,239.7871 516.3054,256.0628 " fill="none" id="it.tidalwave.thesefoolishthings.examples.person-to-it.tidalwave.role" style="stroke: #A80036; stroke-width: 1.0;"/><polygon fill="#A80036" points="520.5528,258.9872,515.4084,250.5887,516.4346,256.1517,510.8716,257.1778,520.5528,258.9872" style="stroke: #A80036; stroke-width: 1.0;"/><!--MD5=[f87de03d716ff801855c9487c50fc895]
link it.tidalwave.thesefoolishthings.examples.person to org.jdesktop.observablecollections--><path codeLine="9" d="M465.0964,199.0641 C515.1708,212.4795 587.758,235.3872 604,259 C630.654,297.7497 568.7666,325.8896 519.69,341.337 " fill="none" id="it.tidalwave.thesefoolishthings.examples.person-to-org.jdesktop.observablecollections" style="stroke: #A80036; stroke-width: 1.0;"/><polygon fill="#A80036" points="514.683,342.8836,524.4626,344.0491,519.4603,341.4079,522.1015,336.4055,514.683,342.8836" style="stroke: #A80036; stroke-width: 1.0;"/><!--MD5=[4f8c7f451fc0c525bcd4c2f2bb184290]
link it.tidalwave.thesefoolishthings.examples.dci.swing to it.tidalwave.thesefoolishthings.examples.person--><path codeLine="10" d="M568.5091,31.0202 C530.1191,41.1337 483.1923,59.243 452,91 C430.6125,112.7747 421.725,148.4486 418.1875,169.6336 " fill="none" id="it.tidalwave.thesefoolishthings.examples.dci.swing-to-it.tidalwave.thesefoolishthings.examples.person" style="stroke: #A80036; stroke-width: 1.0;"/><polygon fill="#A80036" points="417.3991,174.6902,422.7381,166.414,418.1695,169.7499,414.8336,165.1813,417.3991,174.6902" style="stroke: #A80036; stroke-width: 1.0;"/><!--MD5=[5de9a315d670820797a6152520f3dcb1]
link it.tidalwave.thesefoolishthings.examples.dci.swing to it.tidalwave.thesefoolishthings.examples.dci.swing.swing--><path codeLine="11" d="M624.7433,31.0352 C620.5567,45.3818 620.1332,69.4615 623.473,85.777 " fill="none" id="it.tidalwave.thesefoolishthings.examples.dci.swing-to-it.tidalwave.thesefoolishthings.examples.dci.swing.swing" style="stroke: #A80036; stroke-width: 1.0;"/><polygon fill="#A80036" points="624.7499,90.9872,626.4924,81.2937,623.5596,86.1309,618.7224,83.1982,624.7499,90.9872" style="stroke: #A80036; stroke-width: 1.0;"/><!--MD5=[b1f996f7102158cef718b523297b0e8b]
link it.tidalwave.thesefoolishthings.examples.dci.swing.swing to it.tidalwave.thesefoolishthings.examples.dci.swing--><path codeLine="13" d="M643.7943,90.9872 C648.2314,76.6507 648.6839,52.5719 645.1518,36.2484 " fill="none" id="it.tidalwave.thesefoolishthings.examples.dci.swing.swing-to-it.tidalwave.thesefoolishthings.examples.dci.swing" style="stroke: #A80036; stroke-width: 1.0;"/><polygon fill="#A80036" points="643.8012,31.0352,642.1862,40.7507,645.0552,35.8754,649.9305,38.7444,643.8012,31.0352" style="stroke: #A80036; stroke-width: 1.0;"/><!--MD5=[faf1c4970659a7b8eee6de728ab8eb79]
link it.tidalwave.thesefoolishthings.examples.dci.swing.role to org.jdesktop.observablecollections--><path codeLine="12" d="M318.7867,283.0352 C350.1324,298.255 404.0384,324.429 437.479,340.6661 " fill="none" id="it.tidalwave.thesefoolishthings.examples.dci.swing.role-to-org.jdesktop.observablecollections" style="stroke: #A80036; stroke-width: 1.0;"/><polygon fill="#A80036" points="442.2593,342.9872,435.9103,335.4579,437.7615,340.8033,432.4161,342.6544,442.2593,342.9872" style="stroke: #A80036; stroke-width: 1.0;"/><!--MD5=[df7e805f5b31808a73f80664ce36487c]
link it.tidalwave.thesefoolishthings.examples.dci.swing.swing to org.jdesktop.beansbinding--><path codeLine="14" d="M639.5877,115.0352 C646.3066,129.5065 657.6233,153.881 665.2004,170.2009 " fill="none" id="it.tidalwave.thesefoolishthings.examples.dci.swing.swing-to-org.jdesktop.beansbinding" style="stroke: #A80036; stroke-width: 1.0;"/><polygon fill="#A80036" points="667.4226,174.9872,667.2607,165.1397,665.3171,170.4521,660.0046,168.5085,667.4226,174.9872" style="stroke: #A80036; stroke-width: 1.0;"/><!--MD5=[bc905e99430ee78c19f4ab6ec2138b85]
link it.tidalwave.thesefoolishthings.examples.dci.swing.swing to it.tidalwave.thesefoolishthings.examples.person--><path codeLine="15" d="M602.7659,115.0352 C562.862,130.411 493.944,156.9665 451.9127,173.1621 " fill="none" id="it.tidalwave.thesefoolishthings.examples.dci.swing.swing-to-it.tidalwave.thesefoolishthings.examples.person" style="stroke: #A80036; stroke-width: 1.0;"/><polygon fill="#A80036" points="447.1761,174.9872,457.0124,175.4835,451.8417,173.1893,454.1359,168.0186,447.1761,174.9872" style="stroke: #A80036; stroke-width: 1.0;"/><text fill="#888888" font-family="sans-serif" font-size="10" lengthAdjust="spacingAndGlyphs" textLength="188" x="306" y="389.8008">UMLDoclet 2.0.12, PlantUML 1.2020.16</text><!--MD5=[526ddae2c9c4601544e42fe90e098272]
@startuml
    set namespaceSeparator none
    hide circle
    hide empty fields
    hide empty methods

    it.tidalwave.thesefoolishthings.examples.person - -> it.tidalwave.util
    it.tidalwave.thesefoolishthings.examples.person - -> it.tidalwave.thesefoolishthings.examples.dci.swing.role
    it.tidalwave.thesefoolishthings.examples.person - -> it.tidalwave.role
    it.tidalwave.thesefoolishthings.examples.person - -> org.jdesktop.observablecollections
    it.tidalwave.thesefoolishthings.examples.dci.swing - -> it.tidalwave.thesefoolishthings.examples.person
    it.tidalwave.thesefoolishthings.examples.dci.swing - -> it.tidalwave.thesefoolishthings.examples.dci.swing.swing
    it.tidalwave.thesefoolishthings.examples.dci.swing.role - -> org.jdesktop.observablecollections
    it.tidalwave.thesefoolishthings.examples.dci.swing.swing - -> it.tidalwave.thesefoolishthings.examples.dci.swing
    it.tidalwave.thesefoolishthings.examples.dci.swing.swing - -> org.jdesktop.beansbinding
    it.tidalwave.thesefoolishthings.examples.dci.swing.swing - -> it.tidalwave.thesefoolishthings.examples.person

    ' Package links
    class "it.tidalwave.thesefoolishthings.examples.person" [[it/tidalwave/thesefoolishthings/examples/person/package-summary.html]] {
    }
    class "it.tidalwave.util" [[https://tidalwave.bitbucket.io/thesefoolishthings/modules/it-tidalwave-util/apidocs/it/tidalwave/util/package-summary.html?is-external=true]] {
    }
    class "it.tidalwave.thesefoolishthings.examples.dci.swing.role" [[it/tidalwave/thesefoolishthings/examples/dci/swing/role/package-summary.html]] {
    }
    class "it.tidalwave.role" [[https://tidalwave.bitbucket.io/thesefoolishthings/modules/it-tidalwave-role/apidocs/it/tidalwave/role/package-summary.html?is-external=true]] {
    }
    class "it.tidalwave.thesefoolishthings.examples.dci.swing" [[it/tidalwave/thesefoolishthings/examples/dci/swing/package-summary.html]] {
    }
    class "it.tidalwave.thesefoolishthings.examples.dci.swing.swing" [[it/tidalwave/thesefoolishthings/examples/dci/swing/swing/package-summary.html]] {
    }

    center footer UMLDoclet 2.0.12, PlantUML 1.2020.16
@enduml

@startuml
    set namespaceSeparator none
    hide circle
    hide empty fields
    hide empty methods

    it.tidalwave.thesefoolishthings.examples.person - -> it.tidalwave.util
    it.tidalwave.thesefoolishthings.examples.person - -> it.tidalwave.thesefoolishthings.examples.dci.swing.role
    it.tidalwave.thesefoolishthings.examples.person - -> it.tidalwave.role
    it.tidalwave.thesefoolishthings.examples.person - -> org.jdesktop.observablecollections
    it.tidalwave.thesefoolishthings.examples.dci.swing - -> it.tidalwave.thesefoolishthings.examples.person
    it.tidalwave.thesefoolishthings.examples.dci.swing - -> it.tidalwave.thesefoolishthings.examples.dci.swing.swing
    it.tidalwave.thesefoolishthings.examples.dci.swing.role - -> org.jdesktop.observablecollections
    it.tidalwave.thesefoolishthings.examples.dci.swing.swing - -> it.tidalwave.thesefoolishthings.examples.dci.swing
    it.tidalwave.thesefoolishthings.examples.dci.swing.swing - -> org.jdesktop.beansbinding
    it.tidalwave.thesefoolishthings.examples.dci.swing.swing - -> it.tidalwave.thesefoolishthings.examples.person

    class "it.tidalwave.thesefoolishthings.examples.person" [[it/tidalwave/thesefoolishthings/examples/person/package-summary.html]] {
    }
    class "it.tidalwave.util" [[https://tidalwave.bitbucket.io/thesefoolishthings/modules/it-tidalwave-util/apidocs/it/tidalwave/util/package-summary.html?is-external=true]] {
    }
    class "it.tidalwave.thesefoolishthings.examples.dci.swing.role" [[it/tidalwave/thesefoolishthings/examples/dci/swing/role/package-summary.html]] {
    }
    class "it.tidalwave.role" [[https://tidalwave.bitbucket.io/thesefoolishthings/modules/it-tidalwave-role/apidocs/it/tidalwave/role/package-summary.html?is-external=true]] {
    }
    class "it.tidalwave.thesefoolishthings.examples.dci.swing" [[it/tidalwave/thesefoolishthings/examples/dci/swing/package-summary.html]] {
    }
    class "it.tidalwave.thesefoolishthings.examples.dci.swing.swing" [[it/tidalwave/thesefoolishthings/examples/dci/swing/swing/package-summary.html]] {
    }

    center footer UMLDoclet 2.0.12, PlantUML 1.2020.16
@enduml

PlantUML version 1.2020.16(Sun Aug 23 22:20:43 CEST 2020)
(APACHE source distribution)
Java Runtime: OpenJDK Runtime Environment
JVM: OpenJDK 64-Bit Server VM
Default Encoding: UTF-8
Language: en
Country: GB
--></g></svg>