<?xml version="1.0" encoding="UTF-8" standalone="no"?><svg xmlns="http://www.w3.org/2000/svg" xmlns:xlink="http://www.w3.org/1999/xlink" contentScriptType="application/ecmascript" contentStyleType="text/css" height="338px" preserveAspectRatio="none" style="width:306px;height:338px;" version="1.1" viewBox="0 0 306 338" width="306px" zoomAndPan="magnify"><defs><filter height="300%" id="f1csjhj35jjtas" width="300%" x="-1" y="-1"><feGaussianBlur result="blurOut" stdDeviation="2.0"/><feColorMatrix in="blurOut" result="blurOut2" type="matrix" values="0 0 0 0 0 0 0 0 0 0 0 0 0 0 0 0 0 0 .4 0"/><feOffset dx="4.0" dy="4.0" in="blurOut2" result="blurOut3"/><feBlend in="SourceGraphic" in2="blurOut3" mode="normal"/></filter></defs><g><!--MD5=[d0c24a99307a22c75bade6e0153859ae]
class it.tidalwave.bluemarine2.ui.audio.renderer.MediaPlayer.Status--><a href="MediaPlayer.Status.html" target="_top" title="MediaPlayer.Status.html" xlink:actuate="onRequest" xlink:href="MediaPlayer.Status.html" xlink:show="new" xlink:title="MediaPlayer.Status.html" xlink:type="simple"><rect codeLine="5" fill="#FEFECE" filter="url(#f1csjhj35jjtas)" height="85.1309" id="it.tidalwave.bluemarine2.ui.audio.renderer.MediaPlayer.Status" style="stroke: #A80036; stroke-width: 1.5;" width="240" x="27" y="217"/><ellipse cx="42" cy="236.1328" fill="#EB937F" rx="11" ry="11" style="stroke: #A80036; stroke-width: 1.0;"/><path d="M45.6143,242.6328 L37.8945,242.6328 L37.8945,230.2397 L45.6143,230.2397 L45.6143,232.3979 L40.3433,232.3979 L40.3433,235.0708 L45.1162,235.0708 L45.1162,237.229 L40.3433,237.229 L40.3433,240.4746 L45.6143,240.4746 Z "/><text fill="#000000" font-family="sans-serif" font-size="14" lengthAdjust="spacingAndGlyphs" textLength="128" x="96" y="235.5352">MediaPlayer.Status</text><text fill="#000000" font-family="sans-serif" font-size="10" lengthAdjust="spacingAndGlyphs" textLength="208" x="56" y="248.1563">it.tidalwave.bluemarine2.ui.audio.renderer</text><line style="stroke: #A80036; stroke-width: 1.5;" x1="28" x2="266" y1="255.2656" y2="255.2656"/><ellipse cx="38" cy="266.2656" fill="none" rx="3" ry="3" style="stroke: #038048; stroke-width: 1.0;"/><text fill="#000000" font-family="sans-serif" font-size="11" lengthAdjust="spacingAndGlyphs" text-decoration="underline" textLength="48" x="47" y="269.9004">STOPPED</text><ellipse cx="38" cy="279.2207" fill="none" rx="3" ry="3" style="stroke: #038048; stroke-width: 1.0;"/><text fill="#000000" font-family="sans-serif" font-size="11" lengthAdjust="spacingAndGlyphs" text-decoration="underline" textLength="46" x="47" y="282.8555">PLAYING</text><ellipse cx="38" cy="292.1758" fill="none" rx="3" ry="3" style="stroke: #038048; stroke-width: 1.0;"/><text fill="#000000" font-family="sans-serif" font-size="11" lengthAdjust="spacingAndGlyphs" text-decoration="underline" textLength="42" x="47" y="295.8105">PAUSED</text></a><!--MD5=[c1b39d49ee8757f524f73ec8ca95b5c4]
class it.tidalwave.bluemarine2.ui.audio.renderer.MediaPlayer--><a href="MediaPlayer.html" target="_top" title="MediaPlayer.html" xlink:actuate="onRequest" xlink:href="MediaPlayer.html" xlink:show="new" xlink:title="MediaPlayer.html" xlink:type="simple"><rect codeLine="11" fill="#FEFECE" filter="url(#f1csjhj35jjtas)" height="149.9063" id="it.tidalwave.bluemarine2.ui.audio.renderer.MediaPlayer" style="stroke: #A80036; stroke-width: 1.5;" width="280" x="7" y="7"/><ellipse cx="40" cy="26.1328" fill="#B4A7E5" rx="11" ry="11" style="stroke: #A80036; stroke-width: 1.0;"/><path d="M36.4277,22.3979 L36.4277,20.2397 L43.8071,20.2397 L43.8071,22.3979 L41.3418,22.3979 L41.3418,30.4746 L43.8071,30.4746 L43.8071,32.6328 L36.4277,32.6328 L36.4277,30.4746 L38.8931,30.4746 L38.8931,22.3979 Z "/><text fill="#000000" font-family="sans-serif" font-size="14" font-style="italic" lengthAdjust="spacingAndGlyphs" textLength="82" x="121" y="25.5352">MediaPlayer</text><text fill="#000000" font-family="sans-serif" font-size="10" font-style="italic" lengthAdjust="spacingAndGlyphs" textLength="208" x="58" y="38.1563">it.tidalwave.bluemarine2.ui.audio.renderer</text><line style="stroke: #A80036; stroke-width: 1.5;" x1="8" x2="286" y1="45.2656" y2="45.2656"/><ellipse cx="18" cy="56.2656" fill="#84BE84" rx="3" ry="3" style="stroke: #038048; stroke-width: 1.0;"/><text fill="#000000" font-family="sans-serif" font-size="11" font-style="italic" lengthAdjust="spacingAndGlyphs" textLength="161" x="27" y="59.9004">setMediaItem(MediaItem): void</text><ellipse cx="18" cy="69.2207" fill="#84BE84" rx="3" ry="3" style="stroke: #038048; stroke-width: 1.0;"/><text fill="#000000" font-family="sans-serif" font-size="11" font-style="italic" lengthAdjust="spacingAndGlyphs" textLength="59" x="27" y="72.8555">play(): void</text><ellipse cx="18" cy="82.1758" fill="#84BE84" rx="3" ry="3" style="stroke: #038048; stroke-width: 1.0;"/><text fill="#000000" font-family="sans-serif" font-size="11" font-style="italic" lengthAdjust="spacingAndGlyphs" textLength="61" x="27" y="85.8105">stop(): void</text><ellipse cx="18" cy="95.1309" fill="#84BE84" rx="3" ry="3" style="stroke: #038048; stroke-width: 1.0;"/><text fill="#000000" font-family="sans-serif" font-size="11" font-style="italic" lengthAdjust="spacingAndGlyphs" textLength="69" x="27" y="98.7656">pause(): void</text><ellipse cx="18" cy="108.0859" fill="#84BE84" rx="3" ry="3" style="stroke: #038048; stroke-width: 1.0;"/><text fill="#000000" font-family="sans-serif" font-size="11" font-style="italic" lengthAdjust="spacingAndGlyphs" textLength="73" x="27" y="111.7207">rewind(): void</text><ellipse cx="18" cy="121.041" fill="#84BE84" rx="3" ry="3" style="stroke: #038048; stroke-width: 1.0;"/><text fill="#000000" font-family="sans-serif" font-size="11" font-style="italic" lengthAdjust="spacingAndGlyphs" textLength="101" x="27" y="124.6758">fastForward(): void</text><ellipse cx="18" cy="133.9961" fill="#84BE84" rx="3" ry="3" style="stroke: #038048; stroke-width: 1.0;"/><text fill="#000000" font-family="sans-serif" font-size="11" font-style="italic" lengthAdjust="spacingAndGlyphs" textLength="254" x="27" y="137.6309">playTimeProperty(): ObjectProperty&lt;Duration&gt;</text><ellipse cx="18" cy="146.9512" fill="#84BE84" rx="3" ry="3" style="stroke: #038048; stroke-width: 1.0;"/><text fill="#000000" font-family="sans-serif" font-size="11" font-style="italic" lengthAdjust="spacingAndGlyphs" textLength="225" x="27" y="150.5859">statusProperty(): ObjectProperty&lt;Status&gt;</text></a><!--MD5=[34be932c866b484961d06567e842b69c]
reverse link it.tidalwave.bluemarine2.ui.audio.renderer.MediaPlayer to it.tidalwave.bluemarine2.ui.audio.renderer.MediaPlayer.Status--><path codeLine="22" d="M147,172.4633 C147,187.9547 147,203.3764 147,216.8397 " fill="none" id="it.tidalwave.bluemarine2.ui.audio.renderer.MediaPlayer-backto-it.tidalwave.bluemarine2.ui.audio.renderer.MediaPlayer.Status" style="stroke: #A80036; stroke-width: 1.0;"/><ellipse cx="147" cy="165.0187" fill="#FFFFFF" rx="8" ry="8" style="stroke: #A80036; stroke-width: 1.0;"/><line style="stroke: #A80036; stroke-width: 1.0;" x1="147" x2="147" y1="173.0187" y2="157.0187"/><line style="stroke: #A80036; stroke-width: 1.0;" x1="139" x2="155" y1="165.0187" y2="165.0187"/><text fill="#888888" font-family="sans-serif" font-size="10" lengthAdjust="spacingAndGlyphs" textLength="188" x="50" y="324.7988">UMLDoclet 2.0.12, PlantUML 1.2020.16</text><!--MD5=[c0928944b54e477bdd87bb837d10c454]
@startuml
    set namespaceSeparator none
    hide empty fields
    hide empty methods

    enum "<size:14>MediaPlayer.Status\n<size:10>it.tidalwave.bluemarine2.ui.audio.renderer" as it.tidalwave.bluemarine2.ui.audio.renderer.MediaPlayer.Status [[MediaPlayer.Status.html]] {
        {static} +STOPPED
        {static} +PLAYING
        {static} +PAUSED
    }

    interface "<size:14>MediaPlayer\n<size:10>it.tidalwave.bluemarine2.ui.audio.renderer" as it.tidalwave.bluemarine2.ui.audio.renderer.MediaPlayer [[MediaPlayer.html]] {
        {abstract} +setMediaItem(MediaItem): void
        {abstract} +play(): void
        {abstract} +stop(): void
        {abstract} +pause(): void
        {abstract} +rewind(): void
        {abstract} +fastForward(): void
        {abstract} +playTimeProperty(): ObjectProperty<Duration>
        {abstract} +statusProperty(): ObjectProperty<Status>
    }

    it.tidalwave.bluemarine2.ui.audio.renderer.MediaPlayer +- - it.tidalwave.bluemarine2.ui.audio.renderer.MediaPlayer.Status

    center footer UMLDoclet 2.0.12, PlantUML 1.2020.16
@enduml

PlantUML version 1.2020.16(Sun Aug 23 22:20:43 CEST 2020)
(APACHE source distribution)
Java Runtime: OpenJDK Runtime Environment
JVM: OpenJDK 64-Bit Server VM
Default Encoding: UTF-8
Language: en
Country: GB
--></g></svg>