<?xml version="1.0" encoding="UTF-8" standalone="no"?><svg xmlns="http://www.w3.org/2000/svg" xmlns:xlink="http://www.w3.org/1999/xlink" contentScriptType="application/ecmascript" contentStyleType="text/css" height="227px" preserveAspectRatio="none" style="width:406px;height:227px;" version="1.1" viewBox="0 0 406 227" width="406px" zoomAndPan="magnify"><defs><filter height="300%" id="f2xbmkz4u5d6z" width="300%" x="-1" y="-1"><feGaussianBlur result="blurOut" stdDeviation="2.0"/><feColorMatrix in="blurOut" result="blurOut2" type="matrix" values="0 0 0 0 0 0 0 0 0 0 0 0 0 0 0 0 0 0 .4 0"/><feOffset dx="4.0" dy="4.0" in="blurOut2" result="blurOut3"/><feBlend in="SourceGraphic" in2="blurOut3" mode="normal"/></filter></defs><g><!--MD5=[778fa23d2a20b3c019db8a85b555009f]
class it.tidalwave.role.ui.function.BoundFunctionSupport--><a href="BoundFunctionSupport.html" target="_top" title="BoundFunctionSupport.html" xlink:actuate="onRequest" xlink:href="BoundFunctionSupport.html" xlink:show="new" xlink:title="BoundFunctionSupport.html" xlink:type="simple"><rect codeLine="5" fill="#FEFECE" filter="url(#f2xbmkz4u5d6z)" height="83.5444" id="it.tidalwave.role.ui.function.BoundFunctionSupport" style="stroke: #A80036; stroke-width: 1.5;" width="378" x="9" y="108"/><ellipse cx="24" cy="126.7988" fill="#A9DCDF" rx="11" ry="11" style="stroke: #A80036; stroke-width: 1.0;"/><path d="M29.2031,131.2988 L26.7656,131.2988 L26,128.5645 L22.2188,128.5645 L21.4531,131.2988 L19,131.2988 L22.6719,120.0957 L25.5313,120.0957 L29.2031,131.2988 Z M24.1094,121.6113 Q24.0313,121.9551 23.8594,122.6582 Q23.6875,123.3457 22.7344,126.7207 L25.4844,126.7207 Q24.5156,123.2988 24.3438,122.627 Q24.1719,121.9551 24.1094,121.6113 Z "/><text fill="#000000" font-family="sans-serif" font-size="14" font-style="italic" lengthAdjust="spacingAndGlyphs" textLength="146" x="38" y="126.1318">BoundFunctionSupport</text><text fill="#000000" font-family="sans-serif" font-size="10" font-style="italic" lengthAdjust="spacingAndGlyphs" textLength="129" x="46.5" y="138.4785">it.tidalwave.role.ui.function</text><rect fill="#FFFFFF" height="15.7988" style="stroke: #000000; stroke-width: 1.0; stroke-dasharray: 2.0,2.0;" width="198" x="192" y="105"/><text fill="#000000" font-family="sans-serif" font-size="12" font-style="italic" lengthAdjust="spacingAndGlyphs" textLength="196" x="193" y="117.2559">DOMAIN_TYPE, CODOMAIN_TYPE</text><line style="stroke: #A80036; stroke-width: 1.5;" x1="10" x2="386" y1="145.5977" y2="145.5977"/><ellipse cx="20" cy="156.5977" fill="#84BE84" rx="3" ry="3" style="stroke: #038048; stroke-width: 1.0;"/><text fill="#000000" font-family="sans-serif" font-size="11" lengthAdjust="spacingAndGlyphs" textLength="78" x="29" y="159.9155">unbindAll(): void</text><polygon fill="#FFFF44" points="20,164.2466,24,168.2466,20,172.2466,16,168.2466" style="stroke: #B38D22; stroke-width: 1.0;"/><text fill="#000000" font-family="sans-serif" font-size="11" lengthAdjust="spacingAndGlyphs" textLength="301" x="29" y="172.5645">fireValueChanged(CODOMAIN_TYPE, CODOMAIN_TYPE): void</text><polygon fill="#FFFF44" points="20,176.8955,24,180.8955,20,184.8955,16,180.8955" style="stroke: #B38D22; stroke-width: 1.0;"/><text fill="#000000" font-family="sans-serif" font-size="11" lengthAdjust="spacingAndGlyphs" textLength="203" x="29" y="185.2134">fireValueChanged(boolean, boolean): void</text></a><!--MD5=[74225100635efe70e475ded8b3e582dd]
class it.tidalwave.role.ui.function.BoundFunction--><a href="BoundFunction.html" target="_top" title="BoundFunction.html" xlink:actuate="onRequest" xlink:href="BoundFunction.html" xlink:show="new" xlink:title="BoundFunction.html" xlink:type="simple"><rect codeLine="11" fill="#FEFECE" filter="url(#f2xbmkz4u5d6z)" height="37.5977" id="it.tidalwave.role.ui.function.BoundFunction" style="stroke: #A80036; stroke-width: 1.5;" width="361" x="17.5" y="10"/><ellipse cx="32.5" cy="28.7988" fill="#B4A7E5" rx="11" ry="11" style="stroke: #A80036; stroke-width: 1.0;"/><path d="M28.7969,23.0957 L36.4063,23.0957 L36.4063,24.9863 L33.8281,24.9863 L33.8281,32.4082 L36.4063,32.4082 L36.4063,34.2988 L28.7969,34.2988 L28.7969,32.4082 L31.3906,32.4082 L31.3906,24.9863 L28.7969,24.9863 L28.7969,23.0957 Z "/><text fill="#000000" font-family="sans-serif" font-size="14" font-style="italic" lengthAdjust="spacingAndGlyphs" textLength="96" x="63" y="28.1318">BoundFunction</text><text fill="#000000" font-family="sans-serif" font-size="10" font-style="italic" lengthAdjust="spacingAndGlyphs" textLength="129" x="46.5" y="40.4785">it.tidalwave.role.ui.function</text><rect fill="#FFFFFF" height="15.7988" style="stroke: #000000; stroke-width: 1.0; stroke-dasharray: 2.0,2.0;" width="198" x="183.5" y="7"/><text fill="#000000" font-family="sans-serif" font-size="12" font-style="italic" lengthAdjust="spacingAndGlyphs" textLength="196" x="184.5" y="19.2559">DOMAIN_TYPE, CODOMAIN_TYPE</text></a><!--MD5=[7becbf77d2eae6c2d211cf7e03edf9f3]
reverse link it.tidalwave.role.ui.function.BoundFunction to it.tidalwave.role.ui.function.BoundFunctionSupport--><path codeLine="13" d="M198,68.54 C198,81.08 198,95.05 198,107.78 " fill="none" id="it.tidalwave.role.ui.function.BoundFunction-backto-it.tidalwave.role.ui.function.BoundFunctionSupport" style="stroke: #A80036; stroke-width: 1.0; stroke-dasharray: 7.0,7.0;"/><polygon fill="none" points="191,68.07,198,48.07,205,68.07,191,68.07" style="stroke: #A80036; stroke-width: 1.0;"/><text fill="#888888" font-family="sans-serif" font-size="10" lengthAdjust="spacingAndGlyphs" textLength="190" x="99" y="213.9243">UMLDoclet 2.0.12, PlantUML 1.2020.16</text><!--MD5=[29d8a00acd9e6ab46b7957b9d0554605]
@startuml
    set namespaceSeparator none
    hide empty fields
    hide empty methods

    abstract class "<size:14>BoundFunctionSupport\n<size:10>it.tidalwave.role.ui.function" as it.tidalwave.role.ui.function.BoundFunctionSupport<DOMAIN_TYPE, CODOMAIN_TYPE> [[BoundFunctionSupport.html]] {
        +unbindAll(): void
        #fireValueChanged(CODOMAIN_TYPE, CODOMAIN_TYPE): void
        #fireValueChanged(boolean, boolean): void
    }

    interface "<size:14>BoundFunction\n<size:10>it.tidalwave.role.ui.function" as it.tidalwave.role.ui.function.BoundFunction<DOMAIN_TYPE, CODOMAIN_TYPE> [[BoundFunction.html]]

    it.tidalwave.role.ui.function.BoundFunction <|.. it.tidalwave.role.ui.function.BoundFunctionSupport

    center footer UMLDoclet 2.0.12, PlantUML 1.2020.16
@enduml

PlantUML version 1.2020.16(Sun Aug 23 22:20:43 CEST 2020)
(APACHE source distribution)
Java Runtime: OpenJDK Runtime Environment
JVM: OpenJDK 64-Bit Server VM
Default Encoding: UTF-8
Language: en
Country: US
--></g></svg>