@startuml
    namespace it.tidalwave.role.ui.javafx {

        interface JavaFXBinder [[JavaFXBinder.html]] {
            {abstract} +setMainWindow(Window): void
            {abstract} +bind(ButtonBase, UserAction): void
            {abstract} +bind(MenuItem, UserAction): void
            {abstract} +bind(TableView<PresentationModel>, PresentationModel, Optional<Runnable>): void
            +bind(TableView<PresentationModel>, PresentationModel, Runnable): void
            +bind(TableView<PresentationModel>, PresentationModel): void
            {abstract} +bind(TreeView<PresentationModel>, PresentationModel, Optional<Runnable>): void
            +bind(TreeView<PresentationModel>, PresentationModel, Runnable): void
            +bind(TreeView<PresentationModel>, PresentationModel): void
            {abstract} +bind(TreeTableView<PresentationModel>, PresentationModel, Optional<Runnable>): void
            +bind(TreeTableView<PresentationModel>, PresentationModel, Runnable): void
            +bind(TreeTableView<PresentationModel>, PresentationModel): void
            {abstract} +bind(ListView<PresentationModel>, PresentationModel, Optional<Runnable>): void
            +bind(ListView<PresentationModel>, PresentationModel, Runnable): void
            +bind(ListView<PresentationModel>, PresentationModel): void
            {abstract} +bind(ComboBox<PresentationModel>, PresentationModel, Optional<Runnable>): void
            +bind(ComboBox<PresentationModel>, PresentationModel, Runnable): void
            +bind(ComboBox<PresentationModel>, PresentationModel): void
            {abstract} +bindToggleButtons(Pane, PresentationModel): void
            {abstract} +--bindButtonsInPane--(GridPane, Collection<UserAction>): void
            {abstract} +bindBidirectionally(Property<T>, BoundProperty<T>): void
            {abstract} +bindBidirectionally(TextField, BoundProperty<String>, BoundProperty<Boolean>): void
            {abstract} +showInModalDialog(UserNotificationWithFeedback, Optional<Node>): void
            +showInModalDialog(Node, UserNotificationWithFeedback, BoundProperty<Boolean>): void
            +--showInModalDialog--(Node, UserNotificationWithFeedback): void
            +showInModalDialog(UserNotificationWithFeedback): void
            {abstract} +openFileChooserFor(UserNotificationWithFeedback, BoundProperty<Path>): void
            {abstract} +openDirectoryChooserFor(UserNotificationWithFeedback, BoundProperty<Path>): void
        }

        class StackPaneSelector [[StackPaneSelector.html]] {
            +registerArea(String, StackPane): void
            +add(String, Node): void
            +setShownNode(Node): void
        }

        interface ApplicationPresentationAssembler<DELEGATE> [[ApplicationPresentationAssembler.html]] {
            {abstract} +assemble(DELEGATE): void
        }

        annotation Widget <<deprecated>> [[Widget.html]]

    }

    center footer UMLDoclet 2.0.12, PlantUML 1.2020.16
@enduml
