<?xml version="1.0" encoding="UTF-8" standalone="no"?><svg xmlns="http://www.w3.org/2000/svg" xmlns:xlink="http://www.w3.org/1999/xlink" contentScriptType="application/ecmascript" contentStyleType="text/css" height="135px" preserveAspectRatio="none" style="width:336px;height:135px;" version="1.1" viewBox="0 0 336 135" width="336px" zoomAndPan="magnify"><defs><filter height="300%" id="f1kk5nn4576qjn" width="300%" x="-1" y="-1"><feGaussianBlur result="blurOut" stdDeviation="2.0"/><feColorMatrix in="blurOut" result="blurOut2" type="matrix" values="0 0 0 0 0 0 0 0 0 0 0 0 0 0 0 0 0 0 .4 0"/><feOffset dx="4.0" dy="4.0" in="blurOut2" result="blurOut3"/><feBlend in="SourceGraphic" in2="blurOut3" mode="normal"/></filter></defs><g><!--MD5=[f4f1a59c644a5145b2a45bc92c2b3cea]
class it.tidalwave.role.ui.PresentationModelTest--><a href="PresentationModelTest.html" target="_top" title="PresentationModelTest.html" xlink:actuate="onRequest" xlink:href="PresentationModelTest.html" xlink:show="new" xlink:title="PresentationModelTest.html" xlink:type="simple"><rect codeLine="5" fill="#FEFECE" filter="url(#f1kk5nn4576qjn)" height="98.0859" id="it.tidalwave.role.ui.PresentationModelTest" style="stroke: #A80036; stroke-width: 1.5;" width="310" x="7" y="7"/><ellipse cx="79.25" cy="26.1328" fill="#ADD1B2" rx="11" ry="11" style="stroke: #A80036; stroke-width: 1.0;"/><path d="M81.7231,32.2759 Q81.1421,32.5747 80.5029,32.7241 Q79.8638,32.8735 79.1582,32.8735 Q76.6514,32.8735 75.3315,31.2217 Q74.0117,29.5698 74.0117,26.4487 Q74.0117,23.3193 75.3315,21.6675 Q76.6514,20.0156 79.1582,20.0156 Q79.8638,20.0156 80.5112,20.165 Q81.1587,20.3145 81.7231,20.6133 L81.7231,23.3359 Q81.0923,22.7549 80.4988,22.4851 Q79.9053,22.2153 79.2744,22.2153 Q77.9297,22.2153 77.2449,23.282 Q76.5601,24.3486 76.5601,26.4487 Q76.5601,28.5405 77.2449,29.6072 Q77.9297,30.6738 79.2744,30.6738 Q79.9053,30.6738 80.4988,30.4041 Q81.0923,30.1343 81.7231,29.5532 Z "/><text fill="#000000" font-family="sans-serif" font-size="14" lengthAdjust="spacingAndGlyphs" textLength="157" x="99.75" y="25.5352">PresentationModelTest</text><text fill="#000000" font-family="sans-serif" font-size="10" lengthAdjust="spacingAndGlyphs" textLength="91" x="132.75" y="38.1563">it.tidalwave.role.ui</text><line style="stroke: #A80036; stroke-width: 1.5;" x1="8" x2="316" y1="45.2656" y2="45.2656"/><ellipse cx="18" cy="56.2656" fill="#84BE84" rx="3" ry="3" style="stroke: #038048; stroke-width: 1.0;"/><text fill="#000000" font-family="sans-serif" font-size="11" lengthAdjust="spacingAndGlyphs" textLength="67" x="27" y="59.9004">setup(): void</text><ellipse cx="18" cy="69.2207" fill="#84BE84" rx="3" ry="3" style="stroke: #038048; stroke-width: 1.0;"/><text fill="#000000" font-family="sans-serif" font-size="11" lengthAdjust="spacingAndGlyphs" textLength="79" x="27" y="72.8555">cleanup(): void</text><ellipse cx="18" cy="82.1758" fill="#84BE84" rx="3" ry="3" style="stroke: #038048; stroke-width: 1.0;"/><text fill="#000000" font-family="sans-serif" font-size="11" lengthAdjust="spacingAndGlyphs" textLength="284" x="27" y="85.8105">test_ofMaybePresentable_without_Presentable(): void</text><ellipse cx="18" cy="95.1309" fill="#84BE84" rx="3" ry="3" style="stroke: #038048; stroke-width: 1.0;"/><text fill="#000000" font-family="sans-serif" font-size="11" lengthAdjust="spacingAndGlyphs" textLength="266" x="27" y="98.7656">test_ofMaybePresentable_with_Presentable(): void</text></a><text fill="#888888" font-family="sans-serif" font-size="10" lengthAdjust="spacingAndGlyphs" textLength="188" x="68" y="121.7539">UMLDoclet 2.0.12, PlantUML 1.2020.16</text><!--MD5=[ab13828e54a791e0cac8987dc1886c1c]
@startuml
    set namespaceSeparator none
    hide empty fields
    hide empty methods

    class "<size:14>PresentationModelTest\n<size:10>it.tidalwave.role.ui" as it.tidalwave.role.ui.PresentationModelTest [[PresentationModelTest.html]] {
        +setup(): void
        +cleanup(): void
        +test_ofMaybePresentable_without_Presentable(): void
        +test_ofMaybePresentable_with_Presentable(): void
    }

    center footer UMLDoclet 2.0.12, PlantUML 1.2020.16
@enduml

PlantUML version 1.2020.16(Sun Aug 23 22:20:43 CEST 2020)
(APACHE source distribution)
Java Runtime: OpenJDK Runtime Environment
JVM: OpenJDK 64-Bit Server VM
Default Encoding: UTF-8
Language: en
Country: GB
--></g></svg>