<?xml version="1.0" encoding="UTF-8" standalone="no"?><svg xmlns="http://www.w3.org/2000/svg" xmlns:xlink="http://www.w3.org/1999/xlink" contentScriptType="application/ecmascript" contentStyleType="text/css" height="358px" preserveAspectRatio="none" style="width:278px;height:358px;" version="1.1" viewBox="0 0 278 358" width="278px" zoomAndPan="magnify"><defs><filter height="300%" id="f1t994ayypku8" width="300%" x="-1" y="-1"><feGaussianBlur result="blurOut" stdDeviation="2.0"/><feColorMatrix in="blurOut" result="blurOut2" type="matrix" values="0 0 0 0 0 0 0 0 0 0 0 0 0 0 0 0 0 0 .4 0"/><feOffset dx="4.0" dy="4.0" in="blurOut2" result="blurOut3"/><feBlend in="SourceGraphic" in2="blurOut3" mode="normal"/></filter></defs><g><!--MD5=[6eea26b945e2dd14359b5ae933ea0137]
class it.tidalwave.northernwind.core.model.Media--><a href="Media.html" target="_top" title="Media.html" xlink:actuate="onRequest" xlink:href="Media.html" xlink:show="new" xlink:title="Media.html" xlink:type="simple"><rect codeLine="5" fill="#FEFECE" filter="url(#f1t994ayypku8)" height="59.2207" id="it.tidalwave.northernwind.core.model.Media" style="stroke: #A80036; stroke-width: 1.5;" width="214" x="26" y="165"/><ellipse cx="41" cy="184.1328" fill="#B4A7E5" rx="11" ry="11" style="stroke: #A80036; stroke-width: 1.0;"/><path d="M37.4277,180.3979 L37.4277,178.2397 L44.8071,178.2397 L44.8071,180.3979 L42.3418,180.3979 L42.3418,188.4746 L44.8071,188.4746 L44.8071,190.6328 L37.4277,190.6328 L37.4277,188.4746 L39.8931,188.4746 L39.8931,180.3979 Z "/><text fill="#000000" font-family="sans-serif" font-size="14" font-style="italic" lengthAdjust="spacingAndGlyphs" textLength="41" x="125.5" y="183.5352">Media</text><text fill="#000000" font-family="sans-serif" font-size="10" font-style="italic" lengthAdjust="spacingAndGlyphs" textLength="182" x="55" y="196.1563">it.tidalwave.northernwind.core.model</text><line style="stroke: #A80036; stroke-width: 1.5;" x1="27" x2="239" y1="203.2656" y2="203.2656"/><ellipse cx="37" cy="214.2656" fill="none" rx="3" ry="3" style="stroke: #038048; stroke-width: 1.0;"/><text fill="#000000" font-family="sans-serif" font-size="11" lengthAdjust="spacingAndGlyphs" text-decoration="underline" textLength="127" x="46" y="217.9004">_Media_: Class&lt;Media&gt;</text></a><!--MD5=[374916257ce7a9442248f59275f0e6dd]
class it.tidalwave.northernwind.core.model.Resource--><a href="Resource.html" target="_top" title="Resource.html" xlink:actuate="onRequest" xlink:href="Resource.html" xlink:show="new" xlink:title="Resource.html" xlink:type="simple"><rect codeLine="9" fill="#FEFECE" filter="url(#f1t994ayypku8)" height="98.0859" id="it.tidalwave.northernwind.core.model.Resource" style="stroke: #A80036; stroke-width: 1.5;" width="252" x="7" y="7"/><ellipse cx="39.1" cy="26.1328" fill="#B4A7E5" rx="11" ry="11" style="stroke: #A80036; stroke-width: 1.0;"/><path d="M35.5277,22.3979 L35.5277,20.2397 L42.9071,20.2397 L42.9071,22.3979 L40.4418,22.3979 L40.4418,30.4746 L42.9071,30.4746 L42.9071,32.6328 L35.5277,32.6328 L35.5277,30.4746 L37.9931,30.4746 L37.9931,22.3979 Z "/><text fill="#000000" font-family="sans-serif" font-size="14" font-style="italic" lengthAdjust="spacingAndGlyphs" textLength="63" x="116.4" y="25.5352">Resource</text><text fill="#000000" font-family="sans-serif" font-size="10" font-style="italic" lengthAdjust="spacingAndGlyphs" textLength="182" x="56.9" y="38.1563">it.tidalwave.northernwind.core.model</text><line style="stroke: #A80036; stroke-width: 1.5;" x1="8" x2="258" y1="45.2656" y2="45.2656"/><ellipse cx="18" cy="56.2656" fill="#84BE84" rx="3" ry="3" style="stroke: #038048; stroke-width: 1.0;"/><text fill="#000000" font-family="sans-serif" font-size="11" font-style="italic" lengthAdjust="spacingAndGlyphs" textLength="117" x="27" y="59.9004">getFile(): ResourceFile</text><ellipse cx="18" cy="69.2207" fill="#84BE84" rx="3" ry="3" style="stroke: #038048; stroke-width: 1.0;"/><text fill="#000000" font-family="sans-serif" font-size="11" font-style="italic" lengthAdjust="spacingAndGlyphs" textLength="191" x="27" y="72.8555">getProperties(): ResourceProperties</text><ellipse cx="18" cy="82.1758" fill="#84BE84" rx="3" ry="3" style="stroke: #038048; stroke-width: 1.0;"/><text fill="#000000" font-family="sans-serif" font-size="11" font-style="italic" lengthAdjust="spacingAndGlyphs" textLength="226" x="27" y="85.8105">getPropertyGroup(Id): ResourceProperties</text><ellipse cx="18" cy="95.1309" fill="#84BE84" rx="3" ry="3" style="stroke: #038048; stroke-width: 1.0;"/><text fill="#000000" font-family="sans-serif" font-size="11" font-style="italic" lengthAdjust="spacingAndGlyphs" textLength="129" x="27" y="98.7656">isPlaceHolder(): boolean</text></a><!--MD5=[d69bd093252d8ba5a1db9deffa0046a3]
class it.tidalwave.northernwind.core.model.Media.Builder--><a href="Media.Builder.html" target="_top" title="Media.Builder.html" xlink:actuate="onRequest" xlink:href="Media.Builder.html" xlink:show="new" xlink:title="Media.Builder.html" xlink:type="simple"><rect codeLine="15" fill="#FEFECE" filter="url(#f1t994ayypku8)" height="38.2656" id="it.tidalwave.northernwind.core.model.Media.Builder" style="stroke: #A80036; stroke-width: 1.5;" width="214" x="26" y="284"/><ellipse cx="41" cy="303.1328" fill="#ADD1B2" rx="11" ry="11" style="stroke: #A80036; stroke-width: 1.0;"/><path d="M43.4731,309.2759 Q42.8921,309.5747 42.2529,309.7241 Q41.6138,309.8735 40.9082,309.8735 Q38.4014,309.8735 37.0815,308.2217 Q35.7617,306.5698 35.7617,303.4487 Q35.7617,300.3193 37.0815,298.6675 Q38.4014,297.0156 40.9082,297.0156 Q41.6138,297.0156 42.2612,297.165 Q42.9087,297.3145 43.4731,297.6133 L43.4731,300.3359 Q42.8423,299.7549 42.2488,299.4851 Q41.6553,299.2153 41.0244,299.2153 Q39.6797,299.2153 38.9949,300.282 Q38.3101,301.3486 38.3101,303.4487 Q38.3101,305.5405 38.9949,306.6072 Q39.6797,307.6738 41.0244,307.6738 Q41.6553,307.6738 42.2488,307.4041 Q42.8423,307.1343 43.4731,306.5532 Z "/><text fill="#000000" font-family="sans-serif" font-size="14" lengthAdjust="spacingAndGlyphs" textLength="93" x="99.5" y="302.5352">Media.Builder</text><text fill="#000000" font-family="sans-serif" font-size="10" lengthAdjust="spacingAndGlyphs" textLength="182" x="55" y="315.1563">it.tidalwave.northernwind.core.model</text></a><!--MD5=[14e11193df6ac1c74eee57231909d767]
reverse link it.tidalwave.northernwind.core.model.Resource to it.tidalwave.northernwind.core.model.Media--><path codeLine="17" d="M133,125.3324 C133,139.2361 133,153.1353 133,164.7883 " fill="none" id="it.tidalwave.northernwind.core.model.Resource-backto-it.tidalwave.northernwind.core.model.Media" style="stroke: #A80036; stroke-width: 1.0;"/><polygon fill="none" points="126.0001,125.2199,133,105.2199,140.0001,125.2199,126.0001,125.2199" style="stroke: #A80036; stroke-width: 1.0;"/><!--MD5=[bd63338b06a9ae98cb3a7fbab4fb4671]
reverse link it.tidalwave.northernwind.core.model.Media to it.tidalwave.northernwind.core.model.Media.Builder--><path codeLine="18" d="M133,239.2183 C133,254.8526 133,271.5773 133,283.9766 " fill="none" id="it.tidalwave.northernwind.core.model.Media-backto-it.tidalwave.northernwind.core.model.Media.Builder" style="stroke: #A80036; stroke-width: 1.0;"/><ellipse cx="133" cy="232.1481" fill="#FFFFFF" rx="8" ry="8" style="stroke: #A80036; stroke-width: 1.0;"/><line style="stroke: #A80036; stroke-width: 1.0;" x1="133" x2="133" y1="240.1481" y2="224.1481"/><line style="stroke: #A80036; stroke-width: 1.0;" x1="125" x2="141" y1="232.1481" y2="232.1481"/><text fill="#888888" font-family="sans-serif" font-size="10" lengthAdjust="spacingAndGlyphs" textLength="188" x="36" y="344.9336">UMLDoclet 2.0.12, PlantUML 1.2020.16</text><!--MD5=[2958e07eee1218afb83e2df123b8d1a7]
@startuml
    set namespaceSeparator none
    hide empty fields
    hide empty methods

    interface "<size:14>Media\n<size:10>it.tidalwave.northernwind.core.model" as it.tidalwave.northernwind.core.model.Media [[Media.html]] {
        {static} +_Media_: Class<Media>
    }

    interface "<size:14>Resource\n<size:10>it.tidalwave.northernwind.core.model" as it.tidalwave.northernwind.core.model.Resource [[Resource.html]] {
        {abstract} +getFile(): ResourceFile
        {abstract} +getProperties(): ResourceProperties
        {abstract} +getPropertyGroup(Id): ResourceProperties
        {abstract} +isPlaceHolder(): boolean
    }
    class "<size:14>Media.Builder\n<size:10>it.tidalwave.northernwind.core.model" as it.tidalwave.northernwind.core.model.Media.Builder [[Media.Builder.html]]

    it.tidalwave.northernwind.core.model.Resource <|- - it.tidalwave.northernwind.core.model.Media
    it.tidalwave.northernwind.core.model.Media +- - it.tidalwave.northernwind.core.model.Media.Builder

    center footer UMLDoclet 2.0.12, PlantUML 1.2020.16
@enduml

PlantUML version 1.2020.16(Sun Aug 23 22:20:43 CEST 2020)
(APACHE source distribution)
Java Runtime: OpenJDK Runtime Environment
JVM: OpenJDK 64-Bit Server VM
Default Encoding: UTF-8
Language: en
Country: GB
--></g></svg>