@startuml
    set namespaceSeparator none
    hide empty fields
    hide empty methods

    interface "<size:14>ResourceProperties\n<size:10>it.tidalwave.northernwind.core.model" as it.tidalwave.northernwind.core.model.ResourceProperties [[ResourceProperties.html]] {
        {abstract} +getProperty(Key<? extends T>): Optional<T>
        +getProperty(List<? extends Key<T>>): Optional<T>
        {abstract} +getGroup(Id): ResourceProperties
        {abstract} +getKeys(): Collection<Key<?>>
        {abstract} +getGroupIds(): Collection<Id>
        {abstract} +withProperty(Key<T>, T): ResourceProperties
        {abstract} +withoutProperty(Key<?>): ResourceProperties
        {abstract} +withProperties(ResourceProperties): ResourceProperties
        {abstract} +merged(ResourceProperties): ResourceProperties
        {abstract} +withId(Id): ResourceProperties
    }

    interface "<size:14>As\n<size:10>it.tidalwave.util" as it.tidalwave.util.As {
        {abstract} +maybeAs(Class<? extends T>): Optional<T>
        {abstract} +asMany(Class<? extends T>): Collection<T>
    }
    interface "<size:14>Identifiable\n<size:10>it.tidalwave.role" as it.tidalwave.role.Identifiable {
        {abstract} +getId(): Id
    }
    class "<size:14>ResourceProperties.Builder\n<size:10>it.tidalwave.northernwind.core.model" as it.tidalwave.northernwind.core.model.ResourceProperties.Builder [[ResourceProperties.Builder.html]]
    interface "<size:14>ResourceProperties.PropertyResolver\n<size:10>it.tidalwave.northernwind.core.model" as it.tidalwave.northernwind.core.model.ResourceProperties.PropertyResolver [[ResourceProperties.PropertyResolver.html]]

    it.tidalwave.util.As <|-- it.tidalwave.northernwind.core.model.ResourceProperties
    it.tidalwave.role.Identifiable <|-- it.tidalwave.northernwind.core.model.ResourceProperties
    it.tidalwave.northernwind.core.model.ResourceProperties +-- it.tidalwave.northernwind.core.model.ResourceProperties.Builder
    it.tidalwave.northernwind.core.model.ResourceProperties +-- it.tidalwave.northernwind.core.model.ResourceProperties.PropertyResolver

    center footer UMLDoclet 2.0.12, PlantUML 1.2020.16
@enduml
