@startuml
    set namespaceSeparator none
    hide empty fields
    hide empty methods

    interface "<size:14>ResourceFile\n<size:10>it.tidalwave.northernwind.core.model" as it.tidalwave.northernwind.core.model.ResourceFile [[ResourceFile.html]] {
        {abstract} +getFileSystem(): ResourceFileSystem
        {abstract} +getName(): String
        {abstract} +getPath(): ResourcePath
        {abstract} +isFolder(): boolean
        {abstract} +isData(): boolean
        {abstract} +getMimeType(): String
        {abstract} +getInputStream(): InputStream
        {abstract} +asText(String): String
        {abstract} +asBytes(): byte[]
        {abstract} +getLatestModificationTime(): ZonedDateTime
        {abstract} +getParent(): ResourceFile
        {abstract} +toFile(): File
        {abstract} +delete(): void
        {abstract} +createFolder(String): ResourceFile
        {abstract} +copyTo(ResourceFile): void
    }

    interface "<size:14>As\n<size:10>it.tidalwave.util" as it.tidalwave.util.As {
        {abstract} +maybeAs(Class<? extends T>): Optional<T>
        {abstract} +asMany(Class<? extends T>): Collection<T>
    }
    interface "<size:14>Composite\n<size:10>it.tidalwave.role" as it.tidalwave.role.Composite<ResourceFile, Finder> {
        {abstract} +findChildren(): Finder
    }
    interface "<size:14>ResourceFile.Finder\n<size:10>it.tidalwave.northernwind.core.model" as it.tidalwave.northernwind.core.model.ResourceFile.Finder [[ResourceFile.Finder.html]]

    it.tidalwave.util.As <|-- it.tidalwave.northernwind.core.model.ResourceFile
    it.tidalwave.role.Composite <|-- it.tidalwave.northernwind.core.model.ResourceFile
    it.tidalwave.northernwind.core.model.ResourceFile +-- it.tidalwave.northernwind.core.model.ResourceFile.Finder

    center footer UMLDoclet 2.0.12, PlantUML 1.2020.16
@enduml
