@startuml
    set namespaceSeparator none
    hide empty fields
    hide empty methods

    interface "<size:14>Site\n<size:10>it.tidalwave.northernwind.core.model" as it.tidalwave.northernwind.core.model.Site [[Site.html]] {
        {abstract} +getContextPath(): String
        {abstract} +createLink(ResourcePath): String
        {abstract} +find(Class<TYPE>): SiteFinder<TYPE>
        {abstract} +getFileSystemProvider(): ResourceFileSystemProvider
        {abstract} +getConfiguredLocales(): List<Locale>
        {abstract} +getTemplate(Class<?>, Optional<? extends ResourcePath>, String): Template
        {abstract} +--getTemplate--(Class<?>, ResourcePath): Optional<String>
    }
    class "<size:14>Site.Builder\n<size:10>it.tidalwave.northernwind.core.model" as it.tidalwave.northernwind.core.model.Site.Builder [[Site.Builder.html]]

    it.tidalwave.northernwind.core.model.Site +-- it.tidalwave.northernwind.core.model.Site.Builder

    center footer UMLDoclet 2.0.12, PlantUML 1.2020.16
@enduml
