<?xml version="1.0" encoding="UTF-8" standalone="no"?><svg xmlns="http://www.w3.org/2000/svg" xmlns:xlink="http://www.w3.org/1999/xlink" contentScriptType="application/ecmascript" contentStyleType="text/css" height="221px" preserveAspectRatio="none" style="width:332px;height:221px;" version="1.1" viewBox="0 0 332 221" width="332px" zoomAndPan="magnify"><defs><filter height="300%" id="f171nz6grp5xk0" width="300%" x="-1" y="-1"><feGaussianBlur result="blurOut" stdDeviation="2.0"/><feColorMatrix in="blurOut" result="blurOut2" type="matrix" values="0 0 0 0 0 0 0 0 0 0 0 0 0 0 0 0 0 0 .4 0"/><feOffset dx="4.0" dy="4.0" in="blurOut2" result="blurOut3"/><feBlend in="SourceGraphic" in2="blurOut3" mode="normal"/></filter></defs><g><!--MD5=[a2e009d916bc3fd8b663162c1b691703]
class it.tidalwave.northernwind.frontend.filesystem.hg.impl.MercurialFileSystemProvider--><a href="MercurialFileSystemProvider.html" target="_top" title="MercurialFileSystemProvider.html" xlink:actuate="onRequest" xlink:href="MercurialFileSystemProvider.html" xlink:show="new" xlink:title="MercurialFileSystemProvider.html" xlink:type="simple"><rect codeLine="5" fill="#FEFECE" filter="url(#f171nz6grp5xk0)" height="59.2207" id="it.tidalwave.northernwind.frontend.filesystem.hg.impl.MercurialFileSystemProvider" style="stroke: #A80036; stroke-width: 1.5;" width="306" x="7" y="126"/><ellipse cx="27.4" cy="145.1328" fill="#ADD1B2" rx="11" ry="11" style="stroke: #A80036; stroke-width: 1.0;"/><path d="M29.8731,151.2759 Q29.2921,151.5747 28.6529,151.7241 Q28.0138,151.8735 27.3082,151.8735 Q24.8014,151.8735 23.4815,150.2217 Q22.1617,148.5698 22.1617,145.4487 Q22.1617,142.3193 23.4815,140.6675 Q24.8014,139.0156 27.3082,139.0156 Q28.0138,139.0156 28.6612,139.165 Q29.3087,139.3145 29.8731,139.6133 L29.8731,142.3359 Q29.2423,141.7549 28.6488,141.4851 Q28.0553,141.2153 27.4244,141.2153 Q26.0797,141.2153 25.3949,142.282 Q24.7101,143.3486 24.7101,145.4487 Q24.7101,147.5405 25.3949,148.6072 Q26.0797,149.6738 27.4244,149.6738 Q28.0553,149.6738 28.6488,149.4041 Q29.2423,149.1343 29.8731,148.5532 Z "/><text fill="#000000" font-family="sans-serif" font-size="14" lengthAdjust="spacingAndGlyphs" textLength="193" x="77.1" y="144.5352">MercurialFileSystemProvider</text><text fill="#000000" font-family="sans-serif" font-size="10" lengthAdjust="spacingAndGlyphs" textLength="262" x="42.6" y="157.1563">it.tidalwave.northernwind.frontend.filesystem.hg.impl</text><line style="stroke: #A80036; stroke-width: 1.5;" x1="8" x2="312" y1="164.2656" y2="164.2656"/><ellipse cx="18" cy="175.2656" fill="#84BE84" rx="3" ry="3" style="stroke: #038048; stroke-width: 1.0;"/><text fill="#000000" font-family="sans-serif" font-size="11" lengthAdjust="spacingAndGlyphs" textLength="280" x="27" y="178.9004">createWorkingDirectory(Path): ScmWorkingDirectory</text></a><!--MD5=[2011eb804317cbad9b1c01fde2ffff52]
class it.tidalwave.northernwind.frontend.filesystem.scm.spi.ScmFileSystemProvider--><a href="http://tidalwave.it/projects/northernwind/it-tidalwave-northernwind-modules/it-tidalwave-northernwind-filesystem/it-tidalwave-northernwind-core-filesystem-scm/apidocs/it/tidalwave/northernwind/frontend/filesystem/scm/spi/ScmFileSystemProvider.html?is-external=true" target="_top" title="http://tidalwave.it/projects/northernwind/it-tidalwave-northernwind-modules/it-tidalwave-northernwind-filesystem/it-tidalwave-northernwind-core-filesystem-scm/apidocs/it/tidalwave/northernwind/frontend/filesystem/scm/spi/ScmFileSystemProvider.html?is-external=true" xlink:actuate="onRequest" xlink:href="http://tidalwave.it/projects/northernwind/it-tidalwave-northernwind-modules/it-tidalwave-northernwind-filesystem/it-tidalwave-northernwind-core-filesystem-scm/apidocs/it/tidalwave/northernwind/frontend/filesystem/scm/spi/ScmFileSystemProvider.html?is-external=true" xlink:show="new" xlink:title="http://tidalwave.it/projects/northernwind/it-tidalwave-northernwind-modules/it-tidalwave-northernwind-filesystem/it-tidalwave-northernwind-core-filesystem-scm/apidocs/it/tidalwave/northernwind/frontend/filesystem/scm/spi/ScmFileSystemProvider.html?is-external=true" xlink:type="simple"><rect codeLine="9" fill="#FEFECE" filter="url(#f171nz6grp5xk0)" height="59.2207" id="it.tidalwave.northernwind.frontend.filesystem.scm.spi.ScmFileSystemProvider" style="stroke: #A80036; stroke-width: 1.5;" width="306" x="7" y="7"/><ellipse cx="27.4" cy="26.1328" fill="#A9DCDF" rx="11" ry="11" style="stroke: #A80036; stroke-width: 1.0;"/><path d="M27.2633,21.481 L26.1095,26.5527 L28.4254,26.5527 Z M25.7691,19.2397 L28.7657,19.2397 L32.1109,31.6328 L29.6622,31.6328 L28.8985,28.5698 L25.6197,28.5698 L24.8727,31.6328 L22.4239,31.6328 Z "/><text fill="#000000" font-family="sans-serif" font-size="14" font-style="italic" lengthAdjust="spacingAndGlyphs" textLength="157" x="95.1" y="25.5352">ScmFileSystemProvider</text><text fill="#000000" font-family="sans-serif" font-size="10" font-style="italic" lengthAdjust="spacingAndGlyphs" textLength="262" x="42.6" y="38.1563">it.tidalwave.northernwind.frontend.filesystem.scm.spi</text><line style="stroke: #A80036; stroke-width: 1.5;" x1="8" x2="312" y1="45.2656" y2="45.2656"/><ellipse cx="18" cy="56.2656" fill="#84BE84" rx="3" ry="3" style="stroke: #038048; stroke-width: 1.0;"/><text fill="#000000" font-family="sans-serif" font-size="11" font-style="italic" lengthAdjust="spacingAndGlyphs" textLength="280" x="27" y="59.9004">createWorkingDirectory(Path): ScmWorkingDirectory</text></a><!--MD5=[07ad2b544f823b828e1715e6735a0852]
reverse link it.tidalwave.northernwind.frontend.filesystem.scm.spi.ScmFileSystemProvider to it.tidalwave.northernwind.frontend.filesystem.hg.impl.MercurialFileSystemProvider--><path codeLine="13" d="M160,86.3288 C160,99.7348 160,113.8139 160,125.7447 " fill="none" id="it.tidalwave.northernwind.frontend.filesystem.scm.spi.ScmFileSystemProvider-backto-it.tidalwave.northernwind.frontend.filesystem.hg.impl.MercurialFileSystemProvider" style="stroke: #A80036; stroke-width: 1.0;"/><polygon fill="none" points="153.0001,86.2218,160,66.2218,167.0001,86.2217,153.0001,86.2218" style="stroke: #A80036; stroke-width: 1.0;"/><text fill="#888888" font-family="sans-serif" font-size="10" lengthAdjust="spacingAndGlyphs" textLength="188" x="63" y="207.8887">UMLDoclet 2.0.12, PlantUML 1.2020.16</text><!--MD5=[e50f77427b87ca28c0c7375797f989fb]
@startuml
    set namespaceSeparator none
    hide empty fields
    hide empty methods

    class "<size:14>MercurialFileSystemProvider\n<size:10>it.tidalwave.northernwind.frontend.filesystem.hg.impl" as it.tidalwave.northernwind.frontend.filesystem.hg.impl.MercurialFileSystemProvider [[MercurialFileSystemProvider.html]] {
        +createWorkingDirectory(Path): ScmWorkingDirectory
    }

    abstract class "<size:14>ScmFileSystemProvider\n<size:10>it.tidalwave.northernwind.frontend.filesystem.scm.spi" as it.tidalwave.northernwind.frontend.filesystem.scm.spi.ScmFileSystemProvider [[http://tidalwave.it/projects/northernwind/it-tidalwave-northernwind-modules/it-tidalwave-northernwind-filesystem/it-tidalwave-northernwind-core-filesystem-scm/apidocs/it/tidalwave/northernwind/frontend/filesystem/scm/spi/ScmFileSystemProvider.html?is-external=true]] {
        {abstract} +createWorkingDirectory(Path): ScmWorkingDirectory
    }

    it.tidalwave.northernwind.frontend.filesystem.scm.spi.ScmFileSystemProvider <|- - it.tidalwave.northernwind.frontend.filesystem.hg.impl.MercurialFileSystemProvider

    center footer UMLDoclet 2.0.12, PlantUML 1.2020.16
@enduml

PlantUML version 1.2020.16(Sun Aug 23 22:20:43 CEST 2020)
(APACHE source distribution)
Java Runtime: OpenJDK Runtime Environment
JVM: OpenJDK 64-Bit Server VM
Default Encoding: UTF-8
Language: en
Country: GB
--></g></svg>