<?xml version="1.0" encoding="UTF-8" standalone="no"?><svg xmlns="http://www.w3.org/2000/svg" xmlns:xlink="http://www.w3.org/1999/xlink" contentScriptType="application/ecmascript" contentStyleType="text/css" height="330px" preserveAspectRatio="none" style="width:598px;height:330px;" version="1.1" viewBox="0 0 598 330" width="598px" zoomAndPan="magnify"><defs><filter height="300%" id="f16zmcikfd8e9i" width="300%" x="-1" y="-1"><feGaussianBlur result="blurOut" stdDeviation="2.0"/><feColorMatrix in="blurOut" result="blurOut2" type="matrix" values="0 0 0 0 0 0 0 0 0 0 0 0 0 0 0 0 0 0 .4 0"/><feOffset dx="4.0" dy="4.0" in="blurOut2" result="blurOut3"/><feBlend in="SourceGraphic" in2="blurOut3" mode="normal"/></filter></defs><g><!--MD5=[1569f69d008112face90a7ebd2ca4433]
cluster it.tidalwave.northernwind.frontend.filesystem.hg.impl--><polygon fill="#FFFFFF" filter="url(#f16zmcikfd8e9i)" points="16,140,406,140,413,162.4883,576,162.4883,576,301,16,301,16,140" style="stroke: #000000; stroke-width: 1.5;"/><line style="stroke: #000000; stroke-width: 1.5;" x1="16" x2="413" y1="162.4883" y2="162.4883"/><text fill="#000000" font-family="sans-serif" font-size="14" font-weight="bold" lengthAdjust="spacingAndGlyphs" textLength="384" x="20" y="155.5352">it.tidalwave.northernwind.frontend.filesystem.hg.impl</text><!--MD5=[0bb7d8cfa186b0bdd0b6d75b9c2cde25]
cluster it.tidalwave.northernwind.frontend.filesystem.scm.spi--><polygon fill="#FFFFFF" filter="url(#f16zmcikfd8e9i)" points="17,6,407,6,414,28.4883,572,28.4883,572,115,17,115,17,6" style="stroke: #000000; stroke-width: 1.5;"/><line style="stroke: #000000; stroke-width: 1.5;" x1="17" x2="414" y1="28.4883" y2="28.4883"/><text fill="#000000" font-family="sans-serif" font-size="14" font-weight="bold" lengthAdjust="spacingAndGlyphs" textLength="384" x="21" y="21.5352">it.tidalwave.northernwind.frontend.filesystem.scm.spi</text><!--MD5=[ae6c0fd5a1e7eff3bcc33ff153da02c8]
class it.tidalwave.northernwind.frontend.filesystem.hg.impl.MercurialWorkingDirectory--><a href="MercurialWorkingDirectory.html" target="_top" title="MercurialWorkingDirectory.html" xlink:actuate="onRequest" xlink:href="MercurialWorkingDirectory.html" xlink:show="new" xlink:title="MercurialWorkingDirectory.html" xlink:type="simple"><rect codeLine="3" fill="#FEFECE" filter="url(#f16zmcikfd8e9i)" height="125.7305" id="it.tidalwave.northernwind.frontend.filesystem.hg.impl.MercurialWorkingDirectory" style="stroke: #A80036; stroke-width: 1.5;" width="203" x="365.5" y="167"/><ellipse cx="389.5" cy="183" fill="#ADD1B2" rx="11" ry="11" style="stroke: #A80036; stroke-width: 1.0;"/><path d="M391.9731,189.1431 Q391.3921,189.4419 390.7529,189.5913 Q390.1138,189.7407 389.4082,189.7407 Q386.9014,189.7407 385.5815,188.0889 Q384.2617,186.437 384.2617,183.3159 Q384.2617,180.1865 385.5815,178.5347 Q386.9014,176.8828 389.4082,176.8828 Q390.1138,176.8828 390.7612,177.0322 Q391.4087,177.1816 391.9731,177.4805 L391.9731,180.2031 Q391.3423,179.6221 390.7488,179.3523 Q390.1553,179.0825 389.5244,179.0825 Q388.1797,179.0825 387.4949,180.1492 Q386.8101,181.2158 386.8101,183.3159 Q386.8101,185.4077 387.4949,186.4744 Q388.1797,187.541 389.5244,187.541 Q390.1553,187.541 390.7488,187.2712 Q391.3423,187.0015 391.9731,186.4204 Z "/><text fill="#000000" font-family="sans-serif" font-size="12" lengthAdjust="spacingAndGlyphs" textLength="151" x="405.5" y="187.5352">MercurialWorkingDirectory</text><line style="stroke: #A80036; stroke-width: 1.5;" x1="366.5" x2="567.5" y1="199" y2="199"/><line style="stroke: #A80036; stroke-width: 1.5;" x1="366.5" x2="567.5" y1="207" y2="207"/><ellipse cx="376.5" cy="218" fill="#84BE84" rx="3" ry="3" style="stroke: #038048; stroke-width: 1.0;"/><text fill="#000000" font-family="sans-serif" font-size="11" lengthAdjust="spacingAndGlyphs" textLength="175" x="385.5" y="221.6348">MercurialWorkingDirectory(Path)</text><ellipse cx="376.5" cy="230.9551" fill="#84BE84" rx="3" ry="3" style="stroke: #038048; stroke-width: 1.0;"/><text fill="#000000" font-family="sans-serif" font-size="11" lengthAdjust="spacingAndGlyphs" textLength="177" x="385.5" y="234.5898">getCurrentTag(): Optional&lt;Tag&gt;</text><ellipse cx="376.5" cy="243.9102" fill="#84BE84" rx="3" ry="3" style="stroke: #038048; stroke-width: 1.0;"/><text fill="#000000" font-family="sans-serif" font-size="11" lengthAdjust="spacingAndGlyphs" textLength="125" x="385.5" y="247.5449">listTags(): List&lt;String&gt;</text><ellipse cx="376.5" cy="256.8652" fill="#84BE84" rx="3" ry="3" style="stroke: #038048; stroke-width: 1.0;"/><text fill="#000000" font-family="sans-serif" font-size="11" lengthAdjust="spacingAndGlyphs" textLength="112" x="385.5" y="260.5">cloneFrom(URI): void</text><ellipse cx="376.5" cy="269.8203" fill="#84BE84" rx="3" ry="3" style="stroke: #038048; stroke-width: 1.0;"/><text fill="#000000" font-family="sans-serif" font-size="11" lengthAdjust="spacingAndGlyphs" textLength="108" x="385.5" y="273.4551">checkOut(Tag): void</text><ellipse cx="376.5" cy="282.7754" fill="#84BE84" rx="3" ry="3" style="stroke: #038048; stroke-width: 1.0;"/><text fill="#000000" font-family="sans-serif" font-size="11" lengthAdjust="spacingAndGlyphs" textLength="127" x="385.5" y="286.4102">fetchChangesets(): void</text></a><!--MD5=[a2e009d916bc3fd8b663162c1b691703]
class it.tidalwave.northernwind.frontend.filesystem.hg.impl.MercurialFileSystemProvider--><a href="MercurialFileSystemProvider.html" target="_top" title="MercurialFileSystemProvider.html" xlink:actuate="onRequest" xlink:href="MercurialFileSystemProvider.html" xlink:show="new" xlink:title="MercurialFileSystemProvider.html" xlink:type="simple"><rect codeLine="12" fill="#FEFECE" filter="url(#f16zmcikfd8e9i)" height="60.9551" id="it.tidalwave.northernwind.frontend.filesystem.hg.impl.MercurialFileSystemProvider" style="stroke: #A80036; stroke-width: 1.5;" width="306" x="24" y="199.5"/><ellipse cx="92.75" cy="215.5" fill="#ADD1B2" rx="11" ry="11" style="stroke: #A80036; stroke-width: 1.0;"/><path d="M95.2231,221.6431 Q94.6421,221.9419 94.0029,222.0913 Q93.3638,222.2407 92.6582,222.2407 Q90.1514,222.2407 88.8315,220.5889 Q87.5117,218.937 87.5117,215.8159 Q87.5117,212.6865 88.8315,211.0347 Q90.1514,209.3828 92.6582,209.3828 Q93.3638,209.3828 94.0112,209.5322 Q94.6587,209.6816 95.2231,209.9805 L95.2231,212.7031 Q94.5923,212.1221 93.9988,211.8523 Q93.4053,211.5825 92.7744,211.5825 Q91.4297,211.5825 90.7449,212.6492 Q90.0601,213.7158 90.0601,215.8159 Q90.0601,217.9077 90.7449,218.9744 Q91.4297,220.041 92.7744,220.041 Q93.4053,220.041 93.9988,219.7712 Q94.5923,219.5015 95.2231,218.9204 Z "/><text fill="#000000" font-family="sans-serif" font-size="12" lengthAdjust="spacingAndGlyphs" textLength="160" x="113.25" y="220.0352">MercurialFileSystemProvider</text><line style="stroke: #A80036; stroke-width: 1.5;" x1="25" x2="329" y1="231.5" y2="231.5"/><line style="stroke: #A80036; stroke-width: 1.5;" x1="25" x2="329" y1="239.5" y2="239.5"/><ellipse cx="35" cy="250.5" fill="#84BE84" rx="3" ry="3" style="stroke: #038048; stroke-width: 1.0;"/><text fill="#000000" font-family="sans-serif" font-size="11" lengthAdjust="spacingAndGlyphs" textLength="280" x="44" y="254.1348">createWorkingDirectory(Path): ScmWorkingDirectory</text></a><!--MD5=[72973e6735430aa90bb52677edd59f6c]
class it.tidalwave.northernwind.frontend.filesystem.scm.spi.ScmWorkingDirectorySupport--><a href="http://tidalwave.it/projects/northernwind/it-tidalwave-northernwind-modules/it-tidalwave-northernwind-filesystem/it-tidalwave-northernwind-core-filesystem-scm/apidocs/it/tidalwave/northernwind/frontend/filesystem/scm/spi/ScmWorkingDirectorySupport.html?is-external=true" target="_top" title="http://tidalwave.it/projects/northernwind/it-tidalwave-northernwind-modules/it-tidalwave-northernwind-filesystem/it-tidalwave-northernwind-core-filesystem-scm/apidocs/it/tidalwave/northernwind/frontend/filesystem/scm/spi/ScmWorkingDirectorySupport.html?is-external=true" xlink:actuate="onRequest" xlink:href="http://tidalwave.it/projects/northernwind/it-tidalwave-northernwind-modules/it-tidalwave-northernwind-filesystem/it-tidalwave-northernwind-core-filesystem-scm/apidocs/it/tidalwave/northernwind/frontend/filesystem/scm/spi/ScmWorkingDirectorySupport.html?is-external=true" xlink:show="new" xlink:title="http://tidalwave.it/projects/northernwind/it-tidalwave-northernwind-modules/it-tidalwave-northernwind-filesystem/it-tidalwave-northernwind-core-filesystem-scm/apidocs/it/tidalwave/northernwind/frontend/filesystem/scm/spi/ScmWorkingDirectorySupport.html?is-external=true" xlink:type="simple"><rect codeLine="21" fill="#FEFECE" filter="url(#f16zmcikfd8e9i)" height="73.9102" id="it.tidalwave.northernwind.frontend.filesystem.scm.spi.ScmWorkingDirectorySupport" style="stroke: #A80036; stroke-width: 1.5;" width="198" x="366" y="33"/><ellipse cx="381" cy="49" fill="#A9DCDF" rx="11" ry="11" style="stroke: #A80036; stroke-width: 1.0;"/><path d="M380.8633,44.3481 L379.7095,49.4199 L382.0254,49.4199 Z M379.3691,42.1069 L382.3657,42.1069 L385.7109,54.5 L383.2622,54.5 L382.4985,51.437 L379.2197,51.437 L378.4727,54.5 L376.0239,54.5 Z "/><text fill="#000000" font-family="sans-serif" font-size="12" font-style="italic" lengthAdjust="spacingAndGlyphs" textLength="166" x="395" y="53.5352">ScmWorkingDirectorySupport</text><line style="stroke: #A80036; stroke-width: 1.5;" x1="367" x2="563" y1="65" y2="65"/><polygon fill="none" points="377,71,381,75,377,79,373,75" style="stroke: #B38D22; stroke-width: 1.0;"/><text fill="#000000" font-family="sans-serif" font-size="11" lengthAdjust="spacingAndGlyphs" textLength="61" x="386" y="79.6348">folder: Path</text><line style="stroke: #A80036; stroke-width: 1.5;" x1="367" x2="563" y1="85.9551" y2="85.9551"/><ellipse cx="377" cy="96.9551" fill="#84BE84" rx="3" ry="3" style="stroke: #038048; stroke-width: 1.0;"/><text fill="#000000" font-family="sans-serif" font-size="11" font-style="italic" lengthAdjust="spacingAndGlyphs" textLength="125" x="386" y="100.5898">listTags(): List&lt;String&gt;</text></a><!--MD5=[2011eb804317cbad9b1c01fde2ffff52]
class it.tidalwave.northernwind.frontend.filesystem.scm.spi.ScmFileSystemProvider--><a href="http://tidalwave.it/projects/northernwind/it-tidalwave-northernwind-modules/it-tidalwave-northernwind-filesystem/it-tidalwave-northernwind-core-filesystem-scm/apidocs/it/tidalwave/northernwind/frontend/filesystem/scm/spi/ScmFileSystemProvider.html?is-external=true" target="_top" title="http://tidalwave.it/projects/northernwind/it-tidalwave-northernwind-modules/it-tidalwave-northernwind-filesystem/it-tidalwave-northernwind-core-filesystem-scm/apidocs/it/tidalwave/northernwind/frontend/filesystem/scm/spi/ScmFileSystemProvider.html?is-external=true" xlink:actuate="onRequest" xlink:href="http://tidalwave.it/projects/northernwind/it-tidalwave-northernwind-modules/it-tidalwave-northernwind-filesystem/it-tidalwave-northernwind-core-filesystem-scm/apidocs/it/tidalwave/northernwind/frontend/filesystem/scm/spi/ScmFileSystemProvider.html?is-external=true" xlink:show="new" xlink:title="http://tidalwave.it/projects/northernwind/it-tidalwave-northernwind-modules/it-tidalwave-northernwind-filesystem/it-tidalwave-northernwind-core-filesystem-scm/apidocs/it/tidalwave/northernwind/frontend/filesystem/scm/spi/ScmFileSystemProvider.html?is-external=true" xlink:type="simple"><rect codeLine="25" fill="#FEFECE" filter="url(#f16zmcikfd8e9i)" height="60.9551" id="it.tidalwave.northernwind.frontend.filesystem.scm.spi.ScmFileSystemProvider" style="stroke: #A80036; stroke-width: 1.5;" width="306" x="25" y="39.5"/><ellipse cx="108.75" cy="55.5" fill="#A9DCDF" rx="11" ry="11" style="stroke: #A80036; stroke-width: 1.0;"/><path d="M108.6133,50.8481 L107.4595,55.9199 L109.7754,55.9199 Z M107.1191,48.6069 L110.1157,48.6069 L113.4609,61 L111.0122,61 L110.2485,57.937 L106.9697,57.937 L106.2227,61 L103.7739,61 Z "/><text fill="#000000" font-family="sans-serif" font-size="12" font-style="italic" lengthAdjust="spacingAndGlyphs" textLength="130" x="129.25" y="60.0352">ScmFileSystemProvider</text><line style="stroke: #A80036; stroke-width: 1.5;" x1="26" x2="330" y1="71.5" y2="71.5"/><line style="stroke: #A80036; stroke-width: 1.5;" x1="26" x2="330" y1="79.5" y2="79.5"/><ellipse cx="36" cy="90.5" fill="#84BE84" rx="3" ry="3" style="stroke: #038048; stroke-width: 1.0;"/><text fill="#000000" font-family="sans-serif" font-size="11" font-style="italic" lengthAdjust="spacingAndGlyphs" textLength="280" x="45" y="94.1348">createWorkingDirectory(Path): ScmWorkingDirectory</text></a><!--MD5=[2e271019378aa9c263a79008fbdf5ebb]
reverse link it.tidalwave.northernwind.frontend.filesystem.scm.spi.ScmWorkingDirectorySupport to it.tidalwave.northernwind.frontend.filesystem.hg.impl.MercurialWorkingDirectory--><path codeLine="16" d="M465.7189,127.5094 C465.8781,140.2468 466.0477,153.8122 466.2095,166.7638 " fill="none" id="it.tidalwave.northernwind.frontend.filesystem.scm.spi.ScmWorkingDirectorySupport-backto-it.tidalwave.northernwind.frontend.filesystem.hg.impl.MercurialWorkingDirectory" style="stroke: #A80036; stroke-width: 1.0;"/><polygon fill="none" points="458.7145,127.1953,465.4639,107.1094,472.7134,127.0203,458.7145,127.1953" style="stroke: #A80036; stroke-width: 1.0;"/><!--MD5=[07ad2b544f823b828e1715e6735a0852]
reverse link it.tidalwave.northernwind.frontend.filesystem.scm.spi.ScmFileSystemProvider to it.tidalwave.northernwind.frontend.filesystem.hg.impl.MercurialFileSystemProvider--><path codeLine="17" d="M177.6807,121.089 C177.5199,146.8083 177.3304,177.1339 177.1922,199.2451 " fill="none" id="it.tidalwave.northernwind.frontend.filesystem.scm.spi.ScmFileSystemProvider-backto-it.tidalwave.northernwind.frontend.filesystem.hg.impl.MercurialFileSystemProvider" style="stroke: #A80036; stroke-width: 1.0;"/><polygon fill="none" points="170.6822,120.8054,177.8072,100.8496,184.682,120.893,170.6822,120.8054" style="stroke: #A80036; stroke-width: 1.0;"/><text fill="#888888" font-family="sans-serif" font-size="10" lengthAdjust="spacingAndGlyphs" textLength="188" x="196" y="316.668">UMLDoclet 2.0.12, PlantUML 1.2020.16</text><!--MD5=[3c2d16c4e50411ca82dcfe9139d53677]
@startuml
    namespace it.tidalwave.northernwind.frontend.filesystem.hg.impl {

        class MercurialWorkingDirectory [[MercurialWorkingDirectory.html]] {
            +MercurialWorkingDirectory(Path)
            +getCurrentTag(): Optional<Tag>
            +listTags(): List<String>
            +cloneFrom(URI): void
            +checkOut(Tag): void
            +fetchChangesets(): void
        }

        class MercurialFileSystemProvider [[MercurialFileSystemProvider.html]] {
            +createWorkingDirectory(Path): ScmWorkingDirectory
        }

        it.tidalwave.northernwind.frontend.filesystem.scm.spi.ScmWorkingDirectorySupport <|- - MercurialWorkingDirectory
        it.tidalwave.northernwind.frontend.filesystem.scm.spi.ScmFileSystemProvider <|- - MercurialFileSystemProvider
    }

    namespace it.tidalwave.northernwind.frontend.filesystem.scm.spi {
        abstract class ScmWorkingDirectorySupport [[http://tidalwave.it/projects/northernwind/it-tidalwave-northernwind-modules/it-tidalwave-northernwind-filesystem/it-tidalwave-northernwind-core-filesystem-scm/apidocs/it/tidalwave/northernwind/frontend/filesystem/scm/spi/ScmWorkingDirectorySupport.html?is-external=true]] {
            #folder: Path
            {abstract} +listTags(): List<String>
        }
        abstract class ScmFileSystemProvider [[http://tidalwave.it/projects/northernwind/it-tidalwave-northernwind-modules/it-tidalwave-northernwind-filesystem/it-tidalwave-northernwind-core-filesystem-scm/apidocs/it/tidalwave/northernwind/frontend/filesystem/scm/spi/ScmFileSystemProvider.html?is-external=true]] {
            {abstract} +createWorkingDirectory(Path): ScmWorkingDirectory
        }
    }

    center footer UMLDoclet 2.0.12, PlantUML 1.2020.16
@enduml

PlantUML version 1.2020.16(Sun Aug 23 22:20:43 CEST 2020)
(APACHE source distribution)
Java Runtime: OpenJDK Runtime Environment
JVM: OpenJDK 64-Bit Server VM
Default Encoding: UTF-8
Language: en
Country: GB
--></g></svg>