<?xml version="1.0" encoding="UTF-8" standalone="no"?><svg xmlns="http://www.w3.org/2000/svg" xmlns:xlink="http://www.w3.org/1999/xlink" contentScriptType="application/ecmascript" contentStyleType="text/css" height="490px" preserveAspectRatio="none" style="width:1102px;height:490px;" version="1.1" viewBox="0 0 1102 490" width="1102px" zoomAndPan="magnify"><defs><filter height="300%" id="fkm3i1ppwukkp" width="300%" x="-1" y="-1"><feGaussianBlur result="blurOut" stdDeviation="2.0"/><feColorMatrix in="blurOut" result="blurOut2" type="matrix" values="0 0 0 0 0 0 0 0 0 0 0 0 0 0 0 0 0 0 .4 0"/><feOffset dx="4.0" dy="4.0" in="blurOut2" result="blurOut3"/><feBlend in="SourceGraphic" in2="blurOut3" mode="normal"/></filter></defs><g><!--MD5=[e0e43475089141cd5128789dd14bd65d]
cluster it.tidalwave.thesefoolishthings.examples.extendedfinderexample--><polygon fill="#FFFFFF" filter="url(#fkm3i1ppwukkp)" points="39,179,509,179,516,201.4883,1077,201.4883,1077,461,39,461,39,179" style="stroke: #000000; stroke-width: 1.5;"/><line style="stroke: #000000; stroke-width: 1.5;" x1="39" x2="516" y1="201.4883" y2="201.4883"/><text fill="#000000" font-family="sans-serif" font-size="14" font-weight="bold" lengthAdjust="spacingAndGlyphs" textLength="464" x="43" y="194.5352">it.tidalwave.thesefoolishthings.examples.extendedfinderexample</text><!--MD5=[6cb15a557222add35ea9c46dfab91b6b]
cluster it.tidalwave.util.spi--><polygon fill="#FFFFFF" filter="url(#fkm3i1ppwukkp)" points="16,6,158,6,165,28.4883,706,28.4883,706,154,16,154,16,6" style="stroke: #000000; stroke-width: 1.5;"/><line style="stroke: #000000; stroke-width: 1.5;" x1="16" x2="165" y1="28.4883" y2="28.4883"/><text fill="#000000" font-family="sans-serif" font-size="14" font-weight="bold" lengthAdjust="spacingAndGlyphs" textLength="136" x="20" y="21.5352">it.tidalwave.util.spi</text><!--MD5=[1547051af1b51f5c31de2792b793acb7]
cluster it.tidalwave.thesefoolishthings.examples.person--><polygon fill="#FFFFFF" filter="url(#fkm3i1ppwukkp)" points="719,25.5,1070,25.5,1077,47.9883,1080,47.9883,1080,134.5,719,134.5,719,25.5" style="stroke: #000000; stroke-width: 1.5;"/><line style="stroke: #000000; stroke-width: 1.5;" x1="719" x2="1077" y1="47.9883" y2="47.9883"/><text fill="#000000" font-family="sans-serif" font-size="14" font-weight="bold" lengthAdjust="spacingAndGlyphs" textLength="345" x="723" y="41.0352">it.tidalwave.thesefoolishthings.examples.person</text><!--MD5=[05290cbc8c896e5f0c2d47ead5b05859]
class it.tidalwave.thesefoolishthings.examples.extendedfinderexample.FinderExample2--><rect codeLine="3" fill="#FEFECE" filter="url(#fkm3i1ppwukkp)" height="60.9551" id="it.tidalwave.thesefoolishthings.examples.extendedfinderexample.FinderExample2" style="stroke: #A80036; stroke-width: 1.5;" width="130" x="939" y="212.5"/><ellipse cx="955.8" cy="228.5" fill="#ADD1B2" rx="11" ry="11" style="stroke: #A80036; stroke-width: 1.0;"/><path d="M958.2731,234.6431 Q957.6921,234.9419 957.0529,235.0913 Q956.4138,235.2407 955.7082,235.2407 Q953.2014,235.2407 951.8815,233.5889 Q950.5617,231.937 950.5617,228.8159 Q950.5617,225.6865 951.8815,224.0347 Q953.2014,222.3828 955.7082,222.3828 Q956.4138,222.3828 957.0612,222.5322 Q957.7087,222.6816 958.2731,222.9805 L958.2731,225.7031 Q957.6423,225.1221 957.0488,224.8523 Q956.4553,224.5825 955.8244,224.5825 Q954.4797,224.5825 953.7949,225.6492 Q953.1101,226.7158 953.1101,228.8159 Q953.1101,230.9077 953.7949,231.9744 Q954.4797,233.041 955.8244,233.041 Q956.4553,233.041 957.0488,232.7712 Q957.6423,232.5015 958.2731,231.9204 Z "/><text fill="#000000" font-family="sans-serif" font-size="12" lengthAdjust="spacingAndGlyphs" textLength="94" x="970.2" y="233.0352">FinderExample2</text><line style="stroke: #A80036; stroke-width: 1.5;" x1="940" x2="1068" y1="244.5" y2="244.5"/><line style="stroke: #A80036; stroke-width: 1.5;" x1="940" x2="1068" y1="252.5" y2="252.5"/><ellipse cx="950" cy="263.5" fill="#84BE84" rx="3" ry="3" style="stroke: #038048; stroke-width: 1.0;"/><text fill="#000000" font-family="sans-serif" font-size="11" lengthAdjust="spacingAndGlyphs" text-decoration="underline" textLength="104" x="959" y="267.1348">main(String...): void</text><!--MD5=[0210b4d25d333d3f2f932a81341b11b4]
class it.tidalwave.thesefoolishthings.examples.extendedfinderexample.PersonFinderImpl2a--><a href="PersonFinderImpl2a.html" target="_top" title="PersonFinderImpl2a.html" xlink:actuate="onRequest" xlink:href="PersonFinderImpl2a.html" xlink:show="new" xlink:title="PersonFinderImpl2a.html" xlink:type="simple"><rect codeLine="7" fill="#FEFECE" filter="url(#fkm3i1ppwukkp)" height="112.7754" id="it.tidalwave.thesefoolishthings.examples.extendedfinderexample.PersonFinderImpl2a" style="stroke: #A80036; stroke-width: 1.5;" width="289" x="46.5" y="340"/><ellipse cx="129.25" cy="356" fill="#ADD1B2" rx="11" ry="11" style="stroke: #A80036; stroke-width: 1.0;"/><path d="M131.7231,362.1431 Q131.1421,362.4419 130.5029,362.5913 Q129.8638,362.7407 129.1582,362.7407 Q126.6514,362.7407 125.3315,361.0889 Q124.0117,359.437 124.0117,356.3159 Q124.0117,353.1865 125.3315,351.5347 Q126.6514,349.8828 129.1582,349.8828 Q129.8638,349.8828 130.5112,350.0322 Q131.1587,350.1816 131.7231,350.4805 L131.7231,353.2031 Q131.0923,352.6221 130.4988,352.3523 Q129.9053,352.0825 129.2744,352.0825 Q127.9297,352.0825 127.2449,353.1492 Q126.5601,354.2158 126.5601,356.3159 Q126.5601,358.4077 127.2449,359.4744 Q127.9297,360.541 129.2744,360.541 Q129.9053,360.541 130.4988,360.2712 Q131.0923,360.0015 131.7231,359.4204 Z "/><text fill="#000000" font-family="sans-serif" font-size="12" lengthAdjust="spacingAndGlyphs" textLength="115" x="149.75" y="360.5352">PersonFinderImpl2a</text><line style="stroke: #A80036; stroke-width: 1.5;" x1="47.5" x2="334.5" y1="372" y2="372"/><line style="stroke: #A80036; stroke-width: 1.5;" x1="47.5" x2="334.5" y1="380" y2="380"/><ellipse cx="57.5" cy="391" fill="#84BE84" rx="3" ry="3" style="stroke: #038048; stroke-width: 1.0;"/><text fill="#000000" font-family="sans-serif" font-size="11" lengthAdjust="spacingAndGlyphs" textLength="189" x="66.5" y="394.6348">PersonFinderImpl2a(List&lt;Person&gt;)</text><ellipse cx="57.5" cy="403.9551" fill="#84BE84" rx="3" ry="3" style="stroke: #038048; stroke-width: 1.0;"/><text fill="#000000" font-family="sans-serif" font-size="11" lengthAdjust="spacingAndGlyphs" textLength="263" x="66.5" y="407.5898">PersonFinderImpl2a(PersonFinderImpl2a, Object)</text><ellipse cx="57.5" cy="416.9102" fill="#84BE84" rx="3" ry="3" style="stroke: #038048; stroke-width: 1.0;"/><text fill="#000000" font-family="sans-serif" font-size="11" lengthAdjust="spacingAndGlyphs" textLength="193" x="66.5" y="420.5449">withFirstName(String): PersonFinder</text><ellipse cx="57.5" cy="429.8652" fill="#84BE84" rx="3" ry="3" style="stroke: #038048; stroke-width: 1.0;"/><text fill="#000000" font-family="sans-serif" font-size="11" lengthAdjust="spacingAndGlyphs" textLength="191" x="66.5" y="433.5">withLastName(String): PersonFinder</text><polygon fill="#FFFF44" points="57.5,437.8203,61.5,441.8203,57.5,445.8203,53.5,441.8203" style="stroke: #B38D22; stroke-width: 1.0;"/><text fill="#000000" font-family="sans-serif" font-size="11" lengthAdjust="spacingAndGlyphs" textLength="174" x="66.5" y="446.4551">computeResults(): List&lt;Person&gt;</text></a><!--MD5=[af655893240d68fda8ccd8fca9e91cb9]
class it.tidalwave.thesefoolishthings.examples.extendedfinderexample.PersonFinder--><a href="PersonFinder.html" target="_top" title="PersonFinder.html" xlink:actuate="onRequest" xlink:href="PersonFinder.html" xlink:show="new" xlink:title="PersonFinder.html" xlink:type="simple"><rect codeLine="15" fill="#FEFECE" filter="url(#fkm3i1ppwukkp)" height="73.9102" id="it.tidalwave.thesefoolishthings.examples.extendedfinderexample.PersonFinder" style="stroke: #A80036; stroke-width: 1.5;" width="219" x="406.5" y="206"/><ellipse cx="474.25" cy="222" fill="#B4A7E5" rx="11" ry="11" style="stroke: #A80036; stroke-width: 1.0;"/><path d="M470.6777,218.2651 L470.6777,216.1069 L478.0571,216.1069 L478.0571,218.2651 L475.5918,218.2651 L475.5918,226.3418 L478.0571,226.3418 L478.0571,228.5 L470.6777,228.5 L470.6777,226.3418 L473.1431,226.3418 L473.1431,218.2651 Z "/><text fill="#000000" font-family="sans-serif" font-size="12" font-style="italic" lengthAdjust="spacingAndGlyphs" textLength="75" x="494.75" y="226.5352">PersonFinder</text><line style="stroke: #A80036; stroke-width: 1.5;" x1="407.5" x2="624.5" y1="238" y2="238"/><line style="stroke: #A80036; stroke-width: 1.5;" x1="407.5" x2="624.5" y1="246" y2="246"/><ellipse cx="417.5" cy="257" fill="#84BE84" rx="3" ry="3" style="stroke: #038048; stroke-width: 1.0;"/><text fill="#000000" font-family="sans-serif" font-size="11" font-style="italic" lengthAdjust="spacingAndGlyphs" textLength="193" x="426.5" y="260.6348">withFirstName(String): PersonFinder</text><ellipse cx="417.5" cy="269.9551" fill="#84BE84" rx="3" ry="3" style="stroke: #038048; stroke-width: 1.0;"/><text fill="#000000" font-family="sans-serif" font-size="11" font-style="italic" lengthAdjust="spacingAndGlyphs" textLength="191" x="426.5" y="273.5898">withLastName(String): PersonFinder</text></a><!--MD5=[f437b285e9c234b52cf5f7c476f0dc8e]
class it.tidalwave.thesefoolishthings.examples.extendedfinderexample.PersonRegistry2--><a href="PersonRegistry2.html" target="_top" title="PersonRegistry2.html" xlink:actuate="onRequest" xlink:href="PersonRegistry2.html" xlink:show="new" xlink:title="PersonRegistry2.html" xlink:type="simple"><rect codeLine="20" fill="#FEFECE" filter="url(#fkm3i1ppwukkp)" height="60.9551" id="it.tidalwave.thesefoolishthings.examples.extendedfinderexample.PersonRegistry2" style="stroke: #A80036; stroke-width: 1.5;" width="169" x="734.5" y="212.5"/><ellipse cx="769.3" cy="228.5" fill="#B4A7E5" rx="11" ry="11" style="stroke: #A80036; stroke-width: 1.0;"/><path d="M765.7277,224.7651 L765.7277,222.6069 L773.1071,222.6069 L773.1071,224.7651 L770.6418,224.7651 L770.6418,232.8418 L773.1071,232.8418 L773.1071,235 L765.7277,235 L765.7277,232.8418 L768.1931,232.8418 L768.1931,224.7651 Z "/><text fill="#000000" font-family="sans-serif" font-size="12" font-style="italic" lengthAdjust="spacingAndGlyphs" textLength="93" x="787.7" y="233.0352">PersonRegistry2</text><line style="stroke: #A80036; stroke-width: 1.5;" x1="735.5" x2="902.5" y1="244.5" y2="244.5"/><line style="stroke: #A80036; stroke-width: 1.5;" x1="735.5" x2="902.5" y1="252.5" y2="252.5"/><ellipse cx="745.5" cy="263.5" fill="#84BE84" rx="3" ry="3" style="stroke: #038048; stroke-width: 1.0;"/><text fill="#000000" font-family="sans-serif" font-size="11" font-style="italic" lengthAdjust="spacingAndGlyphs" textLength="143" x="754.5" y="267.1348">findPerson(): PersonFinder</text></a><!--MD5=[5f05fa2f29ab08ac2d6c65335ed3e3c7]
class it.tidalwave.thesefoolishthings.examples.extendedfinderexample.PersonFinderImpl2b--><a href="PersonFinderImpl2b.html" target="_top" title="PersonFinderImpl2b.html" xlink:actuate="onRequest" xlink:href="PersonFinderImpl2b.html" xlink:show="new" xlink:title="PersonFinderImpl2b.html" xlink:type="simple"><rect codeLine="24" fill="#FEFECE" filter="url(#fkm3i1ppwukkp)" height="112.7754" id="it.tidalwave.thesefoolishthings.examples.extendedfinderexample.PersonFinderImpl2b" style="stroke: #A80036; stroke-width: 1.5;" width="291" x="370.5" y="340"/><ellipse cx="453.75" cy="356" fill="#ADD1B2" rx="11" ry="11" style="stroke: #A80036; stroke-width: 1.0;"/><path d="M456.2231,362.1431 Q455.6421,362.4419 455.0029,362.5913 Q454.3638,362.7407 453.6582,362.7407 Q451.1514,362.7407 449.8315,361.0889 Q448.5117,359.437 448.5117,356.3159 Q448.5117,353.1865 449.8315,351.5347 Q451.1514,349.8828 453.6582,349.8828 Q454.3638,349.8828 455.0112,350.0322 Q455.6587,350.1816 456.2231,350.4805 L456.2231,353.2031 Q455.5923,352.6221 454.9988,352.3523 Q454.4053,352.0825 453.7744,352.0825 Q452.4297,352.0825 451.7449,353.1492 Q451.0601,354.2158 451.0601,356.3159 Q451.0601,358.4077 451.7449,359.4744 Q452.4297,360.541 453.7744,360.541 Q454.4053,360.541 454.9988,360.2712 Q455.5923,360.0015 456.2231,359.4204 Z "/><text fill="#000000" font-family="sans-serif" font-size="12" lengthAdjust="spacingAndGlyphs" textLength="116" x="474.25" y="360.5352">PersonFinderImpl2b</text><line style="stroke: #A80036; stroke-width: 1.5;" x1="371.5" x2="660.5" y1="372" y2="372"/><line style="stroke: #A80036; stroke-width: 1.5;" x1="371.5" x2="660.5" y1="380" y2="380"/><ellipse cx="381.5" cy="391" fill="#84BE84" rx="3" ry="3" style="stroke: #038048; stroke-width: 1.0;"/><text fill="#000000" font-family="sans-serif" font-size="11" lengthAdjust="spacingAndGlyphs" textLength="190" x="390.5" y="394.6348">PersonFinderImpl2b(List&lt;Person&gt;)</text><ellipse cx="381.5" cy="403.9551" fill="#84BE84" rx="3" ry="3" style="stroke: #038048; stroke-width: 1.0;"/><text fill="#000000" font-family="sans-serif" font-size="11" lengthAdjust="spacingAndGlyphs" textLength="265" x="390.5" y="407.5898">PersonFinderImpl2b(PersonFinderImpl2b, Object)</text><ellipse cx="381.5" cy="416.9102" fill="#84BE84" rx="3" ry="3" style="stroke: #038048; stroke-width: 1.0;"/><text fill="#000000" font-family="sans-serif" font-size="11" lengthAdjust="spacingAndGlyphs" textLength="193" x="390.5" y="420.5449">withFirstName(String): PersonFinder</text><ellipse cx="381.5" cy="429.8652" fill="#84BE84" rx="3" ry="3" style="stroke: #038048; stroke-width: 1.0;"/><text fill="#000000" font-family="sans-serif" font-size="11" lengthAdjust="spacingAndGlyphs" textLength="191" x="390.5" y="433.5">withLastName(String): PersonFinder</text><polygon fill="#FFFF44" points="381.5,437.8203,385.5,441.8203,381.5,445.8203,377.5,441.8203" style="stroke: #B38D22; stroke-width: 1.0;"/><text fill="#000000" font-family="sans-serif" font-size="11" lengthAdjust="spacingAndGlyphs" textLength="174" x="390.5" y="446.4551">computeResults(): List&lt;Person&gt;</text></a><!--MD5=[3b8102a7d972819dd4855c3176f90563]
class it.tidalwave.thesefoolishthings.examples.extendedfinderexample.PersonRegistryImpl2a--><a href="PersonRegistryImpl2a.html" target="_top" title="PersonRegistryImpl2a.html" xlink:actuate="onRequest" xlink:href="PersonRegistryImpl2a.html" xlink:show="new" xlink:title="PersonRegistryImpl2a.html" xlink:type="simple"><rect codeLine="32" fill="#FEFECE" filter="url(#fkm3i1ppwukkp)" height="73.9102" id="it.tidalwave.thesefoolishthings.examples.extendedfinderexample.PersonRegistryImpl2a" style="stroke: #A80036; stroke-width: 1.5;" width="169" x="696.5" y="359.5"/><ellipse cx="716.9" cy="375.5" fill="#ADD1B2" rx="11" ry="11" style="stroke: #A80036; stroke-width: 1.0;"/><path d="M719.3731,381.6431 Q718.7921,381.9419 718.1529,382.0913 Q717.5138,382.2407 716.8082,382.2407 Q714.3014,382.2407 712.9815,380.5889 Q711.6617,378.937 711.6617,375.8159 Q711.6617,372.6865 712.9815,371.0347 Q714.3014,369.3828 716.8082,369.3828 Q717.5138,369.3828 718.1612,369.5322 Q718.8087,369.6816 719.3731,369.9805 L719.3731,372.7031 Q718.7423,372.1221 718.1488,371.8523 Q717.5553,371.5825 716.9244,371.5825 Q715.5797,371.5825 714.8949,372.6492 Q714.2101,373.7158 714.2101,375.8159 Q714.2101,377.9077 714.8949,378.9744 Q715.5797,380.041 716.9244,380.041 Q717.5553,380.041 718.1488,379.7712 Q718.7423,379.5015 719.3731,378.9204 Z "/><text fill="#000000" font-family="sans-serif" font-size="12" lengthAdjust="spacingAndGlyphs" textLength="125" x="732.1" y="380.0352">PersonRegistryImpl2a</text><line style="stroke: #A80036; stroke-width: 1.5;" x1="697.5" x2="864.5" y1="391.5" y2="391.5"/><line style="stroke: #A80036; stroke-width: 1.5;" x1="697.5" x2="864.5" y1="399.5" y2="399.5"/><ellipse cx="707.5" cy="410.5" fill="#84BE84" rx="3" ry="3" style="stroke: #038048; stroke-width: 1.0;"/><text fill="#000000" font-family="sans-serif" font-size="11" lengthAdjust="spacingAndGlyphs" textLength="94" x="716.5" y="414.1348">add(Person): void</text><ellipse cx="707.5" cy="423.4551" fill="#84BE84" rx="3" ry="3" style="stroke: #038048; stroke-width: 1.0;"/><text fill="#000000" font-family="sans-serif" font-size="11" lengthAdjust="spacingAndGlyphs" textLength="143" x="716.5" y="427.0898">findPerson(): PersonFinder</text></a><!--MD5=[7fa900f3a2e42940d4279ec322a0b13b]
class it.tidalwave.thesefoolishthings.examples.extendedfinderexample.PersonRegistryImpl2b--><a href="PersonRegistryImpl2b.html" target="_top" title="PersonRegistryImpl2b.html" xlink:actuate="onRequest" xlink:href="PersonRegistryImpl2b.html" xlink:show="new" xlink:title="PersonRegistryImpl2b.html" xlink:type="simple"><rect codeLine="37" fill="#FEFECE" filter="url(#fkm3i1ppwukkp)" height="73.9102" id="it.tidalwave.thesefoolishthings.examples.extendedfinderexample.PersonRegistryImpl2b" style="stroke: #A80036; stroke-width: 1.5;" width="169" x="900.5" y="359.5"/><ellipse cx="920.45" cy="375.5" fill="#ADD1B2" rx="11" ry="11" style="stroke: #A80036; stroke-width: 1.0;"/><path d="M922.9231,381.6431 Q922.3421,381.9419 921.7029,382.0913 Q921.0638,382.2407 920.3582,382.2407 Q917.8514,382.2407 916.5315,380.5889 Q915.2117,378.937 915.2117,375.8159 Q915.2117,372.6865 916.5315,371.0347 Q917.8514,369.3828 920.3582,369.3828 Q921.0638,369.3828 921.7112,369.5322 Q922.3587,369.6816 922.9231,369.9805 L922.9231,372.7031 Q922.2923,372.1221 921.6988,371.8523 Q921.1053,371.5825 920.4744,371.5825 Q919.1297,371.5825 918.4449,372.6492 Q917.7601,373.7158 917.7601,375.8159 Q917.7601,377.9077 918.4449,378.9744 Q919.1297,380.041 920.4744,380.041 Q921.1053,380.041 921.6988,379.7712 Q922.2923,379.5015 922.9231,378.9204 Z "/><text fill="#000000" font-family="sans-serif" font-size="12" lengthAdjust="spacingAndGlyphs" textLength="126" x="935.55" y="380.0352">PersonRegistryImpl2b</text><line style="stroke: #A80036; stroke-width: 1.5;" x1="901.5" x2="1068.5" y1="391.5" y2="391.5"/><line style="stroke: #A80036; stroke-width: 1.5;" x1="901.5" x2="1068.5" y1="399.5" y2="399.5"/><ellipse cx="911.5" cy="410.5" fill="#84BE84" rx="3" ry="3" style="stroke: #038048; stroke-width: 1.0;"/><text fill="#000000" font-family="sans-serif" font-size="11" lengthAdjust="spacingAndGlyphs" textLength="94" x="920.5" y="414.1348">add(Person): void</text><ellipse cx="911.5" cy="423.4551" fill="#84BE84" rx="3" ry="3" style="stroke: #038048; stroke-width: 1.0;"/><text fill="#000000" font-family="sans-serif" font-size="11" lengthAdjust="spacingAndGlyphs" textLength="143" x="920.5" y="427.0898">findPerson(): PersonFinder</text></a><!--MD5=[d63e98a45e8384519e3fc4fd1371e7a4]
class it.tidalwave.util.spi.HierarchicFinderSupport--><a href="../../../util/spi/HierarchicFinderSupport.html" target="_top" title="../../../util/spi/HierarchicFinderSupport.html" xlink:actuate="onRequest" xlink:href="../../../util/spi/HierarchicFinderSupport.html" xlink:show="new" xlink:title="../../../util/spi/HierarchicFinderSupport.html" xlink:type="simple"><rect codeLine="53" fill="#FEFECE" filter="url(#fkm3i1ppwukkp)" height="73.9102" id="it.tidalwave.util.spi.HierarchicFinderSupport" style="stroke: #A80036; stroke-width: 1.5;" width="315" x="24.5" y="52.5"/><ellipse cx="39.5" cy="68.5" fill="#ADD1B2" rx="11" ry="11" style="stroke: #A80036; stroke-width: 1.0;"/><path d="M41.9731,74.6431 Q41.3921,74.9419 40.7529,75.0913 Q40.1138,75.2407 39.4082,75.2407 Q36.9014,75.2407 35.5815,73.5889 Q34.2617,71.937 34.2617,68.8159 Q34.2617,65.6865 35.5815,64.0347 Q36.9014,62.3828 39.4082,62.3828 Q40.1138,62.3828 40.7612,62.5322 Q41.4087,62.6816 41.9731,62.9805 L41.9731,65.7031 Q41.3423,65.1221 40.7488,64.8523 Q40.1553,64.5825 39.5244,64.5825 Q38.1797,64.5825 37.4949,65.6492 Q36.8101,66.7158 36.8101,68.8159 Q36.8101,70.9077 37.4949,71.9744 Q38.1797,73.041 39.5244,73.041 Q40.1553,73.041 40.7488,72.7712 Q41.3423,72.5015 41.9731,71.9204 Z "/><text fill="#000000" font-family="sans-serif" font-size="12" lengthAdjust="spacingAndGlyphs" textLength="139" x="53.5" y="73.0352">HierarchicFinderSupport</text><rect fill="#FFFFFF" height="16.1328" style="stroke: #000000; stroke-width: 1.0; stroke-dasharray: 2.0,2.0;" width="142" x="200.5" y="49.5"/><text fill="#000000" font-family="sans-serif" font-size="12" font-style="italic" lengthAdjust="spacingAndGlyphs" textLength="140" x="201.5" y="62.1016">T, F extends Finder&lt;T&gt;</text><line style="stroke: #A80036; stroke-width: 1.5;" x1="25.5" x2="338.5" y1="84.5" y2="84.5"/><polygon fill="none" points="35.5,90.5,39.5,94.5,35.5,98.5,31.5,94.5" style="stroke: #B38D22; stroke-width: 1.0;"/><text fill="#000000" font-family="sans-serif" font-size="11" lengthAdjust="spacingAndGlyphs" textLength="75" x="44.5" y="99.1348">firstResult: int</text><polygon fill="none" points="35.5,103.4551,39.5,107.4551,35.5,111.4551,31.5,107.4551" style="stroke: #B38D22; stroke-width: 1.0;"/><text fill="#000000" font-family="sans-serif" font-size="11" lengthAdjust="spacingAndGlyphs" textLength="82" x="44.5" y="112.0898">maxResults: int</text><line style="stroke: #A80036; stroke-width: 1.5;" x1="25.5" x2="338.5" y1="118.4102" y2="118.4102"/></a><!--MD5=[aa1b61d3a274306ac3e9ee0851baf807]
class it.tidalwave.util.spi.ExtendedFinderSupport--><a href="../../../util/spi/ExtendedFinderSupport.html" target="_top" title="../../../util/spi/ExtendedFinderSupport.html" xlink:actuate="onRequest" xlink:href="../../../util/spi/ExtendedFinderSupport.html" xlink:show="new" xlink:title="../../../util/spi/ExtendedFinderSupport.html" xlink:type="simple"><rect codeLine="57" fill="#FEFECE" filter="url(#fkm3i1ppwukkp)" height="112.7754" id="it.tidalwave.util.spi.ExtendedFinderSupport" style="stroke: #A80036; stroke-width: 1.5;" width="323" x="374.5" y="33"/><ellipse cx="394.45" cy="49" fill="#B4A7E5" rx="11" ry="11" style="stroke: #A80036; stroke-width: 1.0;"/><path d="M390.8777,45.2651 L390.8777,43.1069 L398.2571,43.1069 L398.2571,45.2651 L395.7918,45.2651 L395.7918,53.3418 L398.2571,53.3418 L398.2571,55.5 L390.8777,55.5 L390.8777,53.3418 L393.3431,53.3418 L393.3431,45.2651 Z "/><text fill="#000000" font-family="sans-serif" font-size="12" font-style="italic" lengthAdjust="spacingAndGlyphs" textLength="136" x="409.55" y="53.5352">ExtendedFinderSupport</text><rect fill="#FFFFFF" height="16.1328" style="stroke: #000000; stroke-width: 1.0; stroke-dasharray: 2.0,2.0;" width="142" x="558.5" y="30"/><text fill="#000000" font-family="sans-serif" font-size="12" font-style="italic" lengthAdjust="spacingAndGlyphs" textLength="140" x="559.5" y="42.6016">T, F extends Finder&lt;T&gt;</text><line style="stroke: #A80036; stroke-width: 1.5;" x1="375.5" x2="696.5" y1="65" y2="65"/><line style="stroke: #A80036; stroke-width: 1.5;" x1="375.5" x2="696.5" y1="73" y2="73"/><ellipse cx="385.5" cy="84" fill="#84BE84" rx="3" ry="3" style="stroke: #038048; stroke-width: 1.0;"/><text fill="#000000" font-family="sans-serif" font-size="11" font-style="italic" lengthAdjust="spacingAndGlyphs" textLength="168" x="394.5" y="87.6348">from(int): F extends Finder&lt;T&gt;</text><ellipse cx="385.5" cy="96.9551" fill="#84BE84" rx="3" ry="3" style="stroke: #038048; stroke-width: 1.0;"/><text fill="#000000" font-family="sans-serif" font-size="11" font-style="italic" lengthAdjust="spacingAndGlyphs" textLength="165" x="394.5" y="100.5898">max(int): F extends Finder&lt;T&gt;</text><ellipse cx="385.5" cy="109.9102" fill="#84BE84" rx="3" ry="3" style="stroke: #038048; stroke-width: 1.0;"/><text fill="#000000" font-family="sans-serif" font-size="11" font-style="italic" lengthAdjust="spacingAndGlyphs" textLength="220" x="394.5" y="113.5449">sort(SortCriterion): F extends Finder&lt;T&gt;</text><ellipse cx="385.5" cy="122.8652" fill="#84BE84" rx="3" ry="3" style="stroke: #038048; stroke-width: 1.0;"/><text fill="#000000" font-family="sans-serif" font-size="11" font-style="italic" lengthAdjust="spacingAndGlyphs" textLength="297" x="394.5" y="126.5">sort(SortCriterion, SortDirection): F extends Finder&lt;T&gt;</text><ellipse cx="385.5" cy="135.8203" fill="#84BE84" rx="3" ry="3" style="stroke: #038048; stroke-width: 1.0;"/><text fill="#000000" font-family="sans-serif" font-size="11" font-style="italic" lengthAdjust="spacingAndGlyphs" textLength="228" x="394.5" y="139.4551">withContext(Object): F extends Finder&lt;T&gt;</text></a><!--MD5=[a24178fb498e0bff7cc0053c0892f6a5]
class it.tidalwave.thesefoolishthings.examples.person.PersonRegistry--><a href="../person/PersonRegistry.html" target="_top" title="../person/PersonRegistry.html" xlink:actuate="onRequest" xlink:href="../person/PersonRegistry.html" xlink:show="new" xlink:title="../person/PersonRegistry.html" xlink:type="simple"><rect codeLine="67" fill="#FEFECE" filter="url(#fkm3i1ppwukkp)" height="73.9102" id="it.tidalwave.thesefoolishthings.examples.person.PersonRegistry" style="stroke: #A80036; stroke-width: 1.5;" width="187" x="732.5" y="52.5"/><ellipse cx="779.25" cy="68.5" fill="#B4A7E5" rx="11" ry="11" style="stroke: #A80036; stroke-width: 1.0;"/><path d="M775.6777,64.7651 L775.6777,62.6069 L783.0571,62.6069 L783.0571,64.7651 L780.5918,64.7651 L780.5918,72.8418 L783.0571,72.8418 L783.0571,75 L775.6777,75 L775.6777,72.8418 L778.1431,72.8418 L778.1431,64.7651 Z "/><text fill="#000000" font-family="sans-serif" font-size="12" font-style="italic" lengthAdjust="spacingAndGlyphs" textLength="85" x="799.75" y="73.0352">PersonRegistry</text><line style="stroke: #A80036; stroke-width: 1.5;" x1="733.5" x2="918.5" y1="84.5" y2="84.5"/><line style="stroke: #A80036; stroke-width: 1.5;" x1="733.5" x2="918.5" y1="92.5" y2="92.5"/><ellipse cx="743.5" cy="103.5" fill="#84BE84" rx="3" ry="3" style="stroke: #038048; stroke-width: 1.0;"/><text fill="#000000" font-family="sans-serif" font-size="11" font-style="italic" lengthAdjust="spacingAndGlyphs" textLength="161" x="752.5" y="107.1348">findPerson(): Finder&lt;Person&gt;</text><ellipse cx="743.5" cy="116.4551" fill="#84BE84" rx="3" ry="3" style="stroke: #038048; stroke-width: 1.0;"/><text fill="#000000" font-family="sans-serif" font-size="11" font-style="italic" lengthAdjust="spacingAndGlyphs" textLength="94" x="752.5" y="120.0898">add(Person): void</text></a><!--MD5=[8f8d77334c7148dc88f430afa48b5537]
reverse link it.tidalwave.util.spi.HierarchicFinderSupport to it.tidalwave.thesefoolishthings.examples.extendedfinderexample.PersonFinderImpl2a--><path codeLine="42" d="M183.6719,146.5312 C185.2884,201.6706 187.7235,284.7363 189.337,339.7728 " fill="none" id="it.tidalwave.util.spi.HierarchicFinderSupport-backto-it.tidalwave.thesefoolishthings.examples.extendedfinderexample.PersonFinderImpl2a" style="stroke: #A80036; stroke-width: 1.0;"/><polygon fill="none" points="176.6748,146.7279,183.0856,126.5314,190.6688,146.3176,176.6748,146.7279" style="stroke: #A80036; stroke-width: 1.0;"/><!--MD5=[251280ddf1f375e62c9d6d212fd5d53c]
reverse link it.tidalwave.thesefoolishthings.examples.extendedfinderexample.PersonFinder to it.tidalwave.thesefoolishthings.examples.extendedfinderexample.PersonFinderImpl2a--><path codeLine="43" d="M418.9712,288.8275 C384.9964,304.874 346.4366,323.0861 310.8208,339.9077 " fill="none" id="it.tidalwave.thesefoolishthings.examples.extendedfinderexample.PersonFinder-backto-it.tidalwave.thesefoolishthings.examples.extendedfinderexample.PersonFinderImpl2a" style="stroke: #A80036; stroke-width: 1.0; stroke-dasharray: 7.0,7.0;"/><polygon fill="none" points="416.2527,282.37,437.3266,280.1581,422.2317,295.029,416.2527,282.37" style="stroke: #A80036; stroke-width: 1.0;"/><!--MD5=[2b5035d90ddfb7d811a81bdbd7e0a002]
reverse link it.tidalwave.util.spi.ExtendedFinderSupport to it.tidalwave.thesefoolishthings.examples.extendedfinderexample.PersonFinder--><path codeLine="44" d="M526.0145,166.139 C524.2247,179.8757 522.4343,193.6171 520.8726,205.6031 " fill="none" id="it.tidalwave.util.spi.ExtendedFinderSupport-backto-it.tidalwave.thesefoolishthings.examples.extendedfinderexample.PersonFinder" style="stroke: #A80036; stroke-width: 1.0;"/><polygon fill="none" points="519.0841,165.1495,528.6096,146.2216,532.9668,166.9584,519.0841,165.1495" style="stroke: #A80036; stroke-width: 1.0;"/><!--MD5=[25e32a4d8ef4400a9fb1e160a709a56d]
reverse link it.tidalwave.thesefoolishthings.examples.person.PersonRegistry to it.tidalwave.thesefoolishthings.examples.extendedfinderexample.PersonRegistry2--><path codeLine="45" d="M823.379,146.9743 C822.3666,169.1757 821.2492,193.678 820.3966,212.3749 " fill="none" id="it.tidalwave.thesefoolishthings.examples.person.PersonRegistry-backto-it.tidalwave.thesefoolishthings.examples.extendedfinderexample.PersonRegistry2" style="stroke: #A80036; stroke-width: 1.0;"/><polygon fill="none" points="816.4016,146.3184,824.3055,126.6581,830.387,146.9562,816.4016,146.3184" style="stroke: #A80036; stroke-width: 1.0;"/><!--MD5=[004f8b727ddad71f6a922015162c6f8b]
reverse link it.tidalwave.util.spi.HierarchicFinderSupport to it.tidalwave.thesefoolishthings.examples.extendedfinderexample.PersonFinderImpl2b--><path codeLine="46" d="M237.2623,140.402 C278.9462,178.786 337.544,232.7219 389,280 C410.2612,299.5349 433.5393,320.8962 454.2928,339.9312 " fill="none" id="it.tidalwave.util.spi.HierarchicFinderSupport-backto-it.tidalwave.thesefoolishthings.examples.extendedfinderexample.PersonFinderImpl2b" style="stroke: #A80036; stroke-width: 1.0;"/><polygon fill="none" points="232.4103,145.4498,222.4402,126.7522,241.8941,135.1513,232.4103,145.4498" style="stroke: #A80036; stroke-width: 1.0;"/><!--MD5=[64c532e3ca0f1463a21fd34d9a246e95]
reverse link it.tidalwave.thesefoolishthings.examples.extendedfinderexample.PersonFinder to it.tidalwave.thesefoolishthings.examples.extendedfinderexample.PersonFinderImpl2b--><path codeLine="47" d="M516,300.2749 C516,313.231 516,326.98 516,339.9077 " fill="none" id="it.tidalwave.thesefoolishthings.examples.extendedfinderexample.PersonFinder-backto-it.tidalwave.thesefoolishthings.examples.extendedfinderexample.PersonFinderImpl2b" style="stroke: #A80036; stroke-width: 1.0; stroke-dasharray: 7.0,7.0;"/><polygon fill="none" points="509.0001,300.1581,516,280.1581,523.0001,300.158,509.0001,300.1581" style="stroke: #A80036; stroke-width: 1.0;"/><!--MD5=[560d94d3ba62cac774b30d16c40399c2]
reverse link it.tidalwave.thesefoolishthings.examples.extendedfinderexample.PersonRegistry2 to it.tidalwave.thesefoolishthings.examples.extendedfinderexample.PersonRegistryImpl2a--><path codeLine="48" d="M806.5902,293.1292 C801.2505,314.6988 795.1181,339.4702 790.1953,359.3557 " fill="none" id="it.tidalwave.thesefoolishthings.examples.extendedfinderexample.PersonRegistry2-backto-it.tidalwave.thesefoolishthings.examples.extendedfinderexample.PersonRegistryImpl2a" style="stroke: #A80036; stroke-width: 1.0; stroke-dasharray: 7.0,7.0;"/><polygon fill="none" points="799.8004,291.4259,811.4015,273.6941,813.3902,294.7902,799.8004,291.4259" style="stroke: #A80036; stroke-width: 1.0;"/><!--MD5=[231b1734999c0c01b4459540f4c1a48b]
reverse link it.tidalwave.thesefoolishthings.examples.extendedfinderexample.PersonRegistry2 to it.tidalwave.thesefoolishthings.examples.extendedfinderexample.PersonRegistryImpl2b--><path codeLine="49" d="M867.1649,287.538 C891.8019,310.3199 921.4417,337.7277 944.8309,359.3557 " fill="none" id="it.tidalwave.thesefoolishthings.examples.extendedfinderexample.PersonRegistry2-backto-it.tidalwave.thesefoolishthings.examples.extendedfinderexample.PersonRegistryImpl2b" style="stroke: #A80036; stroke-width: 1.0; stroke-dasharray: 7.0,7.0;"/><polygon fill="none" points="862.1254,292.4121,852.1936,273.6941,871.6303,282.1331,862.1254,292.4121" style="stroke: #A80036; stroke-width: 1.0;"/><text fill="#888888" font-family="sans-serif" font-size="10" lengthAdjust="spacingAndGlyphs" textLength="188" x="448" y="476.668">UMLDoclet 2.0.12, PlantUML 1.2020.16</text><!--MD5=[b97c5dbf2a4fde86b842d3233fb14a8f]
@startuml
    namespace it.tidalwave.thesefoolishthings.examples.extendedfinderexample {

        class FinderExample2 {
            {static} +main(String...): void
        }

        class PersonFinderImpl2a [[PersonFinderImpl2a.html]] {
            +PersonFinderImpl2a(List<Person>)
            +PersonFinderImpl2a(PersonFinderImpl2a, Object)
            +withFirstName(String): PersonFinder
            +withLastName(String): PersonFinder
            #computeResults(): List<Person>
        }

        interface PersonFinder [[PersonFinder.html]] {
            {abstract} +withFirstName(String): PersonFinder
            {abstract} +withLastName(String): PersonFinder
        }

        interface PersonRegistry2 [[PersonRegistry2.html]] {
            {abstract} +findPerson(): PersonFinder
        }

        class PersonFinderImpl2b [[PersonFinderImpl2b.html]] {
            +PersonFinderImpl2b(List<Person>)
            +PersonFinderImpl2b(PersonFinderImpl2b, Object)
            +withFirstName(String): PersonFinder
            +withLastName(String): PersonFinder
            #computeResults(): List<Person>
        }

        class PersonRegistryImpl2a [[PersonRegistryImpl2a.html]] {
            +add(Person): void
            +findPerson(): PersonFinder
        }

        class PersonRegistryImpl2b [[PersonRegistryImpl2b.html]] {
            +add(Person): void
            +findPerson(): PersonFinder
        }

        it.tidalwave.util.spi.HierarchicFinderSupport <|- - PersonFinderImpl2a
        PersonFinder <|.. PersonFinderImpl2a
        it.tidalwave.util.spi.ExtendedFinderSupport <|- - PersonFinder
        it.tidalwave.thesefoolishthings.examples.person.PersonRegistry <|- - PersonRegistry2
        it.tidalwave.util.spi.HierarchicFinderSupport <|- - PersonFinderImpl2b
        PersonFinder <|.. PersonFinderImpl2b
        PersonRegistry2 <|.. PersonRegistryImpl2a
        PersonRegistry2 <|.. PersonRegistryImpl2b
    }

    namespace it.tidalwave.util.spi {
        class HierarchicFinderSupport<T, F extends Finder<T>> [[../../../util/spi/HierarchicFinderSupport.html]] {
            #firstResult: int
            #maxResults: int
        }
        interface ExtendedFinderSupport<T, F extends Finder<T>> [[../../../util/spi/ExtendedFinderSupport.html]] {
            {abstract} +from(int): F extends Finder<T>
            {abstract} +max(int): F extends Finder<T>
            {abstract} +sort(SortCriterion): F extends Finder<T>
            {abstract} +sort(SortCriterion, SortDirection): F extends Finder<T>
            {abstract} +withContext(Object): F extends Finder<T>
        }
    }

    namespace it.tidalwave.thesefoolishthings.examples.person {
        interface PersonRegistry [[../person/PersonRegistry.html]] {
            {abstract} +findPerson(): Finder<Person>
            {abstract} +add(Person): void
        }
    }

    center footer UMLDoclet 2.0.12, PlantUML 1.2020.16
@enduml

PlantUML version 1.2020.16(Sun Aug 23 22:20:43 CEST 2020)
(APACHE source distribution)
Java Runtime: OpenJDK Runtime Environment
JVM: OpenJDK 64-Bit Server VM
Default Encoding: UTF-8
Language: en
Country: GB
--></g></svg>