@startuml
    namespace it.tidalwave.northernwind.frontend.ui.component.sitemap {

        abstract class DefaultSitemapViewController [[DefaultSitemapViewController.html]] {
            +renderView(RenderContext): void
            {abstract} #render(Set<? extends Entry>): void
            #getViewProperties(): ResourceProperties
        }

        class it.tidalwave.northernwind.frontend.ui.component.sitemap.DefaultSitemapViewController.Entry [[DefaultSitemapViewController.Entry.html]] {
            +compareTo(Entry): int
        }

        interface SitemapViewController [[SitemapViewController.html]] {
            {static} +P_SITEMAP_PRIORITY: Key<Float>
            {static} +P_SITEMAP_CHILDREN_PRIORITY: Key<Float>
            {static} +P_SITEMAP_CHANGE_FREQUENCY: Key<String>
            {static} +P_SITEMAP_TEMPLATE_PATH: Key<ResourcePath>
        }

        interface SitemapView [[SitemapView.html]] {
            {abstract} +setMimeType(String): void
        }

        SitemapViewController <|.. DefaultSitemapViewController
        java.lang.Comparable <|.. it.tidalwave.northernwind.frontend.ui.component.sitemap.DefaultSitemapViewController.Entry
        DefaultSitemapViewController +-- it.tidalwave.northernwind.frontend.ui.component.sitemap.DefaultSitemapViewController.Entry
        it.tidalwave.northernwind.frontend.ui.ViewController <|-- SitemapViewController
        it.tidalwave.role.Identifiable <|-- SitemapView
    }

    namespace java.lang {
        interface Comparable<T> {
            {abstract} +compareTo(T): int
        }
    }

    namespace it.tidalwave.northernwind.frontend.ui {
        interface ViewController [[http://tidalwave.it/projects/northernwind/it-tidalwave-northernwind-modules/it-tidalwave-northernwind-core/apidocs/it/tidalwave/northernwind/frontend/ui/ViewController.html?is-external=true]] {
            +initialize(): void
            +prepareRendering(RenderContext): void
            +renderView(RenderContext): void
            +findVirtualSiteNodes(): Finder<SiteNode>
        }
    }

    namespace it.tidalwave.role {
        interface Identifiable {
            {static} +_Identifiable_: Class<Identifiable>
            {abstract} +getId(): Id
            {static} +of(Id): Identifiable
        }
    }

    center footer UMLDoclet 2.0.12, PlantUML 1.2020.16
@enduml
