@startuml
    set namespaceSeparator none
    hide empty fields
    hide empty methods

    interface "<size:14>Collaboration\n<size:10>it.tidalwave.actor" as it.tidalwave.actor.Collaboration [[Collaboration.html]] {
        {static} +NULL_COLLABORATION: Collaboration
        {abstract} +getOriginatingMessage(): Object
        {abstract} +isCompleted(): boolean
        {abstract} +waitForCompletion(): void
        {abstract} +getStartTime(): ZonedDateTime
        {abstract} +getDuration(): Duration
        {abstract} +suspend(): Object
        {abstract} +resume(Object, Runnable): void
        {abstract} +resumeAndDie(Object): void
        {abstract} +isSuspended(): boolean
        {abstract} +getDeliveringMessagesCount(): int
        {abstract} +getPendingMessagesCount(): int
        {abstract} +getRunningThreadsCount(): int
    }
    interface "<size:14>Collaboration.Provider\n<size:10>it.tidalwave.actor" as it.tidalwave.actor.Collaboration.Provider [[Collaboration.Provider.html]]

    it.tidalwave.actor.Collaboration +-- it.tidalwave.actor.Collaboration.Provider

    center footer UMLDoclet 2.0.12, PlantUML 1.2020.16
@enduml
