<?xml version="1.0" encoding="UTF-8" standalone="no"?><svg xmlns="http://www.w3.org/2000/svg" xmlns:xlink="http://www.w3.org/1999/xlink" contentScriptType="application/ecmascript" contentStyleType="text/css" height="403px" preserveAspectRatio="none" style="width:828px;height:403px;" version="1.1" viewBox="0 0 828 403" width="828px" zoomAndPan="magnify"><defs><filter height="300%" id="fuy897u8h04to" width="300%" x="-1" y="-1"><feGaussianBlur result="blurOut" stdDeviation="2.0"/><feColorMatrix in="blurOut" result="blurOut2" type="matrix" values="0 0 0 0 0 0 0 0 0 0 0 0 0 0 0 0 0 0 .4 0"/><feOffset dx="4.0" dy="4.0" in="blurOut2" result="blurOut3"/><feBlend in="SourceGraphic" in2="blurOut3" mode="normal"/></filter></defs><g><!--MD5=[d3b44b914aa2370fe6d684de0096bcf1]
class it.tidalwave.role--><a href="it/tidalwave/role/package-summary.html" target="_top" title="it/tidalwave/role/package-summary.html" xlink:actuate="onRequest" xlink:href="it/tidalwave/role/package-summary.html" xlink:show="new" xlink:title="it/tidalwave/role/package-summary.html" xlink:type="simple"><rect codeLine="25" fill="#FEFECE" filter="url(#fuy897u8h04to)" height="24.1328" id="it.tidalwave.role" style="stroke: #A80036; stroke-width: 1.5;" width="97" x="195.5" y="175"/><text fill="#000000" font-family="sans-serif" font-size="12" lengthAdjust="spacingAndGlyphs" textLength="91" x="198.5" y="191.6016">it.tidalwave.role</text></a><!--MD5=[b38b3a8d6b00b78b55a3da79514951c5]
class org.slf4j--><rect fill="#FEFECE" filter="url(#fuy897u8h04to)" height="24.1328" id="org.slf4j" style="stroke: #A80036; stroke-width: 1.5;" width="54" x="7" y="343"/><text fill="#000000" font-family="sans-serif" font-size="12" lengthAdjust="spacingAndGlyphs" textLength="48" x="10" y="359.6016">org.slf4j</text><!--MD5=[d39c43ac59af4b6a0c111f3610b3af39]
class it.tidalwave.role.spi--><a href="it/tidalwave/role/spi/package-summary.html" target="_top" title="it/tidalwave/role/spi/package-summary.html" xlink:actuate="onRequest" xlink:href="it/tidalwave/role/spi/package-summary.html" xlink:show="new" xlink:title="it/tidalwave/role/spi/package-summary.html" xlink:type="simple"><rect codeLine="27" fill="#FEFECE" filter="url(#fuy897u8h04to)" height="24.1328" id="it.tidalwave.role.spi" style="stroke: #A80036; stroke-width: 1.5;" width="118" x="104" y="259"/><text fill="#000000" font-family="sans-serif" font-size="12" lengthAdjust="spacingAndGlyphs" textLength="112" x="107" y="275.6016">it.tidalwave.role.spi</text></a><!--MD5=[e2825e41240dc3ac7b156e1d527e9be0]
class it.tidalwave.util--><a href="http://tidalwave.it/projects/thesefoolishthings/modules/it-tidalwave-util/apidocs/it/tidalwave/util/package-summary.html?is-external=true" target="_top" title="http://tidalwave.it/projects/thesefoolishthings/modules/it-tidalwave-util/apidocs/it/tidalwave/util/package-summary.html?is-external=true" xlink:actuate="onRequest" xlink:href="http://tidalwave.it/projects/thesefoolishthings/modules/it-tidalwave-util/apidocs/it/tidalwave/util/package-summary.html?is-external=true" xlink:show="new" xlink:title="http://tidalwave.it/projects/thesefoolishthings/modules/it-tidalwave-util/apidocs/it/tidalwave/util/package-summary.html?is-external=true" xlink:type="simple"><rect codeLine="29" fill="#FEFECE" filter="url(#fuy897u8h04to)" height="24.1328" id="it.tidalwave.util" style="stroke: #A80036; stroke-width: 1.5;" width="92" x="293" y="343"/><text fill="#000000" font-family="sans-serif" font-size="12" lengthAdjust="spacingAndGlyphs" textLength="86" x="296" y="359.6016">it.tidalwave.util</text></a><!--MD5=[bb902d3a30764a1e708a34a91a64a2e2]
class it.tidalwave.role.ui--><a href="it/tidalwave/role/ui/package-summary.html" target="_top" title="it/tidalwave/role/ui/package-summary.html" xlink:actuate="onRequest" xlink:href="it/tidalwave/role/ui/package-summary.html" xlink:show="new" xlink:title="it/tidalwave/role/ui/package-summary.html" xlink:type="simple"><rect codeLine="31" fill="#FEFECE" filter="url(#fuy897u8h04to)" height="24.1328" id="it.tidalwave.role.ui" style="stroke: #A80036; stroke-width: 1.5;" width="111" x="297.5" y="91"/><text fill="#000000" font-family="sans-serif" font-size="12" lengthAdjust="spacingAndGlyphs" textLength="105" x="300.5" y="107.6016">it.tidalwave.role.ui</text></a><!--MD5=[084141118338249a488355d0d6600831]
class org.hamcrest--><rect fill="#FEFECE" filter="url(#fuy897u8h04to)" height="24.1328" id="org.hamcrest" style="stroke: #A80036; stroke-width: 1.5;" width="82" x="399" y="175"/><text fill="#000000" font-family="sans-serif" font-size="12" lengthAdjust="spacingAndGlyphs" textLength="76" x="402" y="191.6016">org.hamcrest</text><!--MD5=[d653c5b6efc2ae0c4925c2af109f453b]
class org.mockito--><rect fill="#FEFECE" filter="url(#fuy897u8h04to)" height="24.1328" id="org.mockito" style="stroke: #A80036; stroke-width: 1.5;" width="74" x="516" y="175"/><text fill="#000000" font-family="sans-serif" font-size="12" lengthAdjust="spacingAndGlyphs" textLength="68" x="519" y="191.6016">org.mockito</text><!--MD5=[9abdce805def4c46035660559b26ce6f]
class it.tidalwave.role.ui.spi--><a href="it/tidalwave/role/ui/spi/package-summary.html" target="_top" title="it/tidalwave/role/ui/spi/package-summary.html" xlink:actuate="onRequest" xlink:href="it/tidalwave/role/ui/spi/package-summary.html" xlink:show="new" xlink:title="it/tidalwave/role/ui/spi/package-summary.html" xlink:type="simple"><rect codeLine="33" fill="#FEFECE" filter="url(#fuy897u8h04to)" height="24.1328" id="it.tidalwave.role.ui.spi" style="stroke: #A80036; stroke-width: 1.5;" width="132" x="232" y="7"/><text fill="#000000" font-family="sans-serif" font-size="12" lengthAdjust="spacingAndGlyphs" textLength="126" x="235" y="23.6016">it.tidalwave.role.ui.spi</text></a><!--MD5=[cadb40e77b29b34c4214bbbd416f90c0]
class it.tidalwave.util.spi--><a href="http://tidalwave.it/projects/thesefoolishthings/modules/it-tidalwave-util/apidocs/it/tidalwave/util/spi/package-summary.html?is-external=true" target="_top" title="http://tidalwave.it/projects/thesefoolishthings/modules/it-tidalwave-util/apidocs/it/tidalwave/util/spi/package-summary.html?is-external=true" xlink:actuate="onRequest" xlink:href="http://tidalwave.it/projects/thesefoolishthings/modules/it-tidalwave-util/apidocs/it/tidalwave/util/spi/package-summary.html?is-external=true" xlink:show="new" xlink:title="http://tidalwave.it/projects/thesefoolishthings/modules/it-tidalwave-util/apidocs/it/tidalwave/util/spi/package-summary.html?is-external=true" xlink:type="simple"><rect codeLine="35" fill="#FEFECE" filter="url(#fuy897u8h04to)" height="24.1328" id="it.tidalwave.util.spi" style="stroke: #A80036; stroke-width: 1.5;" width="113" x="696.5" y="91"/><text fill="#000000" font-family="sans-serif" font-size="12" lengthAdjust="spacingAndGlyphs" textLength="107" x="699.5" y="107.6016">it.tidalwave.util.spi</text></a><!--MD5=[c68b2fffa5066d4daf8aff3cdab863e3]
class it.tidalwave.role.spi.impl--><rect fill="#FEFECE" filter="url(#fuy897u8h04to)" height="24.1328" id="it.tidalwave.role.spi.impl" style="stroke: #A80036; stroke-width: 1.5;" width="147" x="96.5" y="343"/><text fill="#000000" font-family="sans-serif" font-size="12" lengthAdjust="spacingAndGlyphs" textLength="141" x="99.5" y="359.6016">it.tidalwave.role.spi.impl</text><!--MD5=[59f489bba1477d05af7c7a8fe4c7857b]
link it.tidalwave.role to org.slf4j--><path codeLine="6" d="M198.6673,199.0485 C164.3978,210.0372 117.9525,229.1747 86,259 C62.1402,281.2713 46.8514,317.016 39.3985,338.0322 " fill="none" id="it.tidalwave.role-to-org.slf4j" style="stroke: #A80036; stroke-width: 1.0;"/><polygon fill="#A80036" points="37.7567,342.7882,44.4746,335.5861,39.3883,338.0619,36.9125,332.9756,37.7567,342.7882" style="stroke: #A80036; stroke-width: 1.0;"/><!--MD5=[9a808be22817a3f9950c9618172cd50a]
link it.tidalwave.role to it.tidalwave.role.spi--><path codeLine="7" d="M223.138,199.0352 C204.8037,213.6313 180.6498,238.302 168.4445,254.6211 " fill="none" id="it.tidalwave.role-to-it.tidalwave.role.spi" style="stroke: #A80036; stroke-width: 1.0;"/><polygon fill="#A80036" points="165.3336,258.9872,173.8139,253.9787,168.2351,254.9152,167.2986,249.3364,165.3336,258.9872" style="stroke: #A80036; stroke-width: 1.0;"/><!--MD5=[9efe2ce01ba5a2773636f0ad443f17e5]
link it.tidalwave.role.spi to it.tidalwave.role--><path codeLine="19" d="M184.3781,258.9872 C202.9572,244.4013 227.1359,219.7315 239.1459,203.4038 " fill="none" id="it.tidalwave.role.spi-to-it.tidalwave.role" style="stroke: #A80036; stroke-width: 1.0;"/><polygon fill="#A80036" points="242.1959,199.0352,233.7641,204.1248,239.3336,203.1349,240.3236,208.7044,242.1959,199.0352" style="stroke: #A80036; stroke-width: 1.0;"/><!--MD5=[d46def4fcee0173090be4aa7b00e0615]
link it.tidalwave.role to it.tidalwave.util--><path codeLine="8" d="M250.8322,199.0821 C267.4576,228.483 310.066,303.8325 329.3096,337.8633 " fill="none" id="it.tidalwave.role-to-it.tidalwave.util" style="stroke: #A80036; stroke-width: 1.0;"/><polygon fill="#A80036" points="331.9734,342.5741,331.0253,332.771,329.5123,338.2217,324.0615,336.7087,331.9734,342.5741" style="stroke: #A80036; stroke-width: 1.0;"/><!--MD5=[b31c93a6bb36dcdce9707d7567623c54]
link it.tidalwave.role.ui to it.tidalwave.role--><path codeLine="9" d="M337.383,115.0352 C317.9571,130.0055 284.7792,155.5738 263.6464,171.8597 " fill="none" id="it.tidalwave.role.ui-to-it.tidalwave.role" style="stroke: #A80036; stroke-width: 1.0;"/><polygon fill="#A80036" points="259.5881,174.9872,269.1585,172.6619,263.5486,171.9352,264.2753,166.3252,259.5881,174.9872" style="stroke: #A80036; stroke-width: 1.0;"/><!--MD5=[aa6c0a3e8debf51c4906334d6366ed3a]
link it.tidalwave.role.ui to it.tidalwave.util--><path codeLine="10" d="M352.3248,115.1545 C350.0422,156.2403 342.609,290.0386 339.9536,337.8348 " fill="none" id="it.tidalwave.role.ui-to-it.tidalwave.util" style="stroke: #A80036; stroke-width: 1.0;"/><polygon fill="#A80036" points="339.6685,342.9675,344.1617,334.2033,339.9459,337.9752,336.174,333.7594,339.6685,342.9675" style="stroke: #A80036; stroke-width: 1.0;"/><!--MD5=[587774e242564ebb0e4f97541f0ac528]
link it.tidalwave.role.ui to org.hamcrest--><path codeLine="11" d="M365.465,115.0352 C380.8408,129.8808 407.0109,155.1484 423.8953,171.4506 " fill="none" id="it.tidalwave.role.ui-to-org.hamcrest" style="stroke: #A80036; stroke-width: 1.0;"/><polygon fill="#A80036" points="427.5581,174.9872,423.8619,165.8582,423.9611,171.5142,418.3051,171.6134,427.5581,174.9872" style="stroke: #A80036; stroke-width: 1.0;"/><!--MD5=[52d4075bc150cb02954f4bd9b25bcd2e]
link it.tidalwave.role.ui to org.mockito--><path codeLine="12" d="M381.6551,115.0352 C418.0414,130.3174 480.7233,156.6438 519.3459,172.8653 " fill="none" id="it.tidalwave.role.ui-to-org.mockito" style="stroke: #A80036; stroke-width: 1.0;"/><polygon fill="#A80036" points="524.398,174.9872,517.6493,167.814,519.7881,173.0509,514.5512,175.1898,524.398,174.9872" style="stroke: #A80036; stroke-width: 1.0;"/><!--MD5=[c3827295c185d432786554ae4d9a3e33]
link it.tidalwave.role.ui.spi to it.tidalwave.role.ui--><path codeLine="13" d="M305.8802,31.0352 C315.4371,45.6313 331.5906,70.302 342.2757,86.6211 " fill="none" id="it.tidalwave.role.ui.spi-to-it.tidalwave.role.ui" style="stroke: #A80036; stroke-width: 1.0;"/><polygon fill="#A80036" points="345.1345,90.9872,343.5508,81.2665,342.3955,86.8041,336.8579,85.6488,345.1345,90.9872" style="stroke: #A80036; stroke-width: 1.0;"/><!--MD5=[81260adcbabd98fde000428b1129f76b]
link it.tidalwave.role.ui.spi to it.tidalwave.util--><path codeLine="14" d="M363.5536,31.0028 C437.6375,48.4541 554.8176,88.7007 608,175 C664.9108,267.3495 483.0249,322.7763 390.1265,344.452 " fill="none" id="it.tidalwave.role.ui.spi-to-it.tidalwave.util" style="stroke: #A80036; stroke-width: 1.0;"/><polygon fill="#A80036" points="385.2272,345.5831,394.8964,347.4558,390.099,344.4582,393.0966,339.6609,385.2272,345.5831" style="stroke: #A80036; stroke-width: 1.0;"/><!--MD5=[c054c2c5b6202192c8bab6d3bf8482fb]
link it.tidalwave.role.ui.spi to it.tidalwave.util.spi--><path codeLine="15" d="M363.1904,31.0352 C450.7671,47.2032 605.3018,75.7326 691.1412,91.5799 " fill="none" id="it.tidalwave.role.ui.spi-to-it.tidalwave.util.spi" style="stroke: #A80036; stroke-width: 1.0;"/><polygon fill="#A80036" points="696.1882,92.5117,688.0641,86.9441,691.2713,91.6039,686.6115,94.8111,696.1882,92.5117" style="stroke: #A80036; stroke-width: 1.0;"/><!--MD5=[c30e6e04d2337de5fe5086e5b317e57f]
link it.tidalwave.role.ui.spi to org.slf4j--><path codeLine="16" d="M280.0584,31.1061 C234.7984,62.6869 115.5698,152.5519 59,259 C45.4229,284.5483 38.8994,317.9047 36.0186,337.8207 " fill="none" id="it.tidalwave.role.ui.spi-to-org.slf4j" style="stroke: #A80036; stroke-width: 1.0;"/><polygon fill="#A80036" points="35.3312,342.8227,40.5195,334.4512,36.012,337.8693,32.594,333.3619,35.3312,342.8227" style="stroke: #A80036; stroke-width: 1.0;"/><!--MD5=[022ba713ba9f4e469f8808cfa70b2dde]
link it.tidalwave.role.ui.spi to it.tidalwave.role.spi--><path codeLine="17" d="M284.8933,31.2992 C259.5751,55.9058 204.1399,114.0833 178,175 C166.8729,200.9306 163.8828,233.9614 163.1467,253.7427 " fill="none" id="it.tidalwave.role.ui.spi-to-it.tidalwave.role.spi" style="stroke: #A80036; stroke-width: 1.0;"/><polygon fill="#A80036" points="162.994,258.9538,167.2561,250.0749,163.1406,253.9559,159.2595,249.8404,162.994,258.9538" style="stroke: #A80036; stroke-width: 1.0;"/><!--MD5=[05ea61bee1748e89dd1c92c5017fbfef]
link it.tidalwave.role.ui.spi to it.tidalwave.role--><path codeLine="18" d="M294.1165,31.0821 C284.7049,60.3625 260.645,135.2157 249.6434,169.4428 " fill="none" id="it.tidalwave.role.ui.spi-to-it.tidalwave.role" style="stroke: #A80036; stroke-width: 1.0;"/><polygon fill="#A80036" points="247.9941,174.5741,254.5564,167.23,249.5242,169.814,246.9402,164.7818,247.9941,174.5741" style="stroke: #A80036; stroke-width: 1.0;"/><!--MD5=[3635cfc9b8a6bb9d7cff97b3f30c0396]
link it.tidalwave.role.spi to org.slf4j--><path codeLine="20" d="M144.5174,283.0352 C121.4314,298.0679 81.9341,323.7871 56.9393,340.0628 " fill="none" id="it.tidalwave.role.spi-to-org.slf4j" style="stroke: #A80036; stroke-width: 1.0;"/><polygon fill="#A80036" points="52.4483,342.9872,62.173,341.428,56.6383,340.2588,57.8075,334.7241,52.4483,342.9872" style="stroke: #A80036; stroke-width: 1.0;"/><!--MD5=[5b57471570d0cb4db9ca4156b62a2187]
link it.tidalwave.role.spi to it.tidalwave.util--><path codeLine="21" d="M188.2165,283.0352 C220.1058,298.255 274.9466,324.429 308.9671,340.6661 " fill="none" id="it.tidalwave.role.spi-to-it.tidalwave.util" style="stroke: #A80036; stroke-width: 1.0;"/><polygon fill="#A80036" points="313.8303,342.9872,307.4308,335.5008,309.3179,340.8336,303.985,342.7207,313.8303,342.9872" style="stroke: #A80036; stroke-width: 1.0;"/><!--MD5=[6c56950fe2d5db4cdf120bf21912c9a7]
link it.tidalwave.role.spi to it.tidalwave.role.spi.impl--><path codeLine="22" d="M164.0029,283.0352 C165.1985,297.3818 167.2051,321.4615 168.5648,337.777 " fill="none" id="it.tidalwave.role.spi-to-it.tidalwave.role.spi.impl" style="stroke: #A80036; stroke-width: 1.0;"/><polygon fill="#A80036" points="168.9989,342.9872,172.2376,333.6861,168.5836,338.0045,164.2652,334.3505,168.9989,342.9872" style="stroke: #A80036; stroke-width: 1.0;"/><text fill="#888888" font-family="sans-serif" font-size="10" lengthAdjust="spacingAndGlyphs" textLength="188" x="311.25" y="389.8008">UMLDoclet 2.0.12, PlantUML 1.2020.16</text><!--MD5=[cb16188da0e90dcfccdda7dc2c7715ea]
@startuml
    set namespaceSeparator none
    hide circle
    hide empty fields
    hide empty methods

    it.tidalwave.role - -> org.slf4j
    it.tidalwave.role - -> it.tidalwave.role.spi
    it.tidalwave.role - -> it.tidalwave.util
    it.tidalwave.role.ui - -> it.tidalwave.role
    it.tidalwave.role.ui - -> it.tidalwave.util
    it.tidalwave.role.ui - -> org.hamcrest
    it.tidalwave.role.ui - -> org.mockito
    it.tidalwave.role.ui.spi - -> it.tidalwave.role.ui
    it.tidalwave.role.ui.spi - -> it.tidalwave.util
    it.tidalwave.role.ui.spi - -> it.tidalwave.util.spi
    it.tidalwave.role.ui.spi - -> org.slf4j
    it.tidalwave.role.ui.spi - -> it.tidalwave.role.spi
    it.tidalwave.role.ui.spi - -> it.tidalwave.role
    it.tidalwave.role.spi - -> it.tidalwave.role
    it.tidalwave.role.spi - -> org.slf4j
    it.tidalwave.role.spi - -> it.tidalwave.util
    it.tidalwave.role.spi - -> it.tidalwave.role.spi.impl

    ' Package links
    class "it.tidalwave.role" [[it/tidalwave/role/package-summary.html]] {
    }
    class "it.tidalwave.role.spi" [[it/tidalwave/role/spi/package-summary.html]] {
    }
    class "it.tidalwave.util" [[http://tidalwave.it/projects/thesefoolishthings/modules/it-tidalwave-util/apidocs/it/tidalwave/util/package-summary.html?is-external=true]] {
    }
    class "it.tidalwave.role.ui" [[it/tidalwave/role/ui/package-summary.html]] {
    }
    class "it.tidalwave.role.ui.spi" [[it/tidalwave/role/ui/spi/package-summary.html]] {
    }
    class "it.tidalwave.util.spi" [[http://tidalwave.it/projects/thesefoolishthings/modules/it-tidalwave-util/apidocs/it/tidalwave/util/spi/package-summary.html?is-external=true]] {
    }

    center footer UMLDoclet 2.0.12, PlantUML 1.2020.16
@enduml

@startuml
    set namespaceSeparator none
    hide circle
    hide empty fields
    hide empty methods

    it.tidalwave.role - -> org.slf4j
    it.tidalwave.role - -> it.tidalwave.role.spi
    it.tidalwave.role - -> it.tidalwave.util
    it.tidalwave.role.ui - -> it.tidalwave.role
    it.tidalwave.role.ui - -> it.tidalwave.util
    it.tidalwave.role.ui - -> org.hamcrest
    it.tidalwave.role.ui - -> org.mockito
    it.tidalwave.role.ui.spi - -> it.tidalwave.role.ui
    it.tidalwave.role.ui.spi - -> it.tidalwave.util
    it.tidalwave.role.ui.spi - -> it.tidalwave.util.spi
    it.tidalwave.role.ui.spi - -> org.slf4j
    it.tidalwave.role.ui.spi - -> it.tidalwave.role.spi
    it.tidalwave.role.ui.spi - -> it.tidalwave.role
    it.tidalwave.role.spi - -> it.tidalwave.role
    it.tidalwave.role.spi - -> org.slf4j
    it.tidalwave.role.spi - -> it.tidalwave.util
    it.tidalwave.role.spi - -> it.tidalwave.role.spi.impl

    class "it.tidalwave.role" [[it/tidalwave/role/package-summary.html]] {
    }
    class "it.tidalwave.role.spi" [[it/tidalwave/role/spi/package-summary.html]] {
    }
    class "it.tidalwave.util" [[http://tidalwave.it/projects/thesefoolishthings/modules/it-tidalwave-util/apidocs/it/tidalwave/util/package-summary.html?is-external=true]] {
    }
    class "it.tidalwave.role.ui" [[it/tidalwave/role/ui/package-summary.html]] {
    }
    class "it.tidalwave.role.ui.spi" [[it/tidalwave/role/ui/spi/package-summary.html]] {
    }
    class "it.tidalwave.util.spi" [[http://tidalwave.it/projects/thesefoolishthings/modules/it-tidalwave-util/apidocs/it/tidalwave/util/spi/package-summary.html?is-external=true]] {
    }

    center footer UMLDoclet 2.0.12, PlantUML 1.2020.16
@enduml

PlantUML version 1.2020.16(Sun Aug 23 22:20:43 CEST 2020)
(APACHE source distribution)
Java Runtime: OpenJDK Runtime Environment
JVM: OpenJDK 64-Bit Server VM
Default Encoding: UTF-8
Language: en
Country: GB
--></g></svg>