<?xml version="1.0" encoding="UTF-8" standalone="no"?><svg xmlns="http://www.w3.org/2000/svg" xmlns:xlink="http://www.w3.org/1999/xlink" contentScriptType="application/ecmascript" contentStyleType="text/css" height="95px" preserveAspectRatio="none" style="width:202px;height:95px;" version="1.1" viewBox="0 0 202 95" width="202px" zoomAndPan="magnify"><defs><filter height="300%" id="f5wskim7j5sun" width="300%" x="-1" y="-1"><feGaussianBlur result="blurOut" stdDeviation="2.0"/><feColorMatrix in="blurOut" result="blurOut2" type="matrix" values="0 0 0 0 0 0 0 0 0 0 0 0 0 0 0 0 0 0 .4 0"/><feOffset dx="4.0" dy="4.0" in="blurOut2" result="blurOut3"/><feBlend in="SourceGraphic" in2="blurOut3" mode="normal"/></filter></defs><g><!--MD5=[adbb6562ab1cca2a3ed06ebe37a6e67c]
class it.tidalwave.util.ParameterTest--><a href="ParameterTest.html" target="_top" title="ParameterTest.html" xlink:actuate="onRequest" xlink:href="ParameterTest.html" xlink:show="new" xlink:title="ParameterTest.html" xlink:type="simple"><rect codeLine="5" fill="#FEFECE" filter="url(#f5wskim7j5sun)" height="58.2466" id="it.tidalwave.util.ParameterTest" style="stroke: #A80036; stroke-width: 1.5;" width="126" x="32" y="7"/><ellipse cx="47" cy="25.7988" fill="#ADD1B2" rx="11" ry="11" style="stroke: #A80036; stroke-width: 1.0;"/><path d="M44.9063,25.6426 Q44.9063,27.5176 45.4844,28.5332 Q46.0625,29.5332 47.2188,29.5332 Q48.5625,29.5332 49.2188,27.5176 L51.4844,27.9395 Q50.375,31.4707 47.2031,31.4707 Q44.8594,31.4707 43.6406,29.9863 Q42.4219,28.502 42.4219,25.6426 Q42.4219,19.9238 47.125,19.9238 Q48.6719,19.9238 49.7031,20.7363 Q50.75,21.5488 51.25,23.1582 L48.9844,23.7051 Q48.75,22.8301 48.2656,22.3457 Q47.7813,21.8457 47.1563,21.8457 Q44.9063,21.8457 44.9063,25.6426 Z "/><text fill="#000000" font-family="sans-serif" font-size="14" lengthAdjust="spacingAndGlyphs" textLength="94" x="61" y="25.1318">ParameterTest</text><text fill="#000000" font-family="sans-serif" font-size="10" lengthAdjust="spacingAndGlyphs" textLength="72" x="72" y="37.4785">it.tidalwave.util</text><line style="stroke: #A80036; stroke-width: 1.5;" x1="33" x2="157" y1="44.5977" y2="44.5977"/><ellipse cx="43" cy="55.5977" fill="#84BE84" rx="3" ry="3" style="stroke: #038048; stroke-width: 1.0;"/><text fill="#000000" font-family="sans-serif" font-size="11" lengthAdjust="spacingAndGlyphs" textLength="52" x="52" y="58.9155">test(): void</text></a><text fill="#888888" font-family="sans-serif" font-size="10" lengthAdjust="spacingAndGlyphs" textLength="190" x="0" y="81.6265">UMLDoclet 2.0.12, PlantUML 1.2020.16</text><!--MD5=[f17077d2d516e3d2cd5d9a59a74c53ce]
@startuml
    set namespaceSeparator none
    hide empty fields
    hide empty methods

    class "<size:14>ParameterTest\n<size:10>it.tidalwave.util" as it.tidalwave.util.ParameterTest [[ParameterTest.html]] {
        +test(): void
    }

    center footer UMLDoclet 2.0.12, PlantUML 1.2020.16
@enduml

PlantUML version 1.2020.16(Sun Aug 23 22:20:43 CEST 2020)
(APACHE source distribution)
Java Runtime: OpenJDK Runtime Environment
JVM: OpenJDK 64-Bit Server VM
Default Encoding: UTF-8
Language: en
Country: US
--></g></svg>