@startuml
    set namespaceSeparator none
    hide empty fields
    hide empty methods

    class "<size:14>StreamOperationsTest\n<size:10>it.tidalwave.util" as it.tidalwave.util.StreamOperationsTest [[StreamOperationsTest.html]] {
        +zipTest1(): void
        +zipPairTest1(): void
    }

    center footer UMLDoclet 2.0.12, PlantUML 1.2020.16
@enduml
