<?xml version="1.0" encoding="UTF-8" standalone="no"?><svg xmlns="http://www.w3.org/2000/svg" xmlns:xlink="http://www.w3.org/1999/xlink" contentScriptType="application/ecmascript" contentStyleType="text/css" height="234px" preserveAspectRatio="none" style="width:784px;height:234px;" version="1.1" viewBox="0 0 784 234" width="784px" zoomAndPan="magnify"><defs><filter height="300%" id="f1as95nyz0v7ab" width="300%" x="-1" y="-1"><feGaussianBlur result="blurOut" stdDeviation="2.0"/><feColorMatrix in="blurOut" result="blurOut2" type="matrix" values="0 0 0 0 0 0 0 0 0 0 0 0 0 0 0 0 0 0 .4 0"/><feOffset dx="4.0" dy="4.0" in="blurOut2" result="blurOut3"/><feBlend in="SourceGraphic" in2="blurOut3" mode="normal"/></filter></defs><g><!--MD5=[730cdd4526df2d9e40fa05acbdbdcd5d]
class it.tidalwave.northernwind.frontend.ui.component.sitemap.htmltemplate.HtmlTemplateSitemapView--><a href="HtmlTemplateSitemapView.html" target="_top" title="HtmlTemplateSitemapView.html" xlink:actuate="onRequest" xlink:href="HtmlTemplateSitemapView.html" xlink:show="new" xlink:title="HtmlTemplateSitemapView.html" xlink:type="simple"><rect codeLine="5" fill="#FEFECE" filter="url(#f1as95nyz0v7ab)" height="72.1758" id="it.tidalwave.northernwind.frontend.ui.component.sitemap.htmltemplate.HtmlTemplateSitemapView" style="stroke: #A80036; stroke-width: 1.5;" width="382" x="219" y="126"/><ellipse cx="234" cy="145.1328" fill="#ADD1B2" rx="11" ry="11" style="stroke: #A80036; stroke-width: 1.0;"/><path d="M236.4731,151.2759 Q235.8921,151.5747 235.2529,151.7241 Q234.6138,151.8735 233.9082,151.8735 Q231.4014,151.8735 230.0815,150.2217 Q228.7617,148.5698 228.7617,145.4487 Q228.7617,142.3193 230.0815,140.6675 Q231.4014,139.0156 233.9082,139.0156 Q234.6138,139.0156 235.2612,139.165 Q235.9087,139.3145 236.4731,139.6133 L236.4731,142.3359 Q235.8423,141.7549 235.2488,141.4851 Q234.6553,141.2153 234.0244,141.2153 Q232.6797,141.2153 231.9949,142.282 Q231.3101,143.3486 231.3101,145.4487 Q231.3101,147.5405 231.9949,148.6072 Q232.6797,149.6738 234.0244,149.6738 Q234.6553,149.6738 235.2488,149.4041 Q235.8423,149.1343 236.4731,148.5532 Z "/><text fill="#000000" font-family="sans-serif" font-size="14" lengthAdjust="spacingAndGlyphs" textLength="183" x="331.5" y="144.5352">HtmlTemplateSitemapView</text><text fill="#000000" font-family="sans-serif" font-size="10" lengthAdjust="spacingAndGlyphs" textLength="350" x="248" y="157.1563">it.tidalwave.northernwind.frontend.ui.component.sitemap.htmltemplate</text><line style="stroke: #A80036; stroke-width: 1.5;" x1="220" x2="600" y1="164.2656" y2="164.2656"/><ellipse cx="230" cy="175.2656" fill="#84BE84" rx="3" ry="3" style="stroke: #038048; stroke-width: 1.0;"/><text fill="#000000" font-family="sans-serif" font-size="11" lengthAdjust="spacingAndGlyphs" textLength="183" x="239" y="178.9004">HtmlTemplateSitemapView(Id, Site)</text><ellipse cx="230" cy="188.2207" fill="#84BE84" rx="3" ry="3" style="stroke: #038048; stroke-width: 1.0;"/><text fill="#000000" font-family="sans-serif" font-size="11" lengthAdjust="spacingAndGlyphs" textLength="278" x="239" y="191.8555">render(Optional&lt;ResourcePath&gt;, Aggregates): void</text></a><!--MD5=[29faf4ef4f5626ea036e882b9bdb2503]
class it.tidalwave.northernwind.frontend.ui.component.htmlfragment.htmltemplate.HtmlTemplateHtmlFragmentView--><a href="../../htmlfragment/htmltemplate/HtmlTemplateHtmlFragmentView.html" target="_top" title="../../htmlfragment/htmltemplate/HtmlTemplateHtmlFragmentView.html" xlink:actuate="onRequest" xlink:href="../../htmlfragment/htmltemplate/HtmlTemplateHtmlFragmentView.html" xlink:show="new" xlink:title="../../htmlfragment/htmltemplate/HtmlTemplateHtmlFragmentView.html" xlink:type="simple"><rect codeLine="10" fill="#FEFECE" filter="url(#f1as95nyz0v7ab)" height="38.2656" id="it.tidalwave.northernwind.frontend.ui.component.htmlfragment.htmltemplate.HtmlTemplateHtmlFragmentView" style="stroke: #A80036; stroke-width: 1.5;" width="410" x="7" y="17.5"/><ellipse cx="22" cy="36.6328" fill="#ADD1B2" rx="11" ry="11" style="stroke: #A80036; stroke-width: 1.0;"/><path d="M24.4731,42.7759 Q23.8921,43.0747 23.2529,43.2241 Q22.6138,43.3735 21.9082,43.3735 Q19.4014,43.3735 18.0815,41.7217 Q16.7617,40.0698 16.7617,36.9487 Q16.7617,33.8193 18.0815,32.1675 Q19.4014,30.5156 21.9082,30.5156 Q22.6138,30.5156 23.2612,30.665 Q23.9087,30.8145 24.4731,31.1133 L24.4731,33.8359 Q23.8423,33.2549 23.2488,32.9851 Q22.6553,32.7153 22.0244,32.7153 Q20.6797,32.7153 19.9949,33.782 Q19.3101,34.8486 19.3101,36.9487 Q19.3101,39.0405 19.9949,40.1072 Q20.6797,41.1738 22.0244,41.1738 Q22.6553,41.1738 23.2488,40.9041 Q23.8423,40.6343 24.4731,40.0532 Z "/><text fill="#000000" font-family="sans-serif" font-size="14" lengthAdjust="spacingAndGlyphs" textLength="226" x="112" y="36.0352">HtmlTemplateHtmlFragmentView</text><text fill="#000000" font-family="sans-serif" font-size="10" lengthAdjust="spacingAndGlyphs" textLength="378" x="36" y="48.6563">it.tidalwave.northernwind.frontend.ui.component.htmlfragment.htmltemplate</text></a><!--MD5=[f23882aec8107381a6349adbf80ad778]
class it.tidalwave.northernwind.frontend.ui.component.sitemap.SitemapView--><a href="http://tidalwave.tidalwave.it/northernwind/it-tidalwave-northernwind-modules/it-tidalwave-northernwind-frontend-components/apidocs/it/tidalwave/northernwind/frontend/ui/component/sitemap/SitemapView.html?is-external=true" target="_top" title="http://tidalwave.tidalwave.it/northernwind/it-tidalwave-northernwind-modules/it-tidalwave-northernwind-frontend-components/apidocs/it/tidalwave/northernwind/frontend/ui/component/sitemap/SitemapView.html?is-external=true" xlink:actuate="onRequest" xlink:href="http://tidalwave.tidalwave.it/northernwind/it-tidalwave-northernwind-modules/it-tidalwave-northernwind-frontend-components/apidocs/it/tidalwave/northernwind/frontend/ui/component/sitemap/SitemapView.html?is-external=true" xlink:show="new" xlink:title="http://tidalwave.tidalwave.it/northernwind/it-tidalwave-northernwind-modules/it-tidalwave-northernwind-frontend-components/apidocs/it/tidalwave/northernwind/frontend/ui/component/sitemap/SitemapView.html?is-external=true" xlink:type="simple"><rect codeLine="11" fill="#FEFECE" filter="url(#f1as95nyz0v7ab)" height="59.2207" id="it.tidalwave.northernwind.frontend.ui.component.sitemap.SitemapView" style="stroke: #A80036; stroke-width: 1.5;" width="313" x="452.5" y="7"/><ellipse cx="467.5" cy="26.1328" fill="#B4A7E5" rx="11" ry="11" style="stroke: #A80036; stroke-width: 1.0;"/><path d="M463.9277,22.3979 L463.9277,20.2397 L471.3071,20.2397 L471.3071,22.3979 L468.8418,22.3979 L468.8418,30.4746 L471.3071,30.4746 L471.3071,32.6328 L463.9277,32.6328 L463.9277,30.4746 L466.3931,30.4746 L466.3931,22.3979 Z "/><text fill="#000000" font-family="sans-serif" font-size="14" font-style="italic" lengthAdjust="spacingAndGlyphs" textLength="87" x="578.5" y="25.5352">SitemapView</text><text fill="#000000" font-family="sans-serif" font-size="10" font-style="italic" lengthAdjust="spacingAndGlyphs" textLength="281" x="481.5" y="38.1563">it.tidalwave.northernwind.frontend.ui.component.sitemap</text><line style="stroke: #A80036; stroke-width: 1.5;" x1="453.5" x2="764.5" y1="45.2656" y2="45.2656"/><ellipse cx="463.5" cy="56.2656" fill="#84BE84" rx="3" ry="3" style="stroke: #038048; stroke-width: 1.0;"/><text fill="#000000" font-family="sans-serif" font-size="11" font-style="italic" lengthAdjust="spacingAndGlyphs" textLength="139" x="472.5" y="59.9004">setMimeType(String): void</text></a><!--MD5=[a757846bfd0c83f072a35fae1e457515]
reverse link it.tidalwave.northernwind.frontend.ui.component.htmlfragment.htmltemplate.HtmlTemplateHtmlFragmentView to it.tidalwave.northernwind.frontend.ui.component.sitemap.htmltemplate.HtmlTemplateSitemapView--><path codeLine="15" d="M259.2808,66.4684 C287.3839,84.2812 323.2182,106.9943 352.8942,125.8041 " fill="none" id="it.tidalwave.northernwind.frontend.ui.component.htmlfragment.htmltemplate.HtmlTemplateHtmlFragmentView-backto-it.tidalwave.northernwind.frontend.ui.component.sitemap.htmltemplate.HtmlTemplateSitemapView" style="stroke: #A80036; stroke-width: 1.0;"/><polygon fill="none" points="255.217,72.1803,242.0719,55.5607,262.712,60.3555,255.217,72.1803" style="stroke: #A80036; stroke-width: 1.0;"/><!--MD5=[1a11ba47487327e791c6b404019768b0]
reverse link it.tidalwave.northernwind.frontend.ui.component.sitemap.SitemapView to it.tidalwave.northernwind.frontend.ui.component.sitemap.htmltemplate.HtmlTemplateSitemapView--><path codeLine="16" d="M545.014,76.853 C520.0089,92.6225 491.5594,110.5643 467.2446,125.8985 " fill="none" id="it.tidalwave.northernwind.frontend.ui.component.sitemap.SitemapView-backto-it.tidalwave.northernwind.frontend.ui.component.sitemap.htmltemplate.HtmlTemplateSitemapView" style="stroke: #A80036; stroke-width: 1.0; stroke-dasharray: 7.0,7.0;"/><polygon fill="none" points="541.4409,70.8306,562.0918,66.0828,548.909,82.6724,541.4409,70.8306" style="stroke: #A80036; stroke-width: 1.0;"/><text fill="#888888" font-family="sans-serif" font-size="10" lengthAdjust="spacingAndGlyphs" textLength="188" x="289.25" y="220.8438">UMLDoclet 2.0.12, PlantUML 1.2020.16</text><!--MD5=[294ace389012597afce1da78025a74d1]
@startuml
    set namespaceSeparator none
    hide empty fields
    hide empty methods

    class "<size:14>HtmlTemplateSitemapView\n<size:10>it.tidalwave.northernwind.frontend.ui.component.sitemap.htmltemplate" as it.tidalwave.northernwind.frontend.ui.component.sitemap.htmltemplate.HtmlTemplateSitemapView [[HtmlTemplateSitemapView.html]] {
        +HtmlTemplateSitemapView(Id, Site)
        +render(Optional<ResourcePath>, Aggregates): void
    }

    class "<size:14>HtmlTemplateHtmlFragmentView\n<size:10>it.tidalwave.northernwind.frontend.ui.component.htmlfragment.htmltemplate" as it.tidalwave.northernwind.frontend.ui.component.htmlfragment.htmltemplate.HtmlTemplateHtmlFragmentView [[../../htmlfragment/htmltemplate/HtmlTemplateHtmlFragmentView.html]]
    interface "<size:14>SitemapView\n<size:10>it.tidalwave.northernwind.frontend.ui.component.sitemap" as it.tidalwave.northernwind.frontend.ui.component.sitemap.SitemapView [[http://tidalwave.tidalwave.it/northernwind/it-tidalwave-northernwind-modules/it-tidalwave-northernwind-frontend-components/apidocs/it/tidalwave/northernwind/frontend/ui/component/sitemap/SitemapView.html?is-external=true]] {
        {abstract} +setMimeType(String): void
    }

    it.tidalwave.northernwind.frontend.ui.component.htmlfragment.htmltemplate.HtmlTemplateHtmlFragmentView <|- - it.tidalwave.northernwind.frontend.ui.component.sitemap.htmltemplate.HtmlTemplateSitemapView
    it.tidalwave.northernwind.frontend.ui.component.sitemap.SitemapView <|.. it.tidalwave.northernwind.frontend.ui.component.sitemap.htmltemplate.HtmlTemplateSitemapView

    center footer UMLDoclet 2.0.12, PlantUML 1.2020.16
@enduml

PlantUML version 1.2020.16(Sun Aug 23 22:20:43 CEST 2020)
(APACHE source distribution)
Java Runtime: OpenJDK Runtime Environment
JVM: OpenJDK 64-Bit Server VM
Default Encoding: UTF-8
Language: en
Country: GB
--></g></svg>