<?xml version="1.0" encoding="UTF-8" standalone="no"?><svg xmlns="http://www.w3.org/2000/svg" xmlns:xlink="http://www.w3.org/1999/xlink" contentScriptType="application/ecmascript" contentStyleType="text/css" height="265px" preserveAspectRatio="none" style="width:1152px;height:265px;" version="1.1" viewBox="0 0 1152 265" width="1152px" zoomAndPan="magnify"><defs><filter height="300%" id="f1o7cz6mwh45rq" width="300%" x="-1" y="-1"><feGaussianBlur result="blurOut" stdDeviation="2.0"/><feColorMatrix in="blurOut" result="blurOut2" type="matrix" values="0 0 0 0 0 0 0 0 0 0 0 0 0 0 0 0 0 0 .4 0"/><feOffset dx="4.0" dy="4.0" in="blurOut2" result="blurOut3"/><feBlend in="SourceGraphic" in2="blurOut3" mode="normal"/></filter></defs><g><!--MD5=[8f227900f9223e9f34d8b14311bbe311]
cluster it.tidalwave.northernwind.frontend.ui.component.sitemap.htmltemplate--><polygon fill="#FFFFFF" filter="url(#f1o7cz6mwh45rq)" points="353,127,869,127,876,149.4883,1130,149.4883,1130,236,353,236,353,127" style="stroke: #000000; stroke-width: 1.5;"/><line style="stroke: #000000; stroke-width: 1.5;" x1="353" x2="876" y1="149.4883" y2="149.4883"/><text fill="#000000" font-family="sans-serif" font-size="14" font-weight="bold" lengthAdjust="spacingAndGlyphs" textLength="510" x="357" y="142.5352">it.tidalwave.northernwind.frontend.ui.component.sitemap.htmltemplate</text><!--MD5=[e5a41c449c1a068d941fa2cbecca88be]
cluster it.tidalwave.northernwind.frontend.ui.component.htmlfragment.htmltemplate--><polygon fill="#FFFFFF" filter="url(#f1o7cz6mwh45rq)" points="16,12.5,574,12.5,581,34.9883,584,34.9883,584,95.5,16,95.5,16,12.5" style="stroke: #000000; stroke-width: 1.5;"/><line style="stroke: #000000; stroke-width: 1.5;" x1="16" x2="581" y1="34.9883" y2="34.9883"/><text fill="#000000" font-family="sans-serif" font-size="14" font-weight="bold" lengthAdjust="spacingAndGlyphs" textLength="552" x="20" y="28.0352">it.tidalwave.northernwind.frontend.ui.component.htmlfragment.htmltemplate</text><!--MD5=[dce02d2b6f6613ce4afc827625ab322a]
cluster it.tidalwave.northernwind.frontend.ui.component.sitemap--><polygon fill="#FFFFFF" filter="url(#f1o7cz6mwh45rq)" points="597,6,1012,6,1019,28.4883,1022,28.4883,1022,102,597,102,597,6" style="stroke: #000000; stroke-width: 1.5;"/><line style="stroke: #000000; stroke-width: 1.5;" x1="597" x2="1019" y1="28.4883" y2="28.4883"/><text fill="#000000" font-family="sans-serif" font-size="14" font-weight="bold" lengthAdjust="spacingAndGlyphs" textLength="409" x="601" y="21.5352">it.tidalwave.northernwind.frontend.ui.component.sitemap</text><!--MD5=[730cdd4526df2d9e40fa05acbdbdcd5d]
class it.tidalwave.northernwind.frontend.ui.component.sitemap.htmltemplate.HtmlTemplateSitemapView--><a href="HtmlTemplateSitemapView.html" target="_top" title="HtmlTemplateSitemapView.html" xlink:actuate="onRequest" xlink:href="HtmlTemplateSitemapView.html" xlink:show="new" xlink:title="HtmlTemplateSitemapView.html" xlink:type="simple"><rect codeLine="3" fill="#FEFECE" filter="url(#f1o7cz6mwh45rq)" height="73.9102" id="it.tidalwave.northernwind.frontend.ui.component.sitemap.htmltemplate.HtmlTemplateSitemapView" style="stroke: #A80036; stroke-width: 1.5;" width="304" x="361" y="154"/><ellipse cx="431.25" cy="170" fill="#ADD1B2" rx="11" ry="11" style="stroke: #A80036; stroke-width: 1.0;"/><path d="M433.7231,176.1431 Q433.1421,176.4419 432.5029,176.5913 Q431.8638,176.7407 431.1582,176.7407 Q428.6514,176.7407 427.3315,175.0889 Q426.0117,173.437 426.0117,170.3159 Q426.0117,167.1865 427.3315,165.5347 Q428.6514,163.8828 431.1582,163.8828 Q431.8638,163.8828 432.5112,164.0322 Q433.1587,164.1816 433.7231,164.4805 L433.7231,167.2031 Q433.0923,166.6221 432.4988,166.3523 Q431.9053,166.0825 431.2744,166.0825 Q429.9297,166.0825 429.2449,167.1492 Q428.5601,168.2158 428.5601,170.3159 Q428.5601,172.4077 429.2449,173.4744 Q429.9297,174.541 431.2744,174.541 Q431.9053,174.541 432.4988,174.2712 Q433.0923,174.0015 433.7231,173.4204 Z "/><text fill="#000000" font-family="sans-serif" font-size="12" lengthAdjust="spacingAndGlyphs" textLength="155" x="451.75" y="174.5352">HtmlTemplateSitemapView</text><line style="stroke: #A80036; stroke-width: 1.5;" x1="362" x2="664" y1="186" y2="186"/><line style="stroke: #A80036; stroke-width: 1.5;" x1="362" x2="664" y1="194" y2="194"/><ellipse cx="372" cy="205" fill="#84BE84" rx="3" ry="3" style="stroke: #038048; stroke-width: 1.0;"/><text fill="#000000" font-family="sans-serif" font-size="11" lengthAdjust="spacingAndGlyphs" textLength="183" x="381" y="208.6348">HtmlTemplateSitemapView(Id, Site)</text><ellipse cx="372" cy="217.9551" fill="#84BE84" rx="3" ry="3" style="stroke: #038048; stroke-width: 1.0;"/><text fill="#000000" font-family="sans-serif" font-size="11" lengthAdjust="spacingAndGlyphs" textLength="278" x="381" y="221.5898">render(Optional&lt;ResourcePath&gt;, Aggregates): void</text></a><!--MD5=[543698cae32377b6e965da808171d7a6]
class it.tidalwave.northernwind.frontend.ui.component.sitemap.htmltemplate.HtmlTemplateSitemapViewController--><a href="HtmlTemplateSitemapViewController.html" target="_top" title="HtmlTemplateSitemapViewController.html" xlink:actuate="onRequest" xlink:href="HtmlTemplateSitemapViewController.html" xlink:show="new" xlink:title="HtmlTemplateSitemapViewController.html" xlink:type="simple"><rect codeLine="8" fill="#FEFECE" filter="url(#f1o7cz6mwh45rq)" height="73.9102" id="it.tidalwave.northernwind.frontend.ui.component.sitemap.htmltemplate.HtmlTemplateSitemapViewController" style="stroke: #A80036; stroke-width: 1.5;" width="422" x="700" y="154"/><ellipse cx="801.25" cy="170" fill="#ADD1B2" rx="11" ry="11" style="stroke: #A80036; stroke-width: 1.0;"/><path d="M803.7231,176.1431 Q803.1421,176.4419 802.5029,176.5913 Q801.8638,176.7407 801.1582,176.7407 Q798.6514,176.7407 797.3315,175.0889 Q796.0117,173.437 796.0117,170.3159 Q796.0117,167.1865 797.3315,165.5347 Q798.6514,163.8828 801.1582,163.8828 Q801.8638,163.8828 802.5112,164.0322 Q803.1587,164.1816 803.7231,164.4805 L803.7231,167.2031 Q803.0923,166.6221 802.4988,166.3523 Q801.9053,166.0825 801.2744,166.0825 Q799.9297,166.0825 799.2449,167.1492 Q798.5601,168.2158 798.5601,170.3159 Q798.5601,172.4077 799.2449,173.4744 Q799.9297,174.541 801.2744,174.541 Q801.9053,174.541 802.4988,174.2712 Q803.0923,174.0015 803.7231,173.4204 Z "/><text fill="#000000" font-family="sans-serif" font-size="12" lengthAdjust="spacingAndGlyphs" textLength="211" x="821.75" y="174.5352">HtmlTemplateSitemapViewController</text><line style="stroke: #A80036; stroke-width: 1.5;" x1="701" x2="1121" y1="186" y2="186"/><line style="stroke: #A80036; stroke-width: 1.5;" x1="701" x2="1121" y1="194" y2="194"/><ellipse cx="711" cy="205" fill="#84BE84" rx="3" ry="3" style="stroke: #038048; stroke-width: 1.0;"/><text fill="#000000" font-family="sans-serif" font-size="11" lengthAdjust="spacingAndGlyphs" textLength="396" x="720" y="208.6348">HtmlTemplateSitemapViewController(SiteNode, HtmlTemplateSitemapView)</text><polygon fill="#FFFF44" points="711,212.9551,715,216.9551,711,220.9551,707,216.9551" style="stroke: #B38D22; stroke-width: 1.0;"/><text fill="#000000" font-family="sans-serif" font-size="11" lengthAdjust="spacingAndGlyphs" textLength="135" x="720" y="221.5898">render(Set&lt;Entry&gt;): void</text></a><!--MD5=[29faf4ef4f5626ea036e882b9bdb2503]
class it.tidalwave.northernwind.frontend.ui.component.htmlfragment.htmltemplate.HtmlTemplateHtmlFragmentView--><a href="../../htmlfragment/htmltemplate/HtmlTemplateHtmlFragmentView.html" target="_top" title="../../htmlfragment/htmltemplate/HtmlTemplateHtmlFragmentView.html" xlink:actuate="onRequest" xlink:href="../../htmlfragment/htmltemplate/HtmlTemplateHtmlFragmentView.html" xlink:show="new" xlink:title="../../htmlfragment/htmltemplate/HtmlTemplateHtmlFragmentView.html" xlink:type="simple"><rect codeLine="19" fill="#FEFECE" filter="url(#f1o7cz6mwh45rq)" height="48" id="it.tidalwave.northernwind.frontend.ui.component.htmlfragment.htmltemplate.HtmlTemplateHtmlFragmentView" style="stroke: #A80036; stroke-width: 1.5;" width="222" x="351" y="39.5"/><ellipse cx="366" cy="55.5" fill="#ADD1B2" rx="11" ry="11" style="stroke: #A80036; stroke-width: 1.0;"/><path d="M368.4731,61.6431 Q367.8921,61.9419 367.2529,62.0913 Q366.6138,62.2407 365.9082,62.2407 Q363.4014,62.2407 362.0815,60.5889 Q360.7617,58.937 360.7617,55.8159 Q360.7617,52.6865 362.0815,51.0347 Q363.4014,49.3828 365.9082,49.3828 Q366.6138,49.3828 367.2612,49.5322 Q367.9087,49.6816 368.4731,49.9805 L368.4731,52.7031 Q367.8423,52.1221 367.2488,51.8523 Q366.6553,51.5825 366.0244,51.5825 Q364.6797,51.5825 363.9949,52.6492 Q363.3101,53.7158 363.3101,55.8159 Q363.3101,57.9077 363.9949,58.9744 Q364.6797,60.041 366.0244,60.041 Q366.6553,60.041 367.2488,59.7712 Q367.8423,59.5015 368.4731,58.9204 Z "/><text fill="#000000" font-family="sans-serif" font-size="12" lengthAdjust="spacingAndGlyphs" textLength="190" x="380" y="60.0352">HtmlTemplateHtmlFragmentView</text><line style="stroke: #A80036; stroke-width: 1.5;" x1="352" x2="572" y1="71.5" y2="71.5"/><line style="stroke: #A80036; stroke-width: 1.5;" x1="352" x2="572" y1="79.5" y2="79.5"/></a><!--MD5=[f23882aec8107381a6349adbf80ad778]
class it.tidalwave.northernwind.frontend.ui.component.sitemap.SitemapView--><a href="http://tidalwave.tidalwave.it/northernwind/it-tidalwave-northernwind-modules/it-tidalwave-northernwind-frontend-components/apidocs/it/tidalwave/northernwind/frontend/ui/component/sitemap/SitemapView.html?is-external=true" target="_top" title="http://tidalwave.tidalwave.it/northernwind/it-tidalwave-northernwind-modules/it-tidalwave-northernwind-frontend-components/apidocs/it/tidalwave/northernwind/frontend/ui/component/sitemap/SitemapView.html?is-external=true" xlink:actuate="onRequest" xlink:href="http://tidalwave.tidalwave.it/northernwind/it-tidalwave-northernwind-modules/it-tidalwave-northernwind-frontend-components/apidocs/it/tidalwave/northernwind/frontend/ui/component/sitemap/SitemapView.html?is-external=true" xlink:show="new" xlink:title="http://tidalwave.tidalwave.it/northernwind/it-tidalwave-northernwind-modules/it-tidalwave-northernwind-frontend-components/apidocs/it/tidalwave/northernwind/frontend/ui/component/sitemap/SitemapView.html?is-external=true" xlink:type="simple"><rect codeLine="24" fill="#FEFECE" filter="url(#f1o7cz6mwh45rq)" height="60.9551" id="it.tidalwave.northernwind.frontend.ui.component.sitemap.SitemapView" style="stroke: #A80036; stroke-width: 1.5;" width="165" x="608.5" y="33"/><ellipse cx="650.5" cy="49" fill="#B4A7E5" rx="11" ry="11" style="stroke: #A80036; stroke-width: 1.0;"/><path d="M646.9277,45.2651 L646.9277,43.1069 L654.3071,43.1069 L654.3071,45.2651 L651.8418,45.2651 L651.8418,53.3418 L654.3071,53.3418 L654.3071,55.5 L646.9277,55.5 L646.9277,53.3418 L649.3931,53.3418 L649.3931,45.2651 Z "/><text fill="#000000" font-family="sans-serif" font-size="12" font-style="italic" lengthAdjust="spacingAndGlyphs" textLength="73" x="670.5" y="53.5352">SitemapView</text><line style="stroke: #A80036; stroke-width: 1.5;" x1="609.5" x2="772.5" y1="65" y2="65"/><line style="stroke: #A80036; stroke-width: 1.5;" x1="609.5" x2="772.5" y1="73" y2="73"/><ellipse cx="619.5" cy="84" fill="#84BE84" rx="3" ry="3" style="stroke: #038048; stroke-width: 1.0;"/><text fill="#000000" font-family="sans-serif" font-size="11" font-style="italic" lengthAdjust="spacingAndGlyphs" textLength="139" x="628.5" y="87.6348">setMimeType(String): void</text></a><!--MD5=[103ed2cc93e2b7652679577292c97827]
class it.tidalwave.northernwind.frontend.ui.component.sitemap.DefaultSitemapViewController--><a href="http://tidalwave.tidalwave.it/northernwind/it-tidalwave-northernwind-modules/it-tidalwave-northernwind-frontend-components/apidocs/it/tidalwave/northernwind/frontend/ui/component/sitemap/DefaultSitemapViewController.html?is-external=true" target="_top" title="http://tidalwave.tidalwave.it/northernwind/it-tidalwave-northernwind-modules/it-tidalwave-northernwind-frontend-components/apidocs/it/tidalwave/northernwind/frontend/ui/component/sitemap/DefaultSitemapViewController.html?is-external=true" xlink:actuate="onRequest" xlink:href="http://tidalwave.tidalwave.it/northernwind/it-tidalwave-northernwind-modules/it-tidalwave-northernwind-frontend-components/apidocs/it/tidalwave/northernwind/frontend/ui/component/sitemap/DefaultSitemapViewController.html?is-external=true" xlink:show="new" xlink:title="http://tidalwave.tidalwave.it/northernwind/it-tidalwave-northernwind-modules/it-tidalwave-northernwind-frontend-components/apidocs/it/tidalwave/northernwind/frontend/ui/component/sitemap/DefaultSitemapViewController.html?is-external=true" xlink:type="simple"><rect codeLine="27" fill="#FEFECE" filter="url(#f1o7cz6mwh45rq)" height="60.9551" id="it.tidalwave.northernwind.frontend.ui.component.sitemap.DefaultSitemapViewController" style="stroke: #A80036; stroke-width: 1.5;" width="202" x="810" y="33"/><ellipse cx="825" cy="49" fill="#A9DCDF" rx="11" ry="11" style="stroke: #A80036; stroke-width: 1.0;"/><path d="M824.8633,44.3481 L823.7095,49.4199 L826.0254,49.4199 Z M823.3691,42.1069 L826.3657,42.1069 L829.7109,54.5 L827.2622,54.5 L826.4985,51.437 L823.2197,51.437 L822.4727,54.5 L820.0239,54.5 Z "/><text fill="#000000" font-family="sans-serif" font-size="12" font-style="italic" lengthAdjust="spacingAndGlyphs" textLength="170" x="839" y="53.5352">DefaultSitemapViewController</text><line style="stroke: #A80036; stroke-width: 1.5;" x1="811" x2="1011" y1="65" y2="65"/><line style="stroke: #A80036; stroke-width: 1.5;" x1="811" x2="1011" y1="73" y2="73"/><polygon fill="#FFFF44" points="821,79,825,83,821,87,817,83" style="stroke: #B38D22; stroke-width: 1.0;"/><text fill="#000000" font-family="sans-serif" font-size="11" font-style="italic" lengthAdjust="spacingAndGlyphs" textLength="135" x="830" y="87.6348">render(Set&lt;Entry&gt;): void</text></a><!--MD5=[a757846bfd0c83f072a35fae1e457515]
reverse link it.tidalwave.northernwind.frontend.ui.component.htmlfragment.htmltemplate.HtmlTemplateHtmlFragmentView to it.tidalwave.northernwind.frontend.ui.component.sitemap.htmltemplate.HtmlTemplateSitemapView--><path codeLine="13" d="M479.2171,106.5427 C485.3442,121.8606 492.1872,138.9679 498.1035,153.7589 " fill="none" id="it.tidalwave.northernwind.frontend.ui.component.htmlfragment.htmltemplate.HtmlTemplateHtmlFragmentView-backto-it.tidalwave.northernwind.frontend.ui.component.sitemap.htmltemplate.HtmlTemplateSitemapView" style="stroke: #A80036; stroke-width: 1.0;"/><polygon fill="none" points="472.6413,108.9512,471.7128,87.7819,485.64,103.7517,472.6413,108.9512" style="stroke: #A80036; stroke-width: 1.0;"/><!--MD5=[1a11ba47487327e791c6b404019768b0]
reverse link it.tidalwave.northernwind.frontend.ui.component.sitemap.SitemapView to it.tidalwave.northernwind.frontend.ui.component.sitemap.htmltemplate.HtmlTemplateSitemapView--><path codeLine="14" d="M632.0087,105.755 C610.2829,121.317 585.8551,138.8144 564.8101,153.8888 " fill="none" id="it.tidalwave.northernwind.frontend.ui.component.sitemap.SitemapView-backto-it.tidalwave.northernwind.frontend.ui.component.sitemap.htmltemplate.HtmlTemplateSitemapView" style="stroke: #A80036; stroke-width: 1.0; stroke-dasharray: 7.0,7.0;"/><polygon fill="none" points="628.0291,99.9951,648.3646,94.0394,636.1816,111.3766,628.0291,99.9951" style="stroke: #A80036; stroke-width: 1.0;"/><!--MD5=[08e1f3a209aa1037cf724aa162f886fe]
reverse link it.tidalwave.northernwind.frontend.ui.component.sitemap.DefaultSitemapViewController to it.tidalwave.northernwind.frontend.ui.component.sitemap.htmltemplate.HtmlTemplateSitemapViewController--><path codeLine="15" d="M911,114.4308 C911,127.6149 911,141.562 911,153.8888 " fill="none" id="it.tidalwave.northernwind.frontend.ui.component.sitemap.DefaultSitemapViewController-backto-it.tidalwave.northernwind.frontend.ui.component.sitemap.htmltemplate.HtmlTemplateSitemapViewController" style="stroke: #A80036; stroke-width: 1.0;"/><polygon fill="none" points="904.0001,114.0395,911,94.0394,918.0001,114.0394,904.0001,114.0395" style="stroke: #A80036; stroke-width: 1.0;"/><text fill="#888888" font-family="sans-serif" font-size="10" lengthAdjust="spacingAndGlyphs" textLength="188" x="473" y="251.668">UMLDoclet 2.0.12, PlantUML 1.2020.16</text><!--MD5=[5148e2531d83f3148d62d0155a35029f]
@startuml
    namespace it.tidalwave.northernwind.frontend.ui.component.sitemap.htmltemplate {

        class HtmlTemplateSitemapView [[HtmlTemplateSitemapView.html]] {
            +HtmlTemplateSitemapView(Id, Site)
            +render(Optional<ResourcePath>, Aggregates): void
        }

        class HtmlTemplateSitemapViewController [[HtmlTemplateSitemapViewController.html]] {
            +HtmlTemplateSitemapViewController(SiteNode, HtmlTemplateSitemapView)
            #render(Set<Entry>): void
        }

        it.tidalwave.northernwind.frontend.ui.component.htmlfragment.htmltemplate.HtmlTemplateHtmlFragmentView <|- - HtmlTemplateSitemapView
        it.tidalwave.northernwind.frontend.ui.component.sitemap.SitemapView <|.. HtmlTemplateSitemapView
        it.tidalwave.northernwind.frontend.ui.component.sitemap.DefaultSitemapViewController <|- - HtmlTemplateSitemapViewController
    }

    namespace it.tidalwave.northernwind.frontend.ui.component.htmlfragment.htmltemplate {
        class HtmlTemplateHtmlFragmentView [[../../htmlfragment/htmltemplate/HtmlTemplateHtmlFragmentView.html]] {
        }
    }

    namespace it.tidalwave.northernwind.frontend.ui.component.sitemap {
        interface SitemapView [[http://tidalwave.tidalwave.it/northernwind/it-tidalwave-northernwind-modules/it-tidalwave-northernwind-frontend-components/apidocs/it/tidalwave/northernwind/frontend/ui/component/sitemap/SitemapView.html?is-external=true]] {
            {abstract} +setMimeType(String): void
        }
        abstract class DefaultSitemapViewController [[http://tidalwave.tidalwave.it/northernwind/it-tidalwave-northernwind-modules/it-tidalwave-northernwind-frontend-components/apidocs/it/tidalwave/northernwind/frontend/ui/component/sitemap/DefaultSitemapViewController.html?is-external=true]] {
            {abstract} #render(Set<Entry>): void
        }
    }

    center footer UMLDoclet 2.0.12, PlantUML 1.2020.16
@enduml

PlantUML version 1.2020.16(Sun Aug 23 22:20:43 CEST 2020)
(APACHE source distribution)
Java Runtime: OpenJDK Runtime Environment
JVM: OpenJDK 64-Bit Server VM
Default Encoding: UTF-8
Language: en
Country: GB
--></g></svg>