@startuml
    set namespaceSeparator none
    hide empty fields
    hide empty methods

    class "<size:14>DefaultMetadataCacheTest\n<size:10>it.tidalwave.northernwind.frontend.media.impl" as it.tidalwave.northernwind.frontend.media.impl.DefaultMetadataCacheTest [[DefaultMetadataCacheTest.html]] {
        +setup(): void
        +must_correctly_load_metadata_when_not_in_cache(): void
        +must_cache_the_same_instance_within_expiration_time_without_checking_for_file_modification(): void
        +must_check_file_modification_after_expiration_time_and_still_keep_in_cache_when_no_modifications(): void
        +must_reload_metadata_after_expiration_time_when_file_has_been_changed(): void
    }

    center footer UMLDoclet 2.0.12, PlantUML 1.2020.16
@enduml
