<?xml version="1.0" encoding="UTF-8" standalone="no"?><svg xmlns="http://www.w3.org/2000/svg" xmlns:xlink="http://www.w3.org/1999/xlink" contentScriptType="application/ecmascript" contentStyleType="text/css" height="213px" preserveAspectRatio="none" style="width:278px;height:213px;" version="1.1" viewBox="0 0 278 213" width="278px" zoomAndPan="magnify"><defs><filter height="300%" id="f1rycg308a4tm6" width="300%" x="-1" y="-1"><feGaussianBlur result="blurOut" stdDeviation="2.0"/><feColorMatrix in="blurOut" result="blurOut2" type="matrix" values="0 0 0 0 0 0 0 0 0 0 0 0 0 0 0 0 0 0 .4 0"/><feOffset dx="4.0" dy="4.0" in="blurOut2" result="blurOut3"/><feBlend in="SourceGraphic" in2="blurOut3" mode="normal"/></filter></defs><g><!--MD5=[78c75a147f8538faea7ebba15368981f]
class it.tidalwave.util.spi.FinderSupportTest--><a href="FinderSupportTest.html" target="_top" title="FinderSupportTest.html" xlink:actuate="onRequest" xlink:href="FinderSupportTest.html" xlink:show="new" xlink:title="FinderSupportTest.html" xlink:type="simple"><rect codeLine="5" fill="#FEFECE" filter="url(#f1rycg308a4tm6)" height="72.1758" id="it.tidalwave.util.spi.FinderSupportTest" style="stroke: #A80036; stroke-width: 1.5;" width="252" x="7" y="7"/><ellipse cx="64.75" cy="26.1328" fill="#ADD1B2" rx="11" ry="11" style="stroke: #A80036; stroke-width: 1.0;"/><path d="M67.2231,32.2759 Q66.6421,32.5747 66.0029,32.7241 Q65.3638,32.8735 64.6582,32.8735 Q62.1514,32.8735 60.8315,31.2217 Q59.5117,29.5698 59.5117,26.4487 Q59.5117,23.3193 60.8315,21.6675 Q62.1514,20.0156 64.6582,20.0156 Q65.3638,20.0156 66.0112,20.165 Q66.6587,20.3145 67.2231,20.6133 L67.2231,23.3359 Q66.5923,22.7549 65.9988,22.4851 Q65.4053,22.2153 64.7744,22.2153 Q63.4297,22.2153 62.7449,23.282 Q62.0601,24.3486 62.0601,26.4487 Q62.0601,28.5405 62.7449,29.6072 Q63.4297,30.6738 64.7744,30.6738 Q65.4053,30.6738 65.9988,30.4041 Q66.5923,30.1343 67.2231,29.5532 Z "/><text fill="#000000" font-family="sans-serif" font-size="14" lengthAdjust="spacingAndGlyphs" textLength="128" x="85.25" y="25.5352">FinderSupportTest</text><text fill="#000000" font-family="sans-serif" font-size="10" lengthAdjust="spacingAndGlyphs" textLength="93" x="102.75" y="38.1563">it.tidalwave.util.spi</text><line style="stroke: #A80036; stroke-width: 1.5;" x1="8" x2="258" y1="45.2656" y2="45.2656"/><ellipse cx="18" cy="56.2656" fill="#84BE84" rx="3" ry="3" style="stroke: #038048; stroke-width: 1.0;"/><text fill="#000000" font-family="sans-serif" font-size="11" lengthAdjust="spacingAndGlyphs" textLength="226" x="27" y="59.9004">fix_for_THESEFOOLISHTHINGS_172(): void</text><ellipse cx="18" cy="69.2207" fill="#84BE84" rx="3" ry="3" style="stroke: #038048; stroke-width: 1.0;"/><text fill="#000000" font-family="sans-serif" font-size="11" lengthAdjust="spacingAndGlyphs" textLength="226" x="27" y="72.8555">fix_for_THESEFOOLISHTHINGS_176(): void</text></a><!--MD5=[0c860fd1a86c866a96a131f2794bd192]
class it.tidalwave.util.spi.FinderSupportTest.UnderTest--><a href="FinderSupportTest.UnderTest.html" target="_top" title="FinderSupportTest.UnderTest.html" xlink:actuate="onRequest" xlink:href="FinderSupportTest.UnderTest.html" xlink:show="new" xlink:title="FinderSupportTest.UnderTest.html" xlink:type="simple"><rect codeLine="9" fill="#FEFECE" filter="url(#f1rycg308a4tm6)" height="38.2656" id="it.tidalwave.util.spi.FinderSupportTest.UnderTest" style="stroke: #A80036; stroke-width: 1.5;" width="235" x="15.5" y="139"/><ellipse cx="30.5" cy="158.1328" fill="#ADD1B2" rx="11" ry="11" style="stroke: #A80036; stroke-width: 1.0;"/><path d="M32.9731,164.2759 Q32.3921,164.5747 31.7529,164.7241 Q31.1138,164.8735 30.4082,164.8735 Q27.9014,164.8735 26.5815,163.2217 Q25.2617,161.5698 25.2617,158.4487 Q25.2617,155.3193 26.5815,153.6675 Q27.9014,152.0156 30.4082,152.0156 Q31.1138,152.0156 31.7612,152.165 Q32.4087,152.3145 32.9731,152.6133 L32.9731,155.3359 Q32.3423,154.7549 31.7488,154.4851 Q31.1553,154.2153 30.5244,154.2153 Q29.1797,154.2153 28.4949,155.282 Q27.8101,156.3486 27.8101,158.4487 Q27.8101,160.5405 28.4949,161.6072 Q29.1797,162.6738 30.5244,162.6738 Q31.1553,162.6738 31.7488,162.4041 Q32.3423,162.1343 32.9731,161.5532 Z "/><text fill="#000000" font-family="sans-serif" font-size="14" lengthAdjust="spacingAndGlyphs" textLength="203" x="44.5" y="157.5352">FinderSupportTest.UnderTest</text><text fill="#000000" font-family="sans-serif" font-size="10" lengthAdjust="spacingAndGlyphs" textLength="93" x="99.5" y="170.1563">it.tidalwave.util.spi</text></a><!--MD5=[53d634173a04be8cb3f92b2f5d150d4c]
reverse link it.tidalwave.util.spi.FinderSupportTest to it.tidalwave.util.spi.FinderSupportTest.UnderTest--><path codeLine="11" d="M133,94.4527 C133,110.2168 133,126.5939 133,138.7739 " fill="none" id="it.tidalwave.util.spi.FinderSupportTest-backto-it.tidalwave.util.spi.FinderSupportTest.UnderTest" style="stroke: #A80036; stroke-width: 1.0;"/><ellipse cx="133" cy="87.0712" fill="#FFFFFF" rx="8" ry="8" style="stroke: #A80036; stroke-width: 1.0;"/><line style="stroke: #A80036; stroke-width: 1.0;" x1="133" x2="133" y1="95.0712" y2="79.0712"/><line style="stroke: #A80036; stroke-width: 1.0;" x1="125" x2="141" y1="87.0712" y2="87.0712"/><text fill="#888888" font-family="sans-serif" font-size="10" lengthAdjust="spacingAndGlyphs" textLength="188" x="36" y="199.9336">UMLDoclet 2.0.12, PlantUML 1.2020.16</text><!--MD5=[4244261d8f52ede448201ac8ecbf05bf]
@startuml
    set namespaceSeparator none
    hide empty fields
    hide empty methods

    class "<size:14>FinderSupportTest\n<size:10>it.tidalwave.util.spi" as it.tidalwave.util.spi.FinderSupportTest [[FinderSupportTest.html]] {
        +fix_for_THESEFOOLISHTHINGS_172(): void
        +fix_for_THESEFOOLISHTHINGS_176(): void
    }
    class "<size:14>FinderSupportTest.UnderTest\n<size:10>it.tidalwave.util.spi" as it.tidalwave.util.spi.FinderSupportTest.UnderTest [[FinderSupportTest.UnderTest.html]]

    it.tidalwave.util.spi.FinderSupportTest +- - it.tidalwave.util.spi.FinderSupportTest.UnderTest

    center footer UMLDoclet 2.0.12, PlantUML 1.2020.16
@enduml

PlantUML version 1.2020.16(Sun Aug 23 22:20:43 CEST 2020)
(APACHE source distribution)
Java Runtime: OpenJDK Runtime Environment
JVM: OpenJDK 64-Bit Server VM
Default Encoding: UTF-8
Language: en
Country: GB
--></g></svg>