<?xml version="1.0" encoding="UTF-8" standalone="no"?><svg xmlns="http://www.w3.org/2000/svg" xmlns:xlink="http://www.w3.org/1999/xlink" contentScriptType="application/ecmascript" contentStyleType="text/css" height="312px" preserveAspectRatio="none" style="width:289px;height:312px;" version="1.1" viewBox="0 0 289 312" width="289px" zoomAndPan="magnify"><defs><filter height="300%" id="f8dq4uu8fva7m" width="300%" x="-1" y="-1"><feGaussianBlur result="blurOut" stdDeviation="2.0"/><feColorMatrix in="blurOut" result="blurOut2" type="matrix" values="0 0 0 0 0 0 0 0 0 0 0 0 0 0 0 0 0 0 .4 0"/><feOffset dx="4.0" dy="4.0" in="blurOut2" result="blurOut3"/><feBlend in="SourceGraphic" in2="blurOut3" mode="normal"/></filter></defs><g><!--MD5=[469158ad8ffc2dc5de2c3b64a9289a69]
class it.tidalwave.actor.spi.ActorActivatorStats--><a href="ActorActivatorStats.html" target="_top" title="ActorActivatorStats.html" xlink:actuate="onRequest" xlink:href="ActorActivatorStats.html" xlink:show="new" xlink:title="ActorActivatorStats.html" xlink:type="simple"><rect codeLine="5" fill="#FEFECE" filter="url(#f8dq4uu8fva7m)" height="98.0859" id="it.tidalwave.actor.spi.ActorActivatorStats" style="stroke: #A80036; stroke-width: 1.5;" width="263" x="7" y="178"/><ellipse cx="68.75" cy="197.1328" fill="#ADD1B2" rx="11" ry="11" style="stroke: #A80036; stroke-width: 1.0;"/><path d="M71.2231,203.2759 Q70.6421,203.5747 70.0029,203.7241 Q69.3638,203.8735 68.6582,203.8735 Q66.1514,203.8735 64.8315,202.2217 Q63.5117,200.5698 63.5117,197.4487 Q63.5117,194.3193 64.8315,192.6675 Q66.1514,191.0156 68.6582,191.0156 Q69.3638,191.0156 70.0112,191.165 Q70.6587,191.3145 71.2231,191.6133 L71.2231,194.3359 Q70.5923,193.7549 69.9988,193.4851 Q69.4053,193.2153 68.7744,193.2153 Q67.4297,193.2153 66.7449,194.282 Q66.0601,195.3486 66.0601,197.4487 Q66.0601,199.5405 66.7449,200.6072 Q67.4297,201.6738 68.7744,201.6738 Q69.4053,201.6738 69.9988,201.4041 Q70.5923,201.1343 71.2231,200.5532 Z "/><text fill="#000000" font-family="sans-serif" font-size="14" lengthAdjust="spacingAndGlyphs" textLength="131" x="89.25" y="196.5352">ActorActivatorStats</text><text fill="#000000" font-family="sans-serif" font-size="10" lengthAdjust="spacingAndGlyphs" textLength="102" x="103.75" y="209.1563">it.tidalwave.actor.spi</text><line style="stroke: #A80036; stroke-width: 1.5;" x1="8" x2="269" y1="216.2656" y2="216.2656"/><ellipse cx="18" cy="227.2656" fill="#84BE84" rx="3" ry="3" style="stroke: #038048; stroke-width: 1.0;"/><text fill="#000000" font-family="sans-serif" font-size="11" lengthAdjust="spacingAndGlyphs" textLength="212" x="27" y="230.9004">changePendingMessageCount(int): void</text><ellipse cx="18" cy="240.2207" fill="#84BE84" rx="3" ry="3" style="stroke: #038048; stroke-width: 1.0;"/><text fill="#000000" font-family="sans-serif" font-size="11" lengthAdjust="spacingAndGlyphs" textLength="180" x="27" y="243.8555">incrementInvocationCount(): void</text><ellipse cx="18" cy="253.1758" fill="#84BE84" rx="3" ry="3" style="stroke: #038048; stroke-width: 1.0;"/><text fill="#000000" font-family="sans-serif" font-size="11" lengthAdjust="spacingAndGlyphs" textLength="208" x="27" y="256.8105">incrementInvocationErrorCount(): void</text><ellipse cx="18" cy="266.1309" fill="#84BE84" rx="3" ry="3" style="stroke: #038048; stroke-width: 1.0;"/><text fill="#000000" font-family="sans-serif" font-size="11" lengthAdjust="spacingAndGlyphs" textLength="237" x="27" y="269.7656">incrementSuccessfulInvocationCount(): void</text></a><!--MD5=[7d1bdda8d351fda88bea9020a6725597]
class it.tidalwave.actor.spi.ActorActivatorStatsMBean--><a href="ActorActivatorStatsMBean.html" target="_top" title="ActorActivatorStatsMBean.html" xlink:actuate="onRequest" xlink:href="ActorActivatorStatsMBean.html" xlink:show="new" xlink:title="ActorActivatorStatsMBean.html" xlink:type="simple"><rect codeLine="12" fill="#FEFECE" filter="url(#f8dq4uu8fva7m)" height="111.041" id="it.tidalwave.actor.spi.ActorActivatorStatsMBean" style="stroke: #A80036; stroke-width: 1.5;" width="211" x="33" y="7"/><ellipse cx="49.35" cy="26.1328" fill="#B4A7E5" rx="11" ry="11" style="stroke: #A80036; stroke-width: 1.0;"/><path d="M45.7777,22.3979 L45.7777,20.2397 L53.1571,20.2397 L53.1571,22.3979 L50.6918,22.3979 L50.6918,30.4746 L53.1571,30.4746 L53.1571,32.6328 L45.7777,32.6328 L45.7777,30.4746 L48.2431,30.4746 L48.2431,22.3979 Z "/><text fill="#000000" font-family="sans-serif" font-size="14" font-style="italic" lengthAdjust="spacingAndGlyphs" textLength="176" x="63.65" y="25.5352">ActorActivatorStatsMBean</text><text fill="#000000" font-family="sans-serif" font-size="10" font-style="italic" lengthAdjust="spacingAndGlyphs" textLength="102" x="100.65" y="38.1563">it.tidalwave.actor.spi</text><line style="stroke: #A80036; stroke-width: 1.5;" x1="34" x2="243" y1="45.2656" y2="45.2656"/><ellipse cx="44" cy="56.2656" fill="#84BE84" rx="3" ry="3" style="stroke: #038048; stroke-width: 1.0;"/><text fill="#000000" font-family="sans-serif" font-size="11" font-style="italic" lengthAdjust="spacingAndGlyphs" textLength="89" x="53" y="59.9004">getPoolSize(): int</text><ellipse cx="44" cy="69.2207" fill="#84BE84" rx="3" ry="3" style="stroke: #038048; stroke-width: 1.0;"/><text fill="#000000" font-family="sans-serif" font-size="11" font-style="italic" lengthAdjust="spacingAndGlyphs" textLength="167" x="53" y="72.8555">getPendingMessageCount(): int</text><ellipse cx="44" cy="82.1758" fill="#84BE84" rx="3" ry="3" style="stroke: #038048; stroke-width: 1.0;"/><text fill="#000000" font-family="sans-serif" font-size="11" font-style="italic" lengthAdjust="spacingAndGlyphs" textLength="134" x="53" y="85.8105">getInvocationCount(): int</text><ellipse cx="44" cy="95.1309" fill="#84BE84" rx="3" ry="3" style="stroke: #038048; stroke-width: 1.0;"/><text fill="#000000" font-family="sans-serif" font-size="11" font-style="italic" lengthAdjust="spacingAndGlyphs" textLength="185" x="53" y="98.7656">getSuccesfulInvocationCount(): int</text><ellipse cx="44" cy="108.0859" fill="#84BE84" rx="3" ry="3" style="stroke: #038048; stroke-width: 1.0;"/><text fill="#000000" font-family="sans-serif" font-size="11" font-style="italic" lengthAdjust="spacingAndGlyphs" textLength="162" x="53" y="111.7207">getInvocationErrorCount(): int</text></a><!--MD5=[94baf62fb573cf93c5ecf56ae87ff17a]
reverse link it.tidalwave.actor.spi.ActorActivatorStatsMBean to it.tidalwave.actor.spi.ActorActivatorStats--><path codeLine="20" d="M138.5,138.2884 C138.5,151.7727 138.5,165.49 138.5,177.9787 " fill="none" id="it.tidalwave.actor.spi.ActorActivatorStatsMBean-backto-it.tidalwave.actor.spi.ActorActivatorStats" style="stroke: #A80036; stroke-width: 1.0; stroke-dasharray: 7.0,7.0;"/><polygon fill="none" points="131.5001,138.1922,138.5,118.1922,145.5001,138.1922,131.5001,138.1922" style="stroke: #A80036; stroke-width: 1.0;"/><text fill="#888888" font-family="sans-serif" font-size="10" lengthAdjust="spacingAndGlyphs" textLength="188" x="41.5" y="298.7539">UMLDoclet 2.0.12, PlantUML 1.2020.16</text><!--MD5=[152718d63c87b981e4835bc00e8ee145]
@startuml
    set namespaceSeparator none
    hide empty fields
    hide empty methods

    class "<size:14>ActorActivatorStats\n<size:10>it.tidalwave.actor.spi" as it.tidalwave.actor.spi.ActorActivatorStats [[ActorActivatorStats.html]] {
        +changePendingMessageCount(int): void
        +incrementInvocationCount(): void
        +incrementInvocationErrorCount(): void
        +incrementSuccessfulInvocationCount(): void
    }

    interface "<size:14>ActorActivatorStatsMBean\n<size:10>it.tidalwave.actor.spi" as it.tidalwave.actor.spi.ActorActivatorStatsMBean [[ActorActivatorStatsMBean.html]] {
        {abstract} +getPoolSize(): int
        {abstract} +getPendingMessageCount(): int
        {abstract} +getInvocationCount(): int
        {abstract} +getSuccesfulInvocationCount(): int
        {abstract} +getInvocationErrorCount(): int
    }

    it.tidalwave.actor.spi.ActorActivatorStatsMBean <|.. it.tidalwave.actor.spi.ActorActivatorStats

    center footer UMLDoclet 2.0.12, PlantUML 1.2020.16
@enduml

PlantUML version 1.2020.16(Sun Aug 23 22:20:43 CEST 2020)
(APACHE source distribution)
Java Runtime: OpenJDK Runtime Environment
JVM: OpenJDK 64-Bit Server VM
Default Encoding: UTF-8
Language: en
Country: GB
--></g></svg>