@startuml
    set namespaceSeparator none
    hide empty fields
    hide empty methods

    class "<size:14>BluetteGalleryAdapter\n<size:10>it.tidalwave.northernwind.frontend.ui.component.gallery.htmltemplate.bluette" as it.tidalwave.northernwind.frontend.ui.component.gallery.htmltemplate.bluette.BluetteGalleryAdapter [[BluetteGalleryAdapter.html]] {
        +BluetteGalleryAdapter(SiteNode, GalleryView, ModelFactory)
        +getInlinedScript(): String
        +prepareCatalog(List<? extends GalleryItem>): void
        +prepareGallery(GalleryItem, List<? extends GalleryItem>): void
        +prepareFallbackGallery(GalleryItem, List<? extends GalleryItem>): void
        +prepareFallbackLightbox(List<? extends GalleryItem>): void
        +render(RenderContext): void
    }

    abstract class "<size:14>GalleryAdapterSupport\n<size:10>it.tidalwave.northernwind.frontend.ui.component.gallery.spi" as it.tidalwave.northernwind.frontend.ui.component.gallery.spi.GalleryAdapterSupport

    it.tidalwave.northernwind.frontend.ui.component.gallery.spi.GalleryAdapterSupport <|-- it.tidalwave.northernwind.frontend.ui.component.gallery.htmltemplate.bluette.BluetteGalleryAdapter

    center footer UMLDoclet 2.0.12, PlantUML 1.2020.16
@enduml
