@startuml
    set namespaceSeparator none
    hide empty fields
    hide empty methods

    interface "<size:14>PreferencesHandler\n<size:10>it.tidalwave.util" as it.tidalwave.util.PreferencesHandler [[PreferencesHandler.html]] {
        {static} +PROP_APP_NAME: String
        {static} +__INSTANCE: AtomicReference<PreferencesHandler>
        {abstract} +getAppFolder(): Path
        {abstract} +getLogFolder(): Path
        {static} +setAppName(String): void
        {static} +getInstance(): PreferencesHandler
    }

    center footer UMLDoclet 2.0.12, PlantUML 1.2020.16
@enduml
