<?xml version="1.0" encoding="UTF-8" standalone="no"?><svg xmlns="http://www.w3.org/2000/svg" xmlns:xlink="http://www.w3.org/1999/xlink" contentScriptType="application/ecmascript" contentStyleType="text/css" height="252px" preserveAspectRatio="none" style="width:563px;height:252px;" version="1.1" viewBox="0 0 563 252" width="563px" zoomAndPan="magnify"><defs><filter height="300%" id="f1wt03kqsxv8m0" width="300%" x="-1" y="-1"><feGaussianBlur result="blurOut" stdDeviation="2.0"/><feColorMatrix in="blurOut" result="blurOut2" type="matrix" values="0 0 0 0 0 0 0 0 0 0 0 0 0 0 0 0 0 0 .4 0"/><feOffset dx="4.0" dy="4.0" in="blurOut2" result="blurOut3"/><feBlend in="SourceGraphic" in2="blurOut3" mode="normal"/></filter></defs><g><!--MD5=[65bbf3f267939ba32ee9692aec9e9717]
class it.tidalwave.role.ui.spi.PresentationModelCollectors--><a href="PresentationModelCollectors.html" target="_top" title="PresentationModelCollectors.html" xlink:actuate="onRequest" xlink:href="PresentationModelCollectors.html" xlink:show="new" xlink:title="PresentationModelCollectors.html" xlink:type="simple"><rect codeLine="5" fill="#FEFECE" filter="url(#f1wt03kqsxv8m0)" height="108.8423" id="it.tidalwave.role.ui.spi.PresentationModelCollectors" style="stroke: #A80036; stroke-width: 1.5;" width="537" x="7" y="108"/><ellipse cx="180.75" cy="126.7988" fill="#ADD1B2" rx="11" ry="11" style="stroke: #A80036; stroke-width: 1.0;"/><path d="M178.6563,126.6426 Q178.6563,128.5176 179.2344,129.5332 Q179.8125,130.5332 180.9688,130.5332 Q182.3125,130.5332 182.9688,128.5176 L185.2344,128.9395 Q184.125,132.4707 180.9531,132.4707 Q178.6094,132.4707 177.3906,130.9863 Q176.1719,129.502 176.1719,126.6426 Q176.1719,120.9238 180.875,120.9238 Q182.4219,120.9238 183.4531,121.7363 Q184.5,122.5488 185,124.1582 L182.7344,124.7051 Q182.5,123.8301 182.0156,123.3457 Q181.5313,122.8457 180.9063,122.8457 Q178.6563,122.8457 178.6563,126.6426 Z "/><text fill="#000000" font-family="sans-serif" font-size="14" lengthAdjust="spacingAndGlyphs" textLength="181" x="201.25" y="126.1318">PresentationModelCollectors</text><text fill="#000000" font-family="sans-serif" font-size="10" lengthAdjust="spacingAndGlyphs" textLength="103" x="240.25" y="138.4785">it.tidalwave.role.ui.spi</text><line style="stroke: #A80036; stroke-width: 1.5;" x1="8" x2="543" y1="145.5977" y2="145.5977"/><ellipse cx="18" cy="156.5977" fill="#84BE84" rx="3" ry="3" style="stroke: #038048; stroke-width: 1.0;"/><text fill="#000000" font-family="sans-serif" font-size="11" lengthAdjust="spacingAndGlyphs" text-decoration="underline" textLength="386" x="27" y="159.9155">toCompositePresentationModel(Collection&lt;Object&gt;): PresentationModelCollectors</text><ellipse cx="18" cy="169.2466" fill="#84BE84" rx="3" ry="3" style="stroke: #038048; stroke-width: 1.0;"/><text fill="#000000" font-family="sans-serif" font-size="11" lengthAdjust="spacingAndGlyphs" text-decoration="underline" textLength="297" x="27" y="172.5645">toCompositePresentationModel(): PresentationModelCollectors</text><ellipse cx="18" cy="181.8955" fill="#84BE84" rx="3" ry="3" style="stroke: #038048; stroke-width: 1.0;"/><text fill="#000000" font-family="sans-serif" font-size="11" lengthAdjust="spacingAndGlyphs" text-decoration="underline" textLength="511" x="27" y="185.2134">toCompositePresentationModel(Iterable&lt;? extends As&gt;, Function&lt;? super As, Object&gt;): PresentationModel</text><ellipse cx="18" cy="194.5444" fill="#84BE84" rx="3" ry="3" style="stroke: #038048; stroke-width: 1.0;"/><text fill="#000000" font-family="sans-serif" font-size="11" lengthAdjust="spacingAndGlyphs" text-decoration="underline" textLength="361" x="27" y="197.8623">toCompositePresentationModel(Iterable&lt;T extends As&gt;): PresentationModel</text><ellipse cx="18" cy="207.1934" fill="#84BE84" rx="3" ry="3" style="stroke: #038048; stroke-width: 1.0;"/><text fill="#000000" font-family="sans-serif" font-size="11" lengthAdjust="spacingAndGlyphs" textLength="314" x="27" y="210.5112">finisher(): Function&lt;List&lt;PresentationModel&gt;, PresentationModel&gt;</text></a><!--MD5=[cebf357342aa9980ce31d312109acee8]
class it.tidalwave.util.spi.ArrayListCollectorSupport--><a href="https://tidalwave.bitbucket.io/thesefoolishthings/modules/it-tidalwave-util/apidocs/it/tidalwave/util/spi/ArrayListCollectorSupport.html?is-external=true" target="_top" title="https://tidalwave.bitbucket.io/thesefoolishthings/modules/it-tidalwave-util/apidocs/it/tidalwave/util/spi/ArrayListCollectorSupport.html?is-external=true" xlink:actuate="onRequest" xlink:href="https://tidalwave.bitbucket.io/thesefoolishthings/modules/it-tidalwave-util/apidocs/it/tidalwave/util/spi/ArrayListCollectorSupport.html?is-external=true" xlink:show="new" xlink:title="https://tidalwave.bitbucket.io/thesefoolishthings/modules/it-tidalwave-util/apidocs/it/tidalwave/util/spi/ArrayListCollectorSupport.html?is-external=true" xlink:type="simple"><rect codeLine="13" fill="#FEFECE" filter="url(#f1wt03kqsxv8m0)" height="37.5977" id="it.tidalwave.util.spi.ArrayListCollectorSupport" style="stroke: #A80036; stroke-width: 1.5;" width="408" x="71.5" y="10"/><ellipse cx="86.5" cy="28.7988" fill="#A9DCDF" rx="11" ry="11" style="stroke: #A80036; stroke-width: 1.0;"/><path d="M91.7031,33.2988 L89.2656,33.2988 L88.5,30.5645 L84.7188,30.5645 L83.9531,33.2988 L81.5,33.2988 L85.1719,22.0957 L88.0313,22.0957 L91.7031,33.2988 Z M86.6094,23.6113 Q86.5313,23.9551 86.3594,24.6582 Q86.1875,25.3457 85.2344,28.7207 L87.9844,28.7207 Q87.0156,25.2988 86.8438,24.627 Q86.6719,23.9551 86.6094,23.6113 Z "/><text fill="#000000" font-family="sans-serif" font-size="14" font-style="italic" lengthAdjust="spacingAndGlyphs" textLength="162" x="100.5" y="28.1318">ArrayListCollectorSupport</text><text fill="#000000" font-family="sans-serif" font-size="10" font-style="italic" lengthAdjust="spacingAndGlyphs" textLength="90" x="136.5" y="40.4785">it.tidalwave.util.spi</text><rect fill="#FFFFFF" height="15.7988" style="stroke: #000000; stroke-width: 1.0; stroke-dasharray: 2.0,2.0;" width="212" x="270.5" y="7"/><text fill="#000000" font-family="sans-serif" font-size="12" font-style="italic" lengthAdjust="spacingAndGlyphs" textLength="210" x="271.5" y="19.2559">PresentationModel, PresentationModel</text></a><!--MD5=[8d493224ac255f41b9d15f55e54dbfff]
reverse link it.tidalwave.util.spi.ArrayListCollectorSupport to it.tidalwave.role.ui.spi.PresentationModelCollectors--><path codeLine="15" d="M275.5,68.15 C275.5,80.58 275.5,94.62 275.5,107.96 " fill="none" id="it.tidalwave.util.spi.ArrayListCollectorSupport-backto-it.tidalwave.role.ui.spi.PresentationModelCollectors" style="stroke: #A80036; stroke-width: 1.0;"/><polygon fill="none" points="268.5,68.01,275.5,48.01,282.5,68.01,268.5,68.01" style="stroke: #A80036; stroke-width: 1.0;"/><text fill="#888888" font-family="sans-serif" font-size="10" lengthAdjust="spacingAndGlyphs" textLength="190" x="177.5" y="239.2222">UMLDoclet 2.0.12, PlantUML 1.2020.16</text><!--MD5=[8a972b7b901518d11d279f7cbe8dc515]
@startuml
    set namespaceSeparator none
    hide empty fields
    hide empty methods

    class "<size:14>PresentationModelCollectors\n<size:10>it.tidalwave.role.ui.spi" as it.tidalwave.role.ui.spi.PresentationModelCollectors [[PresentationModelCollectors.html]] {
        {static} +toCompositePresentationModel(Collection<Object>): PresentationModelCollectors
        {static} +toCompositePresentationModel(): PresentationModelCollectors
        {static} +toCompositePresentationModel(Iterable<? extends As>, Function<? super As, Object>): PresentationModel
        {static} +toCompositePresentationModel(Iterable<T extends As>): PresentationModel
        +finisher(): Function<List<PresentationModel>, PresentationModel>
    }

    abstract class "<size:14>ArrayListCollectorSupport\n<size:10>it.tidalwave.util.spi" as it.tidalwave.util.spi.ArrayListCollectorSupport<PresentationModel, PresentationModel> [[https://tidalwave.bitbucket.io/thesefoolishthings/modules/it-tidalwave-util/apidocs/it/tidalwave/util/spi/ArrayListCollectorSupport.html?is-external=true]]

    it.tidalwave.util.spi.ArrayListCollectorSupport <|- - it.tidalwave.role.ui.spi.PresentationModelCollectors

    center footer UMLDoclet 2.0.12, PlantUML 1.2020.16
@enduml

PlantUML version 1.2020.16(Sun Aug 23 22:20:43 CEST 2020)
(APACHE source distribution)
Java Runtime: OpenJDK Runtime Environment
JVM: OpenJDK 64-Bit Server VM
Default Encoding: UTF-8
Language: en
Country: US
--></g></svg>